{
  "ErrorFlag": false,
  "ErrorMessage": "Product Assets found 2",
  "AuthorizedSellingGroupsName": "Retail",
  "AllergenInformationSpecName": "",
  "AllergenRelevantProvidedFlag": false,
  "BrandName": "CAPRISUN",
  "BrandOwnerGLN": "0044710044602",
  "ConsumerUnitFlag": true,
  "CountryOfProduction": "USA",
  "CountryOfSale": "USA",
  "CrossDistributionChainStatusCode": "YD",
  "CrossDistributionChainStatusName": "",
  "CubicVolumeMR3": "0.001",
  "CubicVolumeFT3": "0.0359999984502792",
  "DeclaredNetContentUOMCode": "FO",
  "DeclaredNetContent": 0,
  "DisplayReadyPackagingIndicator": true,
  "eCommProductName": "Capri Sun Big Pouch Maui Cooler 11.2 fl oz. Spouted Pouch",
  "eCommProductFeature": "No artificial colors, flavors, or preservatives. Convenient, recloseable pouch.",
  "FirstAvailableShipDate": "1900-01-01T00:00:00",
  "FunctionalName": "SOFT DRINK-READY TO DRINK",
  "GeneralMktDescription": "A little more attitude. A little more swagger. But still the same juice drink you love. All that without the artificial colors, flavors, or preservatives.",
  "GlobalProductClassificationCode": "10000223",
  "GrocerySnackIndicatorName": "Grocery",
  "GrossWeight": 0,
  "GrossWeightLB": 0.782999992370605,
  "GrossWeightOZ": 12.5249996185303,
  "GTIN": "00087684005187",
  "GTINVariableWeight": false,
  "HeightMM": 225.425003051758,
  "HeightIN": 8.875,
  "MaximumStackingWeight": 0,
  "ID": 0,
  "IngredientInformationStatement": "INGREDIENTS: WATER; HIGH FRUCTOSE CORN SYRUP; APPLE, GRAPE, AND WATER EXTRACTED ORANGE JUICE CONCENTRATES; CITRIC ACID; PINEAPPLE JUICE CONCENTRATE; ASCORBIC ACID; NATURAL FLAVOR; VITAMIN E ACETATE.",
  "IngredientInfoCrossContStatement": "",
  "IngredientInfoDoesContainStatement": "",
  "NUTRIENT_HEALTH_CLAIMS": "",
  "INGREDIENT_OTHER_CLAIMS": "",
  "GMO_DISCLOSURE_TYPE": "",
  "F_REFERRAL_DISCLOSURE_STATEMENT": "",
  "GMO_Statement": "",
  "IngredientInfoHHServingSize": "1 pouch (331 mL)",
  "IsPackagingMarkedReturnable": false,
  "KosherSuitabilityInfoIndicator": false,
  "KosherSuitabilityCertAgency": "",
  "KosherSuitabilityInfoSymbol": "",
  "KosherSuitabilityInfoDocNumber": "",
  "KraftItemCode": "00876840051870",
  "LenghtDepthMM": 45,
  "LenghtDepthIN": 1.77199995517731,
  "Name": "11.2Z CS RTD MAUI COOLER",
  "NetWeightLB": 0.7,
  "NetWeightOZ": 11.2,
  "NextLowerLevelUnitsPerTradeUnit": "1",
  "NTRNRlvntPrvdFlag": false,
  "NutrSrv1CalAmt": "130 CAL",
  "F_NUTRSRV1_CA_AMT": "",
  "NutrSrv1CaRDA": "0",
  "NutrSrv1CholRDA": "",
  "NutrSrv1ChoRDA": "11.00",
  "NutrSrv1EnerpfAmt": "",
  "NutrSrv1FastatRDA": "",
  "NutrSrv1FastatAmt": "",
  "NutrSrv1FatAmt": "0 G",
  "NutrSrv1FatRDA": "0.00",
  "NutrSrv1FatrnAmt": "",
  "NutrSrv1FibtswAmt": "",
  "NutrSrv1FibtswRDA": "",
  "NutrSrv1HaemRDA": "",
  "NutrSrv1KAmt": "",
  "NutrSrv1KRDA": null,
  "NutrSrv1NaRDA": "1.00",
  "NutrSrv1NaAmt": "25 MG",
  "NutrSrv1PRDA": "0.00",
  "NutrSrv1Prepstate": "UNPREPARED",
  "NutrSrv1ProAmt": "0 G",
  "NutrSrv1ServSize": "343.69 GR",
  "NutrSrv1SugarAmt": "33 G",
  "NutrSrv1VitARDA": "0.00",
  "NutrSrv1VitCRDA": "10.00",
  "OrderableUnitFlag": true,
  "OrganicSuitabilityInfoIndicator": false,
  "PackagingLanguage": "",
  "PackagingMaterialTypeCode": "79",
  "PackagingTypeCode": "POUCH",
  "PID": 822,
  "ParentID": "C_CAPRISUN|SOFT DRINK-READY TO DRINK",
  "PrepAndCookSuggestion": "Refrigerate after opening. Twist off top, caution do not squeeze while opening.",
  "PrepTypeName": "",
  "ProductID": "00087684005187",
  "ProductDescriptionShort": "11.2Z CS RTD MAUI COOLER",
  "ProductDescriptionGrid": "CAPRISUN 11.2 FO SOFT DRINK-READY TO DRINK  MAUI COOLER     1 POUCH EACH",
  "ProductHierarchyCatalystCode": "",
  "RemoveFromKraftRecipe": false,
  "Referenced": false,
  "Selected": false,
  "seoFriendlyName": "",
  "ServingsOfTradeItemUnit": "",
  "ServingSuggestions": "",
  "SeasonalCode": "",
  "SubVariant": "",
  "TemperatureMinFarenheit": "0",
  "ThumbnailPath": "",
  "TotalShelfLife": "360",
  "UnitDescriptorCode": "EACH",
  "UserTypeID": "CONSUMER_UNIT",
  "VariantName": "MAUI COOLER",
  "WidthMM": 100,
  "WidthIN": 3.93700003623962,
  "CreatedBy": null,
  "Created": "0001-01-01T00:00:00",
  "UPC": "087684005187",
  "WilkeUPC": "008768400518",
  "UpdatedBy": null,
  "Updated": "2017-01-24T09:11:08",
  "DeclaredNetContentFO": "11.200000",
  "DeclaredNetContentPT": "",
  "DeclaredNetContentML": "331.000000",
  "DeclaredNetContentOZ": "",
  "DeclaredNetContentGR": "",
  "DeclaredNetContentKG": "",
  "DeclaredNetContentLB": "",
  "DeclaredNetContent1N": "",
  "DeclaredNetContentText": "",
  "GrossWeightKG": "0.355000",
  "GrossWeightGR": "355.083710",
  "NetWeightKG": "0.331000",
  "NetWeightGR": "317.519989",
  "TemperatureClassificationCode": "01",
  "FactsPanelLabelType": "US - Simplified Format, 1 Column",
  "DivisionCatalyst": "10",
  "F_NUTRSRV1_BIOT_AMT": "",
  "F_NUTRSRV1_BIOT_RDA": "",
  "F_NUTRSRV1_CAL_RDA": "",
  "F_NUTRSRV1_CHO_AMT": "34 G",
  "F_NUTRSRV1_CHOAVL_AMT": "",
  "F_NUTRSRV1_CHOL_AMT": "",
  "F_NUTRSRV1_CLD_RDA": "",
  "F_NUTRSRV1_CR_RDA": "",
  "F_NUTRSRV1_CU_RDA": "",
  "F_NUTRSRV1_DIFCA_AMT": "",
  "F_NUTRSRV1_DIFCA_RDA": "",
  "F_NUTRSRV1_ENER_AMT": "",
  "F_NUTRSRV1_ENER_RDA": "",
  "F_NUTRSRV1_ENERPF_RDA": "",
  "F_NUTRSRV1_FAMS_AMT": "",
  "F_NUTRSRV1_FAPU_AMT": "",
  "F_NUTRSRV1_FAPUN3_AMT": "",
  "F_NUTRSRV1_FAPUN6_AMT": "",
  "F_NUTRSRV1_FAPUN6_RDA": "",
  "F_NUTRSRV1_FATRN_RDA": "",
  "F_NUTRSRV1_FIB_RDA": "",
  "F_NUTRSRV1_FIBINS_AMT": "",
  "F_NUTRSRV1_FIBSOL_AMT": "",
  "F_NUTRSRV1_FOL_AMT": "",
  "F_NUTRSRV1_FOL_RDA": "",
  "F_NUTRSRV1_HAEM_AMT": "",
  "F_NUTRSRV1_ID_RDA": "",
  "F_NUTRSRV1_K_AMT": "45 MG",
  "F_NUTRSRV1_K_RDA": "1.00",
  "F_NUTRSRV1_MG_AMT": "",
  "F_NUTRSRV1_MG_RDA": "",
  "F_NUTRSRV1_MN_AMT": "",
  "F_NUTRSRV1_MN_RDA": "",
  "F_NUTRSRV1_MO_RDA": "",
  "F_NUTRSRV1_NIA_AMT": "",
  "F_NUTRSRV1_NIA_RDA": "",
  "F_NUTRSRV1_NIAEQ_RDA": "",
  "F_NUTRSRV1_P_AMT": "",
  "F_NUTRSRV1_PANTAC_AMT": "",
  "F_NUTRSRV1_PANTAC_RDA": "",
  "F_NUTRSRV1_PRO_RDA": "",
  "F_NUTRSRV1_RIBF_AMT": "",
  "F_NUTRSRV1_RIBF_RDA": "",
  "F_NUTRSRV1_SATFAT_AMT": "",
  "F_NUTRSRV1_SATFAT_RDA": "",
  "F_NUTRSRV1_SE_RDA": "",
  "F_NUTRSRV1_SUGALC_AMT": "",
  "F_NUTRSRV1_SUGAR_RDA": "",
  "F_NUTRSRV1_ADDSUG_RDA": "",
  "F_NUTRSRV1_ADDSUG_AMT": "",
  "F_NUTRSRV1_THIA_AMT": "",
  "F_NUTRSRV1_THIA_RDA": "",
  "F_NUTRSRV1_VITAA_AMT": "",
  "F_NUTRSRV1_VITAA_RDA": "",
  "F_NUTRSRV1_VITAECA_RDA": "",
  "F_NUTRSRV1_VITB12_AMT": "",
  "F_NUTRSRV1_VITB12_RDA": "",
  "F_NUTRSRV1_VITB6_AMT": "",
  "F_NUTRSRV1_VITB6_RDA": "",
  "F_NUTRSRV1_VITC_AMT": "",
  "F_NUTRSRV1_VITD_AMT": "",
  "F_NUTRSRV1_VITD_RDA": "",
  "F_NUTRSRV1_VITDCA_RDA": "",
  "F_NUTRSRV1_VITE_RDA": "10.00",
  "F_NUTRSRV1_VITK_AMT": "",
  "F_NUTRSRV1_VITK_RDA": "",
  "F_NUTRSRV1_ZN_AMT": "",
  "F_NUTRSRV1_ZN_RDA": "",
  "F_NUTRSRV100G_ADDSUG_AMT": "",
  "F_NUTRSRV100G_BIOT_AMT": "",
  "F_NUTRSRV100G_BIOT_RDA": "",
  "F_NUTRSRV100G_CA_AMT": "",
  "F_NUTRSRV100G_CA_RDA": "",
  "F_NUTRSRV100G_CAL_AMT": "",
  "F_NUTRSRV100G_CAL_RDA": "",
  "F_NUTRSRV100G_CHO_AMT": "",
  "F_NUTRSRV100G_CHO_RDA": "",
  "F_NUTRSRV100G_CHOL_AMT": "",
  "F_NUTRSRV100G_CHOL_RDA": "",
  "F_NUTRSRV100G_CU_RDA": "",
  "F_NUTRSRV100G_DIFCA_AMT": "",
  "F_NUTRSRV100G_DIFCA_RDA": "",
  "F_NUTRSRV100G_ENER_AMT": "",
  "F_NUTRSRV100G_ENERPF_AMT": "",
  "F_NUTRSRV100G_ENERPF_RDA": "",
  "F_NUTRSRV100G_FAMS_AMT": "",
  "F_NUTRSRV100G_FAPU_AMT": "",
  "F_NUTRSRV100G_FAPUN3_AMT": "",
  "F_NUTRSRV100G_FAPUN6_AMT": "",
  "F_NUTRSRV100G_FASAT_AMT": "",
  "F_NUTRSRV100G_FASAT_RDA": "",
  "F_NUTRSRV100G_FAT_AMT": "",
  "F_NUTRSRV100G_FAT_RDA": "",
  "F_NUTRSRV100G_FATRN_AMT": "",
  "F_NUTRSRV100G_FATRN_RDA": "",
  "F_NUTRSRV100G_FIBTSW_AMT": "",
  "F_NUTRSRV100G_FIBTSW_RDA": "",
  "F_NUTRSRV100G_FOL_AMT": "",
  "F_NUTRSRV100G_FOL_RDA": "",
  "F_NUTRSRV100G_HAEM_AMT": "",
  "F_NUTRSRV100G_HAEM_RDA": "",
  "F_NUTRSRV100G_ID_RDA": "",
  "F_NUTRSRV100G_K_AMT": "",
  "F_NUTRSRV100G_K_RDA": "",
  "F_NUTRSRV100G_MG_AMT": "",
  "F_NUTRSRV100G_MG_RDA": "",
  "F_NUTRSRV100G_MN_AMT": "",
  "F_NUTRSRV100G_NA_AMT": "",
  "F_NUTRSRV100G_NA_RDA": "",
  "F_NUTRSRV100G_NIA_AMT": "",
  "F_NUTRSRV100G_NIA_RDA": "",
  "F_NUTRSRV100G_P_AMT": "",
  "F_NUTRSRV100G_P_RDA": "",
  "F_NUTRSRV100G_PANTAC_AMT": "",
  "F_NUTRSRV100G_PANTAC_RDA": "",
  "F_NUTRSRV100G_PRO_AMT": "",
  "F_NUTRSRV100G_PRO_RDA": "",
  "F_NUTRSRV100G_RIBF_AMT": "",
  "F_NUTRSRV100G_RIBF_RDA": "",
  "F_NUTRSRV100G_SATFAT_AMT": "",
  "F_NUTRSRV100G_SATFAT_RDA": "",
  "F_NUTRSRV100G_SUGALC_AMT": "",
  "F_NUTRSRV100G_SUGAR_AMT": "",
  "F_NUTRSRV100G_SUGAR_RDA": "",
  "F_NUTRSRV100G_THIA_AMT": "",
  "F_NUTRSRV100G_THIA_RDA": "",
  "F_NUTRSRV100G_VITA_AMT": "",
  "F_NUTRSRV100G_VITA_RDA": "",
  "F_NUTRSRV100G_VITAA_AMT": "",
  "F_NUTRSRV100G_VITAA_RDA": "",
  "F_NUTRSRV100G_VITB12_AMT": "",
  "F_NUTRSRV100G_VITB6_AMT": "",
  "F_NUTRSRV100G_VITB6_RDA": "",
  "F_NUTRSRV100G_VITC_AMT": "",
  "F_NUTRSRV100G_VITC_RDA": "",
  "F_NUTRSRV100G_VITD_AMT": "",
  "F_NUTRSRV100G_VITDCA_AMT": "",
  "F_NUTRSRV100G_VITE_AMT": "",
  "F_NUTRSRV100G_ZN_AMT": "",
  "F_NUTRSRV100G_ZN_RDA": "",
  "F_NUTRSRV2_CA_RDA": "",
  "F_NUTRSRV2_CAL_AMT": "",
  "F_NUTRSRV2_CHO_AMT": "",
  "F_NUTRSRV2_CHO_RDA": "",
  "F_NUTRSRV2_CHOL_AMT": "",
  "F_NUTRSRV2_CHOL_RDA": "",
  "F_NUTRSRV2_CU_RDA": "",
  "F_NUTRSRV2_DIFCA_AMT": "",
  "F_NUTRSRV2_DIFCA_RDA": "",
  "F_NUTRSRV2_ENER_AMT": "",
  "F_NUTRSRV2_ENERPF_AMT": "",
  "F_NUTRSRV2_FAMS_AMT": "",
  "F_NUTRSRV2_FAPU_AMT": "",
  "F_NUTRSRV2_FAPUN3_AMT": "",
  "F_NUTRSRV2_FAPUN6_AMT": "",
  "F_NUTRSRV2_FASAT_AMT": "",
  "F_NUTRSRV2_FASAT_RDA": "",
  "F_NUTRSRV2_FAT_AMT": "",
  "F_NUTRSRV2_FAT_RDA": "",
  "F_NUTRSRV2_FATRN_AMT": "",
  "F_NUTRSRV2_FIBTSW_AMT": "",
  "F_NUTRSRV2_FIBTSW_RDA": "",
  "F_NUTRSRV2_FOL_RDA": "",
  "F_NUTRSRV2_HAEM_RDA": "",
  "F_NUTRSRV2_K_AMT": "",
  "F_NUTRSRV2_K_RDA": "",
  "F_NUTRSRV2_MG_RDA": "",
  "F_NUTRSRV2_MN_RDA": "",
  "F_NUTRSRV2_NA_AMT": "",
  "F_NUTRSRV2_NA_RDA": "",
  "F_NUTRSRV2_NIA_RDA": "",
  "F_NUTRSRV2_NIAEQ_RDA": "",
  "F_NUTRSRV2_P_RDA": "",
  "F_NUTRSRV2_PRO_AMT": "",
  "F_NUTRSRV2_PRO_RDA": "",
  "F_NUTRSRV2_RIBF_RDA": "",
  "F_NUTRSRV2_SATFAT_AMT": "",
  "F_NUTRSRV2_SATFAT_RDA": "",
  "F_NUTRSRV2_SUGAR_AMT": "",
  "F_NUTRSRV2_THIA_RDA": "",
  "F_NUTRSRV2_VITA_RDA": "",
  "F_NUTRSRV2_VITAA_RDA": "",
  "F_NUTRSRV2_VITC_AMT": "",
  "F_NUTRSRV2_VITC_RDA": "",
  "F_NUTRSRV2_VITE_RDA": "",
  "F_NUTRSRV2_ZN_RDA": "",
  "F_NUTRSRV3_CA_AMT": "",
  "F_NUTRSRV3_CA_RDA": "",
  "F_NUTRSRV3_CAL_AMT": "",
  "F_NUTRSRV3_CHO_AMT": "",
  "F_NUTRSRV3_CHO_RDA": "",
  "F_NUTRSRV3_CHOL_AMT": "",
  "F_NUTRSRV3_CHOL_RDA": "",
  "F_NUTRSRV3_DIFCA_AMT": "",
  "F_NUTRSRV3_DIFCA_RDA": "",
  "F_NUTRSRV3_ENER_AMT": "",
  "F_NUTRSRV3_ENERPF_AMT": "",
  "F_NUTRSRV3_FAMS_AMT": "",
  "F_NUTRSRV3_FAPU_AMT": "",
  "F_NUTRSRV3_FAPUN3_AMT": "",
  "F_NUTRSRV3_FAPUN6_AMT": "",
  "F_NUTRSRV3_FASAT_AMT": "",
  "F_NUTRSRV3_FASAT_RDA": "",
  "F_NUTRSRV3_FAT_AMT": "",
  "F_NUTRSRV3_FAT_RDA": "",
  "F_NUTRSRV3_FATRN_AMT": "",
  "F_NUTRSRV3_FIBTSW_AMT": "",
  "F_NUTRSRV3_FIBTSW_RDA": "",
  "F_NUTRSRV3_HAEM_AMT": "",
  "F_NUTRSRV3_HAEM_RDA": "",
  "F_NUTRSRV3_K_AMT": "",
  "F_NUTRSRV3_K_RDA": "",
  "F_NUTRSRV3_MG_RDA": "",
  "F_NUTRSRV3_MN_RDA": "",
  "F_NUTRSRV3_NA_AMT": "",
  "F_NUTRSRV3_NA_RDA": "",
  "F_NUTRSRV3_NIA_RDA": "",
  "F_NUTRSRV3_P_AMT": "",
  "F_NUTRSRV3_P_RDA": "",
  "F_NUTRSRV3_PRO_AMT": "",
  "F_NUTRSRV3_PRO_RDA": "",
  "F_NUTRSRV3_SATFAT_RDA": "",
  "F_NUTRSRV3_SUGAR_AMT": "",
  "F_NUTRSRV3_VITA_RDA": "",
  "F_NUTRSRV3_VITAA_RDA": "",
  "F_NUTRSRV3_VITC_RDA": "",
  "F_NUTRSRV3_VITE_RDA": "",
  "F_NUTRSRV1_VITE_AMT": "",
  "F_NUTRSRV2_HAEM_AMT": "",
  "F_NUTRSRV2_VITAA_AMT": "",
  "F_NUTRSRV2_CA_AMT": "",
  "NutrSrv100gDIFCAPrecision": "",
  "NutrSrv100gEnerPrecision": "",
  "NutrSrv100gPAmt": 0,
  "NutrSrv100gCAAmt": 0,
  "LanguageCode": "eng",
  "P_ECOMMERCE_PRODUCT_NAME_R5": "",
  "ProductBrands": [
    {
      "BrandID": 16,
      "Name": "CAPRISUN",
      "SiteId": 0,
      "ParentId": 0,
      "seoFriendlyName": "",
      "Created": "0001-01-01T00:00:00",
      "CreatedBy": null,
      "Updated": "0001-01-01T00:00:00",
      "UpdatedBy": null,
      "ErrorFlag": false,
      "ErrorMessage": null
    }
  ],
  "ProductAssets": [
    {
      "PID": 0,
      "Type": null,
      "RendtitionName": null,
      "Renditions": [
        {
          "Id": 0,
          "AssetId": "5972",
          "RenditionId": 0,
          "RenditionName": "120x84",
          "AssetPath": "http://assets.kraftfoods.com/KHProducts/120x84/00087684005187_A1C1.jpg",
          "Type": "Secondary Image"
        },
        {
          "Id": 0,
          "AssetId": "5972",
          "RenditionId": 0,
          "RenditionName": "1365x960",
          "AssetPath": "http://assets.kraftfoods.com/KHProducts/1365x960/00087684005187_A1C1.jpg",
          "Type": "Secondary Image"
        },
        {
          "Id": 0,
          "AssetId": "5972",
          "RenditionId": 0,
          "RenditionName": "220x225",
          "AssetPath": "http://assets.kraftfoods.com/KHProducts/220x225/00087684005187_A1C1.jpg",
          "Type": "Secondary Image"
        },
        {
          "Id": 0,
          "AssetId": "5972",
          "RenditionId": 0,
          "RenditionName": "290x194",
          "AssetPath": "http://assets.kraftfoods.com/KHProducts/290x194/00087684005187_A1C1.jpg",
          "Type": "Secondary Image"
        },
        {
          "Id": 0,
          "AssetId": "5972",
          "RenditionId": 0,
          "RenditionName": "455x320",
          "AssetPath": "http://assets.kraftfoods.com/KHProducts/455x320/00087684005187_A1C1.jpg",
          "Type": "Secondary Image"
        },
        {
          "Id": 0,
          "AssetId": "5972",
          "RenditionId": 0,
          "RenditionName": "600x250",
          "AssetPath": "http://assets.kraftfoods.com/KHProducts/600x250/00087684005187_A1C1.jpg",
          "Type": "Secondary Image"
        },
        {
          "Id": 0,
          "AssetId": "5972",
          "RenditionId": 0,
          "RenditionName": "960x300",
          "AssetPath": "http://assets.kraftfoods.com/KHProducts/960x300/00087684005187_A1C1.jpg",
          "Type": "Secondary Image"
        }
      ],
      "ID": 0,
      "AssetID": "3945",
      "UserTypeID": "ECOMMERCE_IMAGES",
      "ParentID": null,
      "Selected": false,
      "Referenced": false,
      "StartDate": "2016-06-15T00:00:00",
      "EndDate": "2025-12-31T00:00:00",
      "FileFormat": null,
      "ImageType": "Product Image  ",
      "SourceURL": "",
      "FileName": "00087684005187_A1L1  "
    },
    {
      "PID": 0,
      "Type": null,
      "RendtitionName": null,
      "Renditions": [
        {
          "Id": 0,
          "AssetId": "5972",
          "RenditionId": 0,
          "RenditionName": "120x84",
          "AssetPath": "http://assets.kraftfoods.com/KHProducts/120x84/00087684005187_A1C1.jpg",
          "Type": "Secondary Image"
        },
        {
          "Id": 0,
          "AssetId": "5972",
          "RenditionId": 0,
          "RenditionName": "1365x960",
          "AssetPath": "http://assets.kraftfoods.com/KHProducts/1365x960/00087684005187_A1C1.jpg",
          "Type": "Secondary Image"
        },
        {
          "Id": 0,
          "AssetId": "5972",
          "RenditionId": 0,
          "RenditionName": "220x225",
          "AssetPath": "http://assets.kraftfoods.com/KHProducts/220x225/00087684005187_A1C1.jpg",
          "Type": "Secondary Image"
        },
        {
          "Id": 0,
          "AssetId": "5972",
          "RenditionId": 0,
          "RenditionName": "290x194",
          "AssetPath": "http://assets.kraftfoods.com/KHProducts/290x194/00087684005187_A1C1.jpg",
          "Type": "Secondary Image"
        },
        {
          "Id": 0,
          "AssetId": "5972",
          "RenditionId": 0,
          "RenditionName": "455x320",
          "AssetPath": "http://assets.kraftfoods.com/KHProducts/455x320/00087684005187_A1C1.jpg",
          "Type": "Secondary Image"
        },
        {
          "Id": 0,
          "AssetId": "5972",
          "RenditionId": 0,
          "RenditionName": "600x250",
          "AssetPath": "http://assets.kraftfoods.com/KHProducts/600x250/00087684005187_A1C1.jpg",
          "Type": "Secondary Image"
        },
        {
          "Id": 0,
          "AssetId": "5972",
          "RenditionId": 0,
          "RenditionName": "960x300",
          "AssetPath": "http://assets.kraftfoods.com/KHProducts/960x300/00087684005187_A1C1.jpg",
          "Type": "Secondary Image"
        }
      ],
      "ID": 0,
      "AssetID": "5972",
      "UserTypeID": "ECOMMERCE_IMAGES",
      "ParentID": null,
      "Selected": false,
      "Referenced": false,
      "StartDate": "2016-10-14T00:00:00",
      "EndDate": "2025-12-31T00:00:00",
      "FileFormat": null,
      "ImageType": "PRODUCT_IMAGE  ",
      "SourceURL": "https://api.kwikeesystems.com/product_images/00087684005187_A1C1.JPG  ",
      "FileName": "00087684005187_A1C1  "
    }
  ],
  "ProductAllergens": [],
  "ProductVariants": [
    {
      "VariantName": "MAUI COOLER",
      "SubVariant": "",
      "Count": 2,
      "DefaultProductGTIN": "00021000033720"
    }
  ],
  "SizeVariants": [
    {
      "SizeVariantOZ": 11.199999809265137,
      "Count": 1,
      "DefaultProductGTIN": "00087684005187"
    },
    {
      "SizeVariantOZ": 44.79999923706055,
      "Count": 1,
      "DefaultProductGTIN": "00087684006436"
    }
  ]
}