{
  "ErrorFlag": false,
  "ErrorMessage": "Product Assets found 3",
  "AuthorizedSellingGroupsName": "Retail",
  "AllergenInformationSpecName": "Food Allergen Labeling and Consumer Protection Act of 2004",
  "AllergenRelevantProvidedFlag": false,
  "BrandName": "SMART ONES",
  "BrandOwnerGLN": "0044710044602",
  "ConsumerUnitFlag": true,
  "CountryOfProduction": "USA",
  "CountryOfSale": "USA",
  "CrossDistributionChainStatusCode": "YD",
  "CrossDistributionChainStatusName": "",
  "CubicVolumeMR3": "0.011",
  "CubicVolumeFT3": "0.381999999284744",
  "DeclaredNetContentUOMCode": "",
  "DeclaredNetContent": 0,
  "DisplayReadyPackagingIndicator": false,
  "eCommProductName": "Weight Watchers Smart Ones(r) Tasty American Favorites Egg, Sausage and Cheese Breakfast Wraps 18 ct Bag",
  "eCommProductFeature": "Value Size! 9 pack ; 7 SmartPoints Value per Serving",
  "FirstAvailableShipDate": "1900-01-01T00:00:00",
  "FunctionalName": "Frozen Entrees/Sides",
  "GeneralMktDescription": "Balanced Smart Ones is committed to providing you with a variety of great foods that are both delicious and wholesome!",
  "GlobalProductClassificationCode": "10000254",
  "GrocerySnackIndicatorName": "Grocery",
  "GrossWeight": 0,
  "GrossWeightLB": 2.66000008583069,
  "GrossWeightOZ": 42.5629997253418,
  "GTIN": "00025800021116",
  "GTINVariableWeight": false,
  "HeightMM": 279.401000976563,
  "HeightIN": 11,
  "MaximumStackingWeight": 0,
  "ID": 0,
  "IngredientInformationStatement": "INGREDIENTS: TORTILLA (WATER, ENRICHED FLOUR (BLEACHED WHEAT FLOUR, NIACIN, IRON, THIAMINE MONONITRATE, RIBOFLAVIN, FOLIC ACID), WHOLE WHEAT FLOUR, MODIFIED WHEAT STARCH, SHORTENING [CANOLA OIL, HYDROGENATED COTTONSEED OIL, CITRIC ACID], WHEAT GLUTEN, GLYCERINE, LEAVENING AGENTS [SODIUM ACID PYROPHOSPHATE, SODIUM BICARBONATE, MONOCALCIUM PHOSPHATE], SUGAR, SALT, DEHYDRATED GARLIC), SCRAMBLED EGGS (EGG WHITES, EGGS, CORN STARCH, SALT, XANTHAN GUM, ANNATTO [COLORING]), CHEESE SAUCE (WATER, AMERICA",
  "IngredientInfoCrossContStatement": "",
  "IngredientInfoDoesContainStatement": "",
  "NUTRIENT_HEALTH_CLAIMS": "",
  "INGREDIENT_OTHER_CLAIMS": "",
  "GMO_DISCLOSURE_TYPE": "",
  "GMO_Statement": "",
  "IngredientInfoHHServingSize": "2 Pieces (113g)",
  "IsPackagingMarkedReturnable": false,
  "KosherSuitabilityInfoIndicator": false,
  "KosherSuitabilityCertAgency": "",
  "KosherSuitabilityInfoSymbol": "",
  "KosherSuitabilityInfoDocNumber": "",
  "KraftItemCode": "00258000211170",
  "LenghtDepthMM": 127,
  "LenghtDepthIN": 5,
  "Name": "SOS EGG SAUS CHS SMART WRAP6 36OZ",
  "NetWeightLB": 2.3,
  "NetWeightOZ": 36,
  "NextLowerLevelUnitsPerTradeUnit": "1",
  "NTRNRlvntPrvdFlag": false,
  "NutrSrv1CalAmt": "240 KCAL",
  "F_NUTRSRV1_CA_AMT": "80 MG",
  "NutrSrv1CaRDA": "8.00",
  "NutrSrv1CholRDA": "11.00",
  "NutrSrv1ChoRDA": "11.00",
  "NutrSrv1EnerpfAmt": "70 KCAL",
  "NutrSrv1FastatRDA": "13.00",
  "NutrSrv1FastatAmt": "2.5 G",
  "NutrSrv1FatAmt": "8 G",
  "NutrSrv1FatRDA": "12.00",
  "NutrSrv1FatrnAmt": "0 G",
  "NutrSrv1FibtswAmt": "7 G",
  "NutrSrv1FibtswRDA": "29.00",
  "NutrSrv1HaemRDA": "6.00",
  "NutrSrv1KAmt": "",
  "NutrSrv1KRDA": null,
  "NutrSrv1NaRDA": "23.00",
  "NutrSrv1NaAmt": "560 MG",
  "NutrSrv1PRDA": "",
  "NutrSrv1Prepstate": "UNPREPARED",
  "NutrSrv1ProAmt": "11 G",
  "NutrSrv1ServSize": "113 GR",
  "NutrSrv1SugarAmt": "2 G",
  "NutrSrv1VitARDA": "0.00",
  "NutrSrv1VitCRDA": "0.00",
  "OrderableUnitFlag": true,
  "OrganicSuitabilityInfoIndicator": false,
  "PackagingLanguage": "",
  "PackagingMaterialTypeCode": "",
  "PackagingTypeCode": "BOX/CARTON",
  "PID": 7211,
  "ParentID": "C_SMART ONES|Frozen Entrees/Sides",
  "PrepAndCookSuggestion": "Cooking Instructions: Microwave oven only 1. Remove 2 wraps from plastic bag. 2. Place wraps 1\" apart with seam facing up on a paper plate. 3. For an 1100 watt oven, cook on high for 1 minute and 30 seconds. For a 700 watt oven, cook on high for 2 minutes and 30 seconds. 4. Let stand in microwave 30 seconds. When removing from microwave, hold onto plate's sides and enjoy!",
  "PrepTypeName": "",
  "ProductID": "00025800021116",
  "ProductDescriptionShort": "SOS EGG SAUS CHS SMART WRAP6 36OZ",
  "ProductDescriptionGrid": "SMART ONES 36 OZ FROZEN ENTREES/SIDES  EGG SAUSAGE CHEESE WRAP     1 BOX/CARTON EACH",
  "ProductHierarchyCatalystCode": "",
  "RemoveFromKraftRecipe": false,
  "Referenced": false,
  "Selected": false,
  "seoFriendlyName": "",
  "ServingsOfTradeItemUnit": "",
  "ServingSuggestions": "",
  "SeasonalCode": "",
  "SubVariant": "",
  "TemperatureMinFarenheit": "0",
  "ThumbnailPath": "",
  "TotalShelfLife": "450",
  "UnitDescriptorCode": "EACH",
  "UserTypeID": "CONSUMER_UNIT",
  "VariantName": "EGG SAUSAGE CHEESE WRAP",
  "WidthMM": 304.800994873047,
  "WidthIN": 12,
  "CreatedBy": null,
  "Created": "0001-01-01T00:00:00",
  "UPC": "025800021116",
  "WilkeUPC": "002580002111",
  "UpdatedBy": null,
  "Updated": "2017-01-24T13:50:00",
  "DeclaredNetContentFO": "",
  "DeclaredNetContentPT": "",
  "DeclaredNetContentML": "",
  "DeclaredNetContentOZ": "36",
  "DeclaredNetContentGR": "",
  "DeclaredNetContentKG": "",
  "DeclaredNetContentLB": "",
  "DeclaredNetContent1N": "",
  "DeclaredNetContentText": "",
  "GrossWeightKG": "1.207000",
  "GrossWeightGR": "1206.625122",
  "NetWeightKG": "1.021485",
  "NetWeightGR": "1021.484741",
  "TemperatureClassificationCode": "08",
  "FactsPanelLabelType": "",
  "DivisionCatalyst": "50",
  "F_NUTRSRV1_BIOT_AMT": "",
  "F_NUTRSRV1_BIOT_RDA": "",
  "F_NUTRSRV1_CAL_RDA": "0.00",
  "F_NUTRSRV1_CHO_AMT": "32 G",
  "F_NUTRSRV1_CHOAVL_AMT": "",
  "F_NUTRSRV1_CHOL_AMT": "30 MG",
  "F_NUTRSRV1_CLD_RDA": "",
  "F_NUTRSRV1_CR_RDA": "",
  "F_NUTRSRV1_CU_RDA": "",
  "F_NUTRSRV1_DIFCA_AMT": "",
  "F_NUTRSRV1_DIFCA_RDA": "",
  "F_NUTRSRV1_ENER_AMT": "",
  "F_NUTRSRV1_ENER_RDA": "",
  "F_NUTRSRV1_ENERPF_RDA": "0.00",
  "F_NUTRSRV1_FAMS_AMT": "",
  "F_NUTRSRV1_FAPU_AMT": "",
  "F_NUTRSRV1_FAPUN3_AMT": "",
  "F_NUTRSRV1_FAPUN6_AMT": "",
  "F_NUTRSRV1_FAPUN6_RDA": "",
  "F_NUTRSRV1_FATRN_RDA": "0.00",
  "F_NUTRSRV1_FIB_RDA": "",
  "F_NUTRSRV1_FIBINS_AMT": "",
  "F_NUTRSRV1_FIBSOL_AMT": "",
  "F_NUTRSRV1_FOL_AMT": "",
  "F_NUTRSRV1_FOL_RDA": "",
  "F_NUTRSRV1_HAEM_AMT": "1.08 MG",
  "F_NUTRSRV1_ID_RDA": "",
  "F_NUTRSRV1_K_AMT": "",
  "F_NUTRSRV1_K_RDA": "",
  "F_NUTRSRV1_MG_AMT": "",
  "F_NUTRSRV1_MG_RDA": "",
  "F_NUTRSRV1_MN_AMT": "",
  "F_NUTRSRV1_MN_RDA": "",
  "F_NUTRSRV1_MO_RDA": "",
  "F_NUTRSRV1_NIA_AMT": "",
  "F_NUTRSRV1_NIA_RDA": "",
  "F_NUTRSRV1_NIAEQ_RDA": "",
  "F_NUTRSRV1_P_AMT": "",
  "F_NUTRSRV1_PANTAC_AMT": "",
  "F_NUTRSRV1_PANTAC_RDA": "",
  "F_NUTRSRV1_PRO_RDA": "",
  "F_NUTRSRV1_RIBF_AMT": "",
  "F_NUTRSRV1_RIBF_RDA": "",
  "F_NUTRSRV1_SATFAT_AMT": "",
  "F_NUTRSRV1_SATFAT_RDA": "",
  "F_NUTRSRV1_SE_RDA": "",
  "F_NUTRSRV1_SUGALC_AMT": "",
  "F_NUTRSRV1_SUGAR_RDA": "0.00",
  "F_NUTRSRV1_ADDSUG_RDA": "",
  "F_NUTRSRV1_ADDSUG_AMT": "",
  "F_NUTRSRV1_THIA_AMT": "",
  "F_NUTRSRV1_THIA_RDA": "",
  "F_NUTRSRV1_VITAA_AMT": "0 IU",
  "F_NUTRSRV1_VITAA_RDA": "0.00",
  "F_NUTRSRV1_VITAECA_RDA": "",
  "F_NUTRSRV1_VITB12_AMT": "",
  "F_NUTRSRV1_VITB12_RDA": "",
  "F_NUTRSRV1_VITB6_AMT": "",
  "F_NUTRSRV1_VITB6_RDA": "",
  "F_NUTRSRV1_VITC_AMT": "0 MG",
  "F_NUTRSRV1_VITD_AMT": "",
  "F_NUTRSRV1_VITD_RDA": "",
  "F_NUTRSRV1_VITDCA_RDA": "",
  "F_NUTRSRV1_VITE_RDA": "",
  "F_NUTRSRV1_VITK_AMT": "",
  "F_NUTRSRV1_VITK_RDA": "",
  "F_NUTRSRV1_ZN_AMT": "",
  "F_NUTRSRV1_ZN_RDA": "",
  "F_NUTRSRV100G_ADDSUG_AMT": "",
  "F_NUTRSRV100G_BIOT_AMT": "",
  "F_NUTRSRV100G_BIOT_RDA": "",
  "F_NUTRSRV100G_CA_AMT": "70.7964601769911 MG",
  "F_NUTRSRV100G_CA_RDA": "8.00",
  "F_NUTRSRV100G_CAL_AMT": "212.389373779297 KCAL",
  "F_NUTRSRV100G_CAL_RDA": "0.00",
  "F_NUTRSRV100G_CHO_AMT": "",
  "F_NUTRSRV100G_CHO_RDA": "",
  "F_NUTRSRV100G_CHOL_AMT": "",
  "F_NUTRSRV100G_CHOL_RDA": "",
  "F_NUTRSRV100G_CU_RDA": "",
  "F_NUTRSRV100G_DIFCA_AMT": "",
  "F_NUTRSRV100G_DIFCA_RDA": "",
  "F_NUTRSRV100G_ENER_AMT": "",
  "F_NUTRSRV100G_ENERPF_AMT": "61.9469046592712 KCAL",
  "F_NUTRSRV100G_ENERPF_RDA": "0.00",
  "F_NUTRSRV100G_FAMS_AMT": "",
  "F_NUTRSRV100G_FAPU_AMT": "",
  "F_NUTRSRV100G_FAPUN3_AMT": "",
  "F_NUTRSRV100G_FAPUN6_AMT": "",
  "F_NUTRSRV100G_FASAT_AMT": "2.21238937228918 G",
  "F_NUTRSRV100G_FASAT_RDA": "13.00",
  "F_NUTRSRV100G_FAT_AMT": "7.07964599132538 G",
  "F_NUTRSRV100G_FAT_RDA": "12.00",
  "F_NUTRSRV100G_FATRN_AMT": "0 G",
  "F_NUTRSRV100G_FATRN_RDA": "0.00",
  "F_NUTRSRV100G_FIBTSW_AMT": "6.19469024240971 G",
  "F_NUTRSRV100G_FIBTSW_RDA": "29.00",
  "F_NUTRSRV100G_FOL_AMT": "",
  "F_NUTRSRV100G_FOL_RDA": "",
  "F_NUTRSRV100G_HAEM_AMT": "0.955752212389381 MG",
  "F_NUTRSRV100G_HAEM_RDA": "6.00",
  "F_NUTRSRV100G_ID_RDA": "",
  "F_NUTRSRV100G_K_AMT": "",
  "F_NUTRSRV100G_K_RDA": "",
  "F_NUTRSRV100G_MG_AMT": "",
  "F_NUTRSRV100G_MG_RDA": "",
  "F_NUTRSRV100G_MN_AMT": "",
  "F_NUTRSRV100G_NA_AMT": "495.57523727417 MG",
  "F_NUTRSRV100G_NA_RDA": "23.00",
  "F_NUTRSRV100G_NIA_AMT": "",
  "F_NUTRSRV100G_NIA_RDA": "",
  "F_NUTRSRV100G_P_AMT": "",
  "F_NUTRSRV100G_P_RDA": "",
  "F_NUTRSRV100G_PANTAC_AMT": "",
  "F_NUTRSRV100G_PANTAC_RDA": "",
  "F_NUTRSRV100G_PRO_AMT": "",
  "F_NUTRSRV100G_PRO_RDA": "",
  "F_NUTRSRV100G_RIBF_AMT": "",
  "F_NUTRSRV100G_RIBF_RDA": "",
  "F_NUTRSRV100G_SATFAT_AMT": "",
  "F_NUTRSRV100G_SATFAT_RDA": "",
  "F_NUTRSRV100G_SUGALC_AMT": "",
  "F_NUTRSRV100G_SUGAR_AMT": "1.76991149783134 G",
  "F_NUTRSRV100G_SUGAR_RDA": "0.00",
  "F_NUTRSRV100G_THIA_AMT": "",
  "F_NUTRSRV100G_THIA_RDA": "",
  "F_NUTRSRV100G_VITA_AMT": "",
  "F_NUTRSRV100G_VITA_RDA": "",
  "F_NUTRSRV100G_VITAA_AMT": "0 IU",
  "F_NUTRSRV100G_VITAA_RDA": "0.00",
  "F_NUTRSRV100G_VITB12_AMT": "",
  "F_NUTRSRV100G_VITB6_AMT": "",
  "F_NUTRSRV100G_VITB6_RDA": "",
  "F_NUTRSRV100G_VITC_AMT": "0 MG",
  "F_NUTRSRV100G_VITC_RDA": "0.00",
  "F_NUTRSRV100G_VITD_AMT": "",
  "F_NUTRSRV100G_VITDCA_AMT": "",
  "F_NUTRSRV100G_VITE_AMT": "",
  "F_NUTRSRV100G_ZN_AMT": "",
  "F_NUTRSRV100G_ZN_RDA": "",
  "F_NUTRSRV2_CA_RDA": "",
  "F_NUTRSRV2_CAL_AMT": "",
  "F_NUTRSRV2_CHO_AMT": "",
  "F_NUTRSRV2_CHO_RDA": "",
  "F_NUTRSRV2_CHOL_AMT": "",
  "F_NUTRSRV2_CHOL_RDA": "",
  "F_NUTRSRV2_CU_RDA": "",
  "F_NUTRSRV2_DIFCA_AMT": "",
  "F_NUTRSRV2_DIFCA_RDA": "",
  "F_NUTRSRV2_ENER_AMT": "",
  "F_NUTRSRV2_ENERPF_AMT": "",
  "F_NUTRSRV2_FAMS_AMT": "",
  "F_NUTRSRV2_FAPU_AMT": "",
  "F_NUTRSRV2_FAPUN3_AMT": "",
  "F_NUTRSRV2_FAPUN6_AMT": "",
  "F_NUTRSRV2_FASAT_AMT": "",
  "F_NUTRSRV2_FASAT_RDA": "",
  "F_NUTRSRV2_FAT_AMT": "",
  "F_NUTRSRV2_FAT_RDA": "",
  "F_NUTRSRV2_FATRN_AMT": "",
  "F_NUTRSRV2_FIBTSW_AMT": "",
  "F_NUTRSRV2_FIBTSW_RDA": "",
  "F_NUTRSRV2_FOL_RDA": "",
  "F_NUTRSRV2_HAEM_RDA": "",
  "F_NUTRSRV2_K_AMT": "",
  "F_NUTRSRV2_K_RDA": "",
  "F_NUTRSRV2_MG_RDA": "",
  "F_NUTRSRV2_MN_RDA": "",
  "F_NUTRSRV2_NA_AMT": "",
  "F_NUTRSRV2_NA_RDA": "",
  "F_NUTRSRV2_NIA_RDA": "",
  "F_NUTRSRV2_NIAEQ_RDA": "",
  "F_NUTRSRV2_P_RDA": "",
  "F_NUTRSRV2_PRO_AMT": "",
  "F_NUTRSRV2_PRO_RDA": "",
  "F_NUTRSRV2_RIBF_RDA": "",
  "F_NUTRSRV2_SATFAT_AMT": "",
  "F_NUTRSRV2_SATFAT_RDA": "",
  "F_NUTRSRV2_SUGAR_AMT": "",
  "F_NUTRSRV2_THIA_RDA": "",
  "F_NUTRSRV2_VITA_RDA": "",
  "F_NUTRSRV2_VITAA_RDA": "",
  "F_NUTRSRV2_VITC_AMT": "",
  "F_NUTRSRV2_VITC_RDA": "",
  "F_NUTRSRV2_VITE_RDA": "",
  "F_NUTRSRV2_ZN_RDA": "",
  "F_NUTRSRV3_CA_AMT": "",
  "F_NUTRSRV3_CA_RDA": "",
  "F_NUTRSRV3_CAL_AMT": "",
  "F_NUTRSRV3_CHO_AMT": "",
  "F_NUTRSRV3_CHO_RDA": "",
  "F_NUTRSRV3_CHOL_AMT": "",
  "F_NUTRSRV3_CHOL_RDA": "",
  "F_NUTRSRV3_DIFCA_AMT": "",
  "F_NUTRSRV3_DIFCA_RDA": "",
  "F_NUTRSRV3_ENER_AMT": "",
  "F_NUTRSRV3_ENERPF_AMT": "",
  "F_NUTRSRV3_FAMS_AMT": "",
  "F_NUTRSRV3_FAPU_AMT": "",
  "F_NUTRSRV3_FAPUN3_AMT": "",
  "F_NUTRSRV3_FAPUN6_AMT": "",
  "F_NUTRSRV3_FASAT_AMT": "",
  "F_NUTRSRV3_FASAT_RDA": "",
  "F_NUTRSRV3_FAT_AMT": "",
  "F_NUTRSRV3_FAT_RDA": "",
  "F_NUTRSRV3_FATRN_AMT": "",
  "F_NUTRSRV3_FIBTSW_AMT": "",
  "F_NUTRSRV3_FIBTSW_RDA": "",
  "F_NUTRSRV3_HAEM_AMT": "",
  "F_NUTRSRV3_HAEM_RDA": "",
  "F_NUTRSRV3_K_AMT": "",
  "F_NUTRSRV3_K_RDA": "",
  "F_NUTRSRV3_MG_RDA": "",
  "F_NUTRSRV3_MN_RDA": "",
  "F_NUTRSRV3_NA_AMT": "",
  "F_NUTRSRV3_NA_RDA": "",
  "F_NUTRSRV3_NIA_RDA": "",
  "F_NUTRSRV3_P_AMT": "",
  "F_NUTRSRV3_P_RDA": "",
  "F_NUTRSRV3_PRO_AMT": "",
  "F_NUTRSRV3_PRO_RDA": "",
  "F_NUTRSRV3_SATFAT_RDA": "",
  "F_NUTRSRV3_SUGAR_AMT": "",
  "F_NUTRSRV3_VITA_RDA": "",
  "F_NUTRSRV3_VITAA_RDA": "",
  "F_NUTRSRV3_VITC_RDA": "",
  "F_NUTRSRV3_VITE_RDA": "",
  "F_NUTRSRV1_VITE_AMT": "",
  "F_NUTRSRV2_HAEM_AMT": "",
  "F_NUTRSRV2_VITAA_AMT": "",
  "F_NUTRSRV2_CA_AMT": "",
  "NutrSrv100gDIFCAPrecision": "",
  "NutrSrv100gEnerPrecision": "",
  "NutrSrv100gPAmt": 0,
  "NutrSrv100gCAAmt": 0,
  "LanguageCode": "eng",
  "P_ECOMMERCE_PRODUCT_NAME_R5": "",
  "ProductBrands": [
    {
      "BrandID": 134,
      "Name": "SMART ONES",
      "SiteId": 0,
      "ParentId": 0,
      "seoFriendlyName": "",
      "Created": "0001-01-01T00:00:00",
      "CreatedBy": null,
      "Updated": "0001-01-01T00:00:00",
      "UpdatedBy": null,
      "ErrorFlag": false,
      "ErrorMessage": null
    }
  ],
  "ProductAssets": [
    {
      "PID": 0,
      "Type": null,
      "RendtitionName": null,
      "Renditions": [
        {
          "Id": 0,
          "AssetId": "23937",
          "RenditionId": 0,
          "RenditionName": "120x84",
          "AssetPath": "http://assets.kraftfoods.com/KHProducts/120x84/00025800021116_A1C1.jpg",
          "Type": "Secondary Image"
        },
        {
          "Id": 0,
          "AssetId": "23937",
          "RenditionId": 0,
          "RenditionName": "1365x960",
          "AssetPath": "http://assets.kraftfoods.com/KHProducts/1365x960/00025800021116_A1C1.jpg",
          "Type": "Secondary Image"
        },
        {
          "Id": 0,
          "AssetId": "23937",
          "RenditionId": 0,
          "RenditionName": "220x225",
          "AssetPath": "http://assets.kraftfoods.com/KHProducts/220x225/00025800021116_A1C1.jpg",
          "Type": "Secondary Image"
        },
        {
          "Id": 0,
          "AssetId": "23937",
          "RenditionId": 0,
          "RenditionName": "290x194",
          "AssetPath": "http://assets.kraftfoods.com/KHProducts/290x194/00025800021116_A1C1.jpg",
          "Type": "Secondary Image"
        },
        {
          "Id": 0,
          "AssetId": "23937",
          "RenditionId": 0,
          "RenditionName": "455x320",
          "AssetPath": "http://assets.kraftfoods.com/KHProducts/455x320/00025800021116_A1C1.jpg",
          "Type": "Secondary Image"
        },
        {
          "Id": 0,
          "AssetId": "23937",
          "RenditionId": 0,
          "RenditionName": "600x250",
          "AssetPath": "http://assets.kraftfoods.com/KHProducts/600x250/00025800021116_A1C1.jpg",
          "Type": "Secondary Image"
        },
        {
          "Id": 0,
          "AssetId": "23937",
          "RenditionId": 0,
          "RenditionName": "960x300",
          "AssetPath": "http://assets.kraftfoods.com/KHProducts/960x300/00025800021116_A1C1.jpg",
          "Type": "Secondary Image"
        },
        {
          "Id": 0,
          "AssetId": "23935",
          "RenditionId": 0,
          "RenditionName": "120x84",
          "AssetPath": "http://assets.kraftfoods.com/KHProducts/120x84/00025800021116_A1L1.jpg",
          "Type": "Primary Image"
        },
        {
          "Id": 0,
          "AssetId": "23935",
          "RenditionId": 0,
          "RenditionName": "1365x960",
          "AssetPath": "http://assets.kraftfoods.com/KHProducts/1365x960/00025800021116_A1L1.jpg",
          "Type": "Primary Image"
        },
        {
          "Id": 0,
          "AssetId": "23935",
          "RenditionId": 0,
          "RenditionName": "220x225",
          "AssetPath": "http://assets.kraftfoods.com/KHProducts/220x225/00025800021116_A1L1.jpg",
          "Type": "Primary Image"
        },
        {
          "Id": 0,
          "AssetId": "23935",
          "RenditionId": 0,
          "RenditionName": "290x194",
          "AssetPath": "http://assets.kraftfoods.com/KHProducts/290x194/00025800021116_A1L1.jpg",
          "Type": "Primary Image"
        },
        {
          "Id": 0,
          "AssetId": "23935",
          "RenditionId": 0,
          "RenditionName": "455x320",
          "AssetPath": "http://assets.kraftfoods.com/KHProducts/455x320/00025800021116_A1L1.jpg",
          "Type": "Primary Image"
        },
        {
          "Id": 0,
          "AssetId": "23935",
          "RenditionId": 0,
          "RenditionName": "600x250",
          "AssetPath": "http://assets.kraftfoods.com/KHProducts/600x250/00025800021116_A1L1.jpg",
          "Type": "Primary Image"
        },
        {
          "Id": 0,
          "AssetId": "23935",
          "RenditionId": 0,
          "RenditionName": "960x300",
          "AssetPath": "http://assets.kraftfoods.com/KHProducts/960x300/00025800021116_A1L1.jpg",
          "Type": "Primary Image"
        },
        {
          "Id": 0,
          "AssetId": "23936",
          "RenditionId": 0,
          "RenditionName": "120x84",
          "AssetPath": "http://assets.kraftfoods.com/KHProducts/120x84/00025800021116_A1R1.jpg",
          "Type": "Secondary Image"
        },
        {
          "Id": 0,
          "AssetId": "23936",
          "RenditionId": 0,
          "RenditionName": "1365x960",
          "AssetPath": "http://assets.kraftfoods.com/KHProducts/1365x960/00025800021116_A1R1.jpg",
          "Type": "Secondary Image"
        },
        {
          "Id": 0,
          "AssetId": "23936",
          "RenditionId": 0,
          "RenditionName": "220x225",
          "AssetPath": "http://assets.kraftfoods.com/KHProducts/220x225/00025800021116_A1R1.jpg",
          "Type": "Secondary Image"
        },
        {
          "Id": 0,
          "AssetId": "23936",
          "RenditionId": 0,
          "RenditionName": "290x194",
          "AssetPath": "http://assets.kraftfoods.com/KHProducts/290x194/00025800021116_A1R1.jpg",
          "Type": "Secondary Image"
        },
        {
          "Id": 0,
          "AssetId": "23936",
          "RenditionId": 0,
          "RenditionName": "455x320",
          "AssetPath": "http://assets.kraftfoods.com/KHProducts/455x320/00025800021116_A1R1.jpg",
          "Type": "Secondary Image"
        },
        {
          "Id": 0,
          "AssetId": "23936",
          "RenditionId": 0,
          "RenditionName": "600x250",
          "AssetPath": "http://assets.kraftfoods.com/KHProducts/600x250/00025800021116_A1R1.jpg",
          "Type": "Secondary Image"
        },
        {
          "Id": 0,
          "AssetId": "23936",
          "RenditionId": 0,
          "RenditionName": "960x300",
          "AssetPath": "http://assets.kraftfoods.com/KHProducts/960x300/00025800021116_A1R1.jpg",
          "Type": "Secondary Image"
        }
      ],
      "ID": 0,
      "AssetID": "23935",
      "UserTypeID": "ECOMMERCE_IMAGES",
      "ParentID": null,
      "Selected": false,
      "Referenced": false,
      "StartDate": "2016-10-14T00:00:00",
      "EndDate": "2025-12-31T00:00:00",
      "FileFormat": null,
      "ImageType": "PRODUCT_IMAGE  ",
      "SourceURL": "https://api.kwikeesystems.com/product_images/00025800021116_A1L1.JPG  ",
      "FileName": "00025800021116_A1L1  "
    },
    {
      "PID": 0,
      "Type": null,
      "RendtitionName": null,
      "Renditions": [
        {
          "Id": 0,
          "AssetId": "23937",
          "RenditionId": 0,
          "RenditionName": "120x84",
          "AssetPath": "http://assets.kraftfoods.com/KHProducts/120x84/00025800021116_A1C1.jpg",
          "Type": "Secondary Image"
        },
        {
          "Id": 0,
          "AssetId": "23937",
          "RenditionId": 0,
          "RenditionName": "1365x960",
          "AssetPath": "http://assets.kraftfoods.com/KHProducts/1365x960/00025800021116_A1C1.jpg",
          "Type": "Secondary Image"
        },
        {
          "Id": 0,
          "AssetId": "23937",
          "RenditionId": 0,
          "RenditionName": "220x225",
          "AssetPath": "http://assets.kraftfoods.com/KHProducts/220x225/00025800021116_A1C1.jpg",
          "Type": "Secondary Image"
        },
        {
          "Id": 0,
          "AssetId": "23937",
          "RenditionId": 0,
          "RenditionName": "290x194",
          "AssetPath": "http://assets.kraftfoods.com/KHProducts/290x194/00025800021116_A1C1.jpg",
          "Type": "Secondary Image"
        },
        {
          "Id": 0,
          "AssetId": "23937",
          "RenditionId": 0,
          "RenditionName": "455x320",
          "AssetPath": "http://assets.kraftfoods.com/KHProducts/455x320/00025800021116_A1C1.jpg",
          "Type": "Secondary Image"
        },
        {
          "Id": 0,
          "AssetId": "23937",
          "RenditionId": 0,
          "RenditionName": "600x250",
          "AssetPath": "http://assets.kraftfoods.com/KHProducts/600x250/00025800021116_A1C1.jpg",
          "Type": "Secondary Image"
        },
        {
          "Id": 0,
          "AssetId": "23937",
          "RenditionId": 0,
          "RenditionName": "960x300",
          "AssetPath": "http://assets.kraftfoods.com/KHProducts/960x300/00025800021116_A1C1.jpg",
          "Type": "Secondary Image"
        },
        {
          "Id": 0,
          "AssetId": "23935",
          "RenditionId": 0,
          "RenditionName": "120x84",
          "AssetPath": "http://assets.kraftfoods.com/KHProducts/120x84/00025800021116_A1L1.jpg",
          "Type": "Primary Image"
        },
        {
          "Id": 0,
          "AssetId": "23935",
          "RenditionId": 0,
          "RenditionName": "1365x960",
          "AssetPath": "http://assets.kraftfoods.com/KHProducts/1365x960/00025800021116_A1L1.jpg",
          "Type": "Primary Image"
        },
        {
          "Id": 0,
          "AssetId": "23935",
          "RenditionId": 0,
          "RenditionName": "220x225",
          "AssetPath": "http://assets.kraftfoods.com/KHProducts/220x225/00025800021116_A1L1.jpg",
          "Type": "Primary Image"
        },
        {
          "Id": 0,
          "AssetId": "23935",
          "RenditionId": 0,
          "RenditionName": "290x194",
          "AssetPath": "http://assets.kraftfoods.com/KHProducts/290x194/00025800021116_A1L1.jpg",
          "Type": "Primary Image"
        },
        {
          "Id": 0,
          "AssetId": "23935",
          "RenditionId": 0,
          "RenditionName": "455x320",
          "AssetPath": "http://assets.kraftfoods.com/KHProducts/455x320/00025800021116_A1L1.jpg",
          "Type": "Primary Image"
        },
        {
          "Id": 0,
          "AssetId": "23935",
          "RenditionId": 0,
          "RenditionName": "600x250",
          "AssetPath": "http://assets.kraftfoods.com/KHProducts/600x250/00025800021116_A1L1.jpg",
          "Type": "Primary Image"
        },
        {
          "Id": 0,
          "AssetId": "23935",
          "RenditionId": 0,
          "RenditionName": "960x300",
          "AssetPath": "http://assets.kraftfoods.com/KHProducts/960x300/00025800021116_A1L1.jpg",
          "Type": "Primary Image"
        },
        {
          "Id": 0,
          "AssetId": "23936",
          "RenditionId": 0,
          "RenditionName": "120x84",
          "AssetPath": "http://assets.kraftfoods.com/KHProducts/120x84/00025800021116_A1R1.jpg",
          "Type": "Secondary Image"
        },
        {
          "Id": 0,
          "AssetId": "23936",
          "RenditionId": 0,
          "RenditionName": "1365x960",
          "AssetPath": "http://assets.kraftfoods.com/KHProducts/1365x960/00025800021116_A1R1.jpg",
          "Type": "Secondary Image"
        },
        {
          "Id": 0,
          "AssetId": "23936",
          "RenditionId": 0,
          "RenditionName": "220x225",
          "AssetPath": "http://assets.kraftfoods.com/KHProducts/220x225/00025800021116_A1R1.jpg",
          "Type": "Secondary Image"
        },
        {
          "Id": 0,
          "AssetId": "23936",
          "RenditionId": 0,
          "RenditionName": "290x194",
          "AssetPath": "http://assets.kraftfoods.com/KHProducts/290x194/00025800021116_A1R1.jpg",
          "Type": "Secondary Image"
        },
        {
          "Id": 0,
          "AssetId": "23936",
          "RenditionId": 0,
          "RenditionName": "455x320",
          "AssetPath": "http://assets.kraftfoods.com/KHProducts/455x320/00025800021116_A1R1.jpg",
          "Type": "Secondary Image"
        },
        {
          "Id": 0,
          "AssetId": "23936",
          "RenditionId": 0,
          "RenditionName": "600x250",
          "AssetPath": "http://assets.kraftfoods.com/KHProducts/600x250/00025800021116_A1R1.jpg",
          "Type": "Secondary Image"
        },
        {
          "Id": 0,
          "AssetId": "23936",
          "RenditionId": 0,
          "RenditionName": "960x300",
          "AssetPath": "http://assets.kraftfoods.com/KHProducts/960x300/00025800021116_A1R1.jpg",
          "Type": "Secondary Image"
        }
      ],
      "ID": 0,
      "AssetID": "23936",
      "UserTypeID": "ECOMMERCE_IMAGES",
      "ParentID": null,
      "Selected": false,
      "Referenced": false,
      "StartDate": "2016-10-14T00:00:00",
      "EndDate": "2025-12-31T00:00:00",
      "FileFormat": null,
      "ImageType": "PRODUCT_IMAGE  ",
      "SourceURL": "https://api.kwikeesystems.com/product_images/00025800021116_A1R1.JPG  ",
      "FileName": "00025800021116_A1R1  "
    },
    {
      "PID": 0,
      "Type": null,
      "RendtitionName": null,
      "Renditions": [
        {
          "Id": 0,
          "AssetId": "23937",
          "RenditionId": 0,
          "RenditionName": "120x84",
          "AssetPath": "http://assets.kraftfoods.com/KHProducts/120x84/00025800021116_A1C1.jpg",
          "Type": "Secondary Image"
        },
        {
          "Id": 0,
          "AssetId": "23937",
          "RenditionId": 0,
          "RenditionName": "1365x960",
          "AssetPath": "http://assets.kraftfoods.com/KHProducts/1365x960/00025800021116_A1C1.jpg",
          "Type": "Secondary Image"
        },
        {
          "Id": 0,
          "AssetId": "23937",
          "RenditionId": 0,
          "RenditionName": "220x225",
          "AssetPath": "http://assets.kraftfoods.com/KHProducts/220x225/00025800021116_A1C1.jpg",
          "Type": "Secondary Image"
        },
        {
          "Id": 0,
          "AssetId": "23937",
          "RenditionId": 0,
          "RenditionName": "290x194",
          "AssetPath": "http://assets.kraftfoods.com/KHProducts/290x194/00025800021116_A1C1.jpg",
          "Type": "Secondary Image"
        },
        {
          "Id": 0,
          "AssetId": "23937",
          "RenditionId": 0,
          "RenditionName": "455x320",
          "AssetPath": "http://assets.kraftfoods.com/KHProducts/455x320/00025800021116_A1C1.jpg",
          "Type": "Secondary Image"
        },
        {
          "Id": 0,
          "AssetId": "23937",
          "RenditionId": 0,
          "RenditionName": "600x250",
          "AssetPath": "http://assets.kraftfoods.com/KHProducts/600x250/00025800021116_A1C1.jpg",
          "Type": "Secondary Image"
        },
        {
          "Id": 0,
          "AssetId": "23937",
          "RenditionId": 0,
          "RenditionName": "960x300",
          "AssetPath": "http://assets.kraftfoods.com/KHProducts/960x300/00025800021116_A1C1.jpg",
          "Type": "Secondary Image"
        },
        {
          "Id": 0,
          "AssetId": "23935",
          "RenditionId": 0,
          "RenditionName": "120x84",
          "AssetPath": "http://assets.kraftfoods.com/KHProducts/120x84/00025800021116_A1L1.jpg",
          "Type": "Primary Image"
        },
        {
          "Id": 0,
          "AssetId": "23935",
          "RenditionId": 0,
          "RenditionName": "1365x960",
          "AssetPath": "http://assets.kraftfoods.com/KHProducts/1365x960/00025800021116_A1L1.jpg",
          "Type": "Primary Image"
        },
        {
          "Id": 0,
          "AssetId": "23935",
          "RenditionId": 0,
          "RenditionName": "220x225",
          "AssetPath": "http://assets.kraftfoods.com/KHProducts/220x225/00025800021116_A1L1.jpg",
          "Type": "Primary Image"
        },
        {
          "Id": 0,
          "AssetId": "23935",
          "RenditionId": 0,
          "RenditionName": "290x194",
          "AssetPath": "http://assets.kraftfoods.com/KHProducts/290x194/00025800021116_A1L1.jpg",
          "Type": "Primary Image"
        },
        {
          "Id": 0,
          "AssetId": "23935",
          "RenditionId": 0,
          "RenditionName": "455x320",
          "AssetPath": "http://assets.kraftfoods.com/KHProducts/455x320/00025800021116_A1L1.jpg",
          "Type": "Primary Image"
        },
        {
          "Id": 0,
          "AssetId": "23935",
          "RenditionId": 0,
          "RenditionName": "600x250",
          "AssetPath": "http://assets.kraftfoods.com/KHProducts/600x250/00025800021116_A1L1.jpg",
          "Type": "Primary Image"
        },
        {
          "Id": 0,
          "AssetId": "23935",
          "RenditionId": 0,
          "RenditionName": "960x300",
          "AssetPath": "http://assets.kraftfoods.com/KHProducts/960x300/00025800021116_A1L1.jpg",
          "Type": "Primary Image"
        },
        {
          "Id": 0,
          "AssetId": "23936",
          "RenditionId": 0,
          "RenditionName": "120x84",
          "AssetPath": "http://assets.kraftfoods.com/KHProducts/120x84/00025800021116_A1R1.jpg",
          "Type": "Secondary Image"
        },
        {
          "Id": 0,
          "AssetId": "23936",
          "RenditionId": 0,
          "RenditionName": "1365x960",
          "AssetPath": "http://assets.kraftfoods.com/KHProducts/1365x960/00025800021116_A1R1.jpg",
          "Type": "Secondary Image"
        },
        {
          "Id": 0,
          "AssetId": "23936",
          "RenditionId": 0,
          "RenditionName": "220x225",
          "AssetPath": "http://assets.kraftfoods.com/KHProducts/220x225/00025800021116_A1R1.jpg",
          "Type": "Secondary Image"
        },
        {
          "Id": 0,
          "AssetId": "23936",
          "RenditionId": 0,
          "RenditionName": "290x194",
          "AssetPath": "http://assets.kraftfoods.com/KHProducts/290x194/00025800021116_A1R1.jpg",
          "Type": "Secondary Image"
        },
        {
          "Id": 0,
          "AssetId": "23936",
          "RenditionId": 0,
          "RenditionName": "455x320",
          "AssetPath": "http://assets.kraftfoods.com/KHProducts/455x320/00025800021116_A1R1.jpg",
          "Type": "Secondary Image"
        },
        {
          "Id": 0,
          "AssetId": "23936",
          "RenditionId": 0,
          "RenditionName": "600x250",
          "AssetPath": "http://assets.kraftfoods.com/KHProducts/600x250/00025800021116_A1R1.jpg",
          "Type": "Secondary Image"
        },
        {
          "Id": 0,
          "AssetId": "23936",
          "RenditionId": 0,
          "RenditionName": "960x300",
          "AssetPath": "http://assets.kraftfoods.com/KHProducts/960x300/00025800021116_A1R1.jpg",
          "Type": "Secondary Image"
        }
      ],
      "ID": 0,
      "AssetID": "23937",
      "UserTypeID": "ECOMMERCE_IMAGES",
      "ParentID": null,
      "Selected": false,
      "Referenced": false,
      "StartDate": "2016-10-14T00:00:00",
      "EndDate": "2025-12-31T00:00:00",
      "FileFormat": null,
      "ImageType": "PRODUCT_IMAGE  ",
      "SourceURL": "https://api.kwikeesystems.com/product_images/00025800021116_A1C1.JPG  ",
      "FileName": "00025800021116_A1C1  "
    }
  ],
  "ProductAllergens": [
    {
      "AllergenID": "19",
      "Allergen": "Egg"
    },
    {
      "AllergenID": "1",
      "Allergen": "Milk"
    },
    {
      "AllergenID": "14",
      "Allergen": "Wheat"
    }
  ],
  "ProductVariants": [
    {
      "VariantName": "EGG SAUSAGE CHEESE WRAP",
      "SubVariant": "",
      "Count": 1,
      "DefaultProductGTIN": "00021000059218"
    }
  ],
  "SizeVariants": [
    {
      "SizeVariantOZ": 36.03200149536133,
      "Count": 1,
      "DefaultProductGTIN": "00025800021116"
    }
  ]
}