{
  "ErrorFlag": false,
  "ErrorMessage": "Product Assets found 4",
  "AuthorizedSellingGroupsName": "Foodservice/AFH",
  "AllergenInformationSpecName": "",
  "AllergenRelevantProvidedFlag": false,
  "BrandName": "HEINZ",
  "BrandOwnerGLN": "0044710044602",
  "ConsumerUnitFlag": true,
  "CountryOfProduction": "USA",
  "CountryOfSale": "PRI, USA",
  "CrossDistributionChainStatusCode": "03",
  "CrossDistributionChainStatusName": "",
  "CubicVolumeMR3": "0.007",
  "CubicVolumeFT3": "0.261000007390976",
  "DeclaredNetContentUOMCode": "",
  "DeclaredNetContent": 0,
  "DisplayReadyPackagingIndicator": false,
  "eCommProductName": "Heinz Apple Cider Vinegar 1 Gal Jug",
  "eCommProductFeature": "#1 national brand ; 5% acidity ; Made from Ingredients of the highest quality ; Est. 1869",
  "FirstAvailableShipDate": "2015-07-02T00:00:00",
  "FunctionalName": "Relish, Pickles & Vinegar",
  "GeneralMktDescription": "The natural choice for food",
  "GlobalProductClassificationCode": "10000051",
  "GrocerySnackIndicatorName": "Grocery",
  "GrossWeight": 0,
  "GrossWeightLB": 9.1269998550415,
  "GrossWeightOZ": 146.035995483398,
  "GTIN": "00013000008273",
  "GTINVariableWeight": false,
  "HeightMM": 302.006988525391,
  "HeightIN": 11.8900003433228,
  "MaximumStackingWeight": 0,
  "ID": 0,
  "IngredientInformationStatement": "INGREDIENTS: MADE FROM THE JUICE OF APPLES, DILUTED WITH WATER TO A UNIFORM PICKLING AND TABLE STRENGTH OF 5% (50 GRAINS) ACIDITY.",
  "IngredientInfoCrossContStatement": "",
  "IngredientInfoDoesContainStatement": "",
  "NUTRIENT_HEALTH_CLAIMS": "",
  "INGREDIENT_OTHER_CLAIMS": "",
  "GMO_DISCLOSURE_TYPE": "",
  "F_REFERRAL_DISCLOSURE_STATEMENT": "",
  "GMO_Statement": "",
  "IngredientInfoHHServingSize": "1 Tbsp (15mL)",
  "IsPackagingMarkedReturnable": false,
  "KosherSuitabilityInfoIndicator": false,
  "KosherSuitabilityCertAgency": "",
  "KosherSuitabilityInfoSymbol": "",
  "KosherSuitabilityInfoDocNumber": "",
  "KraftItemCode": "00130000082770",
  "LenghtDepthMM": 156.00700378418,
  "LenghtDepthIN": 6.14200019836426,
  "Name": "HNZ APL CIDER VINGAR PLASTIC 41GAL",
  "NetWeightLB": 8.4,
  "NetWeightOZ": 135,
  "NextLowerLevelUnitsPerTradeUnit": "1",
  "NTRNRlvntPrvdFlag": false,
  "NutrSrv1CalAmt": "",
  "F_NUTRSRV1_CA_AMT": "",
  "NutrSrv1CaRDA": "0",
  "NutrSrv1CholRDA": "",
  "NutrSrv1ChoRDA": "",
  "NutrSrv1EnerpfAmt": "",
  "NutrSrv1FastatRDA": "",
  "NutrSrv1FastatAmt": "",
  "NutrSrv1FatAmt": "",
  "NutrSrv1FatRDA": "",
  "NutrSrv1FatrnAmt": "",
  "NutrSrv1FibtswAmt": "",
  "NutrSrv1FibtswRDA": "",
  "NutrSrv1HaemRDA": "",
  "NutrSrv1KAmt": "",
  "NutrSrv1KRDA": null,
  "NutrSrv1NaRDA": "",
  "NutrSrv1NaAmt": "",
  "NutrSrv1PRDA": "",
  "NutrSrv1Prepstate": "",
  "NutrSrv1ProAmt": "",
  "NutrSrv1ServSize": "",
  "NutrSrv1SugarAmt": "",
  "NutrSrv1VitARDA": "0.00",
  "NutrSrv1VitCRDA": "0.00",
  "OrderableUnitFlag": true,
  "OrganicSuitabilityInfoIndicator": false,
  "PackagingLanguage": "ENG",
  "PackagingMaterialTypeCode": "",
  "PackagingTypeCode": "BOTTLE",
  "PID": 6537,
  "ParentID": "C_HEINZ|Relish, Pickles & Vinegar",
  "PrepAndCookSuggestion": "",
  "PrepTypeName": "",
  "ProductID": "00013000008273",
  "ProductDescriptionShort": "HNZ APL CIDER VINGAR PLASTIC 41GAL",
  "ProductDescriptionGrid": "HEINZ 1 GA RELISH, PICKLES & VINEGAR  APPLE CIDER VINEGAR     1 BOTTLE EACH",
  "ProductHierarchyCatalystCode": "",
  "RemoveFromKraftRecipe": false,
  "Referenced": false,
  "Selected": false,
  "seoFriendlyName": "",
  "ServingsOfTradeItemUnit": "",
  "ServingSuggestions": "",
  "SeasonalCode": "",
  "SubVariant": "",
  "TemperatureMinFarenheit": "-50",
  "ThumbnailPath": "http://assets.kraftfoods.com/KHProducts/220x225/00013000008273_A1C1.jpg",
  "TotalShelfLife": "720",
  "UnitDescriptorCode": "EACH",
  "UserTypeID": "CONSUMER_UNIT",
  "VariantName": "APPLE CIDER VINEGAR",
  "WidthMM": 156.998001098633,
  "WidthIN": 6.18100023269653,
  "CreatedBy": null,
  "Created": "0001-01-01T00:00:00",
  "UPC": "013000008273",
  "WilkeUPC": "001300000827",
  "UpdatedBy": null,
  "Updated": "2018-02-27T04:56:46",
  "DeclaredNetContentFO": "",
  "DeclaredNetContentPT": "",
  "DeclaredNetContentML": "",
  "DeclaredNetContentOZ": "",
  "DeclaredNetContentGR": "",
  "DeclaredNetContentKG": "",
  "DeclaredNetContentLB": "",
  "DeclaredNetContent1N": "",
  "DeclaredNetContentText": "",
  "GrossWeightKG": "4.140000",
  "GrossWeightGR": "4140.092773",
  "NetWeightKG": "3.827000",
  "NetWeightGR": "3827.337891",
  "TemperatureClassificationCode": "01",
  "FactsPanelLabelType": "",
  "DivisionCatalyst": "70",
  "F_NUTRSRV1_BIOT_AMT": "",
  "F_NUTRSRV1_BIOT_RDA": "",
  "F_NUTRSRV1_CAL_RDA": "",
  "F_NUTRSRV1_CHO_AMT": "",
  "F_NUTRSRV1_CHOAVL_AMT": "",
  "F_NUTRSRV1_CHOL_AMT": "",
  "F_NUTRSRV1_CLD_RDA": "",
  "F_NUTRSRV1_CR_RDA": "",
  "F_NUTRSRV1_CU_RDA": "",
  "F_NUTRSRV1_DIFCA_AMT": "",
  "F_NUTRSRV1_DIFCA_RDA": "",
  "F_NUTRSRV1_ENER_AMT": "",
  "F_NUTRSRV1_ENER_RDA": "",
  "F_NUTRSRV1_ENERPF_RDA": "",
  "F_NUTRSRV1_FAMS_AMT": "",
  "F_NUTRSRV1_FAPU_AMT": "",
  "F_NUTRSRV1_FAPUN3_AMT": "",
  "F_NUTRSRV1_FAPUN6_AMT": "",
  "F_NUTRSRV1_FAPUN6_RDA": "",
  "F_NUTRSRV1_FATRN_RDA": "",
  "F_NUTRSRV1_FIB_RDA": "",
  "F_NUTRSRV1_FIBINS_AMT": "",
  "F_NUTRSRV1_FIBSOL_AMT": "",
  "F_NUTRSRV1_FOL_AMT": "",
  "F_NUTRSRV1_FOL_RDA": "",
  "F_NUTRSRV1_HAEM_AMT": "",
  "F_NUTRSRV1_ID_RDA": "",
  "F_NUTRSRV1_K_AMT": "",
  "F_NUTRSRV1_K_RDA": "",
  "F_NUTRSRV1_MG_AMT": "",
  "F_NUTRSRV1_MG_RDA": "",
  "F_NUTRSRV1_MN_AMT": "",
  "F_NUTRSRV1_MN_RDA": "",
  "F_NUTRSRV1_MO_RDA": "",
  "F_NUTRSRV1_NIA_AMT": "",
  "F_NUTRSRV1_NIA_RDA": "",
  "F_NUTRSRV1_NIAEQ_RDA": "",
  "F_NUTRSRV1_P_AMT": "",
  "F_NUTRSRV1_PANTAC_AMT": "",
  "F_NUTRSRV1_PANTAC_RDA": "",
  "F_NUTRSRV1_PRO_RDA": "",
  "F_NUTRSRV1_RIBF_AMT": "",
  "F_NUTRSRV1_RIBF_RDA": "",
  "F_NUTRSRV1_SATFAT_AMT": "",
  "F_NUTRSRV1_SATFAT_RDA": "",
  "F_NUTRSRV1_SE_RDA": "",
  "F_NUTRSRV1_SUGALC_AMT": "",
  "F_NUTRSRV1_SUGAR_RDA": "",
  "F_NUTRSRV1_ADDSUG_RDA": "",
  "F_NUTRSRV1_ADDSUG_AMT": "",
  "F_NUTRSRV1_THIA_AMT": "",
  "F_NUTRSRV1_THIA_RDA": "",
  "F_NUTRSRV1_VITAA_AMT": "",
  "F_NUTRSRV1_VITAA_RDA": "",
  "F_NUTRSRV1_VITAECA_RDA": "",
  "F_NUTRSRV1_VITB12_AMT": "",
  "F_NUTRSRV1_VITB12_RDA": "",
  "F_NUTRSRV1_VITB6_AMT": "",
  "F_NUTRSRV1_VITB6_RDA": "",
  "F_NUTRSRV1_VITC_AMT": "",
  "F_NUTRSRV1_VITD_AMT": "",
  "F_NUTRSRV1_VITD_RDA": "",
  "F_NUTRSRV1_VITDCA_RDA": "",
  "F_NUTRSRV1_VITE_RDA": "",
  "F_NUTRSRV1_VITK_AMT": "",
  "F_NUTRSRV1_VITK_RDA": "",
  "F_NUTRSRV1_ZN_AMT": "",
  "F_NUTRSRV1_ZN_RDA": "",
  "F_NUTRSRV100G_ADDSUG_AMT": "",
  "F_NUTRSRV100G_BIOT_AMT": "",
  "F_NUTRSRV100G_BIOT_RDA": "",
  "F_NUTRSRV100G_CA_AMT": "",
  "F_NUTRSRV100G_CA_RDA": "",
  "F_NUTRSRV100G_CAL_AMT": "",
  "F_NUTRSRV100G_CAL_RDA": "",
  "F_NUTRSRV100G_CHO_AMT": "",
  "F_NUTRSRV100G_CHO_RDA": "",
  "F_NUTRSRV100G_CHOL_AMT": "",
  "F_NUTRSRV100G_CHOL_RDA": "",
  "F_NUTRSRV100G_CU_RDA": "",
  "F_NUTRSRV100G_DIFCA_AMT": "",
  "F_NUTRSRV100G_DIFCA_RDA": "",
  "F_NUTRSRV100G_ENER_AMT": "",
  "F_NUTRSRV100G_ENERPF_AMT": "",
  "F_NUTRSRV100G_ENERPF_RDA": "",
  "F_NUTRSRV100G_FAMS_AMT": "",
  "F_NUTRSRV100G_FAPU_AMT": "",
  "F_NUTRSRV100G_FAPUN3_AMT": "",
  "F_NUTRSRV100G_FAPUN6_AMT": "",
  "F_NUTRSRV100G_FASAT_AMT": "",
  "F_NUTRSRV100G_FASAT_RDA": "",
  "F_NUTRSRV100G_FAT_AMT": "",
  "F_NUTRSRV100G_FAT_RDA": "",
  "F_NUTRSRV100G_FATRN_AMT": "",
  "F_NUTRSRV100G_FATRN_RDA": "",
  "F_NUTRSRV100G_FIBTSW_AMT": "",
  "F_NUTRSRV100G_FIBTSW_RDA": "",
  "F_NUTRSRV100G_FOL_AMT": "",
  "F_NUTRSRV100G_FOL_RDA": "",
  "F_NUTRSRV100G_HAEM_AMT": "",
  "F_NUTRSRV100G_HAEM_RDA": "",
  "F_NUTRSRV100G_ID_RDA": "",
  "F_NUTRSRV100G_K_AMT": "",
  "F_NUTRSRV100G_K_RDA": "",
  "F_NUTRSRV100G_MG_AMT": "",
  "F_NUTRSRV100G_MG_RDA": "",
  "F_NUTRSRV100G_MN_AMT": "",
  "F_NUTRSRV100G_NA_AMT": "",
  "F_NUTRSRV100G_NA_RDA": "",
  "F_NUTRSRV100G_NIA_AMT": "",
  "F_NUTRSRV100G_NIA_RDA": "",
  "F_NUTRSRV100G_P_AMT": "",
  "F_NUTRSRV100G_P_RDA": "",
  "F_NUTRSRV100G_PANTAC_AMT": "",
  "F_NUTRSRV100G_PANTAC_RDA": "",
  "F_NUTRSRV100G_PRO_AMT": "",
  "F_NUTRSRV100G_PRO_RDA": "",
  "F_NUTRSRV100G_RIBF_AMT": "",
  "F_NUTRSRV100G_RIBF_RDA": "",
  "F_NUTRSRV100G_SATFAT_AMT": "",
  "F_NUTRSRV100G_SATFAT_RDA": "",
  "F_NUTRSRV100G_SUGALC_AMT": "",
  "F_NUTRSRV100G_SUGAR_AMT": "",
  "F_NUTRSRV100G_SUGAR_RDA": "",
  "F_NUTRSRV100G_THIA_AMT": "",
  "F_NUTRSRV100G_THIA_RDA": "",
  "F_NUTRSRV100G_VITA_AMT": "",
  "F_NUTRSRV100G_VITA_RDA": "",
  "F_NUTRSRV100G_VITAA_AMT": "",
  "F_NUTRSRV100G_VITAA_RDA": "",
  "F_NUTRSRV100G_VITB12_AMT": "",
  "F_NUTRSRV100G_VITB6_AMT": "",
  "F_NUTRSRV100G_VITB6_RDA": "",
  "F_NUTRSRV100G_VITC_AMT": "",
  "F_NUTRSRV100G_VITC_RDA": "",
  "F_NUTRSRV100G_VITD_AMT": "",
  "F_NUTRSRV100G_VITDCA_AMT": "",
  "F_NUTRSRV100G_VITE_AMT": "",
  "F_NUTRSRV100G_ZN_AMT": "",
  "F_NUTRSRV100G_ZN_RDA": "",
  "F_NUTRSRV2_CA_RDA": "",
  "F_NUTRSRV2_CAL_AMT": "",
  "F_NUTRSRV2_CHO_AMT": "",
  "F_NUTRSRV2_CHO_RDA": "",
  "F_NUTRSRV2_CHOL_AMT": "",
  "F_NUTRSRV2_CHOL_RDA": "",
  "F_NUTRSRV2_CU_RDA": "",
  "F_NUTRSRV2_DIFCA_AMT": "",
  "F_NUTRSRV2_DIFCA_RDA": "",
  "F_NUTRSRV2_ENER_AMT": "",
  "F_NUTRSRV2_ENERPF_AMT": "",
  "F_NUTRSRV2_FAMS_AMT": "",
  "F_NUTRSRV2_FAPU_AMT": "",
  "F_NUTRSRV2_FAPUN3_AMT": "",
  "F_NUTRSRV2_FAPUN6_AMT": "",
  "F_NUTRSRV2_FASAT_AMT": "",
  "F_NUTRSRV2_FASAT_RDA": "",
  "F_NUTRSRV2_FAT_AMT": "",
  "F_NUTRSRV2_FAT_RDA": "",
  "F_NUTRSRV2_FATRN_AMT": "",
  "F_NUTRSRV2_FIBTSW_AMT": "",
  "F_NUTRSRV2_FIBTSW_RDA": "",
  "F_NUTRSRV2_FOL_RDA": "",
  "F_NUTRSRV2_HAEM_RDA": "",
  "F_NUTRSRV2_K_AMT": "",
  "F_NUTRSRV2_K_RDA": "",
  "F_NUTRSRV2_MG_RDA": "",
  "F_NUTRSRV2_MN_RDA": "",
  "F_NUTRSRV2_NA_AMT": "",
  "F_NUTRSRV2_NA_RDA": "",
  "F_NUTRSRV2_NIA_RDA": "",
  "F_NUTRSRV2_NIAEQ_RDA": "",
  "F_NUTRSRV2_P_RDA": "",
  "F_NUTRSRV2_PRO_AMT": "",
  "F_NUTRSRV2_PRO_RDA": "",
  "F_NUTRSRV2_RIBF_RDA": "",
  "F_NUTRSRV2_SATFAT_AMT": "",
  "F_NUTRSRV2_SATFAT_RDA": "",
  "F_NUTRSRV2_SUGAR_AMT": "",
  "F_NUTRSRV2_THIA_RDA": "",
  "F_NUTRSRV2_VITA_RDA": "",
  "F_NUTRSRV2_VITAA_RDA": "",
  "F_NUTRSRV2_VITC_AMT": "",
  "F_NUTRSRV2_VITC_RDA": "",
  "F_NUTRSRV2_VITE_RDA": "",
  "F_NUTRSRV2_ZN_RDA": "",
  "F_NUTRSRV3_CA_AMT": "",
  "F_NUTRSRV3_CA_RDA": "",
  "F_NUTRSRV3_CAL_AMT": "",
  "F_NUTRSRV3_CHO_AMT": "",
  "F_NUTRSRV3_CHO_RDA": "",
  "F_NUTRSRV3_CHOL_AMT": "",
  "F_NUTRSRV3_CHOL_RDA": "",
  "F_NUTRSRV3_DIFCA_AMT": "",
  "F_NUTRSRV3_DIFCA_RDA": "",
  "F_NUTRSRV3_ENER_AMT": "",
  "F_NUTRSRV3_ENERPF_AMT": "",
  "F_NUTRSRV3_FAMS_AMT": "",
  "F_NUTRSRV3_FAPU_AMT": "",
  "F_NUTRSRV3_FAPUN3_AMT": "",
  "F_NUTRSRV3_FAPUN6_AMT": "",
  "F_NUTRSRV3_FASAT_AMT": "",
  "F_NUTRSRV3_FASAT_RDA": "",
  "F_NUTRSRV3_FAT_AMT": "",
  "F_NUTRSRV3_FAT_RDA": "",
  "F_NUTRSRV3_FATRN_AMT": "",
  "F_NUTRSRV3_FIBTSW_AMT": "",
  "F_NUTRSRV3_FIBTSW_RDA": "",
  "F_NUTRSRV3_HAEM_AMT": "",
  "F_NUTRSRV3_HAEM_RDA": "",
  "F_NUTRSRV3_K_AMT": "",
  "F_NUTRSRV3_K_RDA": "",
  "F_NUTRSRV3_MG_RDA": "",
  "F_NUTRSRV3_MN_RDA": "",
  "F_NUTRSRV3_NA_AMT": "",
  "F_NUTRSRV3_NA_RDA": "",
  "F_NUTRSRV3_NIA_RDA": "",
  "F_NUTRSRV3_P_AMT": "",
  "F_NUTRSRV3_P_RDA": "",
  "F_NUTRSRV3_PRO_AMT": "",
  "F_NUTRSRV3_PRO_RDA": "",
  "F_NUTRSRV3_SATFAT_RDA": "",
  "F_NUTRSRV3_SUGAR_AMT": "",
  "F_NUTRSRV3_VITA_RDA": "",
  "F_NUTRSRV3_VITAA_RDA": "",
  "F_NUTRSRV3_VITC_RDA": "",
  "F_NUTRSRV3_VITE_RDA": "",
  "F_NUTRSRV1_VITE_AMT": "",
  "F_NUTRSRV2_HAEM_AMT": "",
  "F_NUTRSRV2_VITAA_AMT": "",
  "F_NUTRSRV2_CA_AMT": "",
  "NutrSrv100gDIFCAPrecision": "",
  "NutrSrv100gEnerPrecision": "",
  "NutrSrv100gPAmt": 0,
  "NutrSrv100gCAAmt": 0,
  "LanguageCode": "eng",
  "P_ECOMMERCE_PRODUCT_NAME_R5": "",
  "ProductBrands": [
    {
      "BrandID": 130,
      "Name": "HEINZ",
      "SiteId": 0,
      "ParentId": 0,
      "seoFriendlyName": "",
      "Created": "0001-01-01T00:00:00",
      "CreatedBy": null,
      "Updated": "0001-01-01T00:00:00",
      "UpdatedBy": null,
      "ErrorFlag": false,
      "ErrorMessage": null
    }
  ],
  "ProductAssets": [
    {
      "PID": 0,
      "Type": null,
      "RendtitionName": null,
      "Renditions": [
        {
          "Id": 0,
          "AssetId": "21559",
          "RenditionId": 0,
          "RenditionName": "120x84",
          "AssetPath": "http://assets.kraftfoods.com/KHProducts/120x84/00013000008273_A1C1.jpg",
          "Type": "Primary Image"
        },
        {
          "Id": 0,
          "AssetId": "21559",
          "RenditionId": 0,
          "RenditionName": "1365x960",
          "AssetPath": "http://assets.kraftfoods.com/KHProducts/1365x960/00013000008273_A1C1.jpg",
          "Type": "Primary Image"
        },
        {
          "Id": 0,
          "AssetId": "21559",
          "RenditionId": 0,
          "RenditionName": "220x225",
          "AssetPath": "http://assets.kraftfoods.com/KHProducts/220x225/00013000008273_A1C1.jpg",
          "Type": "Primary Image"
        },
        {
          "Id": 0,
          "AssetId": "21559",
          "RenditionId": 0,
          "RenditionName": "290x194",
          "AssetPath": "http://assets.kraftfoods.com/KHProducts/290x194/00013000008273_A1C1.jpg",
          "Type": "Primary Image"
        },
        {
          "Id": 0,
          "AssetId": "21559",
          "RenditionId": 0,
          "RenditionName": "455x320",
          "AssetPath": "http://assets.kraftfoods.com/KHProducts/455x320/00013000008273_A1C1.jpg",
          "Type": "Primary Image"
        },
        {
          "Id": 0,
          "AssetId": "21559",
          "RenditionId": 0,
          "RenditionName": "600x250",
          "AssetPath": "http://assets.kraftfoods.com/KHProducts/600x250/00013000008273_A1C1.jpg",
          "Type": "Primary Image"
        },
        {
          "Id": 0,
          "AssetId": "21559",
          "RenditionId": 0,
          "RenditionName": "960x300",
          "AssetPath": "http://assets.kraftfoods.com/KHProducts/960x300/00013000008273_A1C1.jpg",
          "Type": "Primary Image"
        }
      ],
      "ID": 0,
      "AssetID": "21559",
      "UserTypeID": "ECOMMERCE_IMAGES",
      "ParentID": null,
      "Selected": false,
      "Referenced": false,
      "StartDate": "2017-10-17T09:04:10",
      "EndDate": "2099-01-01T00:00:00",
      "FileFormat": null,
      "ImageType": "Color Front  ",
      "SourceURL": "https://dam.kraftheinzcompany.com/adaptivemedia/rendition/00013000008273_A1C1.JPG?id=1970e1e7b27ab84aa6af2aad32c3abd259d569a7&ht=1500&wd=1500&version=2&clid=pim  ",
      "FileName": "00013000008273_A1C1  "
    },
    {
      "PID": 0,
      "Type": null,
      "RendtitionName": null,
      "Renditions": [
        {
          "Id": 0,
          "AssetId": "21559",
          "RenditionId": 0,
          "RenditionName": "120x84",
          "AssetPath": "http://assets.kraftfoods.com/KHProducts/120x84/00013000008273_A1C1.jpg",
          "Type": "Primary Image"
        },
        {
          "Id": 0,
          "AssetId": "21559",
          "RenditionId": 0,
          "RenditionName": "1365x960",
          "AssetPath": "http://assets.kraftfoods.com/KHProducts/1365x960/00013000008273_A1C1.jpg",
          "Type": "Primary Image"
        },
        {
          "Id": 0,
          "AssetId": "21559",
          "RenditionId": 0,
          "RenditionName": "220x225",
          "AssetPath": "http://assets.kraftfoods.com/KHProducts/220x225/00013000008273_A1C1.jpg",
          "Type": "Primary Image"
        },
        {
          "Id": 0,
          "AssetId": "21559",
          "RenditionId": 0,
          "RenditionName": "290x194",
          "AssetPath": "http://assets.kraftfoods.com/KHProducts/290x194/00013000008273_A1C1.jpg",
          "Type": "Primary Image"
        },
        {
          "Id": 0,
          "AssetId": "21559",
          "RenditionId": 0,
          "RenditionName": "455x320",
          "AssetPath": "http://assets.kraftfoods.com/KHProducts/455x320/00013000008273_A1C1.jpg",
          "Type": "Primary Image"
        },
        {
          "Id": 0,
          "AssetId": "21559",
          "RenditionId": 0,
          "RenditionName": "600x250",
          "AssetPath": "http://assets.kraftfoods.com/KHProducts/600x250/00013000008273_A1C1.jpg",
          "Type": "Primary Image"
        },
        {
          "Id": 0,
          "AssetId": "21559",
          "RenditionId": 0,
          "RenditionName": "960x300",
          "AssetPath": "http://assets.kraftfoods.com/KHProducts/960x300/00013000008273_A1C1.jpg",
          "Type": "Primary Image"
        }
      ],
      "ID": 0,
      "AssetID": "22409",
      "UserTypeID": "ECOMMERCE_IMAGES",
      "ParentID": null,
      "Selected": false,
      "Referenced": false,
      "StartDate": "2016-06-25T00:00:00",
      "EndDate": "2025-12-31T00:00:00",
      "FileFormat": null,
      "ImageType": "Product Image  ",
      "SourceURL": "",
      "FileName": "00013000008273_A1L1  "
    },
    {
      "PID": 0,
      "Type": null,
      "RendtitionName": null,
      "Renditions": [
        {
          "Id": 0,
          "AssetId": "21559",
          "RenditionId": 0,
          "RenditionName": "120x84",
          "AssetPath": "http://assets.kraftfoods.com/KHProducts/120x84/00013000008273_A1C1.jpg",
          "Type": "Primary Image"
        },
        {
          "Id": 0,
          "AssetId": "21559",
          "RenditionId": 0,
          "RenditionName": "1365x960",
          "AssetPath": "http://assets.kraftfoods.com/KHProducts/1365x960/00013000008273_A1C1.jpg",
          "Type": "Primary Image"
        },
        {
          "Id": 0,
          "AssetId": "21559",
          "RenditionId": 0,
          "RenditionName": "220x225",
          "AssetPath": "http://assets.kraftfoods.com/KHProducts/220x225/00013000008273_A1C1.jpg",
          "Type": "Primary Image"
        },
        {
          "Id": 0,
          "AssetId": "21559",
          "RenditionId": 0,
          "RenditionName": "290x194",
          "AssetPath": "http://assets.kraftfoods.com/KHProducts/290x194/00013000008273_A1C1.jpg",
          "Type": "Primary Image"
        },
        {
          "Id": 0,
          "AssetId": "21559",
          "RenditionId": 0,
          "RenditionName": "455x320",
          "AssetPath": "http://assets.kraftfoods.com/KHProducts/455x320/00013000008273_A1C1.jpg",
          "Type": "Primary Image"
        },
        {
          "Id": 0,
          "AssetId": "21559",
          "RenditionId": 0,
          "RenditionName": "600x250",
          "AssetPath": "http://assets.kraftfoods.com/KHProducts/600x250/00013000008273_A1C1.jpg",
          "Type": "Primary Image"
        },
        {
          "Id": 0,
          "AssetId": "21559",
          "RenditionId": 0,
          "RenditionName": "960x300",
          "AssetPath": "http://assets.kraftfoods.com/KHProducts/960x300/00013000008273_A1C1.jpg",
          "Type": "Primary Image"
        }
      ],
      "ID": 0,
      "AssetID": "47792",
      "UserTypeID": "ECOMMERCE_IMAGES",
      "ParentID": null,
      "Selected": false,
      "Referenced": false,
      "StartDate": "2017-10-17T09:04:10",
      "EndDate": "2099-01-01T00:00:00",
      "FileFormat": null,
      "ImageType": "Targa Image Bundle  ",
      "SourceURL": "https://dam.kraftheinzcompany.com/adaptivemedia/rendition/00013000008273_SHELFMAN.JPG?id=5ec5ea5bd0c7b886f96af520e08e02da829cdd8c&ht=143&wd=72&version=2&clid=pim  ",
      "FileName": "00013000008273_SHELFMAN  "
    },
    {
      "PID": 0,
      "Type": null,
      "RendtitionName": null,
      "Renditions": [
        {
          "Id": 0,
          "AssetId": "21559",
          "RenditionId": 0,
          "RenditionName": "120x84",
          "AssetPath": "http://assets.kraftfoods.com/KHProducts/120x84/00013000008273_A1C1.jpg",
          "Type": "Primary Image"
        },
        {
          "Id": 0,
          "AssetId": "21559",
          "RenditionId": 0,
          "RenditionName": "1365x960",
          "AssetPath": "http://assets.kraftfoods.com/KHProducts/1365x960/00013000008273_A1C1.jpg",
          "Type": "Primary Image"
        },
        {
          "Id": 0,
          "AssetId": "21559",
          "RenditionId": 0,
          "RenditionName": "220x225",
          "AssetPath": "http://assets.kraftfoods.com/KHProducts/220x225/00013000008273_A1C1.jpg",
          "Type": "Primary Image"
        },
        {
          "Id": 0,
          "AssetId": "21559",
          "RenditionId": 0,
          "RenditionName": "290x194",
          "AssetPath": "http://assets.kraftfoods.com/KHProducts/290x194/00013000008273_A1C1.jpg",
          "Type": "Primary Image"
        },
        {
          "Id": 0,
          "AssetId": "21559",
          "RenditionId": 0,
          "RenditionName": "455x320",
          "AssetPath": "http://assets.kraftfoods.com/KHProducts/455x320/00013000008273_A1C1.jpg",
          "Type": "Primary Image"
        },
        {
          "Id": 0,
          "AssetId": "21559",
          "RenditionId": 0,
          "RenditionName": "600x250",
          "AssetPath": "http://assets.kraftfoods.com/KHProducts/600x250/00013000008273_A1C1.jpg",
          "Type": "Primary Image"
        },
        {
          "Id": 0,
          "AssetId": "21559",
          "RenditionId": 0,
          "RenditionName": "960x300",
          "AssetPath": "http://assets.kraftfoods.com/KHProducts/960x300/00013000008273_A1C1.jpg",
          "Type": "Primary Image"
        }
      ],
      "ID": 0,
      "AssetID": "47793",
      "UserTypeID": "ECOMMERCE_IMAGES",
      "ParentID": null,
      "Selected": false,
      "Referenced": false,
      "StartDate": "2017-10-17T09:04:10",
      "EndDate": "2099-01-01T00:00:00",
      "FileFormat": null,
      "ImageType": "Barcode  ",
      "SourceURL": "https://dam.kraftheinzcompany.com/adaptivemedia/rendition/00013000008273_BC.JPG?id=be57083ca55890dc77962f8d959deed82e160f86&ht=324&wd=449&version=2&clid=pim  ",
      "FileName": "00013000008273_BC  "
    }
  ],
  "ProductAllergens": [],
  "ProductVariants": [
    {
      "VariantName": "APPLE CIDER VINEGAR",
      "SubVariant": "",
      "Count": 3,
      "DefaultProductGTIN": "00021000033720"
    }
  ],
  "SizeVariants": [
    {
      "SizeVariantOZ": 128.11500549316406,
      "Count": 1,
      "DefaultProductGTIN": "00013000007627"
    },
    {
      "SizeVariantOZ": 135.00399780273438,
      "Count": 1,
      "DefaultProductGTIN": "00013000008273"
    },
    {
      "SizeVariantOZ": 540.0159912109375,
      "Count": 1,
      "DefaultProductGTIN": "10013000008270"
    }
  ]
}