{
  "ErrorFlag": false,
  "ErrorMessage": "No Product Assets found",
  "AuthorizedSellingGroupsName": null,
  "AllergenInformationSpecName": null,
  "AllergenRelevantProvidedFlag": false,
  "BrandName": null,
  "BrandOwnerGLN": null,
  "ConsumerUnitFlag": false,
  "CountryOfProduction": null,
  "CountryOfSale": null,
  "CrossDistributionChainStatusCode": null,
  "CrossDistributionChainStatusName": null,
  "CubicVolumeMR3": null,
  "CubicVolumeFT3": null,
  "DeclaredNetContentUOMCode": null,
  "DeclaredNetContent": 0,
  "DisplayReadyPackagingIndicator": false,
  "eCommProductName": null,
  "eCommProductFeature": null,
  "FirstAvailableShipDate": "0001-01-01T00:00:00",
  "FunctionalName": null,
  "GeneralMktDescription": null,
  "GlobalProductClassificationCode": null,
  "GrocerySnackIndicatorName": null,
  "GrossWeight": 0,
  "GrossWeightLB": 0,
  "GrossWeightOZ": 0,
  "GTIN": "00068100895537",
  "GTINVariableWeight": false,
  "HeightMM": 0,
  "HeightIN": 0,
  "MaximumStackingWeight": 0,
  "ID": 0,
  "IngredientInformationStatement": null,
  "IngredientInfoCrossContStatement": null,
  "IngredientInfoDoesContainStatement": null,
  "NUTRIENT_HEALTH_CLAIMS": null,
  "INGREDIENT_OTHER_CLAIMS": null,
  "GMO_DISCLOSURE_TYPE": null,
  "F_REFERRAL_DISCLOSURE_STATEMENT": null,
  "GMO_Statement": null,
  "IngredientInfoHHServingSize": null,
  "IsPackagingMarkedReturnable": false,
  "KosherSuitabilityInfoIndicator": false,
  "KosherSuitabilityCertAgency": null,
  "KosherSuitabilityInfoSymbol": null,
  "KosherSuitabilityInfoDocNumber": null,
  "KraftItemCode": null,
  "LenghtDepthMM": 0,
  "LenghtDepthIN": 0,
  "Name": null,
  "NetWeightLB": 0,
  "NetWeightOZ": 0,
  "NextLowerLevelUnitsPerTradeUnit": null,
  "NTRNRlvntPrvdFlag": false,
  "NutrSrv1CalAmt": null,
  "F_NUTRSRV1_CA_AMT": null,
  "NutrSrv1CaRDA": null,
  "NutrSrv1CholRDA": null,
  "NutrSrv1ChoRDA": null,
  "NutrSrv1EnerpfAmt": null,
  "NutrSrv1FastatRDA": null,
  "NutrSrv1FastatAmt": null,
  "NutrSrv1FatAmt": null,
  "NutrSrv1FatRDA": null,
  "NutrSrv1FatrnAmt": null,
  "NutrSrv1FibtswAmt": null,
  "NutrSrv1FibtswRDA": null,
  "NutrSrv1HaemRDA": null,
  "NutrSrv1KAmt": null,
  "NutrSrv1KRDA": null,
  "NutrSrv1NaRDA": null,
  "NutrSrv1NaAmt": null,
  "NutrSrv1PRDA": null,
  "NutrSrv1Prepstate": null,
  "NutrSrv1ProAmt": null,
  "NutrSrv1ServSize": null,
  "NutrSrv1SugarAmt": null,
  "NutrSrv1VitARDA": null,
  "NutrSrv1VitCRDA": null,
  "OrderableUnitFlag": false,
  "OrganicSuitabilityInfoIndicator": false,
  "PackagingLanguage": null,
  "PackagingMaterialTypeCode": null,
  "PackagingTypeCode": null,
  "PID": 0,
  "ParentID": null,
  "PrepAndCookSuggestion": null,
  "PrepTypeName": null,
  "ProductID": null,
  "ProductDescriptionShort": null,
  "ProductDescriptionGrid": null,
  "ProductHierarchyCatalystCode": null,
  "RemoveFromKraftRecipe": false,
  "Referenced": false,
  "Selected": false,
  "seoFriendlyName": null,
  "ServingsOfTradeItemUnit": null,
  "ServingSuggestions": null,
  "SeasonalCode": null,
  "SubVariant": null,
  "TemperatureMinFarenheit": null,
  "ThumbnailPath": null,
  "TotalShelfLife": null,
  "UnitDescriptorCode": null,
  "UserTypeID": null,
  "VariantName": null,
  "WidthMM": 0,
  "WidthIN": 0,
  "CreatedBy": null,
  "Created": "0001-01-01T00:00:00",
  "UPC": null,
  "WilkeUPC": null,
  "UpdatedBy": null,
  "Updated": "0001-01-01T00:00:00",
  "DeclaredNetContentFO": null,
  "DeclaredNetContentPT": null,
  "DeclaredNetContentML": null,
  "DeclaredNetContentOZ": null,
  "DeclaredNetContentGR": null,
  "DeclaredNetContentKG": null,
  "DeclaredNetContentLB": null,
  "DeclaredNetContent1N": null,
  "DeclaredNetContentText": null,
  "GrossWeightKG": null,
  "GrossWeightGR": null,
  "NetWeightKG": null,
  "NetWeightGR": null,
  "TemperatureClassificationCode": null,
  "FactsPanelLabelType": null,
  "DivisionCatalyst": null,
  "F_NUTRSRV1_BIOT_AMT": null,
  "F_NUTRSRV1_BIOT_RDA": null,
  "F_NUTRSRV1_CAL_RDA": null,
  "F_NUTRSRV1_CHO_AMT": null,
  "F_NUTRSRV1_CHOAVL_AMT": null,
  "F_NUTRSRV1_CHOL_AMT": null,
  "F_NUTRSRV1_CLD_RDA": null,
  "F_NUTRSRV1_CR_RDA": null,
  "F_NUTRSRV1_CU_RDA": null,
  "F_NUTRSRV1_DIFCA_AMT": null,
  "F_NUTRSRV1_DIFCA_RDA": null,
  "F_NUTRSRV1_ENER_AMT": null,
  "F_NUTRSRV1_ENER_RDA": null,
  "F_NUTRSRV1_ENERPF_RDA": null,
  "F_NUTRSRV1_FAMS_AMT": null,
  "F_NUTRSRV1_FAPU_AMT": null,
  "F_NUTRSRV1_FAPUN3_AMT": null,
  "F_NUTRSRV1_FAPUN6_AMT": null,
  "F_NUTRSRV1_FAPUN6_RDA": null,
  "F_NUTRSRV1_FATRN_RDA": null,
  "F_NUTRSRV1_FIB_RDA": null,
  "F_NUTRSRV1_FIBINS_AMT": null,
  "F_NUTRSRV1_FIBSOL_AMT": null,
  "F_NUTRSRV1_FOL_AMT": null,
  "F_NUTRSRV1_FOL_RDA": null,
  "F_NUTRSRV1_HAEM_AMT": null,
  "F_NUTRSRV1_ID_RDA": null,
  "F_NUTRSRV1_K_AMT": null,
  "F_NUTRSRV1_K_RDA": null,
  "F_NUTRSRV1_MG_AMT": null,
  "F_NUTRSRV1_MG_RDA": null,
  "F_NUTRSRV1_MN_AMT": null,
  "F_NUTRSRV1_MN_RDA": null,
  "F_NUTRSRV1_MO_RDA": null,
  "F_NUTRSRV1_NIA_AMT": null,
  "F_NUTRSRV1_NIA_RDA": null,
  "F_NUTRSRV1_NIAEQ_RDA": null,
  "F_NUTRSRV1_P_AMT": null,
  "F_NUTRSRV1_PANTAC_AMT": null,
  "F_NUTRSRV1_PANTAC_RDA": null,
  "F_NUTRSRV1_PRO_RDA": null,
  "F_NUTRSRV1_RIBF_AMT": null,
  "F_NUTRSRV1_RIBF_RDA": null,
  "F_NUTRSRV1_SATFAT_AMT": null,
  "F_NUTRSRV1_SATFAT_RDA": null,
  "F_NUTRSRV1_SE_RDA": null,
  "F_NUTRSRV1_SUGALC_AMT": null,
  "F_NUTRSRV1_SUGAR_RDA": null,
  "F_NUTRSRV1_ADDSUG_RDA": null,
  "F_NUTRSRV1_ADDSUG_AMT": null,
  "F_NUTRSRV1_THIA_AMT": null,
  "F_NUTRSRV1_THIA_RDA": null,
  "F_NUTRSRV1_VITAA_AMT": null,
  "F_NUTRSRV1_VITAA_RDA": null,
  "F_NUTRSRV1_VITAECA_RDA": null,
  "F_NUTRSRV1_VITB12_AMT": null,
  "F_NUTRSRV1_VITB12_RDA": null,
  "F_NUTRSRV1_VITB6_AMT": null,
  "F_NUTRSRV1_VITB6_RDA": null,
  "F_NUTRSRV1_VITC_AMT": null,
  "F_NUTRSRV1_VITD_AMT": null,
  "F_NUTRSRV1_VITD_RDA": null,
  "F_NUTRSRV1_VITDCA_RDA": null,
  "F_NUTRSRV1_VITE_RDA": null,
  "F_NUTRSRV1_VITK_AMT": null,
  "F_NUTRSRV1_VITK_RDA": null,
  "F_NUTRSRV1_ZN_AMT": null,
  "F_NUTRSRV1_ZN_RDA": null,
  "F_NUTRSRV100G_ADDSUG_AMT": null,
  "F_NUTRSRV100G_BIOT_AMT": null,
  "F_NUTRSRV100G_BIOT_RDA": null,
  "F_NUTRSRV100G_CA_AMT": null,
  "F_NUTRSRV100G_CA_RDA": null,
  "F_NUTRSRV100G_CAL_AMT": null,
  "F_NUTRSRV100G_CAL_RDA": null,
  "F_NUTRSRV100G_CHO_AMT": null,
  "F_NUTRSRV100G_CHO_RDA": null,
  "F_NUTRSRV100G_CHOL_AMT": null,
  "F_NUTRSRV100G_CHOL_RDA": null,
  "F_NUTRSRV100G_CU_RDA": null,
  "F_NUTRSRV100G_DIFCA_AMT": null,
  "F_NUTRSRV100G_DIFCA_RDA": null,
  "F_NUTRSRV100G_ENER_AMT": null,
  "F_NUTRSRV100G_ENERPF_AMT": null,
  "F_NUTRSRV100G_ENERPF_RDA": null,
  "F_NUTRSRV100G_FAMS_AMT": null,
  "F_NUTRSRV100G_FAPU_AMT": null,
  "F_NUTRSRV100G_FAPUN3_AMT": null,
  "F_NUTRSRV100G_FAPUN6_AMT": null,
  "F_NUTRSRV100G_FASAT_AMT": null,
  "F_NUTRSRV100G_FASAT_RDA": null,
  "F_NUTRSRV100G_FAT_AMT": null,
  "F_NUTRSRV100G_FAT_RDA": null,
  "F_NUTRSRV100G_FATRN_AMT": null,
  "F_NUTRSRV100G_FATRN_RDA": null,
  "F_NUTRSRV100G_FIBTSW_AMT": null,
  "F_NUTRSRV100G_FIBTSW_RDA": null,
  "F_NUTRSRV100G_FOL_AMT": null,
  "F_NUTRSRV100G_FOL_RDA": null,
  "F_NUTRSRV100G_HAEM_AMT": null,
  "F_NUTRSRV100G_HAEM_RDA": null,
  "F_NUTRSRV100G_ID_RDA": null,
  "F_NUTRSRV100G_K_AMT": null,
  "F_NUTRSRV100G_K_RDA": null,
  "F_NUTRSRV100G_MG_AMT": null,
  "F_NUTRSRV100G_MG_RDA": null,
  "F_NUTRSRV100G_MN_AMT": null,
  "F_NUTRSRV100G_NA_AMT": null,
  "F_NUTRSRV100G_NA_RDA": null,
  "F_NUTRSRV100G_NIA_AMT": null,
  "F_NUTRSRV100G_NIA_RDA": null,
  "F_NUTRSRV100G_P_AMT": null,
  "F_NUTRSRV100G_P_RDA": null,
  "F_NUTRSRV100G_PANTAC_AMT": null,
  "F_NUTRSRV100G_PANTAC_RDA": null,
  "F_NUTRSRV100G_PRO_AMT": null,
  "F_NUTRSRV100G_PRO_RDA": null,
  "F_NUTRSRV100G_RIBF_AMT": null,
  "F_NUTRSRV100G_RIBF_RDA": null,
  "F_NUTRSRV100G_SATFAT_AMT": null,
  "F_NUTRSRV100G_SATFAT_RDA": null,
  "F_NUTRSRV100G_SUGALC_AMT": null,
  "F_NUTRSRV100G_SUGAR_AMT": null,
  "F_NUTRSRV100G_SUGAR_RDA": null,
  "F_NUTRSRV100G_THIA_AMT": null,
  "F_NUTRSRV100G_THIA_RDA": null,
  "F_NUTRSRV100G_VITA_AMT": null,
  "F_NUTRSRV100G_VITA_RDA": null,
  "F_NUTRSRV100G_VITAA_AMT": null,
  "F_NUTRSRV100G_VITAA_RDA": null,
  "F_NUTRSRV100G_VITB12_AMT": null,
  "F_NUTRSRV100G_VITB6_AMT": null,
  "F_NUTRSRV100G_VITB6_RDA": null,
  "F_NUTRSRV100G_VITC_AMT": null,
  "F_NUTRSRV100G_VITC_RDA": null,
  "F_NUTRSRV100G_VITD_AMT": null,
  "F_NUTRSRV100G_VITDCA_AMT": null,
  "F_NUTRSRV100G_VITE_AMT": null,
  "F_NUTRSRV100G_ZN_AMT": null,
  "F_NUTRSRV100G_ZN_RDA": null,
  "F_NUTRSRV2_CA_RDA": null,
  "F_NUTRSRV2_CAL_AMT": null,
  "F_NUTRSRV2_CHO_AMT": null,
  "F_NUTRSRV2_CHO_RDA": null,
  "F_NUTRSRV2_CHOL_AMT": null,
  "F_NUTRSRV2_CHOL_RDA": null,
  "F_NUTRSRV2_CU_RDA": null,
  "F_NUTRSRV2_DIFCA_AMT": null,
  "F_NUTRSRV2_DIFCA_RDA": null,
  "F_NUTRSRV2_ENER_AMT": null,
  "F_NUTRSRV2_ENERPF_AMT": null,
  "F_NUTRSRV2_FAMS_AMT": null,
  "F_NUTRSRV2_FAPU_AMT": null,
  "F_NUTRSRV2_FAPUN3_AMT": null,
  "F_NUTRSRV2_FAPUN6_AMT": null,
  "F_NUTRSRV2_FASAT_AMT": null,
  "F_NUTRSRV2_FASAT_RDA": null,
  "F_NUTRSRV2_FAT_AMT": null,
  "F_NUTRSRV2_FAT_RDA": null,
  "F_NUTRSRV2_FATRN_AMT": null,
  "F_NUTRSRV2_FIBTSW_AMT": null,
  "F_NUTRSRV2_FIBTSW_RDA": null,
  "F_NUTRSRV2_FOL_RDA": null,
  "F_NUTRSRV2_HAEM_RDA": null,
  "F_NUTRSRV2_K_AMT": null,
  "F_NUTRSRV2_K_RDA": null,
  "F_NUTRSRV2_MG_RDA": null,
  "F_NUTRSRV2_MN_RDA": null,
  "F_NUTRSRV2_NA_AMT": null,
  "F_NUTRSRV2_NA_RDA": null,
  "F_NUTRSRV2_NIA_RDA": null,
  "F_NUTRSRV2_NIAEQ_RDA": null,
  "F_NUTRSRV2_P_RDA": null,
  "F_NUTRSRV2_PRO_AMT": null,
  "F_NUTRSRV2_PRO_RDA": null,
  "F_NUTRSRV2_RIBF_RDA": null,
  "F_NUTRSRV2_SATFAT_AMT": null,
  "F_NUTRSRV2_SATFAT_RDA": null,
  "F_NUTRSRV2_SUGAR_AMT": null,
  "F_NUTRSRV2_THIA_RDA": null,
  "F_NUTRSRV2_VITA_RDA": null,
  "F_NUTRSRV2_VITAA_RDA": null,
  "F_NUTRSRV2_VITC_AMT": null,
  "F_NUTRSRV2_VITC_RDA": null,
  "F_NUTRSRV2_VITE_RDA": null,
  "F_NUTRSRV2_ZN_RDA": null,
  "F_NUTRSRV3_CA_AMT": null,
  "F_NUTRSRV3_CA_RDA": null,
  "F_NUTRSRV3_CAL_AMT": null,
  "F_NUTRSRV3_CHO_AMT": null,
  "F_NUTRSRV3_CHO_RDA": null,
  "F_NUTRSRV3_CHOL_AMT": null,
  "F_NUTRSRV3_CHOL_RDA": null,
  "F_NUTRSRV3_DIFCA_AMT": null,
  "F_NUTRSRV3_DIFCA_RDA": null,
  "F_NUTRSRV3_ENER_AMT": null,
  "F_NUTRSRV3_ENERPF_AMT": null,
  "F_NUTRSRV3_FAMS_AMT": null,
  "F_NUTRSRV3_FAPU_AMT": null,
  "F_NUTRSRV3_FAPUN3_AMT": null,
  "F_NUTRSRV3_FAPUN6_AMT": null,
  "F_NUTRSRV3_FASAT_AMT": null,
  "F_NUTRSRV3_FASAT_RDA": null,
  "F_NUTRSRV3_FAT_AMT": null,
  "F_NUTRSRV3_FAT_RDA": null,
  "F_NUTRSRV3_FATRN_AMT": null,
  "F_NUTRSRV3_FIBTSW_AMT": null,
  "F_NUTRSRV3_FIBTSW_RDA": null,
  "F_NUTRSRV3_HAEM_AMT": null,
  "F_NUTRSRV3_HAEM_RDA": null,
  "F_NUTRSRV3_K_AMT": null,
  "F_NUTRSRV3_K_RDA": null,
  "F_NUTRSRV3_MG_RDA": null,
  "F_NUTRSRV3_MN_RDA": null,
  "F_NUTRSRV3_NA_AMT": null,
  "F_NUTRSRV3_NA_RDA": null,
  "F_NUTRSRV3_NIA_RDA": null,
  "F_NUTRSRV3_P_AMT": null,
  "F_NUTRSRV3_P_RDA": null,
  "F_NUTRSRV3_PRO_AMT": null,
  "F_NUTRSRV3_PRO_RDA": null,
  "F_NUTRSRV3_SATFAT_RDA": null,
  "F_NUTRSRV3_SUGAR_AMT": null,
  "F_NUTRSRV3_VITA_RDA": null,
  "F_NUTRSRV3_VITAA_RDA": null,
  "F_NUTRSRV3_VITC_RDA": null,
  "F_NUTRSRV3_VITE_RDA": null,
  "F_NUTRSRV1_VITE_AMT": null,
  "F_NUTRSRV2_HAEM_AMT": null,
  "F_NUTRSRV2_VITAA_AMT": null,
  "F_NUTRSRV2_CA_AMT": null,
  "NutrSrv100gDIFCAPrecision": null,
  "NutrSrv100gEnerPrecision": null,
  "NutrSrv100gPAmt": 0,
  "NutrSrv100gCAAmt": 0,
  "LanguageCode": "eng",
  "P_ECOMMERCE_PRODUCT_NAME_R5": null,
  "ProductBrands": [],
  "ProductAssets": [],
  "ProductAllergens": [],
  "ProductVariants": [],
  "SizeVariants": []
}