{
  "Metadata": {
    "PageCount": 1,
    "PageNo": 0,
    "TotalCount": 0
  },
  "Recipes": [
    {
      "AdServingKeywords": "Chocolate,Dairy,Nuts,Dessert,Microwaved,Easy,All Seasons,Christmas,Valentines Day,Candy,Bakers,Jet-Puffed,Planters",
      "AlternateLanguageRecipes": [],
      "Assets": [],
      "AverageRating": 0,
      "BrandId": 1,
      "Branding": null,
      "CSSSkins": null,
      "CarbCounter": null,
      "Categories": [
        {
          "CategoryID": 3,
          "CategoryName": "Cookies/Candy/Other Desserts",
          "CategoryRank": 6,
          "SubCategoryID": 45,
          "SubCategoryName": "Bark/Fudge/Truffles",
          "SubCategoryRank": 20
        },
        {
          "CategoryID": 11,
          "CategoryName": "Primary",
          "CategoryRank": 0,
          "SubCategoryID": 103,
          "SubCategoryName": "Desserts",
          "SubCategoryRank": 40
        },
        {
          "CategoryID": 761,
          "CategoryName": "Cakes, Muffins & Sweet Treats",
          "CategoryRank": 15,
          "SubCategoryID": 2589,
          "SubCategoryName": "Slices - No Bake",
          "SubCategoryRank": 1
        },
        {
          "CategoryID": 761,
          "CategoryName": "Cakes, Muffins & Sweet Treats",
          "CategoryRank": 15,
          "SubCategoryID": 2590,
          "SubCategoryName": "Other Sweet Treats",
          "SubCategoryRank": 1
        }
      ],
      "Classifications": [],
      "ComplimentaryRecipes": [
        {
          "AverageRating": 0,
          "HasVideo": false,
          "IsHealthyLiving": false,
          "NumberOfRatings": 0,
          "PhotoName": null,
          "PhotoUrl": null,
          "RecipeId": 70439,
          "RecipeName": null,
          "SEOName": "holiday-brisket-in-barbecue-sauce-70439",
          "ThumbnailPhoto": "70439.jpg"
        }
      ],
      "CookingMethod": null,
      "Copyright": null,
      "Courses": [
        "Desserts"
      ],
      "DietExchange": null,
      "DishDetails": [
        {
          "Text": "desserts",
          "Url": "/recipes/dessert/main.aspx"
        },
        {
          "Text": "fruity desserts",
          "Url": "/recipes/dessert/fruitydesserts.aspx"
        },
        {
          "Text": "gelatin desserts",
          "Url": "/recipes/dessert/gelatindesserts.aspx"
        },
        {
          "Text": "layered desserts",
          "Url": "/recipes/dessert/layereddesserts.aspx"
        },
        {
          "Text": "brownie recipes",
          "Url": "/recipes/dessert/brownie-recipes/main.aspx"
        },
        {
          "Text": "budget desserts",
          "Url": "/recipes/budget/budget-desserts.aspx"
        },
        {
          "Text": "no bake desserts",
          "Url": "/recipes/dessert/nobakedesserts.aspx"
        },
        {
          "Text": "pumpkin recipes",
          "Url": "/recipes/dessert/pumpkin-recipes.aspx"
        },
        {
          "Text": "chocolate cake recipes",
          "Url": "/recipes/dessert/chocolate-cake-recipes/main.aspx"
        },
        {
          "Text": "cheesecake recipes",
          "Url": "/recipes/dessert/cheesecake-center/cheesecake-recipes/main.aspx"
        },
        {
          "Text": "chocolate lovers recipes",
          "Url": "/recipes/dessert/chocolate-center/chocolateloversrecipes.aspx"
        },
        {
          "Text": "classic desserts",
          "Url": "/recipes/dessert/classicdesserts.aspx"
        },
        {
          "Text": "cookie ball recipes",
          "Url": "/recipes/dessert/cookie-ball-recipes/main.aspx"
        },
        {
          "Text": "cookie recipes",
          "Url": "/recipes/dessert/cookie-recipes/main.aspx"
        },
        {
          "Text": "cupcake recipes",
          "Url": "/recipes/dessert/cupcake-recipes/main.aspx"
        },
        {
          "Text": "healthy living desserts",
          "Url": "/healthy-living-ideas/diabetes-center/recipes/dessert-recipes.aspx"
        }
      ],
      "EndDate": "/Date(-62135575200000-0600)/",
      "HasVideo": false,
      "Ingredients": [
        {
          "FullMeasure": "2-1/2 pkg.",
          "FullWeight": "",
          "IngredientGridHeaders": null,
          "IngredientID": 66,
          "IngredientName": "BAKER'S Semi-Sweet Chocolate",
          "IngredientStep": 10,
          "LanguageId": 0,
          "PostPreparation": " (10 oz.), broken into pieces",
          "PrePreparation": "(4 oz. each)",
          "QuantityNum": 2,
          "QuantityText": "2-1/2",
          "QuantityUnit": "pkg.",
          "RecipeIngredientID": 5201131,
          "TrialMeasure": "",
          "TrialWeight": ""
        },
        {
          "FullMeasure": "1-1/4 cups",
          "FullWeight": "",
          "IngredientGridHeaders": null,
          "IngredientID": 1680,
          "IngredientName": "sweetened condensed milk",
          "IngredientStep": 20,
          "LanguageId": 0,
          "PostPreparation": "",
          "PrePreparation": "",
          "QuantityNum": 1,
          "QuantityText": "1-1/4",
          "QuantityUnit": "cups",
          "RecipeIngredientID": 5201133,
          "TrialMeasure": "",
          "TrialWeight": ""
        },
        {
          "FullMeasure": "1 tsp.",
          "FullWeight": "",
          "IngredientGridHeaders": null,
          "IngredientID": 1731,
          "IngredientName": "vanilla",
          "IngredientStep": 30,
          "LanguageId": 0,
          "PostPreparation": "",
          "PrePreparation": "",
          "QuantityNum": 1,
          "QuantityText": "1",
          "QuantityUnit": "tsp.",
          "RecipeIngredientID": 5201130,
          "TrialMeasure": "",
          "TrialWeight": ""
        },
        {
          "FullMeasure": "1 pkg.",
          "FullWeight": "",
          "IngredientGridHeaders": null,
          "IngredientID": 28469,
          "IngredientName": "round shortbread cookie",
          "IngredientStep": 40,
          "LanguageId": 0,
          "PostPreparation": "s, coarsely crushed",
          "PrePreparation": "(5.3 oz.)",
          "QuantityNum": 1,
          "QuantityText": "1",
          "QuantityUnit": "pkg.",
          "RecipeIngredientID": 5201132,
          "TrialMeasure": "",
          "TrialWeight": ""
        },
        {
          "FullMeasure": "3 cups",
          "FullWeight": "",
          "IngredientGridHeaders": null,
          "IngredientID": 8113,
          "IngredientName": "JET-PUFFED FUNMALLOWS Miniature Marshmallows",
          "IngredientStep": 50,
          "LanguageId": 0,
          "PostPreparation": "",
          "PrePreparation": "",
          "QuantityNum": 3,
          "QuantityText": "3",
          "QuantityUnit": "cups",
          "RecipeIngredientID": 5201135,
          "TrialMeasure": "",
          "TrialWeight": ""
        },
        {
          "FullMeasure": "1-1/2 cups",
          "FullWeight": "",
          "IngredientGridHeaders": null,
          "IngredientID": 1741,
          "IngredientName": "PLANTERS Walnuts",
          "IngredientStep": 60,
          "LanguageId": 0,
          "PostPreparation": "",
          "PrePreparation": "coarsely chopped",
          "QuantityNum": 1,
          "QuantityText": "1-1/2",
          "QuantityUnit": "cups",
          "RecipeIngredientID": 5201134,
          "TrialMeasure": "",
          "TrialWeight": ""
        }
      ],
      "IsHealthyLiving": false,
      "KRLId": "573481",
      "KeyIngredients": [
        "Candy",
        "Chocolate",
        "Dairy",
        "Nuts"
      ],
      "Keywords": "nuts,baking chocolate,chocolate,extract,marshmallows,milk,vanilla,walnuts,sweetened condensed milk,BAKER'S Semi-Sweet Chocolate,semi-sweet chocolate,JET-PUFFED Marshmallows,PLANTERS Walnuts,chocolate-semi-sweet,Planters,Dessert,Easy,Microwaved,All Seasons,Christmas,Valentines Day,Candy",
      "LanguageId": 1,
      "LifeStyles": [],
      "NumberOfIngredients": 6,
      "NumberOfRatings": 0,
      "NumberOfRatingsWithComments": "0",
      "NumberOfServings": "36 servings",
      "NumberOfTrialServings": "",
      "NutritionBonus": null,
      "NutritionExchangeItemId": 0,
      "NutritionGridItems": null,
      "NutritionItems": [
        {
          "DisplayOrder": 1,
          "Document": null,
          "NutritionItemID": 3,
          "NutritionItemName": "Calories",
          "Predriscriptor": "",
          "Quantity": 140,
          "Unit": "          "
        },
        {
          "DisplayOrder": 2,
          "Document": "fat_cholesterol.html",
          "NutritionItemID": 4,
          "NutritionItemName": "Total fat",
          "Predriscriptor": "",
          "Quantity": 8,
          "Unit": "g         "
        },
        {
          "DisplayOrder": 3,
          "Document": "fat_cholesterol.html",
          "NutritionItemID": 9,
          "NutritionItemName": "Saturated fat",
          "Predriscriptor": "",
          "Quantity": 2.5,
          "Unit": "g         "
        },
        {
          "DisplayOrder": 7,
          "Document": "fat_cholesterol.html",
          "NutritionItemID": 2,
          "NutritionItemName": "Cholesterol",
          "Predriscriptor": "Less than",
          "Quantity": 5,
          "Unit": "mg        "
        },
        {
          "DisplayOrder": 8,
          "Document": "sodium.html",
          "NutritionItemID": 8,
          "NutritionItemName": "Sodium",
          "Predriscriptor": "",
          "Quantity": 40,
          "Unit": "mg        "
        },
        {
          "DisplayOrder": 10,
          "Document": "carbs_sugars_fiber.html",
          "NutritionItemID": 1,
          "NutritionItemName": "Carbohydrate",
          "Predriscriptor": "",
          "Quantity": 17,
          "Unit": "g         "
        },
        {
          "DisplayOrder": 11,
          "Document": "carbs_sugars_fiber.html",
          "NutritionItemID": 7,
          "NutritionItemName": "Dietary fiber",
          "Predriscriptor": "",
          "Quantity": 1,
          "Unit": "g         "
        },
        {
          "DisplayOrder": 12,
          "Document": "carbs_sugars_fiber.html",
          "NutritionItemID": 5,
          "NutritionItemName": "Sugars",
          "Predriscriptor": "",
          "Quantity": 13,
          "Unit": "g         "
        },
        {
          "DisplayOrder": 13,
          "Document": null,
          "NutritionItemID": 6,
          "NutritionItemName": "Protein",
          "Predriscriptor": "",
          "Quantity": 2,
          "Unit": "g         "
        },
        {
          "DisplayOrder": 14,
          "Document": null,
          "NutritionItemID": 10,
          "NutritionItemName": "Vitamin A",
          "Predriscriptor": "",
          "Quantity": 0,
          "Unit": "%DV       "
        },
        {
          "DisplayOrder": 15,
          "Document": null,
          "NutritionItemID": 11,
          "NutritionItemName": "Vitamin C",
          "Predriscriptor": "",
          "Quantity": 0,
          "Unit": "%DV       "
        },
        {
          "DisplayOrder": 16,
          "Document": "dairy_and_calcium.html",
          "NutritionItemID": 12,
          "NutritionItemName": "Calcium",
          "Predriscriptor": "",
          "Quantity": 4,
          "Unit": "%DV       "
        },
        {
          "DisplayOrder": 17,
          "Document": null,
          "NutritionItemID": 13,
          "NutritionItemName": "Iron",
          "Predriscriptor": "",
          "Quantity": 4,
          "Unit": "%DV       "
        }
      ],
      "NutritionServingText": " ",
      "PrepStepImage": null,
      "PreparationDescription": "Line 13x9-inch baking dish with foil or parchment paper, with ends of foil extending over sides.  Spray lightly with cooking spray.$Microwave chocolate and condensed milk in large microwaveable bowl on HIGH 1 min. or until chocolate is almost melted; stir until chocolate is completely melted and mixture is well blended.  Add vanilla; fold in cookies, marshmallows and nuts.$Press mixture onto bottom of prepared dish.  Cool 30 min.  Refrigerate until ready to serve.  Use foil handles to lift fudge from dish before cutting into pieces. ",
      "PreparationPreText": "",
      "PreparationSteps": [
        {
          "Description": "Line 13x9-inch baking dish with foil or parchment paper, with ends of foil extending over sides.  Spray lightly with cooking spray.",
          "PreparationStepImage": {
            "PictureFormats": [],
            "author": null,
            "id": null,
            "imageType": null,
            "mimeType": null,
            "publicationDate": null,
            "status": null,
            "title": null,
            "type": null
          },
          "Sequence": 1
        },
        {
          "Description": "Microwave chocolate and condensed milk in large microwaveable bowl on HIGH 1 min. or until chocolate is almost melted; stir until chocolate is completely melted and mixture is well blended.  Add vanilla; fold in cookies, marshmallows and nuts.",
          "PreparationStepImage": {
            "PictureFormats": [],
            "author": null,
            "id": null,
            "imageType": null,
            "mimeType": null,
            "publicationDate": null,
            "status": null,
            "title": null,
            "type": null
          },
          "Sequence": 2
        },
        {
          "Description": "Press mixture onto bottom of prepared dish.  Cool 30 min.  Refrigerate until ready to serve.  Use foil handles to lift fudge from dish before cutting into pieces. ",
          "PreparationStepImage": {
            "PictureFormats": [],
            "author": null,
            "id": null,
            "imageType": null,
            "mimeType": null,
            "publicationDate": null,
            "status": null,
            "title": null,
            "type": null
          },
          "Sequence": 3
        }
      ],
      "PreparationTime": 15,
      "Promotion": null,
      "Ratings": {
        "TotalCount": 0,
        "PageCount": 10,
        "PageNo": 1,
        "Rating": []
      },
      "RecipeDisplayFormatId": 5,
      "RecipeId": 185339,
      "RecipeName": "Quick and Easy Rocky Road Fudge",
      "RecipeType": 0,
      "RelatedData": {
        "RelatedBrands": null,
        "RelatedProducts": null,
        "RelatedRecipes": {
          "DefaultTopCount": 5,
          "Recipe": [
            {
              "AverageRating": 4.4,
              "HasVideo": false,
              "IsHealthyLiving": false,
              "NumberOfRatings": 23,
              "PhotoName": "65933.jpg",
              "PhotoUrl": "http://assets.kraftfoods.com/recipe_images/opendeploy/65933.jpg",
              "RecipeId": 65933,
              "RecipeName": "BAKER'S ONE BOWL Rocky Road Chocolate Bark",
              "SEOName": "bakers-one-bowl-rocky-road-chocolate-bark-65933",
              "ThumbnailPhoto": null
            },
            {
              "AverageRating": 4.5,
              "HasVideo": false,
              "IsHealthyLiving": false,
              "NumberOfRatings": 14,
              "PhotoName": "57050.jpg",
              "PhotoUrl": "http://assets.kraftfoods.com/recipe_images/opendeploy/57050.jpg",
              "RecipeId": 57050,
              "RecipeName": "Rocky Road Pudding Cups",
              "SEOName": "rocky-road-pudding-cups-57050",
              "ThumbnailPhoto": null
            },
            {
              "AverageRating": 4.6,
              "HasVideo": false,
              "IsHealthyLiving": false,
              "NumberOfRatings": 8,
              "PhotoName": "Rocky_Road_Ice_Cream_Shop_Pie.jpg",
              "PhotoUrl": "http://assets.kraftfoods.com/recipe_images/opendeploy/Rocky_Road_Ice_Cream_Shop_Pie.jpg",
              "RecipeId": 75229,
              "RecipeName": "Rocky Road Ice Cream Shop Pie",
              "SEOName": "rocky-road-ice-cream-shop-pie-75229",
              "ThumbnailPhoto": null
            },
            {
              "AverageRating": 4.1,
              "HasVideo": true,
              "IsHealthyLiving": false,
              "NumberOfRatings": 90,
              "PhotoName": "105199.jpg",
              "PhotoUrl": "http://assets.kraftfoods.com/recipe_images/opendeploy/105199.jpg",
              "RecipeId": 105199,
              "RecipeName": "Rocky Road No-Bake Cheesecake",
              "SEOName": "rocky-road-no-bake-cheesecake-105199",
              "ThumbnailPhoto": null
            },
            {
              "AverageRating": 4.7,
              "HasVideo": false,
              "IsHealthyLiving": false,
              "NumberOfRatings": 45,
              "PhotoName": "Rocky_Road_Brownies.jpg",
              "PhotoUrl": "http://assets.kraftfoods.com/recipe_images/opendeploy/Rocky_Road_Brownies.jpg",
              "RecipeId": 56925,
              "RecipeName": "Rocky Road Brownies",
              "SEOName": "rocky-road-brownies-56925",
              "ThumbnailPhoto": null
            }
          ],
          "TotalCount": 4149
        }
      },
      "RiseIngredients": [],
      "RiseTaxonomy": [],
      "Riserecipe": [
        {
          "GRIN": 573481,
          "RecipeId": 185339,
          "RecipeIndustrySector": "Retail",
          "RecipeType": "Internal"
        }
      ],
      "RomanceText": "We're so fond of rocky road fudge we'd be willing to go all-out on a recipe—even a difficult one. Luckily, this fudge is so easy it's not necessary!",
      "SEOName": "quick-easy-rocky-road-fudge-185339",
      "Tips": [
        {
          "RecipeId": 185339,
          "Sequence": 10,
          "TipDescription": "A serving of this sweet treat goes a long way on chocolate flavor.",
          "TipID": 3,
          "TipName": "Size Wise"
        },
        {
          "RecipeId": 185339,
          "Sequence": 20,
          "TipDescription": "Here's an easy way to line a dish with foil. Turn the dish upside down and fit a piece of foil over the top, smoothing corners as needed. Remove the foil. When you turn the dish over, the foil fits perfectly inside the dish! \r\n",
          "TipID": 2,
          "TipName": "How to Line Pan with Foil"
        },
        {
          "RecipeId": 185339,
          "Sequence": 40,
          "TipDescription": "Substitute PLANTERS Macadamias for the walnuts.",
          "TipID": 1,
          "TipName": "Substitute"
        }
      ],
      "TotalTime": 45,
      "TradeMarkInfo": null,
      "Video": [],
      "Yield": "36 servings"
    }
  ]
}