{
  "Metadata": {
    "PageCount": 1,
    "PageNo": 0,
    "TotalCount": 0
  },
  "Recipes": [
    {
      "AdServingKeywords": "Lemon,Sorbet,Drinks,Easy,Nutrition and Well-Being,All Seasons,Crystal Light",
      "AlternateLanguageRecipes": [],
      "Assets": [
        {
          "PictureFormats": [
            {
              "rendition": "290x194",
              "url": "http://assets.kraftfoods.com/recipe_images/opendeploy/52096_290x194.jpg"
            },
            {
              "rendition": "640x428",
              "url": "http://assets.kraftfoods.com/recipe_images/opendeploy/52096_640x428.jpg"
            },
            {
              "rendition": "600x250",
              "url": "http://assets.kraftfoods.com/recipe_images/opendeploy/52096_600x250.jpg"
            }
          ],
          "author": "BulKUpload",
          "id": "2",
          "imageType": "Primary",
          "mimeType": "image/jpeg",
          "publicationDate": null,
          "status": "1",
          "title": "52096",
          "type": "image"
        },
        {
          "PictureFormats": [
            {
              "rendition": "140x90",
              "url": "http://assets.kraftfoods.com/recipe_images/opendeploy/52096_SGS_K18364V0_OR1_OH_140x90.jpg"
            },
            {
              "rendition": "300x250",
              "url": "http://assets.kraftfoods.com/recipe_images/opendeploy/52096_SGS_K18364V0_OR1_OH_300x250.jpg"
            },
            {
              "rendition": "960x300",
              "url": "http://assets.kraftfoods.com/recipe_images/opendeploy/52096_SGS_K18364V0_OR1_OH_960x300.jpg"
            }
          ],
          "author": null,
          "id": "2",
          "imageType": "Primary",
          "mimeType": "image/jpeg",
          "publicationDate": null,
          "status": "1",
          "title": "52096_SGS_K18364V0_OR1_OH",
          "type": "image"
        },
        {
          "PictureFormats": [
            {
              "rendition": "300x200",
              "url": "http://assets.kraftfoods.com/recipe_images/52096.jpg"
            }
          ],
          "author": "BulKUpload",
          "id": "0",
          "imageType": "LANDSCAPE",
          "mimeType": "image/jpeg",
          "publicationDate": null,
          "status": "1",
          "title": "52096.jpg",
          "type": "image"
        }
      ],
      "AverageRating": 4.6,
      "BrandId": 1,
      "Branding": null,
      "CSSSkins": null,
      "CarbCounter": null,
      "Categories": [
        {
          "CategoryID": 5,
          "CategoryName": "Beverages",
          "CategoryRank": 2,
          "SubCategoryID": 21,
          "SubCategoryName": "Other Cold Beverages",
          "SubCategoryRank": 40
        },
        {
          "CategoryID": 11,
          "CategoryName": "Primary",
          "CategoryRank": 0,
          "SubCategoryID": 104,
          "SubCategoryName": "Beverages",
          "SubCategoryRank": 20
        },
        {
          "CategoryID": 747,
          "CategoryName": "Beverages",
          "CategoryRank": 1,
          "SubCategoryID": 2521,
          "SubCategoryName": "Chilled",
          "SubCategoryRank": 1
        },
        {
          "CategoryID": 747,
          "CategoryName": "Beverages",
          "CategoryRank": 1,
          "SubCategoryID": 2522,
          "SubCategoryName": "Mocktails",
          "SubCategoryRank": 1
        }
      ],
      "Classifications": [
        {
          "ClassficationId": 9,
          "ClassificationName": "Low fat"
        },
        {
          "ClassficationId": 14,
          "ClassificationName": "Generally Nutritious"
        },
        {
          "ClassficationId": 22,
          "ClassificationName": "Low sodium"
        },
        {
          "ClassficationId": 119,
          "ClassificationName": "Diabetes Center"
        }
      ],
      "ComplimentaryRecipes": null,
      "CookingMethod": null,
      "Copyright": null,
      "Courses": [
        "Beverages"
      ],
      "DietExchange": "",
      "DishDetails": [],
      "EndDate": "/Date(-62135575200000-0600)/",
      "HasVideo": false,
      "Ingredients": [
        {
          "FullMeasure": null,
          "FullWeight": null,
          "IngredientGridHeaders": null,
          "IngredientID": 68162,
          "IngredientName": "(makes 2 qt. drink) or 2 pkt. (makes 1 qt. drink each) \t CRYSTAL LIGHT Drink Mix, any flavor*",
          "IngredientStep": 10,
          "LanguageId": 0,
          "PostPreparation": "",
          "PrePreparation": "",
          "QuantityNum": 1,
          "QuantityText": "1",
          "QuantityUnit": "pkt.",
          "RecipeIngredientID": 193722,
          "TrialMeasure": null,
          "TrialWeight": null
        },
        {
          "FullMeasure": null,
          "FullWeight": null,
          "IngredientGridHeaders": null,
          "IngredientID": 68791,
          "IngredientName": "(8 cups) cold water",
          "IngredientStep": 20,
          "LanguageId": 0,
          "PostPreparation": "",
          "PrePreparation": "",
          "QuantityNum": 2,
          "QuantityText": "2",
          "QuantityUnit": "qt.",
          "RecipeIngredientID": 179072,
          "TrialMeasure": null,
          "TrialWeight": null
        },
        {
          "FullMeasure": null,
          "FullWeight": null,
          "IngredientGridHeaders": null,
          "IngredientID": 68233,
          "IngredientName": "(2 cups) lemon sorbet ",
          "IngredientStep": 30,
          "LanguageId": 0,
          "PostPreparation": "",
          "PrePreparation": "",
          "QuantityNum": 1,
          "QuantityText": "1",
          "QuantityUnit": "pt.",
          "RecipeIngredientID": 184096,
          "TrialMeasure": null,
          "TrialWeight": null
        }
      ],
      "IsHealthyLiving": true,
      "KRLId": "521332",
      "KeyIngredients": [],
      "Keywords": "Drinks,Easy,Nutrition and Well-Being,All Seasons",
      "LanguageId": 1,
      "LifeStyles": [
        "Low fat",
        "Generally Nutritious",
        "Low sodium",
        "Diabetes Center"
      ],
      "NumberOfIngredients": 3,
      "NumberOfRatings": 5,
      "NumberOfRatingsWithComments": "4",
      "NumberOfServings": "Makes 10 servings, about 1 cup each.",
      "NumberOfTrialServings": null,
      "NutritionBonus": "This cool, refreshing float is fat free and perfect to quench your thirst on a hot, summer day.",
      "NutritionExchangeItemId": 1,
      "NutritionGridItems": null,
      "NutritionItems": [
        {
          "DisplayOrder": 10,
          "Document": null,
          "NutritionItemID": 371,
          "NutritionItemName": "Calories",
          "Predriscriptor": "",
          "Quantity": 60,
          "Unit": "          "
        },
        {
          "DisplayOrder": 20,
          "Document": null,
          "NutritionItemID": 376,
          "NutritionItemName": "Total fat",
          "Predriscriptor": "",
          "Quantity": 0,
          "Unit": "g         "
        },
        {
          "DisplayOrder": 30,
          "Document": null,
          "NutritionItemID": 377,
          "NutritionItemName": "Saturated fat",
          "Predriscriptor": "",
          "Quantity": 0,
          "Unit": "g         "
        },
        {
          "DisplayOrder": 40,
          "Document": null,
          "NutritionItemID": 379,
          "NutritionItemName": "Polyunsaturated Fat",
          "Predriscriptor": "",
          "Quantity": 0,
          "Unit": "g         "
        },
        {
          "DisplayOrder": 50,
          "Document": null,
          "NutritionItemID": 378,
          "NutritionItemName": "Monounsaturated Fat",
          "Predriscriptor": "",
          "Quantity": 0,
          "Unit": "g         "
        },
        {
          "DisplayOrder": 60,
          "Document": null,
          "NutritionItemID": 381,
          "NutritionItemName": "Cholesterol",
          "Predriscriptor": "",
          "Quantity": 0,
          "Unit": "mg        "
        },
        {
          "DisplayOrder": 70,
          "Document": null,
          "NutritionItemID": 389,
          "NutritionItemName": "Sodium",
          "Predriscriptor": "",
          "Quantity": 5,
          "Unit": "mg        "
        },
        {
          "DisplayOrder": 80,
          "Document": null,
          "NutritionItemID": 373,
          "NutritionItemName": "Carbohydrate",
          "Predriscriptor": "",
          "Quantity": 13,
          "Unit": "g         "
        },
        {
          "DisplayOrder": 90,
          "Document": null,
          "NutritionItemID": 374,
          "NutritionItemName": "Dietary fiber",
          "Predriscriptor": "",
          "Quantity": 0,
          "Unit": "g         "
        },
        {
          "DisplayOrder": 100,
          "Document": null,
          "NutritionItemID": 375,
          "NutritionItemName": "Sugars",
          "Predriscriptor": "",
          "Quantity": 13,
          "Unit": "g         "
        },
        {
          "DisplayOrder": 110,
          "Document": null,
          "NutritionItemID": 372,
          "NutritionItemName": "Protein",
          "Predriscriptor": "",
          "Quantity": 0,
          "Unit": "g         "
        },
        {
          "DisplayOrder": 120,
          "Document": null,
          "NutritionItemID": 382,
          "NutritionItemName": "Vitamin A",
          "Predriscriptor": "",
          "Quantity": 0,
          "Unit": "%DV       "
        },
        {
          "DisplayOrder": 130,
          "Document": null,
          "NutritionItemID": 383,
          "NutritionItemName": "Vitamin C",
          "Predriscriptor": "",
          "Quantity": 4,
          "Unit": "%DV       "
        },
        {
          "DisplayOrder": 140,
          "Document": null,
          "NutritionItemID": 386,
          "NutritionItemName": "Calcium",
          "Predriscriptor": "",
          "Quantity": 0,
          "Unit": "%DV       "
        },
        {
          "DisplayOrder": 150,
          "Document": null,
          "NutritionItemID": 387,
          "NutritionItemName": "Iron",
          "Predriscriptor": "",
          "Quantity": 0,
          "Unit": "%DV       "
        }
      ],
      "NutritionServingText": null,
      "PrepStepImage": null,
      "PreparationDescription": "Place drink mix in large plastic or glass pitcher.  Add water; stir until drink mix is dissolved.  Refrigerate several hours or until chilled.$For each serving, place small scoop of sorbet in tall glass; fill with prepared drink mix.  ",
      "PreparationPreText": "",
      "PreparationSteps": [
        {
          "Description": "Place drink mix in large plastic or glass pitcher.  Add water; stir until drink mix is dissolved.  Refrigerate several hours or until chilled.",
          "PreparationStepImage": {
            "PictureFormats": [],
            "author": null,
            "id": null,
            "imageType": null,
            "mimeType": null,
            "publicationDate": null,
            "status": null,
            "title": null,
            "type": null
          },
          "Sequence": 1
        },
        {
          "Description": "For each serving, place small scoop of sorbet in tall glass; fill with prepared drink mix.  ",
          "PreparationStepImage": {
            "PictureFormats": [],
            "author": null,
            "id": null,
            "imageType": null,
            "mimeType": null,
            "publicationDate": null,
            "status": null,
            "title": null,
            "type": null
          },
          "Sequence": 2
        }
      ],
      "PreparationTime": 5,
      "Promotion": null,
      "Ratings": {
        "TotalCount": 5,
        "PageCount": 10,
        "PageNo": 1,
        "Rating": [
          {
            "Comment": "Yummy!",
            "DisplayName": true,
            "RatingValue": 5,
            "SubmitDate": "/Date(1158335489000-0500)/",
            "UpdatedDate": "/Date(1158335489000-0500)/",
            "UserName": "tldawson3"
          },
          {
            "Comment": "",
            "DisplayName": true,
            "RatingValue": 5,
            "SubmitDate": "/Date(1059405978000-0500)/",
            "UpdatedDate": "/Date(1085421257000-0500)/",
            "UserName": "coolnurse24"
          },
          {
            "Comment": "It was 95 degrees yesterday and we wanted something refreshing. We have been drinking Crystal Light for many years. Yesterday I came across this website and started looking at all the great recipes. I can't begin to express how great the drink was and my son had two. Thank you so very much for making such a hot day a little more bearable. ",
            "DisplayName": true,
            "RatingValue": 5,
            "SubmitDate": "/Date(1056718445000-0500)/",
            "UpdatedDate": "/Date(1056718445000-0500)/",
            "UserName": "vdufore"
          },
          {
            "Comment": "Its a great drink to have when your having a romantic dinner with your loved one...",
            "DisplayName": true,
            "RatingValue": 4,
            "SubmitDate": "/Date(1046202127000-0600)/",
            "UpdatedDate": "/Date(1046202127000-0600)/",
            "UserName": "Steph619"
          },
          {
            "Comment": "very refreshing!",
            "DisplayName": false,
            "RatingValue": 4,
            "SubmitDate": "/Date(1046201975000-0600)/",
            "UpdatedDate": "/Date(1046201975000-0600)/",
            "UserName": "ivette22"
          }
        ]
      },
      "RecipeDisplayFormatId": 0,
      "RecipeId": 52096,
      "RecipeName": "CRYSTAL LIGHT® Floats",
      "RecipeType": 0,
      "RelatedData": {
        "RelatedBrands": null,
        "RelatedProducts": null,
        "RelatedRecipes": {
          "DefaultTopCount": 5,
          "Recipe": [
            {
              "AverageRating": 4,
              "HasVideo": false,
              "IsHealthyLiving": true,
              "NumberOfRatings": 2,
              "PhotoName": "Tropical_Passion_Fruit_Float.jpg",
              "PhotoUrl": "http://assets.kraftfoods.com/recipe_images/opendeploy/Tropical_Passion_Fruit_Float.jpg",
              "RecipeId": 50287,
              "RecipeName": "Tropical Passion Fruit Float",
              "SEOName": "tropical-passion-fruit-float-50287",
              "ThumbnailPhoto": null
            },
            {
              "AverageRating": 5,
              "HasVideo": false,
              "IsHealthyLiving": true,
              "NumberOfRatings": 3,
              "PhotoName": "KOOL-AID_Float.jpg",
              "PhotoUrl": "http://assets.kraftfoods.com/recipe_images/opendeploy/KOOL-AID_Float.jpg",
              "RecipeId": 91995,
              "RecipeName": "KOOL-AID Float",
              "SEOName": "kool-aid-float-91995",
              "ThumbnailPhoto": null
            },
            {
              "AverageRating": 4.5,
              "HasVideo": false,
              "IsHealthyLiving": false,
              "NumberOfRatings": 4,
              "PhotoName": "120305.jpg",
              "PhotoUrl": "http://assets.kraftfoods.com/recipe_images/opendeploy/120305.jpg",
              "RecipeId": 120305,
              "RecipeName": "Potato Pierogi with Sour Cream Recipe",
              "SEOName": "potato-pierogi-sour-cream-recipe-120305",
              "ThumbnailPhoto": null
            },
            {
              "AverageRating": 4.6,
              "HasVideo": false,
              "IsHealthyLiving": false,
              "NumberOfRatings": 5,
              "PhotoName": "128129.jpg",
              "PhotoUrl": "http://assets.kraftfoods.com/recipe_images/opendeploy/128129.jpg",
              "RecipeId": 128129,
              "RecipeName": "Shortcut Pierogi Recipe",
              "SEOName": "shortcut-pierogi-recipe-128129",
              "ThumbnailPhoto": null
            },
            {
              "AverageRating": 4.6,
              "HasVideo": false,
              "IsHealthyLiving": true,
              "NumberOfRatings": 17,
              "PhotoName": "CRYSTAL_LIGHT_Punch.jpg",
              "PhotoUrl": "http://assets.kraftfoods.com/recipe_images/opendeploy/CRYSTAL_LIGHT_Punch.jpg",
              "RecipeId": 74554,
              "RecipeName": "CRYSTAL LIGHT® Punch",
              "SEOName": "crystal-light-punch-74554",
              "ThumbnailPhoto": null
            }
          ],
          "TotalCount": 2028
        }
      },
      "RiseIngredients": [
        {
          "IngredientCategory": "KRL",
          "IngredientId": 68162,
          "IngredientIndustrySector": "Retail",
          "IngredientType": "KHC",
          "ProductId": null,
          "RecipeId": 52096
        },
        {
          "IngredientCategory": "KRL",
          "IngredientId": 68233,
          "IngredientIndustrySector": "Retail",
          "IngredientType": "Inedible",
          "ProductId": null,
          "RecipeId": 52096
        },
        {
          "IngredientCategory": "KRL",
          "IngredientId": 68791,
          "IngredientIndustrySector": "Retail",
          "IngredientType": "Generic",
          "ProductId": null,
          "RecipeId": 52096
        }
      ],
      "RiseTaxonomy": [
        {
          "ParentTaxonomyId": 0,
          "RecipeId": 52096,
          "ResourceName": "Recipe",
          "TaxonomyId": 61,
          "TaxonomyName": "Beverages",
          "TaxonomyTypeId": 2,
          "TaxonomyTypeName": "Meal Part"
        }
      ],
      "Riserecipe": [
        {
          "GRIN": 521332,
          "RecipeId": 52096,
          "RecipeIndustrySector": "Retail",
          "RecipeType": "Internal"
        }
      ],
      "RomanceText": "These CRYSTAL LIGHT Floats are super versatile and easy. Choose any flavor you like, and add a dollop of lemon sorbet.",
      "SEOName": "crystal-light-floats-52096",
      "Tips": [
        {
          "RecipeId": 52096,
          "Sequence": 10,
          "TipDescription": "For a flavor adventure, substitute different flavors of sorbet or sherbet for lemon sorbet.",
          "TipID": 1,
          "TipName": "Substitute"
        }
      ],
      "TotalTime": 185,
      "TradeMarkInfo": null,
      "Video": [],
      "Yield": "Makes 10 servings, about 1 cup each."
    }
  ]
}