{
  "Metadata": {
    "PageCount": 1,
    "PageNo": 0,
    "TotalCount": 0
  },
  "Recipes": [
    {
      "AdServingKeywords": "Beef,Cheddar,Cheese,Corn,Grains,Meat,Peppers,Tomato,Vegetables,Entree,Top of Stove,Intermediate,Mexican,Dinner,Stew,All Seasons,Kraft Cheese,Kraft Salad Dressing,Cooking for a Crowd,Spicy",
      "AlternateLanguageRecipes": [],
      "Assets": [
        {
          "PictureFormats": [
            {
              "rendition": "290x194",
              "url": "http://assets.kraftfoods.com/recipe_images/opendeploy/62823_290x194.jpg"
            },
            {
              "rendition": "640x428",
              "url": "http://assets.kraftfoods.com/recipe_images/opendeploy/62823_640x428.jpg"
            },
            {
              "rendition": "600x250",
              "url": "http://assets.kraftfoods.com/recipe_images/opendeploy/62823_600x250.jpg"
            }
          ],
          "author": "BulKUpload",
          "id": "2",
          "imageType": "Primary",
          "mimeType": "image/jpeg",
          "publicationDate": null,
          "status": "1",
          "title": "62823",
          "type": "image"
        },
        {
          "PictureFormats": [
            {
              "rendition": "140x90",
              "url": "http://assets.kraftfoods.com/recipe_images/opendeploy/62823_KRL_K42663V3_OR1_OH_140x90.jpg"
            },
            {
              "rendition": "300x250",
              "url": "http://assets.kraftfoods.com/recipe_images/opendeploy/62823_KRL_K42663V3_OR1_OH_300x250.jpg"
            },
            {
              "rendition": "960x300",
              "url": "http://assets.kraftfoods.com/recipe_images/opendeploy/62823_KRL_K42663V3_OR1_OH_960x300.jpg"
            }
          ],
          "author": null,
          "id": "2",
          "imageType": "Primary",
          "mimeType": "image/jpeg",
          "publicationDate": null,
          "status": "1",
          "title": "62823_KRL_K42663V3_OR1_OH",
          "type": "image"
        },
        {
          "PictureFormats": [
            {
              "rendition": "300x200",
              "url": "http://assets.kraftfoods.com/recipe_images/62823.jpg"
            }
          ],
          "author": "BulKUpload",
          "id": "0",
          "imageType": "LANDSCAPE",
          "mimeType": "image/jpeg",
          "publicationDate": null,
          "status": "1",
          "title": "62823.jpg",
          "type": "image"
        },
        {
          "PictureFormats": [
            {
              "rendition": "300x200",
              "url": "http://assets.kraftfoods.com/recipe_images/Beef_Pozole_with_Cheddar_Cheese.jpg"
            }
          ],
          "author": null,
          "id": "0",
          "imageType": "DEFAULT",
          "mimeType": null,
          "publicationDate": null,
          "status": "1",
          "title": "Beef_Pozole_with_Cheddar_Cheese.jpg",
          "type": "image"
        }
      ],
      "AverageRating": 4.1,
      "BrandId": 1,
      "Branding": null,
      "CSSSkins": null,
      "CarbCounter": null,
      "Categories": [
        {
          "CategoryID": 7,
          "CategoryName": "Pork/Beef Entrees",
          "CategoryRank": 10,
          "SubCategoryID": 410,
          "SubCategoryName": "Beef: Stews",
          "SubCategoryRank": 40
        },
        {
          "CategoryID": 11,
          "CategoryName": "Primary",
          "CategoryRank": 0,
          "SubCategoryID": 97,
          "SubCategoryName": "Entrees",
          "SubCategoryRank": 50
        },
        {
          "CategoryID": 710,
          "CategoryName": "Ethnic",
          "CategoryRank": 0,
          "SubCategoryID": 504,
          "SubCategoryName": "Hispanic - Mexican",
          "SubCategoryRank": 0
        },
        {
          "CategoryID": 755,
          "CategoryName": "International Flavours",
          "CategoryRank": 9,
          "SubCategoryID": 2555,
          "SubCategoryName": "Mexican / Spanish",
          "SubCategoryRank": 1
        },
        {
          "CategoryID": 756,
          "CategoryName": "Main Meals (Meat / Seafood / Egg)",
          "CategoryRank": 10,
          "SubCategoryID": 2563,
          "SubCategoryName": "Beef",
          "SubCategoryRank": 1
        }
      ],
      "Classifications": [],
      "ComplimentaryRecipes": [
        {
          "AverageRating": 0,
          "HasVideo": false,
          "IsHealthyLiving": false,
          "NumberOfRatings": 0,
          "PhotoName": null,
          "PhotoUrl": null,
          "RecipeId": 51598,
          "RecipeName": null,
          "SEOName": "hearty-cornbread-51598",
          "ThumbnailPhoto": "Hearty_Cornbread.jpg"
        }
      ],
      "CookingMethod": null,
      "Copyright": null,
      "Courses": [
        "Main dishes"
      ],
      "DietExchange": null,
      "DishDetails": [
        {
          "Text": "ground beef recipes",
          "Url": "/recipes/dinner/ground-beef-recipes/main.aspx"
        },
        {
          "Text": "top 10 beef recipes",
          "Url": "/recipes/dinner/top-10/beef-recipes/main.aspx"
        },
        {
          "Text": "1 bag 5 dinners",
          "Url": "/recipes/dinner/1Bag5Dinners/1bag5dinnerschickenbeef.aspx"
        }
      ],
      "EndDate": "/Date(-62135575200000-0600)/",
      "HasVideo": false,
      "Ingredients": [
        {
          "FullMeasure": "3 whole",
          "FullWeight": "",
          "IngredientGridHeaders": null,
          "IngredientID": 5907,
          "IngredientName": "guajillo chiles",
          "IngredientStep": 10,
          "LanguageId": 0,
          "PostPreparation": ", stemmed, seeded",
          "PrePreparation": "",
          "QuantityNum": 3,
          "QuantityText": "3",
          "QuantityUnit": "whole",
          "RecipeIngredientID": 3990148,
          "TrialMeasure": "",
          "TrialWeight": ""
        },
        {
          "FullMeasure": "1",
          "FullWeight": "",
          "IngredientGridHeaders": null,
          "IngredientID": 4010,
          "IngredientName": "ancho chile",
          "IngredientStep": 20,
          "LanguageId": 0,
          "PostPreparation": ", stemmed, seeded",
          "PrePreparation": "",
          "QuantityNum": 1,
          "QuantityText": "1",
          "QuantityUnit": "",
          "RecipeIngredientID": 3990151,
          "TrialMeasure": "",
          "TrialWeight": ""
        },
        {
          "FullMeasure": "1/4  cup",
          "FullWeight": "",
          "IngredientGridHeaders": null,
          "IngredientID": 499,
          "IngredientName": "KRAFT Zesty Italian Dressing",
          "IngredientStep": 30,
          "LanguageId": 0,
          "PostPreparation": "",
          "PrePreparation": "",
          "QuantityNum": 0,
          "QuantityText": "1/4 ",
          "QuantityUnit": "cup",
          "RecipeIngredientID": 3990146,
          "TrialMeasure": "",
          "TrialWeight": ""
        },
        {
          "FullMeasure": "2 lb.",
          "FullWeight": "",
          "IngredientGridHeaders": null,
          "IngredientID": 5057,
          "IngredientName": "beef",
          "IngredientStep": 40,
          "LanguageId": 0,
          "PostPreparation": " for stew, cut into 1-inch cubes",
          "PrePreparation": "",
          "QuantityNum": 2,
          "QuantityText": "2",
          "QuantityUnit": "lb.",
          "RecipeIngredientID": 3990149,
          "TrialMeasure": "",
          "TrialWeight": ""
        },
        {
          "FullMeasure": "1 tsp.",
          "FullWeight": "",
          "IngredientGridHeaders": null,
          "IngredientID": 1221,
          "IngredientName": "ground cumin",
          "IngredientStep": 50,
          "LanguageId": 0,
          "PostPreparation": "",
          "PrePreparation": "",
          "QuantityNum": 1,
          "QuantityText": "1",
          "QuantityUnit": "tsp.",
          "RecipeIngredientID": 3990145,
          "TrialMeasure": "",
          "TrialWeight": ""
        },
        {
          "FullMeasure": "2 qt.",
          "FullWeight": "",
          "IngredientGridHeaders": null,
          "IngredientID": 3190,
          "IngredientName": "beef broth",
          "IngredientStep": 60,
          "LanguageId": 0,
          "PostPreparation": "",
          "PrePreparation": "(8 cups)",
          "QuantityNum": 2,
          "QuantityText": "2",
          "QuantityUnit": "qt.",
          "RecipeIngredientID": 3990144,
          "TrialMeasure": "",
          "TrialWeight": ""
        },
        {
          "FullMeasure": "1 can",
          "FullWeight": "",
          "IngredientGridHeaders": null,
          "IngredientID": 1030,
          "IngredientName": "diced tomatoes",
          "IngredientStep": 70,
          "LanguageId": 0,
          "PostPreparation": ", drained",
          "PrePreparation": " (14-1/2 oz.) ",
          "QuantityNum": 1,
          "QuantityText": "1",
          "QuantityUnit": "can",
          "RecipeIngredientID": 3990147,
          "TrialMeasure": "",
          "TrialWeight": ""
        },
        {
          "FullMeasure": "2 cans",
          "FullWeight": "",
          "IngredientGridHeaders": null,
          "IngredientID": 5619,
          "IngredientName": "hominy",
          "IngredientStep": 80,
          "LanguageId": 0,
          "PostPreparation": ", drained",
          "PrePreparation": " (15 oz. each)",
          "QuantityNum": 2,
          "QuantityText": "2",
          "QuantityUnit": "cans",
          "RecipeIngredientID": 3990143,
          "TrialMeasure": "",
          "TrialWeight": ""
        },
        {
          "FullMeasure": "1 can",
          "FullWeight": "",
          "IngredientGridHeaders": null,
          "IngredientID": 3818,
          "IngredientName": "corn",
          "IngredientStep": 90,
          "LanguageId": 0,
          "PostPreparation": ", drained",
          "PrePreparation": " (14-1/2 oz.)",
          "QuantityNum": 1,
          "QuantityText": "1",
          "QuantityUnit": "can",
          "RecipeIngredientID": 3990142,
          "TrialMeasure": "",
          "TrialWeight": ""
        },
        {
          "FullMeasure": "8 oz.",
          "FullWeight": "",
          "IngredientGridHeaders": null,
          "IngredientID": 4330,
          "IngredientName": "KRAFT Sharp Cheddar Cheese",
          "IngredientStep": 100,
          "LanguageId": 0,
          "PostPreparation": ", cut into 16 slices",
          "PrePreparation": "",
          "QuantityNum": 7,
          "QuantityText": "8",
          "QuantityUnit": "oz.",
          "RecipeIngredientID": 3990150,
          "TrialMeasure": "",
          "TrialWeight": ""
        }
      ],
      "IsHealthyLiving": false,
      "KRLId": "543785",
      "KeyIngredients": [
        "Beef",
        "Cheddar",
        "Cheese",
        "Corn",
        "Fruit",
        "Meat",
        "Peppers",
        "Tomato",
        "Vegetables"
      ],
      "Keywords": "peppers,beef,beef broth or bouillon,cheddar cheese,cheese,corn,cumin,dressing,hot peppers,italian dressing,KRAFT Cheddar Cheese,KRAFT Dressing,meat,salad dressing,stew meat,tomatoes,chile peppers,Entree,Top of Stove,Intermediate,Mexican,Dinner,All Seasons,Spicy,Cooking for a Crowd",
      "LanguageId": 1,
      "LifeStyles": [],
      "NumberOfIngredients": 10,
      "NumberOfRatings": 8,
      "NumberOfRatingsWithComments": "7",
      "NumberOfServings": "8 servings, 2 cups each",
      "NumberOfTrialServings": null,
      "NutritionBonus": null,
      "NutritionExchangeItemId": 0,
      "NutritionGridItems": null,
      "NutritionItems": [
        {
          "DisplayOrder": 1,
          "Document": null,
          "NutritionItemID": 3,
          "NutritionItemName": "Calories",
          "Predriscriptor": "",
          "Quantity": 370,
          "Unit": "          "
        },
        {
          "DisplayOrder": 2,
          "Document": "fat_cholesterol.html",
          "NutritionItemID": 4,
          "NutritionItemName": "Total fat",
          "Predriscriptor": "",
          "Quantity": 19,
          "Unit": "g         "
        },
        {
          "DisplayOrder": 3,
          "Document": "fat_cholesterol.html",
          "NutritionItemID": 9,
          "NutritionItemName": "Saturated fat",
          "Predriscriptor": "",
          "Quantity": 9,
          "Unit": "g         "
        },
        {
          "DisplayOrder": 7,
          "Document": "fat_cholesterol.html",
          "NutritionItemID": 2,
          "NutritionItemName": "Cholesterol",
          "Predriscriptor": "",
          "Quantity": 75,
          "Unit": "mg        "
        },
        {
          "DisplayOrder": 8,
          "Document": "sodium.html",
          "NutritionItemID": 8,
          "NutritionItemName": "Sodium",
          "Predriscriptor": "",
          "Quantity": 1410,
          "Unit": "mg        "
        },
        {
          "DisplayOrder": 10,
          "Document": "carbs_sugars_fiber.html",
          "NutritionItemID": 1,
          "NutritionItemName": "Carbohydrate",
          "Predriscriptor": "",
          "Quantity": 21,
          "Unit": "g         "
        },
        {
          "DisplayOrder": 11,
          "Document": "carbs_sugars_fiber.html",
          "NutritionItemID": 7,
          "NutritionItemName": "Dietary fiber",
          "Predriscriptor": "",
          "Quantity": 4,
          "Unit": "g         "
        },
        {
          "DisplayOrder": 12,
          "Document": "carbs_sugars_fiber.html",
          "NutritionItemID": 5,
          "NutritionItemName": "Sugars",
          "Predriscriptor": "",
          "Quantity": 4,
          "Unit": "g         "
        },
        {
          "DisplayOrder": 13,
          "Document": null,
          "NutritionItemID": 6,
          "NutritionItemName": "Protein",
          "Predriscriptor": "",
          "Quantity": 28,
          "Unit": "g         "
        },
        {
          "DisplayOrder": 14,
          "Document": null,
          "NutritionItemID": 10,
          "NutritionItemName": "Vitamin A",
          "Predriscriptor": "",
          "Quantity": 60,
          "Unit": "%DV       "
        },
        {
          "DisplayOrder": 15,
          "Document": null,
          "NutritionItemID": 11,
          "NutritionItemName": "Vitamin C",
          "Predriscriptor": "",
          "Quantity": 50,
          "Unit": "%DV       "
        },
        {
          "DisplayOrder": 16,
          "Document": "dairy_and_calcium.html",
          "NutritionItemID": 12,
          "NutritionItemName": "Calcium",
          "Predriscriptor": "",
          "Quantity": 20,
          "Unit": "%DV       "
        },
        {
          "DisplayOrder": 17,
          "Document": null,
          "NutritionItemID": 13,
          "NutritionItemName": "Iron",
          "Predriscriptor": "",
          "Quantity": 20,
          "Unit": "%DV       "
        }
      ],
      "NutritionServingText": null,
      "PrepStepImage": null,
      "PreparationDescription": "Place peppers in small bowl.  Add enough hot water to cover peppers; let stand 20 minutes or until softened. Place peppers and 1/2 cup of the reserved soaking water in blender container; cover.  Blend until pureed.  Set aside.$Heat dressing in large stew pot on medium-high heat.  Add meat and cumin; cook and stir 5 minutes or until meat is evenly browned.  Add pepper puree and beef broth; mix well.  Bring to boil.  Reduce heat to medium-low; simmer 30 minutes.$Add tomatoes, hominy and corn; mix well.  Simmer an additional 30 minutes, stirring frequently.$Place cheese in bottoms of bowls; cover with stew. ",
      "PreparationPreText": null,
      "PreparationSteps": [
        {
          "Description": "Place peppers in small bowl.  Add enough hot water to cover peppers; let stand 20 minutes or until softened. Place peppers and 1/2 cup of the reserved soaking water in blender container; cover.  Blend until pureed.  Set aside.",
          "PreparationStepImage": {
            "PictureFormats": [],
            "author": null,
            "id": null,
            "imageType": null,
            "mimeType": null,
            "publicationDate": null,
            "status": null,
            "title": null,
            "type": null
          },
          "Sequence": 1
        },
        {
          "Description": "Heat dressing in large stew pot on medium-high heat.  Add meat and cumin; cook and stir 5 minutes or until meat is evenly browned.  Add pepper puree and beef broth; mix well.  Bring to boil.  Reduce heat to medium-low; simmer 30 minutes.",
          "PreparationStepImage": {
            "PictureFormats": [],
            "author": null,
            "id": null,
            "imageType": null,
            "mimeType": null,
            "publicationDate": null,
            "status": null,
            "title": null,
            "type": null
          },
          "Sequence": 2
        },
        {
          "Description": "Add tomatoes, hominy and corn; mix well.  Simmer an additional 30 minutes, stirring frequently.",
          "PreparationStepImage": {
            "PictureFormats": [],
            "author": null,
            "id": null,
            "imageType": null,
            "mimeType": null,
            "publicationDate": null,
            "status": null,
            "title": null,
            "type": null
          },
          "Sequence": 3
        },
        {
          "Description": "Place cheese in bottoms of bowls; cover with stew. ",
          "PreparationStepImage": {
            "PictureFormats": [],
            "author": null,
            "id": null,
            "imageType": null,
            "mimeType": null,
            "publicationDate": null,
            "status": null,
            "title": null,
            "type": null
          },
          "Sequence": 4
        }
      ],
      "PreparationTime": 25,
      "Promotion": null,
      "Ratings": {
        "TotalCount": 8,
        "PageCount": 10,
        "PageNo": 1,
        "Rating": [
          {
            "Comment": "This is a recipe that we really enjoyed.  I made the changes recommended by the \"authentic pozole\" reviewer, and thought it added a lot.  This is a keeper. I did cook the stew meat much longer than the 30 min. to increase the tenderness.",
            "DisplayName": true,
            "RatingValue": 4,
            "SubmitDate": "/Date(1296967755000-0600)/",
            "UpdatedDate": "/Date(1296967755000-0600)/",
            "UserName": "patty12104"
          },
          {
            "Comment": "THIS IS A GOOD MEAL.  TO MAKE IT REALLY AUTHENTIC, SUBSTITUTE PORK FOR THE BEEF. ALSO, WHEN SERVING, ADD FINELY CHOPPED JALAPENOS, DICED RAW ONIONS, GROUND CHILI POWDER, AND A SQUIRT OF FRESH LIME JUICE!\r\nTHIS TOUCH MAKES IT AUTHENTIC AND DELICIOUS!",
            "DisplayName": true,
            "RatingValue": 3,
            "SubmitDate": "/Date(1200850517000-0600)/",
            "UpdatedDate": "/Date(1200850517000-0600)/",
            "UserName": "moemoe01"
          },
          {
            "Comment": "",
            "DisplayName": false,
            "RatingValue": 4,
            "SubmitDate": "/Date(1165966370000-0600)/",
            "UpdatedDate": "/Date(1165966370000-0600)/",
            "UserName": "jennafager"
          },
          {
            "Comment": "I will definitely make this recipe again.  It was delicious!",
            "DisplayName": true,
            "RatingValue": 5,
            "SubmitDate": "/Date(1164149822000-0600)/",
            "UpdatedDate": "/Date(1164149822000-0600)/",
            "UserName": "Heather31705"
          },
          {
            "Comment": "Really good and easy to make.  I would add some other peppers next time because it wasn't that hot.  I also added sour cream and nacho chips.  It was really good! My husband loved it!",
            "DisplayName": true,
            "RatingValue": 5,
            "SubmitDate": "/Date(1148307504000-0500)/",
            "UpdatedDate": "/Date(1148307504000-0500)/",
            "UserName": "katiegratie"
          },
          {
            "Comment": "I wasn't able to find the peppers as well so I just used a mild and hot blend and it turned out fine.  Very good and I never used hominy before so it was a chance to try something new!",
            "DisplayName": true,
            "RatingValue": 4,
            "SubmitDate": "/Date(1103209649000-0600)/",
            "UpdatedDate": "/Date(1103209649000-0600)/",
            "UserName": "heatherwlms"
          },
          {
            "Comment": "Awesome.  Had a hard time finding the peppers called for so I substituted green chili's, chili sauce, and a poblano pepper.  Also added fresh cilantro, fresh lime, and onion.  My husband does not like my cooking, but he loved this!  Serve with cornbread.  Very tasty!  Great for a winter meal.",
            "DisplayName": true,
            "RatingValue": 5,
            "SubmitDate": "/Date(1094662827000-0500)/",
            "UpdatedDate": "/Date(1094662827000-0500)/",
            "UserName": "lisashaw1"
          },
          {
            "Comment": "good recipe but it could use garlic, and poss some parsely.",
            "DisplayName": true,
            "RatingValue": 3,
            "SubmitDate": "/Date(1075178978000-0600)/",
            "UpdatedDate": "/Date(1075178978000-0600)/",
            "UserName": "Edjbud"
          }
        ]
      },
      "RecipeDisplayFormatId": 5,
      "RecipeId": 62823,
      "RecipeName": "Beef Pozole with Cheddar Cheese",
      "RecipeType": 0,
      "RelatedData": {
        "RelatedBrands": null,
        "RelatedProducts": null,
        "RelatedRecipes": {
          "DefaultTopCount": 5,
          "Recipe": [
            {
              "AverageRating": 4,
              "HasVideo": false,
              "IsHealthyLiving": false,
              "NumberOfRatings": 4,
              "PhotoName": "Chicken_Pozole.jpg",
              "PhotoUrl": "http://assets.kraftfoods.com/recipe_images/opendeploy/Chicken_Pozole.jpg",
              "RecipeId": 90083,
              "RecipeName": "Chicken Pozole",
              "SEOName": "chicken-pozole-90083",
              "ThumbnailPhoto": null
            },
            {
              "AverageRating": 5,
              "HasVideo": false,
              "IsHealthyLiving": false,
              "NumberOfRatings": 2,
              "PhotoName": "143699.jpg",
              "PhotoUrl": "http://assets.kraftfoods.com/recipe_images/opendeploy/143699.jpg",
              "RecipeId": 143699,
              "RecipeName": "Chipotle Cheddar-Beef Enchiladas",
              "SEOName": "chipotle-cheddar-beef-enchiladas-143699",
              "ThumbnailPhoto": null
            },
            {
              "AverageRating": 4.1,
              "HasVideo": false,
              "IsHealthyLiving": false,
              "NumberOfRatings": 48,
              "PhotoName": "112580.jpg",
              "PhotoUrl": "http://assets.kraftfoods.com/recipe_images/opendeploy/112580.jpg",
              "RecipeId": 112580,
              "RecipeName": "Tex-Mex Cheddar Mac",
              "SEOName": "tex-mex-cheddar-mac-112580",
              "ThumbnailPhoto": null
            },
            {
              "AverageRating": 4.2,
              "HasVideo": false,
              "IsHealthyLiving": false,
              "NumberOfRatings": 252,
              "PhotoName": "105219.jpg",
              "PhotoUrl": "http://assets.kraftfoods.com/recipe_images/opendeploy/105219.jpg",
              "RecipeId": 105219,
              "RecipeName": "Cheddar Macaroni Ground Beef Casserole",
              "SEOName": "cheddar-macaroni-ground-beef-casserole-105219",
              "ThumbnailPhoto": null
            },
            {
              "AverageRating": 4.6,
              "HasVideo": false,
              "IsHealthyLiving": false,
              "NumberOfRatings": 126,
              "PhotoName": "Velveeta-Nacho-Bake-51783.jpg",
              "PhotoUrl": "http://assets.kraftfoods.com/recipe_images/opendeploy/Velveeta-Nacho-Bake-51783.jpg",
              "RecipeId": 90606,
              "RecipeName": "VELVEETA Nacho Bake",
              "SEOName": "velveeta-nacho-bake-90606",
              "ThumbnailPhoto": null
            }
          ],
          "TotalCount": 4382
        }
      },
      "RiseIngredients": [],
      "RiseTaxonomy": [],
      "Riserecipe": [
        {
          "GRIN": 543785,
          "RecipeId": 62823,
          "RecipeIndustrySector": "Retail",
          "RecipeType": "Internal"
        }
      ],
      "RomanceText": "Chiles, ancho peppers, cumin and hominy simmer into a broth so authentic, you'll think you're south of the border, or at least at your favorite Mexican joint.",
      "SEOName": "beef-pozole-cheddar-cheese-62823",
      "Tips": [
        {
          "RecipeId": 62823,
          "Sequence": 10,
          "TipDescription": "This Mexican stew's name, pozole, refers to whole-kernel hominy -- kernels of dried corn that have been treated with an alkali solution and boiled to loosen the skin, which is then scrubbed off. When boiled further, they puff up. \r\n ",
          "TipID": 5,
          "TipName": "Food Facts"
        },
        {
          "RecipeId": 62823,
          "Sequence": 20,
          "TipDescription": "Prepare as directed, omitting the tomatoes, hominy, corn and cheese; cool.  Cover and refrigerate up to 2 days. When ready to serve, bring the pozole mixture to boil on medium-high heat.  Reduce heat to medium-low.  Add tomatoes, hominy and corn.  Cook 30 minutes, stirring frequently.  Serve with cheese as directed.",
          "TipID": 3,
          "TipName": "Make Ahead"
        },
        {
          "RecipeId": 62823,
          "Sequence": 30,
          "TipDescription": "Pozole recipes, traditionally made with pork broth, may vary in color from white to red to green, depending upon the color of the hominy and the color of the peppers used.",
          "TipID": 6,
          "TipName": "Food Facts"
        }
      ],
      "TotalTime": 95,
      "TradeMarkInfo": null,
      "Video": [],
      "Yield": "Makes 8 servings, 2 cups each."
    }
  ]
}