{
  "Metadata": {
    "PageCount": 1,
    "PageNo": 0,
    "TotalCount": 0
  },
  "Recipes": [
    {
      "AdServingKeywords": "Baked,Microwaved,Pan Fried ,Entree,Mexican,Southwest,Intermediate,Carrot,Cauliflower,Fruit,Lime,Vegetables,Taco Bell®,All Seasons,Dinner,Meatless",
      "AlternateLanguageRecipes": [
        {
          "LanguageId": "1",
          "RecipeId": "212110",
          "SiteId": "1"
        },
        {
          "LanguageId": "1",
          "RecipeId": "212110",
          "SiteId": "151"
        },
        {
          "LanguageId": "3",
          "RecipeId": "212111",
          "SiteId": "1"
        },
        {
          "LanguageId": "3",
          "RecipeId": "212111",
          "SiteId": "151"
        }
      ],
      "Assets": [
        {
          "PictureFormats": [
            {
              "rendition": "290x194",
              "url": "http://assets.kraftfoods.com/recipe_images/opendeploy/582748_1_1_retail-34bf49ee9bb445eab612f6e90a1511d47ec560d0_291x194.jpg"
            },
            {
              "rendition": "306x204",
              "url": "http://assets.kraftfoods.com/recipe_images/opendeploy/582748_1_1_retail-34bf49ee9bb445eab612f6e90a1511d47ec560d0_306x204.jpg"
            },
            {
              "rendition": "640x428",
              "url": "http://assets.kraftfoods.com/recipe_images/opendeploy/582748_1_1_retail-34bf49ee9bb445eab612f6e90a1511d47ec560d0_642x428.jpg"
            }
          ],
          "author": "Kraft",
          "id": "2",
          "imageType": "Primary",
          "mimeType": "image/jpeg",
          "publicationDate": null,
          "status": "1",
          "title": "582748_1_1_retail-34bf49ee9bb445eab612f6e90a1511d47ec560d0",
          "type": "image"
        }
      ],
      "AverageRating": 0,
      "BrandId": 1,
      "Branding": null,
      "CSSSkins": [],
      "CarbCounter": null,
      "Categories": [],
      "Classifications": [],
      "ComplimentaryRecipes": null,
      "CookingMethod": null,
      "Copyright": null,
      "Courses": [],
      "DietExchange": "",
      "DishDetails": null,
      "EndDate": "/Date(-62135575200000-0600)/",
      "HasVideo": false,
      "Ingredients": [
        {
          "FullMeasure": null,
          "FullWeight": null,
          "IngredientGridHeaders": null,
          "IngredientID": 68868,
          "IngredientName": "small cauliflower florets, divided",
          "IngredientStep": 10,
          "LanguageId": 0,
          "PostPreparation": "",
          "PrePreparation": "",
          "QuantityNum": 4.5,
          "QuantityText": "4-1/2",
          "QuantityUnit": "cups",
          "RecipeIngredientID": 450938,
          "TrialMeasure": null,
          "TrialWeight": null
        },
        {
          "FullMeasure": null,
          "FullWeight": null,
          "IngredientGridHeaders": null,
          "IngredientID": 67921,
          "IngredientName": "oil",
          "IngredientStep": 20,
          "LanguageId": 0,
          "PostPreparation": "",
          "PrePreparation": "",
          "QuantityNum": 1,
          "QuantityText": "1",
          "QuantityUnit": "Tbsp.",
          "RecipeIngredientID": 450939,
          "TrialMeasure": null,
          "TrialWeight": null
        },
        {
          "FullMeasure": null,
          "FullWeight": null,
          "IngredientGridHeaders": null,
          "IngredientID": 67766,
          "IngredientName": "(1 oz.) TACO BELL® Taco Seasoning Mix",
          "IngredientStep": 30,
          "LanguageId": 0,
          "PostPreparation": "",
          "PrePreparation": "",
          "QuantityNum": 1,
          "QuantityText": "1",
          "QuantityUnit": "pkg.",
          "RecipeIngredientID": 450940,
          "TrialMeasure": null,
          "TrialWeight": null
        },
        {
          "FullMeasure": null,
          "FullWeight": null,
          "IngredientGridHeaders": null,
          "IngredientID": 67752,
          "IngredientName": "shredded carrots",
          "IngredientStep": 40,
          "LanguageId": 0,
          "PostPreparation": "",
          "PrePreparation": "",
          "QuantityNum": 1,
          "QuantityText": "1",
          "QuantityUnit": "cup",
          "RecipeIngredientID": 451067,
          "TrialMeasure": null,
          "TrialWeight": null
        },
        {
          "FullMeasure": null,
          "FullWeight": null,
          "IngredientGridHeaders": null,
          "IngredientID": 72996,
          "IngredientName": "TACO BELL® Mild Sauce",
          "IngredientStep": 50,
          "LanguageId": 0,
          "PostPreparation": "",
          "PrePreparation": "",
          "QuantityNum": 0.5,
          "QuantityText": "1/2",
          "QuantityUnit": "cup",
          "RecipeIngredientID": 450941,
          "TrialMeasure": null,
          "TrialWeight": null
        },
        {
          "FullMeasure": null,
          "FullWeight": null,
          "IngredientGridHeaders": null,
          "IngredientID": 71604,
          "IngredientName": "chopped fresh cilantro",
          "IngredientStep": 60,
          "LanguageId": 0,
          "PostPreparation": "",
          "PrePreparation": "",
          "QuantityNum": 0.25,
          "QuantityText": "1/4",
          "QuantityUnit": "cup",
          "RecipeIngredientID": 450943,
          "TrialMeasure": null,
          "TrialWeight": null
        },
        {
          "FullMeasure": null,
          "FullWeight": null,
          "IngredientGridHeaders": null,
          "IngredientID": 68121,
          "IngredientName": "lime juice",
          "IngredientStep": 70,
          "LanguageId": 0,
          "PostPreparation": "",
          "PrePreparation": "",
          "QuantityNum": 1,
          "QuantityText": "1",
          "QuantityUnit": "Tbsp.",
          "RecipeIngredientID": 450942,
          "TrialMeasure": null,
          "TrialWeight": null
        },
        {
          "FullMeasure": null,
          "FullWeight": null,
          "IngredientGridHeaders": null,
          "IngredientID": 68041,
          "IngredientName": "corn tortillas (6 inch), warmed",
          "IngredientStep": 80,
          "LanguageId": 0,
          "PostPreparation": "",
          "PrePreparation": "",
          "QuantityNum": 8,
          "QuantityText": "8",
          "QuantityUnit": "",
          "RecipeIngredientID": 451068,
          "TrialMeasure": null,
          "TrialWeight": null
        }
      ],
      "IsHealthyLiving": true,
      "KRLId": "582748",
      "KeyIngredients": [],
      "Keywords": "Baked,Microwaved,Pan Fried ,Entree,Mexican,Southwest,Intermediate,All Seasons,Meatless",
      "LanguageId": 1,
      "LifeStyles": [],
      "NumberOfIngredients": 8,
      "NumberOfRatings": 0,
      "NumberOfRatingsWithComments": "0",
      "NumberOfServings": "8 servings",
      "NumberOfTrialServings": null,
      "NutritionBonus": "You won't miss meat in these veggie tacos due to their bold flavor.  Best of all, they're a good source of fiber, and an excellent source of both vitamins A and C from the cauliflower and carrots.",
      "NutritionExchangeItemId": 1,
      "NutritionGridItems": null,
      "NutritionItems": [
        {
          "DisplayOrder": 0,
          "Document": null,
          "NutritionItemID": 371,
          "NutritionItemName": "Calories",
          "Predriscriptor": "",
          "Quantity": 100,
          "Unit": "          "
        },
        {
          "DisplayOrder": 0,
          "Document": null,
          "NutritionItemID": 372,
          "NutritionItemName": "Protein",
          "Predriscriptor": "",
          "Quantity": 2,
          "Unit": "g         "
        },
        {
          "DisplayOrder": 0,
          "Document": null,
          "NutritionItemID": 373,
          "NutritionItemName": "Carbohydrate",
          "Predriscriptor": "",
          "Quantity": 18,
          "Unit": "g         "
        },
        {
          "DisplayOrder": 0,
          "Document": null,
          "NutritionItemID": 374,
          "NutritionItemName": "Dietary fiber",
          "Predriscriptor": "",
          "Quantity": 3,
          "Unit": "g         "
        },
        {
          "DisplayOrder": 0,
          "Document": null,
          "NutritionItemID": 375,
          "NutritionItemName": "Sugars",
          "Predriscriptor": "",
          "Quantity": 4,
          "Unit": "g         "
        },
        {
          "DisplayOrder": 0,
          "Document": null,
          "NutritionItemID": 376,
          "NutritionItemName": "Total fat",
          "Predriscriptor": "",
          "Quantity": 2.5,
          "Unit": "g         "
        },
        {
          "DisplayOrder": 0,
          "Document": null,
          "NutritionItemID": 377,
          "NutritionItemName": "Saturated fat",
          "Predriscriptor": "",
          "Quantity": 0,
          "Unit": "g         "
        },
        {
          "DisplayOrder": 0,
          "Document": null,
          "NutritionItemID": 378,
          "NutritionItemName": "Monounsaturated Fat",
          "Predriscriptor": "",
          "Quantity": 1,
          "Unit": "g         "
        },
        {
          "DisplayOrder": 0,
          "Document": null,
          "NutritionItemID": 379,
          "NutritionItemName": "Polyunsaturated Fat",
          "Predriscriptor": "",
          "Quantity": 0.5,
          "Unit": "g         "
        },
        {
          "DisplayOrder": 0,
          "Document": null,
          "NutritionItemID": 380,
          "NutritionItemName": "Trans Fat",
          "Predriscriptor": "",
          "Quantity": 0,
          "Unit": "g         "
        },
        {
          "DisplayOrder": 0,
          "Document": null,
          "NutritionItemID": 381,
          "NutritionItemName": "Cholesterol",
          "Predriscriptor": "",
          "Quantity": 0,
          "Unit": "mg        "
        },
        {
          "DisplayOrder": 0,
          "Document": null,
          "NutritionItemID": 382,
          "NutritionItemName": "Vitamin A",
          "Predriscriptor": "",
          "Quantity": 80,
          "Unit": "%DV       "
        },
        {
          "DisplayOrder": 0,
          "Document": null,
          "NutritionItemID": 383,
          "NutritionItemName": "Vitamin C",
          "Predriscriptor": "",
          "Quantity": 35,
          "Unit": "%DV       "
        },
        {
          "DisplayOrder": 0,
          "Document": null,
          "NutritionItemID": 384,
          "NutritionItemName": "Vitamin D",
          "Predriscriptor": "",
          "Quantity": 0,
          "Unit": "%DV       "
        },
        {
          "DisplayOrder": 0,
          "Document": null,
          "NutritionItemID": 385,
          "NutritionItemName": "Vitamin E",
          "Predriscriptor": "",
          "Quantity": 4,
          "Unit": "%DV       "
        },
        {
          "DisplayOrder": 0,
          "Document": null,
          "NutritionItemID": 386,
          "NutritionItemName": "Calcium",
          "Predriscriptor": "",
          "Quantity": 2,
          "Unit": "%DV       "
        },
        {
          "DisplayOrder": 0,
          "Document": null,
          "NutritionItemID": 387,
          "NutritionItemName": "Iron",
          "Predriscriptor": "",
          "Quantity": 2,
          "Unit": "%DV       "
        },
        {
          "DisplayOrder": 0,
          "Document": null,
          "NutritionItemID": 388,
          "NutritionItemName": "Potassium",
          "Predriscriptor": "",
          "Quantity": 4,
          "Unit": "%DV       "
        },
        {
          "DisplayOrder": 0,
          "Document": null,
          "NutritionItemID": 389,
          "NutritionItemName": "Sodium",
          "Predriscriptor": "",
          "Quantity": 340,
          "Unit": "mg        "
        },
        {
          "DisplayOrder": 0,
          "Document": null,
          "NutritionItemID": 390,
          "NutritionItemName": "Added Sugars",
          "Predriscriptor": "",
          "Quantity": 0,
          "Unit": "g         "
        }
      ],
      "NutritionServingText": null,
      "PrepStepImage": null,
      "PreparationDescription": "Use pulsing action of food processor to process half the cauliflower until coarsely chopped; spoon into large bowl. Repeat with remaining cauliflower.$Heat oil in large nonstick skillet on medium heat.  Add cauliflower; cook 8 to 10 min. or until lightly browned, stirring occasionally.  Stir in taco seasoning mix.  Add carrots and next 3 ingredients; mix well. Cook 1 to 2 min. or until heated through and slightly thickened, stirring frequently.  Remove from heat.$Stack tortillas; wrap in paper towel. Microwave on HIGH 1 min.  $Spoon cauliflower mixture evenly down centers of tortillas; roll up.  Place, seam sides down, on baking sheet sprayed with cooking spray. $Bake 10 to 12 min. or until taquitos are crisp.",
      "PreparationPreText": "Heat oven to 400°F.",
      "PreparationSteps": [
        {
          "Description": "Use pulsing action of food processor to process half the cauliflower until coarsely chopped; spoon into large bowl. Repeat with remaining cauliflower.",
          "PreparationStepImage": {
            "PictureFormats": [],
            "author": null,
            "id": null,
            "imageType": null,
            "mimeType": null,
            "publicationDate": null,
            "status": null,
            "title": null,
            "type": null
          },
          "Sequence": 1
        },
        {
          "Description": "Heat oil in large nonstick skillet on medium heat.  Add cauliflower; cook 8 to 10 min. or until lightly browned, stirring occasionally.  Stir in taco seasoning mix.  Add carrots and next 3 ingredients; mix well. Cook 1 to 2 min. or until heated through and slightly thickened, stirring frequently.  Remove from heat.",
          "PreparationStepImage": {
            "PictureFormats": [],
            "author": null,
            "id": null,
            "imageType": null,
            "mimeType": null,
            "publicationDate": null,
            "status": null,
            "title": null,
            "type": null
          },
          "Sequence": 2
        },
        {
          "Description": "Stack tortillas; wrap in paper towel. Microwave on HIGH 1 min.  ",
          "PreparationStepImage": {
            "PictureFormats": [],
            "author": null,
            "id": null,
            "imageType": null,
            "mimeType": null,
            "publicationDate": null,
            "status": null,
            "title": null,
            "type": null
          },
          "Sequence": 3
        },
        {
          "Description": "Spoon cauliflower mixture evenly down centers of tortillas; roll up.  Place, seam sides down, on baking sheet sprayed with cooking spray. ",
          "PreparationStepImage": {
            "PictureFormats": [],
            "author": null,
            "id": null,
            "imageType": null,
            "mimeType": null,
            "publicationDate": null,
            "status": null,
            "title": null,
            "type": null
          },
          "Sequence": 4
        },
        {
          "Description": "Bake 10 to 12 min. or until taquitos are crisp.",
          "PreparationStepImage": {
            "PictureFormats": [],
            "author": null,
            "id": null,
            "imageType": null,
            "mimeType": null,
            "publicationDate": null,
            "status": null,
            "title": null,
            "type": null
          },
          "Sequence": 5
        }
      ],
      "PreparationTime": 25,
      "Promotion": null,
      "Ratings": {
        "TotalCount": 0,
        "PageCount": 10,
        "PageNo": 1,
        "Rating": []
      },
      "RecipeDisplayFormatId": 0,
      "RecipeId": 210256,
      "RecipeName": "Baked Cauliflower Taquitos",
      "RecipeType": 0,
      "RelatedData": {
        "RelatedBrands": null,
        "RelatedProducts": null,
        "RelatedRecipes": {
          "DefaultTopCount": 5,
          "Recipe": [
            {
              "AverageRating": 4.5,
              "HasVideo": false,
              "IsHealthyLiving": false,
              "NumberOfRatings": 8,
              "PhotoName": "Taquitos-Creamy-Jalapeno-Sauce-22256.jpg",
              "PhotoUrl": "http://assets.kraftfoods.com/recipe_images/opendeploy/Taquitos-Creamy-Jalapeno-Sauce-22256.jpg",
              "RecipeId": 55571,
              "RecipeName": "Taquitos with Creamy Jalapeño Sauce",
              "SEOName": "taquitos-creamy-jalapeno-sauce-55571",
              "ThumbnailPhoto": null
            },
            {
              "AverageRating": 4.9,
              "HasVideo": false,
              "IsHealthyLiving": false,
              "NumberOfRatings": 8,
              "PhotoName": "131238.jpg",
              "PhotoUrl": "http://assets.kraftfoods.com/recipe_images/opendeploy/131238.jpg",
              "RecipeId": 131238,
              "RecipeName": "Creamy Baked Cauliflower",
              "SEOName": "creamy-baked-cauliflower-131238",
              "ThumbnailPhoto": null
            },
            {
              "AverageRating": 4.5,
              "HasVideo": false,
              "IsHealthyLiving": false,
              "NumberOfRatings": 4,
              "PhotoName": "111331.jpg",
              "PhotoUrl": "http://assets.kraftfoods.com/recipe_images/opendeploy/111331.jpg",
              "RecipeId": 111331,
              "RecipeName": "Baked Tilapia with Cauliflower & Carrots",
              "SEOName": "baked-tilapia-cauliflower-carrots-111331",
              "ThumbnailPhoto": null
            },
            {
              "AverageRating": 5,
              "HasVideo": false,
              "IsHealthyLiving": true,
              "NumberOfRatings": 1,
              "PhotoName": "opendeploy/182796-078d6a6d7b26e7df2524c7c527942b99e6ebc5ba_306x204.jpg",
              "PhotoUrl": "http://assets.kraftfoods.com/recipe_images/opendeploy/opendeploy/182796-078d6a6d7b26e7df2524c7c527942b99e6ebc5ba_306x204.jpg",
              "RecipeId": 182796,
              "RecipeName": "Sun Dried Tomato-Basil Roasted Cauliflower",
              "SEOName": "sun-dried-tomato-basil-roasted-cauliflower-182796",
              "ThumbnailPhoto": null
            },
            {
              "AverageRating": 4.1,
              "HasVideo": false,
              "IsHealthyLiving": false,
              "NumberOfRatings": 7,
              "PhotoName": "Curry-Roasted_Cauliflower.jpg",
              "PhotoUrl": "http://assets.kraftfoods.com/recipe_images/opendeploy/Curry-Roasted_Cauliflower.jpg",
              "RecipeId": 90828,
              "RecipeName": "Curried Cauliflower",
              "SEOName": "curried-cauliflower-90828",
              "ThumbnailPhoto": null
            }
          ],
          "TotalCount": 3489
        }
      },
      "RiseIngredients": [
        {
          "IngredientCategory": "KRL",
          "IngredientId": 67752,
          "IngredientIndustrySector": "Retail",
          "IngredientType": "Inedible",
          "ProductId": null,
          "RecipeId": 210256
        },
        {
          "IngredientCategory": "KRL",
          "IngredientId": 67766,
          "IngredientIndustrySector": "Retail",
          "IngredientType": "KHC",
          "ProductId": "00021000049479",
          "RecipeId": 210256
        },
        {
          "IngredientCategory": "KRL",
          "IngredientId": 67921,
          "IngredientIndustrySector": "Retail",
          "IngredientType": "Inedible",
          "ProductId": null,
          "RecipeId": 210256
        },
        {
          "IngredientCategory": "KRL",
          "IngredientId": 68041,
          "IngredientIndustrySector": "Retail",
          "IngredientType": "Inedible",
          "ProductId": null,
          "RecipeId": 210256
        },
        {
          "IngredientCategory": "KRL",
          "IngredientId": 68121,
          "IngredientIndustrySector": "Retail",
          "IngredientType": "Inedible",
          "ProductId": null,
          "RecipeId": 210256
        },
        {
          "IngredientCategory": "KRL",
          "IngredientId": 68868,
          "IngredientIndustrySector": "Retail",
          "IngredientType": "Inedible",
          "ProductId": null,
          "RecipeId": 210256
        },
        {
          "IngredientCategory": "KRL",
          "IngredientId": 71604,
          "IngredientIndustrySector": "Retail",
          "IngredientType": "Inedible",
          "ProductId": null,
          "RecipeId": 210256
        },
        {
          "IngredientCategory": "KRL",
          "IngredientId": 72996,
          "IngredientIndustrySector": "Retail",
          "IngredientType": "KHC",
          "ProductId": "00021000047208",
          "RecipeId": 210256
        }
      ],
      "RiseTaxonomy": [
        {
          "ParentTaxonomyId": 0,
          "RecipeId": 210256,
          "ResourceName": "Recipe",
          "TaxonomyId": 65,
          "TaxonomyName": "Entrées",
          "TaxonomyTypeId": 2,
          "TaxonomyTypeName": "Meal Part"
        },
        {
          "ParentTaxonomyId": 51,
          "RecipeId": 210256,
          "ResourceName": "Recipe",
          "TaxonomyId": 236,
          "TaxonomyName": "Fajitas & Tacos",
          "TaxonomyTypeId": 3,
          "TaxonomyTypeName": "Dish Type"
        }
      ],
      "Riserecipe": [
        {
          "GRIN": 582748,
          "RecipeId": 210256,
          "RecipeIndustrySector": "Retail",
          "RecipeType": "Internal"
        }
      ],
      "RomanceText": "Add taco seasoning mix and cauliflower to these baked taquitos for a spicy veggie dish. Baked Taquitos with Cauliflower are a Healthy Living recipe.",
      "SEOName": "baked-cauliflower-taquitos-210256",
      "Tips": [
        {
          "RecipeId": 210256,
          "Sequence": 2,
          "TipDescription": "You will need to purchase 1 medium head of cauliflower to get the 4-1/2 cups florets needed to prepare this delicious recipe.",
          "TipID": 1,
          "TipName": "Note"
        }
      ],
      "TotalTime": 37,
      "TradeMarkInfo": "TACO BELL® and Logo are trademarks owned and licensed by Taco Bell Corp.",
      "Video": [],
      "Yield": "8 servings"
    }
  ]
}