{
  "Metadata": {
    "PageCount": 1,
    "PageNo": 0,
    "TotalCount": 0
  },
  "Recipes": [
    {
      "AdServingKeywords": "Entree,Berries,Dairy,Fruit,Oats,Strawberry,Yogurt,Breakfast/Brunch,Crystal Light",
      "AlternateLanguageRecipes": [],
      "Assets": [],
      "AverageRating": 0,
      "BrandId": 1,
      "Branding": null,
      "CSSSkins": null,
      "CarbCounter": "2-1/2",
      "Categories": [
        {
          "CategoryID": 1,
          "CategoryName": "Breakfast/Brunch",
          "CategoryRank": 4,
          "SubCategoryID": 421,
          "SubCategoryName": "Other Entrees",
          "SubCategoryRank": 40
        },
        {
          "CategoryID": 11,
          "CategoryName": "Primary",
          "CategoryRank": 0,
          "SubCategoryID": 97,
          "SubCategoryName": "Entrees",
          "SubCategoryRank": 50
        },
        {
          "CategoryID": 750,
          "CategoryName": "Breakfast, Brunch & Lunch",
          "CategoryRank": 4,
          "SubCategoryID": 2529,
          "SubCategoryName": "Savoury",
          "SubCategoryRank": 1
        },
        {
          "CategoryID": 750,
          "CategoryName": "Breakfast, Brunch & Lunch",
          "CategoryRank": 4,
          "SubCategoryID": 2530,
          "SubCategoryName": "Egg Dishes / Quiches",
          "SubCategoryRank": 1
        }
      ],
      "Classifications": [
        {
          "ClassficationId": 9,
          "ClassificationName": "Low fat"
        },
        {
          "ClassficationId": 11,
          "ClassificationName": "Low calorie"
        },
        {
          "ClassficationId": 13,
          "ClassificationName": "Good source of vitamin A or C"
        },
        {
          "ClassficationId": 14,
          "ClassificationName": "Generally Nutritious"
        },
        {
          "ClassficationId": 22,
          "ClassificationName": "Low sodium"
        },
        {
          "ClassficationId": 119,
          "ClassificationName": "Diabetes Center"
        }
      ],
      "ComplimentaryRecipes": [
        {
          "AverageRating": 0,
          "HasVideo": false,
          "IsHealthyLiving": false,
          "NumberOfRatings": 0,
          "PhotoName": null,
          "PhotoUrl": null,
          "RecipeId": 182750,
          "RecipeName": null,
          "SEOName": "sausage-egg-pepper-burritos-182750",
          "ThumbnailPhoto": "182750.jpg"
        }
      ],
      "CookingMethod": null,
      "Copyright": null,
      "Courses": [
        "Breakfast/brunch"
      ],
      "DietExchange": "3 Starch,1/2 Fruit,1/2 Fat",
      "DishDetails": [
        {
          "Text": "breakfast and brunch",
          "Url": "/recipes/breakfast-and-brunch/main.aspx"
        },
        {
          "Text": "kid friendly breakfasts",
          "Url": "/recipes/kid-friendly/getgoingbreakfasts.aspx"
        },
        {
          "Text": "kraft kitchen favorites",
          "Url": "/recipes/breakfast-and-brunch/kke-favorites.aspx"
        },
        {
          "Text": "pancake recipes",
          "Url": "/recipes/breakfast-and-brunch/pancake-recipes/main.aspx"
        },
        {
          "Text": "all about eggs",
          "Url": "/recipes/breakfast-and-brunch/all-about-eggs.aspx"
        },
        {
          "Text": "banana bread recipes",
          "Url": "/recipes/breakfast-and-brunch/banana-bread/main.aspx"
        },
        {
          "Text": "healthy living breakfast recipes",
          "Url": "/healthy-living-ideas/diabetes-center/recipes/breakfast-recipes.aspx"
        },
        {
          "Text": "breakfast sandwiches",
          "Url": "/recipes/sandwich-recipes/breakfast-sandwiches.aspx"
        }
      ],
      "EndDate": "/Date(-62135575200000-0600)/",
      "HasVideo": false,
      "Ingredients": [
        {
          "FullMeasure": "1-1/2 cups",
          "FullWeight": "",
          "IngredientGridHeaders": null,
          "IngredientID": 20481,
          "IngredientName": "plain nonfat Greek-style yogurt",
          "IngredientStep": 10,
          "LanguageId": 0,
          "PostPreparation": "",
          "PrePreparation": "",
          "QuantityNum": 1,
          "QuantityText": "1-1/2",
          "QuantityUnit": "cups",
          "RecipeIngredientID": 6363445,
          "TrialMeasure": "",
          "TrialWeight": ""
        },
        {
          "FullMeasure": "1 pkt.",
          "FullWeight": "",
          "IngredientGridHeaders": null,
          "IngredientID": 18869,
          "IngredientName": "CRYSTAL LIGHT On The Go Energy Wild Strawberry Flavor Drink Mix",
          "IngredientStep": 20,
          "LanguageId": 0,
          "PostPreparation": "",
          "PrePreparation": " (0.11 oz.)",
          "QuantityNum": 1,
          "QuantityText": "1",
          "QuantityUnit": "pkt.",
          "RecipeIngredientID": 6363446,
          "TrialMeasure": "",
          "TrialWeight": ""
        },
        {
          "FullMeasure": "2/3 cup",
          "FullWeight": "",
          "IngredientGridHeaders": null,
          "IngredientID": 1367,
          "IngredientName": "old-fashioned or quick-cooking oats",
          "IngredientStep": 30,
          "LanguageId": 0,
          "PostPreparation": "",
          "PrePreparation": "",
          "QuantityNum": 0,
          "QuantityText": "2/3",
          "QuantityUnit": "cup",
          "RecipeIngredientID": 6363448,
          "TrialMeasure": "",
          "TrialWeight": ""
        },
        {
          "FullMeasure": "1/2 cup",
          "FullWeight": "",
          "IngredientGridHeaders": null,
          "IngredientID": 1659,
          "IngredientName": "strawberries",
          "IngredientStep": 40,
          "LanguageId": 0,
          "PostPreparation": "",
          "PrePreparation": "chopped fresh",
          "QuantityNum": 0,
          "QuantityText": "1/2",
          "QuantityUnit": "cup",
          "RecipeIngredientID": 6363449,
          "TrialMeasure": "",
          "TrialWeight": ""
        },
        {
          "FullMeasure": "1/2 cup",
          "FullWeight": "",
          "IngredientGridHeaders": null,
          "IngredientID": 1270,
          "IngredientName": "kiwi",
          "IngredientStep": 50,
          "LanguageId": 0,
          "PostPreparation": "",
          "PrePreparation": "chopped",
          "QuantityNum": 0,
          "QuantityText": "1/2",
          "QuantityUnit": "cup",
          "RecipeIngredientID": 6363447,
          "TrialMeasure": "",
          "TrialWeight": ""
        }
      ],
      "IsHealthyLiving": true,
      "KRLId": "569411",
      "KeyIngredients": [
        "Berries",
        "Fruit",
        "Oats",
        "Strawberry",
        "Yogurt"
      ],
      "Keywords": "oats,berries,CRYSTAL LIGHT Sugar Free Mixes,kiwis,strawberries,yogurt,drink mix-sugar free,Greek yogurt,Entree,Breakfast/Brunch",
      "LanguageId": 1,
      "LifeStyles": [
        "Low fat",
        "Low calorie",
        "Good source of vitamin A or C",
        "Generally Nutritious",
        "Low sodium",
        "Diabetes Center"
      ],
      "NumberOfIngredients": 5,
      "NumberOfRatings": 0,
      "NumberOfRatingsWithComments": "0",
      "NumberOfServings": "2 servings, 1-1/2 cups each",
      "NumberOfTrialServings": "",
      "NutritionBonus": "Wake up to a satisfying serving of this delicious low-calorie, low-fat oatmeal.  In addition to adding deliciously tart flavor to these creamy oats, the colorful kiwi also adds an excellent source of vitamin C.",
      "NutritionExchangeItemId": 1,
      "NutritionGridItems": null,
      "NutritionItems": [
        {
          "DisplayOrder": 1,
          "Document": null,
          "NutritionItemID": 3,
          "NutritionItemName": "Calories",
          "Predriscriptor": "",
          "Quantity": 250,
          "Unit": "          "
        },
        {
          "DisplayOrder": 2,
          "Document": "fat_cholesterol.html",
          "NutritionItemID": 4,
          "NutritionItemName": "Total fat",
          "Predriscriptor": "",
          "Quantity": 3,
          "Unit": "g         "
        },
        {
          "DisplayOrder": 3,
          "Document": "fat_cholesterol.html",
          "NutritionItemID": 9,
          "NutritionItemName": "Saturated fat",
          "Predriscriptor": "",
          "Quantity": 0.5,
          "Unit": "g         "
        },
        {
          "DisplayOrder": 7,
          "Document": "fat_cholesterol.html",
          "NutritionItemID": 2,
          "NutritionItemName": "Cholesterol",
          "Predriscriptor": "",
          "Quantity": 10,
          "Unit": "mg        "
        },
        {
          "DisplayOrder": 8,
          "Document": "sodium.html",
          "NutritionItemID": 8,
          "NutritionItemName": "Sodium",
          "Predriscriptor": "",
          "Quantity": 70,
          "Unit": "mg        "
        },
        {
          "DisplayOrder": 10,
          "Document": "carbs_sugars_fiber.html",
          "NutritionItemID": 1,
          "NutritionItemName": "Carbohydrate",
          "Predriscriptor": "",
          "Quantity": 35,
          "Unit": "g         "
        },
        {
          "DisplayOrder": 11,
          "Document": "carbs_sugars_fiber.html",
          "NutritionItemID": 7,
          "NutritionItemName": "Dietary fiber",
          "Predriscriptor": "",
          "Quantity": 5,
          "Unit": "g         "
        },
        {
          "DisplayOrder": 12,
          "Document": "carbs_sugars_fiber.html",
          "NutritionItemID": 5,
          "NutritionItemName": "Sugars",
          "Predriscriptor": "",
          "Quantity": 13,
          "Unit": "g         "
        },
        {
          "DisplayOrder": 13,
          "Document": null,
          "NutritionItemID": 6,
          "NutritionItemName": "Protein",
          "Predriscriptor": "",
          "Quantity": 23,
          "Unit": "g         "
        },
        {
          "DisplayOrder": 14,
          "Document": null,
          "NutritionItemID": 10,
          "NutritionItemName": "Vitamin A",
          "Predriscriptor": "",
          "Quantity": 0,
          "Unit": "%DV       "
        },
        {
          "DisplayOrder": 15,
          "Document": null,
          "NutritionItemID": 11,
          "NutritionItemName": "Vitamin C",
          "Predriscriptor": "",
          "Quantity": 110,
          "Unit": "%DV       "
        },
        {
          "DisplayOrder": 16,
          "Document": "dairy_and_calcium.html",
          "NutritionItemID": 12,
          "NutritionItemName": "Calcium",
          "Predriscriptor": "",
          "Quantity": 25,
          "Unit": "%DV       "
        },
        {
          "DisplayOrder": 17,
          "Document": null,
          "NutritionItemID": 13,
          "NutritionItemName": "Iron",
          "Predriscriptor": "",
          "Quantity": 8,
          "Unit": "%DV       "
        }
      ],
      "NutritionServingText": " ",
      "PrepStepImage": null,
      "PreparationDescription": "Mix yogurt and drink mix until blended; spoon over oats in 2 cereal bowls. $Refrigerate overnight.$Top with fruit just before serving. ",
      "PreparationPreText": "",
      "PreparationSteps": [
        {
          "Description": "Mix yogurt and drink mix until blended; spoon over oats in 2 cereal bowls. ",
          "PreparationStepImage": {
            "PictureFormats": [],
            "author": null,
            "id": null,
            "imageType": null,
            "mimeType": null,
            "publicationDate": null,
            "status": null,
            "title": null,
            "type": null
          },
          "Sequence": 1
        },
        {
          "Description": "Refrigerate overnight.",
          "PreparationStepImage": {
            "PictureFormats": [],
            "author": null,
            "id": null,
            "imageType": null,
            "mimeType": null,
            "publicationDate": null,
            "status": null,
            "title": null,
            "type": null
          },
          "Sequence": 2
        },
        {
          "Description": "Top with fruit just before serving. ",
          "PreparationStepImage": {
            "PictureFormats": [],
            "author": null,
            "id": null,
            "imageType": null,
            "mimeType": null,
            "publicationDate": null,
            "status": null,
            "title": null,
            "type": null
          },
          "Sequence": 3
        }
      ],
      "PreparationTime": 10,
      "Promotion": null,
      "Ratings": {
        "TotalCount": 0,
        "PageCount": 10,
        "PageNo": 1,
        "Rating": []
      },
      "RecipeDisplayFormatId": 5,
      "RecipeId": 204493,
      "RecipeName": "Overnight Oatmeal with Yogurt and Fruit",
      "RecipeType": 0,
      "RelatedData": {
        "RelatedBrands": null,
        "RelatedProducts": null,
        "RelatedRecipes": {
          "DefaultTopCount": 5,
          "Recipe": [
            {
              "AverageRating": 5,
              "HasVideo": false,
              "IsHealthyLiving": true,
              "NumberOfRatings": 1,
              "PhotoName": "opendeploy/137359-49de6d13b94423e935886f87cc4c01fdbf561156_306x204.jpg",
              "PhotoUrl": "http://assets.kraftfoods.com/recipe_images/opendeploy/opendeploy/137359-49de6d13b94423e935886f87cc4c01fdbf561156_306x204.jpg",
              "RecipeId": 137359,
              "RecipeName": "Apple-Oatmeal Smoothie",
              "SEOName": "apple-oatmeal-smoothie-137359",
              "ThumbnailPhoto": null
            },
            {
              "AverageRating": 4,
              "HasVideo": false,
              "IsHealthyLiving": true,
              "NumberOfRatings": 1,
              "PhotoName": "120040.jpg",
              "PhotoUrl": "http://assets.kraftfoods.com/recipe_images/opendeploy/120040.jpg",
              "RecipeId": 120040,
              "RecipeName": "Blueberry-Walnut Oatmeal Recipe",
              "SEOName": "blueberry-walnut-oatmeal-recipe-120040",
              "ThumbnailPhoto": null
            },
            {
              "AverageRating": 4,
              "HasVideo": false,
              "IsHealthyLiving": true,
              "NumberOfRatings": 1,
              "PhotoName": "Oatmeal-Banana-Shake-59866.jpg",
              "PhotoUrl": "http://assets.kraftfoods.com/recipe_images/opendeploy/Oatmeal-Banana-Shake-59866.jpg",
              "RecipeId": 126721,
              "RecipeName": "Oatmeal-Banana Shake Recipe",
              "SEOName": "oatmeal-banana-shake-recipe-126721",
              "ThumbnailPhoto": null
            },
            {
              "AverageRating": 4,
              "HasVideo": false,
              "IsHealthyLiving": false,
              "NumberOfRatings": 1,
              "PhotoName": "115148.jpg",
              "PhotoUrl": "http://assets.kraftfoods.com/recipe_images/opendeploy/115148.jpg",
              "RecipeId": 115148,
              "RecipeName": "Berry-Oatmeal Smoothie",
              "SEOName": "berry-oatmeal-smoothie-115148",
              "ThumbnailPhoto": null
            },
            {
              "AverageRating": 4,
              "HasVideo": false,
              "IsHealthyLiving": false,
              "NumberOfRatings": 12,
              "PhotoName": "55883-Chocolate-Bliss-Oatmeal-Raisin-Cookies-4323.jpg",
              "PhotoUrl": "http://assets.kraftfoods.com/recipe_images/opendeploy/55883-Chocolate-Bliss-Oatmeal-Raisin-Cookies-4323.jpg",
              "RecipeId": 55883,
              "RecipeName": "Chocolate Bliss Oatmeal Raisin Cookies",
              "SEOName": "chocolate-bliss-oatmeal-raisin-cookies-55883",
              "ThumbnailPhoto": null
            }
          ],
          "TotalCount": 862
        }
      },
      "RiseIngredients": [],
      "RiseTaxonomy": [],
      "Riserecipe": [
        {
          "GRIN": 569411,
          "RecipeId": 204493,
          "RecipeIndustrySector": "Retail",
          "RecipeType": "Internal"
        }
      ],
      "RomanceText": "Prepare for your morning the night before with Overnight Oatmeal with Yogurt and Fruit. This overnight oatmeal with yogurt includes strawberries and kiwis.",
      "SEOName": "overnight-oatmeal-yogurt-fruit-204493",
      "Tips": [
        {
          "RecipeId": 204493,
          "Sequence": 10,
          "TipDescription": "Try mixing the yogurt with a few squirts of MIO Berry Pomegranate Liquid Water Enhancer instead of the dry drink mix.  Or, prepare parfaits using your favorite flavor of CRYSTAL LIGHT and cut-up fresh fruit. These make-ahead parfaits are refrigerated overnight to allow the yogurt mixture to soften the oats.  No cooking required! And as a bonus, this recipe can easily be doubled or tripled if needed to serve more family members.",
          "TipID": 1,
          "TipName": "Variation  "
        },
        {
          "RecipeId": 204493,
          "Sequence": 20,
          "TipDescription": "Prepare recipe as directed, omitting the kiwi and increasing the strawberries to 1 cup.",
          "TipID": 5,
          "TipName": "Overnight Oatmeal with Yogurt & Strawberries"
        },
        {
          "RecipeId": 204493,
          "Sequence": 30,
          "TipDescription": "These parfaits are perfect to enjoy as part of an on-the-go breakfast.  Just prepare in airtight containers, refrigerate overnight and top with the fruit before you walk out the door. ",
          "TipID": 3,
          "TipName": "Take Along"
        },
        {
          "RecipeId": 204493,
          "Sequence": 40,
          "TipDescription": "Do not use instant oatmeal.",
          "TipID": 6,
          "TipName": "Note"
        }
      ],
      "TotalTime": 1450,
      "TradeMarkInfo": null,
      "Video": [],
      "Yield": "2 servings, 1-1/2 cups each"
    }
  ]
}