{
  "Metadata": {
    "PageCount": 1,
    "PageNo": 0,
    "TotalCount": 0
  },
  "Recipes": [
    {
      "AdServingKeywords": "Ketchup,Onion,Oranges,Vegetables,Worcestershire Sauce,Yellow Mustard,Easy,Top of Stove,Summer,All Seasons,BBQ,Heinz Ketchup,Heinz Yellow Mustard,Lea and Perrins,Cooking for a Crowd,Quick and Easy",
      "AlternateLanguageRecipes": [],
      "Assets": [
        {
          "PictureFormats": [
            {
              "rendition": "290x194",
              "url": "http://assets.kraftfoods.com/recipe_images/opendeploy/577806_1_1_retail-4e87f57cdd0a203cd305b55d6585002998f89bec_291x194.jpg"
            },
            {
              "rendition": "306x204",
              "url": "http://assets.kraftfoods.com/recipe_images/opendeploy/577806_1_1_retail-4e87f57cdd0a203cd305b55d6585002998f89bec_306x204.jpg"
            },
            {
              "rendition": "640x428",
              "url": "http://assets.kraftfoods.com/recipe_images/opendeploy/577806_1_1_retail-4e87f57cdd0a203cd305b55d6585002998f89bec_642x428.jpg"
            }
          ],
          "author": "Kraft",
          "id": "2",
          "imageType": "Primary",
          "mimeType": "image/jpeg",
          "publicationDate": null,
          "status": "1",
          "title": "577806_1_1_retail-4e87f57cdd0a203cd305b55d6585002998f89bec",
          "type": "image"
        }
      ],
      "AverageRating": 0,
      "BrandId": 1,
      "Branding": null,
      "CSSSkins": null,
      "CarbCounter": "1",
      "Categories": [
        {
          "CategoryID": 714,
          "CategoryName": "Sauces, Rubs & Marinades",
          "CategoryRank": 0,
          "SubCategoryID": 544,
          "SubCategoryName": "Savory Sauces - Cold",
          "SubCategoryRank": 0
        },
        {
          "CategoryID": 758,
          "CategoryName": "Marinades, Sauces, Spreads & Frostings",
          "CategoryRank": 12,
          "SubCategoryID": 2573,
          "SubCategoryName": "Savoury",
          "SubCategoryRank": 1
        },
        {
          "CategoryID": 758,
          "CategoryName": "Marinades, Sauces, Spreads & Frostings",
          "CategoryRank": 12,
          "SubCategoryID": 2575,
          "SubCategoryName": "Cold",
          "SubCategoryRank": 1
        }
      ],
      "Classifications": [
        {
          "ClassficationId": 9,
          "ClassificationName": "Low fat"
        },
        {
          "ClassficationId": 13,
          "ClassificationName": "Good source of vitamin A or C"
        },
        {
          "ClassficationId": 14,
          "ClassificationName": "Generally Nutritious"
        },
        {
          "ClassficationId": 119,
          "ClassificationName": "Diabetes Center"
        }
      ],
      "ComplimentaryRecipes": [
        {
          "AverageRating": 0,
          "HasVideo": false,
          "IsHealthyLiving": false,
          "NumberOfRatings": 0,
          "PhotoName": null,
          "PhotoUrl": null,
          "RecipeId": 185639,
          "RecipeName": null,
          "SEOName": "orange-sesame-chicken-drumsticks-185639",
          "ThumbnailPhoto": "185639.jpg"
        }
      ],
      "CookingMethod": null,
      "Copyright": null,
      "Courses": [],
      "DietExchange": "1/2 Starch,1/2 Fruit",
      "DishDetails": [],
      "EndDate": "/Date(-62135575200000-0600)/",
      "HasVideo": false,
      "Ingredients": [
        {
          "FullMeasure": "1 can",
          "FullWeight": "",
          "IngredientGridHeaders": null,
          "IngredientID": 4166,
          "IngredientName": "frozen orange juice concentrate",
          "IngredientStep": 10,
          "LanguageId": 0,
          "PostPreparation": ", thawed",
          "PrePreparation": "(6 oz.)",
          "QuantityNum": 1,
          "QuantityText": "1",
          "QuantityUnit": "can",
          "RecipeIngredientID": 6126604,
          "TrialMeasure": "",
          "TrialWeight": ""
        },
        {
          "FullMeasure": "1-1/3 cups",
          "FullWeight": "",
          "IngredientGridHeaders": null,
          "IngredientID": 887,
          "IngredientName": "HEINZ Tomato Ketchup",
          "IngredientStep": 20,
          "LanguageId": 0,
          "PostPreparation": "",
          "PrePreparation": "",
          "QuantityNum": 1,
          "QuantityText": "1-1/3",
          "QuantityUnit": "cups",
          "RecipeIngredientID": 6126605,
          "TrialMeasure": "",
          "TrialWeight": ""
        },
        {
          "FullMeasure": "1/4  cup",
          "FullWeight": "",
          "IngredientGridHeaders": null,
          "IngredientID": 1370,
          "IngredientName": "onion",
          "IngredientStep": 30,
          "LanguageId": 0,
          "PostPreparation": "s",
          "PrePreparation": "finely chopped",
          "QuantityNum": 0,
          "QuantityText": "1/4 ",
          "QuantityUnit": "cup",
          "RecipeIngredientID": 6126606,
          "TrialMeasure": "",
          "TrialWeight": ""
        },
        {
          "FullMeasure": "2 Tbsp.",
          "FullWeight": "",
          "IngredientGridHeaders": null,
          "IngredientID": 762,
          "IngredientName": "LEA & PERRINS Worcestershire Sauce",
          "IngredientStep": 40,
          "LanguageId": 0,
          "PostPreparation": "",
          "PrePreparation": "",
          "QuantityNum": 2,
          "QuantityText": "2",
          "QuantityUnit": "Tbsp.",
          "RecipeIngredientID": 6126603,
          "TrialMeasure": "",
          "TrialWeight": ""
        },
        {
          "FullMeasure": "2 tsp.",
          "FullWeight": "",
          "IngredientGridHeaders": null,
          "IngredientID": 1491,
          "IngredientName": "HEINZ Yellow Mustard",
          "IngredientStep": 50,
          "LanguageId": 0,
          "PostPreparation": "",
          "PrePreparation": "",
          "QuantityNum": 2,
          "QuantityText": "2",
          "QuantityUnit": "tsp.",
          "RecipeIngredientID": 6126607,
          "TrialMeasure": "",
          "TrialWeight": ""
        }
      ],
      "IsHealthyLiving": true,
      "KRLId": "577806",
      "KeyIngredients": [
        "Fruit",
        "Onion",
        "Oranges",
        "Tomato",
        "Vegetables"
      ],
      "Keywords": "mustard,onions,catsup,juice,worcestershire sauce,ketchup,orange juice concentrate,Top of Stove,Easy,Summer,All Seasons,BBQ,Cooking for a Crowd,Quick and Easy",
      "LanguageId": 1,
      "LifeStyles": [
        "Low fat",
        "Good source of vitamin A or C",
        "Generally Nutritious",
        "Diabetes Center"
      ],
      "NumberOfIngredients": 5,
      "NumberOfRatings": 0,
      "NumberOfRatingsWithComments": "0",
      "NumberOfServings": "14 servings, about 2 Tbsp. each",
      "NumberOfTrialServings": "",
      "NutritionBonus": "The sweet orange juice adds both flavor and an excellent source of vitamin C to this delicious, yet fat-free, barbecue sauce.",
      "NutritionExchangeItemId": 1,
      "NutritionGridItems": null,
      "NutritionItems": [
        {
          "DisplayOrder": 1,
          "Document": null,
          "NutritionItemID": 3,
          "NutritionItemName": "Calories",
          "Predriscriptor": "",
          "Quantity": 50,
          "Unit": "          "
        },
        {
          "DisplayOrder": 2,
          "Document": "fat_cholesterol.html",
          "NutritionItemID": 4,
          "NutritionItemName": "Total fat",
          "Predriscriptor": "",
          "Quantity": 0,
          "Unit": "g         "
        },
        {
          "DisplayOrder": 3,
          "Document": "fat_cholesterol.html",
          "NutritionItemID": 9,
          "NutritionItemName": "Saturated fat",
          "Predriscriptor": "",
          "Quantity": 0,
          "Unit": "g         "
        },
        {
          "DisplayOrder": 7,
          "Document": "fat_cholesterol.html",
          "NutritionItemID": 2,
          "NutritionItemName": "Cholesterol",
          "Predriscriptor": "",
          "Quantity": 0,
          "Unit": "mg        "
        },
        {
          "DisplayOrder": 8,
          "Document": "sodium.html",
          "NutritionItemID": 8,
          "NutritionItemName": "Sodium",
          "Predriscriptor": "",
          "Quantity": 280,
          "Unit": "mg        "
        },
        {
          "DisplayOrder": 10,
          "Document": "carbs_sugars_fiber.html",
          "NutritionItemID": 1,
          "NutritionItemName": "Carbohydrate",
          "Predriscriptor": "",
          "Quantity": 13,
          "Unit": "g         "
        },
        {
          "DisplayOrder": 11,
          "Document": "carbs_sugars_fiber.html",
          "NutritionItemID": 7,
          "NutritionItemName": "Dietary fiber",
          "Predriscriptor": "",
          "Quantity": 0,
          "Unit": "g         "
        },
        {
          "DisplayOrder": 12,
          "Document": "carbs_sugars_fiber.html",
          "NutritionItemID": 5,
          "NutritionItemName": "Sugars",
          "Predriscriptor": "",
          "Quantity": 5,
          "Unit": "g         "
        },
        {
          "DisplayOrder": 13,
          "Document": null,
          "NutritionItemID": 6,
          "NutritionItemName": "Protein",
          "Predriscriptor": "",
          "Quantity": 0,
          "Unit": "g         "
        },
        {
          "DisplayOrder": 14,
          "Document": null,
          "NutritionItemID": 10,
          "NutritionItemName": "Vitamin A",
          "Predriscriptor": "",
          "Quantity": 0,
          "Unit": "%DV       "
        },
        {
          "DisplayOrder": 15,
          "Document": null,
          "NutritionItemID": 11,
          "NutritionItemName": "Vitamin C",
          "Predriscriptor": "",
          "Quantity": 15,
          "Unit": "%DV       "
        },
        {
          "DisplayOrder": 16,
          "Document": "dairy_and_calcium.html",
          "NutritionItemID": 12,
          "NutritionItemName": "Calcium",
          "Predriscriptor": "",
          "Quantity": 0,
          "Unit": "%DV       "
        },
        {
          "DisplayOrder": 17,
          "Document": null,
          "NutritionItemID": 13,
          "NutritionItemName": "Iron",
          "Predriscriptor": "",
          "Quantity": 0,
          "Unit": "%DV       "
        }
      ],
      "NutritionServingText": " ",
      "PrepStepImage": null,
      "PreparationDescription": "Bring ingredients to boil in saucepan on medium heat, stirring frequently.  $Simmer on medium-low heat 5 min., stirring occasionally.  Cool completely.",
      "PreparationPreText": "",
      "PreparationSteps": [
        {
          "Description": "Bring ingredients to boil in saucepan on medium heat, stirring frequently.  ",
          "PreparationStepImage": {
            "PictureFormats": [],
            "author": null,
            "id": null,
            "imageType": null,
            "mimeType": null,
            "publicationDate": null,
            "status": null,
            "title": null,
            "type": null
          },
          "Sequence": 1
        },
        {
          "Description": "Simmer on medium-low heat 5 min., stirring occasionally.  Cool completely.",
          "PreparationStepImage": {
            "PictureFormats": [],
            "author": null,
            "id": null,
            "imageType": null,
            "mimeType": null,
            "publicationDate": null,
            "status": null,
            "title": null,
            "type": null
          },
          "Sequence": 2
        }
      ],
      "PreparationTime": 10,
      "Promotion": null,
      "Ratings": {
        "TotalCount": 0,
        "PageCount": 10,
        "PageNo": 1,
        "Rating": []
      },
      "RecipeDisplayFormatId": 5,
      "RecipeId": 193595,
      "RecipeName": "Citrus-Barbecue Sauce",
      "RecipeType": 0,
      "RelatedData": {
        "RelatedBrands": null,
        "RelatedProducts": null,
        "RelatedRecipes": {
          "DefaultTopCount": 5,
          "Recipe": [
            {
              "AverageRating": 4.5,
              "HasVideo": false,
              "IsHealthyLiving": true,
              "NumberOfRatings": 33,
              "PhotoName": "Smoky_Citrus_Pork_Tenderloin.jpg",
              "PhotoUrl": "http://assets.kraftfoods.com/recipe_images/opendeploy/Smoky_Citrus_Pork_Tenderloin.jpg",
              "RecipeId": 94338,
              "RecipeName": "Smoky Citrus Pork Tenderloin",
              "SEOName": "smoky-citrus-pork-tenderloin-94338",
              "ThumbnailPhoto": null
            },
            {
              "AverageRating": 4.1,
              "HasVideo": false,
              "IsHealthyLiving": false,
              "NumberOfRatings": 15,
              "PhotoName": "opendeploy/502730_1_1_retail-ce9289bdb74bbf7036496f5445114ea4c3d9925f_306x204.jpg",
              "PhotoUrl": "http://assets.kraftfoods.com/recipe_images/opendeploy/opendeploy/502730_1_1_retail-ce9289bdb74bbf7036496f5445114ea4c3d9925f_306x204.jpg",
              "RecipeId": 57185,
              "RecipeName": "Citrus Barbecued Pork Chops",
              "SEOName": "citrus-barbecued-pork-chops-57185",
              "ThumbnailPhoto": null
            },
            {
              "AverageRating": 4.1,
              "HasVideo": false,
              "IsHealthyLiving": false,
              "NumberOfRatings": 22,
              "PhotoName": "Spicy_Citrus_Chicken_Wings.jpg",
              "PhotoUrl": "http://assets.kraftfoods.com/recipe_images/opendeploy/Spicy_Citrus_Chicken_Wings.jpg",
              "RecipeId": 53678,
              "RecipeName": "Spicy Citrus Chicken Wings",
              "SEOName": "spicy-citrus-chicken-wings-53678",
              "ThumbnailPhoto": null
            },
            {
              "AverageRating": 4,
              "HasVideo": false,
              "IsHealthyLiving": false,
              "NumberOfRatings": 2,
              "PhotoName": "Creamy-Citrus-Chive-Asparagus-54680.jpg",
              "PhotoUrl": "http://assets.kraftfoods.com/recipe_images/opendeploy/Creamy-Citrus-Chive-Asparagus-54680.jpg",
              "RecipeId": 114730,
              "RecipeName": "Creamy Citrus-Chive Asparagus",
              "SEOName": "creamy-citrus-chive-asparagus-114730",
              "ThumbnailPhoto": null
            },
            {
              "AverageRating": 4.3,
              "HasVideo": false,
              "IsHealthyLiving": false,
              "NumberOfRatings": 62,
              "PhotoName": "Citrus_White_Chocolate_Macaroons.jpg",
              "PhotoUrl": "http://assets.kraftfoods.com/recipe_images/opendeploy/Citrus_White_Chocolate_Macaroons.jpg",
              "RecipeId": 57600,
              "RecipeName": "Citrus-White Chocolate Macaroons",
              "SEOName": "citrus-white-chocolate-macaroons-57600",
              "ThumbnailPhoto": null
            }
          ],
          "TotalCount": 1685
        }
      },
      "RiseIngredients": [],
      "RiseTaxonomy": [],
      "Riserecipe": [
        {
          "GRIN": 577806,
          "RecipeId": 193595,
          "RecipeIndustrySector": "Retail",
          "RecipeType": "Internal"
        }
      ],
      "RomanceText": "The orange juice concentrate serves as the perfect base for this easy-to-make barbecue sauce.",
      "SEOName": "citrus-barbecue-sauce-193595",
      "Tips": [
        {
          "RecipeId": 193595,
          "Sequence": 10,
          "TipDescription": "This easy-to-make sauce is the perfect complement to your favorite grilled meat, such as chicken, fish, ribs, steaks and chops.  To prevent the sauce from burning, brush it onto sides of meat for the last few minutes of the grilling time. ",
          "TipID": 1,
          "TipName": "Serving Suggestion"
        },
        {
          "RecipeId": 193595,
          "Sequence": 20,
          "TipDescription": "Prepare using LEA & PERRINS Reduced Sodium Worcestershire Sauce. ",
          "TipID": 2,
          "TipName": "Substitute"
        },
        {
          "RecipeId": 193595,
          "Sequence": 30,
          "TipDescription": "Store cooled sauce in refrigerator up to 1 week before using as desired.",
          "TipID": 3,
          "TipName": "How to Store"
        }
      ],
      "TotalTime": 10,
      "TradeMarkInfo": null,
      "Video": [],
      "Yield": "14 servings, about 2 Tbsp. each"
    }
  ]
}