{
  "Metadata": {
    "PageCount": 1,
    "PageNo": 0,
    "TotalCount": 0
  },
  "Recipes": [
    {
      "AdServingKeywords": "Side Dish,Easy,Cucumber,Onion,Tomato,Vegetables,Kraft Salad Dressing,Quick and Easy,All Seasons,Summer",
      "AlternateLanguageRecipes": [],
      "Assets": [
        {
          "PictureFormats": [
            {
              "rendition": "640x428",
              "url": "http://assets.kraftfoods.com/recipe_images/opendeploy/75224_640x428.jpg"
            },
            {
              "rendition": "290x194",
              "url": "http://assets.kraftfoods.com/recipe_images/opendeploy/75224_290x194.jpg"
            },
            {
              "rendition": "600x250",
              "url": "http://assets.kraftfoods.com/recipe_images/opendeploy/75224_600x250.jpg"
            },
            {
              "rendition": "640x428",
              "url": "http://assets.kraftfoods.com/recipe_images/opendeploy/75224_640x428.jpg"
            }
          ],
          "author": null,
          "id": "3",
          "imageType": "Primary",
          "mimeType": "image/jpeg",
          "publicationDate": null,
          "status": "1",
          "title": "75224",
          "type": "image"
        },
        {
          "PictureFormats": [
            {
              "rendition": "300x200",
              "url": "http://assets.kraftfoods.com/recipe_images/75224.jpg"
            },
            {
              "rendition": "300x200",
              "url": "http://assets.kraftfoods.com/recipe_images/Tomato-Cucumber-Salad-46414.jpg"
            }
          ],
          "author": null,
          "id": "1",
          "imageType": "LANDSCAPE",
          "mimeType": "image/jpeg",
          "publicationDate": null,
          "status": "1",
          "title": "Tomato-Cucumber-Salad-46414.jpg",
          "type": "image"
        }
      ],
      "AverageRating": 4.3,
      "BrandId": 1,
      "Branding": null,
      "CSSSkins": [],
      "CarbCounter": "1",
      "Categories": [
        {
          "CategoryID": 9,
          "CategoryName": "Salads/Side Dishes",
          "CategoryRank": 13,
          "SubCategoryID": 436,
          "SubCategoryName": "Vegetable Salads",
          "SubCategoryRank": 190
        },
        {
          "CategoryID": 11,
          "CategoryName": "Primary",
          "CategoryRank": 0,
          "SubCategoryID": 98,
          "SubCategoryName": "Salads",
          "SubCategoryRank": 70
        },
        {
          "CategoryID": 752,
          "CategoryName": "Salads",
          "CategoryRank": 6,
          "SubCategoryID": 2535,
          "SubCategoryName": "Side",
          "SubCategoryRank": 1
        },
        {
          "CategoryID": 752,
          "CategoryName": "Salads",
          "CategoryRank": 6,
          "SubCategoryID": 2536,
          "SubCategoryName": "Vegetarian",
          "SubCategoryRank": 1
        }
      ],
      "Classifications": [
        {
          "ClassficationId": 9,
          "ClassificationName": "Low fat"
        },
        {
          "ClassficationId": 11,
          "ClassificationName": "Low calorie"
        },
        {
          "ClassficationId": 13,
          "ClassificationName": "Good source of vitamin A or C"
        },
        {
          "ClassficationId": 14,
          "ClassificationName": "Generally Nutritious"
        },
        {
          "ClassficationId": 119,
          "ClassificationName": "Diabetes Center"
        }
      ],
      "ComplimentaryRecipes": null,
      "CookingMethod": null,
      "Copyright": null,
      "Courses": [
        "Salads & sides"
      ],
      "DietExchange": "2 Vegetable,1/2 Fat",
      "DishDetails": [],
      "EndDate": "/Date(-62135575200000-0600)/",
      "HasVideo": false,
      "Ingredients": [
        {
          "FullMeasure": "4 small",
          "FullWeight": "",
          "IngredientGridHeaders": null,
          "IngredientID": 1702,
          "IngredientName": "tomato",
          "IngredientStep": 10,
          "LanguageId": 0,
          "PostPreparation": "es, thinly sliced",
          "PrePreparation": "",
          "QuantityNum": 4,
          "QuantityText": "4",
          "QuantityUnit": "small",
          "RecipeIngredientID": 5843209,
          "TrialMeasure": "",
          "TrialWeight": ""
        },
        {
          "FullMeasure": "2 small",
          "FullWeight": "",
          "IngredientGridHeaders": null,
          "IngredientID": 1021,
          "IngredientName": "cucumber",
          "IngredientStep": 20,
          "LanguageId": 0,
          "PostPreparation": "s, thinly sliced",
          "PrePreparation": "",
          "QuantityNum": 2,
          "QuantityText": "2",
          "QuantityUnit": "small",
          "RecipeIngredientID": 5843207,
          "TrialMeasure": "",
          "TrialWeight": ""
        },
        {
          "FullMeasure": "1 small",
          "FullWeight": "",
          "IngredientGridHeaders": null,
          "IngredientID": 1529,
          "IngredientName": "red onion",
          "IngredientStep": 30,
          "LanguageId": 0,
          "PostPreparation": ", thinly sliced",
          "PrePreparation": "",
          "QuantityNum": 1,
          "QuantityText": "1",
          "QuantityUnit": "small",
          "RecipeIngredientID": 5843208,
          "TrialMeasure": "",
          "TrialWeight": ""
        },
        {
          "FullMeasure": "1/2 cup",
          "FullWeight": "",
          "IngredientGridHeaders": null,
          "IngredientID": 9018,
          "IngredientName": "KRAFT Lite Zesty Italian Dressing",
          "IngredientStep": 40,
          "LanguageId": 0,
          "PostPreparation": "",
          "PrePreparation": "",
          "QuantityNum": 0,
          "QuantityText": "1/2",
          "QuantityUnit": "cup",
          "RecipeIngredientID": 5843206,
          "TrialMeasure": "",
          "TrialWeight": ""
        }
      ],
      "IsHealthyLiving": true,
      "KRLId": "550622",
      "KeyIngredients": [
        "Cucumber",
        "Fruit",
        "Onion",
        "Tomato",
        "Vegetables"
      ],
      "Keywords": "onions,cucumbers,dressing,KRAFT Dressing,KRAFT LIGHT Dressing,salad dressing,tomatoes,dressing-reduced fat,Side Dish,Easy,Quick and Easy,All Seasons",
      "LanguageId": 1,
      "LifeStyles": [
        "Low fat",
        "Low calorie",
        "Good source of vitamin A or C",
        "Generally Nutritious",
        "Diabetes Center"
      ],
      "NumberOfIngredients": 4,
      "NumberOfRatings": 66,
      "NumberOfRatingsWithComments": "48",
      "NumberOfServings": "4 servings",
      "NumberOfTrialServings": "",
      "NutritionBonus": "This versatile low-fat side salad pairs perfectly with almost any entree.  As a bonus, the juicy red tomatoes provide a good source of vitamin C.",
      "NutritionExchangeItemId": 3,
      "NutritionGridItems": null,
      "NutritionItems": [
        {
          "DisplayOrder": 1,
          "Document": null,
          "NutritionItemID": 3,
          "NutritionItemName": "Calories",
          "Predriscriptor": "",
          "Quantity": 60,
          "Unit": "          "
        },
        {
          "DisplayOrder": 2,
          "Document": "fat_cholesterol.html",
          "NutritionItemID": 4,
          "NutritionItemName": "Total fat",
          "Predriscriptor": "",
          "Quantity": 1.5,
          "Unit": "g         "
        },
        {
          "DisplayOrder": 3,
          "Document": "fat_cholesterol.html",
          "NutritionItemID": 9,
          "NutritionItemName": "Saturated fat",
          "Predriscriptor": "",
          "Quantity": 0,
          "Unit": "g         "
        },
        {
          "DisplayOrder": 7,
          "Document": "fat_cholesterol.html",
          "NutritionItemID": 2,
          "NutritionItemName": "Cholesterol",
          "Predriscriptor": "",
          "Quantity": 0,
          "Unit": "mg        "
        },
        {
          "DisplayOrder": 8,
          "Document": "sodium.html",
          "NutritionItemID": 8,
          "NutritionItemName": "Sodium",
          "Predriscriptor": "",
          "Quantity": 370,
          "Unit": "mg        "
        },
        {
          "DisplayOrder": 10,
          "Document": "carbs_sugars_fiber.html",
          "NutritionItemID": 1,
          "NutritionItemName": "Carbohydrate",
          "Predriscriptor": "",
          "Quantity": 11,
          "Unit": "g         "
        },
        {
          "DisplayOrder": 11,
          "Document": "carbs_sugars_fiber.html",
          "NutritionItemID": 7,
          "NutritionItemName": "Dietary fiber",
          "Predriscriptor": "",
          "Quantity": 2,
          "Unit": "g         "
        },
        {
          "DisplayOrder": 12,
          "Document": "carbs_sugars_fiber.html",
          "NutritionItemID": 5,
          "NutritionItemName": "Sugars",
          "Predriscriptor": "",
          "Quantity": 8,
          "Unit": "g         "
        },
        {
          "DisplayOrder": 13,
          "Document": null,
          "NutritionItemID": 6,
          "NutritionItemName": "Protein",
          "Predriscriptor": "",
          "Quantity": 2,
          "Unit": "g         "
        },
        {
          "DisplayOrder": 14,
          "Document": null,
          "NutritionItemID": 10,
          "NutritionItemName": "Vitamin A",
          "Predriscriptor": "",
          "Quantity": 20,
          "Unit": "%DV       "
        },
        {
          "DisplayOrder": 15,
          "Document": null,
          "NutritionItemID": 11,
          "NutritionItemName": "Vitamin C",
          "Predriscriptor": "",
          "Quantity": 30,
          "Unit": "%DV       "
        },
        {
          "DisplayOrder": 16,
          "Document": "dairy_and_calcium.html",
          "NutritionItemID": 12,
          "NutritionItemName": "Calcium",
          "Predriscriptor": "",
          "Quantity": 2,
          "Unit": "%DV       "
        },
        {
          "DisplayOrder": 17,
          "Document": null,
          "NutritionItemID": 13,
          "NutritionItemName": "Iron",
          "Predriscriptor": "",
          "Quantity": 4,
          "Unit": "%DV       "
        }
      ],
      "NutritionServingText": " ",
      "PrepStepImage": null,
      "PreparationDescription": "Arrange vegetables on plate.$Drizzle with dressing.",
      "PreparationPreText": "",
      "PreparationSteps": [
        {
          "Description": "Arrange vegetables on plate.",
          "PreparationStepImage": {
            "PictureFormats": [],
            "author": null,
            "id": null,
            "imageType": null,
            "mimeType": null,
            "publicationDate": null,
            "status": null,
            "title": null,
            "type": null
          },
          "Sequence": 1
        },
        {
          "Description": "Drizzle with dressing.",
          "PreparationStepImage": {
            "PictureFormats": [],
            "author": null,
            "id": null,
            "imageType": null,
            "mimeType": null,
            "publicationDate": null,
            "status": null,
            "title": null,
            "type": null
          },
          "Sequence": 2
        }
      ],
      "PreparationTime": 10,
      "Promotion": null,
      "Ratings": {
        "TotalCount": 66,
        "PageCount": 10,
        "PageNo": 1,
        "Rating": [
          {
            "Comment": "YUM.that looks so good, going on picnic this weekend , perfect to bring.",
            "DisplayName": true,
            "RatingValue": 4,
            "SubmitDate": "/Date(1436492528000-0500)/",
            "UpdatedDate": "/Date(1436492528000-0500)/",
            "UserName": "Joanmarietrusso79"
          },
          {
            "Comment": "i tried it at my daughters and loved it ",
            "DisplayName": true,
            "RatingValue": 5,
            "SubmitDate": "/Date(1435632917000-0500)/",
            "UpdatedDate": "/Date(1435632917000-0500)/",
            "UserName": "snowwhite26"
          },
          {
            "Comment": "This is a wonderful recipe, and it reminds me of Greece and it's great Greek Salads.  The only difference was black olives and feta cheese strewn atop the salad. I do use a straight olive oil and white balsamic vinaigrette homemade dressing, however.  And yes, try to use smaller tomatoes such as plum-Roma tomatoes.  They are darker and more flavorful, adding to the natural appeal of this salad. ",
            "DisplayName": true,
            "RatingValue": 5,
            "SubmitDate": "/Date(1410135875000-0500)/",
            "UpdatedDate": "/Date(1410135875000-0500)/",
            "UserName": "BeachMom65"
          },
          {
            "Comment": "This is the traditional Greek salad (just add feta), not what you see in diners. What you've seen in diners is the \"Americanized\" version.\r\nThe next time you go into a Greek restaurant ask or look for the \"Horiatiki\" salad. ",
            "DisplayName": false,
            "RatingValue": 5,
            "SubmitDate": "/Date(1407859179000-0500)/",
            "UpdatedDate": "/Date(1407859179000-0500)/",
            "UserName": "nygriego74"
          },
          {
            "Comment": "Quick, easy and good.  My kind of recipe.",
            "DisplayName": true,
            "RatingValue": 5,
            "SubmitDate": "/Date(1377994596000-0500)/",
            "UpdatedDate": "/Date(1377994596000-0500)/",
            "UserName": "socialchair"
          },
          {
            "Comment": "A simple refreshing salad, I made this with the tomatoes from my garden. Next time I would add feta cheese like some of the other cooks suggested and maybe serve it over a bed of lettuce.",
            "DisplayName": true,
            "RatingValue": 4,
            "SubmitDate": "/Date(1374607125000-0500)/",
            "UpdatedDate": "/Date(1374607125000-0500)/",
            "UserName": "Rosiecheex"
          },
          {
            "Comment": "I have always made this but with red wine vinegar dressing. Delicious !",
            "DisplayName": false,
            "RatingValue": 5,
            "SubmitDate": "/Date(1372267442000-0500)/",
            "UpdatedDate": "/Date(1372267442000-0500)/",
            "UserName": "Wawaseegirl"
          },
          {
            "Comment": "",
            "DisplayName": false,
            "RatingValue": 5,
            "SubmitDate": "/Date(1337365118000-0500)/",
            "UpdatedDate": "/Date(1337365118000-0500)/",
            "UserName": "megbachand"
          },
          {
            "Comment": "We make this all the time in the summer.  It is a great way to use up all the cucumbers and tomatoes in the garden.  And my kids love it!!",
            "DisplayName": false,
            "RatingValue": 5,
            "SubmitDate": "/Date(1312480800000-0500)/",
            "UpdatedDate": "/Date(1312480800000-0500)/",
            "UserName": "napamom"
          },
          {
            "Comment": "Super quick and easy to make. I layer mine tomato, cucumber, onion, then drizzled with dressing AND I added 4oz container of feta and chopped bacon to jazz it up a little bit.",
            "DisplayName": true,
            "RatingValue": 4,
            "SubmitDate": "/Date(1308427346000-0500)/",
            "UpdatedDate": "/Date(1308427346000-0500)/",
            "UserName": "lizzjunior"
          }
        ]
      },
      "RecipeDisplayFormatId": 5,
      "RecipeId": 75224,
      "RecipeName": "Cucumber-Tomato Salad",
      "RecipeType": 0,
      "RelatedData": {
        "RelatedBrands": null,
        "RelatedProducts": null,
        "RelatedRecipes": {
          "DefaultTopCount": 5,
          "Recipe": [
            {
              "AverageRating": 4.6,
              "HasVideo": false,
              "IsHealthyLiving": true,
              "NumberOfRatings": 105,
              "PhotoName": "92091.jpg",
              "PhotoUrl": "http://assets.kraftfoods.com/recipe_images/opendeploy/92091.jpg",
              "RecipeId": 92091,
              "RecipeName": "Easy Greek Cucumber-Tomato Salad",
              "SEOName": "easy-greek-cucumber-tomato-salad-92091",
              "ThumbnailPhoto": null
            },
            {
              "AverageRating": 4.3,
              "HasVideo": false,
              "IsHealthyLiving": false,
              "NumberOfRatings": 9,
              "PhotoName": "Tomato_And_Feta_Village_Salad.jpg",
              "PhotoUrl": "http://assets.kraftfoods.com/recipe_images/opendeploy/Tomato_And_Feta_Village_Salad.jpg",
              "RecipeId": 54160,
              "RecipeName": "Tomato and Cucumber Salad Recipe",
              "SEOName": "tomato-cucumber-salad-recipe-54160",
              "ThumbnailPhoto": null
            },
            {
              "AverageRating": 4.5,
              "HasVideo": false,
              "IsHealthyLiving": true,
              "NumberOfRatings": 18,
              "PhotoName": "Creamy_Cucumber_Salad.jpg",
              "PhotoUrl": "http://assets.kraftfoods.com/recipe_images/opendeploy/Creamy_Cucumber_Salad.jpg",
              "RecipeId": 53822,
              "RecipeName": "Creamy Cucumber Salad",
              "SEOName": "creamy-cucumber-salad-53822",
              "ThumbnailPhoto": null
            },
            {
              "AverageRating": 4.5,
              "HasVideo": false,
              "IsHealthyLiving": true,
              "NumberOfRatings": 2,
              "PhotoName": "Italian_Tomato_Bread_Salad.jpg",
              "PhotoUrl": "http://assets.kraftfoods.com/recipe_images/opendeploy/Italian_Tomato_Bread_Salad.jpg",
              "RecipeId": 52692,
              "RecipeName": "Italian Tomato Bread Salad",
              "SEOName": "italian-tomato-bread-salad-52692",
              "ThumbnailPhoto": null
            },
            {
              "AverageRating": 4.4,
              "HasVideo": false,
              "IsHealthyLiving": true,
              "NumberOfRatings": 85,
              "PhotoName": "75168.jpg",
              "PhotoUrl": "http://assets.kraftfoods.com/recipe_images/opendeploy/75168.jpg",
              "RecipeId": 75168,
              "RecipeName": "Crisp and Easy Cucumber Salad",
              "SEOName": "crisp-easy-cucumber-salad-75168",
              "ThumbnailPhoto": null
            }
          ],
          "TotalCount": 2806
        }
      },
      "RiseIngredients": [],
      "RiseTaxonomy": [],
      "Riserecipe": [
        {
          "GRIN": 550622,
          "RecipeId": 75224,
          "RecipeIndustrySector": "Retail",
          "RecipeType": "Internal"
        }
      ],
      "RomanceText": "Cucumbers, tomatoes and red onions: Summer’s brightest trio is smartly dressed and ready to go in this potluck-perfect Cucumber-Tomato salad.",
      "SEOName": "cucumber-tomato-salad-75224",
      "Tips": [
        {
          "RecipeId": 75224,
          "Sequence": 10,
          "TipDescription": "Run fork down sides of unpeeled cucumbers before slicing.  ",
          "TipID": 1,
          "TipName": "How to Make Zebra Cucumber Slices"
        },
        {
          "RecipeId": 75224,
          "Sequence": 20,
          "TipDescription": "Prepare using 1/2 small cucumber, 1 small tomato, 1/4 of small red onion and 2 Tbsp. dressing. ",
          "TipID": 3,
          "TipName": "For 1 Serving"
        }
      ],
      "TotalTime": 10,
      "TradeMarkInfo": null,
      "Video": [],
      "Yield": "4 servings"
    }
  ]
}