{
  "Metadata": {
    "PageCount": 1,
    "PageNo": 0,
    "TotalCount": 0
  },
  "Recipes": [
    {
      "AdServingKeywords": "Entree,Broccoli,Carrot,Garlic,Meat,Onion,Pork,Rice,Vegetables,Stir-fry,Easy,Nutrition and Well-Being,Asian,Skillet Dish,Dinner,All Seasons,Kraft Salad Dressing",
      "AlternateLanguageRecipes": [],
      "Assets": [
        {
          "PictureFormats": [
            {
              "rendition": "290x194",
              "url": "http://assets.kraftfoods.com/recipe_images/opendeploy/108276_290x194.jpg"
            },
            {
              "rendition": "640x428",
              "url": "http://assets.kraftfoods.com/recipe_images/opendeploy/108276_640x428.jpg"
            },
            {
              "rendition": "600x250",
              "url": "http://assets.kraftfoods.com/recipe_images/opendeploy/108276_600x250.jpg"
            }
          ],
          "author": "BulKUpload",
          "id": "2",
          "imageType": "Primary",
          "mimeType": "image/jpeg",
          "publicationDate": null,
          "status": "1",
          "title": "108276",
          "type": "image"
        },
        {
          "PictureFormats": [
            {
              "rendition": "140x90",
              "url": "http://assets.kraftfoods.com/recipe_images/opendeploy/108276_MXM_K41326V7_OR1_OH_140x90.jpg"
            },
            {
              "rendition": "300x250",
              "url": "http://assets.kraftfoods.com/recipe_images/opendeploy/108276_MXM_K41326V7_OR1_OH_300x250.jpg"
            },
            {
              "rendition": "960x300",
              "url": "http://assets.kraftfoods.com/recipe_images/opendeploy/108276_MXM_K41326V7_OR1_OH_960x300.jpg"
            }
          ],
          "author": null,
          "id": "2",
          "imageType": "Primary",
          "mimeType": "image/jpeg",
          "publicationDate": null,
          "status": "1",
          "title": "108276_MXM_K41326V7_OR1_OH",
          "type": "image"
        },
        {
          "PictureFormats": [
            {
              "rendition": "300x200",
              "url": "http://assets.kraftfoods.com/recipe_images/108276.jpg"
            }
          ],
          "author": "BulKUpload",
          "id": "0",
          "imageType": "LANDSCAPE",
          "mimeType": "image/jpeg",
          "publicationDate": null,
          "status": "1",
          "title": "108276.jpg",
          "type": "image"
        }
      ],
      "AverageRating": 4,
      "BrandId": 1,
      "Branding": null,
      "CSSSkins": null,
      "CarbCounter": null,
      "Categories": [
        {
          "CategoryID": 2,
          "CategoryName": "Poultry Entrees",
          "CategoryRank": 11,
          "SubCategoryID": 377,
          "SubCategoryName": "Top of Stove",
          "SubCategoryRank": 100
        },
        {
          "CategoryID": 11,
          "CategoryName": "Primary",
          "CategoryRank": 0,
          "SubCategoryID": 97,
          "SubCategoryName": "Entrees",
          "SubCategoryRank": 50
        },
        {
          "CategoryID": 755,
          "CategoryName": "International Flavours",
          "CategoryRank": 9,
          "SubCategoryID": 2558,
          "SubCategoryName": "Mediterranean",
          "SubCategoryRank": 1
        },
        {
          "CategoryID": 756,
          "CategoryName": "Main Meals (Meat / Seafood / Egg)",
          "CategoryRank": 10,
          "SubCategoryID": 2562,
          "SubCategoryName": "Chicken",
          "SubCategoryRank": 1
        }
      ],
      "Classifications": [
        {
          "ClassficationId": 13,
          "ClassificationName": "Good source of vitamin A or C"
        },
        {
          "ClassficationId": 14,
          "ClassificationName": "Generally Nutritious"
        },
        {
          "ClassficationId": 22,
          "ClassificationName": "Low sodium"
        },
        {
          "ClassficationId": 119,
          "ClassificationName": "Diabetes Center"
        }
      ],
      "ComplimentaryRecipes": null,
      "CookingMethod": null,
      "Copyright": null,
      "Courses": [
        "Main dishes"
      ],
      "DietExchange": "",
      "DishDetails": [
        {
          "Text": "pork recipes",
          "Url": "/recipes/dinner/top-10/pork-recipes/main.aspx"
        },
        {
          "Text": "1 bag 5 dinners",
          "Url": "/recipes/dinner/1Bag5Dinners/1bag5dinnerschickenpork.aspx"
        }
      ],
      "EndDate": "/Date(-62135575200000-0600)/",
      "HasVideo": false,
      "Ingredients": [
        {
          "FullMeasure": null,
          "FullWeight": null,
          "IngredientGridHeaders": null,
          "IngredientID": 67921,
          "IngredientName": "oil",
          "IngredientStep": 10,
          "LanguageId": 0,
          "PostPreparation": "",
          "PrePreparation": "",
          "QuantityNum": 1,
          "QuantityText": "1",
          "QuantityUnit": "Tbsp.",
          "RecipeIngredientID": 271436,
          "TrialMeasure": null,
          "TrialWeight": null
        },
        {
          "FullMeasure": null,
          "FullWeight": null,
          "IngredientGridHeaders": null,
          "IngredientID": 68313,
          "IngredientName": "pork tenderloin, cut into thin strips",
          "IngredientStep": 20,
          "LanguageId": 0,
          "PostPreparation": "",
          "PrePreparation": "",
          "QuantityNum": 1,
          "QuantityText": "1",
          "QuantityUnit": "lb.",
          "RecipeIngredientID": 274536,
          "TrialMeasure": null,
          "TrialWeight": null
        },
        {
          "FullMeasure": null,
          "FullWeight": null,
          "IngredientGridHeaders": null,
          "IngredientID": 68817,
          "IngredientName": "garlic, minced ",
          "IngredientStep": 30,
          "LanguageId": 0,
          "PostPreparation": "",
          "PrePreparation": "",
          "QuantityNum": 1,
          "QuantityText": "1",
          "QuantityUnit": "clove",
          "RecipeIngredientID": 274537,
          "TrialMeasure": null,
          "TrialWeight": null
        },
        {
          "FullMeasure": null,
          "FullWeight": null,
          "IngredientGridHeaders": null,
          "IngredientID": 68791,
          "IngredientName": "water",
          "IngredientStep": 40,
          "LanguageId": 0,
          "PostPreparation": "",
          "PrePreparation": "",
          "QuantityNum": 1.25,
          "QuantityText": "1-1/4",
          "QuantityUnit": "cups",
          "RecipeIngredientID": 270702,
          "TrialMeasure": null,
          "TrialWeight": null
        },
        {
          "FullMeasure": null,
          "FullWeight": null,
          "IngredientGridHeaders": null,
          "IngredientID": 69136,
          "IngredientName": "small broccoli florets",
          "IngredientStep": 50,
          "LanguageId": 0,
          "PostPreparation": "",
          "PrePreparation": "",
          "QuantityNum": 2,
          "QuantityText": "2",
          "QuantityUnit": "cups",
          "RecipeIngredientID": 272883,
          "TrialMeasure": null,
          "TrialWeight": null
        },
        {
          "FullMeasure": null,
          "FullWeight": null,
          "IngredientGridHeaders": null,
          "IngredientID": 67752,
          "IngredientName": "carrots, cut diagonally into 1/2-inch slices",
          "IngredientStep": 60,
          "LanguageId": 0,
          "PostPreparation": "",
          "PrePreparation": "",
          "QuantityNum": 3,
          "QuantityText": "3",
          "QuantityUnit": "",
          "RecipeIngredientID": 270524,
          "TrialMeasure": null,
          "TrialWeight": null
        },
        {
          "FullMeasure": null,
          "FullWeight": null,
          "IngredientGridHeaders": null,
          "IngredientID": 68776,
          "IngredientName": "onion, sliced",
          "IngredientStep": 70,
          "LanguageId": 0,
          "PostPreparation": "",
          "PrePreparation": "",
          "QuantityNum": 1,
          "QuantityText": "1",
          "QuantityUnit": "small",
          "RecipeIngredientID": 271826,
          "TrialMeasure": null,
          "TrialWeight": null
        },
        {
          "FullMeasure": null,
          "FullWeight": null,
          "IngredientGridHeaders": null,
          "IngredientID": 70650,
          "IngredientName": "instant white rice, uncooked",
          "IngredientStep": 80,
          "LanguageId": 0,
          "PostPreparation": "",
          "PrePreparation": "",
          "QuantityNum": 2,
          "QuantityText": "2",
          "QuantityUnit": "cups",
          "RecipeIngredientID": 273731,
          "TrialMeasure": null,
          "TrialWeight": null
        },
        {
          "FullMeasure": null,
          "FullWeight": null,
          "IngredientGridHeaders": null,
          "IngredientID": 70630,
          "IngredientName": "KRAFT Lite Asian Toasted Sesame Dressing",
          "IngredientStep": 90,
          "LanguageId": 0,
          "PostPreparation": "",
          "PrePreparation": "",
          "QuantityNum": 0.5,
          "QuantityText": "1/2",
          "QuantityUnit": "cup",
          "RecipeIngredientID": 271683,
          "TrialMeasure": null,
          "TrialWeight": null
        }
      ],
      "IsHealthyLiving": true,
      "KRLId": "541417",
      "KeyIngredients": [],
      "Keywords": "Entree,Stir-fry,Easy,Nutrition and Well-Being,Asian,Skillet Dish,Dinner,All Seasons",
      "LanguageId": 1,
      "LifeStyles": [
        "Good source of vitamin A or C",
        "Generally Nutritious",
        "Low sodium",
        "Diabetes Center"
      ],
      "NumberOfIngredients": 9,
      "NumberOfRatings": 13,
      "NumberOfRatingsWithComments": "10",
      "NumberOfServings": "Makes 4 servings, 1-1/2 cups each.",
      "NumberOfTrialServings": null,
      "NutritionBonus": "Whip up this quick meal any night of the week.  Feel good about serving it to your family since it is rich in vitamin A from carrots and a good source of vitamin C from broccoli.",
      "NutritionExchangeItemId": 1,
      "NutritionGridItems": null,
      "NutritionItems": [
        {
          "DisplayOrder": 1,
          "Document": null,
          "NutritionItemID": 371,
          "NutritionItemName": "Calories",
          "Predriscriptor": "",
          "Quantity": 440,
          "Unit": "          "
        },
        {
          "DisplayOrder": 2,
          "Document": null,
          "NutritionItemID": 376,
          "NutritionItemName": "Total fat",
          "Predriscriptor": "",
          "Quantity": 11,
          "Unit": "g         "
        },
        {
          "DisplayOrder": 3,
          "Document": null,
          "NutritionItemID": 377,
          "NutritionItemName": "Saturated fat",
          "Predriscriptor": "",
          "Quantity": 2.5,
          "Unit": "g         "
        },
        {
          "DisplayOrder": 4,
          "Document": null,
          "NutritionItemID": 379,
          "NutritionItemName": "Polyunsaturated Fat",
          "Predriscriptor": "",
          "Quantity": 2.5,
          "Unit": "g         "
        },
        {
          "DisplayOrder": 5,
          "Document": null,
          "NutritionItemID": 378,
          "NutritionItemName": "Monounsaturated Fat",
          "Predriscriptor": "",
          "Quantity": 2.5,
          "Unit": "g         "
        },
        {
          "DisplayOrder": 6,
          "Document": null,
          "NutritionItemID": 380,
          "NutritionItemName": "Trans Fat",
          "Predriscriptor": "",
          "Quantity": 0,
          "Unit": "g         "
        },
        {
          "DisplayOrder": 7,
          "Document": null,
          "NutritionItemID": 381,
          "NutritionItemName": "Cholesterol",
          "Predriscriptor": "",
          "Quantity": 65,
          "Unit": "mg        "
        },
        {
          "DisplayOrder": 8,
          "Document": null,
          "NutritionItemID": 389,
          "NutritionItemName": "Sodium",
          "Predriscriptor": "",
          "Quantity": 390,
          "Unit": "mg        "
        },
        {
          "DisplayOrder": 10,
          "Document": null,
          "NutritionItemID": 373,
          "NutritionItemName": "Carbohydrate",
          "Predriscriptor": "",
          "Quantity": 55,
          "Unit": "g         "
        },
        {
          "DisplayOrder": 11,
          "Document": null,
          "NutritionItemID": 374,
          "NutritionItemName": "Dietary fiber",
          "Predriscriptor": "",
          "Quantity": 4,
          "Unit": "g         "
        },
        {
          "DisplayOrder": 12,
          "Document": null,
          "NutritionItemID": 375,
          "NutritionItemName": "Sugars",
          "Predriscriptor": "",
          "Quantity": 11,
          "Unit": "g         "
        },
        {
          "DisplayOrder": 13,
          "Document": null,
          "NutritionItemID": 372,
          "NutritionItemName": "Protein",
          "Predriscriptor": "",
          "Quantity": 30,
          "Unit": "g         "
        },
        {
          "DisplayOrder": 14,
          "Document": null,
          "NutritionItemID": 382,
          "NutritionItemName": "Vitamin A",
          "Predriscriptor": "",
          "Quantity": 300,
          "Unit": "%DV       "
        },
        {
          "DisplayOrder": 15,
          "Document": null,
          "NutritionItemID": 383,
          "NutritionItemName": "Vitamin C",
          "Predriscriptor": "",
          "Quantity": 20,
          "Unit": "%DV       "
        },
        {
          "DisplayOrder": 16,
          "Document": null,
          "NutritionItemID": 386,
          "NutritionItemName": "Calcium",
          "Predriscriptor": "",
          "Quantity": 4,
          "Unit": "%DV       "
        },
        {
          "DisplayOrder": 17,
          "Document": null,
          "NutritionItemID": 387,
          "NutritionItemName": "Iron",
          "Predriscriptor": "",
          "Quantity": 25,
          "Unit": "%DV       "
        }
      ],
      "NutritionServingText": null,
      "PrepStepImage": null,
      "PreparationDescription": "Heat oil in large skillet on medium-high heat.  Add meat and garlic; cook and stir 4 min. or until meat is cooked through.$Add water and vegetables; mix well.  Bring to boil.$Stir in rice and dressing; cover.  Reduce heat to low; simmer 5 min.  Remove from heat.  Let stand 5 min.  Fluff with fork.  ",
      "PreparationPreText": null,
      "PreparationSteps": [
        {
          "Description": "Heat oil in large skillet on medium-high heat.  Add meat and garlic; cook and stir 4 min. or until meat is cooked through.",
          "PreparationStepImage": {
            "PictureFormats": [],
            "author": null,
            "id": null,
            "imageType": null,
            "mimeType": null,
            "publicationDate": null,
            "status": null,
            "title": null,
            "type": null
          },
          "Sequence": 1
        },
        {
          "Description": "Add water and vegetables; mix well.  Bring to boil.",
          "PreparationStepImage": {
            "PictureFormats": [],
            "author": null,
            "id": null,
            "imageType": null,
            "mimeType": null,
            "publicationDate": null,
            "status": null,
            "title": null,
            "type": null
          },
          "Sequence": 2
        },
        {
          "Description": "Stir in rice and dressing; cover.  Reduce heat to low; simmer 5 min.  Remove from heat.  Let stand 5 min.  Fluff with fork.  ",
          "PreparationStepImage": {
            "PictureFormats": [],
            "author": null,
            "id": null,
            "imageType": null,
            "mimeType": null,
            "publicationDate": null,
            "status": null,
            "title": null,
            "type": null
          },
          "Sequence": 3
        }
      ],
      "PreparationTime": 10,
      "Promotion": null,
      "Ratings": {
        "TotalCount": 13,
        "PageCount": 10,
        "PageNo": 1,
        "Rating": [
          {
            "Comment": "",
            "DisplayName": true,
            "RatingValue": 5,
            "SubmitDate": "/Date(1326217676000-0600)/",
            "UpdatedDate": "/Date(1326217676000-0600)/",
            "UserName": "sandraelaine01"
          },
          {
            "Comment": "",
            "DisplayName": true,
            "RatingValue": 2,
            "SubmitDate": "/Date(1230916167000-0600)/",
            "UpdatedDate": "/Date(1230916167000-0600)/",
            "UserName": "boobaby"
          },
          {
            "Comment": "I made this with chicken instead of the pork and it was delicious and very easy to make.  My company enjoyed this very much. Thank you for all the delicious and easy recipes.",
            "DisplayName": true,
            "RatingValue": 4,
            "SubmitDate": "/Date(1215223206000-0500)/",
            "UpdatedDate": "/Date(1215223206000-0500)/",
            "UserName": "ChrisPapp"
          },
          {
            "Comment": "My family really liked this recipe. I used chicken instead of pork, and it turned out wonderful. It was very quick and easy.",
            "DisplayName": false,
            "RatingValue": 5,
            "SubmitDate": "/Date(1213147768000-0500)/",
            "UpdatedDate": "/Date(1213147768000-0500)/",
            "UserName": "lscott1817"
          },
          {
            "Comment": "Excellent, Quick, and Easy",
            "DisplayName": false,
            "RatingValue": 5,
            "SubmitDate": "/Date(1212160867000-0500)/",
            "UpdatedDate": "/Date(1212160867000-0500)/",
            "UserName": "chelek24"
          },
          {
            "Comment": "Fantastic! I used light italian instead of asian dressing and threw in some sunflower seeds. ",
            "DisplayName": true,
            "RatingValue": 5,
            "SubmitDate": "/Date(1207147537000-0500)/",
            "UpdatedDate": "/Date(1207147537000-0500)/",
            "UserName": "purplegecko"
          },
          {
            "Comment": "The flavor was not very good.  I love the dressing when it is used in salad but on the rice, it made it taste too sweet.  I also used steak instead of pork which was pretty tasty. However, the flavor of the dressing almost ruined the taste of the fresh veggies and meat.",
            "DisplayName": true,
            "RatingValue": 2,
            "SubmitDate": "/Date(1205192424000-0500)/",
            "UpdatedDate": "/Date(1205192424000-0500)/",
            "UserName": "brittyrae"
          },
          {
            "Comment": "My husband and I loved this and it is super easy and fast!",
            "DisplayName": true,
            "RatingValue": 5,
            "SubmitDate": "/Date(1203633870000-0600)/",
            "UpdatedDate": "/Date(1203633870000-0600)/",
            "UserName": "becca0611"
          },
          {
            "Comment": "",
            "DisplayName": true,
            "RatingValue": 5,
            "SubmitDate": "/Date(1202241170000-0600)/",
            "UpdatedDate": "/Date(1202241170000-0600)/",
            "UserName": "gellybean68"
          },
          {
            "Comment": "Was not really a fan of the flavor.",
            "DisplayName": true,
            "RatingValue": 2,
            "SubmitDate": "/Date(1201614441000-0600)/",
            "UpdatedDate": "/Date(1201614441000-0600)/",
            "UserName": "melissajay"
          }
        ]
      },
      "RecipeDisplayFormatId": 0,
      "RecipeId": 108276,
      "RecipeName": "Fabulously Fast Stir-Fry",
      "RecipeType": 0,
      "RelatedData": {
        "RelatedBrands": null,
        "RelatedProducts": null,
        "RelatedRecipes": {
          "DefaultTopCount": 5,
          "Recipe": [
            {
              "AverageRating": 4.1,
              "HasVideo": false,
              "IsHealthyLiving": false,
              "NumberOfRatings": 12,
              "PhotoName": "Fabulous_Fajitas.jpg",
              "PhotoUrl": "http://assets.kraftfoods.com/recipe_images/opendeploy/Fabulous_Fajitas.jpg",
              "RecipeId": 54264,
              "RecipeName": "Fabulous Fajitas",
              "SEOName": "fabulous-fajitas-54264",
              "ThumbnailPhoto": null
            },
            {
              "AverageRating": 4.7,
              "HasVideo": true,
              "IsHealthyLiving": false,
              "NumberOfRatings": 3,
              "PhotoName": "129412.jpg",
              "PhotoUrl": "http://assets.kraftfoods.com/recipe_images/opendeploy/129412.jpg",
              "RecipeId": 129412,
              "RecipeName": "VELVEETA® Fast n’ Tasty Loaded Nachos",
              "SEOName": "velveeta-fast-n-tasty-loaded-nachos-129412",
              "ThumbnailPhoto": null
            },
            {
              "AverageRating": 4.5,
              "HasVideo": false,
              "IsHealthyLiving": false,
              "NumberOfRatings": 62,
              "PhotoName": "PHILADELPHIA_Fabulous_Tiramisu.jpg",
              "PhotoUrl": "http://assets.kraftfoods.com/recipe_images/opendeploy/PHILADELPHIA_Fabulous_Tiramisu.jpg",
              "RecipeId": 56238,
              "RecipeName": "PHILADELPHIA Fabulous Tiramisu",
              "SEOName": "philadelphia-fabulous-tiramisu-56238",
              "ThumbnailPhoto": null
            },
            {
              "AverageRating": 4,
              "HasVideo": false,
              "IsHealthyLiving": true,
              "NumberOfRatings": 3,
              "PhotoName": "Apple_Orchard_Dessert.jpg",
              "PhotoUrl": "http://assets.kraftfoods.com/recipe_images/opendeploy/Apple_Orchard_Dessert.jpg",
              "RecipeId": 53283,
              "RecipeName": "Apple Orchard Dessert",
              "SEOName": "apple-orchard-dessert-53283",
              "ThumbnailPhoto": null
            },
            {
              "AverageRating": 5,
              "HasVideo": false,
              "IsHealthyLiving": true,
              "NumberOfRatings": 2,
              "PhotoName": "115896.jpg",
              "PhotoUrl": "http://assets.kraftfoods.com/recipe_images/opendeploy/115896.jpg",
              "RecipeId": 115896,
              "RecipeName": "Fabulous Tropical Fruit Salad",
              "SEOName": "fabulous-tropical-fruit-salad-115896",
              "ThumbnailPhoto": null
            }
          ],
          "TotalCount": 3925
        }
      },
      "RiseIngredients": [
        {
          "IngredientCategory": "KRL",
          "IngredientId": 67752,
          "IngredientIndustrySector": "Retail",
          "IngredientType": "Inedible",
          "ProductId": null,
          "RecipeId": 108276
        },
        {
          "IngredientCategory": "KRL",
          "IngredientId": 67921,
          "IngredientIndustrySector": "Retail",
          "IngredientType": "Inedible",
          "ProductId": null,
          "RecipeId": 108276
        },
        {
          "IngredientCategory": "KRL",
          "IngredientId": 68313,
          "IngredientIndustrySector": "Retail",
          "IngredientType": "Inedible",
          "ProductId": null,
          "RecipeId": 108276
        },
        {
          "IngredientCategory": "KRL",
          "IngredientId": 68776,
          "IngredientIndustrySector": "Retail",
          "IngredientType": "Inedible",
          "ProductId": null,
          "RecipeId": 108276
        },
        {
          "IngredientCategory": "KRL",
          "IngredientId": 68791,
          "IngredientIndustrySector": "Retail",
          "IngredientType": "Generic",
          "ProductId": null,
          "RecipeId": 108276
        },
        {
          "IngredientCategory": "KRL",
          "IngredientId": 68817,
          "IngredientIndustrySector": "Retail",
          "IngredientType": "Inedible",
          "ProductId": null,
          "RecipeId": 108276
        },
        {
          "IngredientCategory": "KRL",
          "IngredientId": 69136,
          "IngredientIndustrySector": "Retail",
          "IngredientType": "Inedible",
          "ProductId": null,
          "RecipeId": 108276
        },
        {
          "IngredientCategory": "KRL",
          "IngredientId": 70630,
          "IngredientIndustrySector": "Retail",
          "IngredientType": "KHC",
          "ProductId": "00021000014095",
          "RecipeId": 108276
        },
        {
          "IngredientCategory": "KRL",
          "IngredientId": 70650,
          "IngredientIndustrySector": "Retail",
          "IngredientType": "Inedible",
          "ProductId": null,
          "RecipeId": 108276
        }
      ],
      "RiseTaxonomy": [],
      "Riserecipe": [
        {
          "GRIN": 541417,
          "RecipeId": 108276,
          "RecipeIndustrySector": "Retail",
          "RecipeType": "Internal"
        }
      ],
      "RomanceText": "Fabulously fast and simply delicious, this pork tenderloin stir-fry is destined to become a new family favorite.",
      "SEOName": "fabulously-fast-stir-fry-108276",
      "Tips": [
        {
          "RecipeId": 108276,
          "Sequence": 10,
          "TipDescription": "Sprinkle with PLANTERS Dry Roasted Peanuts just before serving.",
          "TipID": 1,
          "TipName": "Special Extra"
        },
        {
          "RecipeId": 108276,
          "Sequence": 20,
          "TipDescription": "Substitute 2 cups frozen broccoli florets for the fresh broccoli.",
          "TipID": 2,
          "TipName": "Substitute"
        }
      ],
      "TotalTime": 25,
      "TradeMarkInfo": null,
      "Video": [],
      "Yield": "Makes 4 servings, 1-1/2 cups each."
    }
  ]
}