{
  "Metadata": {
    "PageCount": 1,
    "PageNo": 0,
    "TotalCount": 0
  },
  "Recipes": [
    {
      "AdServingKeywords": "Dessert,Dairy,Fruit,All Seasons,Frozen Dessert,Cool Whip,Jell-O",
      "AlternateLanguageRecipes": [],
      "Assets": [],
      "AverageRating": 0,
      "BrandId": 1,
      "Branding": null,
      "CSSSkins": null,
      "CarbCounter": null,
      "Categories": [
        {
          "CategoryID": 3,
          "CategoryName": "Cookies/Candy/Other Desserts",
          "CategoryRank": 6,
          "SubCategoryID": 17,
          "SubCategoryName": "Other Frozen Desserts",
          "SubCategoryRank": 120
        },
        {
          "CategoryID": 11,
          "CategoryName": "Primary",
          "CategoryRank": 0,
          "SubCategoryID": 103,
          "SubCategoryName": "Desserts",
          "SubCategoryRank": 40
        },
        {
          "CategoryID": 759,
          "CategoryName": "Desserts",
          "CategoryRank": 13,
          "SubCategoryID": 2578,
          "SubCategoryName": "Frozen",
          "SubCategoryRank": 1
        }
      ],
      "Classifications": [],
      "ComplimentaryRecipes": null,
      "CookingMethod": null,
      "Copyright": null,
      "Courses": [
        "Desserts"
      ],
      "DietExchange": null,
      "DishDetails": [
        {
          "Text": "desserts",
          "Url": "/recipes/dessert/main.aspx"
        },
        {
          "Text": "fruity desserts",
          "Url": "/recipes/dessert/fruitydesserts.aspx"
        },
        {
          "Text": "gelatin desserts",
          "Url": "/recipes/dessert/gelatindesserts.aspx"
        },
        {
          "Text": "layered desserts",
          "Url": "/recipes/dessert/layereddesserts.aspx"
        },
        {
          "Text": "brownie recipes",
          "Url": "/recipes/dessert/brownie-recipes/main.aspx"
        },
        {
          "Text": "budget desserts",
          "Url": "/recipes/budget/budget-desserts.aspx"
        },
        {
          "Text": "no bake desserts",
          "Url": "/recipes/dessert/nobakedesserts.aspx"
        },
        {
          "Text": "pumpkin recipes",
          "Url": "/recipes/dessert/pumpkin-recipes.aspx"
        },
        {
          "Text": "chocolate cake recipes",
          "Url": "/recipes/dessert/chocolate-cake-recipes/main.aspx"
        },
        {
          "Text": "cheesecake recipes",
          "Url": "/recipes/dessert/cheesecake-center/cheesecake-recipes/main.aspx"
        },
        {
          "Text": "chocolate lovers recipes",
          "Url": "/recipes/dessert/chocolate-center/chocolateloversrecipes.aspx"
        },
        {
          "Text": "classic desserts",
          "Url": "/recipes/dessert/classicdesserts.aspx"
        },
        {
          "Text": "cookie ball recipes",
          "Url": "/recipes/dessert/cookie-ball-recipes/main.aspx"
        },
        {
          "Text": "cookie recipes",
          "Url": "/recipes/dessert/cookie-recipes/main.aspx"
        },
        {
          "Text": "cupcake recipes",
          "Url": "/recipes/dessert/cupcake-recipes/main.aspx"
        },
        {
          "Text": "healthy living desserts",
          "Url": "/healthy-living-ideas/diabetes-center/recipes/dessert-recipes.aspx"
        }
      ],
      "EndDate": "/Date(-62135575200000-0600)/",
      "HasVideo": false,
      "Ingredients": [
        {
          "FullMeasure": "2 pkg.",
          "FullWeight": "",
          "IngredientGridHeaders": null,
          "IngredientID": 343,
          "IngredientName": "JELL-O Chocolate Flavor Sugar Free Fat Free Instant Pudding",
          "IngredientStep": 10,
          "LanguageId": 0,
          "PostPreparation": "",
          "PrePreparation": "(1.4 oz. each)",
          "QuantityNum": 2,
          "QuantityText": "2",
          "QuantityUnit": "pkg.",
          "RecipeIngredientID": 4758166,
          "TrialMeasure": "",
          "TrialWeight": ""
        },
        {
          "FullMeasure": "3 cups",
          "FullWeight": "",
          "IngredientGridHeaders": null,
          "IngredientID": 4717,
          "IngredientName": "fat-free milk",
          "IngredientStep": 20,
          "LanguageId": 0,
          "PostPreparation": "",
          "PrePreparation": "cold",
          "QuantityNum": 3,
          "QuantityText": "3",
          "QuantityUnit": "cups",
          "RecipeIngredientID": 4758165,
          "TrialMeasure": "",
          "TrialWeight": ""
        },
        {
          "FullMeasure": "2 cups",
          "FullWeight": "",
          "IngredientGridHeaders": null,
          "IngredientID": 138,
          "IngredientName": "COOL WHIP LITE Whipped Topping",
          "IngredientStep": 30,
          "LanguageId": 0,
          "PostPreparation": "",
          "PrePreparation": "thawed",
          "QuantityNum": 2,
          "QuantityText": "2",
          "QuantityUnit": "cups",
          "RecipeIngredientID": 4758167,
          "TrialMeasure": "",
          "TrialWeight": ""
        },
        {
          "FullMeasure": "16",
          "FullWeight": "",
          "IngredientGridHeaders": null,
          "IngredientID": 7419,
          "IngredientName": "Reduced Fat OREO Cookies",
          "IngredientStep": 40,
          "LanguageId": 0,
          "PostPreparation": ", chopped (about 2 cups)",
          "PrePreparation": "",
          "QuantityNum": 16,
          "QuantityText": "16",
          "QuantityUnit": "",
          "RecipeIngredientID": 4758168,
          "TrialMeasure": "",
          "TrialWeight": ""
        },
        {
          "FullMeasure": "8",
          "FullWeight": "",
          "IngredientGridHeaders": null,
          "IngredientID": 1324,
          "IngredientName": "maraschino cherries",
          "IngredientStep": 50,
          "LanguageId": 0,
          "PostPreparation": "",
          "PrePreparation": "",
          "QuantityNum": 7,
          "QuantityText": "8",
          "QuantityUnit": "",
          "RecipeIngredientID": 4758164,
          "TrialMeasure": "",
          "TrialWeight": ""
        }
      ],
      "IsHealthyLiving": false,
      "KRLId": "556965",
      "KeyIngredients": [
        "Dairy",
        "Fruit"
      ],
      "Keywords": "cherries,chocolate pudding mix,cookies,COOL WHIP LITE,JELL-O Sugar-Free Pudding,maraschino cherries,milk,sandwich cookies,pudding mix-instant-sugar free,whipped topping-reduced fat,OREO Cookies,oreos,Dessert,All Seasons,Frozen Dessert",
      "LanguageId": 1,
      "LifeStyles": [],
      "NumberOfIngredients": 5,
      "NumberOfRatings": 0,
      "NumberOfRatingsWithComments": "0",
      "NumberOfServings": "8 servings",
      "NumberOfTrialServings": "",
      "NutritionBonus": null,
      "NutritionExchangeItemId": 0,
      "NutritionGridItems": null,
      "NutritionItems": [
        {
          "DisplayOrder": 1,
          "Document": null,
          "NutritionItemID": 3,
          "NutritionItemName": "Calories",
          "Predriscriptor": "",
          "Quantity": 230,
          "Unit": "          "
        },
        {
          "DisplayOrder": 2,
          "Document": "fat_cholesterol.html",
          "NutritionItemID": 4,
          "NutritionItemName": "Total fat",
          "Predriscriptor": "",
          "Quantity": 8,
          "Unit": "g         "
        },
        {
          "DisplayOrder": 3,
          "Document": "fat_cholesterol.html",
          "NutritionItemID": 9,
          "NutritionItemName": "Saturated fat",
          "Predriscriptor": "",
          "Quantity": 4.5,
          "Unit": "g         "
        },
        {
          "DisplayOrder": 7,
          "Document": "fat_cholesterol.html",
          "NutritionItemID": 2,
          "NutritionItemName": "Cholesterol",
          "Predriscriptor": "",
          "Quantity": 5,
          "Unit": "mg        "
        },
        {
          "DisplayOrder": 8,
          "Document": "sodium.html",
          "NutritionItemID": 8,
          "NutritionItemName": "Sodium",
          "Predriscriptor": "",
          "Quantity": 490,
          "Unit": "mg        "
        },
        {
          "DisplayOrder": 10,
          "Document": "carbs_sugars_fiber.html",
          "NutritionItemID": 1,
          "NutritionItemName": "Carbohydrate",
          "Predriscriptor": "",
          "Quantity": 37,
          "Unit": "g         "
        },
        {
          "DisplayOrder": 11,
          "Document": "carbs_sugars_fiber.html",
          "NutritionItemID": 7,
          "NutritionItemName": "Dietary fiber",
          "Predriscriptor": "",
          "Quantity": 2,
          "Unit": "g         "
        },
        {
          "DisplayOrder": 12,
          "Document": "carbs_sugars_fiber.html",
          "NutritionItemID": 5,
          "NutritionItemName": "Sugars",
          "Predriscriptor": "",
          "Quantity": 19,
          "Unit": "g         "
        },
        {
          "DisplayOrder": 13,
          "Document": null,
          "NutritionItemID": 6,
          "NutritionItemName": "Protein",
          "Predriscriptor": "",
          "Quantity": 5,
          "Unit": "g         "
        },
        {
          "DisplayOrder": 14,
          "Document": null,
          "NutritionItemID": 10,
          "NutritionItemName": "Vitamin A",
          "Predriscriptor": "",
          "Quantity": 4,
          "Unit": "%DV       "
        },
        {
          "DisplayOrder": 15,
          "Document": null,
          "NutritionItemID": 11,
          "NutritionItemName": "Vitamin C",
          "Predriscriptor": "",
          "Quantity": 0,
          "Unit": "%DV       "
        },
        {
          "DisplayOrder": 16,
          "Document": "dairy_and_calcium.html",
          "NutritionItemID": 12,
          "NutritionItemName": "Calcium",
          "Predriscriptor": "",
          "Quantity": 15,
          "Unit": "%DV       "
        },
        {
          "DisplayOrder": 17,
          "Document": null,
          "NutritionItemID": 13,
          "NutritionItemName": "Iron",
          "Predriscriptor": "",
          "Quantity": 15,
          "Unit": "%DV       "
        }
      ],
      "NutritionServingText": "",
      "PrepStepImage": null,
      "PreparationDescription": "Beat pudding mixes and milk in large bowl with whisk 2 min.  Stir in COOL WHIP.$Spoon half <u>each</u> of the cookies and pudding mixture evenly into 8 (8- or 9-oz.) paper drinking cups; press gently with back of spoon to release air pockets. Repeat layers; cover. $Freeze 5 hours or until firm.  Remove from freezer about 15 min. before serving. Let stand at room temperature to soften slightly. Peel away paper from soufflés.  Place soufflés on plates; garnish with cherries. ",
      "PreparationPreText": "",
      "PreparationSteps": [
        {
          "Description": "Beat pudding mixes and milk in large bowl with whisk 2 min.  Stir in COOL WHIP.",
          "PreparationStepImage": {
            "PictureFormats": [],
            "author": null,
            "id": null,
            "imageType": null,
            "mimeType": null,
            "publicationDate": null,
            "status": null,
            "title": null,
            "type": null
          },
          "Sequence": 1
        },
        {
          "Description": "Spoon half <u>each</u> of the cookies and pudding mixture evenly into 8 (8- or 9-oz.) paper drinking cups; press gently with back of spoon to release air pockets. Repeat layers; cover. ",
          "PreparationStepImage": {
            "PictureFormats": [],
            "author": null,
            "id": null,
            "imageType": null,
            "mimeType": null,
            "publicationDate": null,
            "status": null,
            "title": null,
            "type": null
          },
          "Sequence": 2
        },
        {
          "Description": "Freeze 5 hours or until firm.  Remove from freezer about 15 min. before serving. Let stand at room temperature to soften slightly. Peel away paper from soufflés.  Place soufflés on plates; garnish with cherries. ",
          "PreparationStepImage": {
            "PictureFormats": [],
            "author": null,
            "id": null,
            "imageType": null,
            "mimeType": null,
            "publicationDate": null,
            "status": null,
            "title": null,
            "type": null
          },
          "Sequence": 3
        }
      ],
      "PreparationTime": 15,
      "Promotion": null,
      "Ratings": {
        "TotalCount": 0,
        "PageCount": 10,
        "PageNo": 1,
        "Rating": []
      },
      "RecipeDisplayFormatId": 5,
      "RecipeId": 163036,
      "RecipeName": "Smart-Choice Frozen Chocolate \"Soufflés\"",
      "RecipeType": 0,
      "RelatedData": {
        "RelatedBrands": null,
        "RelatedProducts": null,
        "RelatedRecipes": {
          "DefaultTopCount": 5,
          "Recipe": [
            {
              "AverageRating": 5,
              "HasVideo": false,
              "IsHealthyLiving": false,
              "NumberOfRatings": 2,
              "PhotoName": "Turtle-Cake-58684.jpg",
              "PhotoUrl": "http://assets.kraftfoods.com/recipe_images/opendeploy/Turtle-Cake-58684.jpg",
              "RecipeId": 149081,
              "RecipeName": "Smart-Choice Turtle Cake",
              "SEOName": "smart-choice-turtle-cake-149081",
              "ThumbnailPhoto": null
            },
            {
              "AverageRating": 4.3,
              "HasVideo": false,
              "IsHealthyLiving": false,
              "NumberOfRatings": 107,
              "PhotoName": "106255.jpg",
              "PhotoUrl": "http://assets.kraftfoods.com/recipe_images/opendeploy/106255.jpg",
              "RecipeId": 106255,
              "RecipeName": "Frozen Chocolate \"Soufflés\"",
              "SEOName": "frozen-chocolate-souffles-106255",
              "ThumbnailPhoto": null
            },
            {
              "AverageRating": 4.3,
              "HasVideo": false,
              "IsHealthyLiving": false,
              "NumberOfRatings": 4,
              "PhotoName": "Frozen_Chocolate_Graham_Delight.jpg",
              "PhotoUrl": "http://assets.kraftfoods.com/recipe_images/opendeploy/Frozen_Chocolate_Graham_Delight.jpg",
              "RecipeId": 51841,
              "RecipeName": "Frozen Chocolate Graham Delights",
              "SEOName": "frozen-chocolate-graham-delights-51841",
              "ThumbnailPhoto": null
            },
            {
              "AverageRating": 5,
              "HasVideo": false,
              "IsHealthyLiving": false,
              "NumberOfRatings": 1,
              "PhotoName": "Easy-Coconut-Cream-Pie-25326.jpg",
              "PhotoUrl": "http://assets.kraftfoods.com/recipe_images/opendeploy/Easy-Coconut-Cream-Pie-25326.jpg",
              "RecipeId": 149043,
              "RecipeName": "Smart-Choice Easy Coconut Cream Pie Recipe",
              "SEOName": "smart-choice-easy-coconut-cream-pie-recipe-149043",
              "ThumbnailPhoto": null
            },
            {
              "AverageRating": 5,
              "HasVideo": false,
              "IsHealthyLiving": false,
              "NumberOfRatings": 1,
              "PhotoName": "Slow-Cooker-Vegetable-Lasagna-61928.jpg",
              "PhotoUrl": "http://assets.kraftfoods.com/recipe_images/opendeploy/Slow-Cooker-Vegetable-Lasagna-61928.jpg",
              "RecipeId": 149093,
              "RecipeName": "Smart-Choice Slow-Cooker Vegetable Lasagna",
              "SEOName": "smart-choice-slow-cooker-vegetable-lasagna-149093",
              "ThumbnailPhoto": null
            }
          ],
          "TotalCount": 2644
        }
      },
      "RiseIngredients": [],
      "RiseTaxonomy": [],
      "Riserecipe": [
        {
          "GRIN": 556965,
          "RecipeId": 163036,
          "RecipeIndustrySector": "Retail",
          "RecipeType": "Internal"
        }
      ],
      "RomanceText": "These yummy frozen treats are much easier to make than actual soufflés, thanks to an ingredients list that includes chocolate pudding and whipped topping.",
      "SEOName": "smart-choice-frozen-chocolate-souffles-163036",
      "Tips": [
        {
          "RecipeId": 163036,
          "Sequence": 10,
          "TipDescription": "Small ingredient substitutions, such as fat-free milk, JELL-0 Chocolate Sugar Free Fat Free Instant Pudding, COOL WHIP LITE Whipped Topping, and Reduced Fat OREO Cookies, result in a savings of 70 calories per serving when compared to a traditional recipe.\r\n\r\n",
          "TipID": 2,
          "TipName": "Small Changes Add Up"
        },
        {
          "RecipeId": 163036,
          "Sequence": 20,
          "TipDescription": "Prepare with 2 pkg. (1 oz. each) JELL-O Vanilla Flavor Fat-Free Sugar-Free Instant Pudding and reduced-fat chocolate chip cookies (2 inch). ",
          "TipID": 1,
          "TipName": "Variation  "
        }
      ],
      "TotalTime": 315,
      "TradeMarkInfo": null,
      "Video": [],
      "Yield": "8 servings"
    }
  ]
}