{
  "Metadata": {
    "PageCount": 1,
    "PageNo": 0,
    "TotalCount": 0
  },
  "Recipes": [
    {
      "AdServingKeywords": "Beef,Cheese,Ground Beef,Ketchup,Lettuce,Meat,Tomato,Vegetables,Worcestershire Sauce,Yellow Mustard,Sandwich,Grilled,Easy,Summer,BBQ,Dinner,Lunch,Burger,Quesadillas,Heinz Ketchup,Heinz Yellow Mustard,Kraft Deli Deluxe,Lea and Perrins,Quick and Easy",
      "AlternateLanguageRecipes": [],
      "Assets": [
        {
          "PictureFormats": [
            {
              "rendition": "640x428",
              "url": "http://assets.kraftfoods.com/recipe_images/opendeploy/197825_640x428.jpg"
            },
            {
              "rendition": "600x250",
              "url": "http://assets.kraftfoods.com/recipe_images/opendeploy/197825_600x250.jpg"
            },
            {
              "rendition": "290x194",
              "url": "http://assets.kraftfoods.com/recipe_images/opendeploy/197825_290x194.jpg"
            }
          ],
          "author": null,
          "id": "2",
          "imageType": "Primary",
          "mimeType": "image/jpeg",
          "publicationDate": null,
          "status": "1",
          "title": "197825",
          "type": "image"
        },
        {
          "PictureFormats": [
            {
              "rendition": "300x200",
              "url": "http://assets.kraftfoods.com/recipe_images/197825.jpg"
            }
          ],
          "author": null,
          "id": "0",
          "imageType": "LANDSCAPE",
          "mimeType": "image/jpeg",
          "publicationDate": null,
          "status": "1",
          "title": "197825.jpg",
          "type": "image"
        }
      ],
      "AverageRating": 0,
      "BrandId": 1,
      "Branding": null,
      "CSSSkins": null,
      "CarbCounter": null,
      "Categories": [
        {
          "CategoryID": 11,
          "CategoryName": "Primary",
          "CategoryRank": 0,
          "SubCategoryID": 105,
          "SubCategoryName": "Sandwiches",
          "SubCategoryRank": 80
        },
        {
          "CategoryID": 14,
          "CategoryName": "Soup/Sandwiches",
          "CategoryRank": 14,
          "SubCategoryID": 160,
          "SubCategoryName": "Hot Sandwiches",
          "SubCategoryRank": 70
        },
        {
          "CategoryID": 751,
          "CategoryName": "Breads, Sandwiches, Wraps & Burgers",
          "CategoryRank": 5,
          "SubCategoryID": 2532,
          "SubCategoryName": "Toasted / Grilled / Cooked",
          "SubCategoryRank": 1
        }
      ],
      "Classifications": [],
      "ComplimentaryRecipes": [
        {
          "AverageRating": 0,
          "HasVideo": false,
          "IsHealthyLiving": false,
          "NumberOfRatings": 0,
          "PhotoName": null,
          "PhotoUrl": null,
          "RecipeId": 51858,
          "RecipeName": null,
          "SEOName": "bakers-one-bowl-super-chunk-cookies-51858",
          "ThumbnailPhoto": "BAKERS_ONE_BOWL_Super_Chunk_Cookies.jpg"
        }
      ],
      "CookingMethod": null,
      "Copyright": null,
      "Courses": [
        "Sandwiches"
      ],
      "DietExchange": null,
      "DishDetails": [
        {
          "Text": "ground beef recipes",
          "Url": "/recipes/dinner/ground-beef-recipes/main.aspx"
        },
        {
          "Text": "top 10 beef recipes",
          "Url": "/recipes/dinner/top-10/beef-recipes/main.aspx"
        },
        {
          "Text": "1 bag 5 dinners",
          "Url": "/recipes/dinner/1Bag5Dinners/1bag5dinnerschickenbeef.aspx"
        }
      ],
      "EndDate": "/Date(-62135575200000-0600)/",
      "HasVideo": false,
      "Ingredients": [
        {
          "FullMeasure": "1 lb.",
          "FullWeight": "",
          "IngredientGridHeaders": null,
          "IngredientID": 20536,
          "IngredientName": "lean ground beef",
          "IngredientStep": 10,
          "LanguageId": 0,
          "PostPreparation": "",
          "PrePreparation": "",
          "QuantityNum": 1,
          "QuantityText": "1",
          "QuantityUnit": "lb.",
          "RecipeIngredientID": 6463746,
          "TrialMeasure": "",
          "TrialWeight": ""
        },
        {
          "FullMeasure": "2 tsp.",
          "FullWeight": "",
          "IngredientGridHeaders": null,
          "IngredientID": 762,
          "IngredientName": "LEA & PERRINS Worcestershire Sauce",
          "IngredientStep": 20,
          "LanguageId": 0,
          "PostPreparation": "",
          "PrePreparation": "",
          "QuantityNum": 2,
          "QuantityText": "2",
          "QuantityUnit": "tsp.",
          "RecipeIngredientID": 6463744,
          "TrialMeasure": "",
          "TrialWeight": ""
        },
        {
          "FullMeasure": "4",
          "FullWeight": "",
          "IngredientGridHeaders": null,
          "IngredientID": 19682,
          "IngredientName": "KRAFT DELI DELUXE Process American Cheese Slice",
          "IngredientStep": 30,
          "LanguageId": 0,
          "PostPreparation": "s, cut in half",
          "PrePreparation": "",
          "QuantityNum": 4,
          "QuantityText": "4",
          "QuantityUnit": "",
          "RecipeIngredientID": 6463750,
          "TrialMeasure": "",
          "TrialWeight": ""
        },
        {
          "FullMeasure": "4",
          "FullWeight": "",
          "IngredientGridHeaders": null,
          "IngredientID": 19948,
          "IngredientName": "flour tortillas",
          "IngredientStep": 40,
          "LanguageId": 0,
          "PostPreparation": " (6 inch)",
          "PrePreparation": "",
          "QuantityNum": 4,
          "QuantityText": "4",
          "QuantityUnit": "",
          "RecipeIngredientID": 6463751,
          "TrialMeasure": "",
          "TrialWeight": ""
        },
        {
          "FullMeasure": "1/4  cup",
          "FullWeight": "",
          "IngredientGridHeaders": null,
          "IngredientID": 887,
          "IngredientName": "HEINZ Tomato Ketchup",
          "IngredientStep": 50,
          "LanguageId": 0,
          "PostPreparation": "",
          "PrePreparation": "",
          "QuantityNum": 0,
          "QuantityText": "1/4 ",
          "QuantityUnit": "cup",
          "RecipeIngredientID": 6463747,
          "TrialMeasure": "",
          "TrialWeight": ""
        },
        {
          "FullMeasure": "1 Tbsp.",
          "FullWeight": "",
          "IngredientGridHeaders": null,
          "IngredientID": 1491,
          "IngredientName": "HEINZ Yellow Mustard",
          "IngredientStep": 60,
          "LanguageId": 0,
          "PostPreparation": "",
          "PrePreparation": "",
          "QuantityNum": 1,
          "QuantityText": "1",
          "QuantityUnit": "Tbsp.",
          "RecipeIngredientID": 6463748,
          "TrialMeasure": "",
          "TrialWeight": ""
        },
        {
          "FullMeasure": "4",
          "FullWeight": "",
          "IngredientGridHeaders": null,
          "IngredientID": 1850,
          "IngredientName": "lettuce leaves",
          "IngredientStep": 70,
          "LanguageId": 0,
          "PostPreparation": "",
          "PrePreparation": "",
          "QuantityNum": 4,
          "QuantityText": "4",
          "QuantityUnit": "",
          "RecipeIngredientID": 6463749,
          "TrialMeasure": "",
          "TrialWeight": ""
        },
        {
          "FullMeasure": "1 small",
          "FullWeight": "",
          "IngredientGridHeaders": null,
          "IngredientID": 1702,
          "IngredientName": "tomato",
          "IngredientStep": 80,
          "LanguageId": 0,
          "PostPreparation": ", cut into 4 slices",
          "PrePreparation": "",
          "QuantityNum": 1,
          "QuantityText": "1",
          "QuantityUnit": "small",
          "RecipeIngredientID": 6463745,
          "TrialMeasure": "",
          "TrialWeight": ""
        }
      ],
      "IsHealthyLiving": false,
      "KRLId": "578263",
      "KeyIngredients": [
        "Beef",
        "Cheese",
        "Fruit",
        "Lettuce",
        "Meat",
        "Tomato",
        "Vegetables"
      ],
      "Keywords": "mustard,american cheese,beef,catsup,cheese,ground beef,hamburger meat,KRAFT DELI DELUXE Cheese,lettuce,tomatoes,tortillas,worcestershire sauce,ketchup,cheese slices,Sandwich,Easy,Grilled,Summer,Quesadillas,Dinner,Lunch,BBQ,Quick and Easy",
      "LanguageId": 1,
      "LifeStyles": [],
      "NumberOfIngredients": 8,
      "NumberOfRatings": 0,
      "NumberOfRatingsWithComments": "0",
      "NumberOfServings": "4 servings",
      "NumberOfTrialServings": "",
      "NutritionBonus": null,
      "NutritionExchangeItemId": 0,
      "NutritionGridItems": null,
      "NutritionItems": [
        {
          "DisplayOrder": 1,
          "Document": null,
          "NutritionItemID": 3,
          "NutritionItemName": "Calories",
          "Predriscriptor": "",
          "Quantity": 370,
          "Unit": "          "
        },
        {
          "DisplayOrder": 2,
          "Document": "fat_cholesterol.html",
          "NutritionItemID": 4,
          "NutritionItemName": "Total fat",
          "Predriscriptor": "",
          "Quantity": 18,
          "Unit": "g         "
        },
        {
          "DisplayOrder": 3,
          "Document": "fat_cholesterol.html",
          "NutritionItemID": 9,
          "NutritionItemName": "Saturated fat",
          "Predriscriptor": "",
          "Quantity": 8,
          "Unit": "g         "
        },
        {
          "DisplayOrder": 7,
          "Document": "fat_cholesterol.html",
          "NutritionItemID": 2,
          "NutritionItemName": "Cholesterol",
          "Predriscriptor": "",
          "Quantity": 90,
          "Unit": "mg        "
        },
        {
          "DisplayOrder": 8,
          "Document": "sodium.html",
          "NutritionItemID": 8,
          "NutritionItemName": "Sodium",
          "Predriscriptor": "",
          "Quantity": 830,
          "Unit": "mg        "
        },
        {
          "DisplayOrder": 10,
          "Document": "carbs_sugars_fiber.html",
          "NutritionItemID": 1,
          "NutritionItemName": "Carbohydrate",
          "Predriscriptor": "",
          "Quantity": 22,
          "Unit": "g         "
        },
        {
          "DisplayOrder": 11,
          "Document": "carbs_sugars_fiber.html",
          "NutritionItemID": 7,
          "NutritionItemName": "Dietary fiber",
          "Predriscriptor": "",
          "Quantity": 1,
          "Unit": "g         "
        },
        {
          "DisplayOrder": 12,
          "Document": "carbs_sugars_fiber.html",
          "NutritionItemID": 5,
          "NutritionItemName": "Sugars",
          "Predriscriptor": "",
          "Quantity": 2,
          "Unit": "g         "
        },
        {
          "DisplayOrder": 13,
          "Document": null,
          "NutritionItemID": 6,
          "NutritionItemName": "Protein",
          "Predriscriptor": "",
          "Quantity": 28,
          "Unit": "g         "
        },
        {
          "DisplayOrder": 14,
          "Document": null,
          "NutritionItemID": 10,
          "NutritionItemName": "Vitamin A",
          "Predriscriptor": "",
          "Quantity": 25,
          "Unit": "%DV       "
        },
        {
          "DisplayOrder": 15,
          "Document": null,
          "NutritionItemID": 11,
          "NutritionItemName": "Vitamin C",
          "Predriscriptor": "",
          "Quantity": 6,
          "Unit": "%DV       "
        },
        {
          "DisplayOrder": 16,
          "Document": "dairy_and_calcium.html",
          "NutritionItemID": 12,
          "NutritionItemName": "Calcium",
          "Predriscriptor": "",
          "Quantity": 30,
          "Unit": "%DV       "
        },
        {
          "DisplayOrder": 17,
          "Document": null,
          "NutritionItemID": 13,
          "NutritionItemName": "Iron",
          "Predriscriptor": "",
          "Quantity": 20,
          "Unit": "%DV       "
        }
      ],
      "NutritionServingText": " ",
      "PrepStepImage": null,
      "PreparationDescription": "Mix meat and Worcestershire sauce just until blended; shape into 4 half moon-shaped 4-inch patties. Grill 5 to 6 min. on each side or until done (160ºF).  Remove from grill.$Place 2 cheese pieces on half of each tortilla; top with burger.  Fold tortillas in half; grill 2 min. on each side or until cheese is melted. $Fill quesadillas with remaining ingredients before serving. ",
      "PreparationPreText": "Heat grill to medium heat.",
      "PreparationSteps": [
        {
          "Description": "Mix meat and Worcestershire sauce just until blended; shape into 4 half moon-shaped 4-inch patties. Grill 5 to 6 min. on each side or until done (160ºF).  Remove from grill.",
          "PreparationStepImage": {
            "PictureFormats": [],
            "author": null,
            "id": null,
            "imageType": null,
            "mimeType": null,
            "publicationDate": null,
            "status": null,
            "title": null,
            "type": null
          },
          "Sequence": 1
        },
        {
          "Description": "Place 2 cheese pieces on half of each tortilla; top with burger.  Fold tortillas in half; grill 2 min. on each side or until cheese is melted. ",
          "PreparationStepImage": {
            "PictureFormats": [],
            "author": null,
            "id": null,
            "imageType": null,
            "mimeType": null,
            "publicationDate": null,
            "status": null,
            "title": null,
            "type": null
          },
          "Sequence": 2
        },
        {
          "Description": "Fill quesadillas with remaining ingredients before serving. ",
          "PreparationStepImage": {
            "PictureFormats": [],
            "author": null,
            "id": null,
            "imageType": null,
            "mimeType": null,
            "publicationDate": null,
            "status": null,
            "title": null,
            "type": null
          },
          "Sequence": 3
        }
      ],
      "PreparationTime": 25,
      "Promotion": null,
      "Ratings": {
        "TotalCount": 0,
        "PageCount": 10,
        "PageNo": 1,
        "Rating": []
      },
      "RecipeDisplayFormatId": 5,
      "RecipeId": 197825,
      "RecipeName": "Grilled Cheeseburger Quesadilla",
      "RecipeType": 0,
      "RelatedData": {
        "RelatedBrands": null,
        "RelatedProducts": null,
        "RelatedRecipes": {
          "DefaultTopCount": 5,
          "Recipe": [
            {
              "AverageRating": 4,
              "HasVideo": false,
              "IsHealthyLiving": false,
              "NumberOfRatings": 9,
              "PhotoName": "Grilled_Taco_Cheeseburgers.jpg",
              "PhotoUrl": "http://assets.kraftfoods.com/recipe_images/opendeploy/Grilled_Taco_Cheeseburgers.jpg",
              "RecipeId": 52368,
              "RecipeName": "Grilled Taco Cheeseburgers",
              "SEOName": "grilled-taco-cheeseburgers-52368",
              "ThumbnailPhoto": null
            },
            {
              "AverageRating": 4,
              "HasVideo": false,
              "IsHealthyLiving": false,
              "NumberOfRatings": 8,
              "PhotoName": "The_Super_BBQ_Cheeseburger.jpg",
              "PhotoUrl": "http://assets.kraftfoods.com/recipe_images/opendeploy/The_Super_BBQ_Cheeseburger.jpg",
              "RecipeId": 57423,
              "RecipeName": "The Super BBQ Cheeseburger",
              "SEOName": "the-super-bbq-cheeseburger-57423",
              "ThumbnailPhoto": null
            },
            {
              "AverageRating": 5,
              "HasVideo": false,
              "IsHealthyLiving": false,
              "NumberOfRatings": 2,
              "PhotoName": "179725.jpg",
              "PhotoUrl": "http://assets.kraftfoods.com/recipe_images/opendeploy/179725.jpg",
              "RecipeId": 179725,
              "RecipeName": "Ultimate Bacon Cheeseburger",
              "SEOName": "ultimate-bacon-cheeseburger-179725",
              "ThumbnailPhoto": null
            },
            {
              "AverageRating": 5,
              "HasVideo": false,
              "IsHealthyLiving": false,
              "NumberOfRatings": 5,
              "PhotoName": "opendeploy/562619_1_1_retail-490895db479d537722cad69792492a0ea434e272_306x204.jpg",
              "PhotoUrl": "http://assets.kraftfoods.com/recipe_images/opendeploy/opendeploy/562619_1_1_retail-490895db479d537722cad69792492a0ea434e272_306x204.jpg",
              "RecipeId": 114504,
              "RecipeName": "Cabo Beach Cheeseburger",
              "SEOName": "cabo-beach-cheeseburger-114504",
              "ThumbnailPhoto": null
            },
            {
              "AverageRating": 4.3,
              "HasVideo": false,
              "IsHealthyLiving": false,
              "NumberOfRatings": 39,
              "PhotoName": "92198.jpg",
              "PhotoUrl": "http://assets.kraftfoods.com/recipe_images/opendeploy/92198.jpg",
              "RecipeId": 92198,
              "RecipeName": "Steakhouse Cheeseburgers",
              "SEOName": "steakhouse-cheeseburgers-92198",
              "ThumbnailPhoto": null
            }
          ],
          "TotalCount": 953
        }
      },
      "RiseIngredients": [],
      "RiseTaxonomy": [],
      "Riserecipe": [
        {
          "GRIN": 578263,
          "RecipeId": 197825,
          "RecipeIndustrySector": "Retail",
          "RecipeType": "Internal"
        }
      ],
      "RomanceText": "",
      "SEOName": "grilled-cheeseburger-quesadilla-197825",
      "Tips": [
        {
          "RecipeId": 197825,
          "Sequence": 10,
          "TipDescription": "For a touch of heat, prepare using HEINZ Ketchup Blended with Real Jalapeño.",
          "TipID": 1,
          "TipName": "Special Extra"
        },
        {
          "RecipeId": 197825,
          "Sequence": 20,
          "TipDescription": "Prepare using KRAFT 2% Milk Singles.",
          "TipID": 2,
          "TipName": "Substitute"
        }
      ],
      "TotalTime": 25,
      "TradeMarkInfo": null,
      "Video": [],
      "Yield": "4 servings"
    }
  ]
}