{
  "Metadata": {
    "PageCount": 1,
    "PageNo": 0,
    "TotalCount": 0
  },
  "Recipes": [
    {
      "AdServingKeywords": "Dessert,Coffee,Dairy,Easy,Nutrition and Well-Being,Refrigerated Dessert,All Seasons,Cool Whip,Knox,Maxwell House",
      "AlternateLanguageRecipes": [],
      "Assets": [
        {
          "PictureFormats": [
            {
              "rendition": "300x200",
              "url": "http://assets.kraftfoods.com/recipe_images/Cafe_Au_Lait_Parfait.jpg"
            }
          ],
          "author": null,
          "id": "0",
          "imageType": "LANDSCAPE",
          "mimeType": null,
          "publicationDate": null,
          "status": "1",
          "title": "Cafe_Au_Lait_Parfait.jpg",
          "type": "image"
        }
      ],
      "AverageRating": 3.8,
      "BrandId": 60,
      "Branding": null,
      "CSSSkins": null,
      "CarbCounter": "",
      "Categories": [
        {
          "CategoryID": 3,
          "CategoryName": "Cookies/Candy/Other Desserts",
          "CategoryRank": 6,
          "SubCategoryID": 369,
          "SubCategoryName": "Parfaits",
          "SubCategoryRank": 160
        },
        {
          "CategoryID": 11,
          "CategoryName": "Primary",
          "CategoryRank": 0,
          "SubCategoryID": 103,
          "SubCategoryName": "Desserts",
          "SubCategoryRank": 40
        },
        {
          "CategoryID": 759,
          "CategoryName": "Desserts",
          "CategoryRank": 13,
          "SubCategoryID": 2577,
          "SubCategoryName": "Cold / Gelatine",
          "SubCategoryRank": 1
        }
      ],
      "Classifications": [
        {
          "ClassficationId": 9,
          "ClassificationName": "Low fat"
        },
        {
          "ClassficationId": 14,
          "ClassificationName": "Generally Nutritious"
        },
        {
          "ClassficationId": 22,
          "ClassificationName": "Low sodium"
        }
      ],
      "ComplimentaryRecipes": null,
      "CookingMethod": null,
      "Copyright": null,
      "Courses": [
        "Desserts"
      ],
      "DietExchange": "2 Carbohydrate,1/2 Fat",
      "DishDetails": [
        {
          "Text": "desserts",
          "Url": "/recipes/dessert/main.aspx"
        },
        {
          "Text": "fruity desserts",
          "Url": "/recipes/dessert/fruitydesserts.aspx"
        },
        {
          "Text": "gelatin desserts",
          "Url": "/recipes/dessert/gelatindesserts.aspx"
        },
        {
          "Text": "layered desserts",
          "Url": "/recipes/dessert/layereddesserts.aspx"
        },
        {
          "Text": "brownie recipes",
          "Url": "/recipes/dessert/brownie-recipes/main.aspx"
        },
        {
          "Text": "budget desserts",
          "Url": "/recipes/budget/budget-desserts.aspx"
        },
        {
          "Text": "no bake desserts",
          "Url": "/recipes/dessert/nobakedesserts.aspx"
        },
        {
          "Text": "pumpkin recipes",
          "Url": "/recipes/dessert/pumpkin-recipes.aspx"
        },
        {
          "Text": "chocolate cake recipes",
          "Url": "/recipes/dessert/chocolate-cake-recipes/main.aspx"
        },
        {
          "Text": "cheesecake recipes",
          "Url": "/recipes/dessert/cheesecake-center/cheesecake-recipes/main.aspx"
        },
        {
          "Text": "chocolate lovers recipes",
          "Url": "/recipes/dessert/chocolate-center/chocolateloversrecipes.aspx"
        },
        {
          "Text": "classic desserts",
          "Url": "/recipes/dessert/classicdesserts.aspx"
        },
        {
          "Text": "cookie ball recipes",
          "Url": "/recipes/dessert/cookie-ball-recipes/main.aspx"
        },
        {
          "Text": "cookie recipes",
          "Url": "/recipes/dessert/cookie-recipes/main.aspx"
        },
        {
          "Text": "cupcake recipes",
          "Url": "/recipes/dessert/cupcake-recipes/main.aspx"
        },
        {
          "Text": "healthy living desserts",
          "Url": "/healthy-living-ideas/diabetes-center/recipes/dessert-recipes.aspx"
        }
      ],
      "EndDate": "/Date(-62135575200000-0600)/",
      "HasVideo": false,
      "Ingredients": [
        {
          "FullMeasure": "2 env.",
          "FullWeight": "",
          "IngredientGridHeaders": null,
          "IngredientID": 5594,
          "IngredientName": "KNOX Unflavored Gelatine",
          "IngredientStep": 10,
          "LanguageId": 0,
          "PostPreparation": "",
          "PrePreparation": "",
          "QuantityNum": 2,
          "QuantityText": "2",
          "QuantityUnit": "env.",
          "RecipeIngredientID": 2701816,
          "TrialMeasure": "",
          "TrialWeight": ""
        },
        {
          "FullMeasure": "3/4   cup",
          "FullWeight": "",
          "IngredientGridHeaders": null,
          "IngredientID": 1070,
          "IngredientName": "fat-free evaporated milk",
          "IngredientStep": 20,
          "LanguageId": 0,
          "PostPreparation": "",
          "PrePreparation": "",
          "QuantityNum": 0,
          "QuantityText": "3/4  ",
          "QuantityUnit": "cup",
          "RecipeIngredientID": 2701813,
          "TrialMeasure": "",
          "TrialWeight": ""
        },
        {
          "FullMeasure": "1-1/2 cups",
          "FullWeight": "",
          "IngredientGridHeaders": null,
          "IngredientID": 537,
          "IngredientName": "MAXWELL HOUSE Coffee",
          "IngredientStep": 30,
          "LanguageId": 0,
          "PostPreparation": "",
          "PrePreparation": "hot brewed",
          "QuantityNum": 1,
          "QuantityText": "1-1/2",
          "QuantityUnit": "cups",
          "RecipeIngredientID": 2701814,
          "TrialMeasure": "",
          "TrialWeight": ""
        },
        {
          "FullMeasure": "1/2   cup",
          "FullWeight": "",
          "IngredientGridHeaders": null,
          "IngredientID": 1845,
          "IngredientName": "sugar",
          "IngredientStep": 40,
          "LanguageId": 0,
          "PostPreparation": "",
          "PrePreparation": "",
          "QuantityNum": 0,
          "QuantityText": "1/2  ",
          "QuantityUnit": "cup",
          "RecipeIngredientID": 2701811,
          "TrialMeasure": "",
          "TrialWeight": ""
        },
        {
          "FullMeasure": "1/4   cup",
          "FullWeight": "",
          "IngredientGridHeaders": null,
          "IngredientID": 7466,
          "IngredientName": "unsweetened cocoa powder",
          "IngredientStep": 50,
          "LanguageId": 0,
          "PostPreparation": "",
          "PrePreparation": "",
          "QuantityNum": 0,
          "QuantityText": "1/4  ",
          "QuantityUnit": "cup",
          "RecipeIngredientID": 2701818,
          "TrialMeasure": "",
          "TrialWeight": ""
        },
        {
          "FullMeasure": "1-1/2 tsp.",
          "FullWeight": "",
          "IngredientGridHeaders": null,
          "IngredientID": 1731,
          "IngredientName": "vanilla",
          "IngredientStep": 60,
          "LanguageId": 0,
          "PostPreparation": "",
          "PrePreparation": "",
          "QuantityNum": 1,
          "QuantityText": "1-1/2",
          "QuantityUnit": "tsp.",
          "RecipeIngredientID": 2701815,
          "TrialMeasure": "",
          "TrialWeight": ""
        },
        {
          "FullMeasure": "1-1/4 cups",
          "FullWeight": "",
          "IngredientGridHeaders": null,
          "IngredientID": 1258,
          "IngredientName": "ice cubes",
          "IngredientStep": 70,
          "LanguageId": 0,
          "PostPreparation": "",
          "PrePreparation": "",
          "QuantityNum": 1,
          "QuantityText": "1-1/4",
          "QuantityUnit": "cups",
          "RecipeIngredientID": 2701812,
          "TrialMeasure": "",
          "TrialWeight": ""
        },
        {
          "FullMeasure": "1 cup",
          "FullWeight": "",
          "IngredientGridHeaders": null,
          "IngredientID": 138,
          "IngredientName": "COOL WHIP LITE Whipped Topping",
          "IngredientStep": 80,
          "LanguageId": 0,
          "PostPreparation": "",
          "PrePreparation": "thawed",
          "QuantityNum": 1,
          "QuantityText": "1",
          "QuantityUnit": "cup",
          "RecipeIngredientID": 2701817,
          "TrialMeasure": "",
          "TrialWeight": ""
        }
      ],
      "IsHealthyLiving": true,
      "KRLId": "507719",
      "KeyIngredients": [
        "Coffee",
        "Dairy"
      ],
      "Keywords": "cocoa,coffee,COOL WHIP LITE,evaporated milk,extract,MAXWELL HOUSE Coffees,milk,sugar,vanilla,whipped topping-reduced fat,gelatin-unflavored,KNOX Unflavored Gelatine,Dessert,Easy,Nutrition and Well-Being,All Seasons,Refrigerated Dessert",
      "LanguageId": 1,
      "LifeStyles": [
        "Low fat",
        "Generally Nutritious",
        "Low sodium"
      ],
      "NumberOfIngredients": 8,
      "NumberOfRatings": 4,
      "NumberOfRatingsWithComments": "4",
      "NumberOfServings": "6 servings, about 3/4 cup each",
      "NumberOfTrialServings": "",
      "NutritionBonus": "Looking for something sweet that fits into a healthful eating plan?  This delicious low-fat mocha dessert is sure to win raves from all your guests.",
      "NutritionExchangeItemId": 1,
      "NutritionGridItems": null,
      "NutritionItems": [
        {
          "DisplayOrder": 1,
          "Document": null,
          "NutritionItemID": 3,
          "NutritionItemName": "Calories",
          "Predriscriptor": "",
          "Quantity": 130,
          "Unit": "          "
        },
        {
          "DisplayOrder": 2,
          "Document": "fat_cholesterol.html",
          "NutritionItemID": 4,
          "NutritionItemName": "Total fat",
          "Predriscriptor": "",
          "Quantity": 2,
          "Unit": "g         "
        },
        {
          "DisplayOrder": 3,
          "Document": "fat_cholesterol.html",
          "NutritionItemID": 9,
          "NutritionItemName": "Saturated fat",
          "Predriscriptor": "",
          "Quantity": 2,
          "Unit": "g         "
        },
        {
          "DisplayOrder": 7,
          "Document": "fat_cholesterol.html",
          "NutritionItemID": 2,
          "NutritionItemName": "Cholesterol",
          "Predriscriptor": "",
          "Quantity": 0,
          "Unit": "mg        "
        },
        {
          "DisplayOrder": 8,
          "Document": "sodium.html",
          "NutritionItemID": 8,
          "NutritionItemName": "Sodium",
          "Predriscriptor": "",
          "Quantity": 50,
          "Unit": "mg        "
        },
        {
          "DisplayOrder": 10,
          "Document": "carbs_sugars_fiber.html",
          "NutritionItemID": 1,
          "NutritionItemName": "Carbohydrate",
          "Predriscriptor": "",
          "Quantity": 26,
          "Unit": "g         "
        },
        {
          "DisplayOrder": 11,
          "Document": "carbs_sugars_fiber.html",
          "NutritionItemID": 7,
          "NutritionItemName": "Dietary fiber",
          "Predriscriptor": "",
          "Quantity": 1,
          "Unit": "g         "
        },
        {
          "DisplayOrder": 12,
          "Document": "carbs_sugars_fiber.html",
          "NutritionItemID": 5,
          "NutritionItemName": "Sugars",
          "Predriscriptor": "",
          "Quantity": 22,
          "Unit": "g         "
        },
        {
          "DisplayOrder": 13,
          "Document": null,
          "NutritionItemID": 6,
          "NutritionItemName": "Protein",
          "Predriscriptor": "",
          "Quantity": 5,
          "Unit": "g         "
        },
        {
          "DisplayOrder": 14,
          "Document": null,
          "NutritionItemID": 10,
          "NutritionItemName": "Vitamin A",
          "Predriscriptor": "",
          "Quantity": 4,
          "Unit": "%DV       "
        },
        {
          "DisplayOrder": 15,
          "Document": null,
          "NutritionItemID": 11,
          "NutritionItemName": "Vitamin C",
          "Predriscriptor": "",
          "Quantity": 0,
          "Unit": "%DV       "
        },
        {
          "DisplayOrder": 16,
          "Document": "dairy_and_calcium.html",
          "NutritionItemID": 12,
          "NutritionItemName": "Calcium",
          "Predriscriptor": "",
          "Quantity": 10,
          "Unit": "%DV       "
        },
        {
          "DisplayOrder": 17,
          "Document": null,
          "NutritionItemID": 13,
          "NutritionItemName": "Iron",
          "Predriscriptor": "",
          "Quantity": 4,
          "Unit": "%DV       "
        }
      ],
      "NutritionServingText": "",
      "PrepStepImage": null,
      "PreparationDescription": "Sprinkle gelatine over milk in blender container; let stand 1 min.$Add coffee; blend on low speed 2 min. or until gelatine is completely dissolved.  Add sugar, cocoa powder and vanilla; blend until smooth.  Add ice cubes, 1 at a time, blending on high speed after each until ice is melted.  Pour into 6 parfait glasses.  $Refrigerate 2 hours or until firm.  Top with COOL WHIP just before serving.",
      "PreparationPreText": "",
      "PreparationSteps": [
        {
          "Description": "Sprinkle gelatine over milk in blender container; let stand 1 min.",
          "PreparationStepImage": {
            "PictureFormats": [],
            "author": null,
            "id": null,
            "imageType": null,
            "mimeType": null,
            "publicationDate": null,
            "status": null,
            "title": null,
            "type": null
          },
          "Sequence": 1
        },
        {
          "Description": "Add coffee; blend on low speed 2 min. or until gelatine is completely dissolved.  Add sugar, cocoa powder and vanilla; blend until smooth.  Add ice cubes, 1 at a time, blending on high speed after each until ice is melted.  Pour into 6 parfait glasses.  ",
          "PreparationStepImage": {
            "PictureFormats": [],
            "author": null,
            "id": null,
            "imageType": null,
            "mimeType": null,
            "publicationDate": null,
            "status": null,
            "title": null,
            "type": null
          },
          "Sequence": 2
        },
        {
          "Description": "Refrigerate 2 hours or until firm.  Top with COOL WHIP just before serving.",
          "PreparationStepImage": {
            "PictureFormats": [],
            "author": null,
            "id": null,
            "imageType": null,
            "mimeType": null,
            "publicationDate": null,
            "status": null,
            "title": null,
            "type": null
          },
          "Sequence": 3
        }
      ],
      "PreparationTime": 20,
      "Promotion": null,
      "Ratings": {
        "TotalCount": 4,
        "PageCount": 10,
        "PageNo": 1,
        "Rating": [
          {
            "Comment": "I've made this recipe several times using less sweetener than called for and it was delicious.  You could also use a no cal sweetener such as splenda instead of sugar.",
            "DisplayName": false,
            "RatingValue": 5,
            "SubmitDate": "/Date(1305922521000-0500)/",
            "UpdatedDate": "/Date(1305923354000-0500)/",
            "UserName": "clair09"
          },
          {
            "Comment": "This dessert looked very pretty, but did not taste good at all - too bitter for my taste.  I'm glad I tested it out before I made it for guests.",
            "DisplayName": true,
            "RatingValue": 1,
            "SubmitDate": "/Date(1186356085000-0500)/",
            "UpdatedDate": "/Date(1186356085000-0500)/",
            "UserName": "sweeneyca32"
          },
          {
            "Comment": "It sounds great!  I'm always looking for something different to serve at cards.",
            "DisplayName": false,
            "RatingValue": 5,
            "SubmitDate": "/Date(1131235241000-0500)/",
            "UpdatedDate": "/Date(1131235241000-0500)/",
            "UserName": "Mandy Girl"
          },
          {
            "Comment": "This recipe sounds delicious and quick and easy to make. Great for company and family",
            "DisplayName": false,
            "RatingValue": 4,
            "SubmitDate": "/Date(1054503350000-0500)/",
            "UpdatedDate": "/Date(1054503350000-0500)/",
            "UserName": "M. Cissie"
          }
        ]
      },
      "RecipeDisplayFormatId": 5,
      "RecipeId": 55426,
      "RecipeName": "Cafe au Lait Parfait",
      "RecipeType": 0,
      "RelatedData": {
        "RelatedBrands": null,
        "RelatedProducts": null,
        "RelatedRecipes": {
          "DefaultTopCount": 5,
          "Recipe": [
            {
              "AverageRating": 4,
              "HasVideo": false,
              "IsHealthyLiving": true,
              "NumberOfRatings": 2,
              "PhotoName": "Black_Forest_Parfait.jpg",
              "PhotoUrl": "http://assets.kraftfoods.com/recipe_images/opendeploy/Black_Forest_Parfait.jpg",
              "RecipeId": 54897,
              "RecipeName": "Black Forest Parfait",
              "SEOName": "black-forest-parfait-54897",
              "ThumbnailPhoto": null
            },
            {
              "AverageRating": 4.3,
              "HasVideo": false,
              "IsHealthyLiving": true,
              "NumberOfRatings": 3,
              "PhotoName": "53383.jpg",
              "PhotoUrl": "http://assets.kraftfoods.com/recipe_images/opendeploy/53383.jpg",
              "RecipeId": 53383,
              "RecipeName": "Paradise Parfaits",
              "SEOName": "paradise-parfaits-53383",
              "ThumbnailPhoto": null
            },
            {
              "AverageRating": 4,
              "HasVideo": true,
              "IsHealthyLiving": false,
              "NumberOfRatings": 6,
              "PhotoName": "154943.jpg",
              "PhotoUrl": "http://assets.kraftfoods.com/recipe_images/opendeploy/154943.jpg",
              "RecipeId": 154943,
              "RecipeName": "Caramel-Macchiato Tiramisu Parfaits",
              "SEOName": "caramel-macchiato-tiramisu-parfaits-154943",
              "ThumbnailPhoto": null
            },
            {
              "AverageRating": 4.3,
              "HasVideo": false,
              "IsHealthyLiving": true,
              "NumberOfRatings": 42,
              "PhotoName": "107304.jpg",
              "PhotoUrl": "http://assets.kraftfoods.com/recipe_images/opendeploy/107304.jpg",
              "RecipeId": 107304,
              "RecipeName": "Chocolate, Strawberry & Cookie Parfaits",
              "SEOName": "chocolate-strawberry-cookie-parfaits-107304",
              "ThumbnailPhoto": null
            },
            {
              "AverageRating": 4,
              "HasVideo": false,
              "IsHealthyLiving": false,
              "NumberOfRatings": 6,
              "PhotoName": "Creamy_Mocha_Berry_Parfait.jpg",
              "PhotoUrl": "http://assets.kraftfoods.com/recipe_images/opendeploy/Creamy_Mocha_Berry_Parfait.jpg",
              "RecipeId": 90520,
              "RecipeName": "Creamy Mocha Berry Parfait",
              "SEOName": "creamy-mocha-berry-parfait-90520",
              "ThumbnailPhoto": null
            }
          ],
          "TotalCount": 127
        }
      },
      "RiseIngredients": [],
      "RiseTaxonomy": [],
      "Riserecipe": [],
      "RomanceText": "A classic milky coffee drink is blended with vanilla, cocoa and unflavored gelatin then chilled in parfait glasses for a luscious mocha dessert.",
      "SEOName": "cafe-au-lait-parfait-55426",
      "Tips": [
        {
          "RecipeId": 55426,
          "Sequence": 10,
          "TipDescription": "Garnish with cinnamon sticks and shaved BAKER'S Chocolate just before serving.",
          "TipID": 1,
          "TipName": "Special Extra"
        },
        {
          "RecipeId": 55426,
          "Sequence": 20,
          "TipDescription": "Cover and refrigerate remaining evaporated milk. Use instead of milk when preparing your favorite dessert. ",
          "TipID": 2,
          "TipName": "Creative Leftovers"
        }
      ],
      "TotalTime": 140,
      "TradeMarkInfo": null,
      "Video": [],
      "Yield": "6 servings, about 3/4 cup each"
    }
  ]
}