{
  "Metadata": {
    "PageCount": 1,
    "PageNo": 0,
    "TotalCount": 0
  },
  "Recipes": [
    {
      "AdServingKeywords": "Entree,Bacon,Cheese,Colby,Eggs,Meat,Monterey Jack,Peppers,Breakfast/Brunch,Quesadillas,All Seasons,Kraft Cheese,Kraft Shredded Cheese,Oscar Mayer",
      "AlternateLanguageRecipes": [],
      "Assets": [],
      "AverageRating": 4,
      "BrandId": 1,
      "Branding": null,
      "CSSSkins": null,
      "CarbCounter": null,
      "Categories": [
        {
          "CategoryID": 1,
          "CategoryName": "Breakfast/Brunch",
          "CategoryRank": 4,
          "SubCategoryID": 137,
          "SubCategoryName": "Sandwiches/Breakfast Bars",
          "SubCategoryRank": 60
        },
        {
          "CategoryID": 11,
          "CategoryName": "Primary",
          "CategoryRank": 0,
          "SubCategoryID": 97,
          "SubCategoryName": "Entrees",
          "SubCategoryRank": 50
        },
        {
          "CategoryID": 750,
          "CategoryName": "Breakfast, Brunch & Lunch",
          "CategoryRank": 4,
          "SubCategoryID": 2529,
          "SubCategoryName": "Savoury",
          "SubCategoryRank": 1
        },
        {
          "CategoryID": 751,
          "CategoryName": "Breads, Sandwiches, Wraps & Burgers",
          "CategoryRank": 5,
          "SubCategoryID": 2531,
          "SubCategoryName": "Fresh",
          "SubCategoryRank": 1
        },
        {
          "CategoryID": 751,
          "CategoryName": "Breads, Sandwiches, Wraps & Burgers",
          "CategoryRank": 5,
          "SubCategoryID": 2532,
          "SubCategoryName": "Toasted / Grilled / Cooked",
          "SubCategoryRank": 1
        },
        {
          "CategoryID": 751,
          "CategoryName": "Breads, Sandwiches, Wraps & Burgers",
          "CategoryRank": 5,
          "SubCategoryID": 2533,
          "SubCategoryName": "Specialty",
          "SubCategoryRank": 1
        }
      ],
      "Classifications": [],
      "ComplimentaryRecipes": [
        {
          "AverageRating": 0,
          "HasVideo": false,
          "IsHealthyLiving": false,
          "NumberOfRatings": 0,
          "PhotoName": null,
          "PhotoUrl": null,
          "RecipeId": 54971,
          "RecipeName": null,
          "SEOName": "cafe-latte-54971",
          "ThumbnailPhoto": "opendeploy/506280_1_1_retail-293f074ec98319cec371410c65190f820308d56c_306x204.jpg"
        }
      ],
      "CookingMethod": null,
      "Copyright": null,
      "Courses": [
        "Breakfast/brunch"
      ],
      "DietExchange": null,
      "DishDetails": [
        {
          "Text": "breakfast and brunch",
          "Url": "/recipes/breakfast-and-brunch/main.aspx"
        },
        {
          "Text": "kid friendly breakfasts",
          "Url": "/recipes/kid-friendly/getgoingbreakfasts.aspx"
        },
        {
          "Text": "kraft kitchen favorites",
          "Url": "/recipes/breakfast-and-brunch/kke-favorites.aspx"
        },
        {
          "Text": "pancake recipes",
          "Url": "/recipes/breakfast-and-brunch/pancake-recipes/main.aspx"
        },
        {
          "Text": "all about eggs",
          "Url": "/recipes/breakfast-and-brunch/all-about-eggs.aspx"
        },
        {
          "Text": "banana bread recipes",
          "Url": "/recipes/breakfast-and-brunch/banana-bread/main.aspx"
        },
        {
          "Text": "healthy living breakfast recipes",
          "Url": "/healthy-living-ideas/diabetes-center/recipes/breakfast-recipes.aspx"
        },
        {
          "Text": "breakfast sandwiches",
          "Url": "/recipes/sandwich-recipes/breakfast-sandwiches.aspx"
        }
      ],
      "EndDate": "/Date(-62135575200000-0600)/",
      "HasVideo": false,
      "Ingredients": [
        {
          "FullMeasure": "1",
          "FullWeight": "",
          "IngredientGridHeaders": null,
          "IngredientID": 1060,
          "IngredientName": "egg",
          "IngredientStep": 10,
          "LanguageId": 0,
          "PostPreparation": "",
          "PrePreparation": "",
          "QuantityNum": 1,
          "QuantityText": "1",
          "QuantityUnit": "",
          "RecipeIngredientID": 4172299,
          "TrialMeasure": "",
          "TrialWeight": ""
        },
        {
          "FullMeasure": "2 slices",
          "FullWeight": "",
          "IngredientGridHeaders": null,
          "IngredientID": 19198,
          "IngredientName": "OSCAR MAYER Fully Cooked Thick Cut Bacon",
          "IngredientStep": 20,
          "LanguageId": 0,
          "PostPreparation": ", cut into 1/2-inch pieces",
          "PrePreparation": "",
          "QuantityNum": 2,
          "QuantityText": "2",
          "QuantityUnit": "slices",
          "RecipeIngredientID": 4172302,
          "TrialMeasure": "",
          "TrialWeight": ""
        },
        {
          "FullMeasure": "1  Tbsp.",
          "FullWeight": "",
          "IngredientGridHeaders": null,
          "IngredientID": 1206,
          "IngredientName": "green pepper",
          "IngredientStep": 30,
          "LanguageId": 0,
          "PostPreparation": "s",
          "PrePreparation": "chopped mixed red and ",
          "QuantityNum": 1,
          "QuantityText": "1 ",
          "QuantityUnit": "Tbsp.",
          "RecipeIngredientID": 4172298,
          "TrialMeasure": "",
          "TrialWeight": ""
        },
        {
          "FullMeasure": "1",
          "FullWeight": "",
          "IngredientGridHeaders": null,
          "IngredientID": 1082,
          "IngredientName": "flour tortilla",
          "IngredientStep": 40,
          "LanguageId": 0,
          "PostPreparation": " (6 inch)",
          "PrePreparation": "",
          "QuantityNum": 1,
          "QuantityText": "1",
          "QuantityUnit": "",
          "RecipeIngredientID": 4172300,
          "TrialMeasure": "",
          "TrialWeight": ""
        },
        {
          "FullMeasure": "2 Tbsp.",
          "FullWeight": "",
          "IngredientGridHeaders": null,
          "IngredientID": 474,
          "IngredientName": "KRAFT 2% Milk Shredded Colby & Monterey Jack Cheeses",
          "IngredientStep": 50,
          "LanguageId": 0,
          "PostPreparation": "",
          "PrePreparation": "",
          "QuantityNum": 2,
          "QuantityText": "2",
          "QuantityUnit": "Tbsp.",
          "RecipeIngredientID": 4172301,
          "TrialMeasure": "",
          "TrialWeight": ""
        }
      ],
      "IsHealthyLiving": false,
      "KRLId": "552710",
      "KeyIngredients": [
        "Bacon",
        "Cheese",
        "Eggs",
        "Meat",
        "Peppers"
      ],
      "Keywords": "OSCAR MAYER,OSCAR MAYER Bacon,peppers,pork,bacon,colby cheese,eggs,green peppers,meat,Monterey Jack cheese,tortillas,bell peppers,cheese-reduced fat,2% milk,Entree,All Seasons,Breakfast/Brunch,Quesadillas",
      "LanguageId": 1,
      "LifeStyles": [],
      "NumberOfIngredients": 5,
      "NumberOfRatings": 4,
      "NumberOfRatingsWithComments": "2",
      "NumberOfServings": "1 serving",
      "NumberOfTrialServings": "",
      "NutritionBonus": null,
      "NutritionExchangeItemId": 0,
      "NutritionGridItems": null,
      "NutritionItems": [
        {
          "DisplayOrder": 1,
          "Document": null,
          "NutritionItemID": 3,
          "NutritionItemName": "Calories",
          "Predriscriptor": "",
          "Quantity": 260,
          "Unit": "          "
        },
        {
          "DisplayOrder": 2,
          "Document": "fat_cholesterol.html",
          "NutritionItemID": 4,
          "NutritionItemName": "Total fat",
          "Predriscriptor": "",
          "Quantity": 14,
          "Unit": "g         "
        },
        {
          "DisplayOrder": 3,
          "Document": "fat_cholesterol.html",
          "NutritionItemID": 9,
          "NutritionItemName": "Saturated fat",
          "Predriscriptor": "",
          "Quantity": 5,
          "Unit": "g         "
        },
        {
          "DisplayOrder": 7,
          "Document": "fat_cholesterol.html",
          "NutritionItemID": 2,
          "NutritionItemName": "Cholesterol",
          "Predriscriptor": "",
          "Quantity": 210,
          "Unit": "mg        "
        },
        {
          "DisplayOrder": 8,
          "Document": "sodium.html",
          "NutritionItemID": 8,
          "NutritionItemName": "Sodium",
          "Predriscriptor": "",
          "Quantity": 630,
          "Unit": "mg        "
        },
        {
          "DisplayOrder": 10,
          "Document": "carbs_sugars_fiber.html",
          "NutritionItemID": 1,
          "NutritionItemName": "Carbohydrate",
          "Predriscriptor": "",
          "Quantity": 16,
          "Unit": "g         "
        },
        {
          "DisplayOrder": 11,
          "Document": "carbs_sugars_fiber.html",
          "NutritionItemID": 7,
          "NutritionItemName": "Dietary fiber",
          "Predriscriptor": "",
          "Quantity": 1,
          "Unit": "g         "
        },
        {
          "DisplayOrder": 12,
          "Document": "carbs_sugars_fiber.html",
          "NutritionItemID": 5,
          "NutritionItemName": "Sugars",
          "Predriscriptor": "Less than",
          "Quantity": 1,
          "Unit": "g         "
        },
        {
          "DisplayOrder": 13,
          "Document": null,
          "NutritionItemID": 6,
          "NutritionItemName": "Protein",
          "Predriscriptor": "",
          "Quantity": 17,
          "Unit": "g         "
        },
        {
          "DisplayOrder": 14,
          "Document": null,
          "NutritionItemID": 10,
          "NutritionItemName": "Vitamin A",
          "Predriscriptor": "",
          "Quantity": 15,
          "Unit": "%DV       "
        },
        {
          "DisplayOrder": 15,
          "Document": null,
          "NutritionItemID": 11,
          "NutritionItemName": "Vitamin C",
          "Predriscriptor": "",
          "Quantity": 10,
          "Unit": "%DV       "
        },
        {
          "DisplayOrder": 16,
          "Document": "dairy_and_calcium.html",
          "NutritionItemID": 12,
          "NutritionItemName": "Calcium",
          "Predriscriptor": "",
          "Quantity": 25,
          "Unit": "%DV       "
        },
        {
          "DisplayOrder": 17,
          "Document": null,
          "NutritionItemID": 13,
          "NutritionItemName": "Iron",
          "Predriscriptor": "",
          "Quantity": 10,
          "Unit": "%DV       "
        }
      ],
      "NutritionServingText": "",
      "PrepStepImage": null,
      "PreparationDescription": "Beat egg in small microwaveable bowl.  Stir in bacon and peppers. Microwave on HIGH 1 min. or until egg is set and no visible liquid remains, stirring every 30 sec.$Place tortilla in skillet; spoon egg mixture onto half the tortilla.  Top with cheese; cook on medium heat 2 to 3 min. or until bottom of tortilla is lightly browned and cheese is melted.$Fold tortilla in half to serve.  ",
      "PreparationPreText": "",
      "PreparationSteps": [
        {
          "Description": "Beat egg in small microwaveable bowl.  Stir in bacon and peppers. Microwave on HIGH 1 min. or until egg is set and no visible liquid remains, stirring every 30 sec.",
          "PreparationStepImage": {
            "PictureFormats": [],
            "author": null,
            "id": null,
            "imageType": null,
            "mimeType": null,
            "publicationDate": null,
            "status": null,
            "title": null,
            "type": null
          },
          "Sequence": 1
        },
        {
          "Description": "Place tortilla in skillet; spoon egg mixture onto half the tortilla.  Top with cheese; cook on medium heat 2 to 3 min. or until bottom of tortilla is lightly browned and cheese is melted.",
          "PreparationStepImage": {
            "PictureFormats": [],
            "author": null,
            "id": null,
            "imageType": null,
            "mimeType": null,
            "publicationDate": null,
            "status": null,
            "title": null,
            "type": null
          },
          "Sequence": 2
        },
        {
          "Description": "Fold tortilla in half to serve.  ",
          "PreparationStepImage": {
            "PictureFormats": [],
            "author": null,
            "id": null,
            "imageType": null,
            "mimeType": null,
            "publicationDate": null,
            "status": null,
            "title": null,
            "type": null
          },
          "Sequence": 3
        }
      ],
      "PreparationTime": 10,
      "Promotion": null,
      "Ratings": {
        "TotalCount": 4,
        "PageCount": 10,
        "PageNo": 1,
        "Rating": [
          {
            "Comment": "",
            "DisplayName": true,
            "RatingValue": 3,
            "SubmitDate": "/Date(1168274617000-0600)/",
            "UpdatedDate": "/Date(1168274617000-0600)/",
            "UserName": "pajamaangel"
          },
          {
            "Comment": "I will make this but I will use flour tortillas and omit the green pepper.",
            "DisplayName": true,
            "RatingValue": 4,
            "SubmitDate": "/Date(1161124549000-0500)/",
            "UpdatedDate": "/Date(1161124549000-0500)/",
            "UserName": "fudgepop4"
          },
          {
            "Comment": "",
            "DisplayName": false,
            "RatingValue": 4,
            "SubmitDate": "/Date(1150302137000-0500)/",
            "UpdatedDate": "/Date(1150302137000-0500)/",
            "UserName": "haeny2121"
          },
          {
            "Comment": "It looks so good!",
            "DisplayName": true,
            "RatingValue": 5,
            "SubmitDate": "/Date(1148833173000-0500)/",
            "UpdatedDate": "/Date(1148833173000-0500)/",
            "UserName": "penelope995"
          }
        ]
      },
      "RecipeDisplayFormatId": 5,
      "RecipeId": 91323,
      "RecipeName": "Good Morning Bacon Quesadilla",
      "RecipeType": 0,
      "RelatedData": {
        "RelatedBrands": null,
        "RelatedProducts": null,
        "RelatedRecipes": {
          "DefaultTopCount": 5,
          "Recipe": [
            {
              "AverageRating": 4.4,
              "HasVideo": false,
              "IsHealthyLiving": false,
              "NumberOfRatings": 8,
              "PhotoName": "Good_Morning_Egg_Quesadilla.jpg",
              "PhotoUrl": "http://assets.kraftfoods.com/recipe_images/opendeploy/Good_Morning_Egg_Quesadilla.jpg",
              "RecipeId": 91517,
              "RecipeName": "Good Morning Egg Quesadilla",
              "SEOName": "good-morning-egg-quesadilla-91517",
              "ThumbnailPhoto": null
            },
            {
              "AverageRating": 4.6,
              "HasVideo": false,
              "IsHealthyLiving": false,
              "NumberOfRatings": 5,
              "PhotoName": "Morning_Maple_Waffles.jpg",
              "PhotoUrl": "http://assets.kraftfoods.com/recipe_images/opendeploy/Morning_Maple_Waffles.jpg",
              "RecipeId": 66043,
              "RecipeName": "Morning Maple Waffles",
              "SEOName": "morning-maple-waffles-66043",
              "ThumbnailPhoto": null
            },
            {
              "AverageRating": 4.3,
              "HasVideo": false,
              "IsHealthyLiving": false,
              "NumberOfRatings": 25,
              "PhotoName": "52484.jpg",
              "PhotoUrl": "http://assets.kraftfoods.com/recipe_images/opendeploy/52484.jpg",
              "RecipeId": 52484,
              "RecipeName": "Morning Burrito",
              "SEOName": "morning-burrito-52484",
              "ThumbnailPhoto": null
            },
            {
              "AverageRating": 4.6,
              "HasVideo": false,
              "IsHealthyLiving": false,
              "NumberOfRatings": 10,
              "PhotoName": "TexMex_Breakfast_Wraps.jpg",
              "PhotoUrl": "http://assets.kraftfoods.com/recipe_images/opendeploy/TexMex_Breakfast_Wraps.jpg",
              "RecipeId": 50196,
              "RecipeName": "Tex-Mex Morning Wraps",
              "SEOName": "tex-mex-morning-wraps-50196",
              "ThumbnailPhoto": null
            },
            {
              "AverageRating": 4.3,
              "HasVideo": false,
              "IsHealthyLiving": false,
              "NumberOfRatings": 70,
              "PhotoName": "52459.jpg",
              "PhotoUrl": "http://assets.kraftfoods.com/recipe_images/opendeploy/52459.jpg",
              "RecipeId": 52459,
              "RecipeName": "Bacon Quesadillas Recipe",
              "SEOName": "bacon-quesadillas-recipe-52459",
              "ThumbnailPhoto": null
            }
          ],
          "TotalCount": 725
        }
      },
      "RiseIngredients": [],
      "RiseTaxonomy": [],
      "Riserecipe": [
        {
          "GRIN": 552710,
          "RecipeId": 91323,
          "RecipeIndustrySector": "Retail",
          "RecipeType": "Internal"
        }
      ],
      "RomanceText": "This cheesy bacon quesadilla would make any morning good! Note: It tastes equally delicious in the afternoon or evening.",
      "SEOName": "good-morning-bacon-quesadilla-91323",
      "Tips": [
        {
          "RecipeId": 91323,
          "Sequence": 10,
          "TipDescription": "Prepare as directed, using a whole wheat tortilla and/or substituting 1/4 cup cholesterol-free egg product for the beaten fresh egg.",
          "TipID": 1,
          "TipName": "Variation  "
        },
        {
          "RecipeId": 91323,
          "Sequence": 20,
          "TipDescription": "Serve topped with TACO BELL®  Thick & Chunky  Salsa or your favorite hot pepper sauce.",
          "TipID": 2,
          "TipName": "Special Extra"
        },
        {
          "RecipeId": 91323,
          "Sequence": 30,
          "TipDescription": "Cooking eggs in the microwave is fast and easy. Because microwave wattage varies, check the doneness of the egg frequently to prevent it from overcooking.",
          "TipID": 3,
          "TipName": "Microwaving Eggs"
        }
      ],
      "TotalTime": 10,
      "TradeMarkInfo": "TACO BELL® and Logo are trademarks owned and licensed by Taco Bell Corp.",
      "Video": [],
      "Yield": "1 serving."
    }
  ]
}