{
  "Metadata": {
    "PageCount": 1,
    "PageNo": 0,
    "TotalCount": 0
  },
  "Recipes": [
    {
      "AdServingKeywords": "Cheese,Meat,Parmesan,Pasta Sauce,Peppers,Appetizer,Microwaved,Easy,Italian,All Seasons,Back to school,Dip,Classico,Kraft Grated Cheese,Oscar Mayer,Cooking for a Crowd,Kid-Friendly,Kids Can Cook,Quick and Easy",
      "AlternateLanguageRecipes": [],
      "Assets": [
        {
          "PictureFormats": [
            {
              "rendition": "290x194",
              "url": "http://assets.kraftfoods.com/recipe_images/opendeploy/507953_1_1_retail-6a822517b7be45db1a00d7a4fcf2ac6453994f63_291x194.jpg"
            },
            {
              "rendition": "306x204",
              "url": "http://assets.kraftfoods.com/recipe_images/opendeploy/507953_1_1_retail-6a822517b7be45db1a00d7a4fcf2ac6453994f63_306x204.jpg"
            },
            {
              "rendition": "640x428",
              "url": "http://assets.kraftfoods.com/recipe_images/opendeploy/507953_1_1_retail-6a822517b7be45db1a00d7a4fcf2ac6453994f63_642x428.jpg"
            }
          ],
          "author": "Kraft",
          "id": "2",
          "imageType": "Primary",
          "mimeType": "image/jpeg",
          "publicationDate": null,
          "status": "1",
          "title": "507953_1_1_retail-6a822517b7be45db1a00d7a4fcf2ac6453994f63",
          "type": "image"
        }
      ],
      "AverageRating": 3.9,
      "BrandId": 1,
      "Branding": null,
      "CSSSkins": null,
      "CarbCounter": null,
      "Categories": [
        {
          "CategoryID": 6,
          "CategoryName": "Appetizers/Snacks",
          "CategoryRank": 1,
          "SubCategoryID": 126,
          "SubCategoryName": "Hot Dips",
          "SubCategoryRank": 40
        },
        {
          "CategoryID": 11,
          "CategoryName": "Primary",
          "CategoryRank": 0,
          "SubCategoryID": 96,
          "SubCategoryName": "Appetizers & Snacks",
          "SubCategoryRank": 10
        },
        {
          "CategoryID": 748,
          "CategoryName": "Finger Food, Dips & Appetisers",
          "CategoryRank": 2,
          "SubCategoryID": 2523,
          "SubCategoryName": "Hot",
          "SubCategoryRank": 1
        }
      ],
      "Classifications": [],
      "ComplimentaryRecipes": null,
      "CookingMethod": null,
      "Copyright": null,
      "Courses": [
        "Appetizers"
      ],
      "DietExchange": null,
      "DishDetails": [
        {
          "Text": "appetizers",
          "Url": "/recipes/appetizers/main.aspx"
        },
        {
          "Text": "cold appetizers",
          "Url": "/recipes/appetizers/coldappetizers.aspx"
        },
        {
          "Text": "cheese plates",
          "Url": "/recipes/appetizers/entertainingcheeseplates.aspx"
        },
        {
          "Text": "hot appetizers",
          "Url": "/recipes/appetizers/hotappetizers.aspx"
        },
        {
          "Text": "quick appetizers",
          "Url": "/recipes/appetizers/quick.aspx"
        },
        {
          "Text": "salsa recipes",
          "Url": "/recipes/appetizers/salsa-recipes/main.aspx"
        },
        {
          "Text": "seafood appetizers",
          "Url": "/recipes/dinner/seafood/appetizers/main.aspx"
        },
        {
          "Text": "dip recipes",
          "Url": "/recipes/appetizers/dip-recipes/main.aspx"
        },
        {
          "Text": "dip recipes",
          "Url": "/recipes/appetizers/dip-recipes/main.aspx"
        },
        {
          "Text": "salsa recipes",
          "Url": "/recipes/appetizers/salsa-recipes/main.aspx"
        },
        {
          "Text": "VELVEETA appetizers",
          "Url": "/recipes/appetizers/velveeta-recipes/main.aspx"
        }
      ],
      "EndDate": "/Date(-62135575200000-0600)/",
      "HasVideo": false,
      "Ingredients": [
        {
          "FullMeasure": null,
          "FullWeight": null,
          "IngredientGridHeaders": null,
          "IngredientID": 75530,
          "IngredientName": "CLASSICO Traditional Pizza Sauce",
          "IngredientStep": 10,
          "LanguageId": 0,
          "PostPreparation": "",
          "PrePreparation": "",
          "QuantityNum": 1,
          "QuantityText": "1",
          "QuantityUnit": "cup",
          "RecipeIngredientID": 103121,
          "TrialMeasure": null,
          "TrialWeight": null
        },
        {
          "FullMeasure": null,
          "FullWeight": null,
          "IngredientGridHeaders": null,
          "IngredientID": 68447,
          "IngredientName": "KRAFT Grated Parmesan Cheese",
          "IngredientStep": 20,
          "LanguageId": 0,
          "PostPreparation": "",
          "PrePreparation": "",
          "QuantityNum": 0.5,
          "QuantityText": "1/2",
          "QuantityUnit": "cup",
          "RecipeIngredientID": 99185,
          "TrialMeasure": null,
          "TrialWeight": null
        },
        {
          "FullMeasure": null,
          "FullWeight": null,
          "IngredientGridHeaders": null,
          "IngredientID": 70251,
          "IngredientName": "finely chopped OSCAR MAYER Pepperoni",
          "IngredientStep": 30,
          "LanguageId": 0,
          "PostPreparation": "",
          "PrePreparation": "",
          "QuantityNum": 0,
          "QuantityText": "1/2  ",
          "QuantityUnit": "cup",
          "RecipeIngredientID": 97795,
          "TrialMeasure": null,
          "TrialWeight": null
        },
        {
          "FullMeasure": null,
          "FullWeight": null,
          "IngredientGridHeaders": null,
          "IngredientID": 67755,
          "IngredientName": "finely chopped green peppers",
          "IngredientStep": 40,
          "LanguageId": 0,
          "PostPreparation": "",
          "PrePreparation": "",
          "QuantityNum": 2,
          "QuantityText": "2",
          "QuantityUnit": "Tbsp.",
          "RecipeIngredientID": 97695,
          "TrialMeasure": null,
          "TrialWeight": null
        }
      ],
      "IsHealthyLiving": false,
      "KRLId": "507953",
      "KeyIngredients": [],
      "Keywords": "Appetizer,Microwaved,Easy,Italian,All Seasons,Back to school,Dip,Cooking for a Crowd,Kid-Friendly,Kids Can Cook,Quick and Easy",
      "LanguageId": 1,
      "LifeStyles": [],
      "NumberOfIngredients": 4,
      "NumberOfRatings": 8,
      "NumberOfRatingsWithComments": "5",
      "NumberOfServings": "16 servings, 2 Tbsp. each",
      "NumberOfTrialServings": null,
      "NutritionBonus": null,
      "NutritionExchangeItemId": 0,
      "NutritionGridItems": null,
      "NutritionItems": [
        {
          "DisplayOrder": 0,
          "Document": null,
          "NutritionItemID": 384,
          "NutritionItemName": "Vitamin D",
          "Predriscriptor": "",
          "Quantity": 0,
          "Unit": "%DV       "
        },
        {
          "DisplayOrder": 0,
          "Document": null,
          "NutritionItemID": 385,
          "NutritionItemName": "Vitamin E",
          "Predriscriptor": "",
          "Quantity": 0,
          "Unit": "%DV       "
        },
        {
          "DisplayOrder": 0,
          "Document": null,
          "NutritionItemID": 388,
          "NutritionItemName": "Potassium",
          "Predriscriptor": "",
          "Quantity": 0,
          "Unit": "%DV       "
        },
        {
          "DisplayOrder": 0,
          "Document": null,
          "NutritionItemID": 390,
          "NutritionItemName": "Added Sugars",
          "Predriscriptor": "",
          "Quantity": 0,
          "Unit": "g         "
        },
        {
          "DisplayOrder": 1,
          "Document": null,
          "NutritionItemID": 371,
          "NutritionItemName": "Calories",
          "Predriscriptor": "",
          "Quantity": 30,
          "Unit": "          "
        },
        {
          "DisplayOrder": 2,
          "Document": null,
          "NutritionItemID": 376,
          "NutritionItemName": "Total fat",
          "Predriscriptor": "",
          "Quantity": 2,
          "Unit": "g         "
        },
        {
          "DisplayOrder": 3,
          "Document": null,
          "NutritionItemID": 377,
          "NutritionItemName": "Saturated fat",
          "Predriscriptor": "",
          "Quantity": 1,
          "Unit": "g         "
        },
        {
          "DisplayOrder": 4,
          "Document": null,
          "NutritionItemID": 379,
          "NutritionItemName": "Polyunsaturated Fat",
          "Predriscriptor": "",
          "Quantity": 0,
          "Unit": "g         "
        },
        {
          "DisplayOrder": 5,
          "Document": null,
          "NutritionItemID": 378,
          "NutritionItemName": "Monounsaturated Fat",
          "Predriscriptor": "",
          "Quantity": 0,
          "Unit": "g         "
        },
        {
          "DisplayOrder": 6,
          "Document": null,
          "NutritionItemID": 380,
          "NutritionItemName": "Trans Fat",
          "Predriscriptor": "",
          "Quantity": 0,
          "Unit": "g         "
        },
        {
          "DisplayOrder": 7,
          "Document": null,
          "NutritionItemID": 381,
          "NutritionItemName": "Cholesterol",
          "Predriscriptor": "",
          "Quantity": 4.8438,
          "Unit": "mg        "
        },
        {
          "DisplayOrder": 8,
          "Document": null,
          "NutritionItemID": 389,
          "NutritionItemName": "Sodium",
          "Predriscriptor": "",
          "Quantity": 160,
          "Unit": "mg        "
        },
        {
          "DisplayOrder": 10,
          "Document": null,
          "NutritionItemID": 373,
          "NutritionItemName": "Carbohydrate",
          "Predriscriptor": "",
          "Quantity": 2,
          "Unit": "g         "
        },
        {
          "DisplayOrder": 11,
          "Document": null,
          "NutritionItemID": 374,
          "NutritionItemName": "Dietary fiber",
          "Predriscriptor": "",
          "Quantity": 0,
          "Unit": "g         "
        },
        {
          "DisplayOrder": 12,
          "Document": null,
          "NutritionItemID": 375,
          "NutritionItemName": "Sugars",
          "Predriscriptor": "",
          "Quantity": 1,
          "Unit": "g         "
        },
        {
          "DisplayOrder": 13,
          "Document": null,
          "NutritionItemID": 372,
          "NutritionItemName": "Protein",
          "Predriscriptor": "",
          "Quantity": 2,
          "Unit": "g         "
        },
        {
          "DisplayOrder": 14,
          "Document": null,
          "NutritionItemID": 382,
          "NutritionItemName": "Vitamin A",
          "Predriscriptor": "",
          "Quantity": 0,
          "Unit": "%DV       "
        },
        {
          "DisplayOrder": 15,
          "Document": null,
          "NutritionItemID": 383,
          "NutritionItemName": "Vitamin C",
          "Predriscriptor": "",
          "Quantity": 4,
          "Unit": "%DV       "
        },
        {
          "DisplayOrder": 16,
          "Document": null,
          "NutritionItemID": 386,
          "NutritionItemName": "Calcium",
          "Predriscriptor": "",
          "Quantity": 4,
          "Unit": "%DV       "
        },
        {
          "DisplayOrder": 17,
          "Document": null,
          "NutritionItemID": 387,
          "NutritionItemName": "Iron",
          "Predriscriptor": "",
          "Quantity": 0,
          "Unit": "%DV       "
        }
      ],
      "NutritionServingText": null,
      "PrepStepImage": null,
      "PreparationDescription": "Mix all ingredients in microwaveable bowl.$Microwave on HIGH 30 sec.; stir.  Microwave 1 min. or until heated through; stir.$Serve as dip with crackers or assorted cut-up fresh vegetables.",
      "PreparationPreText": null,
      "PreparationSteps": [
        {
          "Description": "Mix all ingredients in microwaveable bowl.",
          "PreparationStepImage": {
            "PictureFormats": [],
            "author": null,
            "id": null,
            "imageType": null,
            "mimeType": null,
            "publicationDate": null,
            "status": null,
            "title": null,
            "type": null
          },
          "Sequence": 1
        },
        {
          "Description": "Microwave on HIGH 30 sec.; stir.  Microwave 1 min. or until heated through; stir.",
          "PreparationStepImage": {
            "PictureFormats": [],
            "author": null,
            "id": null,
            "imageType": null,
            "mimeType": null,
            "publicationDate": null,
            "status": null,
            "title": null,
            "type": null
          },
          "Sequence": 2
        },
        {
          "Description": "Serve as dip with crackers or assorted cut-up fresh vegetables.",
          "PreparationStepImage": {
            "PictureFormats": [],
            "author": null,
            "id": null,
            "imageType": null,
            "mimeType": null,
            "publicationDate": null,
            "status": null,
            "title": null,
            "type": null
          },
          "Sequence": 3
        }
      ],
      "PreparationTime": 10,
      "Promotion": null,
      "Ratings": {
        "TotalCount": 8,
        "PageCount": 10,
        "PageNo": 1,
        "Rating": [
          {
            "Comment": "I used the substitution of spaghetti sauce and doubled the recipe.  Delicious, was a big hit!!!!!",
            "DisplayName": true,
            "RatingValue": 5,
            "SubmitDate": "/Date(1193682191000-0500)/",
            "UpdatedDate": "/Date(1193682191000-0500)/",
            "UserName": "BJEXUM"
          },
          {
            "Comment": "",
            "DisplayName": true,
            "RatingValue": 4,
            "SubmitDate": "/Date(1160378508000-0500)/",
            "UpdatedDate": "/Date(1160378508000-0500)/",
            "UserName": "Cascade4"
          },
          {
            "Comment": "Thought everyone would love this, but when I made it for my hubby's 40th B-day party, it was barely touched.",
            "DisplayName": true,
            "RatingValue": 2,
            "SubmitDate": "/Date(1160351034000-0500)/",
            "UpdatedDate": "/Date(1160351034000-0500)/",
            "UserName": "honey19692"
          },
          {
            "Comment": "Great for the kids, and as a Dip with crackers for dad!",
            "DisplayName": true,
            "RatingValue": 4,
            "SubmitDate": "/Date(1145992377000-0500)/",
            "UpdatedDate": "/Date(1145992377000-0500)/",
            "UserName": "amyp72"
          },
          {
            "Comment": "This recipe sounds great and if is probally kid friendly and  iwnat to make this for my griends and family.",
            "DisplayName": true,
            "RatingValue": 5,
            "SubmitDate": "/Date(1110231748000-0600)/",
            "UpdatedDate": "/Date(1110231748000-0600)/",
            "UserName": "smiles28540"
          },
          {
            "Comment": "",
            "DisplayName": true,
            "RatingValue": 3,
            "SubmitDate": "/Date(1099789106000-0500)/",
            "UpdatedDate": "/Date(1099789106000-0500)/",
            "UserName": "marshall-lvr"
          },
          {
            "Comment": "I haven't mad this recipe yet but i plan on doing it one day.",
            "DisplayName": true,
            "RatingValue": 4,
            "SubmitDate": "/Date(1081353918000-0500)/",
            "UpdatedDate": "/Date(1081353918000-0500)/",
            "UserName": "pinkey254"
          },
          {
            "Comment": "",
            "DisplayName": true,
            "RatingValue": 4,
            "SubmitDate": "/Date(1078643973000-0600)/",
            "UpdatedDate": "/Date(1078643973000-0600)/",
            "UserName": "Maheen3"
          }
        ]
      },
      "RecipeDisplayFormatId": 0,
      "RecipeId": 64066,
      "RecipeName": "After-School Easy Pizza Dip",
      "RecipeType": 0,
      "RelatedData": {
        "RelatedBrands": null,
        "RelatedProducts": null,
        "RelatedRecipes": {
          "DefaultTopCount": 5,
          "Recipe": [
            {
              "AverageRating": 4.3,
              "HasVideo": true,
              "IsHealthyLiving": false,
              "NumberOfRatings": 4,
              "PhotoName": "182789.jpg",
              "PhotoUrl": "http://assets.kraftfoods.com/recipe_images/opendeploy/182789.jpg",
              "RecipeId": 182789,
              "RecipeName": "Easy Pepperoni Pizza Lasagna",
              "SEOName": "easy-pepperoni-pizza-lasagna-182789",
              "ThumbnailPhoto": null
            },
            {
              "AverageRating": 4.7,
              "HasVideo": false,
              "IsHealthyLiving": false,
              "NumberOfRatings": 3,
              "PhotoName": "Veggie-Topped-Pita-45085.jpg",
              "PhotoUrl": "http://assets.kraftfoods.com/recipe_images/opendeploy/Veggie-Topped-Pita-45085.jpg",
              "RecipeId": 65960,
              "RecipeName": "Veggie Pita Pizza",
              "SEOName": "veggie-pita-pizza-65960",
              "ThumbnailPhoto": null
            },
            {
              "AverageRating": 4.7,
              "HasVideo": false,
              "IsHealthyLiving": false,
              "NumberOfRatings": 3,
              "PhotoName": "150617.jpg",
              "PhotoUrl": "http://assets.kraftfoods.com/recipe_images/opendeploy/150617.jpg",
              "RecipeId": 150617,
              "RecipeName": "Deep-Dish Mini Pizzas",
              "SEOName": "deep-dish-mini-pizzas-150617",
              "ThumbnailPhoto": null
            },
            {
              "AverageRating": 5,
              "HasVideo": true,
              "IsHealthyLiving": false,
              "NumberOfRatings": 6,
              "PhotoName": "166305.jpg",
              "PhotoUrl": "http://assets.kraftfoods.com/recipe_images/opendeploy/166305.jpg",
              "RecipeId": 166305,
              "RecipeName": "Meatball 'Pizza' Casserole",
              "SEOName": "meatball-pizza-casserole-166305",
              "ThumbnailPhoto": null
            },
            {
              "AverageRating": 4.4,
              "HasVideo": false,
              "IsHealthyLiving": false,
              "NumberOfRatings": 115,
              "PhotoName": "Mini_Pizzas.jpg",
              "PhotoUrl": "http://assets.kraftfoods.com/recipe_images/opendeploy/Mini_Pizzas.jpg",
              "RecipeId": 55232,
              "RecipeName": "Mini Pizzas",
              "SEOName": "mini-pizzas-55232",
              "ThumbnailPhoto": null
            }
          ],
          "TotalCount": 4850
        }
      },
      "RiseIngredients": [
        {
          "IngredientCategory": "KRL",
          "IngredientId": 67755,
          "IngredientIndustrySector": "Retail",
          "IngredientType": "Inedible",
          "ProductId": null,
          "RecipeId": 64066
        },
        {
          "IngredientCategory": "KRL",
          "IngredientId": 68447,
          "IngredientIndustrySector": "Retail",
          "IngredientType": "Inedible",
          "ProductId": "00021000051229",
          "RecipeId": 64066
        },
        {
          "IngredientCategory": "KRL",
          "IngredientId": 70251,
          "IngredientIndustrySector": "Retail",
          "IngredientType": "KHC",
          "ProductId": "00044700074350",
          "RecipeId": 64066
        },
        {
          "IngredientCategory": "RISE",
          "IngredientId": 75530,
          "IngredientIndustrySector": "Retail",
          "IngredientType": "KHC",
          "ProductId": "00004112939640",
          "RecipeId": 64066
        }
      ],
      "RiseTaxonomy": [
        {
          "ParentTaxonomyId": 0,
          "RecipeId": 64066,
          "ResourceName": "Recipe",
          "TaxonomyId": 60,
          "TaxonomyName": "Appetizers",
          "TaxonomyTypeId": 2,
          "TaxonomyTypeName": "Meal Part"
        },
        {
          "ParentTaxonomyId": 47,
          "RecipeId": 64066,
          "ResourceName": "Recipe",
          "TaxonomyId": 184,
          "TaxonomyName": "Dips, Hot",
          "TaxonomyTypeId": 3,
          "TaxonomyTypeName": "Dish Type"
        }
      ],
      "Riserecipe": [
        {
          "GRIN": 507953,
          "RecipeId": 64066,
          "RecipeIndustrySector": "Retail",
          "RecipeType": "Internal"
        }
      ],
      "RomanceText": "After-School Easy Pizza Dip is great for a quick snack in the afternoon, but that's not all. Make After-School Easy Pizza Dip whenever you so desire!",
      "SEOName": "after-school-easy-pizza-dip-64066",
      "Tips": [
        {
          "RecipeId": 64066,
          "Sequence": 10,
          "TipDescription": "Substitute pasta sauce for the pizza sauce.",
          "TipID": 1,
          "TipName": "Substitute"
        },
        {
          "RecipeId": 64066,
          "Sequence": 20,
          "TipDescription": "Serve in a bread shell.  Just cut the top off of a round loaf of bread.  Cut out the bread from the center of the loaf, leaving a 1/2-inch-thick shell.  Cut the removed bread and top of loaf into bite-size pieces.  Fill shell with hot dip just before serving.  Serve with bread pieces for dippers.",
          "TipID": 2,
          "TipName": "Special Extra"
        }
      ],
      "TotalTime": 10,
      "TradeMarkInfo": null,
      "Video": [],
      "Yield": "16 servings, 2 Tbsp. each"
    }
  ]
}