{
  "Metadata": {
    "PageCount": 1,
    "PageNo": 0,
    "TotalCount": 0
  },
  "Recipes": [
    {
      "AdServingKeywords": "Berries,Chicken,Cranberry,Fruit,Lettuce,Meat,Nuts,Poultry,Vegetables,Entree,Dinner,Lunch,All Seasons,Kraft Salad Dressing,Planters",
      "AlternateLanguageRecipes": [],
      "Assets": [
        {
          "PictureFormats": [
            {
              "rendition": "300x200",
              "url": "http://assets.kraftfoods.com/recipe_images/Warm_Chicken_Salad.jpg"
            }
          ],
          "author": null,
          "id": "0",
          "imageType": "DEFAULT",
          "mimeType": null,
          "publicationDate": null,
          "status": "1",
          "title": "Warm_Chicken_Salad.jpg",
          "type": "image"
        }
      ],
      "AverageRating": 4.1,
      "BrandId": 1,
      "Branding": null,
      "CSSSkins": null,
      "CarbCounter": null,
      "Categories": [
        {
          "CategoryID": 2,
          "CategoryName": "Poultry Entrees",
          "CategoryRank": 11,
          "SubCategoryID": 383,
          "SubCategoryName": "Salads",
          "SubCategoryRank": 60
        },
        {
          "CategoryID": 9,
          "CategoryName": "Salads/Side Dishes",
          "CategoryRank": 13,
          "SubCategoryID": 171,
          "SubCategoryName": "Main Dish Salads: Chicken",
          "SubCategoryRank": 60
        },
        {
          "CategoryID": 11,
          "CategoryName": "Primary",
          "CategoryRank": 0,
          "SubCategoryID": 97,
          "SubCategoryName": "Entrees",
          "SubCategoryRank": 50
        },
        {
          "CategoryID": 11,
          "CategoryName": "Primary",
          "CategoryRank": 0,
          "SubCategoryID": 98,
          "SubCategoryName": "Salads",
          "SubCategoryRank": 70
        },
        {
          "CategoryID": 752,
          "CategoryName": "Salads",
          "CategoryRank": 6,
          "SubCategoryID": 2534,
          "SubCategoryName": "Main Course",
          "SubCategoryRank": 1
        },
        {
          "CategoryID": 752,
          "CategoryName": "Salads",
          "CategoryRank": 6,
          "SubCategoryID": 2537,
          "SubCategoryName": "Pasta / Rice",
          "SubCategoryRank": 1
        },
        {
          "CategoryID": 752,
          "CategoryName": "Salads",
          "CategoryRank": 6,
          "SubCategoryID": 2538,
          "SubCategoryName": "Potato",
          "SubCategoryRank": 1
        },
        {
          "CategoryID": 756,
          "CategoryName": "Main Meals (Meat / Seafood / Egg)",
          "CategoryRank": 10,
          "SubCategoryID": 2562,
          "SubCategoryName": "Chicken",
          "SubCategoryRank": 1
        }
      ],
      "Classifications": [],
      "ComplimentaryRecipes": [
        {
          "AverageRating": 0,
          "HasVideo": false,
          "IsHealthyLiving": false,
          "NumberOfRatings": 0,
          "PhotoName": null,
          "PhotoUrl": null,
          "RecipeId": 52258,
          "RecipeName": null,
          "SEOName": "cheesy-herb-bread-52258",
          "ThumbnailPhoto": "52258.jpg"
        }
      ],
      "CookingMethod": null,
      "Copyright": null,
      "Courses": [
        "Main dishes",
        "Salads & sides"
      ],
      "DietExchange": null,
      "DishDetails": [
        {
          "Text": "chicken recipes",
          "Url": "/recipes/dinner/chicken-recipes/main.aspx"
        },
        {
          "Text": "grilled chicken recipes",
          "Url": "/recipes/dinner/chicken-recipes/grilled-chicken/main.aspx"
        },
        {
          "Text": "healthy living chicken recipes",
          "Url": "/recipes/dinner/chicken-recipes/hl/main.aspx"
        },
        {
          "Text": "slow cooker chicken recipes",
          "Url": "/recipes/dinner/chicken-recipes/slow-cooker/main.aspx"
        },
        {
          "Text": "whole chicken recipes",
          "Url": "/recipes/dinner/chicken-recipes/whole-chicken/main.aspx"
        },
        {
          "Text": "chicken breast recipes",
          "Url": "/recipes/dinner/chicken-recipes/chicken-breast/main.aspx"
        },
        {
          "Text": "chicken casseroles",
          "Url": "/recipes/dinner/chicken-recipes/casseroles/main.aspx"
        },
        {
          "Text": "chicken pasta recipes",
          "Url": "/recipes/dinner/chicken-recipes/pasta-dishes/main.aspx"
        },
        {
          "Text": "chicken salad recipes",
          "Url": "/recipes/dinner/chicken-recipes/salads/main.aspx"
        },
        {
          "Text": "chicken stir-fry recipes",
          "Url": "/recipes/dinner/chicken-recipes/stir-fry/main.aspx"
        },
        {
          "Text": "chicken wing recipes",
          "Url": "/recipes/appetizers/chicken-wing-recipes/main.aspx"
        },
        {
          "Text": "baked chicken recipes",
          "Url": "/recipes/dinner/chicken-recipes/baked-chicken/main.aspx"
        },
        {
          "Text": "bbq chicken recipes",
          "Url": "/recipes/holidays-and-entertaining/entertaining/summer/bbq-recipes/bbq-chicken-recipes/main.aspx"
        }
      ],
      "EndDate": "/Date(-62135575200000-0600)/",
      "HasVideo": false,
      "Ingredients": [
        {
          "FullMeasure": "3/4 cup",
          "FullWeight": "",
          "IngredientGridHeaders": null,
          "IngredientID": 484,
          "IngredientName": "KRAFT Classic Ranch Dressing",
          "IngredientStep": 10,
          "LanguageId": 0,
          "PostPreparation": ", divided",
          "PrePreparation": "",
          "QuantityNum": 0,
          "QuantityText": "3/4",
          "QuantityUnit": "cup",
          "RecipeIngredientID": 4308862,
          "TrialMeasure": "",
          "TrialWeight": ""
        },
        {
          "FullMeasure": "1 lb.",
          "FullWeight": "",
          "IngredientGridHeaders": null,
          "IngredientID": 825,
          "IngredientName": "boneless skinless chicken breast",
          "IngredientStep": 20,
          "LanguageId": 0,
          "PostPreparation": "s, cut into strips",
          "PrePreparation": "",
          "QuantityNum": 1,
          "QuantityText": "1",
          "QuantityUnit": "lb.",
          "RecipeIngredientID": 4308863,
          "TrialMeasure": "",
          "TrialWeight": ""
        },
        {
          "FullMeasure": "1 pkg.",
          "FullWeight": "",
          "IngredientGridHeaders": null,
          "IngredientID": 1581,
          "IngredientName": "salad greens",
          "IngredientStep": 30,
          "LanguageId": 0,
          "PostPreparation": "",
          "PrePreparation": "(10 oz.) torn",
          "QuantityNum": 1,
          "QuantityText": "1",
          "QuantityUnit": "pkg.",
          "RecipeIngredientID": 4308865,
          "TrialMeasure": "",
          "TrialWeight": ""
        },
        {
          "FullMeasure": "1 cup",
          "FullWeight": "",
          "IngredientGridHeaders": null,
          "IngredientID": 1045,
          "IngredientName": "dried cranberries",
          "IngredientStep": 40,
          "LanguageId": 0,
          "PostPreparation": "",
          "PrePreparation": "",
          "QuantityNum": 1,
          "QuantityText": "1",
          "QuantityUnit": "cup",
          "RecipeIngredientID": 4308864,
          "TrialMeasure": "",
          "TrialWeight": ""
        },
        {
          "FullMeasure": "1/4 cup",
          "FullWeight": "",
          "IngredientGridHeaders": null,
          "IngredientID": 5531,
          "IngredientName": "PLANTERS Sliced Almonds",
          "IngredientStep": 50,
          "LanguageId": 0,
          "PostPreparation": ", toasted",
          "PrePreparation": "",
          "QuantityNum": 0,
          "QuantityText": "1/4",
          "QuantityUnit": "cup",
          "RecipeIngredientID": 4308866,
          "TrialMeasure": "",
          "TrialWeight": ""
        }
      ],
      "IsHealthyLiving": false,
      "KRLId": "509032",
      "KeyIngredients": [
        "Berries",
        "Chicken",
        "Cranberry",
        "Fruit",
        "Lettuce",
        "Meat",
        "Nuts",
        "Poultry",
        "Vegetables"
      ],
      "Keywords": "nuts,ranch dressing,almonds,chicken,chicken breasts-boneless,dressing,dried fruit,KRAFT Dressing,lettuce,meat,mixed greens,salad dressing,salad greens,PLANTERS Almonds,cranberries-dried,Planters,Entree,Dinner,Lunch,All Seasons",
      "LanguageId": 1,
      "LifeStyles": [],
      "NumberOfIngredients": 5,
      "NumberOfRatings": 15,
      "NumberOfRatingsWithComments": "11",
      "NumberOfServings": "4 servings",
      "NumberOfTrialServings": "",
      "NutritionBonus": null,
      "NutritionExchangeItemId": 0,
      "NutritionGridItems": null,
      "NutritionItems": [
        {
          "DisplayOrder": 1,
          "Document": null,
          "NutritionItemID": 3,
          "NutritionItemName": "Calories",
          "Predriscriptor": "",
          "Quantity": 440,
          "Unit": "          "
        },
        {
          "DisplayOrder": 2,
          "Document": "fat_cholesterol.html",
          "NutritionItemID": 4,
          "NutritionItemName": "Total fat",
          "Predriscriptor": "",
          "Quantity": 23,
          "Unit": "g         "
        },
        {
          "DisplayOrder": 3,
          "Document": "fat_cholesterol.html",
          "NutritionItemID": 9,
          "NutritionItemName": "Saturated fat",
          "Predriscriptor": "",
          "Quantity": 3.5,
          "Unit": "g         "
        },
        {
          "DisplayOrder": 7,
          "Document": "fat_cholesterol.html",
          "NutritionItemID": 2,
          "NutritionItemName": "Cholesterol",
          "Predriscriptor": "",
          "Quantity": 75,
          "Unit": "mg        "
        },
        {
          "DisplayOrder": 8,
          "Document": "sodium.html",
          "NutritionItemID": 8,
          "NutritionItemName": "Sodium",
          "Predriscriptor": "",
          "Quantity": 530,
          "Unit": "mg        "
        },
        {
          "DisplayOrder": 10,
          "Document": "carbs_sugars_fiber.html",
          "NutritionItemID": 1,
          "NutritionItemName": "Carbohydrate",
          "Predriscriptor": "",
          "Quantity": 31,
          "Unit": "g         "
        },
        {
          "DisplayOrder": 11,
          "Document": "carbs_sugars_fiber.html",
          "NutritionItemID": 7,
          "NutritionItemName": "Dietary fiber",
          "Predriscriptor": "",
          "Quantity": 4,
          "Unit": "g         "
        },
        {
          "DisplayOrder": 12,
          "Document": "carbs_sugars_fiber.html",
          "NutritionItemID": 5,
          "NutritionItemName": "Sugars",
          "Predriscriptor": "",
          "Quantity": 25,
          "Unit": "g         "
        },
        {
          "DisplayOrder": 13,
          "Document": null,
          "NutritionItemID": 6,
          "NutritionItemName": "Protein",
          "Predriscriptor": "",
          "Quantity": 27,
          "Unit": "g         "
        },
        {
          "DisplayOrder": 14,
          "Document": null,
          "NutritionItemID": 10,
          "NutritionItemName": "Vitamin A",
          "Predriscriptor": "",
          "Quantity": 20,
          "Unit": "%DV       "
        },
        {
          "DisplayOrder": 15,
          "Document": null,
          "NutritionItemID": 11,
          "NutritionItemName": "Vitamin C",
          "Predriscriptor": "",
          "Quantity": 15,
          "Unit": "%DV       "
        },
        {
          "DisplayOrder": 16,
          "Document": "dairy_and_calcium.html",
          "NutritionItemID": 12,
          "NutritionItemName": "Calcium",
          "Predriscriptor": "",
          "Quantity": 6,
          "Unit": "%DV       "
        },
        {
          "DisplayOrder": 17,
          "Document": null,
          "NutritionItemID": 13,
          "NutritionItemName": "Iron",
          "Predriscriptor": "",
          "Quantity": 8,
          "Unit": "%DV       "
        }
      ],
      "NutritionServingText": null,
      "PrepStepImage": null,
      "PreparationDescription": "Heat 1/4 cup dressing in large skillet on medium-high heat.  Add chicken; cook and stir 8 min. or until done.$Toss greens with chicken, cranberries and nuts.   $Spoon onto platter; drizzle with remaining dressing.",
      "PreparationPreText": "",
      "PreparationSteps": [
        {
          "Description": "Heat 1/4 cup dressing in large skillet on medium-high heat.  Add chicken; cook and stir 8 min. or until done.",
          "PreparationStepImage": {
            "PictureFormats": [],
            "author": null,
            "id": null,
            "imageType": null,
            "mimeType": null,
            "publicationDate": null,
            "status": null,
            "title": null,
            "type": null
          },
          "Sequence": 1
        },
        {
          "Description": "Toss greens with chicken, cranberries and nuts.   ",
          "PreparationStepImage": {
            "PictureFormats": [],
            "author": null,
            "id": null,
            "imageType": null,
            "mimeType": null,
            "publicationDate": null,
            "status": null,
            "title": null,
            "type": null
          },
          "Sequence": 2
        },
        {
          "Description": "Spoon onto platter; drizzle with remaining dressing.",
          "PreparationStepImage": {
            "PictureFormats": [],
            "author": null,
            "id": null,
            "imageType": null,
            "mimeType": null,
            "publicationDate": null,
            "status": null,
            "title": null,
            "type": null
          },
          "Sequence": 3
        }
      ],
      "PreparationTime": 20,
      "Promotion": null,
      "Ratings": {
        "TotalCount": 15,
        "PageCount": 10,
        "PageNo": 1,
        "Rating": [
          {
            "Comment": "",
            "DisplayName": false,
            "RatingValue": 2,
            "SubmitDate": "/Date(1144173850000-0500)/",
            "UpdatedDate": "/Date(1144173850000-0500)/",
            "UserName": "jamie1921"
          },
          {
            "Comment": "Tastes great AND is low in fat. Can you get better than that?",
            "DisplayName": true,
            "RatingValue": 5,
            "SubmitDate": "/Date(1078786468000-0600)/",
            "UpdatedDate": "/Date(1078786468000-0600)/",
            "UserName": "simplysweet52"
          },
          {
            "Comment": "haven't made it yet,but am planning to.looks good",
            "DisplayName": true,
            "RatingValue": 5,
            "SubmitDate": "/Date(1036017224000-0500)/",
            "UpdatedDate": "/Date(1036017224000-0500)/",
            "UserName": "shirl24"
          },
          {
            "Comment": "I liked the ''different'' spin on boring salad-but it almost did'nt seem like enough meal-wise.  good though.",
            "DisplayName": false,
            "RatingValue": 3,
            "SubmitDate": "/Date(1035531396000-0500)/",
            "UpdatedDate": "/Date(1035531396000-0500)/",
            "UserName": "olfaithful"
          },
          {
            "Comment": "I served the Warm Chicken Salad as an entire meal for lunch. Crouissants were added to provide a complete meal. The beverage served was a cranberry based punch.",
            "DisplayName": false,
            "RatingValue": 4,
            "SubmitDate": "/Date(1035007132000-0500)/",
            "UpdatedDate": "/Date(1035007132000-0500)/",
            "UserName": "EveMar"
          },
          {
            "Comment": "",
            "DisplayName": true,
            "RatingValue": 4,
            "SubmitDate": "/Date(1034956177000-0500)/",
            "UpdatedDate": "/Date(1034956177000-0500)/",
            "UserName": "isumom50036"
          },
          {
            "Comment": "I do not like my salad warm, it just has to be cold. It did have a nice flavor though.",
            "DisplayName": true,
            "RatingValue": 4,
            "SubmitDate": "/Date(1034898162000-0500)/",
            "UpdatedDate": "/Date(1034898162000-0500)/",
            "UserName": "buster57"
          },
          {
            "Comment": "",
            "DisplayName": false,
            "RatingValue": 5,
            "SubmitDate": "/Date(1034893411000-0500)/",
            "UpdatedDate": "/Date(1034893411000-0500)/",
            "UserName": "lisamariesmith"
          },
          {
            "Comment": "My hunny does not eat a lot of meat, so when i made this i was leary, but he took one bite, and loved it. He asked when i was going to make it again. It's a really good salad",
            "DisplayName": true,
            "RatingValue": 4,
            "SubmitDate": "/Date(1034787947000-0500)/",
            "UpdatedDate": "/Date(1034787947000-0500)/",
            "UserName": "puddo_duk"
          },
          {
            "Comment": "",
            "DisplayName": true,
            "RatingValue": 4,
            "SubmitDate": "/Date(1034125361000-0500)/",
            "UpdatedDate": "/Date(1034125361000-0500)/",
            "UserName": "wordwarrior72"
          }
        ]
      },
      "RecipeDisplayFormatId": 5,
      "RecipeId": 55289,
      "RecipeName": "Warm Chicken Salad",
      "RecipeType": 0,
      "RelatedData": {
        "RelatedBrands": null,
        "RelatedProducts": null,
        "RelatedRecipes": {
          "DefaultTopCount": 5,
          "Recipe": [
            {
              "AverageRating": 4.6,
              "HasVideo": false,
              "IsHealthyLiving": false,
              "NumberOfRatings": 7,
              "PhotoName": "52210.jpg",
              "PhotoUrl": "http://assets.kraftfoods.com/recipe_images/opendeploy/52210.jpg",
              "RecipeId": 52210,
              "RecipeName": "Warm Chicken Taco Salad",
              "SEOName": "warm-chicken-taco-salad-52210",
              "ThumbnailPhoto": null
            },
            {
              "AverageRating": 4,
              "HasVideo": false,
              "IsHealthyLiving": false,
              "NumberOfRatings": 2,
              "PhotoName": "Chicken_Spinach_Salad_with_Warm_Bacon_Dressing.jpg",
              "PhotoUrl": "http://assets.kraftfoods.com/recipe_images/opendeploy/Chicken_Spinach_Salad_with_Warm_Bacon_Dressing.jpg",
              "RecipeId": 51946,
              "RecipeName": "Chicken-Spinach Salad with Warm Bacon Dressing",
              "SEOName": "chicken-spinach-salad-warm-bacon-dressing-51946",
              "ThumbnailPhoto": null
            },
            {
              "AverageRating": 4.1,
              "HasVideo": false,
              "IsHealthyLiving": false,
              "NumberOfRatings": 12,
              "PhotoName": "Warm_Chicken_Cranberry_n_Walnut_Salad.jpg",
              "PhotoUrl": "http://assets.kraftfoods.com/recipe_images/opendeploy/Warm_Chicken_Cranberry_n_Walnut_Salad.jpg",
              "RecipeId": 51054,
              "RecipeName": "Warm Chicken, Cranberry & Walnut Salad",
              "SEOName": "warm-chicken-cranberry-walnut-salad-51054",
              "ThumbnailPhoto": null
            },
            {
              "AverageRating": 4.3,
              "HasVideo": false,
              "IsHealthyLiving": false,
              "NumberOfRatings": 4,
              "PhotoName": "Warm_Chicken_And_Cranberry_Salad.jpg",
              "PhotoUrl": "http://assets.kraftfoods.com/recipe_images/opendeploy/Warm_Chicken_And_Cranberry_Salad.jpg",
              "RecipeId": 50531,
              "RecipeName": "Warm Chicken and Cranberry Salad",
              "SEOName": "warm-chicken-cranberry-salad-50531",
              "ThumbnailPhoto": null
            },
            {
              "AverageRating": 4.3,
              "HasVideo": false,
              "IsHealthyLiving": false,
              "NumberOfRatings": 4,
              "PhotoName": "52619.jpg",
              "PhotoUrl": "http://assets.kraftfoods.com/recipe_images/opendeploy/52619.jpg",
              "RecipeId": 52619,
              "RecipeName": "Harvest Bacon and Chicken Dinner Salad",
              "SEOName": "harvest-bacon-chicken-dinner-salad-52619",
              "ThumbnailPhoto": null
            }
          ],
          "TotalCount": 3114
        }
      },
      "RiseIngredients": [],
      "RiseTaxonomy": [],
      "Riserecipe": [
        {
          "GRIN": 509032,
          "RecipeId": 55289,
          "RecipeIndustrySector": "Retail",
          "RecipeType": "Internal"
        }
      ],
      "RomanceText": "Strips of tender skillet-cooked chicken breasts are tossed with cranberries and toasted almonds to make this quick and easy green salad for four.",
      "SEOName": "warm-chicken-salad-55289",
      "Tips": [
        {
          "RecipeId": 55289,
          "Sequence": 10,
          "TipDescription": "Prepare using KRAFT Lite Ranch Dressing.",
          "TipID": 2,
          "TipName": "Substitute"
        },
        {
          "RecipeId": 55289,
          "Sequence": 20,
          "TipDescription": "Substitute 2 cups chopped leftover cooked turkey for the chicken. ",
          "TipID": 1,
          "TipName": "Creative Leftovers"
        }
      ],
      "TotalTime": 20,
      "TradeMarkInfo": null,
      "Video": [],
      "Yield": "Makes 4 servings."
    }
  ]
}