{
  "Metadata": {
    "PageCount": 1,
    "PageNo": 0,
    "TotalCount": 0
  },
  "Recipes": [
    {
      "AdServingKeywords": "Entree,Cheese,Fruit,Ham,Meat,Mozzarella,Onion,Pineapple,Tomato,Vegetables,Nutrition and Well-Being,Dinner,Lunch,All Seasons,Pizza,Kraft Cheese,Kraft Shredded Cheese,Oscar Mayer,Spicy",
      "AlternateLanguageRecipes": [
        {
          "LanguageId": "2",
          "RecipeId": "124931",
          "SiteId": "1"
        },
        {
          "LanguageId": "2",
          "RecipeId": "124931",
          "SiteId": "90"
        }
      ],
      "Assets": [
        {
          "PictureFormats": [
            {
              "rendition": "290x194",
              "url": "http://assets.kraftfoods.com/recipe_images/opendeploy/Pineapple-Ham-Whle-Wheat-Pizzas-60446_290x194.jpg"
            },
            {
              "rendition": "600x250",
              "url": "http://assets.kraftfoods.com/recipe_images/opendeploy/Pineapple-Ham-Whle-Wheat-Pizzas-60446_600x250.jpg"
            },
            {
              "rendition": "640x428",
              "url": "http://assets.kraftfoods.com/recipe_images/opendeploy/Pineapple-Ham-Whle-Wheat-Pizzas-60446_640x428.jpg"
            }
          ],
          "author": null,
          "id": "2",
          "imageType": "Primary",
          "mimeType": "image/jpeg",
          "publicationDate": null,
          "status": "1",
          "title": "Pineapple-Ham-Whle-Wheat-Pizzas-60446",
          "type": "image"
        },
        {
          "PictureFormats": [
            {
              "rendition": "300x200",
              "url": "http://assets.kraftfoods.com/recipe_images/124930.jpg"
            }
          ],
          "author": "BulKUpload",
          "id": "0",
          "imageType": "LANDSCAPE",
          "mimeType": "image/jpeg",
          "publicationDate": null,
          "status": "1",
          "title": "124930.jpg",
          "type": "image"
        }
      ],
      "AverageRating": 0,
      "BrandId": 1,
      "Branding": null,
      "CSSSkins": null,
      "CarbCounter": "2",
      "Categories": [
        {
          "CategoryID": 7,
          "CategoryName": "Pork/Beef Entrees",
          "CategoryRank": 10,
          "SubCategoryID": 413,
          "SubCategoryName": "Ham",
          "SubCategoryRank": 90
        },
        {
          "CategoryID": 11,
          "CategoryName": "Primary",
          "CategoryRank": 0,
          "SubCategoryID": 97,
          "SubCategoryName": "Entrees",
          "SubCategoryRank": 50
        },
        {
          "CategoryID": 756,
          "CategoryName": "Main Meals (Meat / Seafood / Egg)",
          "CategoryRank": 10,
          "SubCategoryID": 2563,
          "SubCategoryName": "Beef",
          "SubCategoryRank": 1
        },
        {
          "CategoryID": 756,
          "CategoryName": "Main Meals (Meat / Seafood / Egg)",
          "CategoryRank": 10,
          "SubCategoryID": 2564,
          "SubCategoryName": "Pork",
          "SubCategoryRank": 1
        },
        {
          "CategoryID": 814,
          "CategoryName": "Latin",
          "CategoryRank": 8,
          "SubCategoryID": 3138,
          "SubCategoryName": "Pasta/Pizza Entrees",
          "SubCategoryRank": 70
        },
        {
          "CategoryID": 823,
          "CategoryName": "Chef Oropeza",
          "CategoryRank": 0,
          "SubCategoryID": 16296,
          "SubCategoryName": "Eat Better",
          "SubCategoryRank": 0
        }
      ],
      "Classifications": [
        {
          "ClassficationId": 7,
          "ClassificationName": "Good source of calcium"
        },
        {
          "ClassficationId": 14,
          "ClassificationName": "Generally Nutritious"
        },
        {
          "ClassficationId": 119,
          "ClassificationName": "Diabetes Center"
        }
      ],
      "ComplimentaryRecipes": [
        {
          "AverageRating": 0,
          "HasVideo": false,
          "IsHealthyLiving": false,
          "NumberOfRatings": 0,
          "PhotoName": null,
          "PhotoUrl": null,
          "RecipeId": 55550,
          "RecipeName": null,
          "SEOName": "pita-bread-pizza-55550",
          "ThumbnailPhoto": "Quick_Pita_Pizzas.jpg"
        }
      ],
      "CookingMethod": null,
      "Copyright": null,
      "Courses": [
        "Main dishes"
      ],
      "DietExchange": "2 Starch,2 Meat (L),1 Fat",
      "DishDetails": [],
      "EndDate": "/Date(-62135575200000-0600)/",
      "HasVideo": false,
      "Ingredients": [
        {
          "FullMeasure": "4",
          "FullWeight": "",
          "IngredientGridHeaders": null,
          "IngredientID": 1767,
          "IngredientName": "whole wheat tortilla",
          "IngredientStep": 10,
          "LanguageId": 0,
          "PostPreparation": "s (7 inch), warmed",
          "PrePreparation": "",
          "QuantityNum": 4,
          "QuantityText": "4",
          "QuantityUnit": "",
          "RecipeIngredientID": 5335291,
          "TrialMeasure": "",
          "TrialWeight": ""
        },
        {
          "FullMeasure": "1/2  cup",
          "FullWeight": "",
          "IngredientGridHeaders": null,
          "IngredientID": 4479,
          "IngredientName": "salsa",
          "IngredientStep": 20,
          "LanguageId": 0,
          "PostPreparation": "",
          "PrePreparation": "green",
          "QuantityNum": 0,
          "QuantityText": "1/2 ",
          "QuantityUnit": "cup",
          "RecipeIngredientID": 5335293,
          "TrialMeasure": "",
          "TrialWeight": ""
        },
        {
          "FullMeasure": "5 oz.",
          "FullWeight": "",
          "IngredientGridHeaders": null,
          "IngredientID": 20088,
          "IngredientName": "OSCAR MAYER CARVING BOARD Slow Cooked Ham",
          "IngredientStep": 30,
          "LanguageId": 0,
          "PostPreparation": "",
          "PrePreparation": "",
          "QuantityNum": 5,
          "QuantityText": "5",
          "QuantityUnit": "oz.",
          "RecipeIngredientID": 5335292,
          "TrialMeasure": "",
          "TrialWeight": ""
        },
        {
          "FullMeasure": "1 cup",
          "FullWeight": "",
          "IngredientGridHeaders": null,
          "IngredientID": 5663,
          "IngredientName": "pineapple",
          "IngredientStep": 40,
          "LanguageId": 0,
          "PostPreparation": "",
          "PrePreparation": " chopped fresh",
          "QuantityNum": 1,
          "QuantityText": "1",
          "QuantityUnit": "cup",
          "RecipeIngredientID": 5335295,
          "TrialMeasure": "",
          "TrialWeight": ""
        },
        {
          "FullMeasure": "1 cup",
          "FullWeight": "",
          "IngredientGridHeaders": null,
          "IngredientID": 3019,
          "IngredientName": "KRAFT 2% Milk Shredded Mozzarella Cheese",
          "IngredientStep": 50,
          "LanguageId": 0,
          "PostPreparation": "",
          "PrePreparation": "",
          "QuantityNum": 1,
          "QuantityText": "1",
          "QuantityUnit": "cup",
          "RecipeIngredientID": 5335294,
          "TrialMeasure": "",
          "TrialWeight": ""
        },
        {
          "FullMeasure": "1",
          "FullWeight": "",
          "IngredientGridHeaders": null,
          "IngredientID": 4035,
          "IngredientName": "plum tomato",
          "IngredientStep": 60,
          "LanguageId": 0,
          "PostPreparation": ", seeded, chopped",
          "PrePreparation": "",
          "QuantityNum": 1,
          "QuantityText": "1",
          "QuantityUnit": "",
          "RecipeIngredientID": 5335290,
          "TrialMeasure": "",
          "TrialWeight": ""
        },
        {
          "FullMeasure": "1/2 small",
          "FullWeight": "",
          "IngredientGridHeaders": null,
          "IngredientID": 1529,
          "IngredientName": "red onion",
          "IngredientStep": 70,
          "LanguageId": 0,
          "PostPreparation": ", sliced",
          "PrePreparation": "",
          "QuantityNum": 0,
          "QuantityText": "1/2",
          "QuantityUnit": "small",
          "RecipeIngredientID": 5335288,
          "TrialMeasure": "",
          "TrialWeight": ""
        },
        {
          "FullMeasure": "1 Tbsp.",
          "FullWeight": "",
          "IngredientGridHeaders": null,
          "IngredientID": 21089,
          "IngredientName": "fresh cilantro",
          "IngredientStep": 80,
          "LanguageId": 0,
          "PostPreparation": "",
          "PrePreparation": " chopped",
          "QuantityNum": 1,
          "QuantityText": "1",
          "QuantityUnit": "Tbsp.",
          "RecipeIngredientID": 5335289,
          "TrialMeasure": "",
          "TrialWeight": ""
        }
      ],
      "IsHealthyLiving": true,
      "KRLId": "566878",
      "KeyIngredients": [
        "Cheese",
        "Fruit",
        "Ham",
        "Meat",
        "Mozzarella",
        "Onion",
        "Pineapple",
        "Tomato",
        "Vegetables"
      ],
      "Keywords": "onions,OSCAR MAYER,OSCAR MAYER Ham,pineapple,cilantro,ham,herbs,KRAFT Mozzarella Cheese,meat,salsa,tomatoes,tortillas,mozzarella cheese-reduced fat,cheese-reduced fat,2% milk,OSCAR MAYER CARVING BOARD,Entree,Nutrition and Well-Being,All Seasons,Pizza,Dinner,Lunch,Spicy",
      "LanguageId": 1,
      "LifeStyles": [
        "Good source of calcium",
        "Generally Nutritious",
        "Diabetes Center"
      ],
      "NumberOfIngredients": 8,
      "NumberOfRatings": 0,
      "NumberOfRatingsWithComments": "0",
      "NumberOfServings": "4 servings",
      "NumberOfTrialServings": "",
      "NutritionBonus": "The cheese is rich in calcium in these Hawaiian-inspired pizzas.",
      "NutritionExchangeItemId": 1,
      "NutritionGridItems": null,
      "NutritionItems": [
        {
          "DisplayOrder": 1,
          "Document": null,
          "NutritionItemID": 3,
          "NutritionItemName": "Calories",
          "Predriscriptor": "",
          "Quantity": 290,
          "Unit": "          "
        },
        {
          "DisplayOrder": 2,
          "Document": "fat_cholesterol.html",
          "NutritionItemID": 4,
          "NutritionItemName": "Total fat",
          "Predriscriptor": "",
          "Quantity": 9,
          "Unit": "g         "
        },
        {
          "DisplayOrder": 3,
          "Document": "fat_cholesterol.html",
          "NutritionItemID": 9,
          "NutritionItemName": "Saturated fat",
          "Predriscriptor": "",
          "Quantity": 2.5,
          "Unit": "g         "
        },
        {
          "DisplayOrder": 7,
          "Document": "fat_cholesterol.html",
          "NutritionItemID": 2,
          "NutritionItemName": "Cholesterol",
          "Predriscriptor": "",
          "Quantity": 30,
          "Unit": "mg        "
        },
        {
          "DisplayOrder": 8,
          "Document": "sodium.html",
          "NutritionItemID": 8,
          "NutritionItemName": "Sodium",
          "Predriscriptor": "",
          "Quantity": 990,
          "Unit": "mg        "
        },
        {
          "DisplayOrder": 10,
          "Document": "carbs_sugars_fiber.html",
          "NutritionItemID": 1,
          "NutritionItemName": "Carbohydrate",
          "Predriscriptor": "",
          "Quantity": 32,
          "Unit": "g         "
        },
        {
          "DisplayOrder": 11,
          "Document": "carbs_sugars_fiber.html",
          "NutritionItemID": 7,
          "NutritionItemName": "Dietary fiber",
          "Predriscriptor": "",
          "Quantity": 2,
          "Unit": "g         "
        },
        {
          "DisplayOrder": 12,
          "Document": "carbs_sugars_fiber.html",
          "NutritionItemID": 5,
          "NutritionItemName": "Sugars",
          "Predriscriptor": "",
          "Quantity": 7,
          "Unit": "g         "
        },
        {
          "DisplayOrder": 13,
          "Document": null,
          "NutritionItemID": 6,
          "NutritionItemName": "Protein",
          "Predriscriptor": "",
          "Quantity": 21,
          "Unit": "g         "
        },
        {
          "DisplayOrder": 14,
          "Document": null,
          "NutritionItemID": 10,
          "NutritionItemName": "Vitamin A",
          "Predriscriptor": "",
          "Quantity": 10,
          "Unit": "%DV       "
        },
        {
          "DisplayOrder": 15,
          "Document": null,
          "NutritionItemID": 11,
          "NutritionItemName": "Vitamin C",
          "Predriscriptor": "",
          "Quantity": 50,
          "Unit": "%DV       "
        },
        {
          "DisplayOrder": 16,
          "Document": "dairy_and_calcium.html",
          "NutritionItemID": 12,
          "NutritionItemName": "Calcium",
          "Predriscriptor": "",
          "Quantity": 50,
          "Unit": "%DV       "
        },
        {
          "DisplayOrder": 17,
          "Document": null,
          "NutritionItemID": 13,
          "NutritionItemName": "Iron",
          "Predriscriptor": "",
          "Quantity": 8,
          "Unit": "%DV       "
        }
      ],
      "NutritionServingText": "",
      "PrepStepImage": null,
      "PreparationDescription": "Place tortillas on baking sheet; top with next 4 ingredients. $Broil 3 min. or until cheese is melted.$Top with remaining ingredients.",
      "PreparationPreText": "Heat broiler.",
      "PreparationSteps": [
        {
          "Description": "Place tortillas on baking sheet; top with next 4 ingredients. ",
          "PreparationStepImage": {
            "PictureFormats": [],
            "author": null,
            "id": null,
            "imageType": null,
            "mimeType": null,
            "publicationDate": null,
            "status": null,
            "title": null,
            "type": null
          },
          "Sequence": 1
        },
        {
          "Description": "Broil 3 min. or until cheese is melted.",
          "PreparationStepImage": {
            "PictureFormats": [],
            "author": null,
            "id": null,
            "imageType": null,
            "mimeType": null,
            "publicationDate": null,
            "status": null,
            "title": null,
            "type": null
          },
          "Sequence": 2
        },
        {
          "Description": "Top with remaining ingredients.",
          "PreparationStepImage": {
            "PictureFormats": [],
            "author": null,
            "id": null,
            "imageType": null,
            "mimeType": null,
            "publicationDate": null,
            "status": null,
            "title": null,
            "type": null
          },
          "Sequence": 3
        }
      ],
      "PreparationTime": 10,
      "Promotion": null,
      "Ratings": {
        "TotalCount": 0,
        "PageCount": 10,
        "PageNo": 1,
        "Rating": []
      },
      "RecipeDisplayFormatId": 5,
      "RecipeId": 124930,
      "RecipeName": "Pineapple-Ham Whole Wheat Pizzas",
      "RecipeType": 0,
      "RelatedData": {
        "RelatedBrands": null,
        "RelatedProducts": null,
        "RelatedRecipes": {
          "DefaultTopCount": 5,
          "Recipe": [
            {
              "AverageRating": 4,
              "HasVideo": false,
              "IsHealthyLiving": false,
              "NumberOfRatings": 1,
              "PhotoName": "Easy_Cheesy_RollUps.jpg",
              "PhotoUrl": "http://assets.kraftfoods.com/recipe_images/opendeploy/Easy_Cheesy_RollUps.jpg",
              "RecipeId": 52654,
              "RecipeName": "Easy Cheesy Roll-Ups",
              "SEOName": "easy-cheesy-roll-ups-52654",
              "ThumbnailPhoto": null
            },
            {
              "AverageRating": 4.4,
              "HasVideo": false,
              "IsHealthyLiving": false,
              "NumberOfRatings": 9,
              "PhotoName": "Hawaiian-Ham-n-Cheese-1165.jpg",
              "PhotoUrl": "http://assets.kraftfoods.com/recipe_images/opendeploy/Hawaiian-Ham-n-Cheese-1165.jpg",
              "RecipeId": 54538,
              "RecipeName": "Hawaiian Ham & Cheese",
              "SEOName": "hawaiian-ham-cheese-54538",
              "ThumbnailPhoto": null
            },
            {
              "AverageRating": 4.5,
              "HasVideo": false,
              "IsHealthyLiving": false,
              "NumberOfRatings": 4,
              "PhotoName": "Aloha_Canadian_Bacon_Pizza.jpg",
              "PhotoUrl": "http://assets.kraftfoods.com/recipe_images/opendeploy/Aloha_Canadian_Bacon_Pizza.jpg",
              "RecipeId": 74538,
              "RecipeName": "Aloha Canadian Bacon Pizza",
              "SEOName": "aloha-canadian-bacon-pizza-74538",
              "ThumbnailPhoto": null
            },
            {
              "AverageRating": 4.7,
              "HasVideo": false,
              "IsHealthyLiving": false,
              "NumberOfRatings": 134,
              "PhotoName": "53924.jpg",
              "PhotoUrl": "http://assets.kraftfoods.com/recipe_images/opendeploy/53924.jpg",
              "RecipeId": 53924,
              "RecipeName": "Glazed Ham with Dijon-Pineapple Sauce",
              "SEOName": "glazed-ham-dijon-pineapple-sauce-53924",
              "ThumbnailPhoto": null
            },
            {
              "AverageRating": 4.3,
              "HasVideo": false,
              "IsHealthyLiving": false,
              "NumberOfRatings": 3,
              "PhotoName": "120130.jpg",
              "PhotoUrl": "http://assets.kraftfoods.com/recipe_images/opendeploy/120130.jpg",
              "RecipeId": 120130,
              "RecipeName": "Big-Island Hammy Sammy",
              "SEOName": "big-island-hammy-sammy-120130",
              "ThumbnailPhoto": null
            }
          ],
          "TotalCount": 1539
        }
      },
      "RiseIngredients": [],
      "RiseTaxonomy": [],
      "Riserecipe": [
        {
          "GRIN": 566878,
          "RecipeId": 124930,
          "RecipeIndustrySector": "Retail",
          "RecipeType": "Internal"
        }
      ],
      "RomanceText": "We're big fans of Healthy Living pizza recipes here—especially this one, made with whole wheat tortillas and topped with ham and pineapple!",
      "SEOName": "pineapple-ham-whole-wheat-pizzas-124930",
      "Tips": [
        {
          "RecipeId": 124930,
          "Sequence": 10,
          "TipDescription": "Do not warm tortillas. Heat large skillet on medium heat.  Add 1 tortilla; cook just until warmed, turning once.  Top as directed; cover.  Cook 3 to 5 min. or until cheese is melted.  Repeat with remaining tortillas.  Top with remaining ingredients as directed. ",
          "TipID": 1,
          "TipName": "Use Your Stove Top"
        },
        {
          "RecipeId": 124930,
          "Sequence": 20,
          "TipDescription": "Serve with a mixed green salad tossed with your favorite KRAFT Light Dressing.",
          "TipID": 2,
          "TipName": "Serving Suggestion"
        }
      ],
      "TotalTime": 13,
      "TradeMarkInfo": null,
      "Video": [],
      "Yield": "Makes 4 servings."
    }
  ]
}