{
  "Metadata": {
    "PageCount": 1,
    "PageNo": 0,
    "TotalCount": 0
  },
  "Recipes": [
    {
      "AdServingKeywords": "Appetizer,Cheese,Garlic,Kale,Nuts,Parmesan,Vegetables,Easy,All Seasons,Spreads and Cheeseballs,Kraft Grated Cheese,Kraft Salad Dressing,Planters",
      "AlternateLanguageRecipes": [
        {
          "LanguageId": "2",
          "RecipeId": "191142",
          "SiteId": "1"
        },
        {
          "LanguageId": "2",
          "RecipeId": "191142",
          "SiteId": "90"
        }
      ],
      "Assets": [
        {
          "PictureFormats": [
            {
              "rendition": "640x428",
              "url": "http://assets.kraftfoods.com/recipe_images/opendeploy/178658_640x428.jpg"
            },
            {
              "rendition": "290x194",
              "url": "http://assets.kraftfoods.com/recipe_images/opendeploy/178658_290x194.jpg"
            },
            {
              "rendition": "600x250",
              "url": "http://assets.kraftfoods.com/recipe_images/opendeploy/178658_600x250.jpg"
            },
            {
              "rendition": "640x428",
              "url": "http://assets.kraftfoods.com/recipe_images/opendeploy/178658_640x428.jpg"
            }
          ],
          "author": null,
          "id": "3",
          "imageType": "Primary",
          "mimeType": "image/jpeg",
          "publicationDate": null,
          "status": "1",
          "title": "178658",
          "type": "image"
        },
        {
          "PictureFormats": [
            {
              "rendition": "300x200",
              "url": "http://assets.kraftfoods.com/recipe_images/178658.jpg"
            },
            {
              "rendition": "300x200",
              "url": "http://assets.kraftfoods.com/recipe_images/179137_MXM_66035v0E_WP.jpg"
            }
          ],
          "author": null,
          "id": "1",
          "imageType": "LANDSCAPE",
          "mimeType": "image/jpeg",
          "publicationDate": null,
          "status": "1",
          "title": "179137_MXM_66035v0E_WP.jpg",
          "type": "image"
        }
      ],
      "AverageRating": 0,
      "BrandId": 1,
      "Branding": null,
      "CSSSkins": null,
      "CarbCounter": null,
      "Categories": [
        {
          "CategoryID": 6,
          "CategoryName": "Appetizers/Snacks",
          "CategoryRank": 1,
          "SubCategoryID": 128,
          "SubCategoryName": "Spreads & Cheeseballs",
          "SubCategoryRank": 120
        },
        {
          "CategoryID": 11,
          "CategoryName": "Primary",
          "CategoryRank": 0,
          "SubCategoryID": 96,
          "SubCategoryName": "Appetizers & Snacks",
          "SubCategoryRank": 10
        },
        {
          "CategoryID": 714,
          "CategoryName": "Sauces, Rubs & Marinades",
          "CategoryRank": 0,
          "SubCategoryID": 547,
          "SubCategoryName": "Condiments/Salsa/Relishes",
          "SubCategoryRank": 0
        },
        {
          "CategoryID": 758,
          "CategoryName": "Marinades, Sauces, Spreads & Frostings",
          "CategoryRank": 12,
          "SubCategoryID": 2573,
          "SubCategoryName": "Savoury",
          "SubCategoryRank": 1
        },
        {
          "CategoryID": 758,
          "CategoryName": "Marinades, Sauces, Spreads & Frostings",
          "CategoryRank": 12,
          "SubCategoryID": 2575,
          "SubCategoryName": "Cold",
          "SubCategoryRank": 1
        }
      ],
      "Classifications": [],
      "ComplimentaryRecipes": null,
      "CookingMethod": null,
      "Copyright": null,
      "Courses": [
        "Appetizers"
      ],
      "DietExchange": null,
      "DishDetails": [
        {
          "Text": "appetizers",
          "Url": "/recipes/appetizers/main.aspx"
        },
        {
          "Text": "cold appetizers",
          "Url": "/recipes/appetizers/coldappetizers.aspx"
        },
        {
          "Text": "cheese plates",
          "Url": "/recipes/appetizers/entertainingcheeseplates.aspx"
        },
        {
          "Text": "hot appetizers",
          "Url": "/recipes/appetizers/hotappetizers.aspx"
        },
        {
          "Text": "quick appetizers",
          "Url": "/recipes/appetizers/quick.aspx"
        },
        {
          "Text": "salsa recipes",
          "Url": "/recipes/appetizers/salsa-recipes/main.aspx"
        },
        {
          "Text": "seafood appetizers",
          "Url": "/recipes/dinner/seafood/appetizers/main.aspx"
        },
        {
          "Text": "dip recipes",
          "Url": "/recipes/appetizers/dip-recipes/main.aspx"
        }
      ],
      "EndDate": "/Date(-62135575200000-0600)/",
      "HasVideo": false,
      "Ingredients": [
        {
          "FullMeasure": "3 cups",
          "FullWeight": "",
          "IngredientGridHeaders": null,
          "IngredientID": 6922,
          "IngredientName": "kale",
          "IngredientStep": 10,
          "LanguageId": 0,
          "PostPreparation": " leaves",
          "PrePreparation": "loosely packed coarsely chopped  stemmed",
          "QuantityNum": 3,
          "QuantityText": "3",
          "QuantityUnit": "cups",
          "RecipeIngredientID": 5580294,
          "TrialMeasure": "",
          "TrialWeight": ""
        },
        {
          "FullMeasure": "1/3 cup",
          "FullWeight": "",
          "IngredientGridHeaders": null,
          "IngredientID": 397,
          "IngredientName": "KRAFT Grated Parmesan Cheese",
          "IngredientStep": 20,
          "LanguageId": 0,
          "PostPreparation": "",
          "PrePreparation": "",
          "QuantityNum": 0,
          "QuantityText": "1/3",
          "QuantityUnit": "cup",
          "RecipeIngredientID": 5580296,
          "TrialMeasure": "",
          "TrialWeight": ""
        },
        {
          "FullMeasure": "1/3 cup",
          "FullWeight": "",
          "IngredientGridHeaders": null,
          "IngredientID": 1741,
          "IngredientName": "PLANTERS Walnuts",
          "IngredientStep": 30,
          "LanguageId": 0,
          "PostPreparation": ", toasted",
          "PrePreparation": "coarsely chopped",
          "QuantityNum": 0,
          "QuantityText": "1/3",
          "QuantityUnit": "cup",
          "RecipeIngredientID": 5580298,
          "TrialMeasure": "",
          "TrialWeight": ""
        },
        {
          "FullMeasure": "1/3 cup",
          "FullWeight": "",
          "IngredientGridHeaders": null,
          "IngredientID": 439,
          "IngredientName": "KRAFT Tuscan House Italian Dressing",
          "IngredientStep": 40,
          "LanguageId": 0,
          "PostPreparation": "",
          "PrePreparation": "",
          "QuantityNum": 0,
          "QuantityText": "1/3",
          "QuantityUnit": "cup",
          "RecipeIngredientID": 5580297,
          "TrialMeasure": "",
          "TrialWeight": ""
        },
        {
          "FullMeasure": "1 clove",
          "FullWeight": "",
          "IngredientGridHeaders": null,
          "IngredientID": 1175,
          "IngredientName": "garlic",
          "IngredientStep": 50,
          "LanguageId": 0,
          "PostPreparation": "",
          "PrePreparation": "",
          "QuantityNum": 1,
          "QuantityText": "1",
          "QuantityUnit": "clove",
          "RecipeIngredientID": 5580295,
          "TrialMeasure": "",
          "TrialWeight": ""
        }
      ],
      "IsHealthyLiving": false,
      "KRLId": "573640",
      "KeyIngredients": [
        "Cheese",
        "Garlic",
        "Nuts",
        "Parmesan",
        "Vegetables"
      ],
      "Keywords": "nuts,parmesan cheese,cheese,dressing,italian dressing,kale,KRAFT Dressing,KRAFT Parmesan Cheese,salad dressing,walnuts,garlic,PLANTERS Walnuts,Planters,Appetizer,Easy,All Seasons,Spreads and Cheeseballs",
      "LanguageId": 1,
      "LifeStyles": [],
      "NumberOfIngredients": 5,
      "NumberOfRatings": 0,
      "NumberOfRatingsWithComments": "0",
      "NumberOfServings": "4 servings, 1/4 cup each",
      "NumberOfTrialServings": "",
      "NutritionBonus": null,
      "NutritionExchangeItemId": 0,
      "NutritionGridItems": null,
      "NutritionItems": [
        {
          "DisplayOrder": 1,
          "Document": null,
          "NutritionItemID": 3,
          "NutritionItemName": "Calories",
          "Predriscriptor": "",
          "Quantity": 210,
          "Unit": "          "
        },
        {
          "DisplayOrder": 2,
          "Document": "fat_cholesterol.html",
          "NutritionItemID": 4,
          "NutritionItemName": "Total fat",
          "Predriscriptor": "",
          "Quantity": 18,
          "Unit": "g         "
        },
        {
          "DisplayOrder": 3,
          "Document": "fat_cholesterol.html",
          "NutritionItemID": 9,
          "NutritionItemName": "Saturated fat",
          "Predriscriptor": "",
          "Quantity": 3.5,
          "Unit": "g         "
        },
        {
          "DisplayOrder": 7,
          "Document": "fat_cholesterol.html",
          "NutritionItemID": 2,
          "NutritionItemName": "Cholesterol",
          "Predriscriptor": "",
          "Quantity": 10,
          "Unit": "mg        "
        },
        {
          "DisplayOrder": 8,
          "Document": "sodium.html",
          "NutritionItemID": 8,
          "NutritionItemName": "Sodium",
          "Predriscriptor": "",
          "Quantity": 340,
          "Unit": "mg        "
        },
        {
          "DisplayOrder": 10,
          "Document": "carbs_sugars_fiber.html",
          "NutritionItemID": 1,
          "NutritionItemName": "Carbohydrate",
          "Predriscriptor": "",
          "Quantity": 7,
          "Unit": "g         "
        },
        {
          "DisplayOrder": 11,
          "Document": "carbs_sugars_fiber.html",
          "NutritionItemID": 7,
          "NutritionItemName": "Dietary fiber",
          "Predriscriptor": "",
          "Quantity": 2,
          "Unit": "g         "
        },
        {
          "DisplayOrder": 12,
          "Document": "carbs_sugars_fiber.html",
          "NutritionItemID": 5,
          "NutritionItemName": "Sugars",
          "Predriscriptor": "",
          "Quantity": 2,
          "Unit": "g         "
        },
        {
          "DisplayOrder": 13,
          "Document": null,
          "NutritionItemID": 6,
          "NutritionItemName": "Protein",
          "Predriscriptor": "",
          "Quantity": 7,
          "Unit": "g         "
        },
        {
          "DisplayOrder": 14,
          "Document": null,
          "NutritionItemID": 10,
          "NutritionItemName": "Vitamin A",
          "Predriscriptor": "",
          "Quantity": 70,
          "Unit": "%DV       "
        },
        {
          "DisplayOrder": 15,
          "Document": null,
          "NutritionItemID": 11,
          "NutritionItemName": "Vitamin C",
          "Predriscriptor": "",
          "Quantity": 70,
          "Unit": "%DV       "
        },
        {
          "DisplayOrder": 16,
          "Document": "dairy_and_calcium.html",
          "NutritionItemID": 12,
          "NutritionItemName": "Calcium",
          "Predriscriptor": "",
          "Quantity": 20,
          "Unit": "%DV       "
        },
        {
          "DisplayOrder": 17,
          "Document": null,
          "NutritionItemID": 13,
          "NutritionItemName": "Iron",
          "Predriscriptor": "",
          "Quantity": 6,
          "Unit": "%DV       "
        }
      ],
      "NutritionServingText": " ",
      "PrepStepImage": null,
      "PreparationDescription": "Process ingredients in food processor or blender until smooth.",
      "PreparationPreText": "",
      "PreparationSteps": [
        {
          "Description": "Process ingredients in food processor or blender until smooth.",
          "PreparationStepImage": {
            "PictureFormats": [],
            "author": null,
            "id": null,
            "imageType": null,
            "mimeType": null,
            "publicationDate": null,
            "status": null,
            "title": null,
            "type": null
          },
          "Sequence": 1
        }
      ],
      "PreparationTime": 10,
      "Promotion": null,
      "Ratings": {
        "TotalCount": 0,
        "PageCount": 10,
        "PageNo": 1,
        "Rating": []
      },
      "RecipeDisplayFormatId": 5,
      "RecipeId": 178658,
      "RecipeName": "Kale and Walnut Pesto",
      "RecipeType": 0,
      "RelatedData": {
        "RelatedBrands": null,
        "RelatedProducts": null,
        "RelatedRecipes": {
          "DefaultTopCount": 5,
          "Recipe": [
            {
              "AverageRating": 4,
              "HasVideo": false,
              "IsHealthyLiving": false,
              "NumberOfRatings": 7,
              "PhotoName": "185115.jpg",
              "PhotoUrl": "http://assets.kraftfoods.com/recipe_images/opendeploy/185115.jpg",
              "RecipeId": 185115,
              "RecipeName": "Italian Sausage & Kale Stuffing",
              "SEOName": "italian-sausage-kale-stuffing-185115",
              "ThumbnailPhoto": null
            },
            {
              "AverageRating": 4,
              "HasVideo": false,
              "IsHealthyLiving": false,
              "NumberOfRatings": 8,
              "PhotoName": "Dijon_Pesto_Steak.jpg",
              "PhotoUrl": "http://assets.kraftfoods.com/recipe_images/opendeploy/Dijon_Pesto_Steak.jpg",
              "RecipeId": 54070,
              "RecipeName": "Dijon Pesto Steak",
              "SEOName": "dijon-pesto-steak-54070",
              "ThumbnailPhoto": null
            },
            {
              "AverageRating": 5,
              "HasVideo": false,
              "IsHealthyLiving": false,
              "NumberOfRatings": 1,
              "PhotoName": "171710_TMB_66742v0_CR.jpg",
              "PhotoUrl": "http://assets.kraftfoods.com/recipe_images/opendeploy/171710_TMB_66742v0_CR.jpg",
              "RecipeId": 171710,
              "RecipeName": "Cheesy Cauliflower, Kale and Quinoa Soup",
              "SEOName": "cheesy-cauliflower-kale-quinoa-soup-171710",
              "ThumbnailPhoto": null
            },
            {
              "AverageRating": 5,
              "HasVideo": false,
              "IsHealthyLiving": true,
              "NumberOfRatings": 2,
              "PhotoName": "180044.jpg",
              "PhotoUrl": "http://assets.kraftfoods.com/recipe_images/opendeploy/180044.jpg",
              "RecipeId": 180044,
              "RecipeName": "Spicy Kale Caesar Salad",
              "SEOName": "spicy-kale-caesar-salad-180044",
              "ThumbnailPhoto": null
            },
            {
              "AverageRating": 5,
              "HasVideo": false,
              "IsHealthyLiving": false,
              "NumberOfRatings": 1,
              "PhotoName": "181115.jpg",
              "PhotoUrl": "http://assets.kraftfoods.com/recipe_images/opendeploy/181115.jpg",
              "RecipeId": 181115,
              "RecipeName": "Spicy Sweet Potato and Kale Pasta Bake",
              "SEOName": "spicy-sweet-potato-kale-pasta-bake-181115",
              "ThumbnailPhoto": null
            }
          ],
          "TotalCount": 286
        }
      },
      "RiseIngredients": [],
      "RiseTaxonomy": [],
      "Riserecipe": [
        {
          "GRIN": 573640,
          "RecipeId": 178658,
          "RecipeIndustrySector": "Retail",
          "RecipeType": "Internal"
        }
      ],
      "RomanceText": "Add this Kale and Walnut pesto to your favorite pasta or veggies for an alternative to the classic basil pesto. Toast the walnuts to add crunch and flavor.",
      "SEOName": "kale-walnut-pesto-178658",
      "Tips": [
        {
          "RecipeId": 178658,
          "Sequence": 10,
          "TipDescription": "Cook 1/2 lb. angel hair pasta; drain, reserving 1/2 cup cooking water.  Toss pasta with prepared pesto, 1 cup halved cherry tomatoes and enough of the reserved cooking water until sauce is of desired consistency. ",
          "TipID": 4,
          "TipName": "Serving Suggestion"
        },
        {
          "RecipeId": 178658,
          "Sequence": 20,
          "TipDescription": "Store in airtight container in refrigerator up to 1 week. Or, freeze in ice cube trays until firm, then pop out and store in resealable plastic bags until ready to use. ",
          "TipID": 5,
          "TipName": "How to Store"
        },
        {
          "RecipeId": 178658,
          "Sequence": 40,
          "TipDescription": "Toasting nuts adds crunch and intensifies their flavor.  To toast nuts in the oven, spread nuts in single layer in shallow baking pan.  Bake at 350°F for 8 to 10 min. or until golden brown, stirring occasionally.  To toast nuts on the stovetop, place nuts in ungreased skillet.  Cook on medium heat until golden brown, stirring frequently.  To toast nuts in the microwave, place up to 1 cup of nuts in a microwaveable shallow dish.  Microwave on HIGH until fragrant and crisp, stirring every 30 sec.",
          "TipID": 4306,
          "TipName": "How to Toast Nuts"
        },
        {
          "RecipeId": 178658,
          "Sequence": 40,
          "TipDescription": "A serving of this flavorful pesto provides an excellent source of vitamin A, thanks to the kale.",
          "TipID": 2,
          "TipName": "Food Facts"
        }
      ],
      "TotalTime": 10,
      "TradeMarkInfo": null,
      "Video": [],
      "Yield": "4 servings, 1/4 cup each"
    }
  ]
}