{
  "Metadata": {
    "PageCount": 1,
    "PageNo": 0,
    "TotalCount": 0
  },
  "Recipes": [
    {
      "AdServingKeywords": "Barbecued ,Broiled,Entree,Easy,Berries,Chicken,Fruit,Lettuce,Meat,Pineapple,Poultry,Strawberry,Bulls-Eye,Kraft Salad Dressing,Dinner,Lunch,All Seasons,BBQ,Summer,Entree Salad",
      "AlternateLanguageRecipes": [],
      "Assets": [
        {
          "PictureFormats": [
            {
              "rendition": "140x90",
              "url": "http://assets.kraftfoods.com/recipe_images/opendeploy/52102_SGS_K18412V0_OR1_CR_140x90.jpg"
            },
            {
              "rendition": "290x194",
              "url": "http://assets.kraftfoods.com/recipe_images/opendeploy/52102_SGS_K18412V0_OR1_CR_290x194.jpg"
            },
            {
              "rendition": "300x250",
              "url": "http://assets.kraftfoods.com/recipe_images/opendeploy/52102_SGS_K18412V0_OR1_CR_300x250.jpg"
            },
            {
              "rendition": "600x250",
              "url": "http://assets.kraftfoods.com/recipe_images/opendeploy/52102_SGS_K18412V0_OR1_CR_600x250.jpg"
            },
            {
              "rendition": "640x428",
              "url": "http://assets.kraftfoods.com/recipe_images/opendeploy/52102_SGS_K18412V0_OR1_CR_640x428.jpg"
            },
            {
              "rendition": "960x300",
              "url": "http://assets.kraftfoods.com/recipe_images/opendeploy/52102_SGS_K18412V0_OR1_CR_960x300.jpg"
            }
          ],
          "author": null,
          "id": "5",
          "imageType": "Primary",
          "mimeType": "image/jpeg",
          "publicationDate": null,
          "status": "1",
          "title": "52102_SGS_K18412V0_OR1_CR",
          "type": "image"
        },
        {
          "PictureFormats": [
            {
              "rendition": "300x200",
              "url": "http://assets.kraftfoods.com/recipe_images/BBQ_Chicken_and_Fruit_Salad.jpg"
            }
          ],
          "author": null,
          "id": "0",
          "imageType": "DEFAULT",
          "mimeType": null,
          "publicationDate": null,
          "status": "1",
          "title": "BBQ_Chicken_and_Fruit_Salad.jpg",
          "type": "image"
        }
      ],
      "AverageRating": 4.6,
      "BrandId": 1,
      "Branding": null,
      "CSSSkins": [],
      "CarbCounter": "3",
      "Categories": [
        {
          "CategoryID": 2,
          "CategoryName": "Poultry Entrees",
          "CategoryRank": 11,
          "SubCategoryID": 383,
          "SubCategoryName": "Salads",
          "SubCategoryRank": 60
        },
        {
          "CategoryID": 9,
          "CategoryName": "Salads/Side Dishes",
          "CategoryRank": 13,
          "SubCategoryID": 171,
          "SubCategoryName": "Main Dish Salads: Chicken",
          "SubCategoryRank": 60
        },
        {
          "CategoryID": 11,
          "CategoryName": "Primary",
          "CategoryRank": 0,
          "SubCategoryID": 97,
          "SubCategoryName": "Entrees",
          "SubCategoryRank": 50
        },
        {
          "CategoryID": 11,
          "CategoryName": "Primary",
          "CategoryRank": 0,
          "SubCategoryID": 98,
          "SubCategoryName": "Salads",
          "SubCategoryRank": 70
        },
        {
          "CategoryID": 752,
          "CategoryName": "Salads",
          "CategoryRank": 6,
          "SubCategoryID": 2534,
          "SubCategoryName": "Main Course",
          "SubCategoryRank": 1
        },
        {
          "CategoryID": 752,
          "CategoryName": "Salads",
          "CategoryRank": 6,
          "SubCategoryID": 2537,
          "SubCategoryName": "Pasta / Rice",
          "SubCategoryRank": 1
        },
        {
          "CategoryID": 752,
          "CategoryName": "Salads",
          "CategoryRank": 6,
          "SubCategoryID": 2538,
          "SubCategoryName": "Potato",
          "SubCategoryRank": 1
        },
        {
          "CategoryID": 756,
          "CategoryName": "Main Meals (Meat / Seafood / Egg)",
          "CategoryRank": 10,
          "SubCategoryID": 2562,
          "SubCategoryName": "Chicken",
          "SubCategoryRank": 1
        }
      ],
      "Classifications": [
        {
          "ClassficationId": 9,
          "ClassificationName": "Low fat"
        },
        {
          "ClassficationId": 11,
          "ClassificationName": "Low calorie"
        },
        {
          "ClassficationId": 13,
          "ClassificationName": "Good source of vitamin A or C"
        },
        {
          "ClassficationId": 14,
          "ClassificationName": "Generally Nutritious"
        },
        {
          "ClassficationId": 119,
          "ClassificationName": "Diabetes Center"
        }
      ],
      "ComplimentaryRecipes": null,
      "CookingMethod": null,
      "Copyright": null,
      "Courses": [
        "Main dishes",
        "Salads & sides"
      ],
      "DietExchange": "1 Fruit,2 Carbohydrate,3 Meat (L)",
      "DishDetails": [
        {
          "Text": "chicken recipes",
          "Url": "/recipes/dinner/chicken-recipes/main.aspx"
        },
        {
          "Text": "grilled chicken recipes",
          "Url": "/recipes/dinner/chicken-recipes/grilled-chicken/main.aspx"
        },
        {
          "Text": "healthy living chicken recipes",
          "Url": "/recipes/dinner/chicken-recipes/hl/main.aspx"
        },
        {
          "Text": "slow cooker chicken recipes",
          "Url": "/recipes/dinner/chicken-recipes/slow-cooker/main.aspx"
        },
        {
          "Text": "whole chicken recipes",
          "Url": "/recipes/dinner/chicken-recipes/whole-chicken/main.aspx"
        },
        {
          "Text": "chicken breast recipes",
          "Url": "/recipes/dinner/chicken-recipes/chicken-breast/main.aspx"
        },
        {
          "Text": "chicken casseroles",
          "Url": "/recipes/dinner/chicken-recipes/casseroles/main.aspx"
        },
        {
          "Text": "chicken pasta recipes",
          "Url": "/recipes/dinner/chicken-recipes/pasta-dishes/main.aspx"
        },
        {
          "Text": "chicken salad recipes",
          "Url": "/recipes/dinner/chicken-recipes/salads/main.aspx"
        },
        {
          "Text": "chicken stir-fry recipes",
          "Url": "/recipes/dinner/chicken-recipes/stir-fry/main.aspx"
        },
        {
          "Text": "chicken wing recipes",
          "Url": "/recipes/appetizers/chicken-wing-recipes/main.aspx"
        },
        {
          "Text": "baked chicken recipes",
          "Url": "/recipes/dinner/chicken-recipes/baked-chicken/main.aspx"
        },
        {
          "Text": "bbq chicken recipes",
          "Url": "/recipes/holidays-and-entertaining/entertaining/summer/bbq-recipes/bbq-chicken-recipes/main.aspx"
        }
      ],
      "EndDate": "/Date(-62135575200000-0600)/",
      "HasVideo": false,
      "Ingredients": [
        {
          "FullMeasure": "4 small",
          "FullWeight": "",
          "IngredientGridHeaders": null,
          "IngredientID": 27042,
          "IngredientName": "boneless skinless chicken breasts",
          "IngredientStep": 10,
          "LanguageId": 0,
          "PostPreparation": " (1 lb.)",
          "PrePreparation": "",
          "QuantityNum": 4,
          "QuantityText": "4",
          "QuantityUnit": "small",
          "RecipeIngredientID": 4413578,
          "TrialMeasure": "",
          "TrialWeight": ""
        },
        {
          "FullMeasure": "1/2 cup",
          "FullWeight": "",
          "IngredientGridHeaders": null,
          "IngredientID": 103,
          "IngredientName": "BULL'S-EYE Original Barbecue Sauce",
          "IngredientStep": 20,
          "LanguageId": 0,
          "PostPreparation": "",
          "PrePreparation": "",
          "QuantityNum": 0,
          "QuantityText": "1/2",
          "QuantityUnit": "cup",
          "RecipeIngredientID": 4413577,
          "TrialMeasure": "",
          "TrialWeight": ""
        },
        {
          "FullMeasure": "4",
          "FullWeight": "",
          "IngredientGridHeaders": null,
          "IngredientID": 5256,
          "IngredientName": "pineapple rings",
          "IngredientStep": 30,
          "LanguageId": 0,
          "PostPreparation": "",
          "PrePreparation": "canned",
          "QuantityNum": 4,
          "QuantityText": "4",
          "QuantityUnit": "",
          "RecipeIngredientID": 4413574,
          "TrialMeasure": "",
          "TrialWeight": ""
        },
        {
          "FullMeasure": "1 pkg.",
          "FullWeight": "",
          "IngredientGridHeaders": null,
          "IngredientID": 1357,
          "IngredientName": "mixed salad greens",
          "IngredientStep": 40,
          "LanguageId": 0,
          "PostPreparation": "",
          "PrePreparation": "(10 oz.) torn",
          "QuantityNum": 1,
          "QuantityText": "1",
          "QuantityUnit": "pkg.",
          "RecipeIngredientID": 4413575,
          "TrialMeasure": "",
          "TrialWeight": ""
        },
        {
          "FullMeasure": "1 pt.",
          "FullWeight": "",
          "IngredientGridHeaders": null,
          "IngredientID": 1659,
          "IngredientName": "strawberries",
          "IngredientStep": 50,
          "LanguageId": 0,
          "PostPreparation": ", cut in half",
          "PrePreparation": "",
          "QuantityNum": 1,
          "QuantityText": "1",
          "QuantityUnit": "pt.",
          "RecipeIngredientID": 4413573,
          "TrialMeasure": "",
          "TrialWeight": ""
        },
        {
          "FullMeasure": "1/2 cup",
          "FullWeight": "",
          "IngredientGridHeaders": null,
          "IngredientID": 4563,
          "IngredientName": "KRAFT Lite CATALINA Dressing",
          "IngredientStep": 60,
          "LanguageId": 0,
          "PostPreparation": "",
          "PrePreparation": "",
          "QuantityNum": 0,
          "QuantityText": "1/2",
          "QuantityUnit": "cup",
          "RecipeIngredientID": 4413576,
          "TrialMeasure": "",
          "TrialWeight": ""
        }
      ],
      "IsHealthyLiving": true,
      "KRLId": "521368",
      "KeyIngredients": [
        "Berries",
        "Fruit",
        "Lettuce",
        "Pineapple",
        "Strawberry"
      ],
      "Keywords": "pineapple,barbecue sauce,berries,chicken,chicken breasts-boneless,KRAFT LIGHT Dressing,lettuce,meat,mixed greens,salad greens,strawberries,BULL'S EYE Barbecue Sauce,catalina dressing,dressing-reduced fat,salad dressing-reduced fat,bbq sauce,chicken breasts,Barbecued ,Broiled,Entree,Easy,All Seasons,Entree Salad",
      "LanguageId": 1,
      "LifeStyles": [
        "Low fat",
        "Low calorie",
        "Good source of vitamin A or C",
        "Generally Nutritious",
        "Diabetes Center"
      ],
      "NumberOfIngredients": 6,
      "NumberOfRatings": 37,
      "NumberOfRatingsWithComments": "29",
      "NumberOfServings": "4 servings",
      "NumberOfTrialServings": "",
      "NutritionBonus": "Top fresh salad greens with strawberries, barbecued broiled chicken and pineapple rings for a low-fat, low-calorie meal that's bursting with flavor plus rich in vitamin C from the strawberries.  You'll also get over 1/2 cup of the recommended 2 cups of fruit per day. ",
      "NutritionExchangeItemId": 1,
      "NutritionGridItems": null,
      "NutritionItems": [
        {
          "DisplayOrder": 1,
          "Document": null,
          "NutritionItemID": 3,
          "NutritionItemName": "Calories",
          "Predriscriptor": "",
          "Quantity": 320,
          "Unit": "          "
        },
        {
          "DisplayOrder": 2,
          "Document": "fat_cholesterol.html",
          "NutritionItemID": 4,
          "NutritionItemName": "Total fat",
          "Predriscriptor": "",
          "Quantity": 4.5,
          "Unit": "g         "
        },
        {
          "DisplayOrder": 3,
          "Document": "fat_cholesterol.html",
          "NutritionItemID": 9,
          "NutritionItemName": "Saturated fat",
          "Predriscriptor": "",
          "Quantity": 1,
          "Unit": "g         "
        },
        {
          "DisplayOrder": 7,
          "Document": "fat_cholesterol.html",
          "NutritionItemID": 2,
          "NutritionItemName": "Cholesterol",
          "Predriscriptor": "",
          "Quantity": 65,
          "Unit": "mg        "
        },
        {
          "DisplayOrder": 8,
          "Document": "sodium.html",
          "NutritionItemID": 8,
          "NutritionItemName": "Sodium",
          "Predriscriptor": "",
          "Quantity": 870,
          "Unit": "mg        "
        },
        {
          "DisplayOrder": 10,
          "Document": "carbs_sugars_fiber.html",
          "NutritionItemID": 1,
          "NutritionItemName": "Carbohydrate",
          "Predriscriptor": "",
          "Quantity": 45,
          "Unit": "g         "
        },
        {
          "DisplayOrder": 11,
          "Document": "carbs_sugars_fiber.html",
          "NutritionItemID": 7,
          "NutritionItemName": "Dietary fiber",
          "Predriscriptor": "",
          "Quantity": 5,
          "Unit": "g         "
        },
        {
          "DisplayOrder": 12,
          "Document": "carbs_sugars_fiber.html",
          "NutritionItemID": 5,
          "NutritionItemName": "Sugars",
          "Predriscriptor": "",
          "Quantity": 34,
          "Unit": "g         "
        },
        {
          "DisplayOrder": 13,
          "Document": null,
          "NutritionItemID": 6,
          "NutritionItemName": "Protein",
          "Predriscriptor": "",
          "Quantity": 26,
          "Unit": "g         "
        },
        {
          "DisplayOrder": 14,
          "Document": null,
          "NutritionItemID": 10,
          "NutritionItemName": "Vitamin A",
          "Predriscriptor": "",
          "Quantity": 20,
          "Unit": "%DV       "
        },
        {
          "DisplayOrder": 15,
          "Document": null,
          "NutritionItemID": 11,
          "NutritionItemName": "Vitamin C",
          "Predriscriptor": "",
          "Quantity": 110,
          "Unit": "%DV       "
        },
        {
          "DisplayOrder": 16,
          "Document": "dairy_and_calcium.html",
          "NutritionItemID": 12,
          "NutritionItemName": "Calcium",
          "Predriscriptor": "",
          "Quantity": 8,
          "Unit": "%DV       "
        },
        {
          "DisplayOrder": 17,
          "Document": null,
          "NutritionItemID": 13,
          "NutritionItemName": "Iron",
          "Predriscriptor": "",
          "Quantity": 10,
          "Unit": "%DV       "
        }
      ],
      "NutritionServingText": " ",
      "PrepStepImage": null,
      "PreparationDescription": "Broil chicken 4  inches from heat 20 to 25 min. or until chicken is done (165ºF.), turning and brushing frequently with barbecue sauce for the last 15 min. and adding pineapple for the last 5 min. of broiling time.  $Cut chicken into strips.$Arrange greens and strawberries on serving plate.  Top with chicken and pineapple.  Serve with dressing.",
      "PreparationPreText": "Heat broiler.",
      "PreparationSteps": [
        {
          "Description": "Broil chicken 4  inches from heat 20 to 25 min. or until chicken is done (165ºF.), turning and brushing frequently with barbecue sauce for the last 15 min. and adding pineapple for the last 5 min. of broiling time.  ",
          "PreparationStepImage": {
            "PictureFormats": [],
            "author": null,
            "id": null,
            "imageType": null,
            "mimeType": null,
            "publicationDate": null,
            "status": null,
            "title": null,
            "type": null
          },
          "Sequence": 1
        },
        {
          "Description": "Cut chicken into strips.",
          "PreparationStepImage": {
            "PictureFormats": [],
            "author": null,
            "id": null,
            "imageType": null,
            "mimeType": null,
            "publicationDate": null,
            "status": null,
            "title": null,
            "type": null
          },
          "Sequence": 2
        },
        {
          "Description": "Arrange greens and strawberries on serving plate.  Top with chicken and pineapple.  Serve with dressing.",
          "PreparationStepImage": {
            "PictureFormats": [],
            "author": null,
            "id": null,
            "imageType": null,
            "mimeType": null,
            "publicationDate": null,
            "status": null,
            "title": null,
            "type": null
          },
          "Sequence": 3
        }
      ],
      "PreparationTime": 35,
      "Promotion": null,
      "Ratings": {
        "TotalCount": 37,
        "PageCount": 10,
        "PageNo": 1,
        "Rating": [
          {
            "Comment": "Amazingly delicious! My entire family LOVED this dish. My husband says I am an EXTREMELY good cook, but this meal was one of the BEST! ",
            "DisplayName": true,
            "RatingValue": 5,
            "SubmitDate": "/Date(1396701886000-0500)/",
            "UpdatedDate": "/Date(1396701886000-0500)/",
            "UserName": "hunterandodiesmama"
          },
          {
            "Comment": "",
            "DisplayName": true,
            "RatingValue": 5,
            "SubmitDate": "/Date(1281303235000-0500)/",
            "UpdatedDate": "/Date(1281303235000-0500)/",
            "UserName": "KatiePiercy"
          },
          {
            "Comment": "easy to make and change up ---if you don't have fresh strawberries on hand",
            "DisplayName": true,
            "RatingValue": 4,
            "SubmitDate": "/Date(1252599063000-0500)/",
            "UpdatedDate": "/Date(1252599063000-0500)/",
            "UserName": "italski2"
          },
          {
            "Comment": "This had amazing taste! Instead of putting the meat and fruit onto a scewer, I made it into a salad. Simply delilsh!",
            "DisplayName": true,
            "RatingValue": 5,
            "SubmitDate": "/Date(1242874649000-0500)/",
            "UpdatedDate": "/Date(1242874649000-0500)/",
            "UserName": "aliencowhide"
          },
          {
            "Comment": "Awesome!  I grilled the chicken and pineapple (fresh).  Big hit with the fam!",
            "DisplayName": true,
            "RatingValue": 5,
            "SubmitDate": "/Date(1213503992000-0500)/",
            "UpdatedDate": "/Date(1213503992000-0500)/",
            "UserName": "lisalayton11"
          },
          {
            "Comment": "This is a great summer recipe with the weather warming up I really enjoyed this.",
            "DisplayName": true,
            "RatingValue": 5,
            "SubmitDate": "/Date(1213044240000-0500)/",
            "UpdatedDate": "/Date(1213044240000-0500)/",
            "UserName": "kmburke12"
          },
          {
            "Comment": "Scrumptious! Everyone loves it. It is great  with baby spinach, too. My husband is diabetic, and  substituting low sugar low fat ingredients and fresh pineapple for the canned is also delicious and satisfies his sweet tooth! ",
            "DisplayName": false,
            "RatingValue": 5,
            "SubmitDate": "/Date(1209927008000-0500)/",
            "UpdatedDate": "/Date(1209927008000-0500)/",
            "UserName": "DoeDe"
          },
          {
            "Comment": "This was great!  My husband and I enjoy eating healthy, but were getting tired of the same old salad combos.  This was a great new combination of flavors!  We grilled the pineapple and bbq chicken, and added feta cheese.  'Twas fabulous!",
            "DisplayName": true,
            "RatingValue": 5,
            "SubmitDate": "/Date(1182825007000-0500)/",
            "UpdatedDate": "/Date(1182825007000-0500)/",
            "UserName": "Florrin"
          },
          {
            "Comment": "I grilled my chicken and then each family member used a dressing of their choice, it is awesome with balsamic vinaigrette and my husband used house italian.  ",
            "DisplayName": true,
            "RatingValue": 5,
            "SubmitDate": "/Date(1176997652000-0500)/",
            "UpdatedDate": "/Date(1176997652000-0500)/",
            "UserName": "pixiestavern"
          },
          {
            "Comment": "This was very yummy!  We changed it a bit; we didn’t put the dressing on it and added feta cheese (which we love!)  I made it at the lake and can’t wait to make it again at home!  I also mixed it all up in a big dish.  YUMO!",
            "DisplayName": true,
            "RatingValue": 5,
            "SubmitDate": "/Date(1153322951000-0500)/",
            "UpdatedDate": "/Date(1153322951000-0500)/",
            "UserName": "mtelliott1"
          }
        ]
      },
      "RecipeDisplayFormatId": 5,
      "RecipeId": 52102,
      "RecipeName": "BBQ Chicken and Fruit Salad",
      "RecipeType": 0,
      "RelatedData": {
        "RelatedBrands": null,
        "RelatedProducts": null,
        "RelatedRecipes": {
          "DefaultTopCount": 5,
          "Recipe": [
            {
              "AverageRating": 4.4,
              "HasVideo": false,
              "IsHealthyLiving": true,
              "NumberOfRatings": 14,
              "PhotoName": "Grilled_Chicken_and_Fruit_Salad.jpg",
              "PhotoUrl": "http://assets.kraftfoods.com/recipe_images/opendeploy/Grilled_Chicken_and_Fruit_Salad.jpg",
              "RecipeId": 55456,
              "RecipeName": "Grilled Chicken and Fruit Salad",
              "SEOName": "grilled-chicken-fruit-salad-55456",
              "ThumbnailPhoto": null
            },
            {
              "AverageRating": 4.4,
              "HasVideo": false,
              "IsHealthyLiving": true,
              "NumberOfRatings": 14,
              "PhotoName": "Grilled_Chicken_and_Mango_Salad.jpg",
              "PhotoUrl": "http://assets.kraftfoods.com/recipe_images/opendeploy/Grilled_Chicken_and_Mango_Salad.jpg",
              "RecipeId": 50554,
              "RecipeName": "Grilled Chicken and Mango Salad",
              "SEOName": "grilled-chicken-mango-salad-50554",
              "ThumbnailPhoto": null
            },
            {
              "AverageRating": 4.4,
              "HasVideo": false,
              "IsHealthyLiving": true,
              "NumberOfRatings": 14,
              "PhotoName": "125056.jpg",
              "PhotoUrl": "http://assets.kraftfoods.com/recipe_images/opendeploy/125056.jpg",
              "RecipeId": 125056,
              "RecipeName": "Slow-Cooked South African BBQ Chicken",
              "SEOName": "slow-cooked-south-african-bbq-chicken-125056",
              "ThumbnailPhoto": null
            },
            {
              "AverageRating": 4.5,
              "HasVideo": false,
              "IsHealthyLiving": true,
              "NumberOfRatings": 6,
              "PhotoName": "106837.jpg",
              "PhotoUrl": "http://assets.kraftfoods.com/recipe_images/opendeploy/106837.jpg",
              "RecipeId": 106837,
              "RecipeName": "BBQ Chicken & Fresh Strawberry Salad",
              "SEOName": "bbq-chicken-fresh-strawberry-salad-106837",
              "ThumbnailPhoto": null
            },
            {
              "AverageRating": 4.4,
              "HasVideo": true,
              "IsHealthyLiving": true,
              "NumberOfRatings": 8,
              "PhotoName": "BBQ_Chicken_Salad_with_Grilled_Apples.jpg",
              "PhotoUrl": "http://assets.kraftfoods.com/recipe_images/opendeploy/BBQ_Chicken_Salad_with_Grilled_Apples.jpg",
              "RecipeId": 94346,
              "RecipeName": "BBQ Chicken Salad with Grilled Apples",
              "SEOName": "bbq-chicken-salad-grilled-apples-94346",
              "ThumbnailPhoto": null
            }
          ],
          "TotalCount": 3788
        }
      },
      "RiseIngredients": [],
      "RiseTaxonomy": [],
      "Riserecipe": [
        {
          "GRIN": 521368,
          "RecipeId": 52102,
          "RecipeIndustrySector": "Retail",
          "RecipeType": "Internal"
        }
      ],
      "RomanceText": "Baste chicken breasts with BBQ sauce and broil with pineapple, then slice and serve over mixed greens and strawberries to make this sweet and savory salad.",
      "SEOName": "bbq-chicken-fruit-salad-52102",
      "Tips": [
        {
          "RecipeId": 52102,
          "Sequence": 10,
          "TipDescription": "Prepare using fresh pineapple rings.",
          "TipID": 3,
          "TipName": "Substitute"
        }
      ],
      "TotalTime": 35,
      "TradeMarkInfo": null,
      "Video": [],
      "Yield": "4 servings"
    }
  ]
}