{
  "Metadata": {
    "PageCount": 1,
    "PageNo": 0,
    "TotalCount": 0
  },
  "Recipes": [
    {
      "AdServingKeywords": "Cream Cheese,Garlic,Lettuce,Onion,Peppers,Vegetables,Kraft Salad Dressing,Philadelphia",
      "AlternateLanguageRecipes": [],
      "Assets": [],
      "AverageRating": 0,
      "BrandId": 1,
      "Branding": null,
      "CSSSkins": null,
      "CarbCounter": null,
      "Categories": [
        {
          "CategoryID": 714,
          "CategoryName": "Sauces, Rubs & Marinades",
          "CategoryRank": 0,
          "SubCategoryID": 671,
          "SubCategoryName": "Savory Sauces - Hot",
          "SubCategoryRank": 0
        },
        {
          "CategoryID": 758,
          "CategoryName": "Marinades, Sauces, Spreads & Frostings",
          "CategoryRank": 12,
          "SubCategoryID": 2573,
          "SubCategoryName": "Savoury",
          "SubCategoryRank": 1
        },
        {
          "CategoryID": 758,
          "CategoryName": "Marinades, Sauces, Spreads & Frostings",
          "CategoryRank": 12,
          "SubCategoryID": 2574,
          "SubCategoryName": "Hot",
          "SubCategoryRank": 1
        }
      ],
      "Classifications": [],
      "ComplimentaryRecipes": null,
      "CookingMethod": null,
      "Copyright": null,
      "Courses": [],
      "DietExchange": null,
      "DishDetails": [],
      "EndDate": "/Date(-62135575200000-0600)/",
      "HasVideo": false,
      "Ingredients": [
        {
          "FullMeasure": "1/2 cup",
          "FullWeight": "",
          "IngredientGridHeaders": null,
          "IngredientID": 499,
          "IngredientName": "KRAFT Zesty Italian Dressing",
          "IngredientStep": 10,
          "LanguageId": 0,
          "PostPreparation": ", divided",
          "PrePreparation": "",
          "QuantityNum": 0,
          "QuantityText": "1/2",
          "QuantityUnit": "cup",
          "RecipeIngredientID": 6360152,
          "TrialMeasure": "",
          "TrialWeight": ""
        },
        {
          "FullMeasure": "1 small",
          "FullWeight": "",
          "IngredientGridHeaders": null,
          "IngredientID": 1370,
          "IngredientName": "onion",
          "IngredientStep": 20,
          "LanguageId": 0,
          "PostPreparation": ", chopped",
          "PrePreparation": "",
          "QuantityNum": 1,
          "QuantityText": "1",
          "QuantityUnit": "small",
          "RecipeIngredientID": 6360158,
          "TrialMeasure": "",
          "TrialWeight": ""
        },
        {
          "FullMeasure": "1",
          "FullWeight": "",
          "IngredientGridHeaders": null,
          "IngredientID": 1206,
          "IngredientName": "green pepper",
          "IngredientStep": 30,
          "LanguageId": 0,
          "PostPreparation": ", chopped",
          "PrePreparation": "",
          "QuantityNum": 1,
          "QuantityText": "1",
          "QuantityUnit": "",
          "RecipeIngredientID": 6360157,
          "TrialMeasure": "",
          "TrialWeight": ""
        },
        {
          "FullMeasure": "2 cloves",
          "FullWeight": "",
          "IngredientGridHeaders": null,
          "IngredientID": 1175,
          "IngredientName": "garlic",
          "IngredientStep": 40,
          "LanguageId": 0,
          "PostPreparation": ", minced",
          "PrePreparation": "",
          "QuantityNum": 2,
          "QuantityText": "2",
          "QuantityUnit": "cloves",
          "RecipeIngredientID": 6360156,
          "TrialMeasure": "",
          "TrialWeight": ""
        },
        {
          "FullMeasure": "6 large",
          "FullWeight": "",
          "IngredientGridHeaders": null,
          "IngredientID": 1572,
          "IngredientName": "romaine lettuce",
          "IngredientStep": 50,
          "LanguageId": 0,
          "PostPreparation": " leaves, ribs removed, torn into 2-inch pieces",
          "PrePreparation": "",
          "QuantityNum": 6,
          "QuantityText": "6",
          "QuantityUnit": "large",
          "RecipeIngredientID": 6360155,
          "TrialMeasure": "",
          "TrialWeight": ""
        },
        {
          "FullMeasure": "4 oz.",
          "FullWeight": "",
          "IngredientGridHeaders": null,
          "IngredientID": 628,
          "IngredientName": "PHILADELPHIA Cream Cheese",
          "IngredientStep": 60,
          "LanguageId": 0,
          "PostPreparation": ", cubed",
          "PrePreparation": "(1/2 of 8-oz. pkg.)",
          "QuantityNum": 4,
          "QuantityText": "4",
          "QuantityUnit": "oz.",
          "RecipeIngredientID": 6360154,
          "TrialMeasure": "",
          "TrialWeight": ""
        },
        {
          "FullMeasure": "1 cup",
          "FullWeight": "",
          "IngredientGridHeaders": null,
          "IngredientID": 21089,
          "IngredientName": "fresh cilantro",
          "IngredientStep": 70,
          "LanguageId": 0,
          "PostPreparation": " leaves and tender stems",
          "PrePreparation": "packed",
          "QuantityNum": 1,
          "QuantityText": "1",
          "QuantityUnit": "cup",
          "RecipeIngredientID": 6360153,
          "TrialMeasure": "",
          "TrialWeight": ""
        }
      ],
      "IsHealthyLiving": false,
      "KRLId": "562478",
      "KeyIngredients": [
        "Cream Cheese",
        "Garlic",
        "Lettuce",
        "Onion",
        "Peppers",
        "Vegetables"
      ],
      "Keywords": "onions,peppers,PHILADELPHIA Cream Cheese,romaine lettuce,cheese,cilantro,cream cheese,dressing,green peppers,herbs,italian dressing,KRAFT Dressing,lettuce,salad dressing,garlic,bell peppers",
      "LanguageId": 1,
      "LifeStyles": [],
      "NumberOfIngredients": 7,
      "NumberOfRatings": 0,
      "NumberOfRatingsWithComments": "0",
      "NumberOfServings": "8 servings, 1/4 cup each",
      "NumberOfTrialServings": "",
      "NutritionBonus": null,
      "NutritionExchangeItemId": 0,
      "NutritionGridItems": null,
      "NutritionItems": [
        {
          "DisplayOrder": 1,
          "Document": null,
          "NutritionItemID": 3,
          "NutritionItemName": "Calories",
          "Predriscriptor": "",
          "Quantity": 90,
          "Unit": "          "
        },
        {
          "DisplayOrder": 2,
          "Document": "fat_cholesterol.html",
          "NutritionItemID": 4,
          "NutritionItemName": "Total fat",
          "Predriscriptor": "",
          "Quantity": 8,
          "Unit": "g         "
        },
        {
          "DisplayOrder": 3,
          "Document": "fat_cholesterol.html",
          "NutritionItemID": 9,
          "NutritionItemName": "Saturated fat",
          "Predriscriptor": "",
          "Quantity": 3,
          "Unit": "g         "
        },
        {
          "DisplayOrder": 7,
          "Document": "fat_cholesterol.html",
          "NutritionItemID": 2,
          "NutritionItemName": "Cholesterol",
          "Predriscriptor": "",
          "Quantity": 20,
          "Unit": "mg        "
        },
        {
          "DisplayOrder": 8,
          "Document": "sodium.html",
          "NutritionItemID": 8,
          "NutritionItemName": "Sodium",
          "Predriscriptor": "",
          "Quantity": 210,
          "Unit": "mg        "
        },
        {
          "DisplayOrder": 10,
          "Document": "carbs_sugars_fiber.html",
          "NutritionItemID": 1,
          "NutritionItemName": "Carbohydrate",
          "Predriscriptor": "",
          "Quantity": 4,
          "Unit": "g         "
        },
        {
          "DisplayOrder": 11,
          "Document": "carbs_sugars_fiber.html",
          "NutritionItemID": 7,
          "NutritionItemName": "Dietary fiber",
          "Predriscriptor": "Less than",
          "Quantity": 1,
          "Unit": "g         "
        },
        {
          "DisplayOrder": 12,
          "Document": "carbs_sugars_fiber.html",
          "NutritionItemID": 5,
          "NutritionItemName": "Sugars",
          "Predriscriptor": "",
          "Quantity": 3,
          "Unit": "g         "
        },
        {
          "DisplayOrder": 13,
          "Document": null,
          "NutritionItemID": 6,
          "NutritionItemName": "Protein",
          "Predriscriptor": "",
          "Quantity": 1,
          "Unit": "g         "
        },
        {
          "DisplayOrder": 14,
          "Document": null,
          "NutritionItemID": 10,
          "NutritionItemName": "Vitamin A",
          "Predriscriptor": "",
          "Quantity": 25,
          "Unit": "%DV       "
        },
        {
          "DisplayOrder": 15,
          "Document": null,
          "NutritionItemID": 11,
          "NutritionItemName": "Vitamin C",
          "Predriscriptor": "",
          "Quantity": 15,
          "Unit": "%DV       "
        },
        {
          "DisplayOrder": 16,
          "Document": "dairy_and_calcium.html",
          "NutritionItemID": 12,
          "NutritionItemName": "Calcium",
          "Predriscriptor": "",
          "Quantity": 2,
          "Unit": "%DV       "
        },
        {
          "DisplayOrder": 17,
          "Document": null,
          "NutritionItemID": 13,
          "NutritionItemName": "Iron",
          "Predriscriptor": "",
          "Quantity": 0,
          "Unit": "%DV       "
        }
      ],
      "NutritionServingText": " ",
      "PrepStepImage": null,
      "PreparationDescription": "Heat dressing in large nonstick skillet on medium heat. Add onions, peppers and garlic; cook and stir 5 min. or until crisp-tender.  $Add lettuce; cook and stir 2 min. or until wilted.  $Transfer to blender.  Add remaining dressing, cream cheese and cilantro; blend until smooth.  ",
      "PreparationPreText": "",
      "PreparationSteps": [
        {
          "Description": "Heat dressing in large nonstick skillet on medium heat. Add onions, peppers and garlic; cook and stir 5 min. or until crisp-tender.  ",
          "PreparationStepImage": {
            "PictureFormats": [],
            "author": null,
            "id": null,
            "imageType": null,
            "mimeType": null,
            "publicationDate": null,
            "status": null,
            "title": null,
            "type": null
          },
          "Sequence": 1
        },
        {
          "Description": "Add lettuce; cook and stir 2 min. or until wilted.  ",
          "PreparationStepImage": {
            "PictureFormats": [],
            "author": null,
            "id": null,
            "imageType": null,
            "mimeType": null,
            "publicationDate": null,
            "status": null,
            "title": null,
            "type": null
          },
          "Sequence": 2
        },
        {
          "Description": "Transfer to blender.  Add remaining dressing, cream cheese and cilantro; blend until smooth.  ",
          "PreparationStepImage": {
            "PictureFormats": [],
            "author": null,
            "id": null,
            "imageType": null,
            "mimeType": null,
            "publicationDate": null,
            "status": null,
            "title": null,
            "type": null
          },
          "Sequence": 3
        }
      ],
      "PreparationTime": 25,
      "Promotion": null,
      "Ratings": {
        "TotalCount": 0,
        "PageCount": 10,
        "PageNo": 1,
        "Rating": []
      },
      "RecipeDisplayFormatId": 5,
      "RecipeId": 206833,
      "RecipeName": "Green Sauce",
      "RecipeType": 0,
      "RelatedData": {
        "RelatedBrands": null,
        "RelatedProducts": null,
        "RelatedRecipes": {
          "DefaultTopCount": 5,
          "Recipe": [
            {
              "AverageRating": 4.3,
              "HasVideo": false,
              "IsHealthyLiving": false,
              "NumberOfRatings": 84,
              "PhotoName": "57703.jpg",
              "PhotoUrl": "http://assets.kraftfoods.com/recipe_images/opendeploy/57703.jpg",
              "RecipeId": 57703,
              "RecipeName": "Chicken & Green Chile Enchiladas",
              "SEOName": "chicken-green-chile-enchiladas-57703",
              "ThumbnailPhoto": null
            },
            {
              "AverageRating": 5,
              "HasVideo": false,
              "IsHealthyLiving": true,
              "NumberOfRatings": 6,
              "PhotoName": "133264_GEO_61713v1_OH.jpg",
              "PhotoUrl": "http://assets.kraftfoods.com/recipe_images/opendeploy/133264_GEO_61713v1_OH.jpg",
              "RecipeId": 133264,
              "RecipeName": "Make-Ahead Smoky Chipotle Chicken Chili",
              "SEOName": "make-ahead-smoky-chipotle-chicken-chili-133264",
              "ThumbnailPhoto": null
            },
            {
              "AverageRating": 5,
              "HasVideo": false,
              "IsHealthyLiving": true,
              "NumberOfRatings": 1,
              "PhotoName": "Eggplant-Stackers-60107.jpg",
              "PhotoUrl": "http://assets.kraftfoods.com/recipe_images/opendeploy/Eggplant-Stackers-60107.jpg",
              "RecipeId": 123663,
              "RecipeName": "Eggplant Stackers",
              "SEOName": "eggplant-stackers-123663",
              "ThumbnailPhoto": null
            },
            {
              "AverageRating": 5,
              "HasVideo": false,
              "IsHealthyLiving": true,
              "NumberOfRatings": 2,
              "PhotoName": "Ginas-Go-to-Collard-Artichoke-Spread-59199.jpg",
              "PhotoUrl": "http://assets.kraftfoods.com/recipe_images/opendeploy/Ginas-Go-to-Collard-Artichoke-Spread-59199.jpg",
              "RecipeId": 120101,
              "RecipeName": "Collard Greens & Artichoke Spread",
              "SEOName": "collard-greens-artichoke-spread-120101",
              "ThumbnailPhoto": null
            },
            {
              "AverageRating": 4.4,
              "HasVideo": false,
              "IsHealthyLiving": true,
              "NumberOfRatings": 20,
              "PhotoName": "Rodeo_Ranch_Chicken_Salad.jpg",
              "PhotoUrl": "http://assets.kraftfoods.com/recipe_images/opendeploy/Rodeo_Ranch_Chicken_Salad.jpg",
              "RecipeId": 62793,
              "RecipeName": "Rodeo Ranch Chicken Salad",
              "SEOName": "rodeo-ranch-chicken-salad-62793",
              "ThumbnailPhoto": null
            }
          ],
          "TotalCount": 2596
        }
      },
      "RiseIngredients": [],
      "RiseTaxonomy": [],
      "Riserecipe": [
        {
          "GRIN": 562478,
          "RecipeId": 206833,
          "RecipeIndustrySector": "Retail",
          "RecipeType": "Internal"
        }
      ],
      "RomanceText": "Serve our Green Sauce over hot cooked pork or chicken. This Green Sauce includes a wide variety of palate-pleasing flavors for you to enjoy.",
      "SEOName": "green-sauce-206833",
      "Tips": [
        {
          "RecipeId": 206833,
          "Sequence": 10,
          "TipDescription": "Serve over hot cooked chicken or pork.",
          "TipID": 3,
          "TipName": "Serving Suggestion"
        },
        {
          "RecipeId": 206833,
          "Sequence": 20,
          "TipDescription": "For a darker sauce, use the outer romaine leaves when preparing this flavorful sauce. ",
          "TipID": 1,
          "TipName": "Food Facts"
        },
        {
          "RecipeId": 206833,
          "Sequence": 30,
          "TipDescription": "For a spicier sauce, substitute 1 stemmed sliced jalapeno pepper for the green pepper. Remove membranes and seeds for milder spice.",
          "TipID": 4,
          "TipName": "Variation  "
        },
        {
          "RecipeId": 206833,
          "Sequence": 40,
          "TipDescription": "Substitute 1 coarsely chopped avocado for the romaine lettuce.",
          "TipID": 5,
          "TipName": "Substitute"
        }
      ],
      "TotalTime": 25,
      "TradeMarkInfo": null,
      "Video": [],
      "Yield": "8 servings, 1/4 cup each"
    }
  ]
}