{
  "Metadata": {
    "PageCount": 1,
    "PageNo": 0,
    "TotalCount": 0
  },
  "Recipes": [
    {
      "AdServingKeywords": "Appetizer,Cream Cheese,Fruit,Pineapple,Squash,Vegetables,Microwaved,Top of Stove,Intermediate,Fall,Latin,Snack,All Seasons,Philadelphia,Cooking for a Crowd,Creamy",
      "AlternateLanguageRecipes": [
        {
          "LanguageId": "2",
          "RecipeId": "90948",
          "SiteId": "90"
        }
      ],
      "Assets": [
        {
          "PictureFormats": [
            {
              "rendition": "300x200",
              "url": "http://assets.kraftfoods.com/recipe_images/Sweet_N_Creamy_Bites.jpg"
            }
          ],
          "author": null,
          "id": "0",
          "imageType": "LANDSCAPE",
          "mimeType": null,
          "publicationDate": null,
          "status": "1",
          "title": "Sweet_N_Creamy_Bites.jpg",
          "type": "image"
        }
      ],
      "AverageRating": 4,
      "BrandId": 90,
      "Branding": null,
      "CSSSkins": null,
      "CarbCounter": null,
      "Categories": [
        {
          "CategoryID": 6,
          "CategoryName": "Appetizers/Snacks",
          "CategoryRank": 1,
          "SubCategoryID": 130,
          "SubCategoryName": "Crackers with Toppings",
          "SubCategoryRank": 30
        },
        {
          "CategoryID": 11,
          "CategoryName": "Primary",
          "CategoryRank": 0,
          "SubCategoryID": 96,
          "SubCategoryName": "Appetizers & Snacks",
          "SubCategoryRank": 10
        },
        {
          "CategoryID": 748,
          "CategoryName": "Finger Food, Dips & Appetisers",
          "CategoryRank": 2,
          "SubCategoryID": 2524,
          "SubCategoryName": "Cold",
          "SubCategoryRank": 1
        },
        {
          "CategoryID": 814,
          "CategoryName": "Latin",
          "CategoryRank": 8,
          "SubCategoryID": 3132,
          "SubCategoryName": "Appetizers/Snacks",
          "SubCategoryRank": 10
        },
        {
          "CategoryID": 1761,
          "CategoryName": "Philly Appetizers",
          "CategoryRank": 0,
          "SubCategoryID": 16848,
          "SubCategoryName": "Brick Cream Cheese",
          "SubCategoryRank": 0
        },
        {
          "CategoryID": 1761,
          "CategoryName": "Philly Appetizers",
          "CategoryRank": 0,
          "SubCategoryID": 16853,
          "SubCategoryName": "Use for All",
          "SubCategoryRank": 0
        }
      ],
      "Classifications": [],
      "ComplimentaryRecipes": [
        {
          "AverageRating": 0,
          "HasVideo": false,
          "IsHealthyLiving": false,
          "NumberOfRatings": 0,
          "PhotoName": null,
          "PhotoUrl": null,
          "RecipeId": 94088,
          "RecipeName": null,
          "SEOName": "chipotle-chicken-bites-94088",
          "ThumbnailPhoto": "Chipotle_Chicken_Bites.jpg"
        }
      ],
      "CookingMethod": null,
      "Copyright": null,
      "Courses": [
        "Appetizers"
      ],
      "DietExchange": null,
      "DishDetails": [
        {
          "Text": "appetizers",
          "Url": "/recipes/appetizers/main.aspx"
        },
        {
          "Text": "cold appetizers",
          "Url": "/recipes/appetizers/coldappetizers.aspx"
        },
        {
          "Text": "cheese plates",
          "Url": "/recipes/appetizers/entertainingcheeseplates.aspx"
        },
        {
          "Text": "hot appetizers",
          "Url": "/recipes/appetizers/hotappetizers.aspx"
        },
        {
          "Text": "quick appetizers",
          "Url": "/recipes/appetizers/quick.aspx"
        },
        {
          "Text": "salsa recipes",
          "Url": "/recipes/appetizers/salsa-recipes/main.aspx"
        },
        {
          "Text": "seafood appetizers",
          "Url": "/recipes/dinner/seafood/appetizers/main.aspx"
        },
        {
          "Text": "dip recipes",
          "Url": "/recipes/appetizers/dip-recipes/main.aspx"
        }
      ],
      "EndDate": "/Date(-62135575200000-0600)/",
      "HasVideo": false,
      "Ingredients": [
        {
          "FullMeasure": "1 medium",
          "FullWeight": "",
          "IngredientGridHeaders": null,
          "IngredientID": 3606,
          "IngredientName": "squash",
          "IngredientStep": 10,
          "LanguageId": 0,
          "PostPreparation": " (2 lb.)",
          "PrePreparation": "spaghetti",
          "QuantityNum": 1,
          "QuantityText": "1",
          "QuantityUnit": "medium",
          "RecipeIngredientID": 5334197,
          "TrialMeasure": "",
          "TrialWeight": ""
        },
        {
          "FullMeasure": "1 can",
          "FullWeight": "",
          "IngredientGridHeaders": null,
          "IngredientID": 3262,
          "IngredientName": "pineapple tidbits",
          "IngredientStep": 20,
          "LanguageId": 0,
          "PostPreparation": ", drained",
          "PrePreparation": "  (8 oz.)",
          "QuantityNum": 1,
          "QuantityText": "1",
          "QuantityUnit": "can",
          "RecipeIngredientID": 5334196,
          "TrialMeasure": "",
          "TrialWeight": ""
        },
        {
          "FullMeasure": "1 cup",
          "FullWeight": "",
          "IngredientGridHeaders": null,
          "IngredientID": 1845,
          "IngredientName": "sugar",
          "IngredientStep": 30,
          "LanguageId": 0,
          "PostPreparation": "",
          "PrePreparation": "",
          "QuantityNum": 1,
          "QuantityText": "1",
          "QuantityUnit": "cup",
          "RecipeIngredientID": 5334198,
          "TrialMeasure": "",
          "TrialWeight": ""
        },
        {
          "FullMeasure": "1 Tbsp.",
          "FullWeight": "",
          "IngredientGridHeaders": null,
          "IngredientID": 3620,
          "IngredientName": "gingerroot",
          "IngredientStep": 40,
          "LanguageId": 0,
          "PostPreparation": "",
          "PrePreparation": "grated fresh ",
          "QuantityNum": 1,
          "QuantityText": "1",
          "QuantityUnit": "Tbsp.",
          "RecipeIngredientID": 5334202,
          "TrialMeasure": "",
          "TrialWeight": ""
        },
        {
          "FullMeasure": "1 tsp.",
          "FullWeight": "",
          "IngredientGridHeaders": null,
          "IngredientID": 1224,
          "IngredientName": "ground nutmeg",
          "IngredientStep": 50,
          "LanguageId": 0,
          "PostPreparation": "",
          "PrePreparation": "",
          "QuantityNum": 1,
          "QuantityText": "1",
          "QuantityUnit": "tsp.",
          "RecipeIngredientID": 5334201,
          "TrialMeasure": "",
          "TrialWeight": ""
        },
        {
          "FullMeasure": "4 oz.",
          "FullWeight": "",
          "IngredientGridHeaders": null,
          "IngredientID": 628,
          "IngredientName": "PHILADELPHIA Cream Cheese",
          "IngredientStep": 60,
          "LanguageId": 0,
          "PostPreparation": ", softened",
          "PrePreparation": "(1/2 of 8-oz. pkg.)",
          "QuantityNum": 4,
          "QuantityText": "4",
          "QuantityUnit": "oz.",
          "RecipeIngredientID": 5334200,
          "TrialMeasure": "",
          "TrialWeight": ""
        },
        {
          "FullMeasure": "24",
          "FullWeight": "",
          "IngredientGridHeaders": null,
          "IngredientID": 5540,
          "IngredientName": "RITZ Crackers",
          "IngredientStep": 70,
          "LanguageId": 0,
          "PostPreparation": "",
          "PrePreparation": "",
          "QuantityNum": 24,
          "QuantityText": "24",
          "QuantityUnit": "",
          "RecipeIngredientID": 5334199,
          "TrialMeasure": "",
          "TrialWeight": ""
        }
      ],
      "IsHealthyLiving": false,
      "KRLId": "554757",
      "KeyIngredients": [
        "Cream Cheese",
        "Fruit",
        "Pineapple",
        "Squash",
        "Vegetables"
      ],
      "Keywords": "nutmeg,PHILADELPHIA Cream Cheese,pineapple,cheese,crackers,cream cheese,ginger root,squash,sugar,RITZ Crackers,RITZ,Appetizer,Microwaved,Top of Stove,Intermediate,Fall,Latin,Snack,All Seasons,Cooking for a Crowd,Creamy",
      "LanguageId": 1,
      "LifeStyles": [],
      "NumberOfIngredients": 7,
      "NumberOfRatings": 1,
      "NumberOfRatingsWithComments": "0",
      "NumberOfServings": " 2 doz. or 12 servings, 2 topped crackers each",
      "NumberOfTrialServings": "",
      "NutritionBonus": null,
      "NutritionExchangeItemId": 0,
      "NutritionGridItems": null,
      "NutritionItems": [
        {
          "DisplayOrder": 1,
          "Document": null,
          "NutritionItemID": 3,
          "NutritionItemName": "Calories",
          "Predriscriptor": "",
          "Quantity": 80,
          "Unit": "          "
        },
        {
          "DisplayOrder": 2,
          "Document": "fat_cholesterol.html",
          "NutritionItemID": 4,
          "NutritionItemName": "Total fat",
          "Predriscriptor": "",
          "Quantity": 3,
          "Unit": "g         "
        },
        {
          "DisplayOrder": 3,
          "Document": "fat_cholesterol.html",
          "NutritionItemID": 9,
          "NutritionItemName": "Saturated fat",
          "Predriscriptor": "",
          "Quantity": 1,
          "Unit": "g         "
        },
        {
          "DisplayOrder": 7,
          "Document": "fat_cholesterol.html",
          "NutritionItemID": 2,
          "NutritionItemName": "Cholesterol",
          "Predriscriptor": "Less than",
          "Quantity": 5,
          "Unit": "mg        "
        },
        {
          "DisplayOrder": 8,
          "Document": "sodium.html",
          "NutritionItemID": 8,
          "NutritionItemName": "Sodium",
          "Predriscriptor": "",
          "Quantity": 70,
          "Unit": "mg        "
        },
        {
          "DisplayOrder": 10,
          "Document": "carbs_sugars_fiber.html",
          "NutritionItemID": 1,
          "NutritionItemName": "Carbohydrate",
          "Predriscriptor": "",
          "Quantity": 12,
          "Unit": "g         "
        },
        {
          "DisplayOrder": 11,
          "Document": "carbs_sugars_fiber.html",
          "NutritionItemID": 7,
          "NutritionItemName": "Dietary fiber",
          "Predriscriptor": "",
          "Quantity": 0,
          "Unit": "g         "
        },
        {
          "DisplayOrder": 12,
          "Document": "carbs_sugars_fiber.html",
          "NutritionItemID": 5,
          "NutritionItemName": "Sugars",
          "Predriscriptor": "",
          "Quantity": 7,
          "Unit": "g         "
        },
        {
          "DisplayOrder": 13,
          "Document": null,
          "NutritionItemID": 6,
          "NutritionItemName": "Protein",
          "Predriscriptor": "Less than",
          "Quantity": 1,
          "Unit": "g         "
        },
        {
          "DisplayOrder": 14,
          "Document": null,
          "NutritionItemID": 10,
          "NutritionItemName": "Vitamin A",
          "Predriscriptor": "",
          "Quantity": 0,
          "Unit": "%DV       "
        },
        {
          "DisplayOrder": 15,
          "Document": null,
          "NutritionItemID": 11,
          "NutritionItemName": "Vitamin C",
          "Predriscriptor": "",
          "Quantity": 4,
          "Unit": "%DV       "
        },
        {
          "DisplayOrder": 16,
          "Document": "dairy_and_calcium.html",
          "NutritionItemID": 12,
          "NutritionItemName": "Calcium",
          "Predriscriptor": "",
          "Quantity": 0,
          "Unit": "%DV       "
        },
        {
          "DisplayOrder": 17,
          "Document": null,
          "NutritionItemID": 13,
          "NutritionItemName": "Iron",
          "Predriscriptor": "",
          "Quantity": 0,
          "Unit": "%DV       "
        }
      ],
      "NutritionServingText": null,
      "PrepStepImage": null,
      "PreparationDescription": "Cut squash in half lengthwise; scoop out seeds. Place, cut-sides down, in large microwaveable dish; cover.  Microwave on HIGH 10 min.  Wrap kitchen towel around one of the squash halves, then squeeze squash. If squash gives slightly, it is cooked through.  Cool squash.  Use fork to remove strands of squash from each half; set aside.$Mix pineapple, sugar, gingerroot and nutmeg in medium saucepan.  Bring to boil on medium heat, stirring frequently.  Cook until sugar is dissolved, stirring frequently.  Add squash; mix well.  Cook an additional 30 min., stirring occasionally.  Cool.  Remove 3/4 cup of the squash mixture for immediate use.  Place remaining squash mixture in resealable container or jar.  Cover and store in refrigerator to serve another time. $Spread 1 tsp. of the cream cheese onto each cracker; top with 1 tsp. of the squash mixture.  ",
      "PreparationPreText": null,
      "PreparationSteps": [
        {
          "Description": "Cut squash in half lengthwise; scoop out seeds. Place, cut-sides down, in large microwaveable dish; cover.  Microwave on HIGH 10 min.  Wrap kitchen towel around one of the squash halves, then squeeze squash. If squash gives slightly, it is cooked through.  Cool squash.  Use fork to remove strands of squash from each half; set aside.",
          "PreparationStepImage": {
            "PictureFormats": [],
            "author": null,
            "id": null,
            "imageType": null,
            "mimeType": null,
            "publicationDate": null,
            "status": null,
            "title": null,
            "type": null
          },
          "Sequence": 1
        },
        {
          "Description": "Mix pineapple, sugar, gingerroot and nutmeg in medium saucepan.  Bring to boil on medium heat, stirring frequently.  Cook until sugar is dissolved, stirring frequently.  Add squash; mix well.  Cook an additional 30 min., stirring occasionally.  Cool.  Remove 3/4 cup of the squash mixture for immediate use.  Place remaining squash mixture in resealable container or jar.  Cover and store in refrigerator to serve another time. ",
          "PreparationStepImage": {
            "PictureFormats": [],
            "author": null,
            "id": null,
            "imageType": null,
            "mimeType": null,
            "publicationDate": null,
            "status": null,
            "title": null,
            "type": null
          },
          "Sequence": 2
        },
        {
          "Description": "Spread 1 tsp. of the cream cheese onto each cracker; top with 1 tsp. of the squash mixture.  ",
          "PreparationStepImage": {
            "PictureFormats": [],
            "author": null,
            "id": null,
            "imageType": null,
            "mimeType": null,
            "publicationDate": null,
            "status": null,
            "title": null,
            "type": null
          },
          "Sequence": 3
        }
      ],
      "PreparationTime": 55,
      "Promotion": null,
      "Ratings": {
        "TotalCount": 1,
        "PageCount": 10,
        "PageNo": 1,
        "Rating": [
          {
            "Comment": "",
            "DisplayName": true,
            "RatingValue": 4,
            "SubmitDate": "/Date(1166670950000-0600)/",
            "UpdatedDate": "/Date(1166670950000-0600)/",
            "UserName": "tia peluca"
          }
        ]
      },
      "RecipeDisplayFormatId": 5,
      "RecipeId": 90947,
      "RecipeName": "Sweet 'N Creamy Bites",
      "RecipeType": 0,
      "RelatedData": {
        "RelatedBrands": null,
        "RelatedProducts": null,
        "RelatedRecipes": {
          "DefaultTopCount": 5,
          "Recipe": [
            {
              "AverageRating": 4,
              "HasVideo": false,
              "IsHealthyLiving": true,
              "NumberOfRatings": 3,
              "PhotoName": "Fat_Free_Creamy_Pudding_Sauce.jpg",
              "PhotoUrl": "http://assets.kraftfoods.com/recipe_images/opendeploy/Fat_Free_Creamy_Pudding_Sauce.jpg",
              "RecipeId": 50546,
              "RecipeName": "Fat Free Creamy Pudding Sauce",
              "SEOName": "fat-free-creamy-pudding-sauce-50546",
              "ThumbnailPhoto": null
            },
            {
              "AverageRating": 5,
              "HasVideo": false,
              "IsHealthyLiving": false,
              "NumberOfRatings": 5,
              "PhotoName": "157044.jpg",
              "PhotoUrl": "http://assets.kraftfoods.com/recipe_images/opendeploy/157044.jpg",
              "RecipeId": 157044,
              "RecipeName": "Easy Brownie Tiramisu",
              "SEOName": "easy-brownie-tiramisu-157044",
              "ThumbnailPhoto": null
            },
            {
              "AverageRating": 4,
              "HasVideo": false,
              "IsHealthyLiving": true,
              "NumberOfRatings": 69,
              "PhotoName": "Cream_Cheese-Filled_Cucumbers.jpg",
              "PhotoUrl": "http://assets.kraftfoods.com/recipe_images/opendeploy/Cream_Cheese-Filled_Cucumbers.jpg",
              "RecipeId": 56995,
              "RecipeName": "Cream Cheese 'n Herb Cucumber Bites",
              "SEOName": "cream-cheese-n-herb-cucumber-bites-56995",
              "ThumbnailPhoto": null
            },
            {
              "AverageRating": 4.3,
              "HasVideo": false,
              "IsHealthyLiving": true,
              "NumberOfRatings": 4,
              "PhotoName": "Creamy-Mediterranean-Bites-25292.jpg",
              "PhotoUrl": "http://assets.kraftfoods.com/recipe_images/opendeploy/Creamy-Mediterranean-Bites-25292.jpg",
              "RecipeId": 112858,
              "RecipeName": "Creamy Mediterranean Bites",
              "SEOName": "creamy-mediterranean-bites-112858",
              "ThumbnailPhoto": null
            },
            {
              "AverageRating": 4.5,
              "HasVideo": false,
              "IsHealthyLiving": false,
              "NumberOfRatings": 2,
              "PhotoName": "Creamy_Apple_Bites.jpg",
              "PhotoUrl": "http://assets.kraftfoods.com/recipe_images/opendeploy/Creamy_Apple_Bites.jpg",
              "RecipeId": 76192,
              "RecipeName": "Creamy Apple Bites",
              "SEOName": "creamy-apple-bites-76192",
              "ThumbnailPhoto": null
            }
          ],
          "TotalCount": 1815
        }
      },
      "RiseIngredients": [],
      "RiseTaxonomy": [],
      "Riserecipe": [
        {
          "GRIN": 554757,
          "RecipeId": 90947,
          "RecipeIndustrySector": "Retail",
          "RecipeType": "Internal"
        }
      ],
      "RomanceText": "Want an appetizer that will stand out at the party? Try crackers topped with cream cheese and a sweet-spicy blend of pineapple and spaghetti squash.",
      "SEOName": "sweet-n-creamy-bites-90947",
      "Tips": [
        {
          "RecipeId": 90947,
          "Sequence": 10,
          "TipDescription": "Use remaining squash mixture as a spread on bread slices or as a glaze for cooked pork.",
          "TipID": 3,
          "TipName": "Creative Leftovers"
        },
        {
          "RecipeId": 90947,
          "Sequence": 20,
          "TipDescription": "This preserve is a traditional South American favorite. In Colombia it is called vitoria, while in Bolivia it is known as lacayote.",
          "TipID": 1,
          "TipName": "Food Facts"
        }
      ],
      "TotalTime": 55,
      "TradeMarkInfo": null,
      "Video": [],
      "Yield": "Makes 2 doz. or 12 servings, 2 topped crackers each."
    }
  ]
}