{
  "Metadata": {
    "PageCount": 1,
    "PageNo": 0,
    "TotalCount": 0
  },
  "Recipes": [
    {
      "AdServingKeywords": "Entree,Cheese,Corn,Dairy,Eggs,Tomato,Vegetables,Easy,Casserole,Chili,Dinner,All Seasons,Kraft Singles,Spicy",
      "AlternateLanguageRecipes": [],
      "Assets": [],
      "AverageRating": 0,
      "BrandId": 1,
      "Branding": null,
      "CSSSkins": null,
      "CarbCounter": null,
      "Categories": [
        {
          "CategoryID": 7,
          "CategoryName": "Pork/Beef Entrees",
          "CategoryRank": 10,
          "SubCategoryID": 404,
          "SubCategoryName": "Beef: Casseroles",
          "SubCategoryRank": 10
        },
        {
          "CategoryID": 11,
          "CategoryName": "Primary",
          "CategoryRank": 0,
          "SubCategoryID": 97,
          "SubCategoryName": "Entrees",
          "SubCategoryRank": 50
        },
        {
          "CategoryID": 756,
          "CategoryName": "Main Meals (Meat / Seafood / Egg)",
          "CategoryRank": 10,
          "SubCategoryID": 2563,
          "SubCategoryName": "Beef",
          "SubCategoryRank": 1
        },
        {
          "CategoryID": 756,
          "CategoryName": "Main Meals (Meat / Seafood / Egg)",
          "CategoryRank": 10,
          "SubCategoryID": 2564,
          "SubCategoryName": "Pork",
          "SubCategoryRank": 1
        }
      ],
      "Classifications": [],
      "ComplimentaryRecipes": null,
      "CookingMethod": null,
      "Copyright": null,
      "Courses": [
        "Main dishes"
      ],
      "DietExchange": null,
      "DishDetails": [
        {
          "Text": "casseroles",
          "Url": "/recipes/dinner/casserole-recipes/main.aspx"
        },
        {
          "Text": "chicken casseroles",
          "Url": "/recipes/dinner/chicken-recipes/casseroles/main.aspx"
        },
        {
          "Text": "seafood casseroles",
          "Url": "/recipes/dinner/seafood/casseroles/main.aspx"
        },
        {
          "Text": "chili recipes",
          "Url": "/recipes/comfort-food/chili-recipes.aspx"
        }
      ],
      "EndDate": "/Date(-62135575200000-0600)/",
      "HasVideo": false,
      "Ingredients": [
        {
          "FullMeasure": "3 cans",
          "FullWeight": "",
          "IngredientGridHeaders": null,
          "IngredientID": 18338,
          "IngredientName": "chili",
          "IngredientStep": 10,
          "LanguageId": 0,
          "PostPreparation": "",
          "PrePreparation": "(15 oz. each)",
          "QuantityNum": 3,
          "QuantityText": "3",
          "QuantityUnit": "cans",
          "RecipeIngredientID": 4210892,
          "TrialMeasure": "",
          "TrialWeight": ""
        },
        {
          "FullMeasure": "1 can",
          "FullWeight": "",
          "IngredientGridHeaders": null,
          "IngredientID": 1030,
          "IngredientName": "diced tomatoes",
          "IngredientStep": 20,
          "LanguageId": 0,
          "PostPreparation": ", undrained",
          "PrePreparation": "(15 oz.) ",
          "QuantityNum": 1,
          "QuantityText": "1",
          "QuantityUnit": "can",
          "RecipeIngredientID": 4210890,
          "TrialMeasure": "",
          "TrialWeight": ""
        },
        {
          "FullMeasure": "1 can",
          "FullWeight": "",
          "IngredientGridHeaders": null,
          "IngredientID": 3818,
          "IngredientName": "corn",
          "IngredientStep": 30,
          "LanguageId": 0,
          "PostPreparation": ", undrained",
          "PrePreparation": "(11 oz.)",
          "QuantityNum": 1,
          "QuantityText": "1",
          "QuantityUnit": "can",
          "RecipeIngredientID": 4210886,
          "TrialMeasure": "",
          "TrialWeight": ""
        },
        {
          "FullMeasure": "8",
          "FullWeight": "",
          "IngredientGridHeaders": null,
          "IngredientID": 405,
          "IngredientName": "KRAFT Singles",
          "IngredientStep": 40,
          "LanguageId": 0,
          "PostPreparation": "",
          "PrePreparation": "",
          "QuantityNum": 7,
          "QuantityText": "8",
          "QuantityUnit": "",
          "RecipeIngredientID": 4210888,
          "TrialMeasure": "",
          "TrialWeight": ""
        },
        {
          "FullMeasure": "1 pkg.",
          "FullWeight": "",
          "IngredientGridHeaders": null,
          "IngredientID": 989,
          "IngredientName": "corn muffin mix",
          "IngredientStep": 50,
          "LanguageId": 0,
          "PostPreparation": "",
          "PrePreparation": "(8.5 oz.)",
          "QuantityNum": 1,
          "QuantityText": "1",
          "QuantityUnit": "pkg.",
          "RecipeIngredientID": 4210889,
          "TrialMeasure": "",
          "TrialWeight": ""
        },
        {
          "FullMeasure": "1/3  cup",
          "FullWeight": "",
          "IngredientGridHeaders": null,
          "IngredientID": 1345,
          "IngredientName": "milk",
          "IngredientStep": 60,
          "LanguageId": 0,
          "PostPreparation": "",
          "PrePreparation": "",
          "QuantityNum": 0,
          "QuantityText": "1/3 ",
          "QuantityUnit": "cup",
          "RecipeIngredientID": 4210887,
          "TrialMeasure": "",
          "TrialWeight": ""
        },
        {
          "FullMeasure": "1",
          "FullWeight": "",
          "IngredientGridHeaders": null,
          "IngredientID": 1060,
          "IngredientName": "egg",
          "IngredientStep": 70,
          "LanguageId": 0,
          "PostPreparation": "",
          "PrePreparation": "",
          "QuantityNum": 1,
          "QuantityText": "1",
          "QuantityUnit": "",
          "RecipeIngredientID": 4210891,
          "TrialMeasure": "",
          "TrialWeight": ""
        }
      ],
      "IsHealthyLiving": false,
      "KRLId": "547792",
      "KeyIngredients": [
        "Cheese",
        "Corn",
        "Dairy",
        "Eggs",
        "Fruit",
        "Tomato",
        "Vegetables"
      ],
      "Keywords": "american cheese,cheese,chili,corn,corn muffin mix,eggs,KRAFT Singles,milk,tomatoes,cheese slices,singles,Entree,Easy,Casserole,Dinner,All Seasons,Spicy",
      "LanguageId": 1,
      "LifeStyles": [],
      "NumberOfIngredients": 7,
      "NumberOfRatings": 0,
      "NumberOfRatingsWithComments": "0",
      "NumberOfServings": "8 servings",
      "NumberOfTrialServings": "",
      "NutritionBonus": null,
      "NutritionExchangeItemId": 0,
      "NutritionGridItems": null,
      "NutritionItems": [
        {
          "DisplayOrder": 1,
          "Document": null,
          "NutritionItemID": 3,
          "NutritionItemName": "Calories",
          "Predriscriptor": "",
          "Quantity": 390,
          "Unit": "          "
        },
        {
          "DisplayOrder": 2,
          "Document": "fat_cholesterol.html",
          "NutritionItemID": 4,
          "NutritionItemName": "Total fat",
          "Predriscriptor": "",
          "Quantity": 15,
          "Unit": "g         "
        },
        {
          "DisplayOrder": 3,
          "Document": "fat_cholesterol.html",
          "NutritionItemID": 9,
          "NutritionItemName": "Saturated fat",
          "Predriscriptor": "",
          "Quantity": 7,
          "Unit": "g         "
        },
        {
          "DisplayOrder": 7,
          "Document": "fat_cholesterol.html",
          "NutritionItemID": 2,
          "NutritionItemName": "Cholesterol",
          "Predriscriptor": "",
          "Quantity": 70,
          "Unit": "mg        "
        },
        {
          "DisplayOrder": 8,
          "Document": "sodium.html",
          "NutritionItemID": 8,
          "NutritionItemName": "Sodium",
          "Predriscriptor": "",
          "Quantity": 1320,
          "Unit": "mg        "
        },
        {
          "DisplayOrder": 10,
          "Document": "carbs_sugars_fiber.html",
          "NutritionItemID": 1,
          "NutritionItemName": "Carbohydrate",
          "Predriscriptor": "",
          "Quantity": 45,
          "Unit": "g         "
        },
        {
          "DisplayOrder": 11,
          "Document": "carbs_sugars_fiber.html",
          "NutritionItemID": 7,
          "NutritionItemName": "Dietary fiber",
          "Predriscriptor": "",
          "Quantity": 4,
          "Unit": "g         "
        },
        {
          "DisplayOrder": 12,
          "Document": "carbs_sugars_fiber.html",
          "NutritionItemID": 5,
          "NutritionItemName": "Sugars",
          "Predriscriptor": "",
          "Quantity": 13,
          "Unit": "g         "
        },
        {
          "DisplayOrder": 13,
          "Document": null,
          "NutritionItemID": 6,
          "NutritionItemName": "Protein",
          "Predriscriptor": "",
          "Quantity": 19,
          "Unit": "g         "
        },
        {
          "DisplayOrder": 14,
          "Document": null,
          "NutritionItemID": 10,
          "NutritionItemName": "Vitamin A",
          "Predriscriptor": "",
          "Quantity": 35,
          "Unit": "%DV       "
        },
        {
          "DisplayOrder": 15,
          "Document": null,
          "NutritionItemID": 11,
          "NutritionItemName": "Vitamin C",
          "Predriscriptor": "",
          "Quantity": 45,
          "Unit": "%DV       "
        },
        {
          "DisplayOrder": 16,
          "Document": "dairy_and_calcium.html",
          "NutritionItemID": 12,
          "NutritionItemName": "Calcium",
          "Predriscriptor": "",
          "Quantity": 35,
          "Unit": "%DV       "
        },
        {
          "DisplayOrder": 17,
          "Document": null,
          "NutritionItemID": 13,
          "NutritionItemName": "Iron",
          "Predriscriptor": "",
          "Quantity": 20,
          "Unit": "%DV       "
        }
      ],
      "NutritionServingText": " ",
      "PrepStepImage": null,
      "PreparationDescription": "Cook chili, tomatoes and corn in saucepan on medium-high heat 15 min. or until heated through, stirring occasionally.  Pour half into 3-qt. casserole sprayed with cooking spray; top with Singles and remaining chili mixture.$Mix remaining ingredients until blended; drop by spoonfuls over chili mixture.  $Bake 25 to 30 min. until chili mixture is hot and bubbly, and toothpick inserted in cornbread topping comes out clean.",
      "PreparationPreText": "Heat oven to 350°F.",
      "PreparationSteps": [
        {
          "Description": "Cook chili, tomatoes and corn in saucepan on medium-high heat 15 min. or until heated through, stirring occasionally.  Pour half into 3-qt. casserole sprayed with cooking spray; top with Singles and remaining chili mixture.",
          "PreparationStepImage": {
            "PictureFormats": [],
            "author": null,
            "id": null,
            "imageType": null,
            "mimeType": null,
            "publicationDate": null,
            "status": null,
            "title": null,
            "type": null
          },
          "Sequence": 1
        },
        {
          "Description": "Mix remaining ingredients until blended; drop by spoonfuls over chili mixture.  ",
          "PreparationStepImage": {
            "PictureFormats": [],
            "author": null,
            "id": null,
            "imageType": null,
            "mimeType": null,
            "publicationDate": null,
            "status": null,
            "title": null,
            "type": null
          },
          "Sequence": 2
        },
        {
          "Description": "Bake 25 to 30 min. until chili mixture is hot and bubbly, and toothpick inserted in cornbread topping comes out clean.",
          "PreparationStepImage": {
            "PictureFormats": [],
            "author": null,
            "id": null,
            "imageType": null,
            "mimeType": null,
            "publicationDate": null,
            "status": null,
            "title": null,
            "type": null
          },
          "Sequence": 3
        }
      ],
      "PreparationTime": 25,
      "Promotion": null,
      "Ratings": {
        "TotalCount": 0,
        "PageCount": 10,
        "PageNo": 1,
        "Rating": []
      },
      "RecipeDisplayFormatId": 5,
      "RecipeId": 163079,
      "RecipeName": "Easy Chili Casserole",
      "RecipeType": 0,
      "RelatedData": {
        "RelatedBrands": null,
        "RelatedProducts": null,
        "RelatedRecipes": {
          "DefaultTopCount": 5,
          "Recipe": [
            {
              "AverageRating": 4.1,
              "HasVideo": false,
              "IsHealthyLiving": false,
              "NumberOfRatings": 89,
              "PhotoName": "52284.jpg",
              "PhotoUrl": "http://assets.kraftfoods.com/recipe_images/opendeploy/52284.jpg",
              "RecipeId": 52284,
              "RecipeName": "4-Ingredient Chili Dog Casserole",
              "SEOName": "4-ingredient-chili-dog-casserole-52284",
              "ThumbnailPhoto": null
            },
            {
              "AverageRating": 4.2,
              "HasVideo": false,
              "IsHealthyLiving": false,
              "NumberOfRatings": 17,
              "PhotoName": "90796.jpg",
              "PhotoUrl": "http://assets.kraftfoods.com/recipe_images/opendeploy/90796.jpg",
              "RecipeId": 90796,
              "RecipeName": "VELVEETA® Easy Taco Bake with Tortilla Chips",
              "SEOName": "velveeta-easy-taco-bake-tortilla-chips-90796",
              "ThumbnailPhoto": null
            },
            {
              "AverageRating": 4,
              "HasVideo": false,
              "IsHealthyLiving": false,
              "NumberOfRatings": 53,
              "PhotoName": "95076.jpg",
              "PhotoUrl": "http://assets.kraftfoods.com/recipe_images/opendeploy/95076.jpg",
              "RecipeId": 95076,
              "RecipeName": "Chicken Fiesta Chili Mac",
              "SEOName": "chicken-fiesta-chili-mac-95076",
              "ThumbnailPhoto": null
            },
            {
              "AverageRating": 4,
              "HasVideo": false,
              "IsHealthyLiving": true,
              "NumberOfRatings": 60,
              "PhotoName": "121411.jpg",
              "PhotoUrl": "http://assets.kraftfoods.com/recipe_images/opendeploy/121411.jpg",
              "RecipeId": 121411,
              "RecipeName": "Easy Baked Taco Pie",
              "SEOName": "easy-baked-taco-pie-121411",
              "ThumbnailPhoto": null
            },
            {
              "AverageRating": 4.1,
              "HasVideo": false,
              "IsHealthyLiving": false,
              "NumberOfRatings": 23,
              "PhotoName": "Beef-Enchilada-Bake-57730.jpg",
              "PhotoUrl": "http://assets.kraftfoods.com/recipe_images/opendeploy/Beef-Enchilada-Bake-57730.jpg",
              "RecipeId": 129405,
              "RecipeName": "Beef Enchilada Casserole",
              "SEOName": "beef-enchilada-casserole-129405",
              "ThumbnailPhoto": null
            }
          ],
          "TotalCount": 4104
        }
      },
      "RiseIngredients": [],
      "RiseTaxonomy": [],
      "Riserecipe": [
        {
          "GRIN": 547792,
          "RecipeId": 163079,
          "RecipeIndustrySector": "Retail",
          "RecipeType": "Internal"
        }
      ],
      "RomanceText": "Whether you’re a novice cook or an old hand in a hurry, this Easy Chili Casserole is a breeze to make—and is pretty much guaranteed to please!",
      "SEOName": "easy-chili-casserole-163079",
      "Tips": [
        {
          "RecipeId": 163079,
          "Sequence": 10,
          "TipDescription": "This easy-to-make casserole is equally delicious whether prepared with canned chili with or without beans.",
          "TipID": 1,
          "TipName": "Note"
        }
      ],
      "TotalTime": 55,
      "TradeMarkInfo": null,
      "Video": [],
      "Yield": " 8 servings"
    }
  ]
}