{
  "Metadata": {
    "PageCount": 1,
    "PageNo": 0,
    "TotalCount": 0
  },
  "Recipes": [
    {
      "AdServingKeywords": "Chocolate,Eggs,Nuts,Dessert,Bakers,Kraft Caramels,Planters",
      "AlternateLanguageRecipes": [],
      "Assets": [],
      "AverageRating": 0,
      "BrandId": 1,
      "Branding": null,
      "CSSSkins": null,
      "CarbCounter": null,
      "Categories": [
        {
          "CategoryID": 3,
          "CategoryName": "Cookies/Candy/Other Desserts",
          "CategoryRank": 6,
          "SubCategoryID": 364,
          "SubCategoryName": "Shaped Cookies",
          "SubCategoryRank": 180
        },
        {
          "CategoryID": 11,
          "CategoryName": "Primary",
          "CategoryRank": 0,
          "SubCategoryID": 103,
          "SubCategoryName": "Desserts",
          "SubCategoryRank": 40
        },
        {
          "CategoryID": 761,
          "CategoryName": "Cakes, Muffins & Sweet Treats",
          "CategoryRank": 15,
          "SubCategoryID": 2585,
          "SubCategoryName": "Sweet",
          "SubCategoryRank": 1
        },
        {
          "CategoryID": 761,
          "CategoryName": "Cakes, Muffins & Sweet Treats",
          "CategoryRank": 15,
          "SubCategoryID": 2587,
          "SubCategoryName": "Biscuits & Scones",
          "SubCategoryRank": 1
        }
      ],
      "Classifications": [],
      "ComplimentaryRecipes": null,
      "CookingMethod": null,
      "Copyright": null,
      "Courses": [
        "Desserts"
      ],
      "DietExchange": null,
      "DishDetails": [
        {
          "Text": "desserts",
          "Url": "/recipes/dessert/main.aspx"
        },
        {
          "Text": "fruity desserts",
          "Url": "/recipes/dessert/fruitydesserts.aspx"
        },
        {
          "Text": "gelatin desserts",
          "Url": "/recipes/dessert/gelatindesserts.aspx"
        },
        {
          "Text": "layered desserts",
          "Url": "/recipes/dessert/layereddesserts.aspx"
        },
        {
          "Text": "brownie recipes",
          "Url": "/recipes/dessert/brownie-recipes/main.aspx"
        },
        {
          "Text": "budget desserts",
          "Url": "/recipes/budget/budget-desserts.aspx"
        },
        {
          "Text": "no bake desserts",
          "Url": "/recipes/dessert/nobakedesserts.aspx"
        },
        {
          "Text": "pumpkin recipes",
          "Url": "/recipes/dessert/pumpkin-recipes.aspx"
        },
        {
          "Text": "chocolate cake recipes",
          "Url": "/recipes/dessert/chocolate-cake-recipes/main.aspx"
        },
        {
          "Text": "cheesecake recipes",
          "Url": "/recipes/dessert/cheesecake-center/cheesecake-recipes/main.aspx"
        },
        {
          "Text": "chocolate lovers recipes",
          "Url": "/recipes/dessert/chocolate-center/chocolateloversrecipes.aspx"
        },
        {
          "Text": "classic desserts",
          "Url": "/recipes/dessert/classicdesserts.aspx"
        },
        {
          "Text": "cookie ball recipes",
          "Url": "/recipes/dessert/cookie-ball-recipes/main.aspx"
        },
        {
          "Text": "cookie recipes",
          "Url": "/recipes/dessert/cookie-recipes/main.aspx"
        },
        {
          "Text": "cupcake recipes",
          "Url": "/recipes/dessert/cupcake-recipes/main.aspx"
        },
        {
          "Text": "healthy living desserts",
          "Url": "/healthy-living-ideas/diabetes-center/recipes/dessert-recipes.aspx"
        }
      ],
      "EndDate": "/Date(-62135575200000-0600)/",
      "HasVideo": false,
      "Ingredients": [
        {
          "FullMeasure": "2-1/2 cups",
          "FullWeight": "",
          "IngredientGridHeaders": null,
          "IngredientID": 1080,
          "IngredientName": "flour",
          "IngredientStep": 10,
          "LanguageId": 0,
          "PostPreparation": "",
          "PrePreparation": "",
          "QuantityNum": 2,
          "QuantityText": "2-1/2",
          "QuantityUnit": "cups",
          "RecipeIngredientID": 6206699,
          "TrialMeasure": "",
          "TrialWeight": ""
        },
        {
          "FullMeasure": "1/2 cup",
          "FullWeight": "",
          "IngredientGridHeaders": null,
          "IngredientID": 7466,
          "IngredientName": "unsweetened cocoa powder",
          "IngredientStep": 20,
          "LanguageId": 0,
          "PostPreparation": "",
          "PrePreparation": "",
          "QuantityNum": 0,
          "QuantityText": "1/2",
          "QuantityUnit": "cup",
          "RecipeIngredientID": 6206703,
          "TrialMeasure": "",
          "TrialWeight": ""
        },
        {
          "FullMeasure": "1 tsp.",
          "FullWeight": "",
          "IngredientGridHeaders": null,
          "IngredientID": 808,
          "IngredientName": "baking soda",
          "IngredientStep": 30,
          "LanguageId": 0,
          "PostPreparation": "",
          "PrePreparation": "",
          "QuantityNum": 1,
          "QuantityText": "1",
          "QuantityUnit": "tsp.",
          "RecipeIngredientID": 6206710,
          "TrialMeasure": "",
          "TrialWeight": ""
        },
        {
          "FullMeasure": "1 cup",
          "FullWeight": "",
          "IngredientGridHeaders": null,
          "IngredientID": 863,
          "IngredientName": "butter",
          "IngredientStep": 40,
          "LanguageId": 0,
          "PostPreparation": "",
          "PrePreparation": "",
          "QuantityNum": 1,
          "QuantityText": "1",
          "QuantityUnit": "cup",
          "RecipeIngredientID": 6206702,
          "TrialMeasure": "",
          "TrialWeight": ""
        },
        {
          "FullMeasure": "2 cups",
          "FullWeight": "",
          "IngredientGridHeaders": null,
          "IngredientID": 1190,
          "IngredientName": "granulated sugar",
          "IngredientStep": 50,
          "LanguageId": 0,
          "PostPreparation": "",
          "PrePreparation": "",
          "QuantityNum": 2,
          "QuantityText": "2",
          "QuantityUnit": "cups",
          "RecipeIngredientID": 6206705,
          "TrialMeasure": "",
          "TrialWeight": ""
        },
        {
          "FullMeasure": "1 cup",
          "FullWeight": "",
          "IngredientGridHeaders": null,
          "IngredientID": 1300,
          "IngredientName": "light brown sugar",
          "IngredientStep": 60,
          "LanguageId": 0,
          "PostPreparation": "",
          "PrePreparation": "packed",
          "QuantityNum": 1,
          "QuantityText": "1",
          "QuantityUnit": "cup",
          "RecipeIngredientID": 6206701,
          "TrialMeasure": "",
          "TrialWeight": ""
        },
        {
          "FullMeasure": "2",
          "FullWeight": "",
          "IngredientGridHeaders": null,
          "IngredientID": 1060,
          "IngredientName": "egg",
          "IngredientStep": 70,
          "LanguageId": 0,
          "PostPreparation": "s",
          "PrePreparation": "",
          "QuantityNum": 2,
          "QuantityText": "2",
          "QuantityUnit": "",
          "RecipeIngredientID": 6206709,
          "TrialMeasure": "",
          "TrialWeight": ""
        },
        {
          "FullMeasure": "1 tsp.",
          "FullWeight": "",
          "IngredientGridHeaders": null,
          "IngredientID": 1731,
          "IngredientName": "vanilla",
          "IngredientStep": 80,
          "LanguageId": 0,
          "PostPreparation": "",
          "PrePreparation": "",
          "QuantityNum": 1,
          "QuantityText": "1",
          "QuantityUnit": "tsp.",
          "RecipeIngredientID": 6206707,
          "TrialMeasure": "",
          "TrialWeight": ""
        },
        {
          "FullMeasure": "6 oz.",
          "FullWeight": "",
          "IngredientGridHeaders": null,
          "IngredientID": 25546,
          "IngredientName": "BAKER'S Semi-Sweet Chocolate Chips",
          "IngredientStep": 90,
          "LanguageId": 0,
          "PostPreparation": "",
          "PrePreparation": "(1/2 of 12-oz. pkg.)",
          "QuantityNum": 6,
          "QuantityText": "6",
          "QuantityUnit": "oz.",
          "RecipeIngredientID": 6206706,
          "TrialMeasure": "",
          "TrialWeight": ""
        },
        {
          "FullMeasure": "1 cup",
          "FullWeight": "",
          "IngredientGridHeaders": null,
          "IngredientID": 18697,
          "IngredientName": "KRAFT Caramel Bits",
          "IngredientStep": 100,
          "LanguageId": 0,
          "PostPreparation": "",
          "PrePreparation": "",
          "QuantityNum": 1,
          "QuantityText": "1",
          "QuantityUnit": "cup",
          "RecipeIngredientID": 6206704,
          "TrialMeasure": "",
          "TrialWeight": ""
        },
        {
          "FullMeasure": "1/2 cup",
          "FullWeight": "",
          "IngredientGridHeaders": null,
          "IngredientID": 5528,
          "IngredientName": "PLANTERS Pecans",
          "IngredientStep": 110,
          "LanguageId": 0,
          "PostPreparation": ", toasted",
          "PrePreparation": "chopped",
          "QuantityNum": 0,
          "QuantityText": "1/2",
          "QuantityUnit": "cup",
          "RecipeIngredientID": 6206700,
          "TrialMeasure": "",
          "TrialWeight": ""
        },
        {
          "FullMeasure": "2 tsp.",
          "FullWeight": "",
          "IngredientGridHeaders": null,
          "IngredientID": 30077,
          "IngredientName": "coarse-ground sea salt",
          "IngredientStep": 120,
          "LanguageId": 0,
          "PostPreparation": "",
          "PrePreparation": "",
          "QuantityNum": 2,
          "QuantityText": "2",
          "QuantityUnit": "tsp.",
          "RecipeIngredientID": 6206708,
          "TrialMeasure": "",
          "TrialWeight": ""
        }
      ],
      "IsHealthyLiving": false,
      "KRLId": "578053",
      "KeyIngredients": [
        "Candy",
        "Eggs",
        "Nuts"
      ],
      "Keywords": "nuts,pecans,BAKER'S Chocolate,baking soda,brown sugar,chocolate,cocoa,eggs,extract,sugar,vanilla,BAKER'S Semi-Sweet Chocolate,butter,chocolate chips,flour,semi-sweet chocolate,PLANTERS Pecans,KRAFT Caramels,caramels,salt,Planters,Dessert",
      "LanguageId": 1,
      "LifeStyles": [],
      "NumberOfIngredients": 12,
      "NumberOfRatings": 0,
      "NumberOfRatingsWithComments": "0",
      "NumberOfServings": "36 servings",
      "NumberOfTrialServings": "",
      "NutritionBonus": null,
      "NutritionExchangeItemId": 0,
      "NutritionGridItems": null,
      "NutritionItems": [
        {
          "DisplayOrder": 1,
          "Document": null,
          "NutritionItemID": 3,
          "NutritionItemName": "Calories",
          "Predriscriptor": "",
          "Quantity": 210,
          "Unit": "          "
        },
        {
          "DisplayOrder": 2,
          "Document": "fat_cholesterol.html",
          "NutritionItemID": 4,
          "NutritionItemName": "Total fat",
          "Predriscriptor": "",
          "Quantity": 9,
          "Unit": "g         "
        },
        {
          "DisplayOrder": 3,
          "Document": "fat_cholesterol.html",
          "NutritionItemID": 9,
          "NutritionItemName": "Saturated fat",
          "Predriscriptor": "",
          "Quantity": 5,
          "Unit": "g         "
        },
        {
          "DisplayOrder": 7,
          "Document": "fat_cholesterol.html",
          "NutritionItemID": 2,
          "NutritionItemName": "Cholesterol",
          "Predriscriptor": "",
          "Quantity": 25,
          "Unit": "mg        "
        },
        {
          "DisplayOrder": 8,
          "Document": "sodium.html",
          "NutritionItemID": 8,
          "NutritionItemName": "Sodium",
          "Predriscriptor": "",
          "Quantity": 230,
          "Unit": "mg        "
        },
        {
          "DisplayOrder": 10,
          "Document": "carbs_sugars_fiber.html",
          "NutritionItemID": 1,
          "NutritionItemName": "Carbohydrate",
          "Predriscriptor": "",
          "Quantity": 33,
          "Unit": "g         "
        },
        {
          "DisplayOrder": 11,
          "Document": "carbs_sugars_fiber.html",
          "NutritionItemID": 7,
          "NutritionItemName": "Dietary fiber",
          "Predriscriptor": "Less than",
          "Quantity": 1,
          "Unit": "g         "
        },
        {
          "DisplayOrder": 12,
          "Document": "carbs_sugars_fiber.html",
          "NutritionItemID": 5,
          "NutritionItemName": "Sugars",
          "Predriscriptor": "",
          "Quantity": 24,
          "Unit": "g         "
        },
        {
          "DisplayOrder": 13,
          "Document": null,
          "NutritionItemID": 6,
          "NutritionItemName": "Protein",
          "Predriscriptor": "",
          "Quantity": 2,
          "Unit": "g         "
        },
        {
          "DisplayOrder": 14,
          "Document": null,
          "NutritionItemID": 10,
          "NutritionItemName": "Vitamin A",
          "Predriscriptor": "",
          "Quantity": 4,
          "Unit": "%DV       "
        },
        {
          "DisplayOrder": 15,
          "Document": null,
          "NutritionItemID": 11,
          "NutritionItemName": "Vitamin C",
          "Predriscriptor": "",
          "Quantity": 0,
          "Unit": "%DV       "
        },
        {
          "DisplayOrder": 16,
          "Document": "dairy_and_calcium.html",
          "NutritionItemID": 12,
          "NutritionItemName": "Calcium",
          "Predriscriptor": "",
          "Quantity": 0,
          "Unit": "%DV       "
        },
        {
          "DisplayOrder": 17,
          "Document": null,
          "NutritionItemID": 13,
          "NutritionItemName": "Iron",
          "Predriscriptor": "",
          "Quantity": 6,
          "Unit": "%DV       "
        }
      ],
      "NutritionServingText": " ",
      "PrepStepImage": null,
      "PreparationDescription": "Combine flour, cocoa powder and baking soda in medium bowl; set aside. $Beat butter and sugars in large bowl with mixer until light and fluffy.  Add eggs and vanilla; beat until blended.  Add flour mixture; mix well.  Stir in chocolate morsels, caramel bits and nuts.  $Shape dough into 1-inch balls.  Place, 2 inches apart, on parchment-covered baking sheets.  Flatten each ball, in criss-cross pattern, with tines of fork.  Sprinkle with salt.$Bake 10 to 12 min. or until just set.  Cool on baking sheet 10 min.   Remove to wire racks; cool completely. ",
      "PreparationPreText": "Heat oven to 350°F.",
      "PreparationSteps": [
        {
          "Description": "Combine flour, cocoa powder and baking soda in medium bowl; set aside. ",
          "PreparationStepImage": {
            "PictureFormats": [],
            "author": null,
            "id": null,
            "imageType": null,
            "mimeType": null,
            "publicationDate": null,
            "status": null,
            "title": null,
            "type": null
          },
          "Sequence": 1
        },
        {
          "Description": "Beat butter and sugars in large bowl with mixer until light and fluffy.  Add eggs and vanilla; beat until blended.  Add flour mixture; mix well.  Stir in chocolate morsels, caramel bits and nuts.  ",
          "PreparationStepImage": {
            "PictureFormats": [],
            "author": null,
            "id": null,
            "imageType": null,
            "mimeType": null,
            "publicationDate": null,
            "status": null,
            "title": null,
            "type": null
          },
          "Sequence": 2
        },
        {
          "Description": "Shape dough into 1-inch balls.  Place, 2 inches apart, on parchment-covered baking sheets.  Flatten each ball, in criss-cross pattern, with tines of fork.  Sprinkle with salt.",
          "PreparationStepImage": {
            "PictureFormats": [],
            "author": null,
            "id": null,
            "imageType": null,
            "mimeType": null,
            "publicationDate": null,
            "status": null,
            "title": null,
            "type": null
          },
          "Sequence": 3
        },
        {
          "Description": "Bake 10 to 12 min. or until just set.  Cool on baking sheet 10 min.   Remove to wire racks; cool completely. ",
          "PreparationStepImage": {
            "PictureFormats": [],
            "author": null,
            "id": null,
            "imageType": null,
            "mimeType": null,
            "publicationDate": null,
            "status": null,
            "title": null,
            "type": null
          },
          "Sequence": 4
        }
      ],
      "PreparationTime": 15,
      "Promotion": null,
      "Ratings": {
        "TotalCount": 0,
        "PageCount": 10,
        "PageNo": 1,
        "Rating": []
      },
      "RecipeDisplayFormatId": 5,
      "RecipeId": 199630,
      "RecipeName": "Chocolate Turtle Cookies",
      "RecipeType": 0,
      "RelatedData": {
        "RelatedBrands": null,
        "RelatedProducts": null,
        "RelatedRecipes": {
          "DefaultTopCount": 5,
          "Recipe": [
            {
              "AverageRating": 4.8,
              "HasVideo": false,
              "IsHealthyLiving": false,
              "NumberOfRatings": 13,
              "PhotoName": "118036.jpg",
              "PhotoUrl": "http://assets.kraftfoods.com/recipe_images/opendeploy/118036.jpg",
              "RecipeId": 118036,
              "RecipeName": "Frozen Peanut Butter Turtle Pie",
              "SEOName": "frozen-peanut-butter-turtle-pie-118036",
              "ThumbnailPhoto": null
            },
            {
              "AverageRating": 4.8,
              "HasVideo": false,
              "IsHealthyLiving": false,
              "NumberOfRatings": 4,
              "PhotoName": "Chocolate-Glazed-Turtle-Pie-778.jpg",
              "PhotoUrl": "http://assets.kraftfoods.com/recipe_images/opendeploy/Chocolate-Glazed-Turtle-Pie-778.jpg",
              "RecipeId": 111070,
              "RecipeName": "Chocolate-Glazed  Turtle Pie",
              "SEOName": "chocolate-glazed-turtle-pie-111070",
              "ThumbnailPhoto": null
            },
            {
              "AverageRating": 4,
              "HasVideo": false,
              "IsHealthyLiving": false,
              "NumberOfRatings": 3,
              "PhotoName": "Smore_Turtles.jpg",
              "PhotoUrl": "http://assets.kraftfoods.com/recipe_images/opendeploy/Smore_Turtles.jpg",
              "RecipeId": 56887,
              "RecipeName": "S'more Turtles",
              "SEOName": "smore-turtles-56887",
              "ThumbnailPhoto": null
            },
            {
              "AverageRating": 4.7,
              "HasVideo": false,
              "IsHealthyLiving": false,
              "NumberOfRatings": 250,
              "PhotoName": "54369.jpg",
              "PhotoUrl": "http://assets.kraftfoods.com/recipe_images/opendeploy/54369.jpg",
              "RecipeId": 54369,
              "RecipeName": "Ultimate Turtle Cheesecake",
              "SEOName": "ultimate-turtle-cheesecake-54369",
              "ThumbnailPhoto": null
            },
            {
              "AverageRating": 4.5,
              "HasVideo": false,
              "IsHealthyLiving": false,
              "NumberOfRatings": 2,
              "PhotoName": "Turtle-Crispy-Treats-59542.jpg",
              "PhotoUrl": "http://assets.kraftfoods.com/recipe_images/opendeploy/Turtle-Crispy-Treats-59542.jpg",
              "RecipeId": 123193,
              "RecipeName": "Turtle RICE KRISPIES® TREATS™",
              "SEOName": "turtle-rice-krispies-treats-123193",
              "ThumbnailPhoto": null
            }
          ],
          "TotalCount": 2049
        }
      },
      "RiseIngredients": [],
      "RiseTaxonomy": [],
      "Riserecipe": [
        {
          "GRIN": 578053,
          "RecipeId": 199630,
          "RecipeIndustrySector": "Retail",
          "RecipeType": "Internal"
        }
      ],
      "RomanceText": "Satisfy your sweet tooth with these Chocolate Turtle Cookies! Discover chocolatey, nutty flavor when you follow this scrumptious recipe today.",
      "SEOName": "chocolate-turtle-cookies-199630",
      "Tips": [
        {
          "RecipeId": 199630,
          "Sequence": 10,
          "TipDescription": "Toasting nuts adds crunch and intensifies their flavor.  To toast nuts in the oven, spread nuts in single layer in shallow baking pan.  Bake at 350°F for 8 to 10 min. or until golden brown, stirring occasionally.  To toast nuts on the stovetop, place nuts in ungreased skillet.  Cook on medium heat until golden brown, stirring frequently.  To toast nuts in the microwave, place up to 1 cup of nuts in a microwaveable shallow dish.  Microwave on HIGH until fragrant and crisp, stirring every 30 sec.",
          "TipID": 4306,
          "TipName": "How to Toast Nuts"
        },
        {
          "RecipeId": 199630,
          "Sequence": 20,
          "TipDescription": "Melt 2 oz. BAKER'S Semi-Sweet Chocolate as directed on package; drizzle over cookies.  Let stand until firm.",
          "TipID": 1,
          "TipName": "Special Extra"
        }
      ],
      "TotalTime": 39,
      "TradeMarkInfo": null,
      "Video": [],
      "Yield": "36 servings"
    }
  ]
}