{
  "Metadata": {
    "PageCount": 1,
    "PageNo": 0,
    "TotalCount": 0
  },
  "Recipes": [
    {
      "AdServingKeywords": "Fruit,Lemon,Oranges,Drinks,Easy,Nutrition and Well-Being,All Seasons,BBQ,Mocktail,Crystal Light",
      "AlternateLanguageRecipes": [
        {
          "LanguageId": "2",
          "RecipeId": "179722",
          "SiteId": "1"
        },
        {
          "LanguageId": "2",
          "RecipeId": "179722",
          "SiteId": "90"
        }
      ],
      "Assets": [
        {
          "PictureFormats": [
            {
              "rendition": "290x194",
              "url": "http://assets.kraftfoods.com/recipe_images/opendeploy/179721_290x194.jpg"
            },
            {
              "rendition": "640x428",
              "url": "http://assets.kraftfoods.com/recipe_images/opendeploy/179721_640x428.jpg"
            }
          ],
          "author": null,
          "id": "1",
          "imageType": "Primary",
          "mimeType": "image/jpeg",
          "publicationDate": null,
          "status": "1",
          "title": "179721",
          "type": "image"
        },
        {
          "PictureFormats": [
            {
              "rendition": "300x200",
              "url": "http://assets.kraftfoods.com/recipe_images/179721.jpg"
            }
          ],
          "author": null,
          "id": "0",
          "imageType": "LANDSCAPE",
          "mimeType": "image/jpeg",
          "publicationDate": null,
          "status": "1",
          "title": "179721.jpg",
          "type": "image"
        }
      ],
      "AverageRating": 5,
      "BrandId": 1,
      "Branding": null,
      "CSSSkins": null,
      "CarbCounter": "1",
      "Categories": [
        {
          "CategoryID": 5,
          "CategoryName": "Beverages",
          "CategoryRank": 2,
          "SubCategoryID": 133,
          "SubCategoryName": "Iced Coffees/Teas",
          "SubCategoryRank": 10
        },
        {
          "CategoryID": 11,
          "CategoryName": "Primary",
          "CategoryRank": 0,
          "SubCategoryID": 104,
          "SubCategoryName": "Beverages",
          "SubCategoryRank": 20
        },
        {
          "CategoryID": 747,
          "CategoryName": "Beverages",
          "CategoryRank": 1,
          "SubCategoryID": 2521,
          "SubCategoryName": "Chilled",
          "SubCategoryRank": 1
        },
        {
          "CategoryID": 747,
          "CategoryName": "Beverages",
          "CategoryRank": 1,
          "SubCategoryID": 2522,
          "SubCategoryName": "Mocktails",
          "SubCategoryRank": 1
        }
      ],
      "Classifications": [
        {
          "ClassficationId": 9,
          "ClassificationName": "Low fat"
        },
        {
          "ClassficationId": 13,
          "ClassificationName": "Good source of vitamin A or C"
        },
        {
          "ClassficationId": 14,
          "ClassificationName": "Generally Nutritious"
        },
        {
          "ClassficationId": 22,
          "ClassificationName": "Low sodium"
        },
        {
          "ClassficationId": 119,
          "ClassificationName": "Diabetes Center"
        }
      ],
      "ComplimentaryRecipes": [
        {
          "AverageRating": 0,
          "HasVideo": false,
          "IsHealthyLiving": false,
          "NumberOfRatings": 0,
          "PhotoName": null,
          "PhotoUrl": null,
          "RecipeId": 125461,
          "RecipeName": null,
          "SEOName": "shrimp-grill-fry-125461",
          "ThumbnailPhoto": "125461.jpg"
        }
      ],
      "CookingMethod": null,
      "Copyright": null,
      "Courses": [
        "Beverages"
      ],
      "DietExchange": "1 Fruit",
      "DishDetails": [],
      "EndDate": "/Date(-62135575200000-0600)/",
      "HasVideo": false,
      "Ingredients": [
        {
          "FullMeasure": "1 qt.",
          "FullWeight": "",
          "IngredientGridHeaders": null,
          "IngredientID": 1800,
          "IngredientName": "water",
          "IngredientStep": 10,
          "LanguageId": 0,
          "PostPreparation": "",
          "PrePreparation": "(4 cups)",
          "QuantityNum": 1,
          "QuantityText": "1",
          "QuantityUnit": "qt.",
          "RecipeIngredientID": 5074292,
          "TrialMeasure": "",
          "TrialWeight": ""
        },
        {
          "FullMeasure": "2",
          "FullWeight": "",
          "IngredientGridHeaders": null,
          "IngredientID": 5100,
          "IngredientName": "tea bags",
          "IngredientStep": 20,
          "LanguageId": 0,
          "PostPreparation": "",
          "PrePreparation": "",
          "QuantityNum": 2,
          "QuantityText": "2",
          "QuantityUnit": "",
          "RecipeIngredientID": 5074294,
          "TrialMeasure": "",
          "TrialWeight": ""
        },
        {
          "FullMeasure": "3 pkt.",
          "FullWeight": "",
          "IngredientGridHeaders": null,
          "IngredientID": 28695,
          "IngredientName": "CRYSTAL LIGHT PURE Raspberry Lemonade Flavor Drink Mix",
          "IngredientStep": 30,
          "LanguageId": 0,
          "PostPreparation": "",
          "PrePreparation": "(0.29 oz. each)",
          "QuantityNum": 3,
          "QuantityText": "3",
          "QuantityUnit": "pkt.",
          "RecipeIngredientID": 5074291,
          "TrialMeasure": "",
          "TrialWeight": ""
        },
        {
          "FullMeasure": "2 cups",
          "FullWeight": "",
          "IngredientGridHeaders": null,
          "IngredientID": 18949,
          "IngredientName": "pomegranate juice",
          "IngredientStep": 40,
          "LanguageId": 0,
          "PostPreparation": "",
          "PrePreparation": "",
          "QuantityNum": 2,
          "QuantityText": "2",
          "QuantityUnit": "cups",
          "RecipeIngredientID": 5074289,
          "TrialMeasure": "",
          "TrialWeight": ""
        },
        {
          "FullMeasure": "1 cup",
          "FullWeight": "",
          "IngredientGridHeaders": null,
          "IngredientID": 1379,
          "IngredientName": "orange juice",
          "IngredientStep": 50,
          "LanguageId": 0,
          "PostPreparation": "",
          "PrePreparation": "",
          "QuantityNum": 1,
          "QuantityText": "1",
          "QuantityUnit": "cup",
          "RecipeIngredientID": 5074290,
          "TrialMeasure": "",
          "TrialWeight": ""
        },
        {
          "FullMeasure": "1",
          "FullWeight": "",
          "IngredientGridHeaders": null,
          "IngredientID": 3949,
          "IngredientName": "navel orange",
          "IngredientStep": 60,
          "LanguageId": 0,
          "PostPreparation": ", sliced",
          "PrePreparation": "",
          "QuantityNum": 1,
          "QuantityText": "1",
          "QuantityUnit": "",
          "RecipeIngredientID": 5074295,
          "TrialMeasure": "",
          "TrialWeight": ""
        },
        {
          "FullMeasure": "1",
          "FullWeight": "",
          "IngredientGridHeaders": null,
          "IngredientID": 1288,
          "IngredientName": "lemon",
          "IngredientStep": 70,
          "LanguageId": 0,
          "PostPreparation": ", sliced",
          "PrePreparation": "",
          "QuantityNum": 1,
          "QuantityText": "1",
          "QuantityUnit": "",
          "RecipeIngredientID": 5074293,
          "TrialMeasure": "",
          "TrialWeight": ""
        }
      ],
      "IsHealthyLiving": true,
      "KRLId": "573568",
      "KeyIngredients": [
        "Fruit",
        "Lemon",
        "Oranges"
      ],
      "Keywords": "orange juice,oranges,CRYSTAL LIGHT Sugar Free Mixes,juice,lemons,tea,lemonade mix,drink mix-sugar free,Drinks,Easy,Nutrition and Well-Being,All Seasons,BBQ,Mocktail",
      "LanguageId": 1,
      "LifeStyles": [
        "Low fat",
        "Good source of vitamin A or C",
        "Generally Nutritious",
        "Low sodium",
        "Diabetes Center"
      ],
      "NumberOfIngredients": 7,
      "NumberOfRatings": 1,
      "NumberOfRatingsWithComments": "0",
      "NumberOfServings": "8 servings, 1 cup each",
      "NumberOfTrialServings": "",
      "NutritionBonus": "The tart citrus flavor from the sliced orange and orange juice is both a good source of vitamin C and the perfect complement to the pomegranate juice in this fruity fat-free drink. ",
      "NutritionExchangeItemId": 1,
      "NutritionGridItems": null,
      "NutritionItems": [
        {
          "DisplayOrder": 1,
          "Document": null,
          "NutritionItemID": 3,
          "NutritionItemName": "Calories",
          "Predriscriptor": "",
          "Quantity": 60,
          "Unit": "          "
        },
        {
          "DisplayOrder": 2,
          "Document": "fat_cholesterol.html",
          "NutritionItemID": 4,
          "NutritionItemName": "Total fat",
          "Predriscriptor": "",
          "Quantity": 0,
          "Unit": "g         "
        },
        {
          "DisplayOrder": 3,
          "Document": "fat_cholesterol.html",
          "NutritionItemID": 9,
          "NutritionItemName": "Saturated fat",
          "Predriscriptor": "",
          "Quantity": 0,
          "Unit": "g         "
        },
        {
          "DisplayOrder": 7,
          "Document": "fat_cholesterol.html",
          "NutritionItemID": 2,
          "NutritionItemName": "Cholesterol",
          "Predriscriptor": "",
          "Quantity": 0,
          "Unit": "mg        "
        },
        {
          "DisplayOrder": 8,
          "Document": "sodium.html",
          "NutritionItemID": 8,
          "NutritionItemName": "Sodium",
          "Predriscriptor": "",
          "Quantity": 15,
          "Unit": "mg        "
        },
        {
          "DisplayOrder": 10,
          "Document": "carbs_sugars_fiber.html",
          "NutritionItemID": 1,
          "NutritionItemName": "Carbohydrate",
          "Predriscriptor": "",
          "Quantity": 16,
          "Unit": "g         "
        },
        {
          "DisplayOrder": 11,
          "Document": "carbs_sugars_fiber.html",
          "NutritionItemID": 7,
          "NutritionItemName": "Dietary fiber",
          "Predriscriptor": "",
          "Quantity": 1,
          "Unit": "g         "
        },
        {
          "DisplayOrder": 12,
          "Document": "carbs_sugars_fiber.html",
          "NutritionItemID": 5,
          "NutritionItemName": "Sugars",
          "Predriscriptor": "",
          "Quantity": 13,
          "Unit": "g         "
        },
        {
          "DisplayOrder": 13,
          "Document": null,
          "NutritionItemID": 6,
          "NutritionItemName": "Protein",
          "Predriscriptor": "Less than",
          "Quantity": 1,
          "Unit": "g         "
        },
        {
          "DisplayOrder": 14,
          "Document": null,
          "NutritionItemID": 10,
          "NutritionItemName": "Vitamin A",
          "Predriscriptor": "",
          "Quantity": 6,
          "Unit": "%DV       "
        },
        {
          "DisplayOrder": 15,
          "Document": null,
          "NutritionItemID": 11,
          "NutritionItemName": "Vitamin C",
          "Predriscriptor": "",
          "Quantity": 60,
          "Unit": "%DV       "
        },
        {
          "DisplayOrder": 16,
          "Document": "dairy_and_calcium.html",
          "NutritionItemID": 12,
          "NutritionItemName": "Calcium",
          "Predriscriptor": "",
          "Quantity": 4,
          "Unit": "%DV       "
        },
        {
          "DisplayOrder": 17,
          "Document": null,
          "NutritionItemID": 13,
          "NutritionItemName": "Iron",
          "Predriscriptor": "",
          "Quantity": 0,
          "Unit": "%DV       "
        }
      ],
      "NutritionServingText": " ",
      "PrepStepImage": null,
      "PreparationDescription": "Bring water to boil in saucepan. Remove from heat. Add tea bags; let stand 3 min. Remove tea bags; discard.  Cool 5 min.$Add tea to drink mixes in 2-qt. plastic or glass pitcher; stir until dissolved.  Stir in juices.  Add fruit. $Serve over ice.",
      "PreparationPreText": "",
      "PreparationSteps": [
        {
          "Description": "Bring water to boil in saucepan. Remove from heat. Add tea bags; let stand 3 min. Remove tea bags; discard.  Cool 5 min.",
          "PreparationStepImage": {
            "PictureFormats": [],
            "author": null,
            "id": null,
            "imageType": null,
            "mimeType": null,
            "publicationDate": null,
            "status": null,
            "title": null,
            "type": null
          },
          "Sequence": 1
        },
        {
          "Description": "Add tea to drink mixes in 2-qt. plastic or glass pitcher; stir until dissolved.  Stir in juices.  Add fruit. ",
          "PreparationStepImage": {
            "PictureFormats": [],
            "author": null,
            "id": null,
            "imageType": null,
            "mimeType": null,
            "publicationDate": null,
            "status": null,
            "title": null,
            "type": null
          },
          "Sequence": 2
        },
        {
          "Description": "Serve over ice.",
          "PreparationStepImage": {
            "PictureFormats": [],
            "author": null,
            "id": null,
            "imageType": null,
            "mimeType": null,
            "publicationDate": null,
            "status": null,
            "title": null,
            "type": null
          },
          "Sequence": 3
        }
      ],
      "PreparationTime": 15,
      "Promotion": null,
      "Ratings": {
        "TotalCount": 1,
        "PageCount": 10,
        "PageNo": 1,
        "Rating": [
          {
            "Comment": "",
            "DisplayName": true,
            "RatingValue": 5,
            "SubmitDate": "/Date(1444154322000-0500)/",
            "UpdatedDate": "/Date(1444154322000-0500)/",
            "UserName": "jessa5"
          }
        ]
      },
      "RecipeDisplayFormatId": 5,
      "RecipeId": 179721,
      "RecipeName": "Pomegranate Sangria",
      "RecipeType": 0,
      "RelatedData": {
        "RelatedBrands": null,
        "RelatedProducts": null,
        "RelatedRecipes": {
          "DefaultTopCount": 5,
          "Recipe": [
            {
              "AverageRating": 4.3,
              "HasVideo": false,
              "IsHealthyLiving": true,
              "NumberOfRatings": 4,
              "PhotoName": "124710.jpg",
              "PhotoUrl": "http://assets.kraftfoods.com/recipe_images/opendeploy/124710.jpg",
              "RecipeId": 124710,
              "RecipeName": "Lemonade Sangria Recipe",
              "SEOName": "lemonade-sangria-recipe-124710",
              "ThumbnailPhoto": null
            },
            {
              "AverageRating": 4.5,
              "HasVideo": true,
              "IsHealthyLiving": true,
              "NumberOfRatings": 175,
              "PhotoName": "Sangria_Punch.jpg",
              "PhotoUrl": "http://assets.kraftfoods.com/recipe_images/opendeploy/Sangria_Punch.jpg",
              "RecipeId": 64881,
              "RecipeName": "Sangria Punch",
              "SEOName": "sangria-punch-64881",
              "ThumbnailPhoto": null
            },
            {
              "AverageRating": 4.8,
              "HasVideo": false,
              "IsHealthyLiving": false,
              "NumberOfRatings": 4,
              "PhotoName": "127539.jpg",
              "PhotoUrl": "http://assets.kraftfoods.com/recipe_images/opendeploy/127539.jpg",
              "RecipeId": 127539,
              "RecipeName": "Vampire Sangria",
              "SEOName": "vampire-sangria-127539",
              "ThumbnailPhoto": null
            },
            {
              "AverageRating": 5,
              "HasVideo": false,
              "IsHealthyLiving": false,
              "NumberOfRatings": 2,
              "PhotoName": "Sangria_Party_Cups.jpg",
              "PhotoUrl": "http://assets.kraftfoods.com/recipe_images/opendeploy/Sangria_Party_Cups.jpg",
              "RecipeId": 110749,
              "RecipeName": "Sangria Party Cups",
              "SEOName": "sangria-party-cups-110749",
              "ThumbnailPhoto": null
            },
            {
              "AverageRating": 4,
              "HasVideo": false,
              "IsHealthyLiving": true,
              "NumberOfRatings": 7,
              "PhotoName": "106263.jpg",
              "PhotoUrl": "http://assets.kraftfoods.com/recipe_images/opendeploy/106263.jpg",
              "RecipeId": 106263,
              "RecipeName": "\"Sangria\" Fruit Cups",
              "SEOName": "sangria-fruit-cups-106263",
              "ThumbnailPhoto": null
            }
          ],
          "TotalCount": 24
        }
      },
      "RiseIngredients": [],
      "RiseTaxonomy": [],
      "Riserecipe": [
        {
          "GRIN": 573568,
          "RecipeId": 179721,
          "RecipeIndustrySector": "Retail",
          "RecipeType": "Internal"
        }
      ],
      "RomanceText": "Refreshing. Fat free. Alcohol free. If only all the sangrias we met were as awesome as this refreshing pomegranate-OJ version!",
      "SEOName": "pomegranate-sangria-179721",
      "Tips": [],
      "TotalTime": 15,
      "TradeMarkInfo": null,
      "Video": [],
      "Yield": "8 servings, 1 cup each"
    }
  ]
}