{
  "Metadata": {
    "PageCount": 1,
    "PageNo": 0,
    "TotalCount": 0
  },
  "Recipes": [
    {
      "AdServingKeywords": "Jalapeno,Meat,Onion,Peppers,Poultry,Turkey,Vegetables,Entree,Top of Stove,Easy,All Seasons,Hot Sandwich,Dinner,A.1.",
      "AlternateLanguageRecipes": [],
      "Assets": [
        {
          "PictureFormats": [
            {
              "rendition": "640x428",
              "url": "http://assets.kraftfoods.com/recipe_images/opendeploy/175557_640x428.jpg"
            },
            {
              "rendition": "290x194",
              "url": "http://assets.kraftfoods.com/recipe_images/opendeploy/175557_290x194.jpg"
            }
          ],
          "author": null,
          "id": "1",
          "imageType": "Primary",
          "mimeType": "image/jpeg",
          "publicationDate": null,
          "status": "1",
          "title": "175557",
          "type": "image"
        },
        {
          "PictureFormats": [
            {
              "rendition": "300x200",
              "url": "http://assets.kraftfoods.com/recipe_images/175557.jpg"
            }
          ],
          "author": null,
          "id": "0",
          "imageType": "LANDSCAPE",
          "mimeType": "image/jpeg",
          "publicationDate": null,
          "status": "1",
          "title": "175557.jpg",
          "type": "image"
        }
      ],
      "AverageRating": 0,
      "BrandId": 1,
      "Branding": null,
      "CSSSkins": null,
      "CarbCounter": null,
      "Categories": [
        {
          "CategoryID": 2,
          "CategoryName": "Poultry Entrees",
          "CategoryRank": 11,
          "SubCategoryID": 376,
          "SubCategoryName": "Skillets: Other",
          "SubCategoryRank": 90
        },
        {
          "CategoryID": 11,
          "CategoryName": "Primary",
          "CategoryRank": 0,
          "SubCategoryID": 97,
          "SubCategoryName": "Entrees",
          "SubCategoryRank": 50
        },
        {
          "CategoryID": 756,
          "CategoryName": "Main Meals (Meat / Seafood / Egg)",
          "CategoryRank": 10,
          "SubCategoryID": 2562,
          "SubCategoryName": "Chicken",
          "SubCategoryRank": 1
        }
      ],
      "Classifications": [],
      "ComplimentaryRecipes": null,
      "CookingMethod": null,
      "Copyright": null,
      "Courses": [
        "Main dishes"
      ],
      "DietExchange": null,
      "DishDetails": [],
      "EndDate": "/Date(-62135575200000-0600)/",
      "HasVideo": false,
      "Ingredients": [
        {
          "FullMeasure": null,
          "FullWeight": null,
          "IngredientGridHeaders": null,
          "IngredientID": 68710,
          "IngredientName": "ground turkey",
          "IngredientStep": 10,
          "LanguageId": 0,
          "PostPreparation": "",
          "PrePreparation": "",
          "QuantityNum": 1,
          "QuantityText": "1",
          "QuantityUnit": "lb.",
          "RecipeIngredientID": 134148,
          "TrialMeasure": null,
          "TrialWeight": null
        },
        {
          "FullMeasure": null,
          "FullWeight": null,
          "IngredientGridHeaders": null,
          "IngredientID": 67755,
          "IngredientName": "green pepper, chopped",
          "IngredientStep": 20,
          "LanguageId": 0,
          "PostPreparation": "",
          "PrePreparation": "",
          "QuantityNum": 1,
          "QuantityText": "1",
          "QuantityUnit": "",
          "RecipeIngredientID": 136303,
          "TrialMeasure": null,
          "TrialWeight": null
        },
        {
          "FullMeasure": null,
          "FullWeight": null,
          "IngredientGridHeaders": null,
          "IngredientID": 68776,
          "IngredientName": " chopped onions",
          "IngredientStep": 30,
          "LanguageId": 0,
          "PostPreparation": "",
          "PrePreparation": "",
          "QuantityNum": 0.25,
          "QuantityText": "1/4",
          "QuantityUnit": "cup",
          "RecipeIngredientID": 132524,
          "TrialMeasure": null,
          "TrialWeight": null
        },
        {
          "FullMeasure": null,
          "FullWeight": null,
          "IngredientGridHeaders": null,
          "IngredientID": 69272,
          "IngredientName": "chopped jalapeño peppers",
          "IngredientStep": 40,
          "LanguageId": 0,
          "PostPreparation": "",
          "PrePreparation": "",
          "QuantityNum": 2,
          "QuantityText": "2",
          "QuantityUnit": "Tbsp.",
          "RecipeIngredientID": 142165,
          "TrialMeasure": null,
          "TrialWeight": null
        },
        {
          "FullMeasure": null,
          "FullWeight": null,
          "IngredientGridHeaders": null,
          "IngredientID": 67965,
          "IngredientName": "ground black pepper",
          "IngredientStep": 50,
          "LanguageId": 0,
          "PostPreparation": "",
          "PrePreparation": "",
          "QuantityNum": 0.25,
          "QuantityText": "1/4",
          "QuantityUnit": "tsp.",
          "RecipeIngredientID": 127933,
          "TrialMeasure": null,
          "TrialWeight": null
        },
        {
          "FullMeasure": null,
          "FullWeight": null,
          "IngredientGridHeaders": null,
          "IngredientID": 68008,
          "IngredientName": "A.1. Original Sauce",
          "IngredientStep": 60,
          "LanguageId": 0,
          "PostPreparation": "",
          "PrePreparation": "",
          "QuantityNum": 0.25,
          "QuantityText": "1/4",
          "QuantityUnit": "cup",
          "RecipeIngredientID": 133690,
          "TrialMeasure": null,
          "TrialWeight": null
        },
        {
          "FullMeasure": null,
          "FullWeight": null,
          "IngredientGridHeaders": null,
          "IngredientID": 71218,
          "IngredientName": "brioche sandwich rolls, split, toasted",
          "IngredientStep": 70,
          "LanguageId": 0,
          "PostPreparation": "",
          "PrePreparation": "",
          "QuantityNum": 4,
          "QuantityText": "4",
          "QuantityUnit": "",
          "RecipeIngredientID": 133826,
          "TrialMeasure": null,
          "TrialWeight": null
        }
      ],
      "IsHealthyLiving": false,
      "KRLId": "510382",
      "KeyIngredients": [],
      "Keywords": "whole grain,texas toast,Entree,Top of Stove,Easy,All Seasons,Hot Sandwich,Dinner",
      "LanguageId": 1,
      "LifeStyles": [],
      "NumberOfIngredients": 7,
      "NumberOfRatings": 0,
      "NumberOfRatingsWithComments": "0",
      "NumberOfServings": "4 servings",
      "NumberOfTrialServings": null,
      "NutritionBonus": null,
      "NutritionExchangeItemId": 0,
      "NutritionGridItems": null,
      "NutritionItems": [
        {
          "DisplayOrder": 0,
          "Document": null,
          "NutritionItemID": 384,
          "NutritionItemName": "Vitamin D",
          "Predriscriptor": "",
          "Quantity": 2,
          "Unit": "%DV       "
        },
        {
          "DisplayOrder": 0,
          "Document": null,
          "NutritionItemID": 385,
          "NutritionItemName": "Vitamin E",
          "Predriscriptor": "",
          "Quantity": 2,
          "Unit": "%DV       "
        },
        {
          "DisplayOrder": 0,
          "Document": null,
          "NutritionItemID": 388,
          "NutritionItemName": "Potassium",
          "Predriscriptor": "",
          "Quantity": 6,
          "Unit": "%DV       "
        },
        {
          "DisplayOrder": 0,
          "Document": null,
          "NutritionItemID": 390,
          "NutritionItemName": "Added Sugars",
          "Predriscriptor": "",
          "Quantity": 0,
          "Unit": "g         "
        },
        {
          "DisplayOrder": 1,
          "Document": null,
          "NutritionItemID": 371,
          "NutritionItemName": "Calories",
          "Predriscriptor": "",
          "Quantity": 430,
          "Unit": "          "
        },
        {
          "DisplayOrder": 2,
          "Document": null,
          "NutritionItemID": 376,
          "NutritionItemName": "Total fat",
          "Predriscriptor": "",
          "Quantity": 15,
          "Unit": "g         "
        },
        {
          "DisplayOrder": 3,
          "Document": null,
          "NutritionItemID": 377,
          "NutritionItemName": "Saturated fat",
          "Predriscriptor": "",
          "Quantity": 6,
          "Unit": "g         "
        },
        {
          "DisplayOrder": 4,
          "Document": null,
          "NutritionItemID": 379,
          "NutritionItemName": "Polyunsaturated Fat",
          "Predriscriptor": "",
          "Quantity": 2,
          "Unit": "g         "
        },
        {
          "DisplayOrder": 5,
          "Document": null,
          "NutritionItemID": 378,
          "NutritionItemName": "Monounsaturated Fat",
          "Predriscriptor": "",
          "Quantity": 2,
          "Unit": "g         "
        },
        {
          "DisplayOrder": 6,
          "Document": null,
          "NutritionItemID": 380,
          "NutritionItemName": "Trans Fat",
          "Predriscriptor": "",
          "Quantity": 0,
          "Unit": "g         "
        },
        {
          "DisplayOrder": 7,
          "Document": null,
          "NutritionItemID": 381,
          "NutritionItemName": "Cholesterol",
          "Predriscriptor": "",
          "Quantity": 105,
          "Unit": "mg        "
        },
        {
          "DisplayOrder": 8,
          "Document": null,
          "NutritionItemID": 389,
          "NutritionItemName": "Sodium",
          "Predriscriptor": "",
          "Quantity": 770,
          "Unit": "mg        "
        },
        {
          "DisplayOrder": 10,
          "Document": null,
          "NutritionItemID": 373,
          "NutritionItemName": "Carbohydrate",
          "Predriscriptor": "",
          "Quantity": 50,
          "Unit": "g         "
        },
        {
          "DisplayOrder": 11,
          "Document": null,
          "NutritionItemID": 374,
          "NutritionItemName": "Dietary fiber",
          "Predriscriptor": "",
          "Quantity": 4,
          "Unit": "g         "
        },
        {
          "DisplayOrder": 12,
          "Document": null,
          "NutritionItemID": 375,
          "NutritionItemName": "Sugars",
          "Predriscriptor": "",
          "Quantity": 8,
          "Unit": "g         "
        },
        {
          "DisplayOrder": 13,
          "Document": null,
          "NutritionItemID": 372,
          "NutritionItemName": "Protein",
          "Predriscriptor": "",
          "Quantity": 23,
          "Unit": "g         "
        },
        {
          "DisplayOrder": 14,
          "Document": null,
          "NutritionItemID": 382,
          "NutritionItemName": "Vitamin A",
          "Predriscriptor": "",
          "Quantity": 15,
          "Unit": "%DV       "
        },
        {
          "DisplayOrder": 15,
          "Document": null,
          "NutritionItemID": 383,
          "NutritionItemName": "Vitamin C",
          "Predriscriptor": "",
          "Quantity": 30,
          "Unit": "%DV       "
        },
        {
          "DisplayOrder": 16,
          "Document": null,
          "NutritionItemID": 386,
          "NutritionItemName": "Calcium",
          "Predriscriptor": "",
          "Quantity": 4,
          "Unit": "%DV       "
        },
        {
          "DisplayOrder": 17,
          "Document": null,
          "NutritionItemID": 387,
          "NutritionItemName": "Iron",
          "Predriscriptor": "",
          "Quantity": 20,
          "Unit": "%DV       "
        }
      ],
      "NutritionServingText": null,
      "PrepStepImage": null,
      "PreparationDescription": "Cook turkey in large skillet on medium heat until done, stirring frequently.    $Add next 4 ingredients; cook 3 to 5 min. or until tender, stirring frequently. $Stir in A.1.; cook 1 to 2 min. or until heated through, stirring frequently.  Serve in rolls. ",
      "PreparationPreText": null,
      "PreparationSteps": [
        {
          "Description": "Cook turkey in large skillet on medium heat until done, stirring frequently.    ",
          "PreparationStepImage": {
            "PictureFormats": [],
            "author": null,
            "id": null,
            "imageType": null,
            "mimeType": null,
            "publicationDate": null,
            "status": null,
            "title": null,
            "type": null
          },
          "Sequence": 1
        },
        {
          "Description": "Add next 4 ingredients; cook 3 to 5 min. or until tender, stirring frequently. ",
          "PreparationStepImage": {
            "PictureFormats": [],
            "author": null,
            "id": null,
            "imageType": null,
            "mimeType": null,
            "publicationDate": null,
            "status": null,
            "title": null,
            "type": null
          },
          "Sequence": 2
        },
        {
          "Description": "Stir in A.1.; cook 1 to 2 min. or until heated through, stirring frequently.  Serve in rolls. ",
          "PreparationStepImage": {
            "PictureFormats": [],
            "author": null,
            "id": null,
            "imageType": null,
            "mimeType": null,
            "publicationDate": null,
            "status": null,
            "title": null,
            "type": null
          },
          "Sequence": 3
        }
      ],
      "PreparationTime": 20,
      "Promotion": null,
      "Ratings": {
        "TotalCount": 0,
        "PageCount": 10,
        "PageNo": 1,
        "Rating": []
      },
      "RecipeDisplayFormatId": 0,
      "RecipeId": 175557,
      "RecipeName": "A.1. Turkey Sloppy Joes",
      "RecipeType": 0,
      "RelatedData": {
        "RelatedBrands": null,
        "RelatedProducts": null,
        "RelatedRecipes": {
          "DefaultTopCount": 5,
          "Recipe": [
            {
              "AverageRating": 4.3,
              "HasVideo": false,
              "IsHealthyLiving": true,
              "NumberOfRatings": 81,
              "PhotoName": "Easy_Barbecued_Sloppy_Joes.jpg",
              "PhotoUrl": "http://assets.kraftfoods.com/recipe_images/opendeploy/Easy_Barbecued_Sloppy_Joes.jpg",
              "RecipeId": 56239,
              "RecipeName": "Easy Barbecued Sloppy Joes",
              "SEOName": "easy-barbecued-sloppy-joes-56239",
              "ThumbnailPhoto": null
            },
            {
              "AverageRating": 4,
              "HasVideo": false,
              "IsHealthyLiving": false,
              "NumberOfRatings": 23,
              "PhotoName": "Unbeatable-Sloppy-Joes-55493.jpg",
              "PhotoUrl": "http://assets.kraftfoods.com/recipe_images/opendeploy/Unbeatable-Sloppy-Joes-55493.jpg",
              "RecipeId": 111235,
              "RecipeName": "Easy Sloppy Joe Recipe",
              "SEOName": "easy-sloppy-joe-recipe-111235",
              "ThumbnailPhoto": null
            },
            {
              "AverageRating": 4.3,
              "HasVideo": false,
              "IsHealthyLiving": true,
              "NumberOfRatings": 7,
              "PhotoName": "BOCA_Sloppy_Joes.jpg",
              "PhotoUrl": "http://assets.kraftfoods.com/recipe_images/opendeploy/BOCA_Sloppy_Joes.jpg",
              "RecipeId": 62653,
              "RecipeName": "BOCA Vegetarian Sloppy Joes",
              "SEOName": "boca-vegetarian-sloppy-joes-62653",
              "ThumbnailPhoto": null
            },
            {
              "AverageRating": 4,
              "HasVideo": false,
              "IsHealthyLiving": false,
              "NumberOfRatings": 80,
              "PhotoName": "55285.jpg",
              "PhotoUrl": "http://assets.kraftfoods.com/recipe_images/opendeploy/55285.jpg",
              "RecipeId": 55285,
              "RecipeName": "Pizza Sloppy Joes",
              "SEOName": "pizza-sloppy-joes-55285",
              "ThumbnailPhoto": null
            },
            {
              "AverageRating": 4.4,
              "HasVideo": false,
              "IsHealthyLiving": false,
              "NumberOfRatings": 44,
              "PhotoName": "51659.jpg",
              "PhotoUrl": "http://assets.kraftfoods.com/recipe_images/opendeploy/51659.jpg",
              "RecipeId": 51659,
              "RecipeName": "Easy Cheesy Barbecued Sloppy Joes",
              "SEOName": "easy-cheesy-barbecued-sloppy-joes-51659",
              "ThumbnailPhoto": null
            }
          ],
          "TotalCount": 483
        }
      },
      "RiseIngredients": [
        {
          "IngredientCategory": "KRL",
          "IngredientId": 67755,
          "IngredientIndustrySector": "Retail",
          "IngredientType": "Inedible",
          "ProductId": null,
          "RecipeId": 175557
        },
        {
          "IngredientCategory": "KRL",
          "IngredientId": 67965,
          "IngredientIndustrySector": "Retail",
          "IngredientType": "Inedible",
          "ProductId": null,
          "RecipeId": 175557
        },
        {
          "IngredientCategory": "KRL",
          "IngredientId": 68008,
          "IngredientIndustrySector": "Retail",
          "IngredientType": "Inedible",
          "ProductId": "00054400000054",
          "RecipeId": 175557
        },
        {
          "IngredientCategory": "KRL",
          "IngredientId": 68710,
          "IngredientIndustrySector": "Retail",
          "IngredientType": "Inedible",
          "ProductId": null,
          "RecipeId": 175557
        },
        {
          "IngredientCategory": "KRL",
          "IngredientId": 68776,
          "IngredientIndustrySector": "Retail",
          "IngredientType": "Inedible",
          "ProductId": null,
          "RecipeId": 175557
        },
        {
          "IngredientCategory": "KRL",
          "IngredientId": 69272,
          "IngredientIndustrySector": "Retail",
          "IngredientType": "Inedible",
          "ProductId": null,
          "RecipeId": 175557
        },
        {
          "IngredientCategory": "KRL",
          "IngredientId": 71218,
          "IngredientIndustrySector": "Retail",
          "IngredientType": "Inedible",
          "ProductId": null,
          "RecipeId": 175557
        }
      ],
      "RiseTaxonomy": [
        {
          "ParentTaxonomyId": 0,
          "RecipeId": 175557,
          "ResourceName": "Recipe",
          "TaxonomyId": 57,
          "TaxonomyName": "Dinner",
          "TaxonomyTypeId": 1,
          "TaxonomyTypeName": "Day Part"
        },
        {
          "ParentTaxonomyId": 0,
          "RecipeId": 175557,
          "ResourceName": "Recipe",
          "TaxonomyId": 65,
          "TaxonomyName": "Entrées",
          "TaxonomyTypeId": 2,
          "TaxonomyTypeName": "Meal Part"
        },
        {
          "ParentTaxonomyId": 43,
          "RecipeId": 175557,
          "ResourceName": "Recipe",
          "TaxonomyId": 157,
          "TaxonomyName": "Other Sandwiches, Hot",
          "TaxonomyTypeId": 3,
          "TaxonomyTypeName": "Dish Type"
        },
        {
          "ParentTaxonomyId": 0,
          "RecipeId": 175557,
          "ResourceName": "Recipe",
          "TaxonomyId": 259,
          "TaxonomyName": "American",
          "TaxonomyTypeId": 4,
          "TaxonomyTypeName": "Cuisine"
        },
        {
          "ParentTaxonomyId": 0,
          "RecipeId": 175557,
          "ResourceName": "Recipe",
          "TaxonomyId": 301,
          "TaxonomyName": "Back To School",
          "TaxonomyTypeId": 5,
          "TaxonomyTypeName": "Occasion-Theme"
        },
        {
          "ParentTaxonomyId": 0,
          "RecipeId": 175557,
          "ResourceName": "Recipe",
          "TaxonomyId": 307,
          "TaxonomyName": "Father's Day",
          "TaxonomyTypeId": 5,
          "TaxonomyTypeName": "Occasion-Theme"
        },
        {
          "ParentTaxonomyId": 0,
          "RecipeId": 175557,
          "ResourceName": "Recipe",
          "TaxonomyId": 308,
          "TaxonomyName": "Graduation",
          "TaxonomyTypeId": 5,
          "TaxonomyTypeName": "Occasion-Theme"
        },
        {
          "ParentTaxonomyId": 0,
          "RecipeId": 175557,
          "ResourceName": "Recipe",
          "TaxonomyId": 324,
          "TaxonomyName": "Super Bowl",
          "TaxonomyTypeId": 5,
          "TaxonomyTypeName": "Occasion-Theme"
        },
        {
          "ParentTaxonomyId": 0,
          "RecipeId": 175557,
          "ResourceName": "Recipe",
          "TaxonomyId": 328,
          "TaxonomyName": "Tailgating",
          "TaxonomyTypeId": 5,
          "TaxonomyTypeName": "Occasion-Theme"
        },
        {
          "ParentTaxonomyId": 0,
          "RecipeId": 175557,
          "ResourceName": "Recipe",
          "TaxonomyId": 334,
          "TaxonomyName": "Potluck",
          "TaxonomyTypeId": 5,
          "TaxonomyTypeName": "Occasion-Theme"
        },
        {
          "ParentTaxonomyId": 0,
          "RecipeId": 175557,
          "ResourceName": "Recipe",
          "TaxonomyId": 336,
          "TaxonomyName": "Fall",
          "TaxonomyTypeId": 6,
          "TaxonomyTypeName": "Season"
        },
        {
          "ParentTaxonomyId": 0,
          "RecipeId": 175557,
          "ResourceName": "Recipe",
          "TaxonomyId": 337,
          "TaxonomyName": "Spring",
          "TaxonomyTypeId": 6,
          "TaxonomyTypeName": "Season"
        },
        {
          "ParentTaxonomyId": 0,
          "RecipeId": 175557,
          "ResourceName": "Recipe",
          "TaxonomyId": 338,
          "TaxonomyName": "Summer",
          "TaxonomyTypeId": 6,
          "TaxonomyTypeName": "Season"
        },
        {
          "ParentTaxonomyId": 0,
          "RecipeId": 175557,
          "ResourceName": "Recipe",
          "TaxonomyId": 339,
          "TaxonomyName": "Winter",
          "TaxonomyTypeId": 6,
          "TaxonomyTypeName": "Season"
        },
        {
          "ParentTaxonomyId": 0,
          "RecipeId": 175557,
          "ResourceName": "Recipe",
          "TaxonomyId": 534,
          "TaxonomyName": "Top of stove",
          "TaxonomyTypeId": 9,
          "TaxonomyTypeName": "Cooking Method"
        }
      ],
      "Riserecipe": [
        {
          "GRIN": 510382,
          "RecipeId": 175557,
          "RecipeIndustrySector": "Retail",
          "RecipeType": "Internal"
        }
      ],
      "RomanceText": "No ground beef? No problem. These kicked-up ground turkey sloppy joes will be just as popular in your house as the traditional kind!",
      "SEOName": "a1-turkey-sloppy-joes-175557",
      "Tips": [
        {
          "RecipeId": 175557,
          "Sequence": 10,
          "TipDescription": "Serve over split biscuits instead of in the sandwich rolls.",
          "TipID": 1,
          "TipName": "Variation"
        },
        {
          "RecipeId": 175557,
          "Sequence": 20,
          "TipDescription": "Serve with fresh fruit and baked chips.",
          "TipID": 2,
          "TipName": "Serving Suggestion"
        }
      ],
      "TotalTime": 20,
      "TradeMarkInfo": null,
      "Video": [],
      "Yield": "4 servings"
    }
  ]
}