{
  "Metadata": {
    "PageCount": 1,
    "PageNo": 0,
    "TotalCount": 0
  },
  "Recipes": [
    {
      "AdServingKeywords": "Baked,Dessert,Easy,Berries,Cream Cheese,Fruit,Nuts,Raspberry,Philadelphia,Planters,4th of July,All Seasons,Summer,Refrigerated Dessert",
      "AlternateLanguageRecipes": [],
      "Assets": [
        {
          "PictureFormats": [
            {
              "rendition": "300x200",
              "url": "http://assets.kraftfoods.com/recipe_images/Easy-Berry-Torte-56433.jpg"
            }
          ],
          "author": null,
          "id": "0",
          "imageType": "LANDSCAPE",
          "mimeType": null,
          "publicationDate": null,
          "status": "1",
          "title": "Easy-Berry-Torte-56433.jpg",
          "type": "image"
        }
      ],
      "AverageRating": 5,
      "BrandId": 1,
      "Branding": null,
      "CSSSkins": [],
      "CarbCounter": null,
      "Categories": [
        {
          "CategoryID": 3,
          "CategoryName": "Cookies/Candy/Other Desserts",
          "CategoryRank": 6,
          "SubCategoryID": 173,
          "SubCategoryName": "Other Fruit Desserts",
          "SubCategoryRank": 130
        },
        {
          "CategoryID": 11,
          "CategoryName": "Primary",
          "CategoryRank": 0,
          "SubCategoryID": 103,
          "SubCategoryName": "Desserts",
          "SubCategoryRank": 40
        },
        {
          "CategoryID": 759,
          "CategoryName": "Desserts",
          "CategoryRank": 13,
          "SubCategoryID": 2580,
          "SubCategoryName": "Fruit",
          "SubCategoryRank": 1
        },
        {
          "CategoryID": 1759,
          "CategoryName": "Philly Desserts",
          "CategoryRank": 0,
          "SubCategoryID": 16840,
          "SubCategoryName": "Brick Cream Cheese",
          "SubCategoryRank": 0
        },
        {
          "CategoryID": 1759,
          "CategoryName": "Philly Desserts",
          "CategoryRank": 0,
          "SubCategoryID": 16843,
          "SubCategoryName": "Use for All",
          "SubCategoryRank": 0
        }
      ],
      "Classifications": [],
      "ComplimentaryRecipes": null,
      "CookingMethod": null,
      "Copyright": null,
      "Courses": [
        "Desserts"
      ],
      "DietExchange": null,
      "DishDetails": [
        {
          "Text": "desserts",
          "Url": "/recipes/dessert/main.aspx"
        },
        {
          "Text": "fruity desserts",
          "Url": "/recipes/dessert/fruitydesserts.aspx"
        },
        {
          "Text": "gelatin desserts",
          "Url": "/recipes/dessert/gelatindesserts.aspx"
        },
        {
          "Text": "layered desserts",
          "Url": "/recipes/dessert/layereddesserts.aspx"
        },
        {
          "Text": "brownie recipes",
          "Url": "/recipes/dessert/brownie-recipes/main.aspx"
        },
        {
          "Text": "budget desserts",
          "Url": "/recipes/budget/budget-desserts.aspx"
        },
        {
          "Text": "no bake desserts",
          "Url": "/recipes/dessert/nobakedesserts.aspx"
        },
        {
          "Text": "pumpkin recipes",
          "Url": "/recipes/dessert/pumpkin-recipes.aspx"
        },
        {
          "Text": "chocolate cake recipes",
          "Url": "/recipes/dessert/chocolate-cake-recipes/main.aspx"
        },
        {
          "Text": "cheesecake recipes",
          "Url": "/recipes/dessert/cheesecake-center/cheesecake-recipes/main.aspx"
        },
        {
          "Text": "chocolate lovers recipes",
          "Url": "/recipes/dessert/chocolate-center/chocolateloversrecipes.aspx"
        },
        {
          "Text": "classic desserts",
          "Url": "/recipes/dessert/classicdesserts.aspx"
        },
        {
          "Text": "cookie ball recipes",
          "Url": "/recipes/dessert/cookie-ball-recipes/main.aspx"
        },
        {
          "Text": "cookie recipes",
          "Url": "/recipes/dessert/cookie-recipes/main.aspx"
        },
        {
          "Text": "cupcake recipes",
          "Url": "/recipes/dessert/cupcake-recipes/main.aspx"
        },
        {
          "Text": "healthy living desserts",
          "Url": "/healthy-living-ideas/diabetes-center/recipes/dessert-recipes.aspx"
        }
      ],
      "EndDate": "/Date(-62135575200000-0600)/",
      "HasVideo": false,
      "Ingredients": [
        {
          "FullMeasure": "15",
          "FullWeight": "",
          "IngredientGridHeaders": null,
          "IngredientID": 5499,
          "IngredientName": "gingersnaps",
          "IngredientStep": 10,
          "LanguageId": 0,
          "PostPreparation": ", finely crushed",
          "PrePreparation": "",
          "QuantityNum": 15,
          "QuantityText": "15",
          "QuantityUnit": "",
          "RecipeIngredientID": 5053294,
          "TrialMeasure": "",
          "TrialWeight": ""
        },
        {
          "FullMeasure": "25",
          "FullWeight": "",
          "IngredientGridHeaders": null,
          "IngredientID": 1736,
          "IngredientName": "vanilla wafers",
          "IngredientStep": 20,
          "LanguageId": 0,
          "PostPreparation": ", finely crushed",
          "PrePreparation": "",
          "QuantityNum": 25,
          "QuantityText": "25",
          "QuantityUnit": "",
          "RecipeIngredientID": 5053295,
          "TrialMeasure": "",
          "TrialWeight": ""
        },
        {
          "FullMeasure": "1/2 cup",
          "FullWeight": "",
          "IngredientGridHeaders": null,
          "IngredientID": 5528,
          "IngredientName": "PLANTERS Pecans",
          "IngredientStep": 30,
          "LanguageId": 0,
          "PostPreparation": "",
          "PrePreparation": "chopped",
          "QuantityNum": 0,
          "QuantityText": "1/2",
          "QuantityUnit": "cup",
          "RecipeIngredientID": 5053300,
          "TrialMeasure": "",
          "TrialWeight": ""
        },
        {
          "FullMeasure": "1/3 cup",
          "FullWeight": "",
          "IngredientGridHeaders": null,
          "IngredientID": 863,
          "IngredientName": "butter",
          "IngredientStep": 40,
          "LanguageId": 0,
          "PostPreparation": ", melted",
          "PrePreparation": "",
          "QuantityNum": 0,
          "QuantityText": "1/3",
          "QuantityUnit": "cup",
          "RecipeIngredientID": 5053299,
          "TrialMeasure": "",
          "TrialWeight": ""
        },
        {
          "FullMeasure": "1  pkg.",
          "FullWeight": "",
          "IngredientGridHeaders": null,
          "IngredientID": 628,
          "IngredientName": "PHILADELPHIA Cream Cheese",
          "IngredientStep": 50,
          "LanguageId": 0,
          "PostPreparation": ", softened",
          "PrePreparation": "(8 oz.)",
          "QuantityNum": 1,
          "QuantityText": "1 ",
          "QuantityUnit": "pkg.",
          "RecipeIngredientID": 5053302,
          "TrialMeasure": "",
          "TrialWeight": ""
        },
        {
          "FullMeasure": "1/4 cup",
          "FullWeight": "",
          "IngredientGridHeaders": null,
          "IngredientID": 1845,
          "IngredientName": "sugar",
          "IngredientStep": 60,
          "LanguageId": 0,
          "PostPreparation": "",
          "PrePreparation": "",
          "QuantityNum": 0,
          "QuantityText": "1/4",
          "QuantityUnit": "cup",
          "RecipeIngredientID": 5053301,
          "TrialMeasure": "",
          "TrialWeight": ""
        },
        {
          "FullMeasure": "1 tsp.",
          "FullWeight": "",
          "IngredientGridHeaders": null,
          "IngredientID": 1731,
          "IngredientName": "vanilla",
          "IngredientStep": 70,
          "LanguageId": 0,
          "PostPreparation": "",
          "PrePreparation": "",
          "QuantityNum": 1,
          "QuantityText": "1",
          "QuantityUnit": "tsp.",
          "RecipeIngredientID": 5053298,
          "TrialMeasure": "",
          "TrialWeight": ""
        },
        {
          "FullMeasure": "2 cups",
          "FullWeight": "",
          "IngredientGridHeaders": null,
          "IngredientID": 821,
          "IngredientName": "blueberries",
          "IngredientStep": 80,
          "LanguageId": 0,
          "PostPreparation": "",
          "PrePreparation": "",
          "QuantityNum": 2,
          "QuantityText": "2",
          "QuantityUnit": "cups",
          "RecipeIngredientID": 5053296,
          "TrialMeasure": "",
          "TrialWeight": ""
        },
        {
          "FullMeasure": "2 cups",
          "FullWeight": "",
          "IngredientGridHeaders": null,
          "IngredientID": 1511,
          "IngredientName": "raspberries",
          "IngredientStep": 90,
          "LanguageId": 0,
          "PostPreparation": "",
          "PrePreparation": "",
          "QuantityNum": 2,
          "QuantityText": "2",
          "QuantityUnit": "cups",
          "RecipeIngredientID": 5053297,
          "TrialMeasure": "",
          "TrialWeight": ""
        }
      ],
      "IsHealthyLiving": false,
      "KRLId": "561238",
      "KeyIngredients": [
        "Berries",
        "Cream Cheese",
        "Fruit",
        "Nuts",
        "Raspberry"
      ],
      "Keywords": "nuts,pecans,PHILADELPHIA Cream Cheese,raspberries,berries,blueberries,cheese,cookies,cream cheese,extract,sugar,vanilla,vanilla wafers,butter,PLANTERS Pecans,ginger snaps,Planters,Baked,Dessert,Easy,4th of July,All Seasons,Refrigerated Dessert",
      "LanguageId": 1,
      "LifeStyles": [],
      "NumberOfIngredients": 9,
      "NumberOfRatings": 1,
      "NumberOfRatingsWithComments": "1",
      "NumberOfServings": "8 servings",
      "NumberOfTrialServings": "",
      "NutritionBonus": null,
      "NutritionExchangeItemId": 0,
      "NutritionGridItems": null,
      "NutritionItems": [
        {
          "DisplayOrder": 1,
          "Document": null,
          "NutritionItemID": 3,
          "NutritionItemName": "Calories",
          "Predriscriptor": "",
          "Quantity": 380,
          "Unit": "          "
        },
        {
          "DisplayOrder": 2,
          "Document": "fat_cholesterol.html",
          "NutritionItemID": 4,
          "NutritionItemName": "Total fat",
          "Predriscriptor": "",
          "Quantity": 26,
          "Unit": "g         "
        },
        {
          "DisplayOrder": 3,
          "Document": "fat_cholesterol.html",
          "NutritionItemID": 9,
          "NutritionItemName": "Saturated fat",
          "Predriscriptor": "",
          "Quantity": 12,
          "Unit": "g         "
        },
        {
          "DisplayOrder": 7,
          "Document": "fat_cholesterol.html",
          "NutritionItemID": 2,
          "NutritionItemName": "Cholesterol",
          "Predriscriptor": "",
          "Quantity": 60,
          "Unit": "mg        "
        },
        {
          "DisplayOrder": 8,
          "Document": "sodium.html",
          "NutritionItemID": 8,
          "NutritionItemName": "Sodium",
          "Predriscriptor": "",
          "Quantity": 310,
          "Unit": "mg        "
        },
        {
          "DisplayOrder": 10,
          "Document": "carbs_sugars_fiber.html",
          "NutritionItemID": 1,
          "NutritionItemName": "Carbohydrate",
          "Predriscriptor": "",
          "Quantity": 36,
          "Unit": "g         "
        },
        {
          "DisplayOrder": 11,
          "Document": "carbs_sugars_fiber.html",
          "NutritionItemID": 7,
          "NutritionItemName": "Dietary fiber",
          "Predriscriptor": "",
          "Quantity": 4,
          "Unit": "g         "
        },
        {
          "DisplayOrder": 12,
          "Document": "carbs_sugars_fiber.html",
          "NutritionItemID": 5,
          "NutritionItemName": "Sugars",
          "Predriscriptor": "",
          "Quantity": 21,
          "Unit": "g         "
        },
        {
          "DisplayOrder": 13,
          "Document": null,
          "NutritionItemID": 6,
          "NutritionItemName": "Protein",
          "Predriscriptor": "",
          "Quantity": 4,
          "Unit": "g         "
        },
        {
          "DisplayOrder": 14,
          "Document": null,
          "NutritionItemID": 10,
          "NutritionItemName": "Vitamin A",
          "Predriscriptor": "",
          "Quantity": 10,
          "Unit": "%DV       "
        },
        {
          "DisplayOrder": 15,
          "Document": null,
          "NutritionItemID": 11,
          "NutritionItemName": "Vitamin C",
          "Predriscriptor": "",
          "Quantity": 20,
          "Unit": "%DV       "
        },
        {
          "DisplayOrder": 16,
          "Document": "dairy_and_calcium.html",
          "NutritionItemID": 12,
          "NutritionItemName": "Calcium",
          "Predriscriptor": "",
          "Quantity": 6,
          "Unit": "%DV       "
        },
        {
          "DisplayOrder": 17,
          "Document": null,
          "NutritionItemID": 13,
          "NutritionItemName": "Iron",
          "Predriscriptor": "",
          "Quantity": 6,
          "Unit": "%DV       "
        }
      ],
      "NutritionServingText": " ",
      "PrepStepImage": null,
      "PreparationDescription": "Mix cookie crumbs, nuts and butter; press onto bottom and 1 inch up side of 9-inch springform pan.  Bake 5 min.; cool completely. \r\n$Beat cream cheese, sugar and vanilla with mixer until blended; spread onto bottom of crust. Top with berries.$Refrigerate 4 hours or until firm.  ",
      "PreparationPreText": "Heat oven to 375ºF.",
      "PreparationSteps": [
        {
          "Description": "Mix cookie crumbs, nuts and butter; press onto bottom and 1 inch up side of 9-inch springform pan.  Bake 5 min.; cool completely. \r\n",
          "PreparationStepImage": {
            "PictureFormats": [],
            "author": null,
            "id": null,
            "imageType": null,
            "mimeType": null,
            "publicationDate": null,
            "status": null,
            "title": null,
            "type": null
          },
          "Sequence": 1
        },
        {
          "Description": "Beat cream cheese, sugar and vanilla with mixer until blended; spread onto bottom of crust. Top with berries.",
          "PreparationStepImage": {
            "PictureFormats": [],
            "author": null,
            "id": null,
            "imageType": null,
            "mimeType": null,
            "publicationDate": null,
            "status": null,
            "title": null,
            "type": null
          },
          "Sequence": 2
        },
        {
          "Description": "Refrigerate 4 hours or until firm.  ",
          "PreparationStepImage": {
            "PictureFormats": [],
            "author": null,
            "id": null,
            "imageType": null,
            "mimeType": null,
            "publicationDate": null,
            "status": null,
            "title": null,
            "type": null
          },
          "Sequence": 3
        }
      ],
      "PreparationTime": 30,
      "Promotion": null,
      "Ratings": {
        "TotalCount": 1,
        "PageCount": 10,
        "PageNo": 1,
        "Rating": [
          {
            "Comment": "Great recipe.  You could use different fresh fruit to mix it  up.  Everyone loved it!  Excellent",
            "DisplayName": true,
            "RatingValue": 5,
            "SubmitDate": "/Date(1249874805000-0500)/",
            "UpdatedDate": "/Date(1249874805000-0500)/",
            "UserName": "beth1582"
          }
        ]
      },
      "RecipeDisplayFormatId": 5,
      "RecipeId": 112261,
      "RecipeName": "Easy Berry \"Torte\"",
      "RecipeType": 0,
      "RelatedData": {
        "RelatedBrands": null,
        "RelatedProducts": null,
        "RelatedRecipes": {
          "DefaultTopCount": 5,
          "Recipe": [
            {
              "AverageRating": 4.1,
              "HasVideo": false,
              "IsHealthyLiving": false,
              "NumberOfRatings": 7,
              "PhotoName": "Double-Chocolate_Layered_Torte.jpg",
              "PhotoUrl": "http://assets.kraftfoods.com/recipe_images/opendeploy/Double-Chocolate_Layered_Torte.jpg",
              "RecipeId": 107510,
              "RecipeName": "Double-Chocolate Layered Torte",
              "SEOName": "double-chocolate-layered-torte-107510",
              "ThumbnailPhoto": null
            },
            {
              "AverageRating": 4.5,
              "HasVideo": true,
              "IsHealthyLiving": false,
              "NumberOfRatings": 63,
              "PhotoName": "Chocolate-Mousse-Torte-55588a.jpg",
              "PhotoUrl": "http://assets.kraftfoods.com/recipe_images/opendeploy/Chocolate-Mousse-Torte-55588a.jpg",
              "RecipeId": 114021,
              "RecipeName": "Chocolate Mousse Torte",
              "SEOName": "chocolate-mousse-torte-114021",
              "ThumbnailPhoto": null
            },
            {
              "AverageRating": 4.3,
              "HasVideo": false,
              "IsHealthyLiving": false,
              "NumberOfRatings": 69,
              "PhotoName": "66246.jpg",
              "PhotoUrl": "http://assets.kraftfoods.com/recipe_images/opendeploy/66246.jpg",
              "RecipeId": 66246,
              "RecipeName": "Chocolate-Raspberry Torte",
              "SEOName": "chocolate-raspberry-torte-66246",
              "ThumbnailPhoto": null
            },
            {
              "AverageRating": 5,
              "HasVideo": false,
              "IsHealthyLiving": false,
              "NumberOfRatings": 3,
              "PhotoName": "Festive-Choco-Banana-Torte-62568.jpg",
              "PhotoUrl": "http://assets.kraftfoods.com/recipe_images/opendeploy/Festive-Choco-Banana-Torte-62568.jpg",
              "RecipeId": 137458,
              "RecipeName": "Festive Choco-Banana Torte",
              "SEOName": "festive-choco-banana-torte-137458",
              "ThumbnailPhoto": null
            },
            {
              "AverageRating": 5,
              "HasVideo": false,
              "IsHealthyLiving": false,
              "NumberOfRatings": 1,
              "PhotoName": "Frozen-Layered-Sorbet-Torte-60227CK.jpg",
              "PhotoUrl": "http://assets.kraftfoods.com/recipe_images/opendeploy/Frozen-Layered-Sorbet-Torte-60227CK.jpg",
              "RecipeId": 133844,
              "RecipeName": "Frozen Layered Sorbet Torte",
              "SEOName": "frozen-layered-sorbet-torte-133844",
              "ThumbnailPhoto": null
            }
          ],
          "TotalCount": 3916
        }
      },
      "RiseIngredients": [],
      "RiseTaxonomy": [],
      "Riserecipe": [
        {
          "GRIN": 561238,
          "RecipeId": 112261,
          "RecipeIndustrySector": "Retail",
          "RecipeType": "Internal"
        }
      ],
      "RomanceText": "Combine crushed gingersnaps and vanilla wafers with chopped pecans and melted butter to make a scrumptious crust for this easy mixed-berry dessert.",
      "SEOName": "easy-berry-torte-112261",
      "Tips": [
        {
          "RecipeId": 112261,
          "Sequence": 10,
          "TipDescription": "Balance your food choices throughout the day so you can enjoy a serving of this rich-and-indulgent torte with your family.",
          "TipID": 3,
          "TipName": "Size Wise"
        },
        {
          "RecipeId": 112261,
          "Sequence": 20,
          "TipDescription": "Prepare using PHILADELPHIA Neufchatel Cheese.",
          "TipID": 2,
          "TipName": "Substitute"
        },
        {
          "RecipeId": 112261,
          "Sequence": 30,
          "TipDescription": "Prepare using your favorite fresh seasonal fruits.",
          "TipID": 1,
          "TipName": "Substitute"
        }
      ],
      "TotalTime": 285,
      "TradeMarkInfo": null,
      "Video": [],
      "Yield": "8 servings"
    }
  ]
}