{
  "Metadata": {
    "PageCount": 1,
    "PageNo": 0,
    "TotalCount": 0
  },
  "Recipes": [
    {
      "AdServingKeywords": "Grilled,Entree,Easy,Berries,Cantaloupe,Chicken,Fruit,Lettuce,Meat,Onion,Poultry,Raspberry,Vegetables,Kraft Barbecue Sauce,Kraft Salad Dressing,Dinner,Lunch,All Seasons,BBQ,Entree Salad",
      "AlternateLanguageRecipes": [],
      "Assets": [
        {
          "PictureFormats": [
            {
              "rendition": "640x428",
              "url": "http://assets.kraftfoods.com/recipe_images/opendeploy/55456_640x428.jpg"
            },
            {
              "rendition": "290x194",
              "url": "http://assets.kraftfoods.com/recipe_images/opendeploy/55456_290x194.jpg"
            },
            {
              "rendition": "600x250",
              "url": "http://assets.kraftfoods.com/recipe_images/opendeploy/55456_600x250.jpg"
            },
            {
              "rendition": "640x428",
              "url": "http://assets.kraftfoods.com/recipe_images/opendeploy/55456_640x428.jpg"
            }
          ],
          "author": null,
          "id": "3",
          "imageType": "Primary",
          "mimeType": "image/jpeg",
          "publicationDate": null,
          "status": "1",
          "title": "55456",
          "type": "image"
        },
        {
          "PictureFormats": [
            {
              "rendition": "300x200",
              "url": "http://assets.kraftfoods.com/recipe_images/55456.jpg"
            }
          ],
          "author": null,
          "id": "0",
          "imageType": "LANDSCAPE",
          "mimeType": "image/jpeg",
          "publicationDate": null,
          "status": "1",
          "title": "55456.jpg",
          "type": "image"
        },
        {
          "PictureFormats": [
            {
              "rendition": "300x200",
              "url": "http://assets.kraftfoods.com/recipe_images/Grilled_Chicken_and_Fruit_Salad.jpg"
            }
          ],
          "author": null,
          "id": "0",
          "imageType": "DEFAULT",
          "mimeType": null,
          "publicationDate": null,
          "status": "1",
          "title": "Grilled_Chicken_and_Fruit_Salad.jpg",
          "type": "image"
        }
      ],
      "AverageRating": 4.4,
      "BrandId": 1,
      "Branding": null,
      "CSSSkins": [],
      "CarbCounter": "",
      "Categories": [
        {
          "CategoryID": 2,
          "CategoryName": "Poultry Entrees",
          "CategoryRank": 11,
          "SubCategoryID": 383,
          "SubCategoryName": "Salads",
          "SubCategoryRank": 60
        },
        {
          "CategoryID": 9,
          "CategoryName": "Salads/Side Dishes",
          "CategoryRank": 13,
          "SubCategoryID": 171,
          "SubCategoryName": "Main Dish Salads: Chicken",
          "SubCategoryRank": 60
        },
        {
          "CategoryID": 11,
          "CategoryName": "Primary",
          "CategoryRank": 0,
          "SubCategoryID": 97,
          "SubCategoryName": "Entrees",
          "SubCategoryRank": 50
        },
        {
          "CategoryID": 11,
          "CategoryName": "Primary",
          "CategoryRank": 0,
          "SubCategoryID": 98,
          "SubCategoryName": "Salads",
          "SubCategoryRank": 70
        },
        {
          "CategoryID": 752,
          "CategoryName": "Salads",
          "CategoryRank": 6,
          "SubCategoryID": 2534,
          "SubCategoryName": "Main Course",
          "SubCategoryRank": 1
        },
        {
          "CategoryID": 752,
          "CategoryName": "Salads",
          "CategoryRank": 6,
          "SubCategoryID": 2537,
          "SubCategoryName": "Pasta / Rice",
          "SubCategoryRank": 1
        },
        {
          "CategoryID": 752,
          "CategoryName": "Salads",
          "CategoryRank": 6,
          "SubCategoryID": 2538,
          "SubCategoryName": "Potato",
          "SubCategoryRank": 1
        },
        {
          "CategoryID": 756,
          "CategoryName": "Main Meals (Meat / Seafood / Egg)",
          "CategoryRank": 10,
          "SubCategoryID": 2562,
          "SubCategoryName": "Chicken",
          "SubCategoryRank": 1
        }
      ],
      "Classifications": [
        {
          "ClassficationId": 13,
          "ClassificationName": "Good source of vitamin A or C"
        },
        {
          "ClassficationId": 14,
          "ClassificationName": "Generally Nutritious"
        }
      ],
      "ComplimentaryRecipes": [
        {
          "AverageRating": 0,
          "HasVideo": false,
          "IsHealthyLiving": false,
          "NumberOfRatings": 0,
          "PhotoName": null,
          "PhotoUrl": null,
          "RecipeId": 53254,
          "RecipeName": null,
          "SEOName": "garlic-breadsticks-53254",
          "ThumbnailPhoto": "Garlic_Breadsticks.jpg"
        }
      ],
      "CookingMethod": null,
      "Copyright": null,
      "Courses": [
        "Main dishes",
        "Salads & sides"
      ],
      "DietExchange": "2-1/2 Starch,1 Fruit,3 Meat (L)",
      "DishDetails": [
        {
          "Text": "chicken recipes",
          "Url": "/recipes/dinner/chicken-recipes/main.aspx"
        },
        {
          "Text": "grilled chicken recipes",
          "Url": "/recipes/dinner/chicken-recipes/grilled-chicken/main.aspx"
        },
        {
          "Text": "healthy living chicken recipes",
          "Url": "/recipes/dinner/chicken-recipes/hl/main.aspx"
        },
        {
          "Text": "slow cooker chicken recipes",
          "Url": "/recipes/dinner/chicken-recipes/slow-cooker/main.aspx"
        },
        {
          "Text": "whole chicken recipes",
          "Url": "/recipes/dinner/chicken-recipes/whole-chicken/main.aspx"
        },
        {
          "Text": "chicken breast recipes",
          "Url": "/recipes/dinner/chicken-recipes/chicken-breast/main.aspx"
        },
        {
          "Text": "chicken casseroles",
          "Url": "/recipes/dinner/chicken-recipes/casseroles/main.aspx"
        },
        {
          "Text": "chicken pasta recipes",
          "Url": "/recipes/dinner/chicken-recipes/pasta-dishes/main.aspx"
        },
        {
          "Text": "chicken salad recipes",
          "Url": "/recipes/dinner/chicken-recipes/salads/main.aspx"
        },
        {
          "Text": "chicken stir-fry recipes",
          "Url": "/recipes/dinner/chicken-recipes/stir-fry/main.aspx"
        },
        {
          "Text": "chicken wing recipes",
          "Url": "/recipes/appetizers/chicken-wing-recipes/main.aspx"
        },
        {
          "Text": "baked chicken recipes",
          "Url": "/recipes/dinner/chicken-recipes/baked-chicken/main.aspx"
        },
        {
          "Text": "bbq chicken recipes",
          "Url": "/recipes/holidays-and-entertaining/entertaining/summer/bbq-recipes/bbq-chicken-recipes/main.aspx"
        }
      ],
      "EndDate": "/Date(-62135575200000-0600)/",
      "HasVideo": false,
      "Ingredients": [
        {
          "FullMeasure": "4 small",
          "FullWeight": "",
          "IngredientGridHeaders": null,
          "IngredientID": 27042,
          "IngredientName": "boneless skinless chicken breasts",
          "IngredientStep": 10,
          "LanguageId": 0,
          "PostPreparation": " (1 lb.)",
          "PrePreparation": "",
          "QuantityNum": 4,
          "QuantityText": "4",
          "QuantityUnit": "small",
          "RecipeIngredientID": 4521347,
          "TrialMeasure": "",
          "TrialWeight": ""
        },
        {
          "FullMeasure": "1/2 cup",
          "FullWeight": "",
          "IngredientGridHeaders": null,
          "IngredientID": 476,
          "IngredientName": "KRAFT Original Barbecue Sauce",
          "IngredientStep": 20,
          "LanguageId": 0,
          "PostPreparation": "",
          "PrePreparation": "",
          "QuantityNum": 0,
          "QuantityText": "1/2",
          "QuantityUnit": "cup",
          "RecipeIngredientID": 4521342,
          "TrialMeasure": "",
          "TrialWeight": ""
        },
        {
          "FullMeasure": "1 pkg.",
          "FullWeight": "",
          "IngredientGridHeaders": null,
          "IngredientID": 1581,
          "IngredientName": "salad greens",
          "IngredientStep": 30,
          "LanguageId": 0,
          "PostPreparation": "",
          "PrePreparation": "(10 oz.) torn",
          "QuantityNum": 1,
          "QuantityText": "1",
          "QuantityUnit": "pkg.",
          "RecipeIngredientID": 4521345,
          "TrialMeasure": "",
          "TrialWeight": ""
        },
        {
          "FullMeasure": "2",
          "FullWeight": "",
          "IngredientGridHeaders": null,
          "IngredientID": 1270,
          "IngredientName": "kiwi",
          "IngredientStep": 40,
          "LanguageId": 0,
          "PostPreparation": ", peeled, sliced",
          "PrePreparation": "",
          "QuantityNum": 2,
          "QuantityText": "2",
          "QuantityUnit": "",
          "RecipeIngredientID": 4521340,
          "TrialMeasure": "",
          "TrialWeight": ""
        },
        {
          "FullMeasure": "1 cup",
          "FullWeight": "",
          "IngredientGridHeaders": null,
          "IngredientID": 1511,
          "IngredientName": "raspberries",
          "IngredientStep": 50,
          "LanguageId": 0,
          "PostPreparation": "",
          "PrePreparation": "fresh",
          "QuantityNum": 1,
          "QuantityText": "1",
          "QuantityUnit": "cup",
          "RecipeIngredientID": 4521344,
          "TrialMeasure": "",
          "TrialWeight": ""
        },
        {
          "FullMeasure": "1 cup",
          "FullWeight": "",
          "IngredientGridHeaders": null,
          "IngredientID": 4715,
          "IngredientName": "cantaloupe",
          "IngredientStep": 60,
          "LanguageId": 0,
          "PostPreparation": " chunks",
          "PrePreparation": "",
          "QuantityNum": 1,
          "QuantityText": "1",
          "QuantityUnit": "cup",
          "RecipeIngredientID": 4521346,
          "TrialMeasure": "",
          "TrialWeight": ""
        },
        {
          "FullMeasure": "1/4  cup",
          "FullWeight": "",
          "IngredientGridHeaders": null,
          "IngredientID": 1529,
          "IngredientName": "red onion",
          "IngredientStep": 70,
          "LanguageId": 0,
          "PostPreparation": "s",
          "PrePreparation": " thinly sliced ",
          "QuantityNum": 0,
          "QuantityText": "1/4 ",
          "QuantityUnit": "cup",
          "RecipeIngredientID": 4521343,
          "TrialMeasure": "",
          "TrialWeight": ""
        },
        {
          "FullMeasure": "1/2 cup",
          "FullWeight": "",
          "IngredientGridHeaders": null,
          "IngredientID": 4589,
          "IngredientName": "KRAFT Lite Ranch Dressing",
          "IngredientStep": 80,
          "LanguageId": 0,
          "PostPreparation": "",
          "PrePreparation": "",
          "QuantityNum": 0,
          "QuantityText": "1/2",
          "QuantityUnit": "cup",
          "RecipeIngredientID": 4521341,
          "TrialMeasure": "",
          "TrialWeight": ""
        },
        {
          "FullMeasure": "24",
          "FullWeight": "",
          "IngredientGridHeaders": null,
          "IngredientID": 5562,
          "IngredientName": "woven wheat crackers",
          "IngredientStep": 90,
          "LanguageId": 0,
          "PostPreparation": "",
          "PrePreparation": "",
          "QuantityNum": 24,
          "QuantityText": "24",
          "QuantityUnit": "",
          "RecipeIngredientID": 4521339,
          "TrialMeasure": "",
          "TrialWeight": ""
        }
      ],
      "IsHealthyLiving": true,
      "KRLId": "509203",
      "KeyIngredients": [
        "Berries",
        "Cantaloupe",
        "Fruit",
        "Lettuce",
        "Onion",
        "Raspberry",
        "Vegetables"
      ],
      "Keywords": "onions,ranch dressing,raspberries,barbecue sauce,berries,chicken,chicken breasts-boneless,crackers,kiwis,KRAFT Barbecue Sauce,KRAFT LIGHT Dressing,lettuce,meat,melon,mixed greens,salad greens,dressing-reduced fat,salad dressing-reduced fat,cantaloupe,TRISCUIT Crackers,bbq sauce,Grilled,Entree,Easy,All Seasons,Entree Salad",
      "LanguageId": 1,
      "LifeStyles": [
        "Good source of vitamin A or C",
        "Generally Nutritious"
      ],
      "NumberOfIngredients": 9,
      "NumberOfRatings": 14,
      "NumberOfRatingsWithComments": "13",
      "NumberOfServings": "4 servings",
      "NumberOfTrialServings": "",
      "NutritionBonus": "Delight your family with this fruit-filled main-dish salad.  As a bonus, the fruit is an excellent source of vitmain C and the cantaloupe and salad greens team up to provide vitamin A.  ",
      "NutritionExchangeItemId": 1,
      "NutritionGridItems": null,
      "NutritionItems": [
        {
          "DisplayOrder": 1,
          "Document": null,
          "NutritionItemID": 3,
          "NutritionItemName": "Calories",
          "Predriscriptor": "",
          "Quantity": 440,
          "Unit": "          "
        },
        {
          "DisplayOrder": 2,
          "Document": "fat_cholesterol.html",
          "NutritionItemID": 4,
          "NutritionItemName": "Total fat",
          "Predriscriptor": "",
          "Quantity": 13,
          "Unit": "g         "
        },
        {
          "DisplayOrder": 3,
          "Document": "fat_cholesterol.html",
          "NutritionItemID": 9,
          "NutritionItemName": "Saturated fat",
          "Predriscriptor": "",
          "Quantity": 2.5,
          "Unit": "g         "
        },
        {
          "DisplayOrder": 7,
          "Document": "fat_cholesterol.html",
          "NutritionItemID": 2,
          "NutritionItemName": "Cholesterol",
          "Predriscriptor": "",
          "Quantity": 75,
          "Unit": "mg        "
        },
        {
          "DisplayOrder": 8,
          "Document": "sodium.html",
          "NutritionItemID": 8,
          "NutritionItemName": "Sodium",
          "Predriscriptor": "",
          "Quantity": 1060,
          "Unit": "mg        "
        },
        {
          "DisplayOrder": 10,
          "Document": "carbs_sugars_fiber.html",
          "NutritionItemID": 1,
          "NutritionItemName": "Carbohydrate",
          "Predriscriptor": "",
          "Quantity": 53,
          "Unit": "g         "
        },
        {
          "DisplayOrder": 11,
          "Document": "carbs_sugars_fiber.html",
          "NutritionItemID": 7,
          "NutritionItemName": "Dietary fiber",
          "Predriscriptor": "",
          "Quantity": 8,
          "Unit": "g         "
        },
        {
          "DisplayOrder": 12,
          "Document": "carbs_sugars_fiber.html",
          "NutritionItemID": 5,
          "NutritionItemName": "Sugars",
          "Predriscriptor": "",
          "Quantity": 20,
          "Unit": "g         "
        },
        {
          "DisplayOrder": 13,
          "Document": null,
          "NutritionItemID": 6,
          "NutritionItemName": "Protein",
          "Predriscriptor": "",
          "Quantity": 29,
          "Unit": "g         "
        },
        {
          "DisplayOrder": 14,
          "Document": null,
          "NutritionItemID": 10,
          "NutritionItemName": "Vitamin A",
          "Predriscriptor": "",
          "Quantity": 50,
          "Unit": "%DV       "
        },
        {
          "DisplayOrder": 15,
          "Document": null,
          "NutritionItemID": 11,
          "NutritionItemName": "Vitamin C",
          "Predriscriptor": "",
          "Quantity": 110,
          "Unit": "%DV       "
        },
        {
          "DisplayOrder": 16,
          "Document": "dairy_and_calcium.html",
          "NutritionItemID": 12,
          "NutritionItemName": "Calcium",
          "Predriscriptor": "",
          "Quantity": 10,
          "Unit": "%DV       "
        },
        {
          "DisplayOrder": 17,
          "Document": null,
          "NutritionItemID": 13,
          "NutritionItemName": "Iron",
          "Predriscriptor": "",
          "Quantity": 20,
          "Unit": "%DV       "
        }
      ],
      "NutritionServingText": "",
      "PrepStepImage": null,
      "PreparationDescription": "Grill chicken 10 min. on each side or until done (165ºF), turning and brushing occasionally with barbecue sauce.  Cut into strips.$Cover 4 salad plates with greens; top with fruit, onions and chicken.  Drizzle with dressing.$Serve with crackers.",
      "PreparationPreText": "Heat greased grill to medium-high heat.",
      "PreparationSteps": [
        {
          "Description": "Grill chicken 10 min. on each side or until done (165ºF), turning and brushing occasionally with barbecue sauce.  Cut into strips.",
          "PreparationStepImage": {
            "PictureFormats": [],
            "author": null,
            "id": null,
            "imageType": null,
            "mimeType": null,
            "publicationDate": null,
            "status": null,
            "title": null,
            "type": null
          },
          "Sequence": 1
        },
        {
          "Description": "Cover 4 salad plates with greens; top with fruit, onions and chicken.  Drizzle with dressing.",
          "PreparationStepImage": {
            "PictureFormats": [],
            "author": null,
            "id": null,
            "imageType": null,
            "mimeType": null,
            "publicationDate": null,
            "status": null,
            "title": null,
            "type": null
          },
          "Sequence": 2
        },
        {
          "Description": "Serve with crackers.",
          "PreparationStepImage": {
            "PictureFormats": [],
            "author": null,
            "id": null,
            "imageType": null,
            "mimeType": null,
            "publicationDate": null,
            "status": null,
            "title": null,
            "type": null
          },
          "Sequence": 3
        }
      ],
      "PreparationTime": 10,
      "Promotion": null,
      "Ratings": {
        "TotalCount": 14,
        "PageCount": 10,
        "PageNo": 1,
        "Rating": [
          {
            "Comment": "details - your photo includes Kiwis but the directions do not!",
            "DisplayName": false,
            "RatingValue": 4,
            "SubmitDate": "/Date(1277647693000-0500)/",
            "UpdatedDate": "/Date(1277647693000-0500)/",
            "UserName": "lkkreitz"
          },
          {
            "Comment": "I've been looking for a recipe like this, love to order it in a restaurant.  I don't have a grill and will follow a cook's way to prepare the chicken.  Will use strawberries and mandarin oranges and a strawberry or raspberry vinaigrette or poppy seed dressing.  Making my mouth water just thinking about it.",
            "DisplayName": true,
            "RatingValue": 5,
            "SubmitDate": "/Date(1277312144000-0500)/",
            "UpdatedDate": "/Date(1277312144000-0500)/",
            "UserName": "laniebelle"
          },
          {
            "Comment": "Very light and delicious.  Wonder why the kiwi and red onion were omitted from recipe but are shown in picture...",
            "DisplayName": false,
            "RatingValue": 5,
            "SubmitDate": "/Date(1277254091000-0500)/",
            "UpdatedDate": "/Date(1277254091000-0500)/",
            "UserName": "Stephanie298"
          },
          {
            "Comment": "This is great tasting and easy to make anytime, I really enjoyed it.",
            "DisplayName": true,
            "RatingValue": 5,
            "SubmitDate": "/Date(1271375108000-0500)/",
            "UpdatedDate": "/Date(1271375108000-0500)/",
            "UserName": "kmburke12"
          },
          {
            "Comment": "",
            "DisplayName": true,
            "RatingValue": 4,
            "SubmitDate": "/Date(1246025607000-0500)/",
            "UpdatedDate": "/Date(1246025607000-0500)/",
            "UserName": "midsummersage"
          },
          {
            "Comment": "Substituted cantaloupe for watermelon. used melon baller .   looks great!",
            "DisplayName": false,
            "RatingValue": 4,
            "SubmitDate": "/Date(1091468552000-0500)/",
            "UpdatedDate": "/Date(1091469378000-0500)/",
            "UserName": "racrtmac"
          },
          {
            "Comment": "Outstanding, easy and it really tastes great. We use strawberries and a fat free Italian dressing.",
            "DisplayName": false,
            "RatingValue": 5,
            "SubmitDate": "/Date(1062161216000-0500)/",
            "UpdatedDate": "/Date(1062161216000-0500)/",
            "UserName": "RWBen"
          },
          {
            "Comment": "I dont have a grill, so I marinaded the breasts in BBQ in the fridge for two hours and baked them for one hour at 400 degrees. Excellent recipe, didn't even need Ranch for extra flavor.",
            "DisplayName": false,
            "RatingValue": 5,
            "SubmitDate": "/Date(1061484144000-0500)/",
            "UpdatedDate": "/Date(1061484144000-0500)/",
            "UserName": "abbyz2000"
          },
          {
            "Comment": "This recipe is nice if you are trying to keep your weight under control. The Grilled Chicken and Fruit contains 4 blocks of protein and 2 blocks of carbohydrates.  Two more blocks of carbohydrates are necessary for a balanced meals, if you don't want to be hungry again in about 2 hours.",
            "DisplayName": false,
            "RatingValue": 3,
            "SubmitDate": "/Date(1061314273000-0500)/",
            "UpdatedDate": "/Date(1061314273000-0500)/",
            "UserName": "nycair"
          },
          {
            "Comment": "will try it this weekend.",
            "DisplayName": false,
            "RatingValue": 4,
            "SubmitDate": "/Date(1060735905000-0500)/",
            "UpdatedDate": "/Date(1060735905000-0500)/",
            "UserName": "hazrah"
          }
        ]
      },
      "RecipeDisplayFormatId": 5,
      "RecipeId": 55456,
      "RecipeName": "Grilled Chicken and Fruit Salad",
      "RecipeType": 0,
      "RelatedData": {
        "RelatedBrands": null,
        "RelatedProducts": null,
        "RelatedRecipes": {
          "DefaultTopCount": 5,
          "Recipe": [
            {
              "AverageRating": 4.4,
              "HasVideo": false,
              "IsHealthyLiving": true,
              "NumberOfRatings": 14,
              "PhotoName": "Grilled_Chicken_and_Mango_Salad.jpg",
              "PhotoUrl": "http://assets.kraftfoods.com/recipe_images/opendeploy/Grilled_Chicken_and_Mango_Salad.jpg",
              "RecipeId": 50554,
              "RecipeName": "Grilled Chicken and Mango Salad",
              "SEOName": "grilled-chicken-mango-salad-50554",
              "ThumbnailPhoto": null
            },
            {
              "AverageRating": 4,
              "HasVideo": false,
              "IsHealthyLiving": false,
              "NumberOfRatings": 2,
              "PhotoName": "Festive_Salad_with_Chicken_And_Fruit.jpg",
              "PhotoUrl": "http://assets.kraftfoods.com/recipe_images/opendeploy/Festive_Salad_with_Chicken_And_Fruit.jpg",
              "RecipeId": 57885,
              "RecipeName": "Festive Salad with Chicken and Fruit",
              "SEOName": "festive-salad-chicken-fruit-57885",
              "ThumbnailPhoto": null
            },
            {
              "AverageRating": 4.6,
              "HasVideo": false,
              "IsHealthyLiving": false,
              "NumberOfRatings": 34,
              "PhotoName": "Creamy_Curried_Chicken_Salad.jpg",
              "PhotoUrl": "http://assets.kraftfoods.com/recipe_images/opendeploy/Creamy_Curried_Chicken_Salad.jpg",
              "RecipeId": 63583,
              "RecipeName": "Creamy Curried Chicken Salad",
              "SEOName": "creamy-curried-chicken-salad-63583",
              "ThumbnailPhoto": null
            },
            {
              "AverageRating": 4.1,
              "HasVideo": false,
              "IsHealthyLiving": true,
              "NumberOfRatings": 48,
              "PhotoName": "Easy_Chicken_Waldorf_Salad.jpg",
              "PhotoUrl": "http://assets.kraftfoods.com/recipe_images/opendeploy/Easy_Chicken_Waldorf_Salad.jpg",
              "RecipeId": 57588,
              "RecipeName": "Easy Chicken Waldorf Salad",
              "SEOName": "easy-chicken-waldorf-salad-57588",
              "ThumbnailPhoto": null
            },
            {
              "AverageRating": 4.5,
              "HasVideo": false,
              "IsHealthyLiving": true,
              "NumberOfRatings": 46,
              "PhotoName": "57048.jpg",
              "PhotoUrl": "http://assets.kraftfoods.com/recipe_images/opendeploy/57048.jpg",
              "RecipeId": 57048,
              "RecipeName": "Chilled Creamy Poppyseed Pasta and Fruit Salad",
              "SEOName": "chilled-creamy-poppyseed-pasta-fruit-salad-57048",
              "ThumbnailPhoto": null
            }
          ],
          "TotalCount": 3703
        }
      },
      "RiseIngredients": [],
      "RiseTaxonomy": [],
      "Riserecipe": [
        {
          "GRIN": 509203,
          "RecipeId": 55456,
          "RecipeIndustrySector": "Retail",
          "RecipeType": "Internal"
        }
      ],
      "RomanceText": "Thanks to fresh, colorful kiwi, raspberries and cantaloupe, this savory and sweet idea is as pretty as it is smart.",
      "SEOName": "grilled-chicken-fruit-salad-55456",
      "Tips": [
        {
          "RecipeId": 55456,
          "Sequence": 10,
          "TipDescription": "Substitute blueberries, strawberries or blackberries for the raspberries.",
          "TipID": 1,
          "TipName": "Substitute"
        },
        {
          "RecipeId": 55456,
          "Sequence": 20,
          "TipDescription": "Brush French bread slices with KRAFT French Dressing.  Add to grill during last few minutes of chicken grilling time.  Grill until lightly browned on both sides. Serve with salad.",
          "TipID": 2,
          "TipName": "Special Extra"
        },
        {
          "RecipeId": 55456,
          "Sequence": 30,
          "TipDescription": "Prepare using KRAFT Fat Free Ranch Dressing.",
          "TipID": 4,
          "TipName": "Substitute"
        }
      ],
      "TotalTime": 30,
      "TradeMarkInfo": null,
      "Video": [],
      "Yield": "Makes 4 servings."
    }
  ]
}