{
  "Metadata": {
    "PageCount": 1,
    "PageNo": 0,
    "TotalCount": 0
  },
  "Recipes": [
    {
      "AdServingKeywords": "Dairy,Ice Cream,Drinks,Easy,All Seasons,Baby shower,Kwanzaa,Punch,Cooking for a Crowd,Kid-Friendly,Kids Can Cook,Kool-Aid",
      "AlternateLanguageRecipes": [],
      "Assets": [
        {
          "PictureFormats": [
            {
              "rendition": "640x428",
              "url": "http://assets.kraftfoods.com/recipe_images/opendeploy/50236_640x428.jpg"
            },
            {
              "rendition": "600x250",
              "url": "http://assets.kraftfoods.com/recipe_images/opendeploy/50236_600x250.jpg"
            },
            {
              "rendition": "290x194",
              "url": "http://assets.kraftfoods.com/recipe_images/opendeploy/50236_290x194.jpg"
            }
          ],
          "author": "BulKUpload",
          "id": "2",
          "imageType": "Primary",
          "mimeType": "image/jpeg",
          "publicationDate": null,
          "status": "1",
          "title": "50236",
          "type": "image"
        },
        {
          "PictureFormats": [
            {
              "rendition": "300x200",
              "url": "http://assets.kraftfoods.com/recipe_images/50236.jpg"
            }
          ],
          "author": "BulKUpload",
          "id": "0",
          "imageType": "LANDSCAPE",
          "mimeType": "image/jpeg",
          "publicationDate": null,
          "status": "1",
          "title": "50236.jpg",
          "type": "image"
        }
      ],
      "AverageRating": 4.5,
      "BrandId": 1,
      "Branding": null,
      "CSSSkins": null,
      "CarbCounter": null,
      "Categories": [
        {
          "CategoryID": 5,
          "CategoryName": "Beverages",
          "CategoryRank": 2,
          "SubCategoryID": 452,
          "SubCategoryName": "Punches",
          "SubCategoryRank": 50
        },
        {
          "CategoryID": 11,
          "CategoryName": "Primary",
          "CategoryRank": 0,
          "SubCategoryID": 104,
          "SubCategoryName": "Beverages",
          "SubCategoryRank": 20
        },
        {
          "CategoryID": 747,
          "CategoryName": "Beverages",
          "CategoryRank": 1,
          "SubCategoryID": 2521,
          "SubCategoryName": "Chilled",
          "SubCategoryRank": 1
        },
        {
          "CategoryID": 747,
          "CategoryName": "Beverages",
          "CategoryRank": 1,
          "SubCategoryID": 2522,
          "SubCategoryName": "Mocktails",
          "SubCategoryRank": 1
        }
      ],
      "Classifications": [],
      "ComplimentaryRecipes": [
        {
          "AverageRating": 0,
          "HasVideo": false,
          "IsHealthyLiving": false,
          "NumberOfRatings": 0,
          "PhotoName": null,
          "PhotoUrl": null,
          "RecipeId": 125561,
          "RecipeName": null,
          "SEOName": "frozen-layered-sorbet-torte-125561",
          "ThumbnailPhoto": "Frozen-Layered-Sorbet-Torte-60227.jpg"
        }
      ],
      "CookingMethod": null,
      "Copyright": null,
      "Courses": [
        "Beverages"
      ],
      "DietExchange": null,
      "DishDetails": [],
      "EndDate": "/Date(-62135575200000-0600)/",
      "HasVideo": false,
      "Ingredients": [
        {
          "FullMeasure": null,
          "FullWeight": null,
          "IngredientGridHeaders": null,
          "IngredientID": 68791,
          "IngredientName": "(6 cups) cold water",
          "IngredientStep": 10,
          "LanguageId": 0,
          "PostPreparation": "",
          "PrePreparation": "",
          "QuantityNum": 1.5,
          "QuantityText": "1-1/2",
          "QuantityUnit": "qt.",
          "RecipeIngredientID": 100963,
          "TrialMeasure": null,
          "TrialWeight": null
        },
        {
          "FullMeasure": null,
          "FullWeight": null,
          "IngredientGridHeaders": null,
          "IngredientID": 67673,
          "IngredientName": "KOOL-AID Cherry Flavor Sugar-Sweetened Drink Mix",
          "IngredientStep": 20,
          "LanguageId": 0,
          "PostPreparation": "",
          "PrePreparation": "",
          "QuantityNum": 0.33,
          "QuantityText": "1/3",
          "QuantityUnit": "cup",
          "RecipeIngredientID": 100252,
          "TrialMeasure": null,
          "TrialWeight": null
        },
        {
          "FullMeasure": null,
          "FullWeight": null,
          "IngredientGridHeaders": null,
          "IngredientID": 69110,
          "IngredientName": "KOOL-AID Tropical Punch Flavor Sugar-Sweetened Drink Mix",
          "IngredientStep": 30,
          "LanguageId": 0,
          "PostPreparation": "",
          "PrePreparation": "",
          "QuantityNum": 0.33,
          "QuantityText": "1/3",
          "QuantityUnit": "cup",
          "RecipeIngredientID": 107046,
          "TrialMeasure": null,
          "TrialWeight": null
        },
        {
          "FullMeasure": null,
          "FullWeight": null,
          "IngredientGridHeaders": null,
          "IngredientID": 69186,
          "IngredientName": "vanilla ice cream, softened",
          "IngredientStep": 40,
          "LanguageId": 0,
          "PostPreparation": "",
          "PrePreparation": "",
          "QuantityNum": 2,
          "QuantityText": "2",
          "QuantityUnit": "cups",
          "RecipeIngredientID": 99957,
          "TrialMeasure": null,
          "TrialWeight": null
        },
        {
          "FullMeasure": null,
          "FullWeight": null,
          "IngredientGridHeaders": null,
          "IngredientID": 71536,
          "IngredientName": "(1 L) carbonated lemon-lime soda, chilled",
          "IngredientStep": 50,
          "LanguageId": 0,
          "PostPreparation": "",
          "PrePreparation": "",
          "QuantityNum": 1,
          "QuantityText": "1",
          "QuantityUnit": "bottle",
          "RecipeIngredientID": 110925,
          "TrialMeasure": null,
          "TrialWeight": null
        }
      ],
      "IsHealthyLiving": false,
      "KRLId": "506943",
      "KeyIngredients": [],
      "Keywords": "Drinks,Easy,All Seasons,Baby shower,Kwanzaa,Punch,Cooking for a Crowd,Kid-Friendly,Kids Can Cook",
      "LanguageId": 1,
      "LifeStyles": [],
      "NumberOfIngredients": 5,
      "NumberOfRatings": 43,
      "NumberOfRatingsWithComments": "33",
      "NumberOfServings": "Makes 13 servings, 1 cup each.",
      "NumberOfTrialServings": null,
      "NutritionBonus": null,
      "NutritionExchangeItemId": 0,
      "NutritionGridItems": null,
      "NutritionItems": [
        {
          "DisplayOrder": 10,
          "Document": null,
          "NutritionItemID": 371,
          "NutritionItemName": "Calories",
          "Predriscriptor": "",
          "Quantity": 110,
          "Unit": "          "
        },
        {
          "DisplayOrder": 20,
          "Document": null,
          "NutritionItemID": 376,
          "NutritionItemName": "Total fat",
          "Predriscriptor": "",
          "Quantity": 2,
          "Unit": "g         "
        },
        {
          "DisplayOrder": 30,
          "Document": null,
          "NutritionItemID": 377,
          "NutritionItemName": "Saturated fat",
          "Predriscriptor": "",
          "Quantity": 1.5,
          "Unit": "g         "
        },
        {
          "DisplayOrder": 40,
          "Document": null,
          "NutritionItemID": 379,
          "NutritionItemName": "Polyunsaturated Fat",
          "Predriscriptor": "",
          "Quantity": 0,
          "Unit": "g         "
        },
        {
          "DisplayOrder": 50,
          "Document": null,
          "NutritionItemID": 378,
          "NutritionItemName": "Monounsaturated Fat",
          "Predriscriptor": "",
          "Quantity": 0.5,
          "Unit": "g         "
        },
        {
          "DisplayOrder": 60,
          "Document": null,
          "NutritionItemID": 381,
          "NutritionItemName": "Cholesterol",
          "Predriscriptor": "",
          "Quantity": 10,
          "Unit": "mg        "
        },
        {
          "DisplayOrder": 70,
          "Document": null,
          "NutritionItemID": 389,
          "NutritionItemName": "Sodium",
          "Predriscriptor": "",
          "Quantity": 30,
          "Unit": "mg        "
        },
        {
          "DisplayOrder": 80,
          "Document": null,
          "NutritionItemID": 373,
          "NutritionItemName": "Carbohydrate",
          "Predriscriptor": "",
          "Quantity": 23,
          "Unit": "g         "
        },
        {
          "DisplayOrder": 90,
          "Document": null,
          "NutritionItemID": 374,
          "NutritionItemName": "Dietary fiber",
          "Predriscriptor": "",
          "Quantity": 0,
          "Unit": "g         "
        },
        {
          "DisplayOrder": 100,
          "Document": null,
          "NutritionItemID": 375,
          "NutritionItemName": "Sugars",
          "Predriscriptor": "",
          "Quantity": 22,
          "Unit": "g         "
        },
        {
          "DisplayOrder": 110,
          "Document": null,
          "NutritionItemID": 372,
          "NutritionItemName": "Protein",
          "Predriscriptor": "",
          "Quantity": 1,
          "Unit": "g         "
        },
        {
          "DisplayOrder": 120,
          "Document": null,
          "NutritionItemID": 382,
          "NutritionItemName": "Vitamin A",
          "Predriscriptor": "",
          "Quantity": 0,
          "Unit": "%DV       "
        },
        {
          "DisplayOrder": 130,
          "Document": null,
          "NutritionItemID": 383,
          "NutritionItemName": "Vitamin C",
          "Predriscriptor": "",
          "Quantity": 4,
          "Unit": "%DV       "
        },
        {
          "DisplayOrder": 140,
          "Document": null,
          "NutritionItemID": 386,
          "NutritionItemName": "Calcium",
          "Predriscriptor": "",
          "Quantity": 4,
          "Unit": "%DV       "
        },
        {
          "DisplayOrder": 150,
          "Document": null,
          "NutritionItemID": 387,
          "NutritionItemName": "Iron",
          "Predriscriptor": "",
          "Quantity": 0,
          "Unit": "%DV       "
        }
      ],
      "NutritionServingText": null,
      "PrepStepImage": null,
      "PreparationDescription": "Add water to combined drink mixes in punch bowl; stir until mixes are dissolved. $Add ice cream; stir until blended.  $Stir in carbonated beverage.",
      "PreparationPreText": "",
      "PreparationSteps": [
        {
          "Description": "Add water to combined drink mixes in punch bowl; stir until mixes are dissolved. ",
          "PreparationStepImage": {
            "PictureFormats": [],
            "author": null,
            "id": null,
            "imageType": null,
            "mimeType": null,
            "publicationDate": null,
            "status": null,
            "title": null,
            "type": null
          },
          "Sequence": 1
        },
        {
          "Description": "Add ice cream; stir until blended.  ",
          "PreparationStepImage": {
            "PictureFormats": [],
            "author": null,
            "id": null,
            "imageType": null,
            "mimeType": null,
            "publicationDate": null,
            "status": null,
            "title": null,
            "type": null
          },
          "Sequence": 2
        },
        {
          "Description": "Stir in carbonated beverage.",
          "PreparationStepImage": {
            "PictureFormats": [],
            "author": null,
            "id": null,
            "imageType": null,
            "mimeType": null,
            "publicationDate": null,
            "status": null,
            "title": null,
            "type": null
          },
          "Sequence": 3
        }
      ],
      "PreparationTime": 5,
      "Promotion": null,
      "Ratings": {
        "TotalCount": 43,
        "PageCount": 10,
        "PageNo": 1,
        "Rating": [
          {
            "Comment": "perfect for a bridal shower",
            "DisplayName": false,
            "RatingValue": 5,
            "SubmitDate": "/Date(1316976806000-0500)/",
            "UpdatedDate": "/Date(1316976806000-0500)/",
            "UserName": "Edes01"
          },
          {
            "Comment": "",
            "DisplayName": true,
            "RatingValue": 5,
            "SubmitDate": "/Date(1308871399000-0500)/",
            "UpdatedDate": "/Date(1308871399000-0500)/",
            "UserName": "chachis07"
          },
          {
            "Comment": "This was delicious and refreshing. I served this at a baby shower and everyone wanted the recipe. Not one person out of the 25 that were there disliked this punch.",
            "DisplayName": true,
            "RatingValue": 5,
            "SubmitDate": "/Date(1195447418000-0600)/",
            "UpdatedDate": "/Date(1308347585000-0500)/",
            "UserName": "ezmeralda69"
          },
          {
            "Comment": "it was a hit!",
            "DisplayName": false,
            "RatingValue": 5,
            "SubmitDate": "/Date(1268176185000-0600)/",
            "UpdatedDate": "/Date(1268176185000-0600)/",
            "UserName": "marimac154"
          },
          {
            "Comment": "it was perfect! i suggest gingerale for best flavor, sprite wasn't very good.",
            "DisplayName": true,
            "RatingValue": 5,
            "SubmitDate": "/Date(1222704819000-0500)/",
            "UpdatedDate": "/Date(1222705052000-0500)/",
            "UserName": "stefi269"
          },
          {
            "Comment": "super easy and flavorful! i made it for a baby shower - my friend was having a girl - and it was a huge hit! there wasn't a drop left over! i definately would make this again, and maybe even try different flavors of kool-aid. ",
            "DisplayName": true,
            "RatingValue": 5,
            "SubmitDate": "/Date(1210869322000-0500)/",
            "UpdatedDate": "/Date(1210869322000-0500)/",
            "UserName": "sigk1874"
          },
          {
            "Comment": "Very easy and pretty to look at. We had at a baby shower and it was a big hit, especially since there were toddlers at the shower too.",
            "DisplayName": true,
            "RatingValue": 4,
            "SubmitDate": "/Date(1195711256000-0600)/",
            "UpdatedDate": "/Date(1195711256000-0600)/",
            "UserName": "Sarah0349"
          },
          {
            "Comment": "I made this for a bridal shower and it was very good. Everybody loved it. I doubled the recipe but still only used the 6 cups of water. ",
            "DisplayName": true,
            "RatingValue": 5,
            "SubmitDate": "/Date(1195286738000-0600)/",
            "UpdatedDate": "/Date(1195286738000-0600)/",
            "UserName": "judijak"
          },
          {
            "Comment": "Very tasty! I good variation is Fruit punch soda (Tahitian Treat is good), pineapple or lime juice, and pineapple (orange) sorbert....It's a family favorite!!!",
            "DisplayName": true,
            "RatingValue": 4,
            "SubmitDate": "/Date(1190144745000-0500)/",
            "UpdatedDate": "/Date(1190144745000-0500)/",
            "UserName": "sbell15"
          },
          {
            "Comment": "Nothing to write home about but a good simple punch.",
            "DisplayName": true,
            "RatingValue": 3,
            "SubmitDate": "/Date(1185907552000-0500)/",
            "UpdatedDate": "/Date(1185907552000-0500)/",
            "UserName": "cmckissack"
          }
        ]
      },
      "RecipeDisplayFormatId": 0,
      "RecipeId": 50236,
      "RecipeName": "Pink Paradise Punch",
      "RecipeType": 0,
      "RelatedData": {
        "RelatedBrands": null,
        "RelatedProducts": null,
        "RelatedRecipes": {
          "DefaultTopCount": 5,
          "Recipe": [
            {
              "AverageRating": 4.5,
              "HasVideo": true,
              "IsHealthyLiving": true,
              "NumberOfRatings": 175,
              "PhotoName": "Sangria_Punch.jpg",
              "PhotoUrl": "http://assets.kraftfoods.com/recipe_images/opendeploy/Sangria_Punch.jpg",
              "RecipeId": 64881,
              "RecipeName": "Sangria Punch",
              "SEOName": "sangria-punch-64881",
              "ThumbnailPhoto": null
            },
            {
              "AverageRating": 4.6,
              "HasVideo": false,
              "IsHealthyLiving": true,
              "NumberOfRatings": 17,
              "PhotoName": "CRYSTAL_LIGHT_Punch.jpg",
              "PhotoUrl": "http://assets.kraftfoods.com/recipe_images/opendeploy/CRYSTAL_LIGHT_Punch.jpg",
              "RecipeId": 74554,
              "RecipeName": "CRYSTAL LIGHT® Punch",
              "SEOName": "crystal-light-punch-74554",
              "ThumbnailPhoto": null
            },
            {
              "AverageRating": 5,
              "HasVideo": false,
              "IsHealthyLiving": false,
              "NumberOfRatings": 4,
              "PhotoName": "Orange_Lemonade_Punch.jpg",
              "PhotoUrl": "http://assets.kraftfoods.com/recipe_images/opendeploy/Orange_Lemonade_Punch.jpg",
              "RecipeId": 55543,
              "RecipeName": "Orange Lemonade Punch",
              "SEOName": "orange-lemonade-punch-55543",
              "ThumbnailPhoto": null
            },
            {
              "AverageRating": 4.6,
              "HasVideo": false,
              "IsHealthyLiving": true,
              "NumberOfRatings": 11,
              "PhotoName": "Cranberry_Lemonade_Spritzer.jpg",
              "PhotoUrl": "http://assets.kraftfoods.com/recipe_images/opendeploy/Cranberry_Lemonade_Spritzer.jpg",
              "RecipeId": 54705,
              "RecipeName": "Cranberry-Lemonade Punch",
              "SEOName": "cranberry-lemonade-punch-54705",
              "ThumbnailPhoto": null
            },
            {
              "AverageRating": 4.2,
              "HasVideo": false,
              "IsHealthyLiving": false,
              "NumberOfRatings": 33,
              "PhotoName": "Paradise_Pumpkin_Pie.jpg",
              "PhotoUrl": "http://assets.kraftfoods.com/recipe_images/opendeploy/Paradise_Pumpkin_Pie.jpg",
              "RecipeId": 55626,
              "RecipeName": "Paradise Pumpkin Pie with Cream Cheese",
              "SEOName": "paradise-pumpkin-pie-cream-cheese-55626",
              "ThumbnailPhoto": null
            }
          ],
          "TotalCount": 232
        }
      },
      "RiseIngredients": [
        {
          "IngredientCategory": "KRL",
          "IngredientId": 67673,
          "IngredientIndustrySector": "Retail",
          "IngredientType": "KHC",
          "ProductId": "00043000061282",
          "RecipeId": 50236
        },
        {
          "IngredientCategory": "KRL",
          "IngredientId": 68791,
          "IngredientIndustrySector": "Retail",
          "IngredientType": "Generic",
          "ProductId": null,
          "RecipeId": 50236
        },
        {
          "IngredientCategory": "KRL",
          "IngredientId": 69110,
          "IngredientIndustrySector": "Retail",
          "IngredientType": "Inedible",
          "ProductId": "00043000953501",
          "RecipeId": 50236
        },
        {
          "IngredientCategory": "KRL",
          "IngredientId": 69186,
          "IngredientIndustrySector": "Retail",
          "IngredientType": "Inedible",
          "ProductId": null,
          "RecipeId": 50236
        },
        {
          "IngredientCategory": "KRL",
          "IngredientId": 71536,
          "IngredientIndustrySector": "Retail",
          "IngredientType": "Inedible",
          "ProductId": null,
          "RecipeId": 50236
        }
      ],
      "RiseTaxonomy": [
        {
          "ParentTaxonomyId": 34,
          "RecipeId": 50236,
          "ResourceName": "Recipe",
          "TaxonomyId": 73,
          "TaxonomyName": "Punches",
          "TaxonomyTypeId": 3,
          "TaxonomyTypeName": "Dish Type"
        },
        {
          "ParentTaxonomyId": 0,
          "RecipeId": 50236,
          "ResourceName": "Recipe",
          "TaxonomyId": 312,
          "TaxonomyName": "Kwanzaa",
          "TaxonomyTypeId": 5,
          "TaxonomyTypeName": "Occasion-Theme"
        }
      ],
      "Riserecipe": [
        {
          "GRIN": 506943,
          "RecipeId": 50236,
          "RecipeIndustrySector": "Retail",
          "RecipeType": "Internal"
        }
      ],
      "RomanceText": "Take a sweet sip of our Pink Punch Recipe! Perfect for a baby shower, our Pink Punch Recipe involves ice cream, fizzy lemon-lime soda and other flavors.",
      "SEOName": "pink-paradise-punch-50236",
      "Tips": [
        {
          "RecipeId": 50236,
          "Sequence": 10,
          "TipDescription": "For a delicious sugar-free punch, prepare using KOOL-AID Sugar Free Cherry Flavor Low Calorie Drink Mix, KOOL-AID Sugar Free Tropical Punch Flavor Low Calorie Drink Mix, sugar-free vanilla ice cream and diet carbonated lemon-lime beverage.",
          "TipID": 1,
          "TipName": "Variation"
        },
        {
          "RecipeId": 50236,
          "Sequence": 20,
          "TipDescription": "To quickly soften the ice cream, microwave the 2 cups ice cream in microwaveable bowl on MEDIUM-LOW (30%) 15 sec. or just until softened.",
          "TipID": 2,
          "TipName": "Shortcut"
        },
        {
          "RecipeId": 50236,
          "Sequence": 30,
          "TipDescription": "Prepare punch as directed, except do not add the ice cream and carbonated beverage. Refrigerate up to 12 hours.  Add remaining ingredients as directed just before serving.",
          "TipID": 3,
          "TipName": "Make Ahead"
        }
      ],
      "TotalTime": 185,
      "TradeMarkInfo": null,
      "Video": [],
      "Yield": "Makes 13 servings, 1 cup each."
    }
  ]
}