{
  "Metadata": {
    "PageCount": 1,
    "PageNo": 0,
    "TotalCount": 0
  },
  "Recipes": [
    {
      "AdServingKeywords": "Coconut,Easy,All Seasons,Cookie,Snack,Cooking for One or Two,Kid-Friendly,Kids Can Cook,Bakers",
      "AlternateLanguageRecipes": [],
      "Assets": [
        {
          "PictureFormats": [
            {
              "rendition": "640x428",
              "url": "http://assets.kraftfoods.com/recipe_images/opendeploy/196069_640x428.jpg"
            },
            {
              "rendition": "600x250",
              "url": "http://assets.kraftfoods.com/recipe_images/opendeploy/196069_600x250.jpg"
            },
            {
              "rendition": "290x194",
              "url": "http://assets.kraftfoods.com/recipe_images/opendeploy/196069_290x194.jpg"
            }
          ],
          "author": null,
          "id": "2",
          "imageType": "Primary",
          "mimeType": "image/jpeg",
          "publicationDate": null,
          "status": "1",
          "title": "196069",
          "type": "image"
        },
        {
          "PictureFormats": [
            {
              "rendition": "300x200",
              "url": "http://assets.kraftfoods.com/recipe_images/196069.jpg"
            }
          ],
          "author": null,
          "id": "0",
          "imageType": "LANDSCAPE",
          "mimeType": "image/jpeg",
          "publicationDate": null,
          "status": "1",
          "title": "196069.jpg",
          "type": "image"
        }
      ],
      "AverageRating": 0,
      "BrandId": 1,
      "Branding": null,
      "CSSSkins": null,
      "CarbCounter": null,
      "Categories": [
        {
          "CategoryID": 6,
          "CategoryName": "Appetizers/Snacks",
          "CategoryRank": 1,
          "SubCategoryID": 752,
          "SubCategoryName": "Snacks Bars & Other Snacks",
          "SubCategoryRank": 0
        },
        {
          "CategoryID": 11,
          "CategoryName": "Primary",
          "CategoryRank": 0,
          "SubCategoryID": 96,
          "SubCategoryName": "Appetizers & Snacks",
          "SubCategoryRank": 10
        },
        {
          "CategoryID": 12,
          "CategoryName": "Especially for Kids",
          "CategoryRank": 7,
          "SubCategoryID": 152,
          "SubCategoryName": "Snacks",
          "SubCategoryRank": 50
        },
        {
          "CategoryID": 749,
          "CategoryName": "Snacks, Soups & Entrées",
          "CategoryRank": 3,
          "SubCategoryID": 2525,
          "SubCategoryName": "Hot",
          "SubCategoryRank": 1
        },
        {
          "CategoryID": 749,
          "CategoryName": "Snacks, Soups & Entrées",
          "CategoryRank": 3,
          "SubCategoryID": 2526,
          "SubCategoryName": "Cold",
          "SubCategoryRank": 1
        },
        {
          "CategoryID": 749,
          "CategoryName": "Snacks, Soups & Entrées",
          "CategoryRank": 3,
          "SubCategoryID": 2527,
          "SubCategoryName": "Vegetarian",
          "SubCategoryRank": 1
        },
        {
          "CategoryID": 762,
          "CategoryName": "Kids Cooking",
          "CategoryRank": 16,
          "SubCategoryID": 2591,
          "SubCategoryName": "Cooked",
          "SubCategoryRank": 1
        },
        {
          "CategoryID": 762,
          "CategoryName": "Kids Cooking",
          "CategoryRank": 16,
          "SubCategoryID": 2592,
          "SubCategoryName": "No Cooking",
          "SubCategoryRank": 1
        },
        {
          "CategoryID": 762,
          "CategoryName": "Kids Cooking",
          "CategoryRank": 16,
          "SubCategoryID": 2593,
          "SubCategoryName": "Sweet",
          "SubCategoryRank": 1
        },
        {
          "CategoryID": 762,
          "CategoryName": "Kids Cooking",
          "CategoryRank": 16,
          "SubCategoryID": 2594,
          "SubCategoryName": "Savoury",
          "SubCategoryRank": 1
        },
        {
          "CategoryID": 1759,
          "CategoryName": "Philly Desserts",
          "CategoryRank": 0,
          "SubCategoryID": 16841,
          "SubCategoryName": "Spread Cream Cheese",
          "SubCategoryRank": 0
        },
        {
          "CategoryID": 1759,
          "CategoryName": "Philly Desserts",
          "CategoryRank": 0,
          "SubCategoryID": 16843,
          "SubCategoryName": "Use for All",
          "SubCategoryRank": 0
        }
      ],
      "Classifications": [],
      "ComplimentaryRecipes": null,
      "CookingMethod": null,
      "Copyright": null,
      "Courses": [],
      "DietExchange": null,
      "DishDetails": [
        {
          "Text": "cookie recipes",
          "Url": "/recipes/dessert/cookie-recipes/main.aspx"
        },
        {
          "Text": "cookie ball recipes",
          "Url": "/recipes/dessert/cookie-ball-recipes/main.aspx"
        },
        {
          "Text": "dessert recipes",
          "Url": "/recipes/dessert/main.aspx"
        },
        {
          "Text": "peanut butter cookie recipes",
          "Url": "/recipes/dessert/peanut-butter-cookies/main.aspx"
        }
      ],
      "EndDate": "/Date(-62135575200000-0600)/",
      "HasVideo": false,
      "Ingredients": [
        {
          "FullMeasure": null,
          "FullWeight": null,
          "IngredientGridHeaders": null,
          "IngredientID": 68459,
          "IngredientName": "chocolate chip cookies (2 inch)",
          "IngredientStep": 10,
          "LanguageId": 0,
          "PostPreparation": "",
          "PrePreparation": "",
          "QuantityNum": 2,
          "QuantityText": "2",
          "QuantityUnit": "",
          "RecipeIngredientID": 334506,
          "TrialMeasure": null,
          "TrialWeight": null
        },
        {
          "FullMeasure": null,
          "FullWeight": null,
          "IngredientGridHeaders": null,
          "IngredientID": 73070,
          "IngredientName": "PHILADELPHIA Blueberry Cream Cheese Spread",
          "IngredientStep": 20,
          "LanguageId": 0,
          "PostPreparation": "",
          "PrePreparation": "",
          "QuantityNum": 2,
          "QuantityText": "2",
          "QuantityUnit": "tsp.",
          "RecipeIngredientID": 331439,
          "TrialMeasure": null,
          "TrialWeight": null
        },
        {
          "FullMeasure": null,
          "FullWeight": null,
          "IngredientGridHeaders": null,
          "IngredientID": 68454,
          "IngredientName": "toasted BAKER'S ANGEL FLAKE Coconut",
          "IngredientStep": 30,
          "LanguageId": 0,
          "PostPreparation": "",
          "PrePreparation": "",
          "QuantityNum": 1,
          "QuantityText": "1",
          "QuantityUnit": "tsp.",
          "RecipeIngredientID": 332336,
          "TrialMeasure": null,
          "TrialWeight": null
        }
      ],
      "IsHealthyLiving": false,
      "KRLId": "578041",
      "KeyIngredients": [],
      "Keywords": "Easy,Cookie,Snack,All Seasons,Cooking for One or Two,Kid-Friendly,Kids Can Cook",
      "LanguageId": 1,
      "LifeStyles": [],
      "NumberOfIngredients": 3,
      "NumberOfRatings": 0,
      "NumberOfRatingsWithComments": "0",
      "NumberOfServings": "1 serving",
      "NumberOfTrialServings": null,
      "NutritionBonus": null,
      "NutritionExchangeItemId": 0,
      "NutritionGridItems": null,
      "NutritionItems": [
        {
          "DisplayOrder": 1,
          "Document": null,
          "NutritionItemID": 371,
          "NutritionItemName": "Calories",
          "Predriscriptor": "",
          "Quantity": 140,
          "Unit": "          "
        },
        {
          "DisplayOrder": 2,
          "Document": null,
          "NutritionItemID": 376,
          "NutritionItemName": "Total fat",
          "Predriscriptor": "",
          "Quantity": 7,
          "Unit": "g         "
        },
        {
          "DisplayOrder": 3,
          "Document": null,
          "NutritionItemID": 377,
          "NutritionItemName": "Saturated fat",
          "Predriscriptor": "",
          "Quantity": 3.5,
          "Unit": "g         "
        },
        {
          "DisplayOrder": 4,
          "Document": null,
          "NutritionItemID": 379,
          "NutritionItemName": "Polyunsaturated Fat",
          "Predriscriptor": "",
          "Quantity": 0,
          "Unit": "g         "
        },
        {
          "DisplayOrder": 5,
          "Document": null,
          "NutritionItemID": 378,
          "NutritionItemName": "Monounsaturated Fat",
          "Predriscriptor": "",
          "Quantity": 0,
          "Unit": "g         "
        },
        {
          "DisplayOrder": 6,
          "Document": null,
          "NutritionItemID": 380,
          "NutritionItemName": "Trans Fat",
          "Predriscriptor": "",
          "Quantity": 0,
          "Unit": "g         "
        },
        {
          "DisplayOrder": 7,
          "Document": null,
          "NutritionItemID": 381,
          "NutritionItemName": "Cholesterol",
          "Predriscriptor": "",
          "Quantity": 5,
          "Unit": "mg        "
        },
        {
          "DisplayOrder": 8,
          "Document": null,
          "NutritionItemID": 389,
          "NutritionItemName": "Sodium",
          "Predriscriptor": "",
          "Quantity": 110,
          "Unit": "mg        "
        },
        {
          "DisplayOrder": 10,
          "Document": null,
          "NutritionItemID": 373,
          "NutritionItemName": "Carbohydrate",
          "Predriscriptor": "",
          "Quantity": 18,
          "Unit": "g         "
        },
        {
          "DisplayOrder": 11,
          "Document": null,
          "NutritionItemID": 374,
          "NutritionItemName": "Dietary fiber",
          "Predriscriptor": "",
          "Quantity": 1,
          "Unit": "g         "
        },
        {
          "DisplayOrder": 12,
          "Document": null,
          "NutritionItemID": 375,
          "NutritionItemName": "Sugars",
          "Predriscriptor": "",
          "Quantity": 9,
          "Unit": "g         "
        },
        {
          "DisplayOrder": 13,
          "Document": null,
          "NutritionItemID": 372,
          "NutritionItemName": "Protein",
          "Predriscriptor": "",
          "Quantity": 2,
          "Unit": "g         "
        },
        {
          "DisplayOrder": 14,
          "Document": null,
          "NutritionItemID": 382,
          "NutritionItemName": "Vitamin A",
          "Predriscriptor": "",
          "Quantity": 4,
          "Unit": "%DV       "
        },
        {
          "DisplayOrder": 15,
          "Document": null,
          "NutritionItemID": 383,
          "NutritionItemName": "Vitamin C",
          "Predriscriptor": "",
          "Quantity": 0,
          "Unit": "%DV       "
        },
        {
          "DisplayOrder": 16,
          "Document": null,
          "NutritionItemID": 386,
          "NutritionItemName": "Calcium",
          "Predriscriptor": "",
          "Quantity": 0,
          "Unit": "%DV       "
        },
        {
          "DisplayOrder": 17,
          "Document": null,
          "NutritionItemID": 387,
          "NutritionItemName": "Iron",
          "Predriscriptor": "",
          "Quantity": 4,
          "Unit": "%DV       "
        }
      ],
      "NutritionServingText": null,
      "PrepStepImage": null,
      "PreparationDescription": "Spread cookies with cream cheese spread.$Sprinkle with coconut.",
      "PreparationPreText": "",
      "PreparationSteps": [
        {
          "Description": "Spread cookies with cream cheese spread.",
          "PreparationStepImage": {
            "PictureFormats": [],
            "author": null,
            "id": null,
            "imageType": null,
            "mimeType": null,
            "publicationDate": null,
            "status": null,
            "title": null,
            "type": null
          },
          "Sequence": 1
        },
        {
          "Description": "Sprinkle with coconut.",
          "PreparationStepImage": {
            "PictureFormats": [],
            "author": null,
            "id": null,
            "imageType": null,
            "mimeType": null,
            "publicationDate": null,
            "status": null,
            "title": null,
            "type": null
          },
          "Sequence": 2
        }
      ],
      "PreparationTime": 5,
      "Promotion": {
        "IngredientElevation": "",
        "PromoAltText": "",
        "PromoImage": "",
        "PromoLink": "",
        "SponsorshipAltText": "",
        "SponsorshipLink": "",
        "SponsorshipLogo": "",
        "UpperRightImage": ""
      },
      "Ratings": {
        "TotalCount": 0,
        "PageCount": 10,
        "PageNo": 1,
        "Rating": []
      },
      "RecipeDisplayFormatId": 0,
      "RecipeId": 196069,
      "RecipeName": "Chocolate Chip Crunch",
      "RecipeType": 0,
      "RelatedData": {
        "RelatedBrands": null,
        "RelatedProducts": null,
        "RelatedRecipes": {
          "DefaultTopCount": 5,
          "Recipe": [
            {
              "AverageRating": 5,
              "HasVideo": false,
              "IsHealthyLiving": false,
              "NumberOfRatings": 1,
              "PhotoName": "138444.jpg",
              "PhotoUrl": "http://assets.kraftfoods.com/recipe_images/opendeploy/138444.jpg",
              "RecipeId": 138444,
              "RecipeName": "Two-Layer Cookie Crunch Fudge",
              "SEOName": "two-layer-cookie-crunch-fudge-138444",
              "ThumbnailPhoto": null
            },
            {
              "AverageRating": 4.6,
              "HasVideo": false,
              "IsHealthyLiving": false,
              "NumberOfRatings": 23,
              "PhotoName": "111065.jpg",
              "PhotoUrl": "http://assets.kraftfoods.com/recipe_images/opendeploy/111065.jpg",
              "RecipeId": 111065,
              "RecipeName": "Fudge-Bottom Candy Crunch Pie",
              "SEOName": "fudge-bottom-candy-crunch-pie-111065",
              "ThumbnailPhoto": null
            },
            {
              "AverageRating": 4.3,
              "HasVideo": false,
              "IsHealthyLiving": false,
              "NumberOfRatings": 29,
              "PhotoName": "OREO_Crunch_Bars.jpg",
              "PhotoUrl": "http://assets.kraftfoods.com/recipe_images/opendeploy/OREO_Crunch_Bars.jpg",
              "RecipeId": 56624,
              "RecipeName": "OREO Crunch Bars",
              "SEOName": "oreo-crunch-bars-56624",
              "ThumbnailPhoto": null
            },
            {
              "AverageRating": 4.4,
              "HasVideo": false,
              "IsHealthyLiving": false,
              "NumberOfRatings": 137,
              "PhotoName": "56394.jpg",
              "PhotoUrl": "http://assets.kraftfoods.com/recipe_images/opendeploy/56394.jpg",
              "RecipeId": 56394,
              "RecipeName": "Crunch \"Bars\"",
              "SEOName": "crunch-bars-56394",
              "ThumbnailPhoto": null
            },
            {
              "AverageRating": 4.3,
              "HasVideo": true,
              "IsHealthyLiving": false,
              "NumberOfRatings": 87,
              "PhotoName": "55123.jpg",
              "PhotoUrl": "http://assets.kraftfoods.com/recipe_images/opendeploy/55123.jpg",
              "RecipeId": 55123,
              "RecipeName": "Candy Crunch Pudding Pie",
              "SEOName": "candy-crunch-pudding-pie-55123",
              "ThumbnailPhoto": null
            }
          ],
          "TotalCount": 1213
        }
      },
      "RiseIngredients": [
        {
          "IngredientCategory": "KRL",
          "IngredientId": 68454,
          "IngredientIndustrySector": "Retail",
          "IngredientType": "Inedible",
          "ProductId": "00043000276402",
          "RecipeId": 196069
        },
        {
          "IngredientCategory": "KRL",
          "IngredientId": 68459,
          "IngredientIndustrySector": "Retail",
          "IngredientType": "Inedible",
          "ProductId": null,
          "RecipeId": 196069
        },
        {
          "IngredientCategory": "KRL",
          "IngredientId": 73070,
          "IngredientIndustrySector": "Retail",
          "IngredientType": "KHC",
          "ProductId": "00021000007349",
          "RecipeId": 196069
        }
      ],
      "RiseTaxonomy": [],
      "Riserecipe": [
        {
          "GRIN": 578041,
          "RecipeId": 196069,
          "RecipeIndustrySector": "Retail",
          "RecipeType": "Internal"
        }
      ],
      "RomanceText": "",
      "SEOName": "chocolate-chip-crunch-196069",
      "Tips": [
        {
          "RecipeId": 196069,
          "Sequence": 10,
          "TipDescription": "Balance out your food choices throughout the day so you can enjoy this sweet treat.",
          "TipID": 1,
          "TipName": "Size Wise"
        },
        {
          "RecipeId": 196069,
          "Sequence": 20,
          "TipDescription": "Prepare using PHILADELPHIA Strawberry Cream Cheese Spread or PHILADELPHIA Blueberry Cream Cheese Spread.",
          "TipID": 2,
          "TipName": "Substitute"
        }
      ],
      "TotalTime": 5,
      "TradeMarkInfo": null,
      "Video": [],
      "Yield": "1 serving"
    }
  ]
}