{
  "Metadata": {
    "PageCount": 1,
    "PageNo": 0,
    "TotalCount": 0
  },
  "Recipes": [
    {
      "AdServingKeywords": "Dessert,Berries,Chocolate,Dairy,Eggs,Fruit,Grains,Nuts,Quinoa,Raspberry,All Seasons,Cake,Bakers,Calumet,Cool Whip,Planters",
      "AlternateLanguageRecipes": [
        {
          "LanguageId": "2",
          "RecipeId": "166315",
          "SiteId": "1"
        },
        {
          "LanguageId": "2",
          "RecipeId": "166315",
          "SiteId": "90"
        }
      ],
      "Assets": [
        {
          "PictureFormats": [
            {
              "rendition": "290x194",
              "url": "http://assets.kraftfoods.com/recipe_images/opendeploy/166314_290x194.jpg"
            },
            {
              "rendition": "640x428",
              "url": "http://assets.kraftfoods.com/recipe_images/opendeploy/166314_640x428.jpg"
            },
            {
              "rendition": "600x250",
              "url": "http://assets.kraftfoods.com/recipe_images/opendeploy/166314_600x250.jpg"
            }
          ],
          "author": "BulKUpload",
          "id": "2",
          "imageType": "Primary",
          "mimeType": "image/jpeg",
          "publicationDate": null,
          "status": "1",
          "title": "166314",
          "type": "image"
        },
        {
          "PictureFormats": [
            {
              "rendition": "140x90",
              "url": "http://assets.kraftfoods.com/recipe_images/opendeploy/166314_MXM_K64691V0_OR1_FO_140x90.jpg"
            },
            {
              "rendition": "300x250",
              "url": "http://assets.kraftfoods.com/recipe_images/opendeploy/166314_MXM_K64691V0_OR1_FO_300x250.jpg"
            },
            {
              "rendition": "960x300",
              "url": "http://assets.kraftfoods.com/recipe_images/opendeploy/166314_MXM_K64691V0_OR1_FO_960x300.jpg"
            }
          ],
          "author": null,
          "id": "2",
          "imageType": "Primary",
          "mimeType": "image/jpeg",
          "publicationDate": null,
          "status": "1",
          "title": "166314_MXM_K64691V0_OR1_FO",
          "type": "image"
        },
        {
          "PictureFormats": [
            {
              "rendition": "300x200",
              "url": "http://assets.kraftfoods.com/recipe_images/166314.jpg"
            }
          ],
          "author": "BulKUpload",
          "id": "0",
          "imageType": "LANDSCAPE",
          "mimeType": "image/jpeg",
          "publicationDate": null,
          "status": "1",
          "title": "166314.jpg",
          "type": "image"
        }
      ],
      "AverageRating": 3,
      "BrandId": 1,
      "Branding": null,
      "CSSSkins": null,
      "CarbCounter": null,
      "Categories": [
        {
          "CategoryID": 4,
          "CategoryName": "Cakes/Pies/Cheesecakes",
          "CategoryRank": 5,
          "SubCategoryID": 359,
          "SubCategoryName": "Cakes: Other",
          "SubCategoryRank": 20
        },
        {
          "CategoryID": 11,
          "CategoryName": "Primary",
          "CategoryRank": 0,
          "SubCategoryID": 103,
          "SubCategoryName": "Desserts",
          "SubCategoryRank": 40
        },
        {
          "CategoryID": 761,
          "CategoryName": "Cakes, Muffins & Sweet Treats",
          "CategoryRank": 15,
          "SubCategoryID": 2585,
          "SubCategoryName": "Sweet",
          "SubCategoryRank": 1
        },
        {
          "CategoryID": 1772,
          "CategoryName": "Gluten Aware",
          "CategoryRank": 0,
          "SubCategoryID": 16922,
          "SubCategoryName": "Desserts",
          "SubCategoryRank": 0
        }
      ],
      "Classifications": [],
      "ComplimentaryRecipes": [
        {
          "AverageRating": 0,
          "HasVideo": false,
          "IsHealthyLiving": false,
          "NumberOfRatings": 0,
          "PhotoName": null,
          "PhotoUrl": null,
          "RecipeId": 62220,
          "RecipeName": null,
          "SEOName": "kraft-easy-fall-ratatouille-62220",
          "ThumbnailPhoto": "opendeploy/529281_1_1_retail-f49f20e62a7ef8c1fbccfa9b5609a02aaa33ac2d_306x204.jpg"
        }
      ],
      "CookingMethod": null,
      "Copyright": null,
      "Courses": [
        "Desserts"
      ],
      "DietExchange": null,
      "DishDetails": [
        {
          "Text": "desserts",
          "Url": "/recipes/dessert/main.aspx"
        },
        {
          "Text": "fruity desserts",
          "Url": "/recipes/dessert/fruitydesserts.aspx"
        },
        {
          "Text": "gelatin desserts",
          "Url": "/recipes/dessert/gelatindesserts.aspx"
        },
        {
          "Text": "layered desserts",
          "Url": "/recipes/dessert/layereddesserts.aspx"
        },
        {
          "Text": "brownie recipes",
          "Url": "/recipes/dessert/brownie-recipes/main.aspx"
        },
        {
          "Text": "budget desserts",
          "Url": "/recipes/budget/budget-desserts.aspx"
        },
        {
          "Text": "no bake desserts",
          "Url": "/recipes/dessert/nobakedesserts.aspx"
        },
        {
          "Text": "pumpkin recipes",
          "Url": "/recipes/dessert/pumpkin-recipes.aspx"
        },
        {
          "Text": "chocolate cake recipes",
          "Url": "/recipes/dessert/chocolate-cake-recipes/main.aspx"
        },
        {
          "Text": "cheesecake recipes",
          "Url": "/recipes/dessert/cheesecake-center/cheesecake-recipes/main.aspx"
        },
        {
          "Text": "chocolate lovers recipes",
          "Url": "/recipes/dessert/chocolate-center/chocolateloversrecipes.aspx"
        },
        {
          "Text": "classic desserts",
          "Url": "/recipes/dessert/classicdesserts.aspx"
        },
        {
          "Text": "cookie ball recipes",
          "Url": "/recipes/dessert/cookie-ball-recipes/main.aspx"
        },
        {
          "Text": "cookie recipes",
          "Url": "/recipes/dessert/cookie-recipes/main.aspx"
        },
        {
          "Text": "cupcake recipes",
          "Url": "/recipes/dessert/cupcake-recipes/main.aspx"
        },
        {
          "Text": "healthy living desserts",
          "Url": "/healthy-living-ideas/diabetes-center/recipes/dessert-recipes.aspx"
        }
      ],
      "EndDate": "/Date(-62135575200000-0600)/",
      "HasVideo": false,
      "Ingredients": [
        {
          "FullMeasure": "1-3/4  pkg.",
          "FullWeight": "",
          "IngredientGridHeaders": null,
          "IngredientID": 66,
          "IngredientName": "BAKER'S Semi-Sweet Chocolate",
          "IngredientStep": 10,
          "LanguageId": 0,
          "PostPreparation": " (7 oz.), divided",
          "PrePreparation": "(4 oz. each)",
          "QuantityNum": 1,
          "QuantityText": "1-3/4 ",
          "QuantityUnit": "pkg.",
          "RecipeIngredientID": 5214646,
          "TrialMeasure": "",
          "TrialWeight": ""
        },
        {
          "FullMeasure": "3/4 cup",
          "FullWeight": "",
          "IngredientGridHeaders": null,
          "IngredientID": 863,
          "IngredientName": "butter",
          "IngredientStep": 20,
          "LanguageId": 0,
          "PostPreparation": "",
          "PrePreparation": "",
          "QuantityNum": 0,
          "QuantityText": "3/4",
          "QuantityUnit": "cup",
          "RecipeIngredientID": 5214652,
          "TrialMeasure": "",
          "TrialWeight": ""
        },
        {
          "FullMeasure": "4",
          "FullWeight": "",
          "IngredientGridHeaders": null,
          "IngredientID": 1060,
          "IngredientName": "egg",
          "IngredientStep": 30,
          "LanguageId": 0,
          "PostPreparation": "s",
          "PrePreparation": "",
          "QuantityNum": 4,
          "QuantityText": "4",
          "QuantityUnit": "",
          "RecipeIngredientID": 5214651,
          "TrialMeasure": "",
          "TrialWeight": ""
        },
        {
          "FullMeasure": "1/2 cup",
          "FullWeight": "",
          "IngredientGridHeaders": null,
          "IngredientID": 1345,
          "IngredientName": "milk",
          "IngredientStep": 40,
          "LanguageId": 0,
          "PostPreparation": "",
          "PrePreparation": "",
          "QuantityNum": 0,
          "QuantityText": "1/2",
          "QuantityUnit": "cup",
          "RecipeIngredientID": 5214653,
          "TrialMeasure": "",
          "TrialWeight": ""
        },
        {
          "FullMeasure": "2 cups",
          "FullWeight": "",
          "IngredientGridHeaders": null,
          "IngredientID": 7333,
          "IngredientName": "quinoa",
          "IngredientStep": 50,
          "LanguageId": 0,
          "PostPreparation": "",
          "PrePreparation": "cooked",
          "QuantityNum": 2,
          "QuantityText": "2",
          "QuantityUnit": "cups",
          "RecipeIngredientID": 5214650,
          "TrialMeasure": "",
          "TrialWeight": ""
        },
        {
          "FullMeasure": "1 cup",
          "FullWeight": "",
          "IngredientGridHeaders": null,
          "IngredientID": 1845,
          "IngredientName": "sugar",
          "IngredientStep": 60,
          "LanguageId": 0,
          "PostPreparation": "",
          "PrePreparation": "",
          "QuantityNum": 1,
          "QuantityText": "1",
          "QuantityUnit": "cup",
          "RecipeIngredientID": 5214654,
          "TrialMeasure": "",
          "TrialWeight": ""
        },
        {
          "FullMeasure": "1-1/2 tsp.",
          "FullWeight": "",
          "IngredientGridHeaders": null,
          "IngredientID": 110,
          "IngredientName": "CALUMET Baking Powder",
          "IngredientStep": 70,
          "LanguageId": 0,
          "PostPreparation": "",
          "PrePreparation": "",
          "QuantityNum": 1,
          "QuantityText": "1-1/2",
          "QuantityUnit": "tsp.",
          "RecipeIngredientID": 5214655,
          "TrialMeasure": "",
          "TrialWeight": ""
        },
        {
          "FullMeasure": "1/2 tsp.",
          "FullWeight": "",
          "IngredientGridHeaders": null,
          "IngredientID": 808,
          "IngredientName": "baking soda",
          "IngredientStep": 80,
          "LanguageId": 0,
          "PostPreparation": "",
          "PrePreparation": "",
          "QuantityNum": 0,
          "QuantityText": "1/2",
          "QuantityUnit": "tsp.",
          "RecipeIngredientID": 5214656,
          "TrialMeasure": "",
          "TrialWeight": ""
        },
        {
          "FullMeasure": "1-1/3 cups",
          "FullWeight": "",
          "IngredientGridHeaders": null,
          "IngredientID": 5718,
          "IngredientName": "PLANTERS Slivered Almonds",
          "IngredientStep": 90,
          "LanguageId": 0,
          "PostPreparation": ", finely chopped",
          "PrePreparation": "",
          "QuantityNum": 1,
          "QuantityText": "1-1/3",
          "QuantityUnit": "cups",
          "RecipeIngredientID": 5214647,
          "TrialMeasure": "",
          "TrialWeight": ""
        },
        {
          "FullMeasure": "2-1/4 cups",
          "FullWeight": "",
          "IngredientGridHeaders": null,
          "IngredientID": 140,
          "IngredientName": "COOL WHIP Whipped Topping",
          "IngredientStep": 100,
          "LanguageId": 0,
          "PostPreparation": ", divided",
          "PrePreparation": "thawed",
          "QuantityNum": 2,
          "QuantityText": "2-1/4",
          "QuantityUnit": "cups",
          "RecipeIngredientID": 5214648,
          "TrialMeasure": "",
          "TrialWeight": ""
        },
        {
          "FullMeasure": "1-1/2 cups",
          "FullWeight": "",
          "IngredientGridHeaders": null,
          "IngredientID": 1511,
          "IngredientName": "raspberries",
          "IngredientStep": 110,
          "LanguageId": 0,
          "PostPreparation": "",
          "PrePreparation": "",
          "QuantityNum": 1,
          "QuantityText": "1-1/2",
          "QuantityUnit": "cups",
          "RecipeIngredientID": 5214649,
          "TrialMeasure": "",
          "TrialWeight": ""
        }
      ],
      "IsHealthyLiving": false,
      "KRLId": "572121",
      "KeyIngredients": [
        "Berries",
        "Chocolate",
        "Dairy",
        "Eggs",
        "Fruit",
        "Grains",
        "Nuts",
        "Raspberry"
      ],
      "Keywords": "nuts,raspberries,almonds,baking chocolate,baking powder,baking soda,berries,chocolate,COOL WHIP,eggs,milk,sugar,whipped topping,BAKER'S Semi-Sweet Chocolate,butter,CALUMET Baking Powder,semi-sweet chocolate,PLANTERS Almonds,chocolate-semi-sweet,Planters,quinoa,Dessert,Cake,All Seasons",
      "LanguageId": 1,
      "LifeStyles": [],
      "NumberOfIngredients": 11,
      "NumberOfRatings": 2,
      "NumberOfRatingsWithComments": "2",
      "NumberOfServings": "12 servings",
      "NumberOfTrialServings": "",
      "NutritionBonus": null,
      "NutritionExchangeItemId": 0,
      "NutritionGridItems": null,
      "NutritionItems": [
        {
          "DisplayOrder": 1,
          "Document": null,
          "NutritionItemID": 3,
          "NutritionItemName": "Calories",
          "Predriscriptor": "",
          "Quantity": 450,
          "Unit": "          "
        },
        {
          "DisplayOrder": 2,
          "Document": "fat_cholesterol.html",
          "NutritionItemID": 4,
          "NutritionItemName": "Total fat",
          "Predriscriptor": "",
          "Quantity": 30,
          "Unit": "g         "
        },
        {
          "DisplayOrder": 3,
          "Document": "fat_cholesterol.html",
          "NutritionItemID": 9,
          "NutritionItemName": "Saturated fat",
          "Predriscriptor": "",
          "Quantity": 14,
          "Unit": "g         "
        },
        {
          "DisplayOrder": 7,
          "Document": "fat_cholesterol.html",
          "NutritionItemID": 2,
          "NutritionItemName": "Cholesterol",
          "Predriscriptor": "",
          "Quantity": 95,
          "Unit": "mg        "
        },
        {
          "DisplayOrder": 8,
          "Document": "sodium.html",
          "NutritionItemID": 8,
          "NutritionItemName": "Sodium",
          "Predriscriptor": "",
          "Quantity": 250,
          "Unit": "mg        "
        },
        {
          "DisplayOrder": 10,
          "Document": "carbs_sugars_fiber.html",
          "NutritionItemID": 1,
          "NutritionItemName": "Carbohydrate",
          "Predriscriptor": "",
          "Quantity": 42,
          "Unit": "g         "
        },
        {
          "DisplayOrder": 11,
          "Document": "carbs_sugars_fiber.html",
          "NutritionItemID": 7,
          "NutritionItemName": "Dietary fiber",
          "Predriscriptor": "",
          "Quantity": 5,
          "Unit": "g         "
        },
        {
          "DisplayOrder": 12,
          "Document": "carbs_sugars_fiber.html",
          "NutritionItemID": 5,
          "NutritionItemName": "Sugars",
          "Predriscriptor": "",
          "Quantity": 28,
          "Unit": "g         "
        },
        {
          "DisplayOrder": 13,
          "Document": null,
          "NutritionItemID": 6,
          "NutritionItemName": "Protein",
          "Predriscriptor": "",
          "Quantity": 9,
          "Unit": "g         "
        },
        {
          "DisplayOrder": 14,
          "Document": null,
          "NutritionItemID": 10,
          "NutritionItemName": "Vitamin A",
          "Predriscriptor": "",
          "Quantity": 10,
          "Unit": "%DV       "
        },
        {
          "DisplayOrder": 15,
          "Document": null,
          "NutritionItemID": 11,
          "NutritionItemName": "Vitamin C",
          "Predriscriptor": "",
          "Quantity": 6,
          "Unit": "%DV       "
        },
        {
          "DisplayOrder": 16,
          "Document": "dairy_and_calcium.html",
          "NutritionItemID": 12,
          "NutritionItemName": "Calcium",
          "Predriscriptor": "",
          "Quantity": 10,
          "Unit": "%DV       "
        },
        {
          "DisplayOrder": 17,
          "Document": null,
          "NutritionItemID": 13,
          "NutritionItemName": "Iron",
          "Predriscriptor": "",
          "Quantity": 10,
          "Unit": "%DV       "
        }
      ],
      "NutritionServingText": " ",
      "PrepStepImage": null,
      "PreparationDescription": "Microwave 4 oz. chocolate and butter in microwaveable bowl on HIGH 1-1/2 min. or until butter is melted. Stir until chocolate is completely melted and mixture is well blended; cool 15 min.  Pour into blender.  Add eggs, milk and quinoa; blend until smooth. $Mix sugar, baking powder and baking soda in large bowl until blended. Add quinoa mixture; mix well.  Stir in nuts.  Pour into 9-inch round pan sprayed with cooking spray.  $Bake 45 to 50 min. or until toothpick inserted in center comes out with fudgy crumbs.  (Do not overbake.) Cool 20 min.  $Meanwhile, microwave remaining chocolate and 1-1/2 cups COOL WHIP in microwaveable bowl on HIGH 2 min.  Whisk until chocolate is completely melted and mixture is well blended. $Loosen cake from side of pan with knife.  Invert cake onto plate; spread with chocolate glaze.  Serve with remaining COOL WHIP and raspberries.\r\n",
      "PreparationPreText": "Heat oven to 350°F.",
      "PreparationSteps": [
        {
          "Description": "Microwave 4 oz. chocolate and butter in microwaveable bowl on HIGH 1-1/2 min. or until butter is melted. Stir until chocolate is completely melted and mixture is well blended; cool 15 min.  Pour into blender.  Add eggs, milk and quinoa; blend until smooth. ",
          "PreparationStepImage": {
            "PictureFormats": [],
            "author": null,
            "id": null,
            "imageType": null,
            "mimeType": null,
            "publicationDate": null,
            "status": null,
            "title": null,
            "type": null
          },
          "Sequence": 1
        },
        {
          "Description": "Mix sugar, baking powder and baking soda in large bowl until blended. Add quinoa mixture; mix well.  Stir in nuts.  Pour into 9-inch round pan sprayed with cooking spray.  ",
          "PreparationStepImage": {
            "PictureFormats": [],
            "author": null,
            "id": null,
            "imageType": null,
            "mimeType": null,
            "publicationDate": null,
            "status": null,
            "title": null,
            "type": null
          },
          "Sequence": 2
        },
        {
          "Description": "Bake 45 to 50 min. or until toothpick inserted in center comes out with fudgy crumbs.  (Do not overbake.) Cool 20 min.  ",
          "PreparationStepImage": {
            "PictureFormats": [],
            "author": null,
            "id": null,
            "imageType": null,
            "mimeType": null,
            "publicationDate": null,
            "status": null,
            "title": null,
            "type": null
          },
          "Sequence": 3
        },
        {
          "Description": "Meanwhile, microwave remaining chocolate and 1-1/2 cups COOL WHIP in microwaveable bowl on HIGH 2 min.  Whisk until chocolate is completely melted and mixture is well blended. ",
          "PreparationStepImage": {
            "PictureFormats": [],
            "author": null,
            "id": null,
            "imageType": null,
            "mimeType": null,
            "publicationDate": null,
            "status": null,
            "title": null,
            "type": null
          },
          "Sequence": 4
        },
        {
          "Description": "Loosen cake from side of pan with knife.  Invert cake onto plate; spread with chocolate glaze.  Serve with remaining COOL WHIP and raspberries.\r\n",
          "PreparationStepImage": {
            "PictureFormats": [],
            "author": null,
            "id": null,
            "imageType": null,
            "mimeType": null,
            "publicationDate": null,
            "status": null,
            "title": null,
            "type": null
          },
          "Sequence": 5
        }
      ],
      "PreparationTime": 20,
      "Promotion": null,
      "Ratings": {
        "TotalCount": 2,
        "PageCount": 10,
        "PageNo": 1,
        "Rating": [
          {
            "Comment": "My cake turned out terrible. would not make again.",
            "DisplayName": true,
            "RatingValue": 1,
            "SubmitDate": "/Date(1422935793000-0600)/",
            "UpdatedDate": "/Date(1423065205000-0600)/",
            "UserName": "MGV59"
          },
          {
            "Comment": "My family loved this. ",
            "DisplayName": true,
            "RatingValue": 5,
            "SubmitDate": "/Date(1410293670000-0500)/",
            "UpdatedDate": "/Date(1410293670000-0500)/",
            "UserName": "Wolfmyster"
          }
        ]
      },
      "RecipeDisplayFormatId": 5,
      "RecipeId": 166314,
      "RecipeName": "Flourless Chocolate Quinoa Cake with Chocolate Ganache Glaze",
      "RecipeType": 0,
      "RelatedData": {
        "RelatedBrands": null,
        "RelatedProducts": null,
        "RelatedRecipes": {
          "DefaultTopCount": 5,
          "Recipe": [
            {
              "AverageRating": 5,
              "HasVideo": false,
              "IsHealthyLiving": false,
              "NumberOfRatings": 2,
              "PhotoName": "122825.jpg",
              "PhotoUrl": "http://assets.kraftfoods.com/recipe_images/opendeploy/122825.jpg",
              "RecipeId": 122825,
              "RecipeName": "Flourless Chocolate Cake",
              "SEOName": "flourless-chocolate-cake-122825",
              "ThumbnailPhoto": null
            },
            {
              "AverageRating": 4.3,
              "HasVideo": false,
              "IsHealthyLiving": false,
              "NumberOfRatings": 4,
              "PhotoName": "121814.jpg",
              "PhotoUrl": "http://assets.kraftfoods.com/recipe_images/opendeploy/121814.jpg",
              "RecipeId": 121814,
              "RecipeName": "Flourless Chocolate-Mint Cake",
              "SEOName": "flourless-chocolate-mint-cake-121814",
              "ThumbnailPhoto": null
            },
            {
              "AverageRating": 5,
              "HasVideo": false,
              "IsHealthyLiving": false,
              "NumberOfRatings": 2,
              "PhotoName": "Flourless_Chocolate_Ancho_Cake.jpg",
              "PhotoUrl": "http://assets.kraftfoods.com/recipe_images/opendeploy/Flourless_Chocolate_Ancho_Cake.jpg",
              "RecipeId": 107455,
              "RecipeName": "Flourless Chocolate Ancho Cake",
              "SEOName": "flourless-chocolate-ancho-cake-107455",
              "ThumbnailPhoto": null
            },
            {
              "AverageRating": 4.2,
              "HasVideo": false,
              "IsHealthyLiving": false,
              "NumberOfRatings": 12,
              "PhotoName": "Flourless_Chocolate_Nut_Cake.jpg",
              "PhotoUrl": "http://assets.kraftfoods.com/recipe_images/opendeploy/Flourless_Chocolate_Nut_Cake.jpg",
              "RecipeId": 65094,
              "RecipeName": "Flourless Chocolate-Nut Cake",
              "SEOName": "flourless-chocolate-nut-cake-65094",
              "ThumbnailPhoto": null
            },
            {
              "AverageRating": 5,
              "HasVideo": false,
              "IsHealthyLiving": false,
              "NumberOfRatings": 2,
              "PhotoName": "182812.jpg",
              "PhotoUrl": "http://assets.kraftfoods.com/recipe_images/opendeploy/182812.jpg",
              "RecipeId": 182812,
              "RecipeName": "Pumpkin Pie-Spiced Flourless Chocolate Cake",
              "SEOName": "pumpkin-pie-spiced-flourless-chocolate-cake-182812",
              "ThumbnailPhoto": null
            }
          ],
          "TotalCount": 1713
        }
      },
      "RiseIngredients": [],
      "RiseTaxonomy": [],
      "Riserecipe": [
        {
          "GRIN": 572121,
          "RecipeId": 166314,
          "RecipeIndustrySector": "Retail",
          "RecipeType": "Internal"
        }
      ],
      "RomanceText": "Flourless chocolate quinoa cake? You read that right—and you'll be amazed how yummy it is, especially with that chocolatey ganache glaze.",
      "SEOName": "flourless-chocolate-quinoa-cake-chocolate-ganache-glaze-166314",
      "Tips": [
        {
          "RecipeId": 166314,
          "Sequence": 10,
          "TipDescription": "This recipe is made with ingredients that contain no labeled sources of gluten. However, if your personal dietary goal is to strictly avoid gluten, be vigilant. Always read ingredient statements on food labels for the most current and accurate information for every recipe ingredient. And when working in the kitchen, use gluten-free preparation methods and utensils. For individualized advice, check with a certified health professional or credible source.  ",
          "TipID": 5,
          "TipName": "Gluten Aware"
        },
        {
          "RecipeId": 166314,
          "Sequence": 20,
          "TipDescription": "Enjoy a serving of this decadent dessert at your next special occasion.",
          "TipID": 4,
          "TipName": "Size Wise"
        }
      ],
      "TotalTime": 105,
      "TradeMarkInfo": null,
      "Video": [],
      "Yield": "12 servings"
    }
  ]
}