{
  "Metadata": {
    "PageCount": 1,
    "PageNo": 0,
    "TotalCount": 0
  },
  "Recipes": [
    {
      "AdServingKeywords": "Top of Stove ,Entree,Korean,Easy,Eggs,Ham,Meat,Onion,Pork,Rice,Vegetables,Kraft Salad Dressing,Oscar Mayer,Cooking for One or Two,Quick and Easy,Dinner",
      "AlternateLanguageRecipes": [],
      "Assets": [
        {
          "PictureFormats": [
            {
              "rendition": "290x194",
              "url": "http://assets.kraftfoods.com/recipe_images/opendeploy/583759_1_1_retail-1b590e938ce3529a0a378ce79550a2ac71923522_291x194.jpg"
            },
            {
              "rendition": "306x204",
              "url": "http://assets.kraftfoods.com/recipe_images/opendeploy/583759_1_1_retail-1b590e938ce3529a0a378ce79550a2ac71923522_306x204.jpg"
            },
            {
              "rendition": "640x428",
              "url": "http://assets.kraftfoods.com/recipe_images/opendeploy/583759_1_1_retail-1b590e938ce3529a0a378ce79550a2ac71923522_642x428.jpg"
            }
          ],
          "author": "Kraft",
          "id": "2",
          "imageType": "Primary",
          "mimeType": "image/jpeg",
          "publicationDate": null,
          "status": "1",
          "title": "583759_1_1_retail-1b590e938ce3529a0a378ce79550a2ac71923522",
          "type": "image"
        }
      ],
      "AverageRating": 0,
      "BrandId": 1,
      "Branding": null,
      "CSSSkins": [],
      "CarbCounter": null,
      "Categories": [],
      "Classifications": [],
      "ComplimentaryRecipes": null,
      "CookingMethod": null,
      "Copyright": null,
      "Courses": [],
      "DietExchange": null,
      "DishDetails": null,
      "EndDate": "/Date(-62135575200000-0600)/",
      "HasVideo": false,
      "Ingredients": [
        {
          "FullMeasure": null,
          "FullWeight": null,
          "IngredientGridHeaders": null,
          "IngredientID": 70629,
          "IngredientName": "KRAFT Asian Toasted Sesame Dressing, divided",
          "IngredientStep": 10,
          "LanguageId": 0,
          "PostPreparation": "",
          "PrePreparation": "",
          "QuantityNum": 3,
          "QuantityText": "3",
          "QuantityUnit": "Tbsp.",
          "RecipeIngredientID": 470956,
          "TrialMeasure": null,
          "TrialWeight": null
        },
        {
          "FullMeasure": null,
          "FullWeight": null,
          "IngredientGridHeaders": null,
          "IngredientID": 68061,
          "IngredientName": "chilled cooked long-grain white rice",
          "IngredientStep": 20,
          "LanguageId": 0,
          "PostPreparation": "",
          "PrePreparation": "",
          "QuantityNum": 1.5,
          "QuantityText": "1-1/2",
          "QuantityUnit": "cups",
          "RecipeIngredientID": 470932,
          "TrialMeasure": null,
          "TrialWeight": null
        },
        {
          "FullMeasure": null,
          "FullWeight": null,
          "IngredientGridHeaders": null,
          "IngredientID": 71114,
          "IngredientName": "OSCAR MAYER CARVING BOARD Slow Cooked Ham, chopped (about 1/2 cup)",
          "IngredientStep": 30,
          "LanguageId": 0,
          "PostPreparation": "",
          "PrePreparation": "",
          "QuantityNum": 2,
          "QuantityText": "2",
          "QuantityUnit": "oz.",
          "RecipeIngredientID": 470933,
          "TrialMeasure": null,
          "TrialWeight": null
        },
        {
          "FullMeasure": null,
          "FullWeight": null,
          "IngredientGridHeaders": null,
          "IngredientID": 67914,
          "IngredientName": "sliced  green onion, divided ",
          "IngredientStep": 40,
          "LanguageId": 0,
          "PostPreparation": "",
          "PrePreparation": "",
          "QuantityNum": 0.25,
          "QuantityText": "1/4",
          "QuantityUnit": "cup",
          "RecipeIngredientID": 470930,
          "TrialMeasure": null,
          "TrialWeight": null
        },
        {
          "FullMeasure": null,
          "FullWeight": null,
          "IngredientGridHeaders": null,
          "IngredientID": 69762,
          "IngredientName": "chopped  kimchi",
          "IngredientStep": 50,
          "LanguageId": 0,
          "PostPreparation": "",
          "PrePreparation": "",
          "QuantityNum": 0.5,
          "QuantityText": "1/2",
          "QuantityUnit": "cup",
          "RecipeIngredientID": 470937,
          "TrialMeasure": null,
          "TrialWeight": null
        },
        {
          "FullMeasure": null,
          "FullWeight": null,
          "IngredientGridHeaders": null,
          "IngredientID": 68794,
          "IngredientName": "eggs",
          "IngredientStep": 60,
          "LanguageId": 0,
          "PostPreparation": "",
          "PrePreparation": "",
          "QuantityNum": 2,
          "QuantityText": "2",
          "QuantityUnit": "",
          "RecipeIngredientID": 470934,
          "TrialMeasure": null,
          "TrialWeight": null
        }
      ],
      "IsHealthyLiving": false,
      "KRLId": "583759",
      "KeyIngredients": [],
      "Keywords": "Top of Stove ,Entree,Korean,Easy,Cooking for One or Two,Quick and Easy",
      "LanguageId": 1,
      "LifeStyles": [],
      "NumberOfIngredients": 6,
      "NumberOfRatings": 0,
      "NumberOfRatingsWithComments": "0",
      "NumberOfServings": "2 servings, 1 cup each",
      "NumberOfTrialServings": null,
      "NutritionBonus": null,
      "NutritionExchangeItemId": 0,
      "NutritionGridItems": null,
      "NutritionItems": [
        {
          "DisplayOrder": 0,
          "Document": null,
          "NutritionItemID": 371,
          "NutritionItemName": "Calories",
          "Predriscriptor": "",
          "Quantity": 330,
          "Unit": "          "
        },
        {
          "DisplayOrder": 0,
          "Document": null,
          "NutritionItemID": 372,
          "NutritionItemName": "Protein",
          "Predriscriptor": "",
          "Quantity": 16,
          "Unit": "g         "
        },
        {
          "DisplayOrder": 0,
          "Document": null,
          "NutritionItemID": 373,
          "NutritionItemName": "Carbohydrate",
          "Predriscriptor": "",
          "Quantity": 38,
          "Unit": "g         "
        },
        {
          "DisplayOrder": 0,
          "Document": null,
          "NutritionItemID": 374,
          "NutritionItemName": "Dietary fiber",
          "Predriscriptor": "",
          "Quantity": 2,
          "Unit": "g         "
        },
        {
          "DisplayOrder": 0,
          "Document": null,
          "NutritionItemID": 375,
          "NutritionItemName": "Sugars",
          "Predriscriptor": "",
          "Quantity": 6,
          "Unit": "g         "
        },
        {
          "DisplayOrder": 0,
          "Document": null,
          "NutritionItemID": 376,
          "NutritionItemName": "Total fat",
          "Predriscriptor": "",
          "Quantity": 12,
          "Unit": "g         "
        },
        {
          "DisplayOrder": 0,
          "Document": null,
          "NutritionItemID": 377,
          "NutritionItemName": "Saturated fat",
          "Predriscriptor": "",
          "Quantity": 2.5,
          "Unit": "g         "
        },
        {
          "DisplayOrder": 0,
          "Document": null,
          "NutritionItemID": 378,
          "NutritionItemName": "Monounsaturated Fat",
          "Predriscriptor": "",
          "Quantity": 3,
          "Unit": "g         "
        },
        {
          "DisplayOrder": 0,
          "Document": null,
          "NutritionItemID": 379,
          "NutritionItemName": "Polyunsaturated Fat",
          "Predriscriptor": "",
          "Quantity": 3,
          "Unit": "g         "
        },
        {
          "DisplayOrder": 0,
          "Document": null,
          "NutritionItemID": 380,
          "NutritionItemName": "Trans Fat",
          "Predriscriptor": "",
          "Quantity": 0,
          "Unit": "g         "
        },
        {
          "DisplayOrder": 0,
          "Document": null,
          "NutritionItemID": 381,
          "NutritionItemName": "Cholesterol",
          "Predriscriptor": "",
          "Quantity": 200,
          "Unit": "mg        "
        },
        {
          "DisplayOrder": 0,
          "Document": null,
          "NutritionItemID": 382,
          "NutritionItemName": "Vitamin A",
          "Predriscriptor": "",
          "Quantity": 15,
          "Unit": "%DV       "
        },
        {
          "DisplayOrder": 0,
          "Document": null,
          "NutritionItemID": 383,
          "NutritionItemName": "Vitamin C",
          "Predriscriptor": "",
          "Quantity": 2,
          "Unit": "%DV       "
        },
        {
          "DisplayOrder": 0,
          "Document": null,
          "NutritionItemID": 384,
          "NutritionItemName": "Vitamin D",
          "Predriscriptor": "",
          "Quantity": 6,
          "Unit": "%DV       "
        },
        {
          "DisplayOrder": 0,
          "Document": null,
          "NutritionItemID": 385,
          "NutritionItemName": "Vitamin E",
          "Predriscriptor": "",
          "Quantity": 6,
          "Unit": "%DV       "
        },
        {
          "DisplayOrder": 0,
          "Document": null,
          "NutritionItemID": 386,
          "NutritionItemName": "Calcium",
          "Predriscriptor": "",
          "Quantity": 8,
          "Unit": "%DV       "
        },
        {
          "DisplayOrder": 0,
          "Document": null,
          "NutritionItemID": 387,
          "NutritionItemName": "Iron",
          "Predriscriptor": "",
          "Quantity": 20,
          "Unit": "%DV       "
        },
        {
          "DisplayOrder": 0,
          "Document": null,
          "NutritionItemID": 388,
          "NutritionItemName": "Potassium",
          "Predriscriptor": "",
          "Quantity": 10,
          "Unit": "%DV       "
        },
        {
          "DisplayOrder": 0,
          "Document": null,
          "NutritionItemID": 389,
          "NutritionItemName": "Sodium",
          "Predriscriptor": "",
          "Quantity": 810,
          "Unit": "mg        "
        },
        {
          "DisplayOrder": 0,
          "Document": null,
          "NutritionItemID": 390,
          "NutritionItemName": "Added Sugars",
          "Predriscriptor": "",
          "Quantity": 4,
          "Unit": "g         "
        }
      ],
      "NutritionServingText": null,
      "PrepStepImage": null,
      "PreparationDescription": "Heat 2 Tbsp. dressing in large nonstick skillet on medium-high heat.  Add rice, ham and 3 Tbsp. onions; stir-fry 4 min.$Add kimchi; stir-fry 3 min. or until heated through. Remove from heat.$Cook eggs in small covered skillet sprayed with cooking spray on medium heat 4 min. or until whites are set and yolks are cooked to desired doneness. $Spoon rice mixture into 2 bowls; drizzle with remaining dressing.  Top with eggs and remaining onions.",
      "PreparationPreText": null,
      "PreparationSteps": [
        {
          "Description": "Heat 2 Tbsp. dressing in large nonstick skillet on medium-high heat.  Add rice, ham and 3 Tbsp. onions; stir-fry 4 min.",
          "PreparationStepImage": {
            "PictureFormats": [],
            "author": null,
            "id": null,
            "imageType": null,
            "mimeType": null,
            "publicationDate": null,
            "status": null,
            "title": null,
            "type": null
          },
          "Sequence": 1
        },
        {
          "Description": "Add kimchi; stir-fry 3 min. or until heated through. Remove from heat.",
          "PreparationStepImage": {
            "PictureFormats": [],
            "author": null,
            "id": null,
            "imageType": null,
            "mimeType": null,
            "publicationDate": null,
            "status": null,
            "title": null,
            "type": null
          },
          "Sequence": 2
        },
        {
          "Description": "Cook eggs in small covered skillet sprayed with cooking spray on medium heat 4 min. or until whites are set and yolks are cooked to desired doneness. ",
          "PreparationStepImage": {
            "PictureFormats": [],
            "author": null,
            "id": null,
            "imageType": null,
            "mimeType": null,
            "publicationDate": null,
            "status": null,
            "title": null,
            "type": null
          },
          "Sequence": 3
        },
        {
          "Description": "Spoon rice mixture into 2 bowls; drizzle with remaining dressing.  Top with eggs and remaining onions.",
          "PreparationStepImage": {
            "PictureFormats": [],
            "author": null,
            "id": null,
            "imageType": null,
            "mimeType": null,
            "publicationDate": null,
            "status": null,
            "title": null,
            "type": null
          },
          "Sequence": 4
        }
      ],
      "PreparationTime": 20,
      "Promotion": null,
      "Ratings": {
        "TotalCount": 0,
        "PageCount": 10,
        "PageNo": 1,
        "Rating": []
      },
      "RecipeDisplayFormatId": 0,
      "RecipeId": 211812,
      "RecipeName": "Kimchi-Fried Rice ",
      "RecipeType": 0,
      "RelatedData": {
        "RelatedBrands": null,
        "RelatedProducts": null,
        "RelatedRecipes": {
          "DefaultTopCount": 5,
          "Recipe": [
            {
              "AverageRating": 4.5,
              "HasVideo": false,
              "IsHealthyLiving": false,
              "NumberOfRatings": 2,
              "PhotoName": "154721.jpg",
              "PhotoUrl": "http://assets.kraftfoods.com/recipe_images/opendeploy/154721.jpg",
              "RecipeId": 154721,
              "RecipeName": "Bacon Fried Rice",
              "SEOName": "bacon-fried-rice-154721",
              "ThumbnailPhoto": null
            },
            {
              "AverageRating": 4.8,
              "HasVideo": false,
              "IsHealthyLiving": false,
              "NumberOfRatings": 9,
              "PhotoName": "Fried_Rice_with_Pineapple,_Shrimp_n_Ham.jpg",
              "PhotoUrl": "http://assets.kraftfoods.com/recipe_images/opendeploy/Fried_Rice_with_Pineapple,_Shrimp_n_Ham.jpg",
              "RecipeId": 108660,
              "RecipeName": "Fried Rice with Pineapple, Shrimp & Ham",
              "SEOName": "fried-rice-pineapple-shrimp-ham-108660",
              "ThumbnailPhoto": null
            },
            {
              "AverageRating": 4.3,
              "HasVideo": false,
              "IsHealthyLiving": true,
              "NumberOfRatings": 147,
              "PhotoName": "Saucy_Stir-Fried_Pork.jpg",
              "PhotoUrl": "http://assets.kraftfoods.com/recipe_images/opendeploy/Saucy_Stir-Fried_Pork.jpg",
              "RecipeId": 104510,
              "RecipeName": "Saucy Stir-Fried Pork",
              "SEOName": "saucy-stir-fried-pork-104510",
              "ThumbnailPhoto": null
            },
            {
              "AverageRating": 4,
              "HasVideo": false,
              "IsHealthyLiving": true,
              "NumberOfRatings": 91,
              "PhotoName": "Chicken_Fried_Rice.jpg",
              "PhotoUrl": "http://assets.kraftfoods.com/recipe_images/opendeploy/Chicken_Fried_Rice.jpg",
              "RecipeId": 63778,
              "RecipeName": "Chicken Fried Rice",
              "SEOName": "chicken-fried-rice-63778",
              "ThumbnailPhoto": null
            },
            {
              "AverageRating": 4.5,
              "HasVideo": false,
              "IsHealthyLiving": true,
              "NumberOfRatings": 20,
              "PhotoName": "59840.jpg",
              "PhotoUrl": "http://assets.kraftfoods.com/recipe_images/opendeploy/59840.jpg",
              "RecipeId": 59840,
              "RecipeName": "Thai Peanut-Pineapple Fried Rice",
              "SEOName": "thai-peanut-pineapple-fried-rice-59840",
              "ThumbnailPhoto": null
            }
          ],
          "TotalCount": 595
        }
      },
      "RiseIngredients": [
        {
          "IngredientCategory": "KRL",
          "IngredientId": 67914,
          "IngredientIndustrySector": "Retail",
          "IngredientType": "Inedible",
          "ProductId": null,
          "RecipeId": 211812
        },
        {
          "IngredientCategory": "KRL",
          "IngredientId": 68061,
          "IngredientIndustrySector": "Retail",
          "IngredientType": "Inedible",
          "ProductId": null,
          "RecipeId": 211812
        },
        {
          "IngredientCategory": "KRL",
          "IngredientId": 68794,
          "IngredientIndustrySector": "Retail",
          "IngredientType": "Inedible",
          "ProductId": null,
          "RecipeId": 211812
        },
        {
          "IngredientCategory": "KRL",
          "IngredientId": 69762,
          "IngredientIndustrySector": "Retail",
          "IngredientType": "Inedible",
          "ProductId": null,
          "RecipeId": 211812
        },
        {
          "IngredientCategory": "KRL",
          "IngredientId": 70629,
          "IngredientIndustrySector": "Retail",
          "IngredientType": "KHC",
          "ProductId": "00021000014088",
          "RecipeId": 211812
        },
        {
          "IngredientCategory": "KRL",
          "IngredientId": 71114,
          "IngredientIndustrySector": "Retail",
          "IngredientType": "KHC",
          "ProductId": "00044700033425",
          "RecipeId": 211812
        }
      ],
      "RiseTaxonomy": [
        {
          "ParentTaxonomyId": 0,
          "RecipeId": 211812,
          "ResourceName": "Recipe",
          "TaxonomyId": 57,
          "TaxonomyName": "Dinner",
          "TaxonomyTypeId": 1,
          "TaxonomyTypeName": "Day Part"
        },
        {
          "ParentTaxonomyId": 0,
          "RecipeId": 211812,
          "ResourceName": "Recipe",
          "TaxonomyId": 65,
          "TaxonomyName": "Entrées",
          "TaxonomyTypeId": 2,
          "TaxonomyTypeName": "Meal Part"
        },
        {
          "ParentTaxonomyId": 52,
          "RecipeId": 211812,
          "ResourceName": "Recipe",
          "TaxonomyId": 251,
          "TaxonomyName": "Beef, Skillets & Stir-Fries",
          "TaxonomyTypeId": 3,
          "TaxonomyTypeName": "Dish Type"
        },
        {
          "ParentTaxonomyId": 268,
          "RecipeId": 211812,
          "ResourceName": "Recipe",
          "TaxonomyId": 271,
          "TaxonomyName": "Korean",
          "TaxonomyTypeId": 4,
          "TaxonomyTypeName": "Cuisine"
        },
        {
          "ParentTaxonomyId": 0,
          "RecipeId": 211812,
          "ResourceName": "Recipe",
          "TaxonomyId": 535,
          "TaxonomyName": "Stir-fried",
          "TaxonomyTypeId": 9,
          "TaxonomyTypeName": "Cooking Method"
        }
      ],
      "Riserecipe": [
        {
          "GRIN": 583759,
          "RecipeId": 211812,
          "RecipeIndustrySector": "Retail",
          "RecipeType": "Internal"
        }
      ],
      "RomanceText": "Use up that leftover rice with our Kimchi-Fried Rice recipe. Kimchi-Fried Rice is a great way to add surprising flavors to your everyday menu choices.",
      "SEOName": "kimchi-fried-rice-211812",
      "Tips": [
        {
          "RecipeId": 211812,
          "Sequence": 2,
          "TipDescription": "For a meatless version, substitute extra chopped fresh vegetables, such as bell peppers, carrots and/or zucchini, for the ham. ",
          "TipID": 1,
          "TipName": "Variation"
        },
        {
          "RecipeId": 211812,
          "Sequence": 3,
          "TipDescription": "This is a great way to use leftover cooked rice.",
          "TipID": 2,
          "TipName": "Note"
        }
      ],
      "TotalTime": 20,
      "TradeMarkInfo": null,
      "Video": [],
      "Yield": "2 servings, 1 cup each"
    }
  ]
}