{
  "Metadata": {
    "PageCount": 1,
    "PageNo": 0,
    "TotalCount": 0
  },
  "Recipes": [
    {
      "AdServingKeywords": "Chocolate,Dairy,Dessert,Easy,Nutrition and Well-Being,Frozen Dessert,Pies and Tarts,Pudding,All Seasons,St. Patricks Day,Bakers,Cool Whip,Jell-O,Budget",
      "AlternateLanguageRecipes": [],
      "Assets": [
        {
          "PictureFormats": [
            {
              "rendition": "290x194",
              "url": "http://assets.kraftfoods.com/recipe_images/opendeploy/501321_1_1_retail-50e37fb6f0684c748c3cfae3b983375daa1cbb4b_291x194.jpg"
            },
            {
              "rendition": "306x204",
              "url": "http://assets.kraftfoods.com/recipe_images/opendeploy/501321_1_1_retail-50e37fb6f0684c748c3cfae3b983375daa1cbb4b_306x204.jpg"
            },
            {
              "rendition": "640x428",
              "url": "http://assets.kraftfoods.com/recipe_images/opendeploy/501321_1_1_retail-50e37fb6f0684c748c3cfae3b983375daa1cbb4b_642x428.jpg"
            }
          ],
          "author": "Kraft",
          "id": "2",
          "imageType": "Primary",
          "mimeType": "image/jpeg",
          "publicationDate": null,
          "status": "1",
          "title": "501321_1_1_retail-50e37fb6f0684c748c3cfae3b983375daa1cbb4b",
          "type": "image"
        }
      ],
      "AverageRating": 4.5,
      "BrandId": 1,
      "Branding": null,
      "CSSSkins": null,
      "CarbCounter": "1",
      "Categories": [
        {
          "CategoryID": 4,
          "CategoryName": "Cakes/Pies/Cheesecakes",
          "CategoryRank": 5,
          "SubCategoryID": 14,
          "SubCategoryName": "Pies: Pudding",
          "SubCategoryRank": 140
        },
        {
          "CategoryID": 11,
          "CategoryName": "Primary",
          "CategoryRank": 0,
          "SubCategoryID": 103,
          "SubCategoryName": "Desserts",
          "SubCategoryRank": 40
        },
        {
          "CategoryID": 759,
          "CategoryName": "Desserts",
          "CategoryRank": 13,
          "SubCategoryID": 2581,
          "SubCategoryName": "Pastry",
          "SubCategoryRank": 1
        },
        {
          "CategoryID": 765,
          "CategoryName": "Pies & Pastries",
          "CategoryRank": 19,
          "SubCategoryID": 2611,
          "SubCategoryName": "Sweet",
          "SubCategoryRank": 1
        }
      ],
      "Classifications": [
        {
          "ClassficationId": 14,
          "ClassificationName": "Generally Nutritious"
        },
        {
          "ClassficationId": 119,
          "ClassificationName": "Diabetes Center"
        }
      ],
      "ComplimentaryRecipes": null,
      "CookingMethod": null,
      "Copyright": null,
      "Courses": [
        "Desserts"
      ],
      "DietExchange": "1 Carbohydrate,1 Fat",
      "DishDetails": [
        {
          "Text": "desserts",
          "Url": "/recipes/dessert/main.aspx"
        },
        {
          "Text": "fruity desserts",
          "Url": "/recipes/dessert/fruitydesserts.aspx"
        },
        {
          "Text": "gelatin desserts",
          "Url": "/recipes/dessert/gelatindesserts.aspx"
        },
        {
          "Text": "layered desserts",
          "Url": "/recipes/dessert/layereddesserts.aspx"
        },
        {
          "Text": "brownie recipes",
          "Url": "/recipes/dessert/brownie-recipes/main.aspx"
        },
        {
          "Text": "budget desserts",
          "Url": "/recipes/budget/budget-desserts.aspx"
        },
        {
          "Text": "no bake desserts",
          "Url": "/recipes/dessert/nobakedesserts.aspx"
        },
        {
          "Text": "pumpkin recipes",
          "Url": "/recipes/dessert/pumpkin-recipes.aspx"
        },
        {
          "Text": "chocolate cake recipes",
          "Url": "/recipes/dessert/chocolate-cake-recipes/main.aspx"
        },
        {
          "Text": "cheesecake recipes",
          "Url": "/recipes/dessert/cheesecake-center/cheesecake-recipes/main.aspx"
        },
        {
          "Text": "chocolate lovers recipes",
          "Url": "/recipes/dessert/chocolate-center/chocolateloversrecipes.aspx"
        },
        {
          "Text": "classic desserts",
          "Url": "/recipes/dessert/classicdesserts.aspx"
        },
        {
          "Text": "cookie ball recipes",
          "Url": "/recipes/dessert/cookie-ball-recipes/main.aspx"
        },
        {
          "Text": "cookie recipes",
          "Url": "/recipes/dessert/cookie-recipes/main.aspx"
        },
        {
          "Text": "cupcake recipes",
          "Url": "/recipes/dessert/cupcake-recipes/main.aspx"
        },
        {
          "Text": "healthy living desserts",
          "Url": "/healthy-living-ideas/diabetes-center/recipes/dessert-recipes.aspx"
        },
        {
          "Text": "pumpkin pie recipes",
          "Url": "/recipes/holidays-and-entertaining/holidays/Thanksgiving/pumpkin-pie-recipes.aspx"
        },
        {
          "Text": "pie recipes",
          "Url": "/recipes/dessert/pie-recipes/main.aspx"
        }
      ],
      "EndDate": "/Date(-62135575200000-0600)/",
      "HasVideo": false,
      "Ingredients": [
        {
          "FullMeasure": "4",
          "FullWeight": "",
          "IngredientGridHeaders": null,
          "IngredientID": 923,
          "IngredientName": "chocolate wafer cookies",
          "IngredientStep": 10,
          "LanguageId": 0,
          "PostPreparation": ", divided",
          "PrePreparation": "",
          "QuantityNum": 4,
          "QuantityText": "4",
          "QuantityUnit": "",
          "RecipeIngredientID": 6379557,
          "TrialMeasure": "",
          "TrialWeight": ""
        },
        {
          "FullMeasure": "1 pkg.",
          "FullWeight": "",
          "IngredientGridHeaders": null,
          "IngredientID": 4833,
          "IngredientName": "JELL-O Pistachio Flavor Sugar Free Fat Free Instant Pudding",
          "IngredientStep": 20,
          "LanguageId": 0,
          "PostPreparation": "",
          "PrePreparation": "(1 oz.)",
          "QuantityNum": 1,
          "QuantityText": "1",
          "QuantityUnit": "pkg.",
          "RecipeIngredientID": 6379559,
          "TrialMeasure": "",
          "TrialWeight": ""
        },
        {
          "FullMeasure": "1-1/2 cups",
          "FullWeight": "",
          "IngredientGridHeaders": null,
          "IngredientID": 4717,
          "IngredientName": "fat-free milk",
          "IngredientStep": 30,
          "LanguageId": 0,
          "PostPreparation": "",
          "PrePreparation": "cold",
          "QuantityNum": 1,
          "QuantityText": "1-1/2",
          "QuantityUnit": "cups",
          "RecipeIngredientID": 6379555,
          "TrialMeasure": "",
          "TrialWeight": ""
        },
        {
          "FullMeasure": "1/4 tsp.",
          "FullWeight": "",
          "IngredientGridHeaders": null,
          "IngredientID": 1412,
          "IngredientName": "peppermint extract",
          "IngredientStep": 40,
          "LanguageId": 0,
          "PostPreparation": "",
          "PrePreparation": "",
          "QuantityNum": 0,
          "QuantityText": "1/4",
          "QuantityUnit": "tsp.",
          "RecipeIngredientID": 6379554,
          "TrialMeasure": "",
          "TrialWeight": ""
        },
        {
          "FullMeasure": "2 cups",
          "FullWeight": "",
          "IngredientGridHeaders": null,
          "IngredientID": 138,
          "IngredientName": "COOL WHIP LITE Whipped Topping",
          "IngredientStep": 50,
          "LanguageId": 0,
          "PostPreparation": "",
          "PrePreparation": "thawed",
          "QuantityNum": 2,
          "QuantityText": "2",
          "QuantityUnit": "cups",
          "RecipeIngredientID": 6379556,
          "TrialMeasure": "",
          "TrialWeight": ""
        },
        {
          "FullMeasure": "1 oz.",
          "FullWeight": "",
          "IngredientGridHeaders": null,
          "IngredientID": 66,
          "IngredientName": "BAKER'S Semi-Sweet Chocolate",
          "IngredientStep": 60,
          "LanguageId": 0,
          "PostPreparation": ", finely chopped",
          "PrePreparation": "",
          "QuantityNum": 1,
          "QuantityText": "1",
          "QuantityUnit": "oz.",
          "RecipeIngredientID": 6379558,
          "TrialMeasure": "",
          "TrialWeight": ""
        }
      ],
      "IsHealthyLiving": true,
      "KRLId": "501321",
      "KeyIngredients": [
        "Chocolate",
        "Dairy"
      ],
      "Keywords": "pistachio pudding mix,baking chocolate,chocolate,cookies,COOL WHIP LITE,extract,JELL-O Sugar-Free Pudding,milk,pudding mix-instant-sugar free,BAKER'S Semi-Sweet Chocolate,semi-sweet chocolate,whipped topping-reduced fat,chocolate wafer cookies,chocolate-semi-sweet,peppermint extract,Dessert,Easy,Nutrition and Well-Being,All Seasons,St. Patricks Day,Frozen Dessert,Pies and Tarts,Budget",
      "LanguageId": 1,
      "LifeStyles": [
        "Generally Nutritious",
        "Diabetes Center"
      ],
      "NumberOfIngredients": 6,
      "NumberOfRatings": 69,
      "NumberOfRatingsWithComments": "54",
      "NumberOfServings": "8 servings",
      "NumberOfTrialServings": "",
      "NutritionBonus": "Treat yourself to the cool, minty chocolate flavor of this refreshing frozen pie - a delicious part of your healthful eating plan.  ",
      "NutritionExchangeItemId": 3,
      "NutritionGridItems": null,
      "NutritionItems": [
        {
          "DisplayOrder": 1,
          "Document": null,
          "NutritionItemID": 3,
          "NutritionItemName": "Calories",
          "Predriscriptor": "",
          "Quantity": 100,
          "Unit": "          "
        },
        {
          "DisplayOrder": 2,
          "Document": "fat_cholesterol.html",
          "NutritionItemID": 4,
          "NutritionItemName": "Total fat",
          "Predriscriptor": "",
          "Quantity": 4,
          "Unit": "g         "
        },
        {
          "DisplayOrder": 3,
          "Document": "fat_cholesterol.html",
          "NutritionItemID": 9,
          "NutritionItemName": "Saturated fat",
          "Predriscriptor": "",
          "Quantity": 3,
          "Unit": "g         "
        },
        {
          "DisplayOrder": 7,
          "Document": "fat_cholesterol.html",
          "NutritionItemID": 2,
          "NutritionItemName": "Cholesterol",
          "Predriscriptor": "",
          "Quantity": 0,
          "Unit": "mg        "
        },
        {
          "DisplayOrder": 8,
          "Document": "sodium.html",
          "NutritionItemID": 8,
          "NutritionItemName": "Sodium",
          "Predriscriptor": "",
          "Quantity": 190,
          "Unit": "mg        "
        },
        {
          "DisplayOrder": 10,
          "Document": "carbs_sugars_fiber.html",
          "NutritionItemID": 1,
          "NutritionItemName": "Carbohydrate",
          "Predriscriptor": "",
          "Quantity": 15,
          "Unit": "g         "
        },
        {
          "DisplayOrder": 11,
          "Document": "carbs_sugars_fiber.html",
          "NutritionItemID": 7,
          "NutritionItemName": "Dietary fiber",
          "Predriscriptor": "Less than",
          "Quantity": 1,
          "Unit": "g         "
        },
        {
          "DisplayOrder": 12,
          "Document": "carbs_sugars_fiber.html",
          "NutritionItemID": 5,
          "NutritionItemName": "Sugars",
          "Predriscriptor": "",
          "Quantity": 8,
          "Unit": "g         "
        },
        {
          "DisplayOrder": 13,
          "Document": null,
          "NutritionItemID": 6,
          "NutritionItemName": "Protein",
          "Predriscriptor": "",
          "Quantity": 2,
          "Unit": "g         "
        },
        {
          "DisplayOrder": 14,
          "Document": null,
          "NutritionItemID": 10,
          "NutritionItemName": "Vitamin A",
          "Predriscriptor": "",
          "Quantity": 2,
          "Unit": "%DV       "
        },
        {
          "DisplayOrder": 15,
          "Document": null,
          "NutritionItemID": 11,
          "NutritionItemName": "Vitamin C",
          "Predriscriptor": "",
          "Quantity": 0,
          "Unit": "%DV       "
        },
        {
          "DisplayOrder": 16,
          "Document": "dairy_and_calcium.html",
          "NutritionItemID": 12,
          "NutritionItemName": "Calcium",
          "Predriscriptor": "",
          "Quantity": 6,
          "Unit": "%DV       "
        },
        {
          "DisplayOrder": 17,
          "Document": null,
          "NutritionItemID": 13,
          "NutritionItemName": "Iron",
          "Predriscriptor": "",
          "Quantity": 0,
          "Unit": "%DV       "
        }
      ],
      "NutritionServingText": " ",
      "PrepStepImage": null,
      "PreparationDescription": "Crush 2 wafers; sprinkle onto bottom of 9-inch pie plate sprayed with cooking spray.$Beat pudding mix, milk and extract in large bowl with whisk 2 min.  Stir in COOL WHIP and chopped chocolate; spoon over wafer crumbs in pie plate.  Top with remaining wafers, cut into quarters.$Freeze 6 hours or until firm.  Remove pie from freezer 10 min. before serving; let stand at room temperature to soften slightly before cutting to serve.  ",
      "PreparationPreText": "",
      "PreparationSteps": [
        {
          "Description": "Crush 2 wafers; sprinkle onto bottom of 9-inch pie plate sprayed with cooking spray.",
          "PreparationStepImage": {
            "PictureFormats": [],
            "author": null,
            "id": null,
            "imageType": null,
            "mimeType": null,
            "publicationDate": null,
            "status": null,
            "title": null,
            "type": null
          },
          "Sequence": 1
        },
        {
          "Description": "Beat pudding mix, milk and extract in large bowl with whisk 2 min.  Stir in COOL WHIP and chopped chocolate; spoon over wafer crumbs in pie plate.  Top with remaining wafers, cut into quarters.",
          "PreparationStepImage": {
            "PictureFormats": [],
            "author": null,
            "id": null,
            "imageType": null,
            "mimeType": null,
            "publicationDate": null,
            "status": null,
            "title": null,
            "type": null
          },
          "Sequence": 2
        },
        {
          "Description": "Freeze 6 hours or until firm.  Remove pie from freezer 10 min. before serving; let stand at room temperature to soften slightly before cutting to serve.  ",
          "PreparationStepImage": {
            "PictureFormats": [],
            "author": null,
            "id": null,
            "imageType": null,
            "mimeType": null,
            "publicationDate": null,
            "status": null,
            "title": null,
            "type": null
          },
          "Sequence": 3
        }
      ],
      "PreparationTime": 15,
      "Promotion": null,
      "Ratings": {
        "TotalCount": 69,
        "PageCount": 10,
        "PageNo": 1,
        "Rating": [
          {
            "Comment": "",
            "DisplayName": false,
            "RatingValue": 4,
            "SubmitDate": "/Date(1372263382000-0500)/",
            "UpdatedDate": "/Date(1372263382000-0500)/",
            "UserName": "lal950"
          },
          {
            "Comment": "Quite flavorful! Ours did need six hours to set up. In fact, six hours turned it to ice!",
            "DisplayName": true,
            "RatingValue": 5,
            "SubmitDate": "/Date(1332199316000-0500)/",
            "UpdatedDate": "/Date(1332199316000-0500)/",
            "UserName": "sharpeipup"
          },
          {
            "Comment": "I loved this for a healthy dessert - the only problem was I couldn't stop eating it! The wafer crust is a little strange, but tastes wonderful. If you enjoy chocolate chip mint ice cream (like I do) then you will love this! ",
            "DisplayName": true,
            "RatingValue": 5,
            "SubmitDate": "/Date(1329528851000-0600)/",
            "UpdatedDate": "/Date(1329528851000-0600)/",
            "UserName": "PharmerNessa"
          },
          {
            "Comment": "Amazing! I would add just a touch more peppermint extract. I used a regular chocolate pie crust (and baked it with a beaten egg swiped over it) and it was perfect! I cut up a York Peppermint Patty for the topping--looked nice and gave it an extra KICK!  ",
            "DisplayName": true,
            "RatingValue": 5,
            "SubmitDate": "/Date(1328478884000-0600)/",
            "UpdatedDate": "/Date(1328478884000-0600)/",
            "UserName": "michelle.sanderson"
          },
          {
            "Comment": "I made the crust with crushed Chocolate Cheerios. Very tasty. Everyone love it. so light in calories. A good after dinner treat!",
            "DisplayName": true,
            "RatingValue": 5,
            "SubmitDate": "/Date(1326402871000-0600)/",
            "UpdatedDate": "/Date(1326403295000-0600)/",
            "UserName": "cjustesen"
          },
          {
            "Comment": "I made with crushed nilla wafers and was good, will make again!",
            "DisplayName": true,
            "RatingValue": 4,
            "SubmitDate": "/Date(1314029282000-0500)/",
            "UpdatedDate": "/Date(1314029282000-0500)/",
            "UserName": "kelleybud01"
          },
          {
            "Comment": "This pie is awesome!  Easy to make and has a good peppermint taste....so yummy!",
            "DisplayName": true,
            "RatingValue": 5,
            "SubmitDate": "/Date(1312407432000-0500)/",
            "UpdatedDate": "/Date(1312407432000-0500)/",
            "UserName": "Cardldy13"
          },
          {
            "Comment": "We really liked this!!!!!",
            "DisplayName": false,
            "RatingValue": 5,
            "SubmitDate": "/Date(1309926462000-0500)/",
            "UpdatedDate": "/Date(1309926462000-0500)/",
            "UserName": "dazyjune"
          },
          {
            "Comment": "It is so creamy and tasted so good.",
            "DisplayName": true,
            "RatingValue": 5,
            "SubmitDate": "/Date(1300406837000-0500)/",
            "UpdatedDate": "/Date(1300406837000-0500)/",
            "UserName": "angelgirl1961247"
          },
          {
            "Comment": "Outstanding and easy to make.  Could not find chocolate wafers, but used premade oreo cookie pie crust as suggested by another reviewer.",
            "DisplayName": true,
            "RatingValue": 5,
            "SubmitDate": "/Date(1283447806000-0500)/",
            "UpdatedDate": "/Date(1283447806000-0500)/",
            "UserName": "MCoratello"
          }
        ]
      },
      "RecipeDisplayFormatId": 5,
      "RecipeId": 54217,
      "RecipeName": "Grasshopper Pudding Pie",
      "RecipeType": 0,
      "RelatedData": {
        "RelatedBrands": null,
        "RelatedProducts": null,
        "RelatedRecipes": {
          "DefaultTopCount": 5,
          "Recipe": [
            {
              "AverageRating": 4.5,
              "HasVideo": false,
              "IsHealthyLiving": false,
              "NumberOfRatings": 52,
              "PhotoName": "109578.jpg",
              "PhotoUrl": "http://assets.kraftfoods.com/recipe_images/opendeploy/109578.jpg",
              "RecipeId": 109578,
              "RecipeName": "Non-Alcoholic Grasshopper Pie Recipe",
              "SEOName": "non-alcoholic-grasshopper-pie-recipe-109578",
              "ThumbnailPhoto": null
            },
            {
              "AverageRating": 4.2,
              "HasVideo": false,
              "IsHealthyLiving": false,
              "NumberOfRatings": 63,
              "PhotoName": "54812.jpg",
              "PhotoUrl": "http://assets.kraftfoods.com/recipe_images/opendeploy/54812.jpg",
              "RecipeId": 54812,
              "RecipeName": "Grasshopper Parfaits",
              "SEOName": "grasshopper-parfaits-54812",
              "ThumbnailPhoto": null
            },
            {
              "AverageRating": 5,
              "HasVideo": false,
              "IsHealthyLiving": false,
              "NumberOfRatings": 1,
              "PhotoName": "Oreo-Frozen-Grasshopper-Pie-56588B.jpg",
              "PhotoUrl": "http://assets.kraftfoods.com/recipe_images/opendeploy/Oreo-Frozen-Grasshopper-Pie-56588B.jpg",
              "RecipeId": 138515,
              "RecipeName": "OREO Frozen Grasshopper Pie",
              "SEOName": "oreo-frozen-grasshopper-pie-138515",
              "ThumbnailPhoto": null
            },
            {
              "AverageRating": 4,
              "HasVideo": false,
              "IsHealthyLiving": false,
              "NumberOfRatings": 4,
              "PhotoName": "51098.jpg",
              "PhotoUrl": "http://assets.kraftfoods.com/recipe_images/opendeploy/51098.jpg",
              "RecipeId": 51098,
              "RecipeName": "Easy Grasshopper Pie",
              "SEOName": "easy-grasshopper-pie-51098",
              "ThumbnailPhoto": null
            },
            {
              "AverageRating": 4.7,
              "HasVideo": false,
              "IsHealthyLiving": false,
              "NumberOfRatings": 3,
              "PhotoName": "56940.jpg",
              "PhotoUrl": "http://assets.kraftfoods.com/recipe_images/opendeploy/56940.jpg",
              "RecipeId": 56940,
              "RecipeName": "Simple Grasshopper Mallow Pie",
              "SEOName": "simple-grasshopper-mallow-pie-56940",
              "ThumbnailPhoto": null
            }
          ],
          "TotalCount": 1623
        }
      },
      "RiseIngredients": [],
      "RiseTaxonomy": [],
      "Riserecipe": [
        {
          "GRIN": 501321,
          "RecipeId": 54217,
          "RecipeIndustrySector": "Retail",
          "RecipeType": "Internal"
        }
      ],
      "RomanceText": "Stick to your smart eating plan with Grasshopper Pudding Pie! Our fluffy and minty Grasshopper Pudding Pie is a sensible, easy-to-make and delicious treat.",
      "SEOName": "grasshopper-pudding-pie-54217",
      "Tips": [
        {
          "RecipeId": 54217,
          "Sequence": 10,
          "TipDescription": "Prepare COOL WHIP Sugar Free Whipped Topping. ",
          "TipID": 2,
          "TipName": "Substitute"
        },
        {
          "RecipeId": 54217,
          "Sequence": 20,
          "TipDescription": "Prepare as directed, using JELL-O Vanilla Flavor Sugar Free Fat Free Instant Pudding and stirring a few drops green food coloring into the pudding mixture before spooning into prepared pie plate. ",
          "TipID": 3,
          "TipName": "Variation  "
        }
      ],
      "TotalTime": 375,
      "TradeMarkInfo": null,
      "Video": [],
      "Yield": "8 servings"
    }
  ]
}