{
  "Metadata": {
    "PageCount": 1,
    "PageNo": 0,
    "TotalCount": 0
  },
  "Recipes": [
    {
      "AdServingKeywords": "Appetizer,Cheddar,Cheese,Cream Cheese,Jalapeno,Monterey Jack,Peppers,All Seasons,Kraft Cheese,Kraft Shredded Cheese,Philadelphia,Spicy",
      "AlternateLanguageRecipes": [],
      "Assets": [
        {
          "PictureFormats": [
            {
              "rendition": "290x194",
              "url": "http://assets.kraftfoods.com/recipe_images/opendeploy/75389_290x194.jpg"
            },
            {
              "rendition": "640x428",
              "url": "http://assets.kraftfoods.com/recipe_images/opendeploy/75389_640x428.jpg"
            },
            {
              "rendition": "600x250",
              "url": "http://assets.kraftfoods.com/recipe_images/opendeploy/75389_600x250.jpg"
            }
          ],
          "author": "BulKUpload",
          "id": "2",
          "imageType": "Primary",
          "mimeType": "image/jpeg",
          "publicationDate": null,
          "status": "1",
          "title": "75389",
          "type": "image"
        },
        {
          "PictureFormats": [
            {
              "rendition": "140x90",
              "url": "http://assets.kraftfoods.com/recipe_images/opendeploy/75389_KRL_K46092V0_OR1_OH_140x90.jpg"
            },
            {
              "rendition": "300x250",
              "url": "http://assets.kraftfoods.com/recipe_images/opendeploy/75389_KRL_K46092V0_OR1_OH_300x250.jpg"
            },
            {
              "rendition": "960x300",
              "url": "http://assets.kraftfoods.com/recipe_images/opendeploy/75389_KRL_K46092V0_OR1_OH_960x300.jpg"
            }
          ],
          "author": null,
          "id": "2",
          "imageType": "Primary",
          "mimeType": "image/jpeg",
          "publicationDate": null,
          "status": "1",
          "title": "75389_KRL_K46092V0_OR1_OH",
          "type": "image"
        },
        {
          "PictureFormats": [
            {
              "rendition": "300x200",
              "url": "http://assets.kraftfoods.com/recipe_images/75389.jpg"
            }
          ],
          "author": "BulKUpload",
          "id": "0",
          "imageType": "LANDSCAPE",
          "mimeType": "image/jpeg",
          "publicationDate": null,
          "status": "1",
          "title": "75389.jpg",
          "type": "image"
        }
      ],
      "AverageRating": 4.4,
      "BrandId": 1,
      "Branding": null,
      "CSSSkins": null,
      "CarbCounter": null,
      "Categories": [
        {
          "CategoryID": 6,
          "CategoryName": "Appetizers/Snacks",
          "CategoryRank": 1,
          "SubCategoryID": 128,
          "SubCategoryName": "Spreads & Cheeseballs",
          "SubCategoryRank": 120
        },
        {
          "CategoryID": 11,
          "CategoryName": "Primary",
          "CategoryRank": 0,
          "SubCategoryID": 96,
          "SubCategoryName": "Appetizers & Snacks",
          "SubCategoryRank": 10
        },
        {
          "CategoryID": 758,
          "CategoryName": "Marinades, Sauces, Spreads & Frostings",
          "CategoryRank": 12,
          "SubCategoryID": 2575,
          "SubCategoryName": "Cold",
          "SubCategoryRank": 1
        },
        {
          "CategoryID": 1761,
          "CategoryName": "Philly Appetizers",
          "CategoryRank": 0,
          "SubCategoryID": 16848,
          "SubCategoryName": "Brick Cream Cheese",
          "SubCategoryRank": 0
        },
        {
          "CategoryID": 1761,
          "CategoryName": "Philly Appetizers",
          "CategoryRank": 0,
          "SubCategoryID": 16853,
          "SubCategoryName": "Use for All",
          "SubCategoryRank": 0
        }
      ],
      "Classifications": [],
      "ComplimentaryRecipes": [
        {
          "AverageRating": 0,
          "HasVideo": false,
          "IsHealthyLiving": false,
          "NumberOfRatings": 0,
          "PhotoName": null,
          "PhotoUrl": null,
          "RecipeId": 144248,
          "RecipeName": null,
          "SEOName": "ginger-crumb-crust-144248",
          "ThumbnailPhoto": ""
        }
      ],
      "CookingMethod": null,
      "Copyright": null,
      "Courses": [
        "Appetizers"
      ],
      "DietExchange": null,
      "DishDetails": [
        {
          "Text": "appetizers",
          "Url": "/recipes/appetizers/main.aspx"
        },
        {
          "Text": "cold appetizers",
          "Url": "/recipes/appetizers/coldappetizers.aspx"
        },
        {
          "Text": "cheese plates",
          "Url": "/recipes/appetizers/entertainingcheeseplates.aspx"
        },
        {
          "Text": "hot appetizers",
          "Url": "/recipes/appetizers/hotappetizers.aspx"
        },
        {
          "Text": "quick appetizers",
          "Url": "/recipes/appetizers/quick.aspx"
        },
        {
          "Text": "salsa recipes",
          "Url": "/recipes/appetizers/salsa-recipes/main.aspx"
        },
        {
          "Text": "seafood appetizers",
          "Url": "/recipes/dinner/seafood/appetizers/main.aspx"
        },
        {
          "Text": "dip recipes",
          "Url": "/recipes/appetizers/dip-recipes/main.aspx"
        }
      ],
      "EndDate": "/Date(-62135575200000-0600)/",
      "HasVideo": false,
      "Ingredients": [
        {
          "FullMeasure": null,
          "FullWeight": null,
          "IngredientGridHeaders": null,
          "IngredientID": 68324,
          "IngredientName": "(8 oz.) PHILADELPHIA Cream Cheese, softened",
          "IngredientStep": 10,
          "LanguageId": 0,
          "PostPreparation": "",
          "PrePreparation": "",
          "QuantityNum": 1,
          "QuantityText": "1",
          "QuantityUnit": "pkg.",
          "RecipeIngredientID": 30151,
          "TrialMeasure": null,
          "TrialWeight": null
        },
        {
          "FullMeasure": null,
          "FullWeight": null,
          "IngredientGridHeaders": null,
          "IngredientID": 69154,
          "IngredientName": "KRAFT Shredded Cheddar & Monterey Jack Cheeses",
          "IngredientStep": 20,
          "LanguageId": 0,
          "PostPreparation": "",
          "PrePreparation": "",
          "QuantityNum": 0,
          "QuantityText": "1-1/2 ",
          "QuantityUnit": "cups",
          "RecipeIngredientID": 26911,
          "TrialMeasure": null,
          "TrialWeight": null
        },
        {
          "FullMeasure": null,
          "FullWeight": null,
          "IngredientGridHeaders": null,
          "IngredientID": 68092,
          "IngredientName": "canned chopped jalapeño peppers, drained",
          "IngredientStep": 30,
          "LanguageId": 0,
          "PostPreparation": "",
          "PrePreparation": "",
          "QuantityNum": 2,
          "QuantityText": "2",
          "QuantityUnit": "Tbsp.",
          "RecipeIngredientID": 25810,
          "TrialMeasure": null,
          "TrialWeight": null
        },
        {
          "FullMeasure": null,
          "FullWeight": null,
          "IngredientGridHeaders": null,
          "IngredientID": 68797,
          "IngredientName": "crushed red pepper",
          "IngredientStep": 40,
          "LanguageId": 0,
          "PostPreparation": "",
          "PrePreparation": "",
          "QuantityNum": 1,
          "QuantityText": "1",
          "QuantityUnit": "tsp.",
          "RecipeIngredientID": 28489,
          "TrialMeasure": null,
          "TrialWeight": null
        },
        {
          "FullMeasure": null,
          "FullWeight": null,
          "IngredientGridHeaders": null,
          "IngredientID": 67946,
          "IngredientName": "hot pepper sauce ",
          "IngredientStep": 50,
          "LanguageId": 0,
          "PostPreparation": "",
          "PrePreparation": "",
          "QuantityNum": 1,
          "QuantityText": "1",
          "QuantityUnit": "tsp.",
          "RecipeIngredientID": 24228,
          "TrialMeasure": null,
          "TrialWeight": null
        },
        {
          "FullMeasure": null,
          "FullWeight": null,
          "IngredientGridHeaders": null,
          "IngredientID": 68271,
          "IngredientName": "RITZ Crackers",
          "IngredientStep": 60,
          "LanguageId": 0,
          "PostPreparation": "",
          "PrePreparation": "",
          "QuantityNum": 80,
          "QuantityText": "80",
          "QuantityUnit": "",
          "RecipeIngredientID": 27706,
          "TrialMeasure": null,
          "TrialWeight": null
        }
      ],
      "IsHealthyLiving": false,
      "KRLId": "550071",
      "KeyIngredients": [],
      "Keywords": "Appetizer,All Seasons,Spicy",
      "LanguageId": 1,
      "LifeStyles": [],
      "NumberOfIngredients": 6,
      "NumberOfRatings": 25,
      "NumberOfRatingsWithComments": "19",
      "NumberOfServings": "Makes 16 servings, 2 Tbsp. spread and 5 crackers each.",
      "NumberOfTrialServings": null,
      "NutritionBonus": null,
      "NutritionExchangeItemId": 0,
      "NutritionGridItems": null,
      "NutritionItems": [
        {
          "DisplayOrder": 0,
          "Document": null,
          "NutritionItemID": 384,
          "NutritionItemName": "Vitamin D",
          "Predriscriptor": "",
          "Quantity": 0,
          "Unit": "%DV       "
        },
        {
          "DisplayOrder": 0,
          "Document": null,
          "NutritionItemID": 385,
          "NutritionItemName": "Vitamin E",
          "Predriscriptor": "",
          "Quantity": 0,
          "Unit": "%DV       "
        },
        {
          "DisplayOrder": 0,
          "Document": null,
          "NutritionItemID": 388,
          "NutritionItemName": "Potassium",
          "Predriscriptor": "",
          "Quantity": 0,
          "Unit": "%DV       "
        },
        {
          "DisplayOrder": 0,
          "Document": null,
          "NutritionItemID": 390,
          "NutritionItemName": "Added Sugars",
          "Predriscriptor": "",
          "Quantity": 0,
          "Unit": "g         "
        },
        {
          "DisplayOrder": 1,
          "Document": null,
          "NutritionItemID": 371,
          "NutritionItemName": "Calories",
          "Predriscriptor": "",
          "Quantity": 160,
          "Unit": "          "
        },
        {
          "DisplayOrder": 2,
          "Document": null,
          "NutritionItemID": 376,
          "NutritionItemName": "Total fat",
          "Predriscriptor": "",
          "Quantity": 12,
          "Unit": "g         "
        },
        {
          "DisplayOrder": 3,
          "Document": null,
          "NutritionItemID": 377,
          "NutritionItemName": "Saturated fat",
          "Predriscriptor": "",
          "Quantity": 6,
          "Unit": "g         "
        },
        {
          "DisplayOrder": 4,
          "Document": null,
          "NutritionItemID": 379,
          "NutritionItemName": "Polyunsaturated Fat",
          "Predriscriptor": "",
          "Quantity": 0,
          "Unit": "g         "
        },
        {
          "DisplayOrder": 5,
          "Document": null,
          "NutritionItemID": 378,
          "NutritionItemName": "Monounsaturated Fat",
          "Predriscriptor": "",
          "Quantity": 1,
          "Unit": "g         "
        },
        {
          "DisplayOrder": 6,
          "Document": null,
          "NutritionItemID": 380,
          "NutritionItemName": "Trans Fat",
          "Predriscriptor": "",
          "Quantity": 0,
          "Unit": "g         "
        },
        {
          "DisplayOrder": 7,
          "Document": null,
          "NutritionItemID": 381,
          "NutritionItemName": "Cholesterol",
          "Predriscriptor": "",
          "Quantity": 30,
          "Unit": "mg        "
        },
        {
          "DisplayOrder": 8,
          "Document": null,
          "NutritionItemID": 389,
          "NutritionItemName": "Sodium",
          "Predriscriptor": "",
          "Quantity": 230,
          "Unit": "mg        "
        },
        {
          "DisplayOrder": 10,
          "Document": null,
          "NutritionItemID": 373,
          "NutritionItemName": "Carbohydrate",
          "Predriscriptor": "",
          "Quantity": 11,
          "Unit": "g         "
        },
        {
          "DisplayOrder": 11,
          "Document": null,
          "NutritionItemID": 374,
          "NutritionItemName": "Dietary fiber",
          "Predriscriptor": "",
          "Quantity": 0,
          "Unit": "g         "
        },
        {
          "DisplayOrder": 12,
          "Document": null,
          "NutritionItemID": 375,
          "NutritionItemName": "Sugars",
          "Predriscriptor": "",
          "Quantity": 2,
          "Unit": "g         "
        },
        {
          "DisplayOrder": 13,
          "Document": null,
          "NutritionItemID": 372,
          "NutritionItemName": "Protein",
          "Predriscriptor": "",
          "Quantity": 4,
          "Unit": "g         "
        },
        {
          "DisplayOrder": 14,
          "Document": null,
          "NutritionItemID": 382,
          "NutritionItemName": "Vitamin A",
          "Predriscriptor": "",
          "Quantity": 2,
          "Unit": "%DV       "
        },
        {
          "DisplayOrder": 15,
          "Document": null,
          "NutritionItemID": 383,
          "NutritionItemName": "Vitamin C",
          "Predriscriptor": "",
          "Quantity": 2,
          "Unit": "%DV       "
        },
        {
          "DisplayOrder": 16,
          "Document": null,
          "NutritionItemID": 386,
          "NutritionItemName": "Calcium",
          "Predriscriptor": "",
          "Quantity": 2,
          "Unit": "%DV       "
        },
        {
          "DisplayOrder": 17,
          "Document": null,
          "NutritionItemID": 387,
          "NutritionItemName": "Iron",
          "Predriscriptor": "",
          "Quantity": 2,
          "Unit": "%DV       "
        }
      ],
      "NutritionServingText": null,
      "PrepStepImage": null,
      "PreparationDescription": "Mix all ingredients except crackers. $Refrigerate at least 1 hour before serving. $Serve with crackers.",
      "PreparationPreText": null,
      "PreparationSteps": [
        {
          "Description": "Mix all ingredients except crackers. ",
          "PreparationStepImage": {
            "PictureFormats": [],
            "author": null,
            "id": null,
            "imageType": null,
            "mimeType": null,
            "publicationDate": null,
            "status": null,
            "title": null,
            "type": null
          },
          "Sequence": 1
        },
        {
          "Description": "Refrigerate at least 1 hour before serving. ",
          "PreparationStepImage": {
            "PictureFormats": [],
            "author": null,
            "id": null,
            "imageType": null,
            "mimeType": null,
            "publicationDate": null,
            "status": null,
            "title": null,
            "type": null
          },
          "Sequence": 2
        },
        {
          "Description": "Serve with crackers.",
          "PreparationStepImage": {
            "PictureFormats": [],
            "author": null,
            "id": null,
            "imageType": null,
            "mimeType": null,
            "publicationDate": null,
            "status": null,
            "title": null,
            "type": null
          },
          "Sequence": 3
        }
      ],
      "PreparationTime": 5,
      "Promotion": null,
      "Ratings": {
        "TotalCount": 25,
        "PageCount": 10,
        "PageNo": 1,
        "Rating": [
          {
            "Comment": "Love it! I add chopped cooked shrimp to it and serve it bubbly hot. Sooo good!",
            "DisplayName": true,
            "RatingValue": 5,
            "SubmitDate": "/Date(1345265900000-0500)/",
            "UpdatedDate": "/Date(1345265900000-0500)/",
            "UserName": "shae324"
          },
          {
            "Comment": "",
            "DisplayName": true,
            "RatingValue": 5,
            "SubmitDate": "/Date(1318050081000-0500)/",
            "UpdatedDate": "/Date(1318050081000-0500)/",
            "UserName": "sarahmelanie313"
          },
          {
            "Comment": "",
            "DisplayName": false,
            "RatingValue": 5,
            "SubmitDate": "/Date(1264004676000-0600)/",
            "UpdatedDate": "/Date(1264004676000-0600)/",
            "UserName": "saladiscool"
          },
          {
            "Comment": "LOVED IT! My family is a big fan of spice...the hotter the better so they were all into this! Great with tortilla chips too!",
            "DisplayName": true,
            "RatingValue": 5,
            "SubmitDate": "/Date(1244938297000-0500)/",
            "UpdatedDate": "/Date(1244938362000-0500)/",
            "UserName": "saeemsat"
          },
          {
            "Comment": "",
            "DisplayName": true,
            "RatingValue": 5,
            "SubmitDate": "/Date(1232933594000-0600)/",
            "UpdatedDate": "/Date(1232933594000-0600)/",
            "UserName": "g8trchomp"
          },
          {
            "Comment": "",
            "DisplayName": true,
            "RatingValue": 5,
            "SubmitDate": "/Date(1215825685000-0500)/",
            "UpdatedDate": "/Date(1215825685000-0500)/",
            "UserName": "lillian1921"
          },
          {
            "Comment": "THIS WAS WONDERFUL - DISREGARD PREV NOTE - GOT MY RECIPES MIXED UP - DUH!",
            "DisplayName": true,
            "RatingValue": 4,
            "SubmitDate": "/Date(1198006900000-0600)/",
            "UpdatedDate": "/Date(1198006979000-0600)/",
            "UserName": "terihecke312"
          },
          {
            "Comment": "This was very tasty!  Loved the kick!  Next time, I think I will make it as a burger or taco  topping:)",
            "DisplayName": true,
            "RatingValue": 4,
            "SubmitDate": "/Date(1191593738000-0500)/",
            "UpdatedDate": "/Date(1191593738000-0500)/",
            "UserName": "nparillo73"
          },
          {
            "Comment": "This was an easy and very tasty cheese spread.  I used mexican blend cheese (cheddar, monterey, asadero, and quesadilla queso) I also added a little extra jalepeno peppers and about a tablespoon of durkee's 6 pepper blend seasoning.  It added a little more spice and peppery flavor (I love spicy), but not too much that other's couldn't enjoy.  I will definitely make this again and will continue to experiment adding other spices",
            "DisplayName": true,
            "RatingValue": 4,
            "SubmitDate": "/Date(1183653985000-0500)/",
            "UpdatedDate": "/Date(1183653985000-0500)/",
            "UserName": "gatordebbie"
          },
          {
            "Comment": "Yum!  I love spicy food so I added more hot sauce to it and it was very good!",
            "DisplayName": false,
            "RatingValue": 4,
            "SubmitDate": "/Date(1178054940000-0500)/",
            "UpdatedDate": "/Date(1178054940000-0500)/",
            "UserName": "sep188269"
          }
        ]
      },
      "RecipeDisplayFormatId": 0,
      "RecipeId": 75389,
      "RecipeName": "3-Pepper Cheese Spread",
      "RecipeType": 0,
      "RelatedData": {
        "RelatedBrands": null,
        "RelatedProducts": null,
        "RelatedRecipes": {
          "DefaultTopCount": 5,
          "Recipe": [
            {
              "AverageRating": 4.6,
              "HasVideo": false,
              "IsHealthyLiving": true,
              "NumberOfRatings": 74,
              "PhotoName": "111545.jpg",
              "PhotoUrl": "http://assets.kraftfoods.com/recipe_images/opendeploy/111545.jpg",
              "RecipeId": 111545,
              "RecipeName": "Creamy Crab and Red Pepper Spread",
              "SEOName": "creamy-crab-red-pepper-spread-111545",
              "ThumbnailPhoto": null
            },
            {
              "AverageRating": 4.3,
              "HasVideo": false,
              "IsHealthyLiving": false,
              "NumberOfRatings": 15,
              "PhotoName": "Favorite_Pizza_Grill_Sandwich.jpg",
              "PhotoUrl": "http://assets.kraftfoods.com/recipe_images/opendeploy/Favorite_Pizza_Grill_Sandwich.jpg",
              "RecipeId": 55587,
              "RecipeName": "Favorite Pizza Grill Sandwich",
              "SEOName": "favorite-pizza-grill-sandwich-55587",
              "ThumbnailPhoto": null
            },
            {
              "AverageRating": 4.6,
              "HasVideo": false,
              "IsHealthyLiving": false,
              "NumberOfRatings": 47,
              "PhotoName": "95125.jpg",
              "PhotoUrl": "http://assets.kraftfoods.com/recipe_images/opendeploy/95125.jpg",
              "RecipeId": 95125,
              "RecipeName": "Savory Three-Cheese Spread",
              "SEOName": "savory-three-cheese-spread-95125",
              "ThumbnailPhoto": null
            },
            {
              "AverageRating": 5,
              "HasVideo": false,
              "IsHealthyLiving": false,
              "NumberOfRatings": 1,
              "PhotoName": "Jalapeno-Popper-Spread-59807.jpg",
              "PhotoUrl": "http://assets.kraftfoods.com/recipe_images/opendeploy/Jalapeno-Popper-Spread-59807.jpg",
              "RecipeId": 162470,
              "RecipeName": "Jalapeño Pepper Spread",
              "SEOName": "jalapeno-pepper-spread-162470",
              "ThumbnailPhoto": null
            },
            {
              "AverageRating": 5,
              "HasVideo": false,
              "IsHealthyLiving": false,
              "NumberOfRatings": 5,
              "PhotoName": "Red-Pepper-Jelly-Spread-46665.jpg",
              "PhotoUrl": "http://assets.kraftfoods.com/recipe_images/opendeploy/Red-Pepper-Jelly-Spread-46665.jpg",
              "RecipeId": 128080,
              "RecipeName": "Red Pepper Jelly Spread",
              "SEOName": "red-pepper-jelly-spread-128080",
              "ThumbnailPhoto": null
            }
          ],
          "TotalCount": 6208
        }
      },
      "RiseIngredients": [
        {
          "IngredientCategory": "KRL",
          "IngredientId": 67946,
          "IngredientIndustrySector": "Retail",
          "IngredientType": "Inedible",
          "ProductId": null,
          "RecipeId": 75389
        },
        {
          "IngredientCategory": "KRL",
          "IngredientId": 68092,
          "IngredientIndustrySector": "Retail",
          "IngredientType": "Inedible",
          "ProductId": null,
          "RecipeId": 75389
        },
        {
          "IngredientCategory": "KRL",
          "IngredientId": 68271,
          "IngredientIndustrySector": "Retail",
          "IngredientType": "Inedible",
          "ProductId": null,
          "RecipeId": 75389
        },
        {
          "IngredientCategory": "KRL",
          "IngredientId": 68324,
          "IngredientIndustrySector": "Retail",
          "IngredientType": "KHC",
          "ProductId": "00068100897210",
          "RecipeId": 75389
        },
        {
          "IngredientCategory": "KRL",
          "IngredientId": 68797,
          "IngredientIndustrySector": "Retail",
          "IngredientType": "Inedible",
          "ProductId": null,
          "RecipeId": 75389
        },
        {
          "IngredientCategory": "KRL",
          "IngredientId": 69154,
          "IngredientIndustrySector": "Retail",
          "IngredientType": "KHC",
          "ProductId": "00021000625161",
          "RecipeId": 75389
        }
      ],
      "RiseTaxonomy": [
        {
          "ParentTaxonomyId": 0,
          "RecipeId": 75389,
          "ResourceName": "Recipe",
          "TaxonomyId": 60,
          "TaxonomyName": "Appetizers",
          "TaxonomyTypeId": 2,
          "TaxonomyTypeName": "Meal Part"
        }
      ],
      "Riserecipe": [
        {
          "GRIN": 550071,
          "RecipeId": 75389,
          "RecipeIndustrySector": "Retail",
          "RecipeType": "Internal"
        }
      ],
      "RomanceText": "Add jalapeños, red pepper & hot pepper sauce to luscious cheeses for a tasty pepper cheese spread. You'll love the spicy flavor of 3-Pepper Cheese Spread. \n",
      "SEOName": "3-pepper-cheese-spread-75389",
      "Tips": [
        {
          "RecipeId": 75389,
          "Sequence": 10,
          "TipDescription": "Savor every bite of this tasty spread. Each 2-Tbsp. serving goes a long way on flavor.",
          "TipID": 1,
          "TipName": "Size Wise"
        },
        {
          "RecipeId": 75389,
          "Sequence": 20,
          "TipDescription": "To serve as a hot spread, heat oven to 350°F.  Mix ingredients as directed; spoon into 9-inch pie plate.  Bake 20 min. or until hot and bubbly.  Serve with crackers.",
          "TipID": 2,
          "TipName": "Variation"
        }
      ],
      "TotalTime": 65,
      "TradeMarkInfo": null,
      "Video": [],
      "Yield": "Makes 16 servings, 2 Tbsp. spread and 5 crackers each."
    }
  ]
}