{
  "Metadata": {
    "PageCount": 1,
    "PageNo": 0,
    "TotalCount": 0
  },
  "Recipes": [
    {
      "AdServingKeywords": "Bacon,Cheddar,Cheese,Dairy,Eggs,Frozen Potatoes,Meat,Sour Cream,Vegetables,Entree,Baked,Intermediate,Quiche,All Seasons,Breakfast/Brunch,Breakstones,Knudsen,Kraft Cheese,Kraft Shredded Cheese,Ore-Ida,Oscar Mayer",
      "AlternateLanguageRecipes": [],
      "Assets": [],
      "AverageRating": 0,
      "BrandId": 1,
      "Branding": null,
      "CSSSkins": null,
      "CarbCounter": null,
      "Categories": [
        {
          "CategoryID": 1,
          "CategoryName": "Breakfast/Brunch",
          "CategoryRank": 4,
          "SubCategoryID": 420,
          "SubCategoryName": "Omelets/Quiche/Soufflés",
          "SubCategoryRank": 30
        },
        {
          "CategoryID": 11,
          "CategoryName": "Primary",
          "CategoryRank": 0,
          "SubCategoryID": 97,
          "SubCategoryName": "Entrees",
          "SubCategoryRank": 50
        },
        {
          "CategoryID": 750,
          "CategoryName": "Breakfast, Brunch & Lunch",
          "CategoryRank": 4,
          "SubCategoryID": 2530,
          "SubCategoryName": "Egg Dishes / Quiches",
          "SubCategoryRank": 1
        }
      ],
      "Classifications": [],
      "ComplimentaryRecipes": [
        {
          "AverageRating": 0,
          "HasVideo": false,
          "IsHealthyLiving": false,
          "NumberOfRatings": 0,
          "PhotoName": null,
          "PhotoUrl": null,
          "RecipeId": 51593,
          "RecipeName": null,
          "SEOName": "philadelphia-dessert-dip-51593",
          "ThumbnailPhoto": "51593.jpg"
        }
      ],
      "CookingMethod": null,
      "Copyright": null,
      "Courses": [
        "Breakfast/brunch"
      ],
      "DietExchange": null,
      "DishDetails": [
        {
          "Text": "breakfast and brunch",
          "Url": "/recipes/breakfast-and-brunch/main.aspx"
        },
        {
          "Text": "kid friendly breakfasts",
          "Url": "/recipes/kid-friendly/getgoingbreakfasts.aspx"
        },
        {
          "Text": "kraft kitchen favorites",
          "Url": "/recipes/breakfast-and-brunch/kke-favorites.aspx"
        },
        {
          "Text": "pancake recipes",
          "Url": "/recipes/breakfast-and-brunch/pancake-recipes/main.aspx"
        },
        {
          "Text": "all about eggs",
          "Url": "/recipes/breakfast-and-brunch/all-about-eggs.aspx"
        },
        {
          "Text": "banana bread recipes",
          "Url": "/recipes/breakfast-and-brunch/banana-bread/main.aspx"
        },
        {
          "Text": "healthy living breakfast recipes",
          "Url": "/healthy-living-ideas/diabetes-center/recipes/breakfast-recipes.aspx"
        },
        {
          "Text": "breakfast sandwiches",
          "Url": "/recipes/sandwich-recipes/breakfast-sandwiches.aspx"
        }
      ],
      "EndDate": "/Date(-62135575200000-0600)/",
      "HasVideo": false,
      "Ingredients": [
        {
          "FullMeasure": "1",
          "FullWeight": "",
          "IngredientGridHeaders": null,
          "IngredientID": 2130,
          "IngredientName": "ready-to-use refrigerated pie crust",
          "IngredientStep": 10,
          "LanguageId": 0,
          "PostPreparation": " (1/2 of 14.1-oz. pkg.)",
          "PrePreparation": "",
          "QuantityNum": 1,
          "QuantityText": "1",
          "QuantityUnit": "",
          "RecipeIngredientID": 5298573,
          "TrialMeasure": "",
          "TrialWeight": ""
        },
        {
          "FullMeasure": "4",
          "FullWeight": "",
          "IngredientGridHeaders": null,
          "IngredientID": 1060,
          "IngredientName": "egg",
          "IngredientStep": 20,
          "LanguageId": 0,
          "PostPreparation": "s, beaten",
          "PrePreparation": "",
          "QuantityNum": 4,
          "QuantityText": "4",
          "QuantityUnit": "",
          "RecipeIngredientID": 5298574,
          "TrialMeasure": "",
          "TrialWeight": ""
        },
        {
          "FullMeasure": "1/2 cup",
          "FullWeight": "",
          "IngredientGridHeaders": null,
          "IngredientID": 20461,
          "IngredientName": "whole milk",
          "IngredientStep": 30,
          "LanguageId": 0,
          "PostPreparation": "",
          "PrePreparation": "",
          "QuantityNum": 0,
          "QuantityText": "1/2",
          "QuantityUnit": "cup",
          "RecipeIngredientID": 5298577,
          "TrialMeasure": "",
          "TrialWeight": ""
        },
        {
          "FullMeasure": "1/2 cup",
          "FullWeight": "",
          "IngredientGridHeaders": null,
          "IngredientID": 88,
          "IngredientName": "BREAKSTONE'S or KNUDSEN Sour Cream",
          "IngredientStep": 40,
          "LanguageId": 0,
          "PostPreparation": "",
          "PrePreparation": "",
          "QuantityNum": 0,
          "QuantityText": "1/2",
          "QuantityUnit": "cup",
          "RecipeIngredientID": 5298576,
          "TrialMeasure": "",
          "TrialWeight": ""
        },
        {
          "FullMeasure": "1/2 tsp.",
          "FullWeight": "",
          "IngredientGridHeaders": null,
          "IngredientID": 1213,
          "IngredientName": "ground black pepper",
          "IngredientStep": 50,
          "LanguageId": 0,
          "PostPreparation": "",
          "PrePreparation": "",
          "QuantityNum": 0,
          "QuantityText": "1/2",
          "QuantityUnit": "tsp.",
          "RecipeIngredientID": 5298572,
          "TrialMeasure": "",
          "TrialWeight": ""
        },
        {
          "FullMeasure": "4-1/2 cups",
          "FullWeight": "",
          "IngredientGridHeaders": null,
          "IngredientID": 23820,
          "IngredientName": "ORE-IDA Potatoes O’Brien",
          "IngredientStep": 60,
          "LanguageId": 0,
          "PostPreparation": ", thawed",
          "PrePreparation": "(1/2 of 30-oz. pkg.)",
          "QuantityNum": 4,
          "QuantityText": "4-1/2",
          "QuantityUnit": "cups",
          "RecipeIngredientID": 5298579,
          "TrialMeasure": "",
          "TrialWeight": ""
        },
        {
          "FullMeasure": "1 pkg.",
          "FullWeight": "",
          "IngredientGridHeaders": null,
          "IngredientID": 470,
          "IngredientName": "KRAFT Shredded Sharp Cheddar Cheese",
          "IngredientStep": 70,
          "LanguageId": 0,
          "PostPreparation": "",
          "PrePreparation": "(8 oz.) ",
          "QuantityNum": 1,
          "QuantityText": "1",
          "QuantityUnit": "pkg.",
          "RecipeIngredientID": 5298578,
          "TrialMeasure": "",
          "TrialWeight": ""
        },
        {
          "FullMeasure": "8  slices",
          "FullWeight": "",
          "IngredientGridHeaders": null,
          "IngredientID": 9313,
          "IngredientName": "OSCAR MAYER Maple Bacon",
          "IngredientStep": 80,
          "LanguageId": 0,
          "PostPreparation": ", crumbled",
          "PrePreparation": "cooked",
          "QuantityNum": 7,
          "QuantityText": "8 ",
          "QuantityUnit": "slices",
          "RecipeIngredientID": 5298575,
          "TrialMeasure": "",
          "TrialWeight": ""
        }
      ],
      "IsHealthyLiving": false,
      "KRLId": "576773",
      "KeyIngredients": [
        "Bacon",
        "Cheese",
        "Dairy",
        "Eggs",
        "Meat",
        "Parmesan"
      ],
      "Keywords": "OSCAR MAYER,OSCAR MAYER Bacon,potatoes,bacon,BREAKSTONE'S Sour Cream,cheddar cheese,cheese,eggs,hash browns,KNUDSEN Sour Cream,KRAFT Cheddar Cheese,milk,sour cream,pie crust-flaky,Entree,Baked,Intermediate,Breakfast/Brunch,All Seasons,Quiche",
      "LanguageId": 1,
      "LifeStyles": [],
      "NumberOfIngredients": 8,
      "NumberOfRatings": 0,
      "NumberOfRatingsWithComments": "0",
      "NumberOfServings": "8 servings",
      "NumberOfTrialServings": "",
      "NutritionBonus": null,
      "NutritionExchangeItemId": 0,
      "NutritionGridItems": null,
      "NutritionItems": [
        {
          "DisplayOrder": 1,
          "Document": null,
          "NutritionItemID": 3,
          "NutritionItemName": "Calories",
          "Predriscriptor": "",
          "Quantity": 370,
          "Unit": "          "
        },
        {
          "DisplayOrder": 2,
          "Document": "fat_cholesterol.html",
          "NutritionItemID": 4,
          "NutritionItemName": "Total fat",
          "Predriscriptor": "",
          "Quantity": 25,
          "Unit": "g         "
        },
        {
          "DisplayOrder": 3,
          "Document": "fat_cholesterol.html",
          "NutritionItemID": 9,
          "NutritionItemName": "Saturated fat",
          "Predriscriptor": "",
          "Quantity": 11,
          "Unit": "g         "
        },
        {
          "DisplayOrder": 7,
          "Document": "fat_cholesterol.html",
          "NutritionItemID": 2,
          "NutritionItemName": "Cholesterol",
          "Predriscriptor": "",
          "Quantity": 140,
          "Unit": "mg        "
        },
        {
          "DisplayOrder": 8,
          "Document": "sodium.html",
          "NutritionItemID": 8,
          "NutritionItemName": "Sodium",
          "Predriscriptor": "",
          "Quantity": 540,
          "Unit": "mg        "
        },
        {
          "DisplayOrder": 10,
          "Document": "carbs_sugars_fiber.html",
          "NutritionItemID": 1,
          "NutritionItemName": "Carbohydrate",
          "Predriscriptor": "",
          "Quantity": 21,
          "Unit": "g         "
        },
        {
          "DisplayOrder": 11,
          "Document": "carbs_sugars_fiber.html",
          "NutritionItemID": 7,
          "NutritionItemName": "Dietary fiber",
          "Predriscriptor": "",
          "Quantity": 1,
          "Unit": "g         "
        },
        {
          "DisplayOrder": 12,
          "Document": "carbs_sugars_fiber.html",
          "NutritionItemID": 5,
          "NutritionItemName": "Sugars",
          "Predriscriptor": "",
          "Quantity": 2,
          "Unit": "g         "
        },
        {
          "DisplayOrder": 13,
          "Document": null,
          "NutritionItemID": 6,
          "NutritionItemName": "Protein",
          "Predriscriptor": "",
          "Quantity": 15,
          "Unit": "g         "
        },
        {
          "DisplayOrder": 14,
          "Document": null,
          "NutritionItemID": 10,
          "NutritionItemName": "Vitamin A",
          "Predriscriptor": "",
          "Quantity": 10,
          "Unit": "%DV       "
        },
        {
          "DisplayOrder": 15,
          "Document": null,
          "NutritionItemID": 11,
          "NutritionItemName": "Vitamin C",
          "Predriscriptor": "",
          "Quantity": 0,
          "Unit": "%DV       "
        },
        {
          "DisplayOrder": 16,
          "Document": "dairy_and_calcium.html",
          "NutritionItemID": 12,
          "NutritionItemName": "Calcium",
          "Predriscriptor": "",
          "Quantity": 25,
          "Unit": "%DV       "
        },
        {
          "DisplayOrder": 17,
          "Document": null,
          "NutritionItemID": 13,
          "NutritionItemName": "Iron",
          "Predriscriptor": "",
          "Quantity": 6,
          "Unit": "%DV       "
        }
      ],
      "NutritionServingText": " ",
      "PrepStepImage": null,
      "PreparationDescription": "Line 9-inch pie plate with pie crust; seal and flute edge. $Mix eggs, milk, sour cream and pepper in large bowl until blended.  Add remaining ingredients; mix well.  Pour into crust. $Bake 40 to 45 min. or until knife inserted in center comes out clean. ",
      "PreparationPreText": "Heat oven to 375ºF.",
      "PreparationSteps": [
        {
          "Description": "Line 9-inch pie plate with pie crust; seal and flute edge. ",
          "PreparationStepImage": {
            "PictureFormats": [],
            "author": null,
            "id": null,
            "imageType": null,
            "mimeType": null,
            "publicationDate": null,
            "status": null,
            "title": null,
            "type": null
          },
          "Sequence": 1
        },
        {
          "Description": "Mix eggs, milk, sour cream and pepper in large bowl until blended.  Add remaining ingredients; mix well.  Pour into crust. ",
          "PreparationStepImage": {
            "PictureFormats": [],
            "author": null,
            "id": null,
            "imageType": null,
            "mimeType": null,
            "publicationDate": null,
            "status": null,
            "title": null,
            "type": null
          },
          "Sequence": 2
        },
        {
          "Description": "Bake 40 to 45 min. or until knife inserted in center comes out clean. ",
          "PreparationStepImage": {
            "PictureFormats": [],
            "author": null,
            "id": null,
            "imageType": null,
            "mimeType": null,
            "publicationDate": null,
            "status": null,
            "title": null,
            "type": null
          },
          "Sequence": 3
        }
      ],
      "PreparationTime": 10,
      "Promotion": null,
      "Ratings": {
        "TotalCount": 0,
        "PageCount": 10,
        "PageNo": 1,
        "Rating": []
      },
      "RecipeDisplayFormatId": 5,
      "RecipeId": 187036,
      "RecipeName": "ORE-IDA Sweet and Savory Bacon Quiche",
      "RecipeType": 0,
      "RelatedData": {
        "RelatedBrands": null,
        "RelatedProducts": null,
        "RelatedRecipes": {
          "DefaultTopCount": 5,
          "Recipe": [
            {
              "AverageRating": 4.7,
              "HasVideo": false,
              "IsHealthyLiving": false,
              "NumberOfRatings": 9,
              "PhotoName": "143300.jpg",
              "PhotoUrl": "http://assets.kraftfoods.com/recipe_images/opendeploy/143300.jpg",
              "RecipeId": 143300,
              "RecipeName": "Potato-Crusted Quiche",
              "SEOName": "potato-crusted-quiche-143300",
              "ThumbnailPhoto": null
            },
            {
              "AverageRating": 5,
              "HasVideo": false,
              "IsHealthyLiving": false,
              "NumberOfRatings": 1,
              "PhotoName": "186977.jpg",
              "PhotoUrl": "http://assets.kraftfoods.com/recipe_images/opendeploy/186977.jpg",
              "RecipeId": 186977,
              "RecipeName": "Savory Beef Totchos",
              "SEOName": "savory-beef-totchos-186977",
              "ThumbnailPhoto": null
            },
            {
              "AverageRating": 4.3,
              "HasVideo": true,
              "IsHealthyLiving": false,
              "NumberOfRatings": 9,
              "PhotoName": "150581.jpg",
              "PhotoUrl": "http://assets.kraftfoods.com/recipe_images/opendeploy/150581.jpg",
              "RecipeId": 150581,
              "RecipeName": "Cheesy Egg and Veggie Cups",
              "SEOName": "cheesy-egg-veggie-cups-150581",
              "ThumbnailPhoto": null
            },
            {
              "AverageRating": 4.8,
              "HasVideo": false,
              "IsHealthyLiving": false,
              "NumberOfRatings": 6,
              "PhotoName": "126197.jpg",
              "PhotoUrl": "http://assets.kraftfoods.com/recipe_images/opendeploy/126197.jpg",
              "RecipeId": 126197,
              "RecipeName": "Chorizo, Potato & Green Chile Omelet",
              "SEOName": "chorizo-potato-green-chile-omelet-126197",
              "ThumbnailPhoto": null
            },
            {
              "AverageRating": 4,
              "HasVideo": false,
              "IsHealthyLiving": false,
              "NumberOfRatings": 206,
              "PhotoName": "opendeploy/506958_1_1_retail-5aa1621cad54008594be270b5410b1b1541eaee8_306x204.jpg",
              "PhotoUrl": "http://assets.kraftfoods.com/recipe_images/opendeploy/opendeploy/506958_1_1_retail-5aa1621cad54008594be270b5410b1b1541eaee8_306x204.jpg",
              "RecipeId": 55299,
              "RecipeName": "Italian Skillet Frittata",
              "SEOName": "italian-skillet-frittata-55299",
              "ThumbnailPhoto": null
            }
          ],
          "TotalCount": 1663
        }
      },
      "RiseIngredients": [],
      "RiseTaxonomy": [],
      "Riserecipe": [
        {
          "GRIN": 576773,
          "RecipeId": 187036,
          "RecipeIndustrySector": "Retail",
          "RecipeType": "Internal"
        }
      ],
      "RomanceText": "",
      "SEOName": "ore-ida-sweet-savory-bacon-quiche-187036",
      "Tips": [
        {
          "RecipeId": 187036,
          "Sequence": 10,
          "TipDescription": "Serve with fresh fruit. ",
          "TipID": 1,
          "TipName": "Serving Suggestion"
        }
      ],
      "TotalTime": 55,
      "TradeMarkInfo": null,
      "Video": [],
      "Yield": "8 servings"
    }
  ]
}