{
  "Metadata": {
    "PageCount": 1,
    "PageNo": 0,
    "TotalCount": 0
  },
  "Recipes": [
    {
      "AdServingKeywords": "Aluminum Foil,Baked,Dessert,Intermediate,Cereal,Chocolate,Eggs,Bakers,All Seasons,Brownie",
      "AlternateLanguageRecipes": [],
      "Assets": [
        {
          "PictureFormats": [
            {
              "rendition": "140x90",
              "url": "http://assets.kraftfoods.com/recipe_images/opendeploy/50421_SGS_K1729V0_OR1_OH_140x90.jpg"
            },
            {
              "rendition": "290x194",
              "url": "http://assets.kraftfoods.com/recipe_images/opendeploy/50421_SGS_K1729V0_OR1_OH_290x194.jpg"
            },
            {
              "rendition": "300x250",
              "url": "http://assets.kraftfoods.com/recipe_images/opendeploy/50421_SGS_K1729V0_OR1_OH_300x250.jpg"
            },
            {
              "rendition": "600x250",
              "url": "http://assets.kraftfoods.com/recipe_images/opendeploy/50421_SGS_K1729V0_OR1_OH_600x250.jpg"
            },
            {
              "rendition": "640x428",
              "url": "http://assets.kraftfoods.com/recipe_images/opendeploy/50421_SGS_K1729V0_OR1_OH_640x428.jpg"
            },
            {
              "rendition": "960x300",
              "url": "http://assets.kraftfoods.com/recipe_images/opendeploy/50421_SGS_K1729V0_OR1_OH_960x300.jpg"
            }
          ],
          "author": null,
          "id": "5",
          "imageType": "Primary",
          "mimeType": "image/jpeg",
          "publicationDate": null,
          "status": "1",
          "title": "50421_SGS_K1729V0_OR1_OH",
          "type": "image"
        },
        {
          "PictureFormats": [
            {
              "rendition": "300x200",
              "url": "http://assets.kraftfoods.com/recipe_images/Divine_Truffle_Brownies.jpg"
            }
          ],
          "author": null,
          "id": "0",
          "imageType": "LANDSCAPE",
          "mimeType": null,
          "publicationDate": null,
          "status": "1",
          "title": "Divine_Truffle_Brownies.jpg",
          "type": "image"
        }
      ],
      "AverageRating": 4.3,
      "BrandId": 1,
      "Branding": null,
      "CSSSkins": null,
      "CarbCounter": null,
      "Categories": [
        {
          "CategoryID": 3,
          "CategoryName": "Cookies/Candy/Other Desserts",
          "CategoryRank": 6,
          "SubCategoryID": 360,
          "SubCategoryName": "Brownies",
          "SubCategoryRank": 30
        },
        {
          "CategoryID": 11,
          "CategoryName": "Primary",
          "CategoryRank": 0,
          "SubCategoryID": 103,
          "SubCategoryName": "Desserts",
          "SubCategoryRank": 40
        },
        {
          "CategoryID": 761,
          "CategoryName": "Cakes, Muffins & Sweet Treats",
          "CategoryRank": 15,
          "SubCategoryID": 2585,
          "SubCategoryName": "Sweet",
          "SubCategoryRank": 1
        },
        {
          "CategoryID": 761,
          "CategoryName": "Cakes, Muffins & Sweet Treats",
          "CategoryRank": 15,
          "SubCategoryID": 2587,
          "SubCategoryName": "Biscuits & Scones",
          "SubCategoryRank": 1
        }
      ],
      "Classifications": [],
      "ComplimentaryRecipes": null,
      "CookingMethod": null,
      "Copyright": null,
      "Courses": [
        "Desserts"
      ],
      "DietExchange": null,
      "DishDetails": [
        {
          "Text": "desserts",
          "Url": "/recipes/dessert/main.aspx"
        },
        {
          "Text": "fruity desserts",
          "Url": "/recipes/dessert/fruitydesserts.aspx"
        },
        {
          "Text": "gelatin desserts",
          "Url": "/recipes/dessert/gelatindesserts.aspx"
        },
        {
          "Text": "layered desserts",
          "Url": "/recipes/dessert/layereddesserts.aspx"
        },
        {
          "Text": "brownie recipes",
          "Url": "/recipes/dessert/brownie-recipes/main.aspx"
        },
        {
          "Text": "budget desserts",
          "Url": "/recipes/budget/budget-desserts.aspx"
        },
        {
          "Text": "no bake desserts",
          "Url": "/recipes/dessert/nobakedesserts.aspx"
        },
        {
          "Text": "pumpkin recipes",
          "Url": "/recipes/dessert/pumpkin-recipes.aspx"
        },
        {
          "Text": "chocolate cake recipes",
          "Url": "/recipes/dessert/chocolate-cake-recipes/main.aspx"
        },
        {
          "Text": "cheesecake recipes",
          "Url": "/recipes/dessert/cheesecake-center/cheesecake-recipes/main.aspx"
        },
        {
          "Text": "chocolate lovers recipes",
          "Url": "/recipes/dessert/chocolate-center/chocolateloversrecipes.aspx"
        },
        {
          "Text": "classic desserts",
          "Url": "/recipes/dessert/classicdesserts.aspx"
        },
        {
          "Text": "cookie ball recipes",
          "Url": "/recipes/dessert/cookie-ball-recipes/main.aspx"
        },
        {
          "Text": "cookie recipes",
          "Url": "/recipes/dessert/cookie-recipes/main.aspx"
        },
        {
          "Text": "cupcake recipes",
          "Url": "/recipes/dessert/cupcake-recipes/main.aspx"
        },
        {
          "Text": "healthy living desserts",
          "Url": "/healthy-living-ideas/diabetes-center/recipes/dessert-recipes.aspx"
        }
      ],
      "EndDate": "/Date(-62135575200000-0600)/",
      "HasVideo": false,
      "Ingredients": [
        {
          "FullMeasure": "2 pkg.",
          "FullWeight": "",
          "IngredientGridHeaders": null,
          "IngredientID": 66,
          "IngredientName": "BAKER'S Semi-Sweet Chocolate",
          "IngredientStep": 10,
          "LanguageId": 0,
          "PostPreparation": ", divided",
          "PrePreparation": "(4 oz. each)",
          "QuantityNum": 2,
          "QuantityText": "2",
          "QuantityUnit": "pkg.",
          "RecipeIngredientID": 3552148,
          "TrialMeasure": "",
          "TrialWeight": ""
        },
        {
          "FullMeasure": "1/4 cup",
          "FullWeight": "",
          "IngredientGridHeaders": null,
          "IngredientID": 864,
          "IngredientName": "butter or margarine",
          "IngredientStep": 20,
          "LanguageId": 0,
          "PostPreparation": "",
          "PrePreparation": "",
          "QuantityNum": 0,
          "QuantityText": "1/4",
          "QuantityUnit": "cup",
          "RecipeIngredientID": 3552145,
          "TrialMeasure": "",
          "TrialWeight": ""
        },
        {
          "FullMeasure": "3/4 cup",
          "FullWeight": "",
          "IngredientGridHeaders": null,
          "IngredientID": 1845,
          "IngredientName": "sugar",
          "IngredientStep": 30,
          "LanguageId": 0,
          "PostPreparation": ", divided",
          "PrePreparation": "",
          "QuantityNum": 0,
          "QuantityText": "3/4",
          "QuantityUnit": "cup",
          "RecipeIngredientID": 3552144,
          "TrialMeasure": "",
          "TrialWeight": ""
        },
        {
          "FullMeasure": "3",
          "FullWeight": "",
          "IngredientGridHeaders": null,
          "IngredientID": 1060,
          "IngredientName": "egg",
          "IngredientStep": 40,
          "LanguageId": 0,
          "PostPreparation": "s, divided",
          "PrePreparation": "",
          "QuantityNum": 3,
          "QuantityText": "3",
          "QuantityUnit": "",
          "RecipeIngredientID": 3552146,
          "TrialMeasure": "",
          "TrialWeight": ""
        },
        {
          "FullMeasure": "3/4 cup",
          "FullWeight": "",
          "IngredientGridHeaders": null,
          "IngredientID": 1080,
          "IngredientName": "flour",
          "IngredientStep": 50,
          "LanguageId": 0,
          "PostPreparation": "",
          "PrePreparation": "",
          "QuantityNum": 0,
          "QuantityText": "3/4",
          "QuantityUnit": "cup",
          "RecipeIngredientID": 3552147,
          "TrialMeasure": "",
          "TrialWeight": ""
        },
        {
          "FullMeasure": "2/3 cup",
          "FullWeight": "",
          "IngredientGridHeaders": null,
          "IngredientID": 1246,
          "IngredientName": "whipping cream",
          "IngredientStep": 60,
          "LanguageId": 0,
          "PostPreparation": "",
          "PrePreparation": "",
          "QuantityNum": 0,
          "QuantityText": "2/3",
          "QuantityUnit": "cup",
          "RecipeIngredientID": 3552143,
          "TrialMeasure": "",
          "TrialWeight": ""
        }
      ],
      "IsHealthyLiving": false,
      "KRLId": "503977",
      "KeyIngredients": [
        "Chocolate",
        "Eggs"
      ],
      "Keywords": "baking chocolate,chocolate,cream,eggs,sugar,whipping cream,BAKER'S Semi-Sweet Chocolate,butter,margarine,flour,semi-sweet chocolate,chocolate-semi-sweet,heavy cream,Aluminum Foil,Baked,Dessert,Intermediate,All Seasons,Brownie",
      "LanguageId": 1,
      "LifeStyles": [],
      "NumberOfIngredients": 6,
      "NumberOfRatings": 25,
      "NumberOfRatingsWithComments": "21",
      "NumberOfServings": "16 servings",
      "NumberOfTrialServings": "",
      "NutritionBonus": null,
      "NutritionExchangeItemId": 0,
      "NutritionGridItems": null,
      "NutritionItems": [
        {
          "DisplayOrder": 1,
          "Document": null,
          "NutritionItemID": 3,
          "NutritionItemName": "Calories",
          "Predriscriptor": "",
          "Quantity": 200,
          "Unit": "          "
        },
        {
          "DisplayOrder": 2,
          "Document": "fat_cholesterol.html",
          "NutritionItemID": 4,
          "NutritionItemName": "Total fat",
          "Predriscriptor": "",
          "Quantity": 12,
          "Unit": "g         "
        },
        {
          "DisplayOrder": 3,
          "Document": "fat_cholesterol.html",
          "NutritionItemID": 9,
          "NutritionItemName": "Saturated fat",
          "Predriscriptor": "",
          "Quantity": 7,
          "Unit": "g         "
        },
        {
          "DisplayOrder": 7,
          "Document": "fat_cholesterol.html",
          "NutritionItemID": 2,
          "NutritionItemName": "Cholesterol",
          "Predriscriptor": "",
          "Quantity": 60,
          "Unit": "mg        "
        },
        {
          "DisplayOrder": 8,
          "Document": "sodium.html",
          "NutritionItemID": 8,
          "NutritionItemName": "Sodium",
          "Predriscriptor": "",
          "Quantity": 40,
          "Unit": "mg        "
        },
        {
          "DisplayOrder": 10,
          "Document": "carbs_sugars_fiber.html",
          "NutritionItemID": 1,
          "NutritionItemName": "Carbohydrate",
          "Predriscriptor": "",
          "Quantity": 23,
          "Unit": "g         "
        },
        {
          "DisplayOrder": 11,
          "Document": "carbs_sugars_fiber.html",
          "NutritionItemID": 7,
          "NutritionItemName": "Dietary fiber",
          "Predriscriptor": "",
          "Quantity": 1,
          "Unit": "g         "
        },
        {
          "DisplayOrder": 12,
          "Document": "carbs_sugars_fiber.html",
          "NutritionItemID": 5,
          "NutritionItemName": "Sugars",
          "Predriscriptor": "",
          "Quantity": 16,
          "Unit": "g         "
        },
        {
          "DisplayOrder": 13,
          "Document": null,
          "NutritionItemID": 6,
          "NutritionItemName": "Protein",
          "Predriscriptor": "",
          "Quantity": 3,
          "Unit": "g         "
        },
        {
          "DisplayOrder": 14,
          "Document": null,
          "NutritionItemID": 10,
          "NutritionItemName": "Vitamin A",
          "Predriscriptor": "",
          "Quantity": 6,
          "Unit": "%DV       "
        },
        {
          "DisplayOrder": 15,
          "Document": null,
          "NutritionItemID": 11,
          "NutritionItemName": "Vitamin C",
          "Predriscriptor": "",
          "Quantity": 0,
          "Unit": "%DV       "
        },
        {
          "DisplayOrder": 16,
          "Document": "dairy_and_calcium.html",
          "NutritionItemID": 12,
          "NutritionItemName": "Calcium",
          "Predriscriptor": "",
          "Quantity": 0,
          "Unit": "%DV       "
        },
        {
          "DisplayOrder": 17,
          "Document": null,
          "NutritionItemID": 13,
          "NutritionItemName": "Iron",
          "Predriscriptor": "",
          "Quantity": 6,
          "Unit": "%DV       "
        }
      ],
      "NutritionServingText": "",
      "PrepStepImage": null,
      "PreparationDescription": "Line 8-inch square baking pan with foil, with ends of foil  extending over sides.  Spray with cooking spray.  Microwave 2 oz. chocolate and butter in medium microwaveable bowl on HIGH 1 min. 30 sec. or until butter is melted.  Stir until chocolate is completely melted.  Stir in 1/2 cup sugar.  Blend in 1 egg.  Add flour; mix well.  Spread onto bottom of prepared pan.$Microwave remaining chocolate and cream in microwaveable bowl 1 min. 30 sec.; stir until chocolate is completely melted.  Beat remaining sugar and eggs in large bowl with mixer on high speed 1 min. or until thick and lemon colored.  Add cream mixture; mix well.  Pour over batter in pan.$Bake 35 min. or until topping is set.  Cool in pan.  Run knife around sides of pan to loosen dessert; use foil handles to remove from pan before cutting to serve.  Keep refrigerated.",
      "PreparationPreText": "Heat oven to 350°F.",
      "PreparationSteps": [
        {
          "Description": "Line 8-inch square baking pan with foil, with ends of foil  extending over sides.  Spray with cooking spray.  Microwave 2 oz. chocolate and butter in medium microwaveable bowl on HIGH 1 min. 30 sec. or until butter is melted.  Stir until chocolate is completely melted.  Stir in 1/2 cup sugar.  Blend in 1 egg.  Add flour; mix well.  Spread onto bottom of prepared pan.",
          "PreparationStepImage": {
            "PictureFormats": [],
            "author": null,
            "id": null,
            "imageType": null,
            "mimeType": null,
            "publicationDate": null,
            "status": null,
            "title": null,
            "type": null
          },
          "Sequence": 1
        },
        {
          "Description": "Microwave remaining chocolate and cream in microwaveable bowl 1 min. 30 sec.; stir until chocolate is completely melted.  Beat remaining sugar and eggs in large bowl with mixer on high speed 1 min. or until thick and lemon colored.  Add cream mixture; mix well.  Pour over batter in pan.",
          "PreparationStepImage": {
            "PictureFormats": [],
            "author": null,
            "id": null,
            "imageType": null,
            "mimeType": null,
            "publicationDate": null,
            "status": null,
            "title": null,
            "type": null
          },
          "Sequence": 2
        },
        {
          "Description": "Bake 35 min. or until topping is set.  Cool in pan.  Run knife around sides of pan to loosen dessert; use foil handles to remove from pan before cutting to serve.  Keep refrigerated.",
          "PreparationStepImage": {
            "PictureFormats": [],
            "author": null,
            "id": null,
            "imageType": null,
            "mimeType": null,
            "publicationDate": null,
            "status": null,
            "title": null,
            "type": null
          },
          "Sequence": 3
        }
      ],
      "PreparationTime": 20,
      "Promotion": null,
      "Ratings": {
        "TotalCount": 25,
        "PageCount": 10,
        "PageNo": 1,
        "Rating": [
          {
            "Comment": "Not as chocolaty as we would have liked.  Boxed mix tastes better & is less work.",
            "DisplayName": false,
            "RatingValue": 3,
            "SubmitDate": "/Date(1397094620000-0500)/",
            "UpdatedDate": "/Date(1397094620000-0500)/",
            "UserName": "puppybuster7"
          },
          {
            "Comment": "",
            "DisplayName": true,
            "RatingValue": 3,
            "SubmitDate": "/Date(1342318675000-0500)/",
            "UpdatedDate": "/Date(1342318675000-0500)/",
            "UserName": "mjwynia"
          },
          {
            "Comment": "Best brownies I have EVER eaten! When refridgerated they tasted like gooey fudge. Delicious!",
            "DisplayName": true,
            "RatingValue": 5,
            "SubmitDate": "/Date(1340823294000-0500)/",
            "UpdatedDate": "/Date(1340823294000-0500)/",
            "UserName": "bakepop"
          },
          {
            "Comment": "VERY delicious and rich brownies and super easy to make.  I doubled the recipe and made them in a 13x9x2 pan.",
            "DisplayName": true,
            "RatingValue": 5,
            "SubmitDate": "/Date(1326123586000-0600)/",
            "UpdatedDate": "/Date(1326123586000-0600)/",
            "UserName": "racergirl435"
          },
          {
            "Comment": "I didn't care for them hot, much better refrigerated....they are a very different type of brownie, but very good. I used non stick aluminum and didn't have to grease it down, the brownies peeled right off, I would highly recommend the non stick aluminum....I am going to try the mocha version next time, I would imagine that would taste excellent with this type of texture brownie.",
            "DisplayName": true,
            "RatingValue": 4,
            "SubmitDate": "/Date(1301269760000-0500)/",
            "UpdatedDate": "/Date(1301269760000-0500)/",
            "UserName": "kgib1182"
          },
          {
            "Comment": "This is by far the best brownie recipe I've made. I highly recommend storing them in the fridge. ",
            "DisplayName": true,
            "RatingValue": 5,
            "SubmitDate": "/Date(1216935585000-0500)/",
            "UpdatedDate": "/Date(1216935585000-0500)/",
            "UserName": "emkrause12"
          },
          {
            "Comment": "I don't know if I messed up while making this or what, but it was disgusting! Not good flavor and very odd textures. It didn't look like the recipe photo. The top layer was spongy and the bottom layer was dry. What a waste of time!",
            "DisplayName": true,
            "RatingValue": 1,
            "SubmitDate": "/Date(1213303930000-0500)/",
            "UpdatedDate": "/Date(1213303930000-0500)/",
            "UserName": "mrs.sturdi"
          },
          {
            "Comment": "SOO CHOCOLATELY!! My boyfriend made these for my birthday and they were SOO GOOD! Very Rich, i recommend refrigerating them as well.  Cut into small squares then pre-wrapped in fridge! VERY YUMMY-- Will make again!",
            "DisplayName": false,
            "RatingValue": 4,
            "SubmitDate": "/Date(1206113278000-0500)/",
            "UpdatedDate": "/Date(1206113278000-0500)/",
            "UserName": "ChefRona"
          },
          {
            "Comment": "Fantastic! The whole family loved them.  I highly recommend eating them chilled.",
            "DisplayName": true,
            "RatingValue": 5,
            "SubmitDate": "/Date(1199128909000-0600)/",
            "UpdatedDate": "/Date(1199128909000-0600)/",
            "UserName": "muffi76"
          },
          {
            "Comment": "It is very rich and all you need is alittle bite to satisfy your chocolate craving..",
            "DisplayName": true,
            "RatingValue": 4,
            "SubmitDate": "/Date(1194316829000-0600)/",
            "UpdatedDate": "/Date(1194316829000-0600)/",
            "UserName": "MrsArmendariz"
          }
        ]
      },
      "RecipeDisplayFormatId": 5,
      "RecipeId": 50421,
      "RecipeName": "Divine Truffle Brownies",
      "RecipeType": 0,
      "RelatedData": {
        "RelatedBrands": null,
        "RelatedProducts": null,
        "RelatedRecipes": {
          "DefaultTopCount": 5,
          "Recipe": [
            {
              "AverageRating": 4.3,
              "HasVideo": false,
              "IsHealthyLiving": false,
              "NumberOfRatings": 14,
              "PhotoName": "Raspberry_Truffle_Brownies.jpg",
              "PhotoUrl": "http://assets.kraftfoods.com/recipe_images/opendeploy/Raspberry_Truffle_Brownies.jpg",
              "RecipeId": 57472,
              "RecipeName": "Raspberry Truffle Brownies",
              "SEOName": "raspberry-truffle-brownies-57472",
              "ThumbnailPhoto": null
            },
            {
              "AverageRating": 4.3,
              "HasVideo": false,
              "IsHealthyLiving": false,
              "NumberOfRatings": 27,
              "PhotoName": "106855.jpg",
              "PhotoUrl": "http://assets.kraftfoods.com/recipe_images/opendeploy/106855.jpg",
              "RecipeId": 106855,
              "RecipeName": "Iyanla's Divine Mac & Cheese",
              "SEOName": "iyanlas-divine-mac-cheese-106855",
              "ThumbnailPhoto": null
            },
            {
              "AverageRating": 4.3,
              "HasVideo": false,
              "IsHealthyLiving": false,
              "NumberOfRatings": 28,
              "PhotoName": "Creme_Divinity.jpg",
              "PhotoUrl": "http://assets.kraftfoods.com/recipe_images/opendeploy/Creme_Divinity.jpg",
              "RecipeId": 56942,
              "RecipeName": "Crème Divinity Recipe",
              "SEOName": "creme-divinity-recipe-56942",
              "ThumbnailPhoto": null
            },
            {
              "AverageRating": 5,
              "HasVideo": false,
              "IsHealthyLiving": false,
              "NumberOfRatings": 3,
              "PhotoName": "156943.jpg",
              "PhotoUrl": "http://assets.kraftfoods.com/recipe_images/opendeploy/156943.jpg",
              "RecipeId": 156943,
              "RecipeName": "Chocolate-Strawberry Truffles",
              "SEOName": "chocolate-strawberry-truffles-156943",
              "ThumbnailPhoto": null
            },
            {
              "AverageRating": 5,
              "HasVideo": false,
              "IsHealthyLiving": false,
              "NumberOfRatings": 1,
              "PhotoName": "Chocolate-Truffle-Cookie-Pops-61896.jpg",
              "PhotoUrl": "http://assets.kraftfoods.com/recipe_images/opendeploy/Chocolate-Truffle-Cookie-Pops-61896.jpg",
              "RecipeId": 133038,
              "RecipeName": "Chocolate Truffle Cookie Pops",
              "SEOName": "chocolate-truffle-cookie-pops-133038",
              "ThumbnailPhoto": null
            }
          ],
          "TotalCount": 165
        }
      },
      "RiseIngredients": [],
      "RiseTaxonomy": [],
      "Riserecipe": [
        {
          "GRIN": 503977,
          "RecipeId": 50421,
          "RecipeIndustrySector": "Retail",
          "RecipeType": "Internal"
        }
      ],
      "RomanceText": "If you like your brownies on the ooey-gooey, fudgy side, step right up! These Divine Truffle Brownies are the ones for you.",
      "SEOName": "divine-truffle-brownies-50421",
      "Tips": [
        {
          "RecipeId": 50421,
          "Sequence": 10,
          "TipDescription": "Looking for a special treat?  One of these tasty brownies provides an abundance of chocolatey flavor.",
          "TipID": 4,
          "TipName": "Size-Wise"
        },
        {
          "RecipeId": 50421,
          "Sequence": 20,
          "TipDescription": "Prepare as directed, stirring 1/4 cup MAXWELL HOUSE INTERNATIONAL Suisse Mocha into brownie batter before spreading into pan and adding 1/2 cup additional Suisse Mocha to topping mixture before pouring over batter in pan.",
          "TipID": 3,
          "TipName": "Mocha Truffle Brownies"
        },
        {
          "RecipeId": 50421,
          "Sequence": 30,
          "TipDescription": "If using an 8-inch square baking dish, reduce oven temperature to 325°F.",
          "TipID": 2,
          "TipName": "Cooking Know-How"
        }
      ],
      "TotalTime": 55,
      "TradeMarkInfo": null,
      "Video": [],
      "Yield": "Makes 16 servings."
    }
  ]
}