{
  "Metadata": {
    "PageCount": 1,
    "PageNo": 0,
    "TotalCount": 0
  },
  "Recipes": [
    {
      "AdServingKeywords": "Fruit,Grapes,Lemon,Meat,Onion,Peas,Poultry,Turkey,Vegetables,Lunch,All Seasons,Miracle Whip",
      "AlternateLanguageRecipes": [],
      "Assets": [
        {
          "PictureFormats": [
            {
              "rendition": "140x90",
              "url": "http://assets.kraftfoods.com/recipe_images/opendeploy/54271_SGS_K25170V0_OR1_OH_140x90.jpg"
            },
            {
              "rendition": "290x194",
              "url": "http://assets.kraftfoods.com/recipe_images/opendeploy/54271_SGS_K25170V0_OR1_OH_290x194.jpg"
            },
            {
              "rendition": "300x250",
              "url": "http://assets.kraftfoods.com/recipe_images/opendeploy/54271_SGS_K25170V0_OR1_OH_300x250.jpg"
            },
            {
              "rendition": "600x250",
              "url": "http://assets.kraftfoods.com/recipe_images/opendeploy/54271_SGS_K25170V0_OR1_OH_600x250.jpg"
            },
            {
              "rendition": "640x428",
              "url": "http://assets.kraftfoods.com/recipe_images/opendeploy/54271_SGS_K25170V0_OR1_OH_640x428.jpg"
            },
            {
              "rendition": "960x300",
              "url": "http://assets.kraftfoods.com/recipe_images/opendeploy/54271_SGS_K25170V0_OR1_OH_960x300.jpg"
            }
          ],
          "author": null,
          "id": "5",
          "imageType": "Primary",
          "mimeType": "image/jpeg",
          "publicationDate": null,
          "status": "1",
          "title": "54271_SGS_K25170V0_OR1_OH",
          "type": "image"
        },
        {
          "PictureFormats": [
            {
              "rendition": "300x200",
              "url": "http://assets.kraftfoods.com/recipe_images/Cool_Lemon_Turkey_Salad.jpg"
            }
          ],
          "author": null,
          "id": "0",
          "imageType": "LANDSCAPE",
          "mimeType": null,
          "publicationDate": null,
          "status": "1",
          "title": "Cool_Lemon_Turkey_Salad.jpg",
          "type": "image"
        }
      ],
      "AverageRating": 4,
      "BrandId": 1,
      "Branding": null,
      "CSSSkins": null,
      "CarbCounter": null,
      "Categories": [
        {
          "CategoryID": 9,
          "CategoryName": "Salads/Side Dishes",
          "CategoryRank": 13,
          "SubCategoryID": 435,
          "SubCategoryName": "Tuna/Chicken/Egg Salads",
          "SubCategoryRank": 180
        },
        {
          "CategoryID": 11,
          "CategoryName": "Primary",
          "CategoryRank": 0,
          "SubCategoryID": 98,
          "SubCategoryName": "Salads",
          "SubCategoryRank": 70
        },
        {
          "CategoryID": 752,
          "CategoryName": "Salads",
          "CategoryRank": 6,
          "SubCategoryID": 2534,
          "SubCategoryName": "Main Course",
          "SubCategoryRank": 1
        }
      ],
      "Classifications": [],
      "ComplimentaryRecipes": [
        {
          "AverageRating": 0,
          "HasVideo": false,
          "IsHealthyLiving": false,
          "NumberOfRatings": 0,
          "PhotoName": null,
          "PhotoUrl": null,
          "RecipeId": 56093,
          "RecipeName": null,
          "SEOName": "apple-muffins-56093",
          "ThumbnailPhoto": "Apple_Cinnamon_Muffins.jpg"
        }
      ],
      "CookingMethod": null,
      "Copyright": null,
      "Courses": [
        "Salads & sides"
      ],
      "DietExchange": null,
      "DishDetails": [],
      "EndDate": "/Date(-62135575200000-0600)/",
      "HasVideo": false,
      "Ingredients": [
        {
          "FullMeasure": "1/3 cup",
          "FullWeight": "",
          "IngredientGridHeaders": null,
          "IngredientID": 564,
          "IngredientName": "MIRACLE WHIP or MIRACLE WHIP Light Dressing",
          "IngredientStep": 10,
          "LanguageId": 0,
          "PostPreparation": "",
          "PrePreparation": "",
          "QuantityNum": 0,
          "QuantityText": "1/3",
          "QuantityUnit": "cup",
          "RecipeIngredientID": 4617273,
          "TrialMeasure": "",
          "TrialWeight": ""
        },
        {
          "FullMeasure": "2 Tbsp.",
          "FullWeight": "",
          "IngredientGridHeaders": null,
          "IngredientID": 1091,
          "IngredientName": "fresh basil",
          "IngredientStep": 20,
          "LanguageId": 0,
          "PostPreparation": " or 2 tsp. dried basil leaves, crushed",
          "PrePreparation": "chopped",
          "QuantityNum": 2,
          "QuantityText": "2",
          "QuantityUnit": "Tbsp.",
          "RecipeIngredientID": 4617270,
          "TrialMeasure": "",
          "TrialWeight": ""
        },
        {
          "FullMeasure": "1 Tbsp.",
          "FullWeight": "",
          "IngredientGridHeaders": null,
          "IngredientID": 1290,
          "IngredientName": "lemon juice",
          "IngredientStep": 30,
          "LanguageId": 0,
          "PostPreparation": "",
          "PrePreparation": "",
          "QuantityNum": 1,
          "QuantityText": "1",
          "QuantityUnit": "Tbsp.",
          "RecipeIngredientID": 4617272,
          "TrialMeasure": "",
          "TrialWeight": ""
        },
        {
          "FullMeasure": "1 tsp.",
          "FullWeight": "",
          "IngredientGridHeaders": null,
          "IngredientID": 1293,
          "IngredientName": "lemon zest",
          "IngredientStep": 40,
          "LanguageId": 0,
          "PostPreparation": "",
          "PrePreparation": "grated",
          "QuantityNum": 1,
          "QuantityText": "1",
          "QuantityUnit": "tsp.",
          "RecipeIngredientID": 4617269,
          "TrialMeasure": "",
          "TrialWeight": ""
        },
        {
          "FullMeasure": "2 cups",
          "FullWeight": "",
          "IngredientGridHeaders": null,
          "IngredientID": 5646,
          "IngredientName": "turkey",
          "IngredientStep": 50,
          "LanguageId": 0,
          "PostPreparation": " or chicken",
          "PrePreparation": "chopped cooked",
          "QuantityNum": 2,
          "QuantityText": "2",
          "QuantityUnit": "cups",
          "RecipeIngredientID": 4617275,
          "TrialMeasure": "",
          "TrialWeight": ""
        },
        {
          "FullMeasure": "1 cup",
          "FullWeight": "",
          "IngredientGridHeaders": null,
          "IngredientID": 4348,
          "IngredientName": "grapes",
          "IngredientStep": 60,
          "LanguageId": 0,
          "PostPreparation": "",
          "PrePreparation": "halved",
          "QuantityNum": 1,
          "QuantityText": "1",
          "QuantityUnit": "cup",
          "RecipeIngredientID": 4617271,
          "TrialMeasure": "",
          "TrialWeight": ""
        },
        {
          "FullMeasure": "1/2 cup",
          "FullWeight": "",
          "IngredientGridHeaders": null,
          "IngredientID": 1396,
          "IngredientName": "pea pods",
          "IngredientStep": 70,
          "LanguageId": 0,
          "PostPreparation": "",
          "PrePreparation": "halved Chinese",
          "QuantityNum": 0,
          "QuantityText": "1/2",
          "QuantityUnit": "cup",
          "RecipeIngredientID": 4617276,
          "TrialMeasure": "",
          "TrialWeight": ""
        },
        {
          "FullMeasure": "1/2 cup",
          "FullWeight": "",
          "IngredientGridHeaders": null,
          "IngredientID": 1529,
          "IngredientName": "red onion",
          "IngredientStep": 80,
          "LanguageId": 0,
          "PostPreparation": "",
          "PrePreparation": "thinly sliced",
          "QuantityNum": 0,
          "QuantityText": "1/2",
          "QuantityUnit": "cup",
          "RecipeIngredientID": 4617274,
          "TrialMeasure": "",
          "TrialWeight": ""
        }
      ],
      "IsHealthyLiving": false,
      "KRLId": "525508",
      "KeyIngredients": [
        "Fruit",
        "Grapes",
        "Lemon",
        "Meat",
        "Onion",
        "Peas",
        "Poultry",
        "Turkey",
        "Vegetables"
      ],
      "Keywords": "onions,pea pods,basil,grapes,juice,lemon juice,lemons,meat,MIRACLE WHIP Dressing,turkey,mayo type light dressing,mayo type dressing,MIRACLE WHIP LIGHT,lemon peel,lemon zest,Lunch,All Seasons",
      "LanguageId": 1,
      "LifeStyles": [],
      "NumberOfIngredients": 8,
      "NumberOfRatings": 7,
      "NumberOfRatingsWithComments": "4",
      "NumberOfServings": "4 servings, 1 cup each",
      "NumberOfTrialServings": null,
      "NutritionBonus": null,
      "NutritionExchangeItemId": 0,
      "NutritionGridItems": null,
      "NutritionItems": [
        {
          "DisplayOrder": 1,
          "Document": null,
          "NutritionItemID": 3,
          "NutritionItemName": "Calories",
          "Predriscriptor": "",
          "Quantity": 220,
          "Unit": "          "
        },
        {
          "DisplayOrder": 2,
          "Document": "fat_cholesterol.html",
          "NutritionItemID": 4,
          "NutritionItemName": "Total fat",
          "Predriscriptor": "",
          "Quantity": 9,
          "Unit": "g         "
        },
        {
          "DisplayOrder": 3,
          "Document": "fat_cholesterol.html",
          "NutritionItemID": 9,
          "NutritionItemName": "Saturated fat",
          "Predriscriptor": "",
          "Quantity": 2,
          "Unit": "g         "
        },
        {
          "DisplayOrder": 7,
          "Document": "fat_cholesterol.html",
          "NutritionItemID": 2,
          "NutritionItemName": "Cholesterol",
          "Predriscriptor": "",
          "Quantity": 60,
          "Unit": "mg        "
        },
        {
          "DisplayOrder": 8,
          "Document": "sodium.html",
          "NutritionItemID": 8,
          "NutritionItemName": "Sodium",
          "Predriscriptor": "",
          "Quantity": 220,
          "Unit": "mg        "
        },
        {
          "DisplayOrder": 10,
          "Document": "carbs_sugars_fiber.html",
          "NutritionItemID": 1,
          "NutritionItemName": "Carbohydrate",
          "Predriscriptor": "",
          "Quantity": 13,
          "Unit": "g         "
        },
        {
          "DisplayOrder": 11,
          "Document": "carbs_sugars_fiber.html",
          "NutritionItemID": 7,
          "NutritionItemName": "Dietary fiber",
          "Predriscriptor": "",
          "Quantity": 1,
          "Unit": "g         "
        },
        {
          "DisplayOrder": 12,
          "Document": "carbs_sugars_fiber.html",
          "NutritionItemID": 5,
          "NutritionItemName": "Sugars",
          "Predriscriptor": "",
          "Quantity": 10,
          "Unit": "g         "
        },
        {
          "DisplayOrder": 13,
          "Document": null,
          "NutritionItemID": 6,
          "NutritionItemName": "Protein",
          "Predriscriptor": "",
          "Quantity": 22,
          "Unit": "g         "
        },
        {
          "DisplayOrder": 14,
          "Document": null,
          "NutritionItemID": 10,
          "NutritionItemName": "Vitamin A",
          "Predriscriptor": "",
          "Quantity": 2,
          "Unit": "%DV       "
        },
        {
          "DisplayOrder": 15,
          "Document": null,
          "NutritionItemID": 11,
          "NutritionItemName": "Vitamin C",
          "Predriscriptor": "",
          "Quantity": 25,
          "Unit": "%DV       "
        },
        {
          "DisplayOrder": 16,
          "Document": "dairy_and_calcium.html",
          "NutritionItemID": 12,
          "NutritionItemName": "Calcium",
          "Predriscriptor": "",
          "Quantity": 4,
          "Unit": "%DV       "
        },
        {
          "DisplayOrder": 17,
          "Document": null,
          "NutritionItemID": 13,
          "NutritionItemName": "Iron",
          "Predriscriptor": "",
          "Quantity": 10,
          "Unit": "%DV       "
        }
      ],
      "NutritionServingText": null,
      "PrepStepImage": null,
      "PreparationDescription": "Mix dressing, basil, lemon juice and lemon zest in large bowl.$Add remaining ingredients; mix lightly.  Cover.  Refrigerate several hours or until chilled.",
      "PreparationPreText": null,
      "PreparationSteps": [
        {
          "Description": "Mix dressing, basil, lemon juice and lemon zest in large bowl.",
          "PreparationStepImage": {
            "PictureFormats": [],
            "author": null,
            "id": null,
            "imageType": null,
            "mimeType": null,
            "publicationDate": null,
            "status": null,
            "title": null,
            "type": null
          },
          "Sequence": 1
        },
        {
          "Description": "Add remaining ingredients; mix lightly.  Cover.  Refrigerate several hours or until chilled.",
          "PreparationStepImage": {
            "PictureFormats": [],
            "author": null,
            "id": null,
            "imageType": null,
            "mimeType": null,
            "publicationDate": null,
            "status": null,
            "title": null,
            "type": null
          },
          "Sequence": 2
        }
      ],
      "PreparationTime": 10,
      "Promotion": null,
      "Ratings": {
        "TotalCount": 7,
        "PageCount": 10,
        "PageNo": 1,
        "Rating": [
          {
            "Comment": "JustLoved It....\r\nSo refreshing and simple...\r\nAmazing... something so simple could be go good.\r\nThank You!!!",
            "DisplayName": true,
            "RatingValue": 5,
            "SubmitDate": "/Date(1234979163000-0600)/",
            "UpdatedDate": "/Date(1234979163000-0600)/",
            "UserName": "Sadiejane05"
          },
          {
            "Comment": "",
            "DisplayName": false,
            "RatingValue": 4,
            "SubmitDate": "/Date(1035921459000-0500)/",
            "UpdatedDate": "/Date(1035921459000-0500)/",
            "UserName": "ydhayes"
          },
          {
            "Comment": "this one, we will definately try",
            "DisplayName": true,
            "RatingValue": 5,
            "SubmitDate": "/Date(1034808309000-0500)/",
            "UpdatedDate": "/Date(1034808309000-0500)/",
            "UserName": "bobbin52"
          },
          {
            "Comment": "",
            "DisplayName": false,
            "RatingValue": 4,
            "SubmitDate": "/Date(1034381826000-0500)/",
            "UpdatedDate": "/Date(1034381826000-0500)/",
            "UserName": "tinkerbell12"
          },
          {
            "Comment": "",
            "DisplayName": false,
            "RatingValue": 2,
            "SubmitDate": "/Date(1033755513000-0500)/",
            "UpdatedDate": "/Date(1033755513000-0500)/",
            "UserName": "SMEW70"
          },
          {
            "Comment": "this recipe sounds very good and also has ingrediants that i would usually have around the house. i love lemon and most recipes that have lemon in them.",
            "DisplayName": true,
            "RatingValue": 4,
            "SubmitDate": "/Date(1033692562000-0500)/",
            "UpdatedDate": "/Date(1033692562000-0500)/",
            "UserName": "hiestandmema"
          },
          {
            "Comment": "I left out the onion since my family doesn't like raw onions.",
            "DisplayName": false,
            "RatingValue": 4,
            "SubmitDate": "/Date(1033657960000-0500)/",
            "UpdatedDate": "/Date(1033657960000-0500)/",
            "UserName": "phasbargen"
          }
        ]
      },
      "RecipeDisplayFormatId": 5,
      "RecipeId": 54271,
      "RecipeName": "Cool Lemon Turkey Salad",
      "RecipeType": 0,
      "RelatedData": {
        "RelatedBrands": null,
        "RelatedProducts": null,
        "RelatedRecipes": {
          "DefaultTopCount": 5,
          "Recipe": [
            {
              "AverageRating": 4.3,
              "HasVideo": false,
              "IsHealthyLiving": false,
              "NumberOfRatings": 14,
              "PhotoName": "Turkey_Mandarin_Walnut_Salad.jpg",
              "PhotoUrl": "http://assets.kraftfoods.com/recipe_images/opendeploy/Turkey_Mandarin_Walnut_Salad.jpg",
              "RecipeId": 55049,
              "RecipeName": "Turkey Mandarin Walnut Salad",
              "SEOName": "turkey-mandarin-walnut-salad-55049",
              "ThumbnailPhoto": null
            },
            {
              "AverageRating": 4.3,
              "HasVideo": false,
              "IsHealthyLiving": true,
              "NumberOfRatings": 4,
              "PhotoName": "Bacon_Potato_Salad.jpg",
              "PhotoUrl": "http://assets.kraftfoods.com/recipe_images/opendeploy/Bacon_Potato_Salad.jpg",
              "RecipeId": 52523,
              "RecipeName": "Bacon-Potato Salad",
              "SEOName": "bacon-potato-salad-52523",
              "ThumbnailPhoto": null
            },
            {
              "AverageRating": 4,
              "HasVideo": false,
              "IsHealthyLiving": false,
              "NumberOfRatings": 27,
              "PhotoName": "54343.jpg",
              "PhotoUrl": "http://assets.kraftfoods.com/recipe_images/opendeploy/54343.jpg",
              "RecipeId": 54343,
              "RecipeName": "24-Hour Fruit Salad With COOL WHIP",
              "SEOName": "24-hour-fruit-salad-cool-whip-54343",
              "ThumbnailPhoto": null
            },
            {
              "AverageRating": 4,
              "HasVideo": false,
              "IsHealthyLiving": true,
              "NumberOfRatings": 3,
              "PhotoName": "California-Sun-Turkey-Sandwich-57552.jpg",
              "PhotoUrl": "http://assets.kraftfoods.com/recipe_images/opendeploy/California-Sun-Turkey-Sandwich-57552.jpg",
              "RecipeId": 114379,
              "RecipeName": "California Sun Turkey Sandwich",
              "SEOName": "california-sun-turkey-sandwich-114379",
              "ThumbnailPhoto": null
            },
            {
              "AverageRating": 5,
              "HasVideo": false,
              "IsHealthyLiving": false,
              "NumberOfRatings": 2,
              "PhotoName": "127746.jpg",
              "PhotoUrl": "http://assets.kraftfoods.com/recipe_images/opendeploy/127746.jpg",
              "RecipeId": 127746,
              "RecipeName": "Layered Pineapple JELL-O Salad",
              "SEOName": "layered-pineapple-jell-o-salad-127746",
              "ThumbnailPhoto": null
            }
          ],
          "TotalCount": 4555
        }
      },
      "RiseIngredients": [],
      "RiseTaxonomy": [],
      "Riserecipe": [
        {
          "GRIN": 525508,
          "RecipeId": 54271,
          "RecipeIndustrySector": "Retail",
          "RecipeType": "Internal"
        }
      ],
      "RomanceText": "Basil and lemon juice give this simple turkey salad its refreshing flavor. And if you've got no turkey, no worries: Chicken leftovers work just as well!",
      "SEOName": "cool-lemon-turkey-salad-54271",
      "Tips": [
        {
          "RecipeId": 54271,
          "Sequence": 10,
          "TipDescription": "Round out this refreshing salad with whole-wheat rolls and carrot and celery sticks.",
          "TipID": 2,
          "TipName": "Serving Suggestion"
        },
        {
          "RecipeId": 54271,
          "Sequence": 20,
          "TipDescription": "Use leftover cooked turkey when preparing this salad.",
          "TipID": 1,
          "TipName": "Creative Leftovers"
        }
      ],
      "TotalTime": 180,
      "TradeMarkInfo": null,
      "Video": [],
      "Yield": "Makes 4 servings, 1 cup each."
    }
  ]
}