{
  "Metadata": {
    "PageCount": 1,
    "PageNo": 0,
    "TotalCount": 0
  },
  "Recipes": [
    {
      "AdServingKeywords": "Ham,Meat,Tomato,Vegetables,Sandwich,Nutrition and Well-Being,Italian,All Seasons,Dinner,Lunch,Kraft Salad Dressing,Oscar Mayer",
      "AlternateLanguageRecipes": [],
      "Assets": [
        {
          "PictureFormats": [
            {
              "rendition": "290x194",
              "url": "http://assets.kraftfoods.com/recipe_images/opendeploy/113455_290x194.jpg"
            },
            {
              "rendition": "640x428",
              "url": "http://assets.kraftfoods.com/recipe_images/opendeploy/113455_640x428.jpg"
            },
            {
              "rendition": "600x250",
              "url": "http://assets.kraftfoods.com/recipe_images/opendeploy/113455_600x250.jpg"
            }
          ],
          "author": "BulKUpload",
          "id": "2",
          "imageType": "Primary",
          "mimeType": "image/jpeg",
          "publicationDate": null,
          "status": "1",
          "title": "113455",
          "type": "image"
        },
        {
          "PictureFormats": [
            {
              "rendition": "140x90",
              "url": "http://assets.kraftfoods.com/recipe_images/opendeploy/113455_MXM_K56573V0_OR1_FO_140x90.jpg"
            },
            {
              "rendition": "300x250",
              "url": "http://assets.kraftfoods.com/recipe_images/opendeploy/113455_MXM_K56573V0_OR1_FO_300x250.jpg"
            },
            {
              "rendition": "960x300",
              "url": "http://assets.kraftfoods.com/recipe_images/opendeploy/113455_MXM_K56573V0_OR1_FO_960x300.jpg"
            }
          ],
          "author": null,
          "id": "2",
          "imageType": "Primary",
          "mimeType": "image/jpeg",
          "publicationDate": null,
          "status": "1",
          "title": "113455_MXM_K56573V0_OR1_FO",
          "type": "image"
        },
        {
          "PictureFormats": [
            {
              "rendition": "300x200",
              "url": "http://assets.kraftfoods.com/recipe_images/113455.jpg"
            }
          ],
          "author": "BulKUpload",
          "id": "0",
          "imageType": "LANDSCAPE",
          "mimeType": "image/jpeg",
          "publicationDate": null,
          "status": "1",
          "title": "113455.jpg",
          "type": "image"
        }
      ],
      "AverageRating": 3.7,
      "BrandId": 1,
      "Branding": null,
      "CSSSkins": null,
      "CarbCounter": "",
      "Categories": [
        {
          "CategoryID": 11,
          "CategoryName": "Primary",
          "CategoryRank": 0,
          "SubCategoryID": 105,
          "SubCategoryName": "Sandwiches",
          "SubCategoryRank": 80
        },
        {
          "CategoryID": 14,
          "CategoryName": "Soup/Sandwiches",
          "CategoryRank": 14,
          "SubCategoryID": 159,
          "SubCategoryName": "Cold Sandwiches",
          "SubCategoryRank": 40
        },
        {
          "CategoryID": 751,
          "CategoryName": "Breads, Sandwiches, Wraps & Burgers",
          "CategoryRank": 5,
          "SubCategoryID": 2531,
          "SubCategoryName": "Fresh",
          "SubCategoryRank": 1
        }
      ],
      "Classifications": [
        {
          "ClassficationId": 14,
          "ClassificationName": "Generally Nutritious"
        }
      ],
      "ComplimentaryRecipes": null,
      "CookingMethod": null,
      "Copyright": null,
      "Courses": [
        "Sandwiches"
      ],
      "DietExchange": "1-1/2 Starch,1 Meat (L)",
      "DishDetails": [],
      "EndDate": "/Date(-62135575200000-0600)/",
      "HasVideo": false,
      "Ingredients": [
        {
          "FullMeasure": "1",
          "FullWeight": "",
          "IngredientGridHeaders": null,
          "IngredientID": 3629,
          "IngredientName": "bagel",
          "IngredientStep": 10,
          "LanguageId": 0,
          "PostPreparation": ", split, toasted",
          "PrePreparation": "plain ",
          "QuantityNum": 1,
          "QuantityText": "1",
          "QuantityUnit": "",
          "RecipeIngredientID": 5297725,
          "TrialMeasure": "",
          "TrialWeight": ""
        },
        {
          "FullMeasure": "2 Tbsp.",
          "FullWeight": "",
          "IngredientGridHeaders": null,
          "IngredientID": 3441,
          "IngredientName": "KRAFT Balsamic Vinaigrette Dressing",
          "IngredientStep": 20,
          "LanguageId": 0,
          "PostPreparation": "",
          "PrePreparation": "",
          "QuantityNum": 2,
          "QuantityText": "2",
          "QuantityUnit": "Tbsp.",
          "RecipeIngredientID": 5297724,
          "TrialMeasure": "",
          "TrialWeight": ""
        },
        {
          "FullMeasure": "6 slices",
          "FullWeight": "",
          "IngredientGridHeaders": null,
          "IngredientID": 9215,
          "IngredientName": "OSCAR MAYER Deli Fresh Honey Ham",
          "IngredientStep": 30,
          "LanguageId": 0,
          "PostPreparation": "",
          "PrePreparation": "",
          "QuantityNum": 6,
          "QuantityText": "6",
          "QuantityUnit": "slices",
          "RecipeIngredientID": 5297727,
          "TrialMeasure": "",
          "TrialWeight": ""
        },
        {
          "FullMeasure": "3",
          "FullWeight": "",
          "IngredientGridHeaders": null,
          "IngredientID": 894,
          "IngredientName": "cherry tomatoes",
          "IngredientStep": 40,
          "LanguageId": 0,
          "PostPreparation": ", halved",
          "PrePreparation": "",
          "QuantityNum": 3,
          "QuantityText": "3",
          "QuantityUnit": "",
          "RecipeIngredientID": 5297726,
          "TrialMeasure": "",
          "TrialWeight": ""
        }
      ],
      "IsHealthyLiving": true,
      "KRLId": "561447",
      "KeyIngredients": [
        "Bread",
        "Fruit",
        "Ham",
        "Meat",
        "Tomato",
        "Vegetables"
      ],
      "Keywords": "OSCAR MAYER,OSCAR MAYER Ham,bagels,cold cuts,dressing,ham,KRAFT Dressing,meat,salad dressing,tomatoes,vinaigrette dressing,cherry tomatoes,Deli Fresh,Sandwich,Nutrition and Well-Being,Italian,Dinner,Lunch,All Seasons",
      "LanguageId": 1,
      "LifeStyles": [
        "Generally Nutritious"
      ],
      "NumberOfIngredients": 4,
      "NumberOfRatings": 7,
      "NumberOfRatingsWithComments": "5",
      "NumberOfServings": "2 servings",
      "NumberOfTrialServings": "",
      "NutritionBonus": "Whip up this quick snack for two that can fit into a healthful eating plan.",
      "NutritionExchangeItemId": 2,
      "NutritionGridItems": null,
      "NutritionItems": [
        {
          "DisplayOrder": 1,
          "Document": null,
          "NutritionItemID": 3,
          "NutritionItemName": "Calories",
          "Predriscriptor": "",
          "Quantity": 160,
          "Unit": "          "
        },
        {
          "DisplayOrder": 2,
          "Document": "fat_cholesterol.html",
          "NutritionItemID": 4,
          "NutritionItemName": "Total fat",
          "Predriscriptor": "",
          "Quantity": 3.5,
          "Unit": "g         "
        },
        {
          "DisplayOrder": 3,
          "Document": "fat_cholesterol.html",
          "NutritionItemID": 9,
          "NutritionItemName": "Saturated fat",
          "Predriscriptor": "",
          "Quantity": 0.5,
          "Unit": "g         "
        },
        {
          "DisplayOrder": 7,
          "Document": "fat_cholesterol.html",
          "NutritionItemID": 2,
          "NutritionItemName": "Cholesterol",
          "Predriscriptor": "",
          "Quantity": 15,
          "Unit": "mg        "
        },
        {
          "DisplayOrder": 8,
          "Document": "sodium.html",
          "NutritionItemID": 8,
          "NutritionItemName": "Sodium",
          "Predriscriptor": "",
          "Quantity": 620,
          "Unit": "mg        "
        },
        {
          "DisplayOrder": 10,
          "Document": "carbs_sugars_fiber.html",
          "NutritionItemID": 1,
          "NutritionItemName": "Carbohydrate",
          "Predriscriptor": "",
          "Quantity": 22,
          "Unit": "g         "
        },
        {
          "DisplayOrder": 11,
          "Document": "carbs_sugars_fiber.html",
          "NutritionItemID": 7,
          "NutritionItemName": "Dietary fiber",
          "Predriscriptor": "",
          "Quantity": 1,
          "Unit": "g         "
        },
        {
          "DisplayOrder": 12,
          "Document": "carbs_sugars_fiber.html",
          "NutritionItemID": 5,
          "NutritionItemName": "Sugars",
          "Predriscriptor": "",
          "Quantity": 3,
          "Unit": "g         "
        },
        {
          "DisplayOrder": 13,
          "Document": null,
          "NutritionItemID": 6,
          "NutritionItemName": "Protein",
          "Predriscriptor": "",
          "Quantity": 8,
          "Unit": "g         "
        },
        {
          "DisplayOrder": 14,
          "Document": null,
          "NutritionItemID": 10,
          "NutritionItemName": "Vitamin A",
          "Predriscriptor": "",
          "Quantity": 4,
          "Unit": "%DV       "
        },
        {
          "DisplayOrder": 15,
          "Document": null,
          "NutritionItemID": 11,
          "NutritionItemName": "Vitamin C",
          "Predriscriptor": "",
          "Quantity": 6,
          "Unit": "%DV       "
        },
        {
          "DisplayOrder": 16,
          "Document": "dairy_and_calcium.html",
          "NutritionItemID": 12,
          "NutritionItemName": "Calcium",
          "Predriscriptor": "",
          "Quantity": 4,
          "Unit": "%DV       "
        },
        {
          "DisplayOrder": 17,
          "Document": null,
          "NutritionItemID": 13,
          "NutritionItemName": "Iron",
          "Predriscriptor": "",
          "Quantity": 10,
          "Unit": "%DV       "
        }
      ],
      "NutritionServingText": "",
      "PrepStepImage": null,
      "PreparationDescription": "Drizzle cut sides of bagels with dressing.  $Top with ham and tomatoes.",
      "PreparationPreText": "",
      "PreparationSteps": [
        {
          "Description": "Drizzle cut sides of bagels with dressing.  ",
          "PreparationStepImage": {
            "PictureFormats": [],
            "author": null,
            "id": null,
            "imageType": null,
            "mimeType": null,
            "publicationDate": null,
            "status": null,
            "title": null,
            "type": null
          },
          "Sequence": 1
        },
        {
          "Description": "Top with ham and tomatoes.",
          "PreparationStepImage": {
            "PictureFormats": [],
            "author": null,
            "id": null,
            "imageType": null,
            "mimeType": null,
            "publicationDate": null,
            "status": null,
            "title": null,
            "type": null
          },
          "Sequence": 2
        }
      ],
      "PreparationTime": 5,
      "Promotion": null,
      "Ratings": {
        "TotalCount": 7,
        "PageCount": 10,
        "PageNo": 1,
        "Rating": [
          {
            "Comment": "",
            "DisplayName": true,
            "RatingValue": 4,
            "SubmitDate": "/Date(1302127291000-0500)/",
            "UpdatedDate": "/Date(1302127291000-0500)/",
            "UserName": "engrtech"
          },
          {
            "Comment": "I made some adjustments to recipe by adding garlic salt, fresh mozzarella cheese and fresh basil. I will definitely make again.",
            "DisplayName": false,
            "RatingValue": 3,
            "SubmitDate": "/Date(1286988262000-0500)/",
            "UpdatedDate": "/Date(1286988262000-0500)/",
            "UserName": "wrbin1945"
          },
          {
            "Comment": "I just made this for lunch and it was really good. I put the dressing on top as well as the bottom and I sprinkled salt, pepper and fresh basil on top. Next time I make this I will melt mozzarella cheese on top. Yum! I served it with a salad to round it out.",
            "DisplayName": true,
            "RatingValue": 4,
            "SubmitDate": "/Date(1259781497000-0600)/",
            "UpdatedDate": "/Date(1259781497000-0600)/",
            "UserName": "rosiecheex"
          },
          {
            "Comment": "",
            "DisplayName": true,
            "RatingValue": 3,
            "SubmitDate": "/Date(1251066843000-0500)/",
            "UpdatedDate": "/Date(1251066843000-0500)/",
            "UserName": "kutterfli"
          },
          {
            "Comment": "Make it better with some fresh mozzarella cheese added to it.",
            "DisplayName": true,
            "RatingValue": 5,
            "SubmitDate": "/Date(1250691593000-0500)/",
            "UpdatedDate": "/Date(1250691593000-0500)/",
            "UserName": "prisyoung"
          },
          {
            "Comment": "I loved it, quick & easy & very tasty.",
            "DisplayName": false,
            "RatingValue": 4,
            "SubmitDate": "/Date(1250689749000-0500)/",
            "UpdatedDate": "/Date(1250689749000-0500)/",
            "UserName": "PEPSICO"
          },
          {
            "Comment": "Good sandwich, easy and quick. I did add some cheese, recommend either provalone or baby swiss.",
            "DisplayName": true,
            "RatingValue": 3,
            "SubmitDate": "/Date(1250653045000-0500)/",
            "UpdatedDate": "/Date(1250653045000-0500)/",
            "UserName": "mtnbrew"
          }
        ]
      },
      "RecipeDisplayFormatId": 5,
      "RecipeId": 113455,
      "RecipeName": "Italian Bagel Snack",
      "RecipeType": 0,
      "RelatedData": {
        "RelatedBrands": null,
        "RelatedProducts": null,
        "RelatedRecipes": {
          "DefaultTopCount": 5,
          "Recipe": [
            {
              "AverageRating": 4.5,
              "HasVideo": false,
              "IsHealthyLiving": true,
              "NumberOfRatings": 2,
              "PhotoName": "118918.jpg",
              "PhotoUrl": "http://assets.kraftfoods.com/recipe_images/opendeploy/118918.jpg",
              "RecipeId": 118918,
              "RecipeName": "Cool & Creamy Vegetable and Bagel Dip",
              "SEOName": "cool-creamy-vegetable-bagel-dip-118918",
              "ThumbnailPhoto": null
            },
            {
              "AverageRating": 4.8,
              "HasVideo": false,
              "IsHealthyLiving": false,
              "NumberOfRatings": 4,
              "PhotoName": "114029.jpg",
              "PhotoUrl": "http://assets.kraftfoods.com/recipe_images/opendeploy/114029.jpg",
              "RecipeId": 114029,
              "RecipeName": "Mummy-Face Pizzas",
              "SEOName": "mummy-face-pizzas-114029",
              "ThumbnailPhoto": null
            },
            {
              "AverageRating": 4.4,
              "HasVideo": false,
              "IsHealthyLiving": true,
              "NumberOfRatings": 20,
              "PhotoName": "Mini_Pizza_Bagels.jpg",
              "PhotoUrl": "http://assets.kraftfoods.com/recipe_images/opendeploy/Mini_Pizza_Bagels.jpg",
              "RecipeId": 54660,
              "RecipeName": "Mini Pizza Bagels",
              "SEOName": "mini-pizza-bagels-54660",
              "ThumbnailPhoto": null
            },
            {
              "AverageRating": 4.4,
              "HasVideo": false,
              "IsHealthyLiving": true,
              "NumberOfRatings": 8,
              "PhotoName": "Morning_Bagel_Sandwich.jpg",
              "PhotoUrl": "http://assets.kraftfoods.com/recipe_images/opendeploy/Morning_Bagel_Sandwich.jpg",
              "RecipeId": 60061,
              "RecipeName": "Morning Bagel Sandwich",
              "SEOName": "morning-bagel-sandwich-60061",
              "ThumbnailPhoto": null
            },
            {
              "AverageRating": 4.7,
              "HasVideo": false,
              "IsHealthyLiving": false,
              "NumberOfRatings": 10,
              "PhotoName": "Oriental_Spread.jpg",
              "PhotoUrl": "http://assets.kraftfoods.com/recipe_images/opendeploy/Oriental_Spread.jpg",
              "RecipeId": 52873,
              "RecipeName": "Far East Cream Cheese Spread",
              "SEOName": "far-east-cream-cheese-spread-52873",
              "ThumbnailPhoto": null
            }
          ],
          "TotalCount": 1960
        }
      },
      "RiseIngredients": [],
      "RiseTaxonomy": [],
      "Riserecipe": [
        {
          "GRIN": 561447,
          "RecipeId": 113455,
          "RecipeIndustrySector": "Retail",
          "RecipeType": "Internal"
        }
      ],
      "RomanceText": "Who knew balsamic vinaigrette dressing, ham, cherry tomatoes and a toasted bagel could create such savory flavor magic?",
      "SEOName": "italian-bagel-snack-113455",
      "Tips": [
        {
          "RecipeId": 113455,
          "Sequence": 10,
          "TipDescription": "Prepare using an onion or pumpernickel bagel.",
          "TipID": 1,
          "TipName": "Substitute"
        },
        {
          "RecipeId": 113455,
          "Sequence": 20,
          "TipDescription": "This can also make a quick lunch for one.",
          "TipID": 3,
          "TipName": "Variation  "
        }
      ],
      "TotalTime": 5,
      "TradeMarkInfo": null,
      "Video": [],
      "Yield": "Makes 2 servings."
    }
  ]
}