{
  "Metadata": {
    "PageCount": 1,
    "PageNo": 0,
    "TotalCount": 0
  },
  "Recipes": [
    {
      "AdServingKeywords": "",
      "AlternateLanguageRecipes": [],
      "Assets": [],
      "AverageRating": 0,
      "BrandId": 1,
      "Branding": null,
      "CSSSkins": null,
      "CarbCounter": null,
      "Categories": [],
      "Classifications": [],
      "ComplimentaryRecipes": null,
      "CookingMethod": null,
      "Copyright": null,
      "Courses": [],
      "DietExchange": null,
      "DishDetails": null,
      "EndDate": "/Date(-62135575200000-0600)/",
      "HasVideo": false,
      "Ingredients": [],
      "IsHealthyLiving": false,
      "KRLId": null,
      "KeyIngredients": [],
      "Keywords": "",
      "LanguageId": 1,
      "LifeStyles": [],
      "NumberOfIngredients": 7,
      "NumberOfRatings": 0,
      "NumberOfRatingsWithComments": "0",
      "NumberOfServings": "Makes 1-1/2 cups dip or 12 servings, 2 Tbsp. dip and 16 pieces. ",
      "NumberOfTrialServings": null,
      "NutritionBonus": null,
      "NutritionExchangeItemId": 0,
      "NutritionGridItems": null,
      "NutritionItems": [],
      "NutritionServingText": "",
      "PrepStepImage": null,
      "PreparationDescription": null,
      "PreparationPreText": "",
      "PreparationSteps": [],
      "PreparationTime": 0,
      "Promotion": null,
      "Ratings": {
        "TotalCount": 0,
        "PageCount": 10,
        "PageNo": 1,
        "Rating": []
      },
      "RecipeDisplayFormatId": 5,
      "RecipeId": 165937,
      "RecipeName": "Hummus Dip",
      "RecipeType": 0,
      "RelatedData": {
        "RelatedBrands": null,
        "RelatedProducts": null,
        "RelatedRecipes": {
          "DefaultTopCount": 5,
          "Recipe": [],
          "TotalCount": 0
        }
      },
      "RiseIngredients": [],
      "RiseTaxonomy": [],
      "Riserecipe": [
        {
          "GRIN": 0,
          "RecipeId": 165937,
          "RecipeIndustrySector": "Retail",
          "RecipeType": "Internal"
        }
      ],
      "RomanceText": "Garbanzo beans, onions, lemon juice, basil and garlic are blended to make this classic Middle Eastern dip. Serve with crackers for a tasty appetizer.",
      "SEOName": "hummus-dip-165937",
      "Tips": [],
      "TotalTime": 0,
      "TradeMarkInfo": null,
      "Video": [],
      "Yield": "Makes 1-1/2 cups dip or 12 servings, 2 Tbsp. dip and 16 crackers. "
    }
  ]
}