{
  "Metadata": {
    "PageCount": 1,
    "PageNo": 0,
    "TotalCount": 0
  },
  "Recipes": [
    {
      "AdServingKeywords": "Dessert,Easy,Cream Cheese,Dairy,Cool Whip,Crystal Light,Philadelphia,All Seasons,Creamy,Cake,Cheesecake,Cheesecake-No Bake,Pies and Tarts",
      "AlternateLanguageRecipes": [],
      "Assets": [
        {
          "PictureFormats": [
            {
              "rendition": "300x200",
              "url": "http://assets.kraftfoods.com/recipe_images/Lemonade_Cheesecake.jpg"
            }
          ],
          "author": null,
          "id": "0",
          "imageType": "DEFAULT",
          "mimeType": null,
          "publicationDate": null,
          "status": "1",
          "title": "Lemonade_Cheesecake.jpg",
          "type": "image"
        }
      ],
      "AverageRating": 4.5,
      "BrandId": 1,
      "Branding": null,
      "CSSSkins": null,
      "CarbCounter": null,
      "Categories": [
        {
          "CategoryID": 4,
          "CategoryName": "Cakes/Pies/Cheesecakes",
          "CategoryRank": 5,
          "SubCategoryID": 124,
          "SubCategoryName": "Cheesecakes:     No-Bake",
          "SubCategoryRank": 50
        },
        {
          "CategoryID": 11,
          "CategoryName": "Primary",
          "CategoryRank": 0,
          "SubCategoryID": 103,
          "SubCategoryName": "Desserts",
          "SubCategoryRank": 40
        },
        {
          "CategoryID": 760,
          "CategoryName": "Cheesecakes",
          "CategoryRank": 14,
          "SubCategoryID": 2583,
          "SubCategoryName": "Chilled",
          "SubCategoryRank": 1
        },
        {
          "CategoryID": 816,
          "CategoryName": "Cream Cheese",
          "CategoryRank": 0,
          "SubCategoryID": 16192,
          "SubCategoryName": "Healthy Living",
          "SubCategoryRank": 0
        },
        {
          "CategoryID": 816,
          "CategoryName": "Cream Cheese",
          "CategoryRank": 0,
          "SubCategoryID": 16194,
          "SubCategoryName": "Quick Cheesecakes",
          "SubCategoryRank": 0
        }
      ],
      "Classifications": [
        {
          "ClassficationId": 7,
          "ClassificationName": "Good source of calcium"
        },
        {
          "ClassficationId": 14,
          "ClassificationName": "Generally Nutritious"
        },
        {
          "ClassficationId": 119,
          "ClassificationName": "Diabetes Center"
        }
      ],
      "ComplimentaryRecipes": [
        {
          "AverageRating": 0,
          "HasVideo": false,
          "IsHealthyLiving": false,
          "NumberOfRatings": 0,
          "PhotoName": null,
          "PhotoUrl": null,
          "RecipeId": 127768,
          "RecipeName": null,
          "SEOName": "red-snapper-jibarito-127768",
          "ThumbnailPhoto": "Red-Snapper-Jibarito-60880.jpg"
        }
      ],
      "CookingMethod": null,
      "Copyright": null,
      "Courses": [],
      "DietExchange": "",
      "DishDetails": [
        {
          "Text": "desserts",
          "Url": "/recipes/dessert/main.aspx"
        },
        {
          "Text": "fruity desserts",
          "Url": "/recipes/dessert/fruitydesserts.aspx"
        },
        {
          "Text": "gelatin desserts",
          "Url": "/recipes/dessert/gelatindesserts.aspx"
        },
        {
          "Text": "layered desserts",
          "Url": "/recipes/dessert/layereddesserts.aspx"
        },
        {
          "Text": "brownie recipes",
          "Url": "/recipes/dessert/brownie-recipes/main.aspx"
        },
        {
          "Text": "budget desserts",
          "Url": "/recipes/budget/budget-desserts.aspx"
        },
        {
          "Text": "no bake desserts",
          "Url": "/recipes/dessert/nobakedesserts.aspx"
        },
        {
          "Text": "pumpkin recipes",
          "Url": "/recipes/dessert/pumpkin-recipes.aspx"
        },
        {
          "Text": "chocolate cake recipes",
          "Url": "/recipes/dessert/chocolate-cake-recipes/main.aspx"
        },
        {
          "Text": "cheesecake recipes",
          "Url": "/recipes/dessert/cheesecake-center/cheesecake-recipes/main.aspx"
        },
        {
          "Text": "chocolate lovers recipes",
          "Url": "/recipes/dessert/chocolate-center/chocolateloversrecipes.aspx"
        },
        {
          "Text": "classic desserts",
          "Url": "/recipes/dessert/classicdesserts.aspx"
        },
        {
          "Text": "cookie ball recipes",
          "Url": "/recipes/dessert/cookie-ball-recipes/main.aspx"
        },
        {
          "Text": "cookie recipes",
          "Url": "/recipes/dessert/cookie-recipes/main.aspx"
        },
        {
          "Text": "cupcake recipes",
          "Url": "/recipes/dessert/cupcake-recipes/main.aspx"
        },
        {
          "Text": "healthy living desserts",
          "Url": "/healthy-living-ideas/diabetes-center/recipes/dessert-recipes.aspx"
        },
        {
          "Text": "cheesecake recipes",
          "Url": "/recipes/dessert/cheesecake-center/cheesecake-recipes/main.aspx"
        },
        {
          "Text": "no bake cheesecake recipes",
          "Url": "/recipes/dessert/cheesecake-center/no-bake-cheesecake-recipes.aspx"
        },
        {
          "Text": "strawberry cheesecake recipes",
          "Url": "/recipes/dessert/cheesecake-center/strawberry-cheesecake-recipes.aspx"
        },
        {
          "Text": "cheese cake for all seasons",
          "Url": "/recipes/dessert/cheesecake-center/cheesecakeforallseasons.aspx"
        },
        {
          "Text": "chocolate cheesecake recipes",
          "Url": "/recipes/dessert/cheesecake-center/chocolate-cheesecake-recipes.aspx"
        },
        {
          "Text": "pumpkin cheesecake recipes",
          "Url": "/recipes/dessert/cheesecake-center/pumpkin-cheesecake-recipes.aspx"
        },
        {
          "Text": "pumpkin pie recipes",
          "Url": "/recipes/holidays-and-entertaining/holidays/Thanksgiving/pumpkin-pie-recipes.aspx"
        },
        {
          "Text": "pie recipes",
          "Url": "/recipes/dessert/pie-recipes/main.aspx"
        }
      ],
      "EndDate": "/Date(-62135575200000-0600)/",
      "HasVideo": false,
      "Ingredients": [
        {
          "FullMeasure": null,
          "FullWeight": null,
          "IngredientGridHeaders": null,
          "IngredientID": 71008,
          "IngredientName": "(8 oz.)  PHILADELPHIA Neufchatel Cheese, softened",
          "IngredientStep": 10,
          "LanguageId": 0,
          "PostPreparation": "",
          "PrePreparation": "",
          "QuantityNum": 1,
          "QuantityText": "1",
          "QuantityUnit": "pkg.",
          "RecipeIngredientID": 456303,
          "TrialMeasure": null,
          "TrialWeight": null
        },
        {
          "FullMeasure": null,
          "FullWeight": null,
          "IngredientGridHeaders": null,
          "IngredientID": 71391,
          "IngredientName": "CRYSTAL LIGHT Lemonade Flavor Drink Mix",
          "IngredientStep": 20,
          "LanguageId": 0,
          "PostPreparation": "",
          "PrePreparation": "",
          "QuantityNum": 1,
          "QuantityText": "1",
          "QuantityUnit": "tsp.",
          "RecipeIngredientID": 45483,
          "TrialMeasure": null,
          "TrialWeight": null
        },
        {
          "FullMeasure": null,
          "FullWeight": null,
          "IngredientGridHeaders": null,
          "IngredientID": 68528,
          "IngredientName": "cold fat-free milk",
          "IngredientStep": 30,
          "LanguageId": 0,
          "PostPreparation": "",
          "PrePreparation": "",
          "QuantityNum": 0.25,
          "QuantityText": "1/4",
          "QuantityUnit": "cup",
          "RecipeIngredientID": 42728,
          "TrialMeasure": null,
          "TrialWeight": null
        },
        {
          "FullMeasure": null,
          "FullWeight": null,
          "IngredientGridHeaders": null,
          "IngredientID": 68420,
          "IngredientName": "(8 oz.) COOL WHIP FREE Whipped Topping, thawed",
          "IngredientStep": 40,
          "LanguageId": 0,
          "PostPreparation": "",
          "PrePreparation": "",
          "QuantityNum": 1,
          "QuantityText": "1",
          "QuantityUnit": "tub",
          "RecipeIngredientID": 50890,
          "TrialMeasure": null,
          "TrialWeight": null
        },
        {
          "FullMeasure": null,
          "FullWeight": null,
          "IngredientGridHeaders": null,
          "IngredientID": 68502,
          "IngredientName": "ready-to-use reduced-fat graham cracker crumb crust (6 oz.)",
          "IngredientStep": 50,
          "LanguageId": 0,
          "PostPreparation": "",
          "PrePreparation": "",
          "QuantityNum": 1,
          "QuantityText": "1",
          "QuantityUnit": "",
          "RecipeIngredientID": 45353,
          "TrialMeasure": null,
          "TrialWeight": null
        }
      ],
      "IsHealthyLiving": true,
      "KRLId": "502594",
      "KeyIngredients": [],
      "Keywords": "Dessert,Easy,Nutrition and Well-Being,Cake,Cheesecake,Cheesecake-No Bake,Pies and Tarts,All Seasons,Creamy",
      "LanguageId": 1,
      "LifeStyles": [
        "Good source of calcium",
        "Generally Nutritious",
        "Diabetes Center"
      ],
      "NumberOfIngredients": 5,
      "NumberOfRatings": 360,
      "NumberOfRatingsWithComments": "310",
      "NumberOfServings": "8 servings",
      "NumberOfTrialServings": null,
      "NutritionBonus": "Help your friends and family eat right with this delicious citrus-flavored cheesecake.  And since it's prepared with better-for-you products, it can help you eat right.",
      "NutritionExchangeItemId": 1,
      "NutritionGridItems": null,
      "NutritionItems": [
        {
          "DisplayOrder": 0,
          "Document": null,
          "NutritionItemID": 384,
          "NutritionItemName": "Vitamin D",
          "Predriscriptor": "",
          "Quantity": 0,
          "Unit": "%DV       "
        },
        {
          "DisplayOrder": 0,
          "Document": null,
          "NutritionItemID": 385,
          "NutritionItemName": "Vitamin E",
          "Predriscriptor": "",
          "Quantity": 0,
          "Unit": "%DV       "
        },
        {
          "DisplayOrder": 0,
          "Document": null,
          "NutritionItemID": 388,
          "NutritionItemName": "Potassium",
          "Predriscriptor": "",
          "Quantity": 2,
          "Unit": "%DV       "
        },
        {
          "DisplayOrder": 0,
          "Document": null,
          "NutritionItemID": 390,
          "NutritionItemName": "Added Sugars",
          "Predriscriptor": "",
          "Quantity": 0,
          "Unit": "g         "
        },
        {
          "DisplayOrder": 1,
          "Document": null,
          "NutritionItemID": 371,
          "NutritionItemName": "Calories",
          "Predriscriptor": "",
          "Quantity": 210,
          "Unit": "          "
        },
        {
          "DisplayOrder": 2,
          "Document": null,
          "NutritionItemID": 376,
          "NutritionItemName": "Total fat",
          "Predriscriptor": "",
          "Quantity": 10,
          "Unit": "g         "
        },
        {
          "DisplayOrder": 3,
          "Document": null,
          "NutritionItemID": 377,
          "NutritionItemName": "Saturated fat",
          "Predriscriptor": "",
          "Quantity": 4.5,
          "Unit": "g         "
        },
        {
          "DisplayOrder": 4,
          "Document": null,
          "NutritionItemID": 379,
          "NutritionItemName": "Polyunsaturated Fat",
          "Predriscriptor": "",
          "Quantity": 0,
          "Unit": "g         "
        },
        {
          "DisplayOrder": 5,
          "Document": null,
          "NutritionItemID": 378,
          "NutritionItemName": "Monounsaturated Fat",
          "Predriscriptor": "",
          "Quantity": 0,
          "Unit": "g         "
        },
        {
          "DisplayOrder": 6,
          "Document": null,
          "NutritionItemID": 380,
          "NutritionItemName": "Trans Fat",
          "Predriscriptor": "",
          "Quantity": 1.5,
          "Unit": "g         "
        },
        {
          "DisplayOrder": 7,
          "Document": null,
          "NutritionItemID": 381,
          "NutritionItemName": "Cholesterol",
          "Predriscriptor": "",
          "Quantity": 20,
          "Unit": "mg        "
        },
        {
          "DisplayOrder": 8,
          "Document": null,
          "NutritionItemID": 389,
          "NutritionItemName": "Sodium",
          "Predriscriptor": "",
          "Quantity": 250,
          "Unit": "mg        "
        },
        {
          "DisplayOrder": 10,
          "Document": null,
          "NutritionItemID": 373,
          "NutritionItemName": "Carbohydrate",
          "Predriscriptor": "",
          "Quantity": 26,
          "Unit": "g         "
        },
        {
          "DisplayOrder": 11,
          "Document": null,
          "NutritionItemID": 374,
          "NutritionItemName": "Dietary fiber",
          "Predriscriptor": "",
          "Quantity": 0,
          "Unit": "g         "
        },
        {
          "DisplayOrder": 12,
          "Document": null,
          "NutritionItemID": 375,
          "NutritionItemName": "Sugars",
          "Predriscriptor": "",
          "Quantity": 11,
          "Unit": "g         "
        },
        {
          "DisplayOrder": 13,
          "Document": null,
          "NutritionItemID": 372,
          "NutritionItemName": "Protein",
          "Predriscriptor": "",
          "Quantity": 3,
          "Unit": "g         "
        },
        {
          "DisplayOrder": 14,
          "Document": null,
          "NutritionItemID": 382,
          "NutritionItemName": "Vitamin A",
          "Predriscriptor": "",
          "Quantity": 0,
          "Unit": "%DV       "
        },
        {
          "DisplayOrder": 15,
          "Document": null,
          "NutritionItemID": 383,
          "NutritionItemName": "Vitamin C",
          "Predriscriptor": "",
          "Quantity": 0,
          "Unit": "%DV       "
        },
        {
          "DisplayOrder": 16,
          "Document": null,
          "NutritionItemID": 386,
          "NutritionItemName": "Calcium",
          "Predriscriptor": "",
          "Quantity": 2,
          "Unit": "%DV       "
        },
        {
          "DisplayOrder": 17,
          "Document": null,
          "NutritionItemID": 387,
          "NutritionItemName": "Iron",
          "Predriscriptor": "",
          "Quantity": 2,
          "Unit": "%DV       "
        }
      ],
      "NutritionServingText": null,
      "PrepStepImage": null,
      "PreparationDescription": "Beat cream cheese and drink mix in large bowl with mixer until blended.  Gradually beat in milk.  $Whisk in COOL WHIP; spoon into crust.  $Refrigerate 4 hours or until firm.  ",
      "PreparationPreText": null,
      "PreparationSteps": [
        {
          "Description": "Beat cream cheese and drink mix in large bowl with mixer until blended.  Gradually beat in milk.  ",
          "PreparationStepImage": {
            "PictureFormats": [],
            "author": null,
            "id": null,
            "imageType": null,
            "mimeType": null,
            "publicationDate": null,
            "status": null,
            "title": null,
            "type": null
          },
          "Sequence": 1
        },
        {
          "Description": "Whisk in COOL WHIP; spoon into crust.  ",
          "PreparationStepImage": {
            "PictureFormats": [],
            "author": null,
            "id": null,
            "imageType": null,
            "mimeType": null,
            "publicationDate": null,
            "status": null,
            "title": null,
            "type": null
          },
          "Sequence": 2
        },
        {
          "Description": "Refrigerate 4 hours or until firm.  ",
          "PreparationStepImage": {
            "PictureFormats": [],
            "author": null,
            "id": null,
            "imageType": null,
            "mimeType": null,
            "publicationDate": null,
            "status": null,
            "title": null,
            "type": null
          },
          "Sequence": 3
        }
      ],
      "PreparationTime": 15,
      "Promotion": null,
      "Ratings": {
        "TotalCount": 360,
        "PageCount": 10,
        "PageNo": 1,
        "Rating": [
          {
            "Comment": "I tweeked this recipe by using 4 tsp. of lemonade mix & 1/4 c. of sugar. ",
            "DisplayName": true,
            "RatingValue": 3,
            "SubmitDate": "/Date(1374978433000-0500)/",
            "UpdatedDate": "/Date(1374978433000-0500)/",
            "UserName": "MrsNewland"
          },
          {
            "Comment": "I used 2 1/2 tsp. of the Crystal Light Lemonade Drink Mix.  I believe you must use the regular Crystal Light that comes in 2 qt. packets inside an oval can.  Don't substitute Crystal Light on the Go.  It is not concentrated enough. My family and I love this recipe.  I have shared it with several friends already.",
            "DisplayName": true,
            "RatingValue": 5,
            "SubmitDate": "/Date(1370874739000-0500)/",
            "UpdatedDate": "/Date(1370874739000-0500)/",
            "UserName": "cheeseisgood01"
          },
          {
            "Comment": "",
            "DisplayName": false,
            "RatingValue": 5,
            "SubmitDate": "/Date(1370712555000-0500)/",
            "UpdatedDate": "/Date(1370712555000-0500)/",
            "UserName": "ktowell72"
          },
          {
            "Comment": "",
            "DisplayName": true,
            "RatingValue": 2,
            "SubmitDate": "/Date(1370388139000-0500)/",
            "UpdatedDate": "/Date(1370388139000-0500)/",
            "UserName": "ShellyHousel"
          },
          {
            "Comment": "Made it with margerita crystal light.  Used the whole pack, made it a bit too tangy but it was still really good!",
            "DisplayName": true,
            "RatingValue": 5,
            "SubmitDate": "/Date(1369701026000-0500)/",
            "UpdatedDate": "/Date(1369701026000-0500)/",
            "UserName": "Kimmit23"
          },
          {
            "Comment": "Excellent cheesecake and so easy to make.  You can also use any kind of crystal light to put in instead of lemonade.  I will make this again!",
            "DisplayName": false,
            "RatingValue": 5,
            "SubmitDate": "/Date(1369355940000-0500)/",
            "UpdatedDate": "/Date(1369355940000-0500)/",
            "UserName": "toopreciouscolortv"
          },
          {
            "Comment": "I have made this for years. If u don't have graham cracker u can use vanilla wafers. And if u want a low carb, low cal dessert u can eat anytime, I make mine in a pieplate. so it looks like a pie. Leave off the crust(yes crustless!) and use low-fat mild, or low carb milk. Taste the same. Yes I have made it with strawberry banana crystal lite. It's hard to find crystal lite drink flavors in my area...it's mostly tea flavors. (frustrating)...",
            "DisplayName": true,
            "RatingValue": 5,
            "SubmitDate": "/Date(1368985553000-0500)/",
            "UpdatedDate": "/Date(1368985553000-0500)/",
            "UserName": "Donna19711"
          },
          {
            "Comment": "Quick, easy, delicous, and relatively guilt free in the form of a cheese cake. The only hard part is waiting the full chil time.",
            "DisplayName": true,
            "RatingValue": 5,
            "SubmitDate": "/Date(1342884442000-0500)/",
            "UpdatedDate": "/Date(1342884442000-0500)/",
            "UserName": "juiletneko"
          },
          {
            "Comment": "",
            "DisplayName": true,
            "RatingValue": 4,
            "SubmitDate": "/Date(1338482175000-0500)/",
            "UpdatedDate": "/Date(1338482175000-0500)/",
            "UserName": "drosato1"
          },
          {
            "Comment": "",
            "DisplayName": true,
            "RatingValue": 5,
            "SubmitDate": "/Date(1335448646000-0500)/",
            "UpdatedDate": "/Date(1335448646000-0500)/",
            "UserName": "hannaht333"
          }
        ]
      },
      "RecipeDisplayFormatId": 0,
      "RecipeId": 55173,
      "RecipeName": "Lemonade Cheesecake",
      "RecipeType": 0,
      "RelatedData": {
        "RelatedBrands": null,
        "RelatedProducts": null,
        "RelatedRecipes": {
          "DefaultTopCount": 5,
          "Recipe": [
            {
              "AverageRating": 4,
              "HasVideo": false,
              "IsHealthyLiving": false,
              "NumberOfRatings": 5,
              "PhotoName": "No-Bake-Lemonade-Cheesecake-65209.jpg",
              "PhotoUrl": "http://assets.kraftfoods.com/recipe_images/opendeploy/No-Bake-Lemonade-Cheesecake-65209.jpg",
              "RecipeId": 167151,
              "RecipeName": "KOOL-AID No-Bake Lemonade Cheesecake",
              "SEOName": "kool-aid-no-bake-lemonade-cheesecake-167151",
              "ThumbnailPhoto": null
            },
            {
              "AverageRating": 4.7,
              "HasVideo": true,
              "IsHealthyLiving": false,
              "NumberOfRatings": 37,
              "PhotoName": "111041.jpg",
              "PhotoUrl": "http://assets.kraftfoods.com/recipe_images/opendeploy/111041.jpg",
              "RecipeId": 111041,
              "RecipeName": "Lemonade Cheesecake Pie",
              "SEOName": "lemonade-cheesecake-pie-111041",
              "ThumbnailPhoto": null
            },
            {
              "AverageRating": 5,
              "HasVideo": false,
              "IsHealthyLiving": false,
              "NumberOfRatings": 2,
              "PhotoName": "163067.jpg",
              "PhotoUrl": "http://assets.kraftfoods.com/recipe_images/opendeploy/163067.jpg",
              "RecipeId": 163067,
              "RecipeName": "Pink Lemonade Cake",
              "SEOName": "pink-lemonade-cake-163067",
              "ThumbnailPhoto": null
            },
            {
              "AverageRating": 5,
              "HasVideo": false,
              "IsHealthyLiving": false,
              "NumberOfRatings": 1,
              "PhotoName": "Strawberry-Lemonade-Filled-Cupcakes-63509B.jpg",
              "PhotoUrl": "http://assets.kraftfoods.com/recipe_images/opendeploy/Strawberry-Lemonade-Filled-Cupcakes-63509B.jpg",
              "RecipeId": 146040,
              "RecipeName": "Strawberry Lemonade-Filled Cupcakes",
              "SEOName": "strawberry-lemonade-filled-cupcakes-146040",
              "ThumbnailPhoto": null
            },
            {
              "AverageRating": 5,
              "HasVideo": false,
              "IsHealthyLiving": false,
              "NumberOfRatings": 1,
              "PhotoName": "Frozen-Lemonade-Pie-145869.jpg",
              "PhotoUrl": "http://assets.kraftfoods.com/recipe_images/opendeploy/Frozen-Lemonade-Pie-145869.jpg",
              "RecipeId": 145869,
              "RecipeName": "Frozen Lemonade Pie",
              "SEOName": "frozen-lemonade-pie-145869",
              "ThumbnailPhoto": null
            }
          ],
          "TotalCount": 1089
        }
      },
      "RiseIngredients": [
        {
          "IngredientCategory": "KRL",
          "IngredientId": 68420,
          "IngredientIndustrySector": "Retail",
          "IngredientType": "Inedible",
          "ProductId": "00043000002872",
          "RecipeId": 55173
        },
        {
          "IngredientCategory": "KRL",
          "IngredientId": 68502,
          "IngredientIndustrySector": "Retail",
          "IngredientType": "Inedible",
          "ProductId": null,
          "RecipeId": 55173
        },
        {
          "IngredientCategory": "KRL",
          "IngredientId": 68528,
          "IngredientIndustrySector": "Retail",
          "IngredientType": "Inedible",
          "ProductId": null,
          "RecipeId": 55173
        },
        {
          "IngredientCategory": "KRL",
          "IngredientId": 71008,
          "IngredientIndustrySector": "Retail",
          "IngredientType": "KHC",
          "ProductId": "00021000612475",
          "RecipeId": 55173
        },
        {
          "IngredientCategory": "KRL",
          "IngredientId": 71391,
          "IngredientIndustrySector": "Retail",
          "IngredientType": "KHC",
          "ProductId": "00043000950654",
          "RecipeId": 55173
        }
      ],
      "RiseTaxonomy": [
        {
          "ParentTaxonomyId": 0,
          "RecipeId": 55173,
          "ResourceName": "Recipe",
          "TaxonomyId": 63,
          "TaxonomyName": "Desserts",
          "TaxonomyTypeId": 2,
          "TaxonomyTypeName": "Meal Part"
        },
        {
          "ParentTaxonomyId": 37,
          "RecipeId": 55173,
          "ResourceName": "Recipe",
          "TaxonomyId": 94,
          "TaxonomyName": "Cheesecake, No Bake",
          "TaxonomyTypeId": 3,
          "TaxonomyTypeName": "Dish Type"
        }
      ],
      "Riserecipe": [
        {
          "GRIN": 502594,
          "RecipeId": 55173,
          "RecipeIndustrySector": "Retail",
          "RecipeType": "Internal"
        }
      ],
      "RomanceText": "Beat together the ingredients of this smart-option Lemonade Cheesecake for a creamy dessert. You won't be able to beat the flavor of Lemonade Cheesecake!",
      "SEOName": "lemonade-cheesecake-55173",
      "Tips": [
        {
          "RecipeId": 55173,
          "Sequence": 10,
          "TipDescription": "Place remaining drink mix in plastic or glass pitcher.  Add 1-1/4 qt. (5 cups) cold water; stir until mix is dissolved.  Serve over ice.",
          "TipID": 1,
          "TipName": "Note"
        },
        {
          "RecipeId": 55173,
          "Sequence": 20,
          "TipDescription": "Garnish with cut-up fresh fruit just before serving.",
          "TipID": 2,
          "TipName": "Special Extra"
        }
      ],
      "TotalTime": 255,
      "TradeMarkInfo": null,
      "Video": [],
      "Yield": "8 servings"
    }
  ]
}