{
  "Metadata": {
    "PageCount": 1,
    "PageNo": 0,
    "TotalCount": 0
  },
  "Recipes": [
    {
      "AdServingKeywords": "Baked,Microwaved,Dessert,Intermediate,Cream Cheese,Eggs,Nuts,Pumpkin,Vegetables,Cool Whip,Kraft Caramels,Philadelphia,Planters,Thanksgiving,Creamy,Fall",
      "AlternateLanguageRecipes": [
        {
          "LanguageId": "1",
          "RecipeId": "212282",
          "SiteId": "1"
        },
        {
          "LanguageId": "1",
          "RecipeId": "212282",
          "SiteId": "151"
        },
        {
          "LanguageId": "3",
          "RecipeId": "212283",
          "SiteId": "1"
        },
        {
          "LanguageId": "3",
          "RecipeId": "212283",
          "SiteId": "151"
        }
      ],
      "Assets": [
        {
          "PictureFormats": [
            {
              "rendition": "290x194",
              "url": "http://assets.kraftfoods.com/recipe_images/opendeploy/583098_1_1_retail-4d0c8855b87b4a167e74cd5d6be360686b5e1e2f_291x194.jpg"
            },
            {
              "rendition": "306x204",
              "url": "http://assets.kraftfoods.com/recipe_images/opendeploy/583098_1_1_retail-4d0c8855b87b4a167e74cd5d6be360686b5e1e2f_306x204.jpg"
            },
            {
              "rendition": "640x428",
              "url": "http://assets.kraftfoods.com/recipe_images/opendeploy/583098_1_1_retail-4d0c8855b87b4a167e74cd5d6be360686b5e1e2f_642x428.jpg"
            }
          ],
          "author": "Kraft",
          "id": "2",
          "imageType": "Primary",
          "mimeType": "image/jpeg",
          "publicationDate": null,
          "status": "1",
          "title": "583098_1_1_retail-4d0c8855b87b4a167e74cd5d6be360686b5e1e2f",
          "type": "image"
        },
        {
          "PictureFormats": [
            {
              "rendition": "290x194",
              "url": "http://assets.kraftfoods.com/recipe_images/opendeploy/583098_1_1_retail-40757b635d751ceafaa0b2bc6e5d8929e3185830_291x194.jpg"
            },
            {
              "rendition": "306x204",
              "url": "http://assets.kraftfoods.com/recipe_images/opendeploy/583098_1_1_retail-40757b635d751ceafaa0b2bc6e5d8929e3185830_306x204.jpg"
            },
            {
              "rendition": "640x428",
              "url": "http://assets.kraftfoods.com/recipe_images/opendeploy/583098_1_1_retail-40757b635d751ceafaa0b2bc6e5d8929e3185830_642x428.jpg"
            }
          ],
          "author": "Kraft",
          "id": "2",
          "imageType": "Alternate",
          "mimeType": "image/jpeg",
          "publicationDate": null,
          "status": "1",
          "title": "583098_1_1_retail-40757b635d751ceafaa0b2bc6e5d8929e3185830",
          "type": "image"
        }
      ],
      "AverageRating": 0,
      "BrandId": 1,
      "Branding": null,
      "CSSSkins": null,
      "CarbCounter": null,
      "Categories": [],
      "Classifications": [],
      "ComplimentaryRecipes": null,
      "CookingMethod": null,
      "Copyright": null,
      "Courses": [],
      "DietExchange": null,
      "DishDetails": null,
      "EndDate": "/Date(-62135575200000-0600)/",
      "HasVideo": false,
      "Ingredients": [
        {
          "FullMeasure": null,
          "FullWeight": null,
          "IngredientGridHeaders": null,
          "IngredientID": 68794,
          "IngredientName": "eggs",
          "IngredientStep": 10,
          "LanguageId": 0,
          "PostPreparation": "",
          "PrePreparation": "",
          "QuantityNum": 5,
          "QuantityText": "5",
          "QuantityUnit": "",
          "RecipeIngredientID": 458617,
          "TrialMeasure": null,
          "TrialWeight": null
        },
        {
          "FullMeasure": null,
          "FullWeight": null,
          "IngredientGridHeaders": null,
          "IngredientID": 68373,
          "IngredientName": "(14 oz.) evaporated milk",
          "IngredientStep": 20,
          "LanguageId": 0,
          "PostPreparation": "",
          "PrePreparation": "",
          "QuantityNum": 1,
          "QuantityText": "1",
          "QuantityUnit": "can",
          "RecipeIngredientID": 458616,
          "TrialMeasure": null,
          "TrialWeight": null
        },
        {
          "FullMeasure": null,
          "FullWeight": null,
          "IngredientGridHeaders": null,
          "IngredientID": 68747,
          "IngredientName": "(12 oz.) sweetened condensed milk",
          "IngredientStep": 30,
          "LanguageId": 0,
          "PostPreparation": "",
          "PrePreparation": "",
          "QuantityNum": 1,
          "QuantityText": "1",
          "QuantityUnit": "can",
          "RecipeIngredientID": 458615,
          "TrialMeasure": null,
          "TrialWeight": null
        },
        {
          "FullMeasure": null,
          "FullWeight": null,
          "IngredientGridHeaders": null,
          "IngredientID": 75103,
          "IngredientName": "canned pumpkin",
          "IngredientStep": 40,
          "LanguageId": 0,
          "PostPreparation": "",
          "PrePreparation": "",
          "QuantityNum": 1,
          "QuantityText": "1",
          "QuantityUnit": "cup",
          "RecipeIngredientID": 458614,
          "TrialMeasure": null,
          "TrialWeight": null
        },
        {
          "FullMeasure": null,
          "FullWeight": null,
          "IngredientGridHeaders": null,
          "IngredientID": 68324,
          "IngredientName": "(1/2 of 8-oz. pkg.) PHILADELPHIA Cream Cheese, cubed, softened",
          "IngredientStep": 50,
          "LanguageId": 0,
          "PostPreparation": "",
          "PrePreparation": "",
          "QuantityNum": 4,
          "QuantityText": "4",
          "QuantityUnit": "oz.",
          "RecipeIngredientID": 458620,
          "TrialMeasure": null,
          "TrialWeight": null
        },
        {
          "FullMeasure": null,
          "FullWeight": null,
          "IngredientGridHeaders": null,
          "IngredientID": 68498,
          "IngredientName": "pumpkin pie spice",
          "IngredientStep": 60,
          "LanguageId": 0,
          "PostPreparation": "",
          "PrePreparation": "",
          "QuantityNum": 2,
          "QuantityText": "2",
          "QuantityUnit": "tsp.",
          "RecipeIngredientID": 458618,
          "TrialMeasure": null,
          "TrialWeight": null
        },
        {
          "FullMeasure": null,
          "FullWeight": null,
          "IngredientGridHeaders": null,
          "IngredientID": 68636,
          "IngredientName": "vanilla",
          "IngredientStep": 70,
          "LanguageId": 0,
          "PostPreparation": "",
          "PrePreparation": "",
          "QuantityNum": 2,
          "QuantityText": "2",
          "QuantityUnit": "tsp.",
          "RecipeIngredientID": 458619,
          "TrialMeasure": null,
          "TrialWeight": null
        },
        {
          "FullMeasure": null,
          "FullWeight": null,
          "IngredientGridHeaders": null,
          "IngredientID": 68401,
          "IngredientName": "KRAFT Caramels",
          "IngredientStep": 80,
          "LanguageId": 0,
          "PostPreparation": "",
          "PrePreparation": "",
          "QuantityNum": 20,
          "QuantityText": "20",
          "QuantityUnit": "",
          "RecipeIngredientID": 458621,
          "TrialMeasure": null,
          "TrialWeight": null
        },
        {
          "FullMeasure": null,
          "FullWeight": null,
          "IngredientGridHeaders": null,
          "IngredientID": 67974,
          "IngredientName": "thawed COOL WHIP Whipped Topping",
          "IngredientStep": 90,
          "LanguageId": 0,
          "PostPreparation": "",
          "PrePreparation": "",
          "QuantityNum": 1,
          "QuantityText": "1",
          "QuantityUnit": "cup",
          "RecipeIngredientID": 458806,
          "TrialMeasure": null,
          "TrialWeight": null
        },
        {
          "FullMeasure": null,
          "FullWeight": null,
          "IngredientGridHeaders": null,
          "IngredientID": 68159,
          "IngredientName": "chopped PLANTERS Pecans, toasted",
          "IngredientStep": 100,
          "LanguageId": 0,
          "PostPreparation": "",
          "PrePreparation": "",
          "QuantityNum": 0.5,
          "QuantityText": "1/2",
          "QuantityUnit": "cup",
          "RecipeIngredientID": 458807,
          "TrialMeasure": null,
          "TrialWeight": null
        }
      ],
      "IsHealthyLiving": false,
      "KRLId": "583098",
      "KeyIngredients": [],
      "Keywords": "",
      "LanguageId": 1,
      "LifeStyles": [],
      "NumberOfIngredients": 10,
      "NumberOfRatings": 0,
      "NumberOfRatingsWithComments": "0",
      "NumberOfServings": "10 servings",
      "NumberOfTrialServings": null,
      "NutritionBonus": null,
      "NutritionExchangeItemId": 0,
      "NutritionGridItems": null,
      "NutritionItems": [
        {
          "DisplayOrder": 0,
          "Document": null,
          "NutritionItemID": 371,
          "NutritionItemName": "Calories",
          "Predriscriptor": "",
          "Quantity": 380,
          "Unit": "          "
        },
        {
          "DisplayOrder": 0,
          "Document": null,
          "NutritionItemID": 372,
          "NutritionItemName": "Protein",
          "Predriscriptor": "",
          "Quantity": 11,
          "Unit": "g         "
        },
        {
          "DisplayOrder": 0,
          "Document": null,
          "NutritionItemID": 373,
          "NutritionItemName": "Carbohydrate",
          "Predriscriptor": "",
          "Quantity": 39,
          "Unit": "g         "
        },
        {
          "DisplayOrder": 0,
          "Document": null,
          "NutritionItemID": 374,
          "NutritionItemName": "Dietary fiber",
          "Predriscriptor": "",
          "Quantity": 1,
          "Unit": "g         "
        },
        {
          "DisplayOrder": 0,
          "Document": null,
          "NutritionItemID": 375,
          "NutritionItemName": "Sugars",
          "Predriscriptor": "",
          "Quantity": 35,
          "Unit": "g         "
        },
        {
          "DisplayOrder": 0,
          "Document": null,
          "NutritionItemID": 376,
          "NutritionItemName": "Total fat",
          "Predriscriptor": "",
          "Quantity": 19,
          "Unit": "g         "
        },
        {
          "DisplayOrder": 0,
          "Document": null,
          "NutritionItemID": 377,
          "NutritionItemName": "Saturated fat",
          "Predriscriptor": "",
          "Quantity": 9,
          "Unit": "g         "
        },
        {
          "DisplayOrder": 0,
          "Document": null,
          "NutritionItemID": 378,
          "NutritionItemName": "Monounsaturated Fat",
          "Predriscriptor": "",
          "Quantity": 4.5,
          "Unit": "g         "
        },
        {
          "DisplayOrder": 0,
          "Document": null,
          "NutritionItemID": 379,
          "NutritionItemName": "Polyunsaturated Fat",
          "Predriscriptor": "",
          "Quantity": 1.5,
          "Unit": "g         "
        },
        {
          "DisplayOrder": 0,
          "Document": null,
          "NutritionItemID": 380,
          "NutritionItemName": "Trans Fat",
          "Predriscriptor": "",
          "Quantity": 0,
          "Unit": "g         "
        },
        {
          "DisplayOrder": 0,
          "Document": null,
          "NutritionItemID": 381,
          "NutritionItemName": "Cholesterol",
          "Predriscriptor": "",
          "Quantity": 125,
          "Unit": "mg        "
        },
        {
          "DisplayOrder": 0,
          "Document": null,
          "NutritionItemID": 382,
          "NutritionItemName": "Vitamin A",
          "Predriscriptor": "",
          "Quantity": 140,
          "Unit": "%DV       "
        },
        {
          "DisplayOrder": 0,
          "Document": null,
          "NutritionItemID": 383,
          "NutritionItemName": "Vitamin C",
          "Predriscriptor": "",
          "Quantity": 2,
          "Unit": "%DV       "
        },
        {
          "DisplayOrder": 0,
          "Document": null,
          "NutritionItemID": 384,
          "NutritionItemName": "Vitamin D",
          "Predriscriptor": "",
          "Quantity": 2,
          "Unit": "%DV       "
        },
        {
          "DisplayOrder": 0,
          "Document": null,
          "NutritionItemID": 385,
          "NutritionItemName": "Vitamin E",
          "Predriscriptor": "",
          "Quantity": 2,
          "Unit": "%DV       "
        },
        {
          "DisplayOrder": 0,
          "Document": null,
          "NutritionItemID": 386,
          "NutritionItemName": "Calcium",
          "Predriscriptor": "",
          "Quantity": 15,
          "Unit": "%DV       "
        },
        {
          "DisplayOrder": 0,
          "Document": null,
          "NutritionItemID": 387,
          "NutritionItemName": "Iron",
          "Predriscriptor": "",
          "Quantity": 4,
          "Unit": "%DV       "
        },
        {
          "DisplayOrder": 0,
          "Document": null,
          "NutritionItemID": 388,
          "NutritionItemName": "Potassium",
          "Predriscriptor": "",
          "Quantity": 4,
          "Unit": "%DV       "
        },
        {
          "DisplayOrder": 0,
          "Document": null,
          "NutritionItemID": 389,
          "NutritionItemName": "Sodium",
          "Predriscriptor": "",
          "Quantity": 190,
          "Unit": "mg        "
        },
        {
          "DisplayOrder": 0,
          "Document": null,
          "NutritionItemID": 390,
          "NutritionItemName": "Added Sugars",
          "Predriscriptor": "",
          "Quantity": 1,
          "Unit": "g         "
        }
      ],
      "NutritionServingText": null,
      "PrepStepImage": null,
      "PreparationDescription": "Blend all ingredients except caramels, COOL WHIP and nuts in blender until smooth. $Pour into 1-1/2-qt. casserole sprayed with cooking spray; place in shallow pan.  Add enough boiling water to pan to come halfway up side of casserole dish. $Bake 55 min. to 1 hour 5 min. or until center of custard is set when gently shaken. Remove casserole dish from water bath; place dish on wire rack.  Cool completely.  Refrigerate 6 hours or until chilled.$Microwave caramels and COOL WHIP in microwaveable bowl on HIGH 1 min. 45 sec. to 2 min. or until caramels are completely melted and sauce is well blended, stirring every 30 sec.  $Serve custard topped with caramel sauce and nuts.",
      "PreparationPreText": "Heat oven to 350°F.",
      "PreparationSteps": [
        {
          "Description": "Blend all ingredients except caramels, COOL WHIP and nuts in blender until smooth. ",
          "PreparationStepImage": {
            "PictureFormats": [],
            "author": null,
            "id": null,
            "imageType": null,
            "mimeType": null,
            "publicationDate": null,
            "status": null,
            "title": null,
            "type": null
          },
          "Sequence": 1
        },
        {
          "Description": "Pour into 1-1/2-qt. casserole sprayed with cooking spray; place in shallow pan.  Add enough boiling water to pan to come halfway up side of casserole dish. ",
          "PreparationStepImage": {
            "PictureFormats": [],
            "author": null,
            "id": null,
            "imageType": null,
            "mimeType": null,
            "publicationDate": null,
            "status": null,
            "title": null,
            "type": null
          },
          "Sequence": 2
        },
        {
          "Description": "Bake 55 min. to 1 hour 5 min. or until center of custard is set when gently shaken. Remove casserole dish from water bath; place dish on wire rack.  Cool completely.  Refrigerate 6 hours or until chilled.",
          "PreparationStepImage": {
            "PictureFormats": [],
            "author": null,
            "id": null,
            "imageType": null,
            "mimeType": null,
            "publicationDate": null,
            "status": null,
            "title": null,
            "type": null
          },
          "Sequence": 3
        },
        {
          "Description": "Microwave caramels and COOL WHIP in microwaveable bowl on HIGH 1 min. 45 sec. to 2 min. or until caramels are completely melted and sauce is well blended, stirring every 30 sec.  ",
          "PreparationStepImage": {
            "PictureFormats": [],
            "author": null,
            "id": null,
            "imageType": null,
            "mimeType": null,
            "publicationDate": null,
            "status": null,
            "title": null,
            "type": null
          },
          "Sequence": 4
        },
        {
          "Description": "Serve custard topped with caramel sauce and nuts.",
          "PreparationStepImage": {
            "PictureFormats": [],
            "author": null,
            "id": null,
            "imageType": null,
            "mimeType": null,
            "publicationDate": null,
            "status": null,
            "title": null,
            "type": null
          },
          "Sequence": 5
        }
      ],
      "PreparationTime": 15,
      "Promotion": null,
      "Ratings": {
        "TotalCount": 0,
        "PageCount": 10,
        "PageNo": 1,
        "Rating": []
      },
      "RecipeDisplayFormatId": 0,
      "RecipeId": 210672,
      "RecipeName": "Pumpkin Custard",
      "RecipeType": 0,
      "RelatedData": {
        "RelatedBrands": null,
        "RelatedProducts": null,
        "RelatedRecipes": {
          "DefaultTopCount": 5,
          "Recipe": [
            {
              "AverageRating": 4.5,
              "HasVideo": false,
              "IsHealthyLiving": false,
              "NumberOfRatings": 2,
              "PhotoName": "Pumpkin_Maple_Custard_Cups.jpg",
              "PhotoUrl": "http://assets.kraftfoods.com/recipe_images/opendeploy/Pumpkin_Maple_Custard_Cups.jpg",
              "RecipeId": 66290,
              "RecipeName": "Maple-Pumpkin Custard Cups",
              "SEOName": "maple-pumpkin-custard-cups-66290",
              "ThumbnailPhoto": null
            },
            {
              "AverageRating": 4,
              "HasVideo": false,
              "IsHealthyLiving": false,
              "NumberOfRatings": 1,
              "PhotoName": "157602.jpg",
              "PhotoUrl": "http://assets.kraftfoods.com/recipe_images/opendeploy/157602.jpg",
              "RecipeId": 157602,
              "RecipeName": "Chocolate-Pumpkin Flan",
              "SEOName": "chocolate-pumpkin-flan-157602",
              "ThumbnailPhoto": null
            },
            {
              "AverageRating": 4.8,
              "HasVideo": false,
              "IsHealthyLiving": false,
              "NumberOfRatings": 9,
              "PhotoName": "Pumpkin_Cream_Cheese_Flan.jpg",
              "PhotoUrl": "http://assets.kraftfoods.com/recipe_images/opendeploy/Pumpkin_Cream_Cheese_Flan.jpg",
              "RecipeId": 69047,
              "RecipeName": "Pumpkin-Cream Cheese Flan",
              "SEOName": "pumpkin-cream-cheese-flan-69047",
              "ThumbnailPhoto": null
            },
            {
              "AverageRating": 4.5,
              "HasVideo": false,
              "IsHealthyLiving": true,
              "NumberOfRatings": 64,
              "PhotoName": "62223.jpg",
              "PhotoUrl": "http://assets.kraftfoods.com/recipe_images/opendeploy/62223.jpg",
              "RecipeId": 62223,
              "RecipeName": "Pumpkin Bread Pudding",
              "SEOName": "pumpkin-bread-pudding-62223",
              "ThumbnailPhoto": null
            },
            {
              "AverageRating": 5,
              "HasVideo": false,
              "IsHealthyLiving": false,
              "NumberOfRatings": 1,
              "PhotoName": "155132.jpg",
              "PhotoUrl": "http://assets.kraftfoods.com/recipe_images/opendeploy/155132.jpg",
              "RecipeId": 155132,
              "RecipeName": "Lemon Custard-Cream Puff Tree",
              "SEOName": "lemon-custard-cream-puff-tree-155132",
              "ThumbnailPhoto": null
            }
          ],
          "TotalCount": 202
        }
      },
      "RiseIngredients": [
        {
          "IngredientCategory": "KRL",
          "IngredientId": 67974,
          "IngredientIndustrySector": "Retail",
          "IngredientType": "Inedible",
          "ProductId": "00043000009536",
          "RecipeId": 210672
        },
        {
          "IngredientCategory": "KRL",
          "IngredientId": 68159,
          "IngredientIndustrySector": "Retail",
          "IngredientType": "KHC",
          "ProductId": "00029000016422",
          "RecipeId": 210672
        },
        {
          "IngredientCategory": "KRL",
          "IngredientId": 68324,
          "IngredientIndustrySector": "Retail",
          "IngredientType": "KHC",
          "ProductId": "00068100897210",
          "RecipeId": 210672
        },
        {
          "IngredientCategory": "KRL",
          "IngredientId": 68373,
          "IngredientIndustrySector": "Retail",
          "IngredientType": "Inedible",
          "ProductId": null,
          "RecipeId": 210672
        },
        {
          "IngredientCategory": "KRL",
          "IngredientId": 68401,
          "IngredientIndustrySector": "Retail",
          "IngredientType": "KHC",
          "ProductId": "00070346000095",
          "RecipeId": 210672
        },
        {
          "IngredientCategory": "KRL",
          "IngredientId": 68498,
          "IngredientIndustrySector": "Retail",
          "IngredientType": "Inedible",
          "ProductId": null,
          "RecipeId": 210672
        },
        {
          "IngredientCategory": "KRL",
          "IngredientId": 68636,
          "IngredientIndustrySector": "Retail",
          "IngredientType": "Inedible",
          "ProductId": null,
          "RecipeId": 210672
        },
        {
          "IngredientCategory": "KRL",
          "IngredientId": 68747,
          "IngredientIndustrySector": "Retail",
          "IngredientType": "Inedible",
          "ProductId": null,
          "RecipeId": 210672
        },
        {
          "IngredientCategory": "KRL",
          "IngredientId": 68794,
          "IngredientIndustrySector": "Retail",
          "IngredientType": "Inedible",
          "ProductId": null,
          "RecipeId": 210672
        },
        {
          "IngredientCategory": "RISE",
          "IngredientId": 75103,
          "IngredientIndustrySector": "Retail",
          "IngredientType": "Generic",
          "ProductId": null,
          "RecipeId": 210672
        }
      ],
      "RiseTaxonomy": [
        {
          "ParentTaxonomyId": 0,
          "RecipeId": 210672,
          "ResourceName": "Recipe",
          "TaxonomyId": 63,
          "TaxonomyName": "Desserts",
          "TaxonomyTypeId": 2,
          "TaxonomyTypeName": "Meal Part"
        },
        {
          "ParentTaxonomyId": 49,
          "RecipeId": 210672,
          "ResourceName": "Recipe",
          "TaxonomyId": 222,
          "TaxonomyName": "Puddings & Custards",
          "TaxonomyTypeId": 3,
          "TaxonomyTypeName": "Dish Type"
        }
      ],
      "Riserecipe": [
        {
          "GRIN": 583098,
          "RecipeId": 210672,
          "RecipeIndustrySector": "Retail",
          "RecipeType": "Internal"
        }
      ],
      "RomanceText": "Treat yourself—and your friends—to Pumpkin Custard this fall. Our Pumpkin Custard features caramel, canned pumpkin, cream cheese, pumpkin pie spice & more!",
      "SEOName": "pumpkin-custard-210672",
      "Tips": [
        {
          "RecipeId": 210672,
          "Sequence": 1,
          "TipDescription": "Toasting nuts adds crunch and intensifies their flavor. MICROWAVE METHOD: Place up to 1 cup of nuts in a shallow microwaveable dish.  Microwave on HIGH until fragrant and crisp, stirring every 30 sec. STOVETOP METHOD: Place nuts in ungreased skillet.  Cook on medium heat until golden brown, stirring frequently. OVEN METHOD: Spread nuts in single layer in a shallow baking pan.  Bake at 350°F for 8 to 10 min. or until golden brown, stirring occasionally.",
          "TipID": 5813,
          "TipName": "How to Toast Nuts"
        },
        {
          "RecipeId": 210672,
          "Sequence": 2,
          "TipDescription": "Pumpkin is the signature flavor of Fall.  Enjoy a serving of this creamy custard as a special treat.",
          "TipID": 1,
          "TipName": "Size Wise"
        }
      ],
      "TotalTime": 440,
      "TradeMarkInfo": null,
      "Video": [],
      "Yield": "10 servings"
    }
  ]
}