{
  "Metadata": {
    "PageCount": 1,
    "PageNo": 0,
    "TotalCount": 0
  },
  "Recipes": [
    {
      "AdServingKeywords": "Cheddar,Cheese,Dairy,Eggs,Sour Cream,Baked,Easy,Nutrition and Well-Being,Southern,Breakfast/Brunch,Dinner,All Seasons,St. Patricks Day,Biscuits,Cooking for a Crowd,Breakstones,Grey Poupon,Kraft Cheese,Kraft Shredded Cheese",
      "AlternateLanguageRecipes": [],
      "Assets": [
        {
          "PictureFormats": [
            {
              "rendition": "640x428",
              "url": "http://assets.kraftfoods.com/recipe_images/opendeploy/74550_640x428.jpg"
            },
            {
              "rendition": "290x194",
              "url": "http://assets.kraftfoods.com/recipe_images/opendeploy/74550_290x194.jpg"
            }
          ],
          "author": null,
          "id": "1",
          "imageType": "Primary",
          "mimeType": "image/jpeg",
          "publicationDate": null,
          "status": "1",
          "title": "74550",
          "type": "image"
        },
        {
          "PictureFormats": [
            {
              "rendition": "300x200",
              "url": "http://assets.kraftfoods.com/recipe_images/74550.jpg"
            }
          ],
          "author": null,
          "id": "0",
          "imageType": "LANDSCAPE",
          "mimeType": "image/jpeg",
          "publicationDate": null,
          "status": "1",
          "title": "74550.jpg",
          "type": "image"
        }
      ],
      "AverageRating": 3.4,
      "BrandId": 1,
      "Branding": null,
      "CSSSkins": null,
      "CarbCounter": null,
      "Categories": [
        {
          "CategoryID": 10,
          "CategoryName": "Breads",
          "CategoryRank": 3,
          "SubCategoryID": 440,
          "SubCategoryName": "Biscuits",
          "SubCategoryRank": 10
        },
        {
          "CategoryID": 11,
          "CategoryName": "Primary",
          "CategoryRank": 0,
          "SubCategoryID": 101,
          "SubCategoryName": "Breads and Muffins",
          "SubCategoryRank": 30
        },
        {
          "CategoryID": 761,
          "CategoryName": "Cakes, Muffins & Sweet Treats",
          "CategoryRank": 15,
          "SubCategoryID": 2587,
          "SubCategoryName": "Biscuits & Scones",
          "SubCategoryRank": 1
        }
      ],
      "Classifications": [
        {
          "ClassficationId": 119,
          "ClassificationName": "Diabetes Center"
        }
      ],
      "ComplimentaryRecipes": null,
      "CookingMethod": null,
      "Copyright": null,
      "Courses": [
        "Breads"
      ],
      "DietExchange": null,
      "DishDetails": [
        {
          "Text": "breakfast and brunch",
          "Url": "/recipes/breakfast-and-brunch/main.aspx"
        },
        {
          "Text": "kid friendly breakfasts",
          "Url": "/recipes/kid-friendly/getgoingbreakfasts.aspx"
        },
        {
          "Text": "kraft kitchen favorites",
          "Url": "/recipes/breakfast-and-brunch/kke-favorites.aspx"
        },
        {
          "Text": "pancake recipes",
          "Url": "/recipes/breakfast-and-brunch/pancake-recipes/main.aspx"
        },
        {
          "Text": "all about eggs",
          "Url": "/recipes/breakfast-and-brunch/all-about-eggs.aspx"
        },
        {
          "Text": "banana bread recipes",
          "Url": "/recipes/breakfast-and-brunch/banana-bread/main.aspx"
        },
        {
          "Text": "healthy living breakfast recipes",
          "Url": "/healthy-living-ideas/diabetes-center/recipes/breakfast-recipes.aspx"
        },
        {
          "Text": "breakfast sandwiches",
          "Url": "/recipes/sandwich-recipes/breakfast-sandwiches.aspx"
        }
      ],
      "EndDate": "/Date(-62135575200000-0600)/",
      "HasVideo": false,
      "Ingredients": [
        {
          "FullMeasure": null,
          "FullWeight": null,
          "IngredientGridHeaders": null,
          "IngredientID": 70269,
          "IngredientName": "all-purpose baking mix",
          "IngredientStep": 10,
          "LanguageId": 0,
          "PostPreparation": "",
          "PrePreparation": "",
          "QuantityNum": 2.25,
          "QuantityText": "2-1/4",
          "QuantityUnit": "cups",
          "RecipeIngredientID": 18861,
          "TrialMeasure": null,
          "TrialWeight": null
        },
        {
          "FullMeasure": null,
          "FullWeight": null,
          "IngredientGridHeaders": null,
          "IngredientID": 68500,
          "IngredientName": "KRAFT Shredded Cheddar Cheese",
          "IngredientStep": 20,
          "LanguageId": 0,
          "PostPreparation": "",
          "PrePreparation": "",
          "QuantityNum": 0.5,
          "QuantityText": "1/2",
          "QuantityUnit": "cup",
          "RecipeIngredientID": 16770,
          "TrialMeasure": null,
          "TrialWeight": null
        },
        {
          "FullMeasure": null,
          "FullWeight": null,
          "IngredientGridHeaders": null,
          "IngredientID": 67873,
          "IngredientName": "chopped  fresh herbs",
          "IngredientStep": 30,
          "LanguageId": 0,
          "PostPreparation": "",
          "PrePreparation": "",
          "QuantityNum": 2,
          "QuantityText": "2",
          "QuantityUnit": "Tbsp.",
          "RecipeIngredientID": 18187,
          "TrialMeasure": null,
          "TrialWeight": null
        },
        {
          "FullMeasure": null,
          "FullWeight": null,
          "IngredientGridHeaders": null,
          "IngredientID": 69763,
          "IngredientName": "BREAKSTONE'S Sour Cream",
          "IngredientStep": 40,
          "LanguageId": 0,
          "PostPreparation": "",
          "PrePreparation": "",
          "QuantityNum": 0.25,
          "QuantityText": "1/4",
          "QuantityUnit": "cup",
          "RecipeIngredientID": 24436,
          "TrialMeasure": null,
          "TrialWeight": null
        },
        {
          "FullMeasure": null,
          "FullWeight": null,
          "IngredientGridHeaders": null,
          "IngredientID": 68882,
          "IngredientName": "GREY POUPON Dijon Mustard",
          "IngredientStep": 50,
          "LanguageId": 0,
          "PostPreparation": "",
          "PrePreparation": "",
          "QuantityNum": 2,
          "QuantityText": "2",
          "QuantityUnit": "Tbsp.",
          "RecipeIngredientID": 20306,
          "TrialMeasure": null,
          "TrialWeight": null
        },
        {
          "FullMeasure": null,
          "FullWeight": null,
          "IngredientGridHeaders": null,
          "IngredientID": 68096,
          "IngredientName": "milk",
          "IngredientStep": 60,
          "LanguageId": 0,
          "PostPreparation": "",
          "PrePreparation": "",
          "QuantityNum": 0.33,
          "QuantityText": "1/3",
          "QuantityUnit": "cup",
          "RecipeIngredientID": 21304,
          "TrialMeasure": null,
          "TrialWeight": null
        },
        {
          "FullMeasure": null,
          "FullWeight": null,
          "IngredientGridHeaders": null,
          "IngredientID": 68794,
          "IngredientName": "egg, beaten",
          "IngredientStep": 70,
          "LanguageId": 0,
          "PostPreparation": "",
          "PrePreparation": "",
          "QuantityNum": 1,
          "QuantityText": "1",
          "QuantityUnit": "",
          "RecipeIngredientID": 19869,
          "TrialMeasure": null,
          "TrialWeight": null
        },
        {
          "FullMeasure": null,
          "FullWeight": null,
          "IngredientGridHeaders": null,
          "IngredientID": 68653,
          "IngredientName": "fresh Italian parsley leaves",
          "IngredientStep": 80,
          "LanguageId": 0,
          "PostPreparation": "",
          "PrePreparation": "",
          "QuantityNum": 12,
          "QuantityText": "12",
          "QuantityUnit": "",
          "RecipeIngredientID": 22143,
          "TrialMeasure": null,
          "TrialWeight": null
        }
      ],
      "IsHealthyLiving": true,
      "KRLId": "549676",
      "KeyIngredients": [],
      "Keywords": "Baked,Easy,Nutrition and Well-Being,Southern,Breakfast/Brunch,Dinner,All Seasons,St. Patricks Day,Biscuits,Cooking for a Crowd",
      "LanguageId": 1,
      "LifeStyles": [
        "Diabetes Center"
      ],
      "NumberOfIngredients": 8,
      "NumberOfRatings": 32,
      "NumberOfRatingsWithComments": "28",
      "NumberOfServings": "12 servings",
      "NumberOfTrialServings": null,
      "NutritionBonus": null,
      "NutritionExchangeItemId": 0,
      "NutritionGridItems": null,
      "NutritionItems": [
        {
          "DisplayOrder": 0,
          "Document": null,
          "NutritionItemID": 384,
          "NutritionItemName": "Vitamin D",
          "Predriscriptor": "",
          "Quantity": 0,
          "Unit": "%DV       "
        },
        {
          "DisplayOrder": 0,
          "Document": null,
          "NutritionItemID": 385,
          "NutritionItemName": "Vitamin E",
          "Predriscriptor": "",
          "Quantity": 0,
          "Unit": "%DV       "
        },
        {
          "DisplayOrder": 0,
          "Document": null,
          "NutritionItemID": 388,
          "NutritionItemName": "Potassium",
          "Predriscriptor": "",
          "Quantity": 2,
          "Unit": "%DV       "
        },
        {
          "DisplayOrder": 0,
          "Document": null,
          "NutritionItemID": 390,
          "NutritionItemName": "Added Sugars",
          "Predriscriptor": "",
          "Quantity": 0,
          "Unit": "g         "
        },
        {
          "DisplayOrder": 1,
          "Document": null,
          "NutritionItemID": 371,
          "NutritionItemName": "Calories",
          "Predriscriptor": "",
          "Quantity": 110,
          "Unit": "          "
        },
        {
          "DisplayOrder": 2,
          "Document": null,
          "NutritionItemID": 376,
          "NutritionItemName": "Total fat",
          "Predriscriptor": "",
          "Quantity": 3.5,
          "Unit": "g         "
        },
        {
          "DisplayOrder": 3,
          "Document": null,
          "NutritionItemID": 377,
          "NutritionItemName": "Saturated fat",
          "Predriscriptor": "",
          "Quantity": 2,
          "Unit": "g         "
        },
        {
          "DisplayOrder": 4,
          "Document": null,
          "NutritionItemID": 379,
          "NutritionItemName": "Polyunsaturated Fat",
          "Predriscriptor": "",
          "Quantity": 0,
          "Unit": "g         "
        },
        {
          "DisplayOrder": 5,
          "Document": null,
          "NutritionItemID": 378,
          "NutritionItemName": "Monounsaturated Fat",
          "Predriscriptor": "",
          "Quantity": 0,
          "Unit": "g         "
        },
        {
          "DisplayOrder": 6,
          "Document": null,
          "NutritionItemID": 380,
          "NutritionItemName": "Trans Fat",
          "Predriscriptor": "",
          "Quantity": 0,
          "Unit": "g         "
        },
        {
          "DisplayOrder": 7,
          "Document": null,
          "NutritionItemID": 381,
          "NutritionItemName": "Cholesterol",
          "Predriscriptor": "",
          "Quantity": 25,
          "Unit": "mg        "
        },
        {
          "DisplayOrder": 8,
          "Document": null,
          "NutritionItemID": 389,
          "NutritionItemName": "Sodium",
          "Predriscriptor": "",
          "Quantity": 320,
          "Unit": "mg        "
        },
        {
          "DisplayOrder": 10,
          "Document": null,
          "NutritionItemID": 373,
          "NutritionItemName": "Carbohydrate",
          "Predriscriptor": "",
          "Quantity": 17,
          "Unit": "g         "
        },
        {
          "DisplayOrder": 11,
          "Document": null,
          "NutritionItemID": 374,
          "NutritionItemName": "Dietary fiber",
          "Predriscriptor": "",
          "Quantity": 1,
          "Unit": "g         "
        },
        {
          "DisplayOrder": 12,
          "Document": null,
          "NutritionItemID": 375,
          "NutritionItemName": "Sugars",
          "Predriscriptor": "",
          "Quantity": 2,
          "Unit": "g         "
        },
        {
          "DisplayOrder": 13,
          "Document": null,
          "NutritionItemID": 372,
          "NutritionItemName": "Protein",
          "Predriscriptor": "",
          "Quantity": 5,
          "Unit": "g         "
        },
        {
          "DisplayOrder": 14,
          "Document": null,
          "NutritionItemID": 382,
          "NutritionItemName": "Vitamin A",
          "Predriscriptor": "",
          "Quantity": 6,
          "Unit": "%DV       "
        },
        {
          "DisplayOrder": 15,
          "Document": null,
          "NutritionItemID": 383,
          "NutritionItemName": "Vitamin C",
          "Predriscriptor": "",
          "Quantity": 2,
          "Unit": "%DV       "
        },
        {
          "DisplayOrder": 16,
          "Document": null,
          "NutritionItemID": 386,
          "NutritionItemName": "Calcium",
          "Predriscriptor": "",
          "Quantity": 10,
          "Unit": "%DV       "
        },
        {
          "DisplayOrder": 17,
          "Document": null,
          "NutritionItemID": 387,
          "NutritionItemName": "Iron",
          "Predriscriptor": "",
          "Quantity": 6,
          "Unit": "%DV       "
        }
      ],
      "NutritionServingText": null,
      "PrepStepImage": null,
      "PreparationDescription": "Combine baking mix, cheese and herbs in large bowl.  Mix sour cream and mustard in small bowl.  Gradually stir in milk.  Add to baking mix mixture; stir just until moistened.  $Place dough on surface lightly dusted with additional baking mix; knead 10 times.  Pat into 1/2-inch-thick circle.   Cut with 2-inch biscuit cutter dusted with baking mix.  Place biscuits, 2 inches apart, on baking sheet.  Brush lightly with egg; top with parsley.  Brush with remaining egg.$Bake 12 to 15 min. or until lightly browned.  Serve warm. ",
      "PreparationPreText": "Heat oven to 425°F.",
      "PreparationSteps": [
        {
          "Description": "Combine baking mix, cheese and herbs in large bowl.  Mix sour cream and mustard in small bowl.  Gradually stir in milk.  Add to baking mix mixture; stir just until moistened.  ",
          "PreparationStepImage": {
            "PictureFormats": [],
            "author": null,
            "id": null,
            "imageType": null,
            "mimeType": null,
            "publicationDate": null,
            "status": null,
            "title": null,
            "type": null
          },
          "Sequence": 1
        },
        {
          "Description": "Place dough on surface lightly dusted with additional baking mix; knead 10 times.  Pat into 1/2-inch-thick circle.   Cut with 2-inch biscuit cutter dusted with baking mix.  Place biscuits, 2 inches apart, on baking sheet.  Brush lightly with egg; top with parsley.  Brush with remaining egg.",
          "PreparationStepImage": {
            "PictureFormats": [],
            "author": null,
            "id": null,
            "imageType": null,
            "mimeType": null,
            "publicationDate": null,
            "status": null,
            "title": null,
            "type": null
          },
          "Sequence": 2
        },
        {
          "Description": "Bake 12 to 15 min. or until lightly browned.  Serve warm. ",
          "PreparationStepImage": {
            "PictureFormats": [],
            "author": null,
            "id": null,
            "imageType": null,
            "mimeType": null,
            "publicationDate": null,
            "status": null,
            "title": null,
            "type": null
          },
          "Sequence": 3
        }
      ],
      "PreparationTime": 15,
      "Promotion": null,
      "Ratings": {
        "TotalCount": 32,
        "PageCount": 10,
        "PageNo": 1,
        "Rating": [
          {
            "Comment": "Made these for St. Patrick's Day today. They were pretty good. I used Penzy's Savory Herbs seasoning (2 teaspoons) rather than fresh herbs. I used the stated amount of cheddar, but might at more next time. Everyone enjoyed them, though hubby mentioned they are nothing like Red Lobster's cheddar biscuits (duh...). I would make them again, sans the parsley for every day biscuits.",
            "DisplayName": true,
            "RatingValue": 4,
            "SubmitDate": "/Date(1363570035000-0500)/",
            "UpdatedDate": "/Date(1363570035000-0500)/",
            "UserName": "Jabberwolk"
          },
          {
            "Comment": "I cook every day, i wanted to try something diferent, I do not like this recipe it all.. ",
            "DisplayName": false,
            "RatingValue": 1,
            "SubmitDate": "/Date(1348158517000-0500)/",
            "UpdatedDate": "/Date(1348158517000-0500)/",
            "UserName": "honeyyyy"
          },
          {
            "Comment": "I make these on a regular basis for my family. Easy to make.  I don't have a cutter, so I use a small glass. Dried herbs work great too.  ",
            "DisplayName": false,
            "RatingValue": 5,
            "SubmitDate": "/Date(1290463837000-0600)/",
            "UpdatedDate": "/Date(1290463837000-0600)/",
            "UserName": "BagLady1108"
          },
          {
            "Comment": "Really good and pretty easy to make. We used fresh basil which complimented the cheesy flavor nicely.",
            "DisplayName": true,
            "RatingValue": 5,
            "SubmitDate": "/Date(1237429095000-0500)/",
            "UpdatedDate": "/Date(1237429095000-0500)/",
            "UserName": "CForehand0"
          },
          {
            "Comment": "What kind of 'herbs' are you suggesting to be added to the batter?  I'm sure the flavor outcome would differ depending on the herbs used.",
            "DisplayName": false,
            "RatingValue": 2,
            "SubmitDate": "/Date(1237282453000-0500)/",
            "UpdatedDate": "/Date(1237282453000-0500)/",
            "UserName": "PattyReece"
          },
          {
            "Comment": "this was my first time making biscuits & it was very easy! i don't have a cutter so i used a glass. i personally didn't care for the flavor of the mustard, so i think next time i'll omit it. These are easy to prepare & tasty!",
            "DisplayName": true,
            "RatingValue": 3,
            "SubmitDate": "/Date(1236309333000-0600)/",
            "UpdatedDate": "/Date(1236309333000-0600)/",
            "UserName": "gabbe"
          },
          {
            "Comment": "Yummmy! Very easy. I didnt have parsley leaves but the dried herbs did just fine. I halved the recipe for just 2 of us but still needed close to the same amount of milk. Thanks for the recipe!",
            "DisplayName": true,
            "RatingValue": 5,
            "SubmitDate": "/Date(1224771822000-0500)/",
            "UpdatedDate": "/Date(1224771822000-0500)/",
            "UserName": "eveann78"
          },
          {
            "Comment": "I made these with my St. Patty's day meal. This little biscuit has a BIG punch of flavor. The whole family loved them. I add more cheese as suggested by \"acook\" on her rating dated 10-29-2007, Im glad I did. \r\n",
            "DisplayName": true,
            "RatingValue": 5,
            "SubmitDate": "/Date(1205858920000-0500)/",
            "UpdatedDate": "/Date(1205858920000-0500)/",
            "UserName": "MsJudson"
          },
          {
            "Comment": "I made these last night for dinner. They were pretty good. They could use a little more cheese though. Maybe an extra 1/4 C.",
            "DisplayName": false,
            "RatingValue": 3,
            "SubmitDate": "/Date(1193700277000-0500)/",
            "UpdatedDate": "/Date(1193700277000-0500)/",
            "UserName": "wendysue82"
          },
          {
            "Comment": "",
            "DisplayName": true,
            "RatingValue": 3,
            "SubmitDate": "/Date(1184116061000-0500)/",
            "UpdatedDate": "/Date(1184116061000-0500)/",
            "UserName": "daisyd90"
          }
        ]
      },
      "RecipeDisplayFormatId": 0,
      "RecipeId": 74550,
      "RecipeName": "One-Bowl Cheddar Biscuits",
      "RecipeType": 0,
      "RelatedData": {
        "RelatedBrands": null,
        "RelatedProducts": null,
        "RelatedRecipes": {
          "DefaultTopCount": 5,
          "Recipe": [
            {
              "AverageRating": 4.3,
              "HasVideo": true,
              "IsHealthyLiving": false,
              "NumberOfRatings": 260,
              "PhotoName": "opendeploy/556465_1_1_retail-c8064876a60fe33d86d37f1f4eab70961d80a313_306x204.jpg",
              "PhotoUrl": "http://assets.kraftfoods.com/recipe_images/opendeploy/opendeploy/556465_1_1_retail-c8064876a60fe33d86d37f1f4eab70961d80a313_306x204.jpg",
              "RecipeId": 106088,
              "RecipeName": "Easy-Bake Cheddar Biscuits",
              "SEOName": "easy-bake-cheddar-biscuits-106088",
              "ThumbnailPhoto": null
            },
            {
              "AverageRating": 5,
              "HasVideo": false,
              "IsHealthyLiving": false,
              "NumberOfRatings": 2,
              "PhotoName": "50284.jpg",
              "PhotoUrl": "http://assets.kraftfoods.com/recipe_images/opendeploy/50284.jpg",
              "RecipeId": 50284,
              "RecipeName": "Apple Cobbler with Cheddar Cheese Biscuit",
              "SEOName": "apple-cobbler-cheddar-cheese-biscuit-50284",
              "ThumbnailPhoto": null
            },
            {
              "AverageRating": 4,
              "HasVideo": false,
              "IsHealthyLiving": false,
              "NumberOfRatings": 356,
              "PhotoName": "opendeploy/111306-a1fa529ed68ff11b5e27df21a846522732c8042b_306x204.jpg",
              "PhotoUrl": "http://assets.kraftfoods.com/recipe_images/opendeploy/opendeploy/111306-a1fa529ed68ff11b5e27df21a846522732c8042b_306x204.jpg",
              "RecipeId": 111306,
              "RecipeName": "Chicken and Biscuits",
              "SEOName": "chicken-biscuits-111306",
              "ThumbnailPhoto": null
            },
            {
              "AverageRating": 5,
              "HasVideo": false,
              "IsHealthyLiving": false,
              "NumberOfRatings": 1,
              "PhotoName": "Philly-Cheesy-Biscuits-34945.jpg",
              "PhotoUrl": "http://assets.kraftfoods.com/recipe_images/opendeploy/Philly-Cheesy-Biscuits-34945.jpg",
              "RecipeId": 155213,
              "RecipeName": "Cheesy PHILLY Biscuits",
              "SEOName": "cheesy-philly-biscuits-155213",
              "ThumbnailPhoto": null
            },
            {
              "AverageRating": 4.1,
              "HasVideo": false,
              "IsHealthyLiving": false,
              "NumberOfRatings": 23,
              "PhotoName": "Bacon_Cheddar_And_Chive_Scones.jpg",
              "PhotoUrl": "http://assets.kraftfoods.com/recipe_images/opendeploy/Bacon_Cheddar_And_Chive_Scones.jpg",
              "RecipeId": 52458,
              "RecipeName": "Bacon-Cheddar Scones",
              "SEOName": "bacon-cheddar-scones-52458",
              "ThumbnailPhoto": null
            }
          ],
          "TotalCount": 4705
        }
      },
      "RiseIngredients": [
        {
          "IngredientCategory": "KRL",
          "IngredientId": 67873,
          "IngredientIndustrySector": "Retail",
          "IngredientType": "Inedible",
          "ProductId": null,
          "RecipeId": 74550
        },
        {
          "IngredientCategory": "KRL",
          "IngredientId": 68096,
          "IngredientIndustrySector": "Retail",
          "IngredientType": "Inedible",
          "ProductId": null,
          "RecipeId": 74550
        },
        {
          "IngredientCategory": "KRL",
          "IngredientId": 68500,
          "IngredientIndustrySector": "Retail",
          "IngredientType": "KHC",
          "ProductId": "00021000043149",
          "RecipeId": 74550
        },
        {
          "IngredientCategory": "KRL",
          "IngredientId": 68653,
          "IngredientIndustrySector": "Retail",
          "IngredientType": "Inedible",
          "ProductId": null,
          "RecipeId": 74550
        },
        {
          "IngredientCategory": "KRL",
          "IngredientId": 68794,
          "IngredientIndustrySector": "Retail",
          "IngredientType": "Inedible",
          "ProductId": null,
          "RecipeId": 74550
        },
        {
          "IngredientCategory": "KRL",
          "IngredientId": 68882,
          "IngredientIndustrySector": "Retail",
          "IngredientType": "KHC",
          "ProductId": "00054400015034",
          "RecipeId": 74550
        },
        {
          "IngredientCategory": "KRL",
          "IngredientId": 69763,
          "IngredientIndustrySector": "Retail",
          "IngredientType": "KHC",
          "ProductId": "00021000301676",
          "RecipeId": 74550
        },
        {
          "IngredientCategory": "KRL",
          "IngredientId": 70269,
          "IngredientIndustrySector": "Retail",
          "IngredientType": "Inedible",
          "ProductId": null,
          "RecipeId": 74550
        }
      ],
      "RiseTaxonomy": [
        {
          "ParentTaxonomyId": 0,
          "RecipeId": 74550,
          "ResourceName": "Recipe",
          "TaxonomyId": 64,
          "TaxonomyName": "Side Dishes",
          "TaxonomyTypeId": 2,
          "TaxonomyTypeName": "Meal Part"
        },
        {
          "ParentTaxonomyId": 35,
          "RecipeId": 74550,
          "ResourceName": "Recipe",
          "TaxonomyId": 82,
          "TaxonomyName": "Biscuits & Scones",
          "TaxonomyTypeId": 3,
          "TaxonomyTypeName": "Dish Type"
        },
        {
          "ParentTaxonomyId": 0,
          "RecipeId": 74550,
          "ResourceName": "Recipe",
          "TaxonomyId": 322,
          "TaxonomyName": "Saint Patrick's Day",
          "TaxonomyTypeId": 5,
          "TaxonomyTypeName": "Occasion-Theme"
        },
        {
          "ParentTaxonomyId": 0,
          "RecipeId": 74550,
          "ResourceName": "Recipe",
          "TaxonomyId": 325,
          "TaxonomyName": "Thanksgiving",
          "TaxonomyTypeId": 5,
          "TaxonomyTypeName": "Occasion-Theme"
        },
        {
          "ParentTaxonomyId": 0,
          "RecipeId": 74550,
          "ResourceName": "Recipe",
          "TaxonomyId": 337,
          "TaxonomyName": "Spring",
          "TaxonomyTypeId": 6,
          "TaxonomyTypeName": "Season"
        }
      ],
      "Riserecipe": [
        {
          "GRIN": 549676,
          "RecipeId": 74550,
          "RecipeIndustrySector": "Retail",
          "RecipeType": "Internal"
        }
      ],
      "RomanceText": "Try our tender, flaky One-Bowl Cheddar Biscuits! Made with cheddar cheese, fresh herbs and sour cream, our One-Bowl Cheddar Biscuits will go fast!\n",
      "SEOName": "one-bowl-cheddar-biscuits-74550",
      "Tips": [
        {
          "RecipeId": 74550,
          "Sequence": 10,
          "TipDescription": "Prepare using KRAFT 2% Milk Shredded Cheddar Cheese and BREAKSTONE'S Reduced Fat Sour Cream.",
          "TipID": 1,
          "TipName": "Variation"
        },
        {
          "RecipeId": 74550,
          "Sequence": 20,
          "TipDescription": "Prepare using whatever herbs are in season, selecting the herbs which best complement the other foods being served.",
          "TipID": 2,
          "TipName": "Best of Season"
        }
      ],
      "TotalTime": 30,
      "TradeMarkInfo": null,
      "Video": [],
      "Yield": "12 servings"
    }
  ]
}