{
  "Metadata": {
    "PageCount": 1,
    "PageNo": 0,
    "TotalCount": 0
  },
  "Recipes": [
    {
      "AdServingKeywords": "Bacon,Cheese,Dairy,Meat,Onion,Peppers,Rice,Sour Cream,Vegetables,Side Dish,Easy,Top of Stove,All Seasons,Breakstones,Knudsen,Kraft Cheese,Kraft Salad Dressing,Kraft Shredded Cheese,Oscar Mayer,Cooking for a Crowd,Spicy",
      "AlternateLanguageRecipes": [
        {
          "LanguageId": "2",
          "RecipeId": "112758",
          "SiteId": "90"
        }
      ],
      "Assets": [
        {
          "PictureFormats": [
            {
              "rendition": "640x428",
              "url": "http://assets.kraftfoods.com/recipe_images/opendeploy/112757_640x428.jpg"
            }
          ],
          "author": null,
          "id": "0",
          "imageType": "Primary",
          "mimeType": "image/jpeg",
          "publicationDate": null,
          "status": "1",
          "title": "112757",
          "type": "image"
        },
        {
          "PictureFormats": [
            {
              "rendition": "300x200",
              "url": "http://assets.kraftfoods.com/recipe_images/Trio-Rice-Medley-56297CK.jpg"
            }
          ],
          "author": null,
          "id": "0",
          "imageType": "LANDSCAPE",
          "mimeType": null,
          "publicationDate": null,
          "status": "1",
          "title": "Trio-Rice-Medley-56297CK.jpg",
          "type": "image"
        }
      ],
      "AverageRating": 0,
      "BrandId": 90,
      "Branding": null,
      "CSSSkins": null,
      "CarbCounter": null,
      "Categories": [
        {
          "CategoryID": 9,
          "CategoryName": "Salads/Side Dishes",
          "CategoryRank": 13,
          "SubCategoryID": 37,
          "SubCategoryName": "Rice/Grain Side Dishes",
          "SubCategoryRank": 140
        },
        {
          "CategoryID": 11,
          "CategoryName": "Primary",
          "CategoryRank": 0,
          "SubCategoryID": 99,
          "SubCategoryName": "Side Dishes",
          "SubCategoryRank": 90
        },
        {
          "CategoryID": 754,
          "CategoryName": "Rice & Noodles",
          "CategoryRank": 8,
          "SubCategoryID": 2551,
          "SubCategoryName": "Rice",
          "SubCategoryRank": 1
        },
        {
          "CategoryID": 814,
          "CategoryName": "Latin",
          "CategoryRank": 8,
          "SubCategoryID": 3142,
          "SubCategoryName": "Salad/Side Dishes",
          "SubCategoryRank": 110
        }
      ],
      "Classifications": [],
      "ComplimentaryRecipes": [
        {
          "AverageRating": 0,
          "HasVideo": false,
          "IsHealthyLiving": false,
          "NumberOfRatings": 0,
          "PhotoName": null,
          "PhotoUrl": null,
          "RecipeId": 110665,
          "RecipeName": null,
          "SEOName": "red-snapper-cancato-style-chorizo-tomato-salsa-110665",
          "ThumbnailPhoto": "Red_Snapper_Cancato_Style_with_Chorizo-Tomato_Salsa.jpg"
        }
      ],
      "CookingMethod": null,
      "Copyright": null,
      "Courses": [
        "Salads & sides"
      ],
      "DietExchange": null,
      "DishDetails": [],
      "EndDate": "/Date(-62135575200000-0600)/",
      "HasVideo": false,
      "Ingredients": [
        {
          "FullMeasure": "2 Tbsp.",
          "FullWeight": "",
          "IngredientGridHeaders": null,
          "IngredientID": 1366,
          "IngredientName": "oil",
          "IngredientStep": 10,
          "LanguageId": 0,
          "PostPreparation": "",
          "PrePreparation": "",
          "QuantityNum": 2,
          "QuantityText": "2",
          "QuantityUnit": "Tbsp.",
          "RecipeIngredientID": 6472147,
          "TrialMeasure": "",
          "TrialWeight": ""
        },
        {
          "FullMeasure": "1 small",
          "FullWeight": "",
          "IngredientGridHeaders": null,
          "IngredientID": 1370,
          "IngredientName": "onion",
          "IngredientStep": 20,
          "LanguageId": 0,
          "PostPreparation": ", chopped",
          "PrePreparation": "",
          "QuantityNum": 1,
          "QuantityText": "1",
          "QuantityUnit": "small",
          "RecipeIngredientID": 6472151,
          "TrialMeasure": "",
          "TrialWeight": ""
        },
        {
          "FullMeasure": "2 cups",
          "FullWeight": "",
          "IngredientGridHeaders": null,
          "IngredientID": 1312,
          "IngredientName": "long-grain white rice",
          "IngredientStep": 30,
          "LanguageId": 0,
          "PostPreparation": ", uncooked",
          "PrePreparation": "",
          "QuantityNum": 2,
          "QuantityText": "2",
          "QuantityUnit": "cups",
          "RecipeIngredientID": 6472149,
          "TrialMeasure": "",
          "TrialWeight": ""
        },
        {
          "FullMeasure": "4 cups",
          "FullWeight": "",
          "IngredientGridHeaders": null,
          "IngredientID": 9786,
          "IngredientName": "fat-free reduced-sodium chicken broth",
          "IngredientStep": 40,
          "LanguageId": 0,
          "PostPreparation": "",
          "PrePreparation": "",
          "QuantityNum": 4,
          "QuantityText": "4",
          "QuantityUnit": "cups",
          "RecipeIngredientID": 6472150,
          "TrialMeasure": "",
          "TrialWeight": ""
        },
        {
          "FullMeasure": "2 Tbsp.",
          "FullWeight": "",
          "IngredientGridHeaders": null,
          "IngredientID": 499,
          "IngredientName": "KRAFT Zesty Italian Dressing",
          "IngredientStep": 50,
          "LanguageId": 0,
          "PostPreparation": "",
          "PrePreparation": "",
          "QuantityNum": 2,
          "QuantityText": "2",
          "QuantityUnit": "Tbsp.",
          "RecipeIngredientID": 6472148,
          "TrialMeasure": "",
          "TrialWeight": ""
        },
        {
          "FullMeasure": "1/4 cup",
          "FullWeight": "",
          "IngredientGridHeaders": null,
          "IngredientID": 1119,
          "IngredientName": "fresh parsley",
          "IngredientStep": 60,
          "LanguageId": 0,
          "PostPreparation": " and fresh cilantro",
          "PrePreparation": "<u>each</u>",
          "QuantityNum": 0,
          "QuantityText": "1/4",
          "QuantityUnit": "cup",
          "RecipeIngredientID": 6472141,
          "TrialMeasure": "",
          "TrialWeight": ""
        },
        {
          "FullMeasure": "1 pkt.",
          "FullWeight": "",
          "IngredientGridHeaders": null,
          "IngredientID": 19464,
          "IngredientName": "seasoning with cilantro and tomato",
          "IngredientStep": 70,
          "LanguageId": 0,
          "PostPreparation": "",
          "PrePreparation": "(4.8g/0.1685 oz.)",
          "QuantityNum": 1,
          "QuantityText": "1",
          "QuantityUnit": "pkt.",
          "RecipeIngredientID": 6472146,
          "TrialMeasure": "",
          "TrialWeight": ""
        },
        {
          "FullMeasure": "1/2 cup",
          "FullWeight": "",
          "IngredientGridHeaders": null,
          "IngredientID": 2061,
          "IngredientName": "frozen vegetable blend",
          "IngredientStep": 80,
          "LanguageId": 0,
          "PostPreparation": " (corn, diced carrots, peas and cut green beans), cooked",
          "PrePreparation": "classic mixed",
          "QuantityNum": 0,
          "QuantityText": "1/2",
          "QuantityUnit": "cup",
          "RecipeIngredientID": 6472143,
          "TrialMeasure": "",
          "TrialWeight": ""
        },
        {
          "FullMeasure": "4 slices",
          "FullWeight": "",
          "IngredientGridHeaders": null,
          "IngredientID": 578,
          "IngredientName": "OSCAR MAYER Bacon",
          "IngredientStep": 90,
          "LanguageId": 0,
          "PostPreparation": ", crumbled",
          "PrePreparation": "cooked",
          "QuantityNum": 4,
          "QuantityText": "4",
          "QuantityUnit": "slices",
          "RecipeIngredientID": 6472144,
          "TrialMeasure": "",
          "TrialWeight": ""
        },
        {
          "FullMeasure": "1/4 cup",
          "FullWeight": "",
          "IngredientGridHeaders": null,
          "IngredientID": 88,
          "IngredientName": "BREAKSTONE'S or KNUDSEN Sour Cream",
          "IngredientStep": 100,
          "LanguageId": 0,
          "PostPreparation": "",
          "PrePreparation": "",
          "QuantityNum": 0,
          "QuantityText": "1/4",
          "QuantityUnit": "cup",
          "RecipeIngredientID": 6472140,
          "TrialMeasure": "",
          "TrialWeight": ""
        },
        {
          "FullMeasure": "1",
          "FullWeight": "",
          "IngredientGridHeaders": null,
          "IngredientID": 5004,
          "IngredientName": "poblano chile",
          "IngredientStep": 110,
          "LanguageId": 0,
          "PostPreparation": ", roasted, peeled and cut into thin strips",
          "PrePreparation": "",
          "QuantityNum": 1,
          "QuantityText": "1",
          "QuantityUnit": "",
          "RecipeIngredientID": 6472145,
          "TrialMeasure": "",
          "TrialWeight": ""
        },
        {
          "FullMeasure": "1/3 cup",
          "FullWeight": "",
          "IngredientGridHeaders": null,
          "IngredientID": 3466,
          "IngredientName": "KRAFT Mexican Style Finely Shredded Four Cheese",
          "IngredientStep": 120,
          "LanguageId": 0,
          "PostPreparation": "",
          "PrePreparation": "",
          "QuantityNum": 0,
          "QuantityText": "1/3",
          "QuantityUnit": "cup",
          "RecipeIngredientID": 6472142,
          "TrialMeasure": "",
          "TrialWeight": ""
        }
      ],
      "IsHealthyLiving": false,
      "KRLId": "561074",
      "KeyIngredients": [
        "Bacon",
        "Cheese",
        "Dairy",
        "Meat",
        "Onion",
        "Peppers",
        "Rice",
        "Vegetables"
      ],
      "Keywords": "oil,onions,OSCAR MAYER Bacon,peppers,pork,rice,bacon,BREAKSTONE'S Sour Cream,cheese,chicken broth or bouillon,dressing,frozen vegetables,hot peppers,italian dressing,KNUDSEN Sour Cream,KRAFT Dressing,KRAFT Mexican Cheese Shreds,meat,mexican-style cheese,mixed vegetables,salad dressing,sour cream,spices,vegetables,chile peppers,parsley,seasonings,broth,Side Dish,Easy,Top of Stove,All Seasons,Spicy,Cooking for a Crowd",
      "LanguageId": 1,
      "LifeStyles": [],
      "NumberOfIngredients": 12,
      "NumberOfRatings": 0,
      "NumberOfRatingsWithComments": "0",
      "NumberOfServings": "12 servings, about 1/2 cup each",
      "NumberOfTrialServings": null,
      "NutritionBonus": null,
      "NutritionExchangeItemId": 0,
      "NutritionGridItems": null,
      "NutritionItems": [
        {
          "DisplayOrder": 1,
          "Document": null,
          "NutritionItemID": 3,
          "NutritionItemName": "Calories",
          "Predriscriptor": "",
          "Quantity": 180,
          "Unit": "          "
        },
        {
          "DisplayOrder": 2,
          "Document": "fat_cholesterol.html",
          "NutritionItemID": 4,
          "NutritionItemName": "Total fat",
          "Predriscriptor": "",
          "Quantity": 6,
          "Unit": "g         "
        },
        {
          "DisplayOrder": 3,
          "Document": "fat_cholesterol.html",
          "NutritionItemID": 9,
          "NutritionItemName": "Saturated fat",
          "Predriscriptor": "",
          "Quantity": 2,
          "Unit": "g         "
        },
        {
          "DisplayOrder": 7,
          "Document": "fat_cholesterol.html",
          "NutritionItemID": 2,
          "NutritionItemName": "Cholesterol",
          "Predriscriptor": "",
          "Quantity": 10,
          "Unit": "mg        "
        },
        {
          "DisplayOrder": 8,
          "Document": "sodium.html",
          "NutritionItemID": 8,
          "NutritionItemName": "Sodium",
          "Predriscriptor": "",
          "Quantity": 310,
          "Unit": "mg        "
        },
        {
          "DisplayOrder": 10,
          "Document": "carbs_sugars_fiber.html",
          "NutritionItemID": 1,
          "NutritionItemName": "Carbohydrate",
          "Predriscriptor": "",
          "Quantity": 27,
          "Unit": "g         "
        },
        {
          "DisplayOrder": 11,
          "Document": "carbs_sugars_fiber.html",
          "NutritionItemID": 7,
          "NutritionItemName": "Dietary fiber",
          "Predriscriptor": "Less than",
          "Quantity": 1,
          "Unit": "g         "
        },
        {
          "DisplayOrder": 12,
          "Document": "carbs_sugars_fiber.html",
          "NutritionItemID": 5,
          "NutritionItemName": "Sugars",
          "Predriscriptor": "",
          "Quantity": 1,
          "Unit": "g         "
        },
        {
          "DisplayOrder": 13,
          "Document": null,
          "NutritionItemID": 6,
          "NutritionItemName": "Protein",
          "Predriscriptor": "",
          "Quantity": 4,
          "Unit": "g         "
        },
        {
          "DisplayOrder": 14,
          "Document": null,
          "NutritionItemID": 10,
          "NutritionItemName": "Vitamin A",
          "Predriscriptor": "",
          "Quantity": 6,
          "Unit": "%DV       "
        },
        {
          "DisplayOrder": 15,
          "Document": null,
          "NutritionItemID": 11,
          "NutritionItemName": "Vitamin C",
          "Predriscriptor": "",
          "Quantity": 4,
          "Unit": "%DV       "
        },
        {
          "DisplayOrder": 16,
          "Document": "dairy_and_calcium.html",
          "NutritionItemID": 12,
          "NutritionItemName": "Calcium",
          "Predriscriptor": "",
          "Quantity": 4,
          "Unit": "%DV       "
        },
        {
          "DisplayOrder": 17,
          "Document": null,
          "NutritionItemID": 13,
          "NutritionItemName": "Iron",
          "Predriscriptor": "",
          "Quantity": 8,
          "Unit": "%DV       "
        }
      ],
      "NutritionServingText": " ",
      "PrepStepImage": null,
      "PreparationDescription": "Heat oil in large saucepan.  Add onions and rice; cook and stir 3 min.  Add broth; bring to boil. Cover; simmer on low heat 20 min. or until broth is absorbed. $Blend dressing, parsley and cilantro in blender until smooth. Mix with 1/3 of the rice; spoon onto ovenproof platter. Cover to keep warm.$Mix contents of seasoning packet with half the remaining rice.  Stir in vegetables and bacon; spoon next to green rice on platter. Top remaining rice (in skillet) with remaining ingredients; cover with lid.  Cook until cheese is melted.  Spoon next to other mounds of rice on platter.",
      "PreparationPreText": "",
      "PreparationSteps": [
        {
          "Description": "Heat oil in large saucepan.  Add onions and rice; cook and stir 3 min.  Add broth; bring to boil. Cover; simmer on low heat 20 min. or until broth is absorbed. ",
          "PreparationStepImage": {
            "PictureFormats": [],
            "author": null,
            "id": null,
            "imageType": null,
            "mimeType": null,
            "publicationDate": null,
            "status": null,
            "title": null,
            "type": null
          },
          "Sequence": 1
        },
        {
          "Description": "Blend dressing, parsley and cilantro in blender until smooth. Mix with 1/3 of the rice; spoon onto ovenproof platter. Cover to keep warm.",
          "PreparationStepImage": {
            "PictureFormats": [],
            "author": null,
            "id": null,
            "imageType": null,
            "mimeType": null,
            "publicationDate": null,
            "status": null,
            "title": null,
            "type": null
          },
          "Sequence": 2
        },
        {
          "Description": "Mix contents of seasoning packet with half the remaining rice.  Stir in vegetables and bacon; spoon next to green rice on platter. Top remaining rice (in skillet) with remaining ingredients; cover with lid.  Cook until cheese is melted.  Spoon next to other mounds of rice on platter.",
          "PreparationStepImage": {
            "PictureFormats": [],
            "author": null,
            "id": null,
            "imageType": null,
            "mimeType": null,
            "publicationDate": null,
            "status": null,
            "title": null,
            "type": null
          },
          "Sequence": 3
        }
      ],
      "PreparationTime": 15,
      "Promotion": null,
      "Ratings": {
        "TotalCount": 0,
        "PageCount": 10,
        "PageNo": 1,
        "Rating": []
      },
      "RecipeDisplayFormatId": 5,
      "RecipeId": 112757,
      "RecipeName": "Trio Rice Medley",
      "RecipeType": 0,
      "RelatedData": {
        "RelatedBrands": null,
        "RelatedProducts": null,
        "RelatedRecipes": {
          "DefaultTopCount": 5,
          "Recipe": [
            {
              "AverageRating": 4,
              "HasVideo": false,
              "IsHealthyLiving": false,
              "NumberOfRatings": 83,
              "PhotoName": "Dijon_Shrimp_Scampi.jpg",
              "PhotoUrl": "http://assets.kraftfoods.com/recipe_images/opendeploy/Dijon_Shrimp_Scampi.jpg",
              "RecipeId": 54071,
              "RecipeName": "Dijon Shrimp Scampi",
              "SEOName": "dijon-shrimp-scampi-54071",
              "ThumbnailPhoto": null
            },
            {
              "AverageRating": 4.5,
              "HasVideo": false,
              "IsHealthyLiving": false,
              "NumberOfRatings": 119,
              "PhotoName": "Shrimp_Scampi.jpg",
              "PhotoUrl": "http://assets.kraftfoods.com/recipe_images/opendeploy/Shrimp_Scampi.jpg",
              "RecipeId": 52161,
              "RecipeName": "Shrimp Scampi Recipe",
              "SEOName": "shrimp-scampi-recipe-52161",
              "ThumbnailPhoto": null
            },
            {
              "AverageRating": 4.4,
              "HasVideo": false,
              "IsHealthyLiving": true,
              "NumberOfRatings": 8,
              "PhotoName": "Shrimp_Scampi_Spread.jpg",
              "PhotoUrl": "http://assets.kraftfoods.com/recipe_images/opendeploy/Shrimp_Scampi_Spread.jpg",
              "RecipeId": 104777,
              "RecipeName": "Healthy Living Shrimp Scampi Spread",
              "SEOName": "healthy-living-shrimp-scampi-spread-104777",
              "ThumbnailPhoto": null
            },
            {
              "AverageRating": 4.4,
              "HasVideo": false,
              "IsHealthyLiving": false,
              "NumberOfRatings": 7,
              "PhotoName": "128067.jpg",
              "PhotoUrl": "http://assets.kraftfoods.com/recipe_images/opendeploy/128067.jpg",
              "RecipeId": 128067,
              "RecipeName": "Make-Ahead Cheesy Shrimp & Rice",
              "SEOName": "make-ahead-cheesy-shrimp-rice-128067",
              "ThumbnailPhoto": null
            },
            {
              "AverageRating": 4.4,
              "HasVideo": false,
              "IsHealthyLiving": false,
              "NumberOfRatings": 17,
              "PhotoName": "121722.jpg",
              "PhotoUrl": "http://assets.kraftfoods.com/recipe_images/opendeploy/121722.jpg",
              "RecipeId": 121722,
              "RecipeName": "Creamy Shrimp & Rice",
              "SEOName": "creamy-shrimp-rice-121722",
              "ThumbnailPhoto": null
            }
          ],
          "TotalCount": 556
        }
      },
      "RiseIngredients": [],
      "RiseTaxonomy": [],
      "Riserecipe": [
        {
          "GRIN": 561074,
          "RecipeId": 112757,
          "RecipeIndustrySector": "Retail",
          "RecipeType": "Internal"
        }
      ],
      "RomanceText": "Find out why three is the magic number when you make our Trio Rice Medley. This scrumptious Trio Rice Medley is just as colorful as it delicious!",
      "SEOName": "trio-rice-medley-112757",
      "Tips": [
        {
          "RecipeId": 112757,
          "Sequence": 10,
          "TipDescription": "When adding stir-ins to cooked rice, use a fork to gently mix the ingredients in.  This will help prevent the rice from clumping together. ",
          "TipID": 2,
          "TipName": "Note"
        },
        {
          "RecipeId": 112757,
          "Sequence": 20,
          "TipDescription": "Prepare using your favorite frozen vegetable blend.",
          "TipID": 3,
          "TipName": "Substitute"
        }
      ],
      "TotalTime": 35,
      "TradeMarkInfo": null,
      "Video": [],
      "Yield": "12 servings, about 1/2 cup each"
    }
  ]
}