{
  "Metadata": {
    "PageCount": 1,
    "PageNo": 0,
    "TotalCount": 0
  },
  "Recipes": [
    {
      "AdServingKeywords": "Bacon,Cheese,Corn,Dairy,Meat,Vegetables,Side Dish,Oscar Mayer,Velveeta",
      "AlternateLanguageRecipes": [],
      "Assets": [],
      "AverageRating": 0,
      "BrandId": 1,
      "Branding": null,
      "CSSSkins": null,
      "CarbCounter": null,
      "Categories": [
        {
          "CategoryID": 9,
          "CategoryName": "Salads/Side Dishes",
          "CategoryRank": 13,
          "SubCategoryID": 39,
          "SubCategoryName": "Vegetables Side Dishes",
          "SubCategoryRank": 200
        },
        {
          "CategoryID": 11,
          "CategoryName": "Primary",
          "CategoryRank": 0,
          "SubCategoryID": 99,
          "SubCategoryName": "Side Dishes",
          "SubCategoryRank": 90
        },
        {
          "CategoryID": 757,
          "CategoryName": "Vegetables & Vegetarian Meals",
          "CategoryRank": 11,
          "SubCategoryID": 2569,
          "SubCategoryName": "Entrée",
          "SubCategoryRank": 1
        },
        {
          "CategoryID": 757,
          "CategoryName": "Vegetables & Vegetarian Meals",
          "CategoryRank": 11,
          "SubCategoryID": 2571,
          "SubCategoryName": "Side / Other",
          "SubCategoryRank": 1
        }
      ],
      "Classifications": [],
      "ComplimentaryRecipes": null,
      "CookingMethod": null,
      "Copyright": null,
      "Courses": [
        "Main dishes",
        "Salads & sides"
      ],
      "DietExchange": null,
      "DishDetails": [],
      "EndDate": "/Date(-62135575200000-0600)/",
      "HasVideo": false,
      "Ingredients": [
        {
          "FullMeasure": "4",
          "FullWeight": "",
          "IngredientGridHeaders": null,
          "IngredientID": 2184,
          "IngredientName": "ears corn on the cob",
          "IngredientStep": 10,
          "LanguageId": 0,
          "PostPreparation": " (in husks)",
          "PrePreparation": "",
          "QuantityNum": 4,
          "QuantityText": "4",
          "QuantityUnit": "",
          "RecipeIngredientID": 6201425,
          "TrialMeasure": "",
          "TrialWeight": ""
        },
        {
          "FullMeasure": "1 cup",
          "FullWeight": "",
          "IngredientGridHeaders": null,
          "IngredientID": 1345,
          "IngredientName": "milk",
          "IngredientStep": 20,
          "LanguageId": 0,
          "PostPreparation": "",
          "PrePreparation": "",
          "QuantityNum": 1,
          "QuantityText": "1",
          "QuantityUnit": "cup",
          "RecipeIngredientID": 6201424,
          "TrialMeasure": "",
          "TrialWeight": ""
        },
        {
          "FullMeasure": "2 slices",
          "FullWeight": "",
          "IngredientGridHeaders": null,
          "IngredientID": 578,
          "IngredientName": "OSCAR MAYER Bacon",
          "IngredientStep": 30,
          "LanguageId": 0,
          "PostPreparation": ", cut into 1-inch pieces",
          "PrePreparation": "",
          "QuantityNum": 2,
          "QuantityText": "2",
          "QuantityUnit": "slices",
          "RecipeIngredientID": 6201430,
          "TrialMeasure": "",
          "TrialWeight": ""
        },
        {
          "FullMeasure": "1 Tbsp.",
          "FullWeight": "",
          "IngredientGridHeaders": null,
          "IngredientID": 1080,
          "IngredientName": "flour",
          "IngredientStep": 40,
          "LanguageId": 0,
          "PostPreparation": "",
          "PrePreparation": "",
          "QuantityNum": 1,
          "QuantityText": "1",
          "QuantityUnit": "Tbsp.",
          "RecipeIngredientID": 6201428,
          "TrialMeasure": "",
          "TrialWeight": ""
        },
        {
          "FullMeasure": "1/4 lb.",
          "FullWeight": "",
          "IngredientGridHeaders": null,
          "IngredientID": 21744,
          "IngredientName": "Queso Blanco VELVEETA®",
          "IngredientStep": 50,
          "LanguageId": 0,
          "PostPreparation": ", cut into 1/2-inch cubes",
          "PrePreparation": "(4 oz.)",
          "QuantityNum": 0,
          "QuantityText": "1/4",
          "QuantityUnit": "lb.",
          "RecipeIngredientID": 6201427,
          "TrialMeasure": "",
          "TrialWeight": ""
        },
        {
          "FullMeasure": "1/4 tsp.",
          "FullWeight": "",
          "IngredientGridHeaders": null,
          "IngredientID": 818,
          "IngredientName": "black pepper",
          "IngredientStep": 60,
          "LanguageId": 0,
          "PostPreparation": "",
          "PrePreparation": "",
          "QuantityNum": 0,
          "QuantityText": "1/4",
          "QuantityUnit": "tsp.",
          "RecipeIngredientID": 6201429,
          "TrialMeasure": "",
          "TrialWeight": ""
        },
        {
          "FullMeasure": "2 Tbsp.",
          "FullWeight": "",
          "IngredientGridHeaders": null,
          "IngredientID": 1119,
          "IngredientName": "fresh parsley",
          "IngredientStep": 70,
          "LanguageId": 0,
          "PostPreparation": "",
          "PrePreparation": "chopped",
          "QuantityNum": 2,
          "QuantityText": "2",
          "QuantityUnit": "Tbsp.",
          "RecipeIngredientID": 6201426,
          "TrialMeasure": "",
          "TrialWeight": ""
        }
      ],
      "IsHealthyLiving": false,
      "KRLId": "576273",
      "KeyIngredients": [
        "Bacon",
        "Corn",
        "Dairy",
        "Meat",
        "Vegetables"
      ],
      "Keywords": "OSCAR MAYER Bacon,pork,bacon,cheese,corn,meat,milk,VELVEETA,flour,parsley,queso blanco VELVEETA,Side Dish",
      "LanguageId": 1,
      "LifeStyles": [],
      "NumberOfIngredients": 7,
      "NumberOfRatings": 0,
      "NumberOfRatingsWithComments": "0",
      "NumberOfServings": "6 servings, 1/2 cup each",
      "NumberOfTrialServings": "",
      "NutritionBonus": null,
      "NutritionExchangeItemId": 0,
      "NutritionGridItems": null,
      "NutritionItems": [
        {
          "DisplayOrder": 1,
          "Document": null,
          "NutritionItemID": 3,
          "NutritionItemName": "Calories",
          "Predriscriptor": "",
          "Quantity": 150,
          "Unit": "          "
        },
        {
          "DisplayOrder": 2,
          "Document": "fat_cholesterol.html",
          "NutritionItemID": 4,
          "NutritionItemName": "Total fat",
          "Predriscriptor": "",
          "Quantity": 8,
          "Unit": "g         "
        },
        {
          "DisplayOrder": 3,
          "Document": "fat_cholesterol.html",
          "NutritionItemID": 9,
          "NutritionItemName": "Saturated fat",
          "Predriscriptor": "",
          "Quantity": 3.5,
          "Unit": "g         "
        },
        {
          "DisplayOrder": 7,
          "Document": "fat_cholesterol.html",
          "NutritionItemID": 2,
          "NutritionItemName": "Cholesterol",
          "Predriscriptor": "",
          "Quantity": 20,
          "Unit": "mg        "
        },
        {
          "DisplayOrder": 8,
          "Document": "sodium.html",
          "NutritionItemID": 8,
          "NutritionItemName": "Sodium",
          "Predriscriptor": "",
          "Quantity": 330,
          "Unit": "mg        "
        },
        {
          "DisplayOrder": 10,
          "Document": "carbs_sugars_fiber.html",
          "NutritionItemID": 1,
          "NutritionItemName": "Carbohydrate",
          "Predriscriptor": "",
          "Quantity": 17,
          "Unit": "g         "
        },
        {
          "DisplayOrder": 11,
          "Document": "carbs_sugars_fiber.html",
          "NutritionItemID": 7,
          "NutritionItemName": "Dietary fiber",
          "Predriscriptor": "",
          "Quantity": 1,
          "Unit": "g         "
        },
        {
          "DisplayOrder": 12,
          "Document": "carbs_sugars_fiber.html",
          "NutritionItemID": 5,
          "NutritionItemName": "Sugars",
          "Predriscriptor": "",
          "Quantity": 7,
          "Unit": "g         "
        },
        {
          "DisplayOrder": 13,
          "Document": null,
          "NutritionItemID": 6,
          "NutritionItemName": "Protein",
          "Predriscriptor": "",
          "Quantity": 7,
          "Unit": "g         "
        },
        {
          "DisplayOrder": 14,
          "Document": null,
          "NutritionItemID": 10,
          "NutritionItemName": "Vitamin A",
          "Predriscriptor": "",
          "Quantity": 8,
          "Unit": "%DV       "
        },
        {
          "DisplayOrder": 15,
          "Document": null,
          "NutritionItemID": 11,
          "NutritionItemName": "Vitamin C",
          "Predriscriptor": "",
          "Quantity": 4,
          "Unit": "%DV       "
        },
        {
          "DisplayOrder": 16,
          "Document": "dairy_and_calcium.html",
          "NutritionItemID": 12,
          "NutritionItemName": "Calcium",
          "Predriscriptor": "",
          "Quantity": 20,
          "Unit": "%DV       "
        },
        {
          "DisplayOrder": 17,
          "Document": null,
          "NutritionItemID": 13,
          "NutritionItemName": "Iron",
          "Predriscriptor": "",
          "Quantity": 4,
          "Unit": "%DV       "
        }
      ],
      "NutritionServingText": " ",
      "PrepStepImage": null,
      "PreparationDescription": "Cut 1/2-inch piece off top of each ear of corn; discard.  Snap off and discard any inedible ends of corn.  Microwave 2 ears of corn on HIGH 3 min.; set aside.  Repeat with remaining corn.  Cool 5 min.  $Remove husks and silk from corn; discard.  Cut kernels off corn cobs. Place 1 cup corn kernels in blender.  Add milk; blend until smooth.  $Cook and stir bacon in large skillet until crisp.  Remove bacon from skillet with slotted spoon; drain on paper towels. Crumble; set aside. Discard all but 1 Tbsp. drippings from skillet.  $Whisk flour into reserved drippings in skillet; cook and stir on medium heat 1 min.  Gradually stir in puréed corn.  Add VELVEETA and pepper; cook and stir 3 to 5 min. or until VELVEETA is completely melted and mixture is well blended.  Add corn kernels; cook 2 to 3 min. or until heated through, stirring frequently.  Remove from heat.$Stir in parsley; top with bacon.",
      "PreparationPreText": "",
      "PreparationSteps": [
        {
          "Description": "Cut 1/2-inch piece off top of each ear of corn; discard.  Snap off and discard any inedible ends of corn.  Microwave 2 ears of corn on HIGH 3 min.; set aside.  Repeat with remaining corn.  Cool 5 min.  ",
          "PreparationStepImage": {
            "PictureFormats": [],
            "author": null,
            "id": null,
            "imageType": null,
            "mimeType": null,
            "publicationDate": null,
            "status": null,
            "title": null,
            "type": null
          },
          "Sequence": 1
        },
        {
          "Description": "Remove husks and silk from corn; discard.  Cut kernels off corn cobs. Place 1 cup corn kernels in blender.  Add milk; blend until smooth.  ",
          "PreparationStepImage": {
            "PictureFormats": [],
            "author": null,
            "id": null,
            "imageType": null,
            "mimeType": null,
            "publicationDate": null,
            "status": null,
            "title": null,
            "type": null
          },
          "Sequence": 2
        },
        {
          "Description": "Cook and stir bacon in large skillet until crisp.  Remove bacon from skillet with slotted spoon; drain on paper towels. Crumble; set aside. Discard all but 1 Tbsp. drippings from skillet.  ",
          "PreparationStepImage": {
            "PictureFormats": [],
            "author": null,
            "id": null,
            "imageType": null,
            "mimeType": null,
            "publicationDate": null,
            "status": null,
            "title": null,
            "type": null
          },
          "Sequence": 3
        },
        {
          "Description": "Whisk flour into reserved drippings in skillet; cook and stir on medium heat 1 min.  Gradually stir in puréed corn.  Add VELVEETA and pepper; cook and stir 3 to 5 min. or until VELVEETA is completely melted and mixture is well blended.  Add corn kernels; cook 2 to 3 min. or until heated through, stirring frequently.  Remove from heat.",
          "PreparationStepImage": {
            "PictureFormats": [],
            "author": null,
            "id": null,
            "imageType": null,
            "mimeType": null,
            "publicationDate": null,
            "status": null,
            "title": null,
            "type": null
          },
          "Sequence": 4
        },
        {
          "Description": "Stir in parsley; top with bacon.",
          "PreparationStepImage": {
            "PictureFormats": [],
            "author": null,
            "id": null,
            "imageType": null,
            "mimeType": null,
            "publicationDate": null,
            "status": null,
            "title": null,
            "type": null
          },
          "Sequence": 5
        }
      ],
      "PreparationTime": 40,
      "Promotion": null,
      "Ratings": {
        "TotalCount": 0,
        "PageCount": 10,
        "PageNo": 1,
        "Rating": []
      },
      "RecipeDisplayFormatId": 5,
      "RecipeId": 201542,
      "RecipeName": "Summer-Fresh Creamed Corn Recipe",
      "RecipeType": 0,
      "RelatedData": {
        "RelatedBrands": null,
        "RelatedProducts": null,
        "RelatedRecipes": {
          "DefaultTopCount": 5,
          "Recipe": [
            {
              "AverageRating": 4.3,
              "HasVideo": false,
              "IsHealthyLiving": true,
              "NumberOfRatings": 3,
              "PhotoName": "Garden-Potato-Salad-61352.jpg",
              "PhotoUrl": "http://assets.kraftfoods.com/recipe_images/opendeploy/Garden-Potato-Salad-61352.jpg",
              "RecipeId": 133848,
              "RecipeName": "Garden Potato Salad",
              "SEOName": "garden-potato-salad-133848",
              "ThumbnailPhoto": null
            },
            {
              "AverageRating": 4.7,
              "HasVideo": false,
              "IsHealthyLiving": true,
              "NumberOfRatings": 146,
              "PhotoName": "75225.jpg",
              "PhotoUrl": "http://assets.kraftfoods.com/recipe_images/opendeploy/75225.jpg",
              "RecipeId": 75225,
              "RecipeName": "Fresh Corn Salsa",
              "SEOName": "fresh-corn-salsa-75225",
              "ThumbnailPhoto": null
            },
            {
              "AverageRating": 4.1,
              "HasVideo": false,
              "IsHealthyLiving": true,
              "NumberOfRatings": 22,
              "PhotoName": "64844.jpg",
              "PhotoUrl": "http://assets.kraftfoods.com/recipe_images/opendeploy/64844.jpg",
              "RecipeId": 64844,
              "RecipeName": "Fresh-from-the-Cob Corn Salad",
              "SEOName": "fresh-from-the-cob-corn-salad-64844",
              "ThumbnailPhoto": null
            },
            {
              "AverageRating": 4,
              "HasVideo": false,
              "IsHealthyLiving": false,
              "NumberOfRatings": 1,
              "PhotoName": "118543.jpg",
              "PhotoUrl": "http://assets.kraftfoods.com/recipe_images/opendeploy/118543.jpg",
              "RecipeId": 118543,
              "RecipeName": "Summer Vegetable Pasta Toss",
              "SEOName": "summer-vegetable-pasta-toss-118543",
              "ThumbnailPhoto": null
            },
            {
              "AverageRating": 5,
              "HasVideo": false,
              "IsHealthyLiving": true,
              "NumberOfRatings": 1,
              "PhotoName": "150547.jpg",
              "PhotoUrl": "http://assets.kraftfoods.com/recipe_images/opendeploy/150547.jpg",
              "RecipeId": 150547,
              "RecipeName": "Fresh Corn & Avocado Salsa",
              "SEOName": "fresh-corn-avocado-salsa-150547",
              "ThumbnailPhoto": null
            }
          ],
          "TotalCount": 4979
        }
      },
      "RiseIngredients": [],
      "RiseTaxonomy": [],
      "Riserecipe": [
        {
          "GRIN": 576273,
          "RecipeId": 201542,
          "RecipeIndustrySector": "Retail",
          "RecipeType": "Internal"
        }
      ],
      "RomanceText": "Make the most out of the warm weather when you follow this Summer-Fresh Creamed Corn Recipe. This dish is perfect for those hot summer days!",
      "SEOName": "summer-fresh-creamed-corn-recipe-201542",
      "Tips": [
        {
          "RecipeId": 201542,
          "Sequence": 10,
          "TipDescription": "Substitute fresh chives for the parsley.",
          "TipID": 1,
          "TipName": "Substitute"
        },
        {
          "RecipeId": 201542,
          "Sequence": 20,
          "TipDescription": "Use your food processor to purée the corn instead of the blender. ",
          "TipID": 2,
          "TipName": "Variation  "
        }
      ],
      "TotalTime": 40,
      "TradeMarkInfo": null,
      "Video": [],
      "Yield": "6 servings, 1/2 cup each"
    }
  ]
}