{
  "Metadata": {
    "PageCount": 1,
    "PageNo": 0,
    "TotalCount": 0
  },
  "Recipes": [
    {
      "AdServingKeywords": "Beans / Legumes,Cheese,Meat,Onion,Parmesan,Pasta Sauce,Peppers,Sausage,Vegetables,Italian,Dinner,Lunch,All Seasons,Chili,Classico,Kraft Grated Cheese,Spicy",
      "AlternateLanguageRecipes": [],
      "Assets": [],
      "AverageRating": 0,
      "BrandId": 1,
      "Branding": null,
      "CSSSkins": null,
      "CarbCounter": null,
      "Categories": [
        {
          "CategoryID": 11,
          "CategoryName": "Primary",
          "CategoryRank": 0,
          "SubCategoryID": 100,
          "SubCategoryName": "Soups",
          "SubCategoryRank": 100
        },
        {
          "CategoryID": 14,
          "CategoryName": "Soup/Sandwiches",
          "CategoryRank": 14,
          "SubCategoryID": 448,
          "SubCategoryName": "Chili",
          "SubCategoryRank": 20
        },
        {
          "CategoryID": 755,
          "CategoryName": "International Flavours",
          "CategoryRank": 9,
          "SubCategoryID": 2555,
          "SubCategoryName": "Mexican / Spanish",
          "SubCategoryRank": 1
        }
      ],
      "Classifications": [],
      "ComplimentaryRecipes": null,
      "CookingMethod": null,
      "Copyright": null,
      "Courses": [
        "Soups/stews"
      ],
      "DietExchange": null,
      "DishDetails": [
        {
          "Text": "chili recipes",
          "Url": "/recipes/comfort-food/chili-recipes.aspx"
        }
      ],
      "EndDate": "/Date(-62135575200000-0600)/",
      "HasVideo": false,
      "Ingredients": [
        {
          "FullMeasure": null,
          "FullWeight": null,
          "IngredientGridHeaders": null,
          "IngredientID": 68002,
          "IngredientName": "(1 lb.) Italian sausage, casings removed",
          "IngredientStep": 10,
          "LanguageId": 0,
          "PostPreparation": "",
          "PrePreparation": "",
          "QuantityNum": 1,
          "QuantityText": "1",
          "QuantityUnit": "pkg.",
          "RecipeIngredientID": 216006,
          "TrialMeasure": null,
          "TrialWeight": null
        },
        {
          "FullMeasure": null,
          "FullWeight": null,
          "IngredientGridHeaders": null,
          "IngredientID": 67755,
          "IngredientName": "green pepper, chopped ",
          "IngredientStep": 20,
          "LanguageId": 0,
          "PostPreparation": "",
          "PrePreparation": "",
          "QuantityNum": 1,
          "QuantityText": "1",
          "QuantityUnit": "",
          "RecipeIngredientID": 212932,
          "TrialMeasure": null,
          "TrialWeight": null
        },
        {
          "FullMeasure": null,
          "FullWeight": null,
          "IngredientGridHeaders": null,
          "IngredientID": 68776,
          "IngredientName": "onion, chopped ",
          "IngredientStep": 30,
          "LanguageId": 0,
          "PostPreparation": "",
          "PrePreparation": "",
          "QuantityNum": 1,
          "QuantityText": "1",
          "QuantityUnit": "",
          "RecipeIngredientID": 214525,
          "TrialMeasure": null,
          "TrialWeight": null
        },
        {
          "FullMeasure": null,
          "FullWeight": null,
          "IngredientGridHeaders": null,
          "IngredientID": 74769,
          "IngredientName": "(24 oz.) OLIVO by CLASSICO Traditional Pasta Sauce",
          "IngredientStep": 40,
          "LanguageId": 0,
          "PostPreparation": "",
          "PrePreparation": "",
          "QuantityNum": 1,
          "QuantityText": "1 ",
          "QuantityUnit": "jar",
          "RecipeIngredientID": 216763,
          "TrialMeasure": null,
          "TrialWeight": null
        },
        {
          "FullMeasure": null,
          "FullWeight": null,
          "IngredientGridHeaders": null,
          "IngredientID": 68637,
          "IngredientName": "(15.5 oz.) kidney beans, drained",
          "IngredientStep": 50,
          "LanguageId": 0,
          "PostPreparation": "",
          "PrePreparation": "",
          "QuantityNum": 1,
          "QuantityText": "1 ",
          "QuantityUnit": "can",
          "RecipeIngredientID": 215924,
          "TrialMeasure": null,
          "TrialWeight": null
        },
        {
          "FullMeasure": null,
          "FullWeight": null,
          "IngredientGridHeaders": null,
          "IngredientID": 68772,
          "IngredientName": "chili powder",
          "IngredientStep": 60,
          "LanguageId": 0,
          "PostPreparation": "",
          "PrePreparation": "",
          "QuantityNum": 1,
          "QuantityText": "1",
          "QuantityUnit": "tsp.",
          "RecipeIngredientID": 216291,
          "TrialMeasure": null,
          "TrialWeight": null
        },
        {
          "FullMeasure": null,
          "FullWeight": null,
          "IngredientGridHeaders": null,
          "IngredientID": 68530,
          "IngredientName": "ground cumin",
          "IngredientStep": 70,
          "LanguageId": 0,
          "PostPreparation": "",
          "PrePreparation": "",
          "QuantityNum": 1,
          "QuantityText": "1",
          "QuantityUnit": "tsp.",
          "RecipeIngredientID": 215318,
          "TrialMeasure": null,
          "TrialWeight": null
        },
        {
          "FullMeasure": null,
          "FullWeight": null,
          "IngredientGridHeaders": null,
          "IngredientID": 68447,
          "IngredientName": "KRAFT Grated Parmesan Cheese, divided",
          "IngredientStep": 80,
          "LanguageId": 0,
          "PostPreparation": "",
          "PrePreparation": "",
          "QuantityNum": 0.25,
          "QuantityText": "1/4",
          "QuantityUnit": "cup",
          "RecipeIngredientID": 210170,
          "TrialMeasure": null,
          "TrialWeight": null
        }
      ],
      "IsHealthyLiving": false,
      "KRLId": "568830",
      "KeyIngredients": [],
      "Keywords": "Italian,Chili,Dinner,Lunch,All Seasons,Spicy",
      "LanguageId": 1,
      "LifeStyles": [],
      "NumberOfIngredients": 8,
      "NumberOfRatings": 0,
      "NumberOfRatingsWithComments": "0",
      "NumberOfServings": "6 servings, 1 cup each",
      "NumberOfTrialServings": null,
      "NutritionBonus": null,
      "NutritionExchangeItemId": 0,
      "NutritionGridItems": null,
      "NutritionItems": [
        {
          "DisplayOrder": 1,
          "Document": null,
          "NutritionItemID": 371,
          "NutritionItemName": "Calories",
          "Predriscriptor": "",
          "Quantity": 350,
          "Unit": "          "
        },
        {
          "DisplayOrder": 2,
          "Document": null,
          "NutritionItemID": 376,
          "NutritionItemName": "Total fat",
          "Predriscriptor": "",
          "Quantity": 19,
          "Unit": "g         "
        },
        {
          "DisplayOrder": 3,
          "Document": null,
          "NutritionItemID": 377,
          "NutritionItemName": "Saturated fat",
          "Predriscriptor": "",
          "Quantity": 7,
          "Unit": "g         "
        },
        {
          "DisplayOrder": 4,
          "Document": null,
          "NutritionItemID": 379,
          "NutritionItemName": "Polyunsaturated Fat",
          "Predriscriptor": "",
          "Quantity": 2.5,
          "Unit": "g         "
        },
        {
          "DisplayOrder": 5,
          "Document": null,
          "NutritionItemID": 378,
          "NutritionItemName": "Monounsaturated Fat",
          "Predriscriptor": "",
          "Quantity": 8,
          "Unit": "g         "
        },
        {
          "DisplayOrder": 6,
          "Document": null,
          "NutritionItemID": 380,
          "NutritionItemName": "Trans Fat",
          "Predriscriptor": "",
          "Quantity": 0,
          "Unit": "g         "
        },
        {
          "DisplayOrder": 7,
          "Document": null,
          "NutritionItemID": 381,
          "NutritionItemName": "Cholesterol",
          "Predriscriptor": "",
          "Quantity": 55,
          "Unit": "mg        "
        },
        {
          "DisplayOrder": 8,
          "Document": null,
          "NutritionItemID": 389,
          "NutritionItemName": "Sodium",
          "Predriscriptor": "",
          "Quantity": 1200,
          "Unit": "mg        "
        },
        {
          "DisplayOrder": 10,
          "Document": null,
          "NutritionItemID": 373,
          "NutritionItemName": "Carbohydrate",
          "Predriscriptor": "",
          "Quantity": 24,
          "Unit": "g         "
        },
        {
          "DisplayOrder": 11,
          "Document": null,
          "NutritionItemID": 374,
          "NutritionItemName": "Dietary fiber",
          "Predriscriptor": "",
          "Quantity": 6,
          "Unit": "g         "
        },
        {
          "DisplayOrder": 12,
          "Document": null,
          "NutritionItemID": 375,
          "NutritionItemName": "Sugars",
          "Predriscriptor": "",
          "Quantity": 11,
          "Unit": "g         "
        },
        {
          "DisplayOrder": 13,
          "Document": null,
          "NutritionItemID": 372,
          "NutritionItemName": "Protein",
          "Predriscriptor": "",
          "Quantity": 20,
          "Unit": "g         "
        },
        {
          "DisplayOrder": 14,
          "Document": null,
          "NutritionItemID": 382,
          "NutritionItemName": "Vitamin A",
          "Predriscriptor": "",
          "Quantity": 35,
          "Unit": "%DV       "
        },
        {
          "DisplayOrder": 15,
          "Document": null,
          "NutritionItemID": 383,
          "NutritionItemName": "Vitamin C",
          "Predriscriptor": "",
          "Quantity": 15,
          "Unit": "%DV       "
        },
        {
          "DisplayOrder": 16,
          "Document": null,
          "NutritionItemID": 386,
          "NutritionItemName": "Calcium",
          "Predriscriptor": "",
          "Quantity": 8,
          "Unit": "%DV       "
        },
        {
          "DisplayOrder": 17,
          "Document": null,
          "NutritionItemID": 387,
          "NutritionItemName": "Iron",
          "Predriscriptor": "",
          "Quantity": 20,
          "Unit": "%DV       "
        }
      ],
      "NutritionServingText": null,
      "PrepStepImage": null,
      "PreparationDescription": "Crumble sausage into large skillet; cook on medium heat 5 min. or until evenly browned, stirring occasionally.  Add peppers and onions; cook 5 min., stirring frequently.   $Add pasta sauce, beans, seasonings and 2 Tbsp. cheese; stir.  Simmer 1 hour, stirring occasionally.$Serve topped with remaining cheese.",
      "PreparationPreText": "",
      "PreparationSteps": [
        {
          "Description": "Crumble sausage into large skillet; cook on medium heat 5 min. or until evenly browned, stirring occasionally.  Add peppers and onions; cook 5 min., stirring frequently.   ",
          "PreparationStepImage": {
            "PictureFormats": [],
            "author": null,
            "id": null,
            "imageType": null,
            "mimeType": null,
            "publicationDate": null,
            "status": null,
            "title": null,
            "type": null
          },
          "Sequence": 1
        },
        {
          "Description": "Add pasta sauce, beans, seasonings and 2 Tbsp. cheese; stir.  Simmer 1 hour, stirring occasionally.",
          "PreparationStepImage": {
            "PictureFormats": [],
            "author": null,
            "id": null,
            "imageType": null,
            "mimeType": null,
            "publicationDate": null,
            "status": null,
            "title": null,
            "type": null
          },
          "Sequence": 2
        },
        {
          "Description": "Serve topped with remaining cheese.",
          "PreparationStepImage": {
            "PictureFormats": [],
            "author": null,
            "id": null,
            "imageType": null,
            "mimeType": null,
            "publicationDate": null,
            "status": null,
            "title": null,
            "type": null
          },
          "Sequence": 3
        }
      ],
      "PreparationTime": 25,
      "Promotion": null,
      "Ratings": {
        "TotalCount": 0,
        "PageCount": 10,
        "PageNo": 1,
        "Rating": []
      },
      "RecipeDisplayFormatId": 0,
      "RecipeId": 160379,
      "RecipeName": "Italian-Style Chili",
      "RecipeType": 0,
      "RelatedData": {
        "RelatedBrands": null,
        "RelatedProducts": null,
        "RelatedRecipes": {
          "DefaultTopCount": 5,
          "Recipe": [
            {
              "AverageRating": 4.4,
              "HasVideo": false,
              "IsHealthyLiving": true,
              "NumberOfRatings": 53,
              "PhotoName": "91551.jpg",
              "PhotoUrl": "http://assets.kraftfoods.com/recipe_images/opendeploy/91551.jpg",
              "RecipeId": 91551,
              "RecipeName": "Easy Italian-Style Chili",
              "SEOName": "easy-italian-style-chili-91551",
              "ThumbnailPhoto": null
            },
            {
              "AverageRating": 4.5,
              "HasVideo": false,
              "IsHealthyLiving": false,
              "NumberOfRatings": 79,
              "PhotoName": "Grilled_Chicken_Wraps.jpg",
              "PhotoUrl": "http://assets.kraftfoods.com/recipe_images/opendeploy/Grilled_Chicken_Wraps.jpg",
              "RecipeId": 106253,
              "RecipeName": "Grilled Chicken Wraps",
              "SEOName": "grilled-chicken-wraps-106253",
              "ThumbnailPhoto": null
            },
            {
              "AverageRating": 5,
              "HasVideo": false,
              "IsHealthyLiving": false,
              "NumberOfRatings": 6,
              "PhotoName": "166321.jpg",
              "PhotoUrl": "http://assets.kraftfoods.com/recipe_images/opendeploy/166321.jpg",
              "RecipeId": 166321,
              "RecipeName": "Green Enchilada Pork Chili",
              "SEOName": "green-enchilada-pork-chili-166321",
              "ThumbnailPhoto": null
            },
            {
              "AverageRating": 4.5,
              "HasVideo": false,
              "IsHealthyLiving": false,
              "NumberOfRatings": 92,
              "PhotoName": "108281.jpg",
              "PhotoUrl": "http://assets.kraftfoods.com/recipe_images/opendeploy/108281.jpg",
              "RecipeId": 108281,
              "RecipeName": "Southwestern White Chili Recipe",
              "SEOName": "southwestern-white-chili-recipe-108281",
              "ThumbnailPhoto": null
            },
            {
              "AverageRating": 4,
              "HasVideo": false,
              "IsHealthyLiving": false,
              "NumberOfRatings": 1,
              "PhotoName": "155579.jpg",
              "PhotoUrl": "http://assets.kraftfoods.com/recipe_images/opendeploy/155579.jpg",
              "RecipeId": 155579,
              "RecipeName": "Overnight Tex-Mex Tortilla Brunch Bake",
              "SEOName": "overnight-tex-mex-tortilla-brunch-bake-155579",
              "ThumbnailPhoto": null
            }
          ],
          "TotalCount": 1663
        }
      },
      "RiseIngredients": [
        {
          "IngredientCategory": "KRL",
          "IngredientId": 67755,
          "IngredientIndustrySector": "Retail",
          "IngredientType": "Inedible",
          "ProductId": null,
          "RecipeId": 160379
        },
        {
          "IngredientCategory": "KRL",
          "IngredientId": 68002,
          "IngredientIndustrySector": "Retail",
          "IngredientType": "Inedible",
          "ProductId": null,
          "RecipeId": 160379
        },
        {
          "IngredientCategory": "KRL",
          "IngredientId": 68447,
          "IngredientIndustrySector": "Retail",
          "IngredientType": "Inedible",
          "ProductId": "00021000051229",
          "RecipeId": 160379
        },
        {
          "IngredientCategory": "KRL",
          "IngredientId": 68530,
          "IngredientIndustrySector": "Retail",
          "IngredientType": "Inedible",
          "ProductId": null,
          "RecipeId": 160379
        },
        {
          "IngredientCategory": "KRL",
          "IngredientId": 68637,
          "IngredientIndustrySector": "Retail",
          "IngredientType": "Inedible",
          "ProductId": null,
          "RecipeId": 160379
        },
        {
          "IngredientCategory": "KRL",
          "IngredientId": 68772,
          "IngredientIndustrySector": "Retail",
          "IngredientType": "Inedible",
          "ProductId": null,
          "RecipeId": 160379
        },
        {
          "IngredientCategory": "KRL",
          "IngredientId": 68776,
          "IngredientIndustrySector": "Retail",
          "IngredientType": "Inedible",
          "ProductId": null,
          "RecipeId": 160379
        },
        {
          "IngredientCategory": "KRL",
          "IngredientId": 74769,
          "IngredientIndustrySector": "Retail",
          "IngredientType": "KHC",
          "ProductId": "00041129000021",
          "RecipeId": 160379
        }
      ],
      "RiseTaxonomy": [
        {
          "ParentTaxonomyId": 45,
          "RecipeId": 160379,
          "ResourceName": "Recipe",
          "TaxonomyId": 170,
          "TaxonomyName": "Chilis",
          "TaxonomyTypeId": 3,
          "TaxonomyTypeName": "Dish Type"
        },
        {
          "ParentTaxonomyId": 0,
          "RecipeId": 160379,
          "ResourceName": "Recipe",
          "TaxonomyId": 301,
          "TaxonomyName": "Back To School",
          "TaxonomyTypeId": 5,
          "TaxonomyTypeName": "Occasion-Theme"
        },
        {
          "ParentTaxonomyId": 0,
          "RecipeId": 160379,
          "ResourceName": "Recipe",
          "TaxonomyId": 336,
          "TaxonomyName": "Fall",
          "TaxonomyTypeId": 6,
          "TaxonomyTypeName": "Season"
        }
      ],
      "Riserecipe": [
        {
          "GRIN": 568830,
          "RecipeId": 160379,
          "RecipeIndustrySector": "Retail",
          "RecipeType": "Internal"
        }
      ],
      "RomanceText": "A traditional chili with cumin and beans gets an Italian twist with sausage and spaghetti sauce in this hearty family-pleaser.",
      "SEOName": "italian-style-chili-160379",
      "Tips": [
        {
          "RecipeId": 160379,
          "Sequence": 10,
          "TipDescription": "Balance a sensible portion, 1 cup, of this robust chili with a variety of hot steamed vegetables.",
          "TipID": 1,
          "TipName": "Size Wise"
        },
        {
          "RecipeId": 160379,
          "Sequence": 20,
          "TipDescription": "Serve over hot cooked mini penne pasta.",
          "TipID": 2,
          "TipName": "Serving Suggestion"
        }
      ],
      "TotalTime": 85,
      "TradeMarkInfo": null,
      "Video": [],
      "Yield": "6 servings, 1 cup each"
    }
  ]
}