{
  "Metadata": {
    "PageCount": 1,
    "PageNo": 0,
    "TotalCount": 0
  },
  "Recipes": [
    {
      "AdServingKeywords": "Cheese,Cream Cheese,Dairy,Parmesan,Pasta/Noodles,Shellfish,Shrimp,Tomato,Vegetables,Entree,Easy,Top of Stove,Italian,All Seasons,Valentines Day,Dinner,Quick and Easy,Kraft Grated Cheese,Philadelphia",
      "AlternateLanguageRecipes": [],
      "Assets": [
        {
          "PictureFormats": [
            {
              "rendition": "640x428",
              "url": "http://assets.kraftfoods.com/recipe_images/opendeploy/126730_640x428.jpg"
            },
            {
              "rendition": "290x194",
              "url": "http://assets.kraftfoods.com/recipe_images/opendeploy/126730_290x194.jpg"
            },
            {
              "rendition": "600x250",
              "url": "http://assets.kraftfoods.com/recipe_images/opendeploy/126730_600x250.jpg"
            },
            {
              "rendition": "640x428",
              "url": "http://assets.kraftfoods.com/recipe_images/opendeploy/126730_640x428.jpg"
            }
          ],
          "author": null,
          "id": "3",
          "imageType": "Primary",
          "mimeType": "image/jpeg",
          "publicationDate": null,
          "status": "1",
          "title": "126730",
          "type": "image"
        },
        {
          "PictureFormats": [
            {
              "rendition": "300x200",
              "url": "http://assets.kraftfoods.com/recipe_images/126730.jpg"
            },
            {
              "rendition": "300x200",
              "url": "http://assets.kraftfoods.com/recipe_images/Cracked-Black-Pepper-Shrimp-Alfredo-60485.jpg"
            }
          ],
          "author": null,
          "id": "1",
          "imageType": "LANDSCAPE",
          "mimeType": "image/jpeg",
          "publicationDate": null,
          "status": "1",
          "title": "Cracked-Black-Pepper-Shrimp-Alfredo-60485.jpg",
          "type": "image"
        }
      ],
      "AverageRating": 4.5,
      "BrandId": 1,
      "Branding": null,
      "CSSSkins": null,
      "CarbCounter": null,
      "Categories": [
        {
          "CategoryID": 11,
          "CategoryName": "Primary",
          "CategoryRank": 0,
          "SubCategoryID": 97,
          "SubCategoryName": "Entrees",
          "SubCategoryRank": 50
        },
        {
          "CategoryID": 15,
          "CategoryName": "Pasta/Pizza Entrees",
          "CategoryRank": 9,
          "SubCategoryID": 385,
          "SubCategoryName": "Pasta: Alfredo",
          "SubCategoryRank": 30
        },
        {
          "CategoryID": 753,
          "CategoryName": "Pizza & Pasta",
          "CategoryRank": 7,
          "SubCategoryID": 2542,
          "SubCategoryName": "Creamy / Cheesy Pasta",
          "SubCategoryRank": 1
        },
        {
          "CategoryID": 1764,
          "CategoryName": "Philly Dinner",
          "CategoryRank": 0,
          "SubCategoryID": 16865,
          "SubCategoryName": "Brick Cream Cheese",
          "SubCategoryRank": 0
        },
        {
          "CategoryID": 1764,
          "CategoryName": "Philly Dinner",
          "CategoryRank": 0,
          "SubCategoryID": 16869,
          "SubCategoryName": "Use for All",
          "SubCategoryRank": 0
        }
      ],
      "Classifications": [],
      "ComplimentaryRecipes": null,
      "CookingMethod": null,
      "Copyright": null,
      "Courses": [
        "Main dishes"
      ],
      "DietExchange": null,
      "DishDetails": [],
      "EndDate": "/Date(-62135575200000-0600)/",
      "HasVideo": false,
      "Ingredients": [
        {
          "FullMeasure": "1/2 lb.",
          "FullWeight": "",
          "IngredientGridHeaders": null,
          "IngredientID": 1650,
          "IngredientName": "spaghetti",
          "IngredientStep": 10,
          "LanguageId": 0,
          "PostPreparation": ", uncooked",
          "PrePreparation": "",
          "QuantityNum": 0,
          "QuantityText": "1/2",
          "QuantityUnit": "lb.",
          "RecipeIngredientID": 5963055,
          "TrialMeasure": "",
          "TrialWeight": ""
        },
        {
          "FullMeasure": "3/4 cup",
          "FullWeight": "",
          "IngredientGridHeaders": null,
          "IngredientID": 1345,
          "IngredientName": "milk",
          "IngredientStep": 20,
          "LanguageId": 0,
          "PostPreparation": "",
          "PrePreparation": "",
          "QuantityNum": 0,
          "QuantityText": "3/4",
          "QuantityUnit": "cup",
          "RecipeIngredientID": 5963057,
          "TrialMeasure": "",
          "TrialWeight": ""
        },
        {
          "FullMeasure": "4 oz.",
          "FullWeight": "",
          "IngredientGridHeaders": null,
          "IngredientID": 628,
          "IngredientName": "PHILADELPHIA Cream Cheese",
          "IngredientStep": 30,
          "LanguageId": 0,
          "PostPreparation": ", cubed",
          "PrePreparation": "(1/2 of 8-oz. pkg.)",
          "QuantityNum": 4,
          "QuantityText": "4",
          "QuantityUnit": "oz.",
          "RecipeIngredientID": 5963054,
          "TrialMeasure": "",
          "TrialWeight": ""
        },
        {
          "FullMeasure": "1/3  cup",
          "FullWeight": "",
          "IngredientGridHeaders": null,
          "IngredientID": 397,
          "IngredientName": "KRAFT Grated Parmesan Cheese",
          "IngredientStep": 40,
          "LanguageId": 0,
          "PostPreparation": "",
          "PrePreparation": "",
          "QuantityNum": 0,
          "QuantityText": "1/3 ",
          "QuantityUnit": "cup",
          "RecipeIngredientID": 5963058,
          "TrialMeasure": "",
          "TrialWeight": ""
        },
        {
          "FullMeasure": "1 tsp.",
          "FullWeight": "",
          "IngredientGridHeaders": null,
          "IngredientID": 818,
          "IngredientName": "black pepper",
          "IngredientStep": 50,
          "LanguageId": 0,
          "PostPreparation": "",
          "PrePreparation": "cracked",
          "QuantityNum": 1,
          "QuantityText": "1",
          "QuantityUnit": "tsp.",
          "RecipeIngredientID": 5963052,
          "TrialMeasure": "",
          "TrialWeight": ""
        },
        {
          "FullMeasure": "1 lb.",
          "FullWeight": "",
          "IngredientGridHeaders": null,
          "IngredientID": 23916,
          "IngredientName": "frozen cooked cleaned medium shrimp, thawed",
          "IngredientStep": 60,
          "LanguageId": 0,
          "PostPreparation": "",
          "PrePreparation": "",
          "QuantityNum": 1,
          "QuantityText": "1",
          "QuantityUnit": "lb.",
          "RecipeIngredientID": 5963056,
          "TrialMeasure": "",
          "TrialWeight": ""
        },
        {
          "FullMeasure": "2 cups",
          "FullWeight": "",
          "IngredientGridHeaders": null,
          "IngredientID": 19903,
          "IngredientName": "grape tomato",
          "IngredientStep": 70,
          "LanguageId": 0,
          "PostPreparation": "es",
          "PrePreparation": "",
          "QuantityNum": 2,
          "QuantityText": "2",
          "QuantityUnit": "cups",
          "RecipeIngredientID": 5963053,
          "TrialMeasure": "",
          "TrialWeight": ""
        }
      ],
      "IsHealthyLiving": false,
      "KRLId": "566922",
      "KeyIngredients": [
        "Cheese",
        "Cream Cheese",
        "Dairy",
        "Fruit",
        "Parmesan",
        "Pasta",
        "Tomato",
        "Vegetables"
      ],
      "Keywords": "parmesan cheese,pasta,PHILADELPHIA Cream Cheese,cheese,cream cheese,KRAFT Parmesan Cheese,milk,seafood,shrimp,spaghetti pasta,tomatoes,vegetables,grape tomatoes,Top of Stove ,Entree,Italian,Easy,Quick and Easy,All Seasons,Valentines Day",
      "LanguageId": 1,
      "LifeStyles": [],
      "NumberOfIngredients": 7,
      "NumberOfRatings": 15,
      "NumberOfRatingsWithComments": "13",
      "NumberOfServings": "6 servings,1 cup each",
      "NumberOfTrialServings": "",
      "NutritionBonus": null,
      "NutritionExchangeItemId": 0,
      "NutritionGridItems": null,
      "NutritionItems": [
        {
          "DisplayOrder": 1,
          "Document": null,
          "NutritionItemID": 3,
          "NutritionItemName": "Calories",
          "Predriscriptor": "",
          "Quantity": 350,
          "Unit": "          "
        },
        {
          "DisplayOrder": 2,
          "Document": "fat_cholesterol.html",
          "NutritionItemID": 4,
          "NutritionItemName": "Total fat",
          "Predriscriptor": "",
          "Quantity": 11,
          "Unit": "g         "
        },
        {
          "DisplayOrder": 3,
          "Document": "fat_cholesterol.html",
          "NutritionItemID": 9,
          "NutritionItemName": "Saturated fat",
          "Predriscriptor": "",
          "Quantity": 6,
          "Unit": "g         "
        },
        {
          "DisplayOrder": 7,
          "Document": "fat_cholesterol.html",
          "NutritionItemID": 2,
          "NutritionItemName": "Cholesterol",
          "Predriscriptor": "",
          "Quantity": 195,
          "Unit": "mg        "
        },
        {
          "DisplayOrder": 8,
          "Document": "sodium.html",
          "NutritionItemID": 8,
          "NutritionItemName": "Sodium",
          "Predriscriptor": "",
          "Quantity": 920,
          "Unit": "mg        "
        },
        {
          "DisplayOrder": 10,
          "Document": "carbs_sugars_fiber.html",
          "NutritionItemID": 1,
          "NutritionItemName": "Carbohydrate",
          "Predriscriptor": "",
          "Quantity": 34,
          "Unit": "g         "
        },
        {
          "DisplayOrder": 11,
          "Document": "carbs_sugars_fiber.html",
          "NutritionItemID": 7,
          "NutritionItemName": "Dietary fiber",
          "Predriscriptor": "",
          "Quantity": 2,
          "Unit": "g         "
        },
        {
          "DisplayOrder": 12,
          "Document": "carbs_sugars_fiber.html",
          "NutritionItemID": 5,
          "NutritionItemName": "Sugars",
          "Predriscriptor": "",
          "Quantity": 5,
          "Unit": "g         "
        },
        {
          "DisplayOrder": 13,
          "Document": null,
          "NutritionItemID": 6,
          "NutritionItemName": "Protein",
          "Predriscriptor": "",
          "Quantity": 27,
          "Unit": "g         "
        },
        {
          "DisplayOrder": 14,
          "Document": null,
          "NutritionItemID": 10,
          "NutritionItemName": "Vitamin A",
          "Predriscriptor": "",
          "Quantity": 20,
          "Unit": "%DV       "
        },
        {
          "DisplayOrder": 15,
          "Document": null,
          "NutritionItemID": 11,
          "NutritionItemName": "Vitamin C",
          "Predriscriptor": "",
          "Quantity": 8,
          "Unit": "%DV       "
        },
        {
          "DisplayOrder": 16,
          "Document": "dairy_and_calcium.html",
          "NutritionItemID": 12,
          "NutritionItemName": "Calcium",
          "Predriscriptor": "",
          "Quantity": 20,
          "Unit": "%DV       "
        },
        {
          "DisplayOrder": 17,
          "Document": null,
          "NutritionItemID": 13,
          "NutritionItemName": "Iron",
          "Predriscriptor": "",
          "Quantity": 10,
          "Unit": "%DV       "
        }
      ],
      "NutritionServingText": " ",
      "PrepStepImage": null,
      "PreparationDescription": "Cook spaghetti as directed on package, omitting salt.$Meanwhile, bring milk just to simmer in large nonstick skillet, stirring constantly.  Add cream cheese, Parmesan and pepper; cook and stir 3 to 5 min. or until cream cheese is completely melted and sauce is well blended.  Add shrimp and tomatoes; cook and stir 2 min. or until heated through.  $Drain spaghetti.  Add to cream cheese sauce; mix lightly.",
      "PreparationPreText": "",
      "PreparationSteps": [
        {
          "Description": "Cook spaghetti as directed on package, omitting salt.",
          "PreparationStepImage": {
            "PictureFormats": [],
            "author": null,
            "id": null,
            "imageType": null,
            "mimeType": null,
            "publicationDate": null,
            "status": null,
            "title": null,
            "type": null
          },
          "Sequence": 1
        },
        {
          "Description": "Meanwhile, bring milk just to simmer in large nonstick skillet, stirring constantly.  Add cream cheese, Parmesan and pepper; cook and stir 3 to 5 min. or until cream cheese is completely melted and sauce is well blended.  Add shrimp and tomatoes; cook and stir 2 min. or until heated through.  ",
          "PreparationStepImage": {
            "PictureFormats": [],
            "author": null,
            "id": null,
            "imageType": null,
            "mimeType": null,
            "publicationDate": null,
            "status": null,
            "title": null,
            "type": null
          },
          "Sequence": 2
        },
        {
          "Description": "Drain spaghetti.  Add to cream cheese sauce; mix lightly.",
          "PreparationStepImage": {
            "PictureFormats": [],
            "author": null,
            "id": null,
            "imageType": null,
            "mimeType": null,
            "publicationDate": null,
            "status": null,
            "title": null,
            "type": null
          },
          "Sequence": 3
        }
      ],
      "PreparationTime": 20,
      "Promotion": null,
      "Ratings": {
        "TotalCount": 15,
        "PageCount": 10,
        "PageNo": 1,
        "Rating": [
          {
            "Comment": "I made this last night for dinner but didn't have any shrimp & it was still very good with just the grape tomatoes.  I added teaspoons of jarred minced garlic (including juice) & love the flavor it gave it.  Will definitely be ****** this again.",
            "DisplayName": true,
            "RatingValue": 5,
            "SubmitDate": "/Date(1456021379000-0600)/",
            "UpdatedDate": "/Date(1456021379000-0600)/",
            "UserName": "shadragonfly"
          },
          {
            "Comment": "It was wonderful family loved it",
            "DisplayName": true,
            "RatingValue": 5,
            "SubmitDate": "/Date(1418105859000-0600)/",
            "UpdatedDate": "/Date(1418105859000-0600)/",
            "UserName": "ladyd37"
          },
          {
            "Comment": "",
            "DisplayName": true,
            "RatingValue": 4,
            "SubmitDate": "/Date(1408204575000-0500)/",
            "UpdatedDate": "/Date(1408204575000-0500)/",
            "UserName": "jhohnholt"
          },
          {
            "Comment": "Loved it!!!! I did add a little more seasoning, but overall it's a great recipe",
            "DisplayName": true,
            "RatingValue": 5,
            "SubmitDate": "/Date(1402972579000-0500)/",
            "UpdatedDate": "/Date(1402972579000-0500)/",
            "UserName": "Chrissy5713"
          },
          {
            "Comment": "At first I thought the sauce would be too thin but once you added it to the pasta it was great. I didn't use the tomato's and added a small salad to the meal. Next time I am going to make it with chicken. ",
            "DisplayName": true,
            "RatingValue": 5,
            "SubmitDate": "/Date(1401743440000-0500)/",
            "UpdatedDate": "/Date(1401743440000-0500)/",
            "UserName": "goofyrn22"
          },
          {
            "Comment": "Instead of using cream cheese and milk I used Philadelphia cooking cream.",
            "DisplayName": false,
            "RatingValue": 5,
            "SubmitDate": "/Date(1370475831000-0500)/",
            "UpdatedDate": "/Date(1370475831000-0500)/",
            "UserName": "Melnjam01"
          },
          {
            "Comment": "WHAT & where are you reading, I don't see were the recipe calls for a Kraft dry seasoning mix or blend? <<< Response from Kraft Kitchens Expert, Lori ~ Thank you for your rating. This recipe was recently updated. It previously used 1 packet of KRAFT Parmesan Seasoning Blend, which is no longer available.  The Parmesan cheese and cracked black pepper have been added to replace that seasoning mix.  We are sorry for any confusion this change has caused. >>>",
            "DisplayName": true,
            "RatingValue": 5,
            "SubmitDate": "/Date(1370367558000-0500)/",
            "UpdatedDate": "/Date(1370368311000-0500)/",
            "UserName": "bnrudy"
          },
          {
            "Comment": "My kids & husband loved it!",
            "DisplayName": true,
            "RatingValue": 5,
            "SubmitDate": "/Date(1337005443000-0500)/",
            "UpdatedDate": "/Date(1337005443000-0500)/",
            "UserName": "Mstein22"
          },
          {
            "Comment": "This tasted awesome! I cooked my own shrimp instead of buying pre-cooked but if you buy pre-cooked it's a lot faster. My whole family loved it!",
            "DisplayName": true,
            "RatingValue": 5,
            "SubmitDate": "/Date(1336674667000-0500)/",
            "UpdatedDate": "/Date(1336674667000-0500)/",
            "UserName": "godoyfam"
          },
          {
            "Comment": "awesome!!",
            "DisplayName": false,
            "RatingValue": 5,
            "SubmitDate": "/Date(1334945283000-0500)/",
            "UpdatedDate": "/Date(1334945283000-0500)/",
            "UserName": "Christie71963"
          }
        ]
      },
      "RecipeDisplayFormatId": 5,
      "RecipeId": 126730,
      "RecipeName": "Cracked Black Pepper-Shrimp Alfredo",
      "RecipeType": 0,
      "RelatedData": {
        "RelatedBrands": null,
        "RelatedProducts": null,
        "RelatedRecipes": {
          "DefaultTopCount": 5,
          "Recipe": [
            {
              "AverageRating": 4.5,
              "HasVideo": false,
              "IsHealthyLiving": false,
              "NumberOfRatings": 32,
              "PhotoName": "63387.jpg",
              "PhotoUrl": "http://assets.kraftfoods.com/recipe_images/opendeploy/63387.jpg",
              "RecipeId": 63387,
              "RecipeName": "Shrimp & Chipotle Alfredo",
              "SEOName": "shrimp-chipotle-alfredo-63387",
              "ThumbnailPhoto": null
            },
            {
              "AverageRating": 4.4,
              "HasVideo": false,
              "IsHealthyLiving": false,
              "NumberOfRatings": 117,
              "PhotoName": "113758.jpg",
              "PhotoUrl": "http://assets.kraftfoods.com/recipe_images/opendeploy/113758.jpg",
              "RecipeId": 113758,
              "RecipeName": "Creamy Shrimp Alfredo",
              "SEOName": "creamy-shrimp-alfredo-113758",
              "ThumbnailPhoto": null
            },
            {
              "AverageRating": 4.1,
              "HasVideo": false,
              "IsHealthyLiving": false,
              "NumberOfRatings": 22,
              "PhotoName": "DI_GIORNO_Vegetable_Fettuccine_Alfredo.jpg",
              "PhotoUrl": "http://assets.kraftfoods.com/recipe_images/opendeploy/DI_GIORNO_Vegetable_Fettuccine_Alfredo.jpg",
              "RecipeId": 55201,
              "RecipeName": "Vegetable Fettuccine Alfredo",
              "SEOName": "vegetable-fettuccine-alfredo-55201",
              "ThumbnailPhoto": null
            },
            {
              "AverageRating": 4.7,
              "HasVideo": false,
              "IsHealthyLiving": false,
              "NumberOfRatings": 3,
              "PhotoName": "175804_JPK_67249v0E_WP.jpg",
              "PhotoUrl": "http://assets.kraftfoods.com/recipe_images/opendeploy/175804_JPK_67249v0E_WP.jpg",
              "RecipeId": 175804,
              "RecipeName": "Zucchini Noodle Alfredo",
              "SEOName": "zucchini-noodle-alfredo-175804",
              "ThumbnailPhoto": null
            },
            {
              "AverageRating": 4.3,
              "HasVideo": false,
              "IsHealthyLiving": false,
              "NumberOfRatings": 29,
              "PhotoName": "Fettuccine_Alfredo_with_Scallops_and_Peas.jpg",
              "PhotoUrl": "http://assets.kraftfoods.com/recipe_images/opendeploy/Fettuccine_Alfredo_with_Scallops_and_Peas.jpg",
              "RecipeId": 50677,
              "RecipeName": "Fettuccine Alfredo with Scallops and Peas",
              "SEOName": "fettuccine-alfredo-scallops-peas-50677",
              "ThumbnailPhoto": null
            }
          ],
          "TotalCount": 2386
        }
      },
      "RiseIngredients": [],
      "RiseTaxonomy": [],
      "Riserecipe": [
        {
          "GRIN": 566922,
          "RecipeId": 126730,
          "RecipeIndustrySector": "Retail",
          "RecipeType": "Internal"
        }
      ],
      "RomanceText": "The reviews are in. Families love this Cracked Black Pepper-Shrimp Alfredo. Best of all: This pasta dish is ready in just 20 minutes.",
      "SEOName": "cracked-black-pepper-shrimp-alfredo-126730",
      "Tips": [
        {
          "RecipeId": 126730,
          "Sequence": 10,
          "TipDescription": "It's great to have a bag of frozen shrimp in the freezer for a quick meal.  Thaw frozen shrimp in the refrigerator, not at room temperature.  Or, place the sealed package in a bowl of cold water and change the water every 10 min. until the shrimp are completely thawed.",
          "TipID": 558,
          "TipName": "Safely Thawing Shrimp"
        },
        {
          "RecipeId": 126730,
          "Sequence": 20,
          "TipDescription": "Prepare using PHILADELPHIA Neufchatel Cheese.",
          "TipID": 1,
          "TipName": "Substitute"
        }
      ],
      "TotalTime": 20,
      "TradeMarkInfo": null,
      "Video": [],
      "Yield": "6 servings,1 cup each"
    }
  ]
}