{
  "Metadata": {
    "PageCount": 1,
    "PageNo": 0,
    "TotalCount": 0
  },
  "Recipes": [
    {
      "AdServingKeywords": "Entree,Garlic,Pasta/Noodles,Vegetables,Skillet Dish,Dinner,Lunch,Kraft Macaroni and Cheese,Cheesy",
      "AlternateLanguageRecipes": [
        {
          "LanguageId": "2",
          "RecipeId": "55726",
          "SiteId": "1"
        },
        {
          "LanguageId": "2",
          "RecipeId": "55726",
          "SiteId": "90"
        }
      ],
      "Assets": [
        {
          "PictureFormats": [
            {
              "rendition": "300x200",
              "url": "http://assets.kraftfoods.com/recipe_images/Cheesy_Primavera_Mac_Skillet.jpg"
            }
          ],
          "author": null,
          "id": "0",
          "imageType": "LANDSCAPE",
          "mimeType": null,
          "publicationDate": null,
          "status": "1",
          "title": "Cheesy_Primavera_Mac_Skillet.jpg",
          "type": "image"
        }
      ],
      "AverageRating": 0,
      "BrandId": 1,
      "Branding": null,
      "CSSSkins": null,
      "CarbCounter": null,
      "Categories": [
        {
          "CategoryID": 8,
          "CategoryName": "Seafood/Meatless Entrees",
          "CategoryRank": 12,
          "SubCategoryID": 394,
          "SubCategoryName": "Macaroni & Cheese",
          "SubCategoryRank": 10
        },
        {
          "CategoryID": 11,
          "CategoryName": "Primary",
          "CategoryRank": 0,
          "SubCategoryID": 97,
          "SubCategoryName": "Entrees",
          "SubCategoryRank": 50
        },
        {
          "CategoryID": 15,
          "CategoryName": "Pasta/Pizza Entrees",
          "CategoryRank": 9,
          "SubCategoryID": 386,
          "SubCategoryName": "Pasta: Meatless",
          "SubCategoryRank": 50
        },
        {
          "CategoryID": 15,
          "CategoryName": "Pasta/Pizza Entrees",
          "CategoryRank": 9,
          "SubCategoryID": 389,
          "SubCategoryName": "Macaroni & Cheese",
          "SubCategoryRank": 20
        },
        {
          "CategoryID": 753,
          "CategoryName": "Pizza & Pasta",
          "CategoryRank": 7,
          "SubCategoryID": 2542,
          "SubCategoryName": "Creamy / Cheesy Pasta",
          "SubCategoryRank": 1
        },
        {
          "CategoryID": 753,
          "CategoryName": "Pizza & Pasta",
          "CategoryRank": 7,
          "SubCategoryID": 2545,
          "SubCategoryName": "Other",
          "SubCategoryRank": 1
        },
        {
          "CategoryID": 757,
          "CategoryName": "Vegetables & Vegetarian Meals",
          "CategoryRank": 11,
          "SubCategoryID": 2569,
          "SubCategoryName": "Entrée",
          "SubCategoryRank": 1
        },
        {
          "CategoryID": 757,
          "CategoryName": "Vegetables & Vegetarian Meals",
          "CategoryRank": 11,
          "SubCategoryID": 2570,
          "SubCategoryName": "Main Meal",
          "SubCategoryRank": 1
        }
      ],
      "Classifications": [],
      "ComplimentaryRecipes": null,
      "CookingMethod": null,
      "Copyright": null,
      "Courses": [
        "Main dishes"
      ],
      "DietExchange": null,
      "DishDetails": [],
      "EndDate": "/Date(-62135575200000-0600)/",
      "HasVideo": false,
      "Ingredients": [
        {
          "FullMeasure": null,
          "FullWeight": null,
          "IngredientGridHeaders": null,
          "IngredientID": 68791,
          "IngredientName": "water",
          "IngredientStep": 10,
          "LanguageId": 0,
          "PostPreparation": "",
          "PrePreparation": "",
          "QuantityNum": 2.33,
          "QuantityText": "2-1/3",
          "QuantityUnit": "cups",
          "RecipeIngredientID": 219124,
          "TrialMeasure": null,
          "TrialWeight": null
        },
        {
          "FullMeasure": null,
          "FullWeight": null,
          "IngredientGridHeaders": null,
          "IngredientID": 68983,
          "IngredientName": "(14 oz.) KRAFT Deluxe Macaroni & Cheese Dinner ",
          "IngredientStep": 20,
          "LanguageId": 0,
          "PostPreparation": "",
          "PrePreparation": "",
          "QuantityNum": 1,
          "QuantityText": "1",
          "QuantityUnit": "pkg.",
          "RecipeIngredientID": 221859,
          "TrialMeasure": null,
          "TrialWeight": null
        },
        {
          "FullMeasure": null,
          "FullWeight": null,
          "IngredientGridHeaders": null,
          "IngredientID": 69043,
          "IngredientName": "dried basil leaves, crushed",
          "IngredientStep": 30,
          "LanguageId": 0,
          "PostPreparation": "",
          "PrePreparation": "",
          "QuantityNum": 0.5,
          "QuantityText": "1/2",
          "QuantityUnit": "tsp.",
          "RecipeIngredientID": 223503,
          "TrialMeasure": null,
          "TrialWeight": null
        },
        {
          "FullMeasure": null,
          "FullWeight": null,
          "IngredientGridHeaders": null,
          "IngredientID": 68527,
          "IngredientName": "garlic powder",
          "IngredientStep": 40,
          "LanguageId": 0,
          "PostPreparation": "",
          "PrePreparation": "",
          "QuantityNum": 0.5,
          "QuantityText": "1/2",
          "QuantityUnit": "tsp.",
          "RecipeIngredientID": 222591,
          "TrialMeasure": null,
          "TrialWeight": null
        },
        {
          "FullMeasure": null,
          "FullWeight": null,
          "IngredientGridHeaders": null,
          "IngredientID": 68786,
          "IngredientName": "frozen vegetable blend (broccoli, cauliflower and carrots)",
          "IngredientStep": 50,
          "LanguageId": 0,
          "PostPreparation": "",
          "PrePreparation": "",
          "QuantityNum": 3,
          "QuantityText": "3",
          "QuantityUnit": "cups",
          "RecipeIngredientID": 219982,
          "TrialMeasure": null,
          "TrialWeight": null
        }
      ],
      "IsHealthyLiving": false,
      "KRLId": "525020",
      "KeyIngredients": [],
      "Keywords": "Entree,Dinner,Lunch,Skillet Dish,Cheesy",
      "LanguageId": 1,
      "LifeStyles": [],
      "NumberOfIngredients": 5,
      "NumberOfRatings": 0,
      "NumberOfRatingsWithComments": "0",
      "NumberOfServings": "Makes 5 servings.",
      "NumberOfTrialServings": null,
      "NutritionBonus": null,
      "NutritionExchangeItemId": 0,
      "NutritionGridItems": null,
      "NutritionItems": [
        {
          "DisplayOrder": 10,
          "Document": null,
          "NutritionItemID": 371,
          "NutritionItemName": "Calories",
          "Predriscriptor": "",
          "Quantity": 280,
          "Unit": "          "
        },
        {
          "DisplayOrder": 20,
          "Document": null,
          "NutritionItemID": 376,
          "NutritionItemName": "Total fat",
          "Predriscriptor": "",
          "Quantity": 8,
          "Unit": "g         "
        },
        {
          "DisplayOrder": 30,
          "Document": null,
          "NutritionItemID": 377,
          "NutritionItemName": "Saturated fat",
          "Predriscriptor": "",
          "Quantity": 2.5,
          "Unit": "g         "
        },
        {
          "DisplayOrder": 40,
          "Document": null,
          "NutritionItemID": 379,
          "NutritionItemName": "Polyunsaturated Fat",
          "Predriscriptor": "",
          "Quantity": 0,
          "Unit": "g         "
        },
        {
          "DisplayOrder": 50,
          "Document": null,
          "NutritionItemID": 378,
          "NutritionItemName": "Monounsaturated Fat",
          "Predriscriptor": "",
          "Quantity": 0,
          "Unit": "g         "
        },
        {
          "DisplayOrder": 60,
          "Document": null,
          "NutritionItemID": 381,
          "NutritionItemName": "Cholesterol",
          "Predriscriptor": "",
          "Quantity": 15,
          "Unit": "mg        "
        },
        {
          "DisplayOrder": 70,
          "Document": null,
          "NutritionItemID": 389,
          "NutritionItemName": "Sodium",
          "Predriscriptor": "",
          "Quantity": 770,
          "Unit": "mg        "
        },
        {
          "DisplayOrder": 80,
          "Document": null,
          "NutritionItemID": 373,
          "NutritionItemName": "Carbohydrate",
          "Predriscriptor": "",
          "Quantity": 41,
          "Unit": "g         "
        },
        {
          "DisplayOrder": 90,
          "Document": null,
          "NutritionItemID": 374,
          "NutritionItemName": "Dietary fiber",
          "Predriscriptor": "",
          "Quantity": 3,
          "Unit": "g         "
        },
        {
          "DisplayOrder": 100,
          "Document": null,
          "NutritionItemID": 375,
          "NutritionItemName": "Sugars",
          "Predriscriptor": "",
          "Quantity": 4,
          "Unit": "g         "
        },
        {
          "DisplayOrder": 110,
          "Document": null,
          "NutritionItemID": 372,
          "NutritionItemName": "Protein",
          "Predriscriptor": "",
          "Quantity": 11,
          "Unit": "g         "
        },
        {
          "DisplayOrder": 120,
          "Document": null,
          "NutritionItemID": 382,
          "NutritionItemName": "Vitamin A",
          "Predriscriptor": "",
          "Quantity": 60,
          "Unit": "%DV       "
        },
        {
          "DisplayOrder": 130,
          "Document": null,
          "NutritionItemID": 383,
          "NutritionItemName": "Vitamin C",
          "Predriscriptor": "",
          "Quantity": 35,
          "Unit": "%DV       "
        },
        {
          "DisplayOrder": 140,
          "Document": null,
          "NutritionItemID": 386,
          "NutritionItemName": "Calcium",
          "Predriscriptor": "",
          "Quantity": 10,
          "Unit": "%DV       "
        },
        {
          "DisplayOrder": 150,
          "Document": null,
          "NutritionItemID": 387,
          "NutritionItemName": "Iron",
          "Predriscriptor": "",
          "Quantity": 10,
          "Unit": "%DV       "
        }
      ],
      "NutritionServingText": null,
      "PrepStepImage": null,
      "PreparationDescription": "Bring water to boil in large skillet.  Stir in Macaroni and seasonings; return to boil.$Add vegetables.  Reduce heat to medium-low; cover.  Simmer 10 min. or until macaroni is tender.$Stir in Cheese Sauce.  Cook 2 min. on medium-high heat or until thickened and creamy, stirring occasionally.  ",
      "PreparationPreText": null,
      "PreparationSteps": [
        {
          "Description": "Bring water to boil in large skillet.  Stir in Macaroni and seasonings; return to boil.",
          "PreparationStepImage": {
            "PictureFormats": [],
            "author": null,
            "id": null,
            "imageType": null,
            "mimeType": null,
            "publicationDate": null,
            "status": null,
            "title": null,
            "type": null
          },
          "Sequence": 1
        },
        {
          "Description": "Add vegetables.  Reduce heat to medium-low; cover.  Simmer 10 min. or until macaroni is tender.",
          "PreparationStepImage": {
            "PictureFormats": [],
            "author": null,
            "id": null,
            "imageType": null,
            "mimeType": null,
            "publicationDate": null,
            "status": null,
            "title": null,
            "type": null
          },
          "Sequence": 2
        },
        {
          "Description": "Stir in Cheese Sauce.  Cook 2 min. on medium-high heat or until thickened and creamy, stirring occasionally.  ",
          "PreparationStepImage": {
            "PictureFormats": [],
            "author": null,
            "id": null,
            "imageType": null,
            "mimeType": null,
            "publicationDate": null,
            "status": null,
            "title": null,
            "type": null
          },
          "Sequence": 3
        }
      ],
      "PreparationTime": 5,
      "Promotion": null,
      "Ratings": {
        "TotalCount": 0,
        "PageCount": 10,
        "PageNo": 1,
        "Rating": []
      },
      "RecipeDisplayFormatId": 0,
      "RecipeId": 55725,
      "RecipeName": "Cheesy Primavera Mac Skillet",
      "RecipeType": 0,
      "RelatedData": {
        "RelatedBrands": null,
        "RelatedProducts": null,
        "RelatedRecipes": {
          "DefaultTopCount": 5,
          "Recipe": [
            {
              "AverageRating": 5,
              "HasVideo": false,
              "IsHealthyLiving": false,
              "NumberOfRatings": 1,
              "PhotoName": "Cheesy_Chicken_n_Broccoli_Macaroni.jpg",
              "PhotoUrl": "http://assets.kraftfoods.com/recipe_images/opendeploy/Cheesy_Chicken_n_Broccoli_Macaroni.jpg",
              "RecipeId": 113602,
              "RecipeName": "Cheesy Chicken & Broccoli Mac",
              "SEOName": "cheesy-chicken-broccoli-mac-113602",
              "ThumbnailPhoto": null
            },
            {
              "AverageRating": 4.2,
              "HasVideo": false,
              "IsHealthyLiving": false,
              "NumberOfRatings": 139,
              "PhotoName": "53417.jpg",
              "PhotoUrl": "http://assets.kraftfoods.com/recipe_images/opendeploy/53417.jpg",
              "RecipeId": 53417,
              "RecipeName": "Cheesy Cheeseburger Mac",
              "SEOName": "cheesy-cheeseburger-mac-53417",
              "ThumbnailPhoto": null
            },
            {
              "AverageRating": 5,
              "HasVideo": false,
              "IsHealthyLiving": false,
              "NumberOfRatings": 3,
              "PhotoName": "Cheesy-Broccoli-Bacon-Mac-Bites-60414.jpg",
              "PhotoUrl": "http://assets.kraftfoods.com/recipe_images/opendeploy/Cheesy-Broccoli-Bacon-Mac-Bites-60414.jpg",
              "RecipeId": 158888,
              "RecipeName": "Cheesy Broccoli-Bacon Mac Bites",
              "SEOName": "cheesy-broccoli-bacon-mac-bites-158888",
              "ThumbnailPhoto": null
            },
            {
              "AverageRating": 4.1,
              "HasVideo": false,
              "IsHealthyLiving": false,
              "NumberOfRatings": 19,
              "PhotoName": "69097.jpg",
              "PhotoUrl": "http://assets.kraftfoods.com/recipe_images/opendeploy/69097.jpg",
              "RecipeId": 69097,
              "RecipeName": "Cheesy Chicken & Veggie Mac",
              "SEOName": "cheesy-chicken-veggie-mac-69097",
              "ThumbnailPhoto": null
            },
            {
              "AverageRating": 4.8,
              "HasVideo": false,
              "IsHealthyLiving": false,
              "NumberOfRatings": 4,
              "PhotoName": "Cheesy_Mac_with_Snow_Peas_n_Tomatoes.jpg",
              "PhotoUrl": "http://assets.kraftfoods.com/recipe_images/opendeploy/Cheesy_Mac_with_Snow_Peas_n_Tomatoes.jpg",
              "RecipeId": 110584,
              "RecipeName": "Cheesy Mac with Snow Peas & Tomatoes",
              "SEOName": "cheesy-mac-snow-peas-tomatoes-110584",
              "ThumbnailPhoto": null
            }
          ],
          "TotalCount": 1816
        }
      },
      "RiseIngredients": [
        {
          "IngredientCategory": "KRL",
          "IngredientId": 68527,
          "IngredientIndustrySector": "Retail",
          "IngredientType": "Inedible",
          "ProductId": null,
          "RecipeId": 55725
        },
        {
          "IngredientCategory": "KRL",
          "IngredientId": 68786,
          "IngredientIndustrySector": "Retail",
          "IngredientType": "Inedible",
          "ProductId": null,
          "RecipeId": 55725
        },
        {
          "IngredientCategory": "KRL",
          "IngredientId": 68791,
          "IngredientIndustrySector": "Retail",
          "IngredientType": "Generic",
          "ProductId": null,
          "RecipeId": 55725
        },
        {
          "IngredientCategory": "KRL",
          "IngredientId": 68983,
          "IngredientIndustrySector": "Retail",
          "IngredientType": "KHC",
          "ProductId": "00021000658862",
          "RecipeId": 55725
        },
        {
          "IngredientCategory": "KRL",
          "IngredientId": 69043,
          "IngredientIndustrySector": "Retail",
          "IngredientType": "Inedible",
          "ProductId": null,
          "RecipeId": 55725
        }
      ],
      "RiseTaxonomy": [],
      "Riserecipe": [
        {
          "GRIN": 525020,
          "RecipeId": 55725,
          "RecipeIndustrySector": "Retail",
          "RecipeType": "Internal"
        }
      ],
      "RomanceText": null,
      "SEOName": "cheesy-primavera-mac-skillet-55725",
      "Tips": [
        {
          "RecipeId": 55725,
          "Sequence": 10,
          "TipDescription": "Substitute your family's favorite frozen vegetables for the vegetable blend.",
          "TipID": 1,
          "TipName": "Substitute"
        }
      ],
      "TotalTime": 20,
      "TradeMarkInfo": null,
      "Video": [],
      "Yield": "Makes 5 servings."
    }
  ]
}