{
  "Metadata": {
    "PageCount": 1,
    "PageNo": 0,
    "TotalCount": 0
  },
  "Recipes": [
    {
      "AdServingKeywords": "Cereal,Coconut,Nuts,Dessert,All Seasons,Crispy,Bakers,Jet-Puffed,Planters",
      "AlternateLanguageRecipes": [],
      "Assets": [
        {
          "PictureFormats": [
            {
              "rendition": "300x200",
              "url": "http://assets.kraftfoods.com/recipe_images/Crispy_Clusters.jpg"
            }
          ],
          "author": null,
          "id": "0",
          "imageType": "LANDSCAPE",
          "mimeType": null,
          "publicationDate": null,
          "status": "1",
          "title": "Crispy_Clusters.jpg",
          "type": "image"
        }
      ],
      "AverageRating": 4,
      "BrandId": 1,
      "Branding": null,
      "CSSSkins": null,
      "CarbCounter": null,
      "Categories": [
        {
          "CategoryID": 3,
          "CategoryName": "Cookies/Candy/Other Desserts",
          "CategoryRank": 6,
          "SubCategoryID": 363,
          "SubCategoryName": "No Bake Cookies/Bars",
          "SubCategoryRank": 100
        },
        {
          "CategoryID": 11,
          "CategoryName": "Primary",
          "CategoryRank": 0,
          "SubCategoryID": 103,
          "SubCategoryName": "Desserts",
          "SubCategoryRank": 40
        },
        {
          "CategoryID": 761,
          "CategoryName": "Cakes, Muffins & Sweet Treats",
          "CategoryRank": 15,
          "SubCategoryID": 2585,
          "SubCategoryName": "Sweet",
          "SubCategoryRank": 1
        },
        {
          "CategoryID": 761,
          "CategoryName": "Cakes, Muffins & Sweet Treats",
          "CategoryRank": 15,
          "SubCategoryID": 2589,
          "SubCategoryName": "Slices - No Bake",
          "SubCategoryRank": 1
        }
      ],
      "Classifications": [],
      "ComplimentaryRecipes": null,
      "CookingMethod": null,
      "Copyright": null,
      "Courses": [
        "Desserts"
      ],
      "DietExchange": null,
      "DishDetails": [
        {
          "Text": "desserts",
          "Url": "/recipes/dessert/main.aspx"
        },
        {
          "Text": "fruity desserts",
          "Url": "/recipes/dessert/fruitydesserts.aspx"
        },
        {
          "Text": "gelatin desserts",
          "Url": "/recipes/dessert/gelatindesserts.aspx"
        },
        {
          "Text": "layered desserts",
          "Url": "/recipes/dessert/layereddesserts.aspx"
        },
        {
          "Text": "brownie recipes",
          "Url": "/recipes/dessert/brownie-recipes/main.aspx"
        },
        {
          "Text": "budget desserts",
          "Url": "/recipes/budget/budget-desserts.aspx"
        },
        {
          "Text": "no bake desserts",
          "Url": "/recipes/dessert/nobakedesserts.aspx"
        },
        {
          "Text": "pumpkin recipes",
          "Url": "/recipes/dessert/pumpkin-recipes.aspx"
        },
        {
          "Text": "chocolate cake recipes",
          "Url": "/recipes/dessert/chocolate-cake-recipes/main.aspx"
        },
        {
          "Text": "cheesecake recipes",
          "Url": "/recipes/dessert/cheesecake-center/cheesecake-recipes/main.aspx"
        },
        {
          "Text": "chocolate lovers recipes",
          "Url": "/recipes/dessert/chocolate-center/chocolateloversrecipes.aspx"
        },
        {
          "Text": "classic desserts",
          "Url": "/recipes/dessert/classicdesserts.aspx"
        },
        {
          "Text": "cookie ball recipes",
          "Url": "/recipes/dessert/cookie-ball-recipes/main.aspx"
        },
        {
          "Text": "cookie recipes",
          "Url": "/recipes/dessert/cookie-recipes/main.aspx"
        },
        {
          "Text": "cupcake recipes",
          "Url": "/recipes/dessert/cupcake-recipes/main.aspx"
        },
        {
          "Text": "healthy living desserts",
          "Url": "/healthy-living-ideas/diabetes-center/recipes/dessert-recipes.aspx"
        }
      ],
      "EndDate": "/Date(-62135575200000-0600)/",
      "HasVideo": false,
      "Ingredients": [
        {
          "FullMeasure": "5 cups",
          "FullWeight": "",
          "IngredientGridHeaders": null,
          "IngredientID": 2828,
          "IngredientName": "corn flakes",
          "IngredientStep": 10,
          "LanguageId": 0,
          "PostPreparation": "",
          "PrePreparation": "",
          "QuantityNum": 5,
          "QuantityText": "5",
          "QuantityUnit": "cups",
          "RecipeIngredientID": 6455686,
          "TrialMeasure": "",
          "TrialWeight": ""
        },
        {
          "FullMeasure": "1 cup",
          "FullWeight": "",
          "IngredientGridHeaders": null,
          "IngredientID": 49,
          "IngredientName": "BAKER'S ANGEL FLAKE Coconut",
          "IngredientStep": 20,
          "LanguageId": 0,
          "PostPreparation": "",
          "PrePreparation": "",
          "QuantityNum": 1,
          "QuantityText": "1",
          "QuantityUnit": "cup",
          "RecipeIngredientID": 6455684,
          "TrialMeasure": "",
          "TrialWeight": ""
        },
        {
          "FullMeasure": "1/2 cup",
          "FullWeight": "",
          "IngredientGridHeaders": null,
          "IngredientID": 1741,
          "IngredientName": "PLANTERS Walnuts",
          "IngredientStep": 30,
          "LanguageId": 0,
          "PostPreparation": "",
          "PrePreparation": "chopped",
          "QuantityNum": 0,
          "QuantityText": "1/2",
          "QuantityUnit": "cup",
          "RecipeIngredientID": 6455685,
          "TrialMeasure": "",
          "TrialWeight": ""
        },
        {
          "FullMeasure": "1/2 cup",
          "FullWeight": "",
          "IngredientGridHeaders": null,
          "IngredientID": 864,
          "IngredientName": "butter or margarine",
          "IngredientStep": 40,
          "LanguageId": 0,
          "PostPreparation": "",
          "PrePreparation": "(1 stick)",
          "QuantityNum": 0,
          "QuantityText": "1/2",
          "QuantityUnit": "cup",
          "RecipeIngredientID": 6455683,
          "TrialMeasure": "",
          "TrialWeight": ""
        },
        {
          "FullMeasure": "4-1/2 cups",
          "FullWeight": "",
          "IngredientGridHeaders": null,
          "IngredientID": 1351,
          "IngredientName": "JET-PUFFED Miniature Marshmallows",
          "IngredientStep": 50,
          "LanguageId": 0,
          "PostPreparation": "",
          "PrePreparation": "",
          "QuantityNum": 4,
          "QuantityText": "4-1/2",
          "QuantityUnit": "cups",
          "RecipeIngredientID": 6455687,
          "TrialMeasure": "",
          "TrialWeight": ""
        }
      ],
      "IsHealthyLiving": false,
      "KRLId": "500734",
      "KeyIngredients": [
        "Candy",
        "Cereal",
        "Coconut",
        "Nuts"
      ],
      "Keywords": "nuts,BAKER'S Coconut,cereal,coconut,corn flakes,marshmallows,walnuts,POST Toasties Cereal,butter,margarine,JET-PUFFED Marshmallows,PLANTERS Walnuts,Planters,Dessert,All Seasons,Crispy",
      "LanguageId": 1,
      "LifeStyles": [],
      "NumberOfIngredients": 5,
      "NumberOfRatings": 9,
      "NumberOfRatingsWithComments": "4",
      "NumberOfServings": "About 3-1/2 dozen clusters or 21 servings, 2 clusters each",
      "NumberOfTrialServings": null,
      "NutritionBonus": null,
      "NutritionExchangeItemId": 0,
      "NutritionGridItems": null,
      "NutritionItems": [
        {
          "DisplayOrder": 1,
          "Document": null,
          "NutritionItemID": 3,
          "NutritionItemName": "Calories",
          "Predriscriptor": "",
          "Quantity": 150,
          "Unit": "          "
        },
        {
          "DisplayOrder": 2,
          "Document": "fat_cholesterol.html",
          "NutritionItemID": 4,
          "NutritionItemName": "Total fat",
          "Predriscriptor": "",
          "Quantity": 8,
          "Unit": "g         "
        },
        {
          "DisplayOrder": 3,
          "Document": "fat_cholesterol.html",
          "NutritionItemID": 9,
          "NutritionItemName": "Saturated fat",
          "Predriscriptor": "",
          "Quantity": 4,
          "Unit": "g         "
        },
        {
          "DisplayOrder": 7,
          "Document": "fat_cholesterol.html",
          "NutritionItemID": 2,
          "NutritionItemName": "Cholesterol",
          "Predriscriptor": "",
          "Quantity": 10,
          "Unit": "mg        "
        },
        {
          "DisplayOrder": 8,
          "Document": "sodium.html",
          "NutritionItemID": 8,
          "NutritionItemName": "Sodium",
          "Predriscriptor": "",
          "Quantity": 125,
          "Unit": "mg        "
        },
        {
          "DisplayOrder": 10,
          "Document": "carbs_sugars_fiber.html",
          "NutritionItemID": 1,
          "NutritionItemName": "Carbohydrate",
          "Predriscriptor": "",
          "Quantity": 18,
          "Unit": "g         "
        },
        {
          "DisplayOrder": 11,
          "Document": "carbs_sugars_fiber.html",
          "NutritionItemID": 7,
          "NutritionItemName": "Dietary fiber",
          "Predriscriptor": "Less than",
          "Quantity": 1,
          "Unit": "g         "
        },
        {
          "DisplayOrder": 12,
          "Document": "carbs_sugars_fiber.html",
          "NutritionItemID": 5,
          "NutritionItemName": "Sugars",
          "Predriscriptor": "",
          "Quantity": 10,
          "Unit": "g         "
        },
        {
          "DisplayOrder": 13,
          "Document": null,
          "NutritionItemID": 6,
          "NutritionItemName": "Protein",
          "Predriscriptor": "Less than",
          "Quantity": 1,
          "Unit": "g         "
        },
        {
          "DisplayOrder": 14,
          "Document": null,
          "NutritionItemID": 10,
          "NutritionItemName": "Vitamin A",
          "Predriscriptor": "",
          "Quantity": 6,
          "Unit": "%DV       "
        },
        {
          "DisplayOrder": 15,
          "Document": null,
          "NutritionItemID": 11,
          "NutritionItemName": "Vitamin C",
          "Predriscriptor": "",
          "Quantity": 0,
          "Unit": "%DV       "
        },
        {
          "DisplayOrder": 16,
          "Document": "dairy_and_calcium.html",
          "NutritionItemID": 12,
          "NutritionItemName": "Calcium",
          "Predriscriptor": "",
          "Quantity": 0,
          "Unit": "%DV       "
        },
        {
          "DisplayOrder": 17,
          "Document": null,
          "NutritionItemID": 13,
          "NutritionItemName": "Iron",
          "Predriscriptor": "",
          "Quantity": 8,
          "Unit": "%DV       "
        }
      ],
      "NutritionServingText": null,
      "PrepStepImage": null,
      "PreparationDescription": "Mix corn flakes, coconut and walnuts in large bowl.$Melt butter in large saucepan on low heat.  Add marshmallows; cook until marshmallows are completely melted and mixture is well blended.  Pour over corn flake mixture; toss to coat.$Drop rounded tablespoonfuls of the corn flake mixture onto wax paper-covered baking sheet or tray.  Cool completely.",
      "PreparationPreText": null,
      "PreparationSteps": [
        {
          "Description": "Mix corn flakes, coconut and walnuts in large bowl.",
          "PreparationStepImage": {
            "PictureFormats": [],
            "author": null,
            "id": null,
            "imageType": null,
            "mimeType": null,
            "publicationDate": null,
            "status": null,
            "title": null,
            "type": null
          },
          "Sequence": 1
        },
        {
          "Description": "Melt butter in large saucepan on low heat.  Add marshmallows; cook until marshmallows are completely melted and mixture is well blended.  Pour over corn flake mixture; toss to coat.",
          "PreparationStepImage": {
            "PictureFormats": [],
            "author": null,
            "id": null,
            "imageType": null,
            "mimeType": null,
            "publicationDate": null,
            "status": null,
            "title": null,
            "type": null
          },
          "Sequence": 2
        },
        {
          "Description": "Drop rounded tablespoonfuls of the corn flake mixture onto wax paper-covered baking sheet or tray.  Cool completely.",
          "PreparationStepImage": {
            "PictureFormats": [],
            "author": null,
            "id": null,
            "imageType": null,
            "mimeType": null,
            "publicationDate": null,
            "status": null,
            "title": null,
            "type": null
          },
          "Sequence": 3
        }
      ],
      "PreparationTime": 20,
      "Promotion": null,
      "Ratings": {
        "TotalCount": 9,
        "PageCount": 10,
        "PageNo": 1,
        "Rating": [
          {
            "Comment": "",
            "DisplayName": true,
            "RatingValue": 5,
            "SubmitDate": "/Date(1363470428000-0500)/",
            "UpdatedDate": "/Date(1363470428000-0500)/",
            "UserName": "bluetwinkie01"
          },
          {
            "Comment": "",
            "DisplayName": true,
            "RatingValue": 5,
            "SubmitDate": "/Date(1189235196000-0500)/",
            "UpdatedDate": "/Date(1189235196000-0500)/",
            "UserName": "MYDOGDEON"
          },
          {
            "Comment": "My family and I loved it. Even some kids around the neighborhood loved it. Now I make it all the time.",
            "DisplayName": true,
            "RatingValue": 4,
            "SubmitDate": "/Date(1118364249000-0500)/",
            "UpdatedDate": "/Date(1118364249000-0500)/",
            "UserName": "Tez2"
          },
          {
            "Comment": "To sweet. You can only eat one...But if you like sweets go for it!  ",
            "DisplayName": true,
            "RatingValue": 2,
            "SubmitDate": "/Date(1060618682000-0500)/",
            "UpdatedDate": "/Date(1060618682000-0500)/",
            "UserName": "annaromia"
          },
          {
            "Comment": "It's pretty good, I think it's better to go simple and less ingredients but takes really good non-the-less. ",
            "DisplayName": true,
            "RatingValue": 4,
            "SubmitDate": "/Date(1035476203000-0500)/",
            "UpdatedDate": "/Date(1035476203000-0500)/",
            "UserName": "jhschick"
          },
          {
            "Comment": "They didn't stick together very well and the cornflakes didn't stay crispy,otherwise they tasted good,might want to increase amount of marshmallows,maybe they'll stick together better.  ",
            "DisplayName": false,
            "RatingValue": 3,
            "SubmitDate": "/Date(1034568878000-0500)/",
            "UpdatedDate": "/Date(1034568878000-0500)/",
            "UserName": "live2cook"
          },
          {
            "Comment": "",
            "DisplayName": false,
            "RatingValue": 5,
            "SubmitDate": "/Date(1018120699000-0500)/",
            "UpdatedDate": "/Date(1018120699000-0500)/",
            "UserName": "smacky74"
          },
          {
            "Comment": "",
            "DisplayName": false,
            "RatingValue": 4,
            "SubmitDate": "/Date(1014577547000-0600)/",
            "UpdatedDate": "/Date(1014577547000-0600)/",
            "UserName": "Katty_Zanyk"
          },
          {
            "Comment": "",
            "DisplayName": false,
            "RatingValue": 4,
            "SubmitDate": "/Date(1013195641000-0600)/",
            "UpdatedDate": "/Date(1013195641000-0600)/",
            "UserName": "Chile Man"
          }
        ]
      },
      "RecipeDisplayFormatId": 5,
      "RecipeId": 51704,
      "RecipeName": "Crispy Clusters",
      "RecipeType": 0,
      "RelatedData": {
        "RelatedBrands": null,
        "RelatedProducts": null,
        "RelatedRecipes": {
          "DefaultTopCount": 5,
          "Recipe": [
            {
              "AverageRating": 4.5,
              "HasVideo": false,
              "IsHealthyLiving": false,
              "NumberOfRatings": 114,
              "PhotoName": "97950.jpg",
              "PhotoUrl": "http://assets.kraftfoods.com/recipe_images/opendeploy/97950.jpg",
              "RecipeId": 97950,
              "RecipeName": "Chocolate Cluster-Peanut Butter Cake",
              "SEOName": "chocolate-cluster-peanut-butter-cake-97950",
              "ThumbnailPhoto": null
            },
            {
              "AverageRating": 4.2,
              "HasVideo": false,
              "IsHealthyLiving": false,
              "NumberOfRatings": 17,
              "PhotoName": "57445-Smores-Clusters-7478.jpg",
              "PhotoUrl": "http://assets.kraftfoods.com/recipe_images/opendeploy/57445-Smores-Clusters-7478.jpg",
              "RecipeId": 57445,
              "RecipeName": "S'more Clusters",
              "SEOName": "smore-clusters-57445",
              "ThumbnailPhoto": null
            },
            {
              "AverageRating": 4.7,
              "HasVideo": false,
              "IsHealthyLiving": false,
              "NumberOfRatings": 6,
              "PhotoName": "Nutty_Raisin_Pretzel_Clusters.jpg",
              "PhotoUrl": "http://assets.kraftfoods.com/recipe_images/opendeploy/Nutty_Raisin_Pretzel_Clusters.jpg",
              "RecipeId": 55045,
              "RecipeName": "Nutty Raisin Pretzel Clusters",
              "SEOName": "nutty-raisin-pretzel-clusters-55045",
              "ThumbnailPhoto": null
            },
            {
              "AverageRating": 4.4,
              "HasVideo": false,
              "IsHealthyLiving": false,
              "NumberOfRatings": 9,
              "PhotoName": "51416.jpg",
              "PhotoUrl": "http://assets.kraftfoods.com/recipe_images/opendeploy/51416.jpg",
              "RecipeId": 51416,
              "RecipeName": "Chocolate-Marshmallow Clusters",
              "SEOName": "chocolate-marshmallow-clusters-51416",
              "ThumbnailPhoto": null
            },
            {
              "AverageRating": 4.2,
              "HasVideo": false,
              "IsHealthyLiving": false,
              "NumberOfRatings": 13,
              "PhotoName": "White_Chocolate_Fruit_and_Nut_Clusters.jpg",
              "PhotoUrl": "http://assets.kraftfoods.com/recipe_images/opendeploy/White_Chocolate_Fruit_and_Nut_Clusters.jpg",
              "RecipeId": 69020,
              "RecipeName": "White Chocolate, Fruit and Nut Clusters",
              "SEOName": "white-chocolate-fruit-nut-clusters-69020",
              "ThumbnailPhoto": null
            }
          ],
          "TotalCount": 110
        }
      },
      "RiseIngredients": [],
      "RiseTaxonomy": [],
      "Riserecipe": [
        {
          "GRIN": 500734,
          "RecipeId": 51704,
          "RecipeIndustrySector": "Retail",
          "RecipeType": "Internal"
        }
      ],
      "RomanceText": "Corn flakes and walnuts add crunch to these coconut clusters coated with melted marshmallows. They're an easy, no-bake treat kids can help make.",
      "SEOName": "crispy-clusters-51704",
      "Tips": [
        {
          "RecipeId": 51704,
          "Sequence": 10,
          "TipDescription": "Mix ingredients as directed; press firmly into greased 13x9-inch baking pan.  Cool.  Cut into 40 squares.  Makes 40 servings, 1 square each.",
          "TipID": 1,
          "TipName": "Variation  "
        }
      ],
      "TotalTime": 20,
      "TradeMarkInfo": null,
      "Video": [],
      "Yield": "Makes about 3-1/2 dozen clusters or 21 servings, 2 clusters each."
    }
  ]
}