{
  "Metadata": {
    "PageCount": 1,
    "PageNo": 0,
    "TotalCount": 0
  },
  "Recipes": [
    {
      "AdServingKeywords": "Beef,Carrot,Coffee,Meat,Onion,Potato,Rice,Tomato,Vegetables,Entree,Nutrition and Well-Being,Dinner,All Seasons,Kwanzaa,Maxwell House",
      "AlternateLanguageRecipes": [],
      "Assets": [
        {
          "PictureFormats": [
            {
              "rendition": "290x194",
              "url": "http://assets.kraftfoods.com/recipe_images/opendeploy/505135_1_1_retail-0d6af25fd7743f8a296fd905fb81e619d53c42c9_291x194.jpg"
            },
            {
              "rendition": "306x204",
              "url": "http://assets.kraftfoods.com/recipe_images/opendeploy/505135_1_1_retail-0d6af25fd7743f8a296fd905fb81e619d53c42c9_306x204.jpg"
            },
            {
              "rendition": "640x428",
              "url": "http://assets.kraftfoods.com/recipe_images/opendeploy/505135_1_1_retail-0d6af25fd7743f8a296fd905fb81e619d53c42c9_642x428.jpg"
            }
          ],
          "author": "Kraft",
          "id": "2",
          "imageType": "Primary",
          "mimeType": "image/jpeg",
          "publicationDate": null,
          "status": "1",
          "title": "505135_1_1_retail-0d6af25fd7743f8a296fd905fb81e619d53c42c9",
          "type": "image"
        }
      ],
      "AverageRating": 3.8,
      "BrandId": 1,
      "Branding": null,
      "CSSSkins": null,
      "CarbCounter": null,
      "Categories": [
        {
          "CategoryID": 7,
          "CategoryName": "Pork/Beef Entrees",
          "CategoryRank": 10,
          "SubCategoryID": 411,
          "SubCategoryName": "Beef: Top of Stove",
          "SubCategoryRank": 50
        },
        {
          "CategoryID": 11,
          "CategoryName": "Primary",
          "CategoryRank": 0,
          "SubCategoryID": 97,
          "SubCategoryName": "Entrees",
          "SubCategoryRank": 50
        },
        {
          "CategoryID": 755,
          "CategoryName": "International Flavours",
          "CategoryRank": 9,
          "SubCategoryID": 2558,
          "SubCategoryName": "Mediterranean",
          "SubCategoryRank": 1
        },
        {
          "CategoryID": 756,
          "CategoryName": "Main Meals (Meat / Seafood / Egg)",
          "CategoryRank": 10,
          "SubCategoryID": 2563,
          "SubCategoryName": "Beef",
          "SubCategoryRank": 1
        }
      ],
      "Classifications": [
        {
          "ClassficationId": 9,
          "ClassificationName": "Low fat"
        },
        {
          "ClassficationId": 11,
          "ClassificationName": "Low calorie"
        },
        {
          "ClassficationId": 13,
          "ClassificationName": "Good source of vitamin A or C"
        },
        {
          "ClassficationId": 14,
          "ClassificationName": "Generally Nutritious"
        },
        {
          "ClassficationId": 22,
          "ClassificationName": "Low sodium"
        },
        {
          "ClassficationId": 119,
          "ClassificationName": "Diabetes Center"
        }
      ],
      "ComplimentaryRecipes": null,
      "CookingMethod": null,
      "Copyright": null,
      "Courses": [
        "Main dishes"
      ],
      "DietExchange": "",
      "DishDetails": [
        {
          "Text": "ground beef recipes",
          "Url": "/recipes/dinner/ground-beef-recipes/main.aspx"
        },
        {
          "Text": "top 10 beef recipes",
          "Url": "/recipes/dinner/top-10/beef-recipes/main.aspx"
        },
        {
          "Text": "1 bag 5 dinners",
          "Url": "/recipes/dinner/1Bag5Dinners/1bag5dinnerschickenbeef.aspx"
        }
      ],
      "EndDate": "/Date(-62135575200000-0600)/",
      "HasVideo": false,
      "Ingredients": [
        {
          "FullMeasure": null,
          "FullWeight": null,
          "IngredientGridHeaders": null,
          "IngredientID": 71559,
          "IngredientName": "extra-lean boneless beef pot roast (2-1/2 lb.), trimmed",
          "IngredientStep": 10,
          "LanguageId": 0,
          "PostPreparation": "",
          "PrePreparation": "",
          "QuantityNum": 1,
          "QuantityText": "1",
          "QuantityUnit": "",
          "RecipeIngredientID": 65108,
          "TrialMeasure": null,
          "TrialWeight": null
        },
        {
          "FullMeasure": null,
          "FullWeight": null,
          "IngredientGridHeaders": null,
          "IngredientID": 67921,
          "IngredientName": "oil",
          "IngredientStep": 20,
          "LanguageId": 0,
          "PostPreparation": "",
          "PrePreparation": "",
          "QuantityNum": 2,
          "QuantityText": "2",
          "QuantityUnit": "tsp.",
          "RecipeIngredientID": 63106,
          "TrialMeasure": null,
          "TrialWeight": null
        },
        {
          "FullMeasure": null,
          "FullWeight": null,
          "IngredientGridHeaders": null,
          "IngredientID": 68791,
          "IngredientName": "water, divided",
          "IngredientStep": 30,
          "LanguageId": 0,
          "PostPreparation": "",
          "PrePreparation": "",
          "QuantityNum": 1.5,
          "QuantityText": "1-1/2",
          "QuantityUnit": "cups",
          "RecipeIngredientID": 62778,
          "TrialMeasure": null,
          "TrialWeight": null
        },
        {
          "FullMeasure": null,
          "FullWeight": null,
          "IngredientGridHeaders": null,
          "IngredientID": 68581,
          "IngredientName": "brewed strong MAXWELL HOUSE Coffee",
          "IngredientStep": 40,
          "LanguageId": 0,
          "PostPreparation": "",
          "PrePreparation": "",
          "QuantityNum": 0.75,
          "QuantityText": "3/4",
          "QuantityUnit": "cup",
          "RecipeIngredientID": 71733,
          "TrialMeasure": null,
          "TrialWeight": null
        },
        {
          "FullMeasure": null,
          "FullWeight": null,
          "IngredientGridHeaders": null,
          "IngredientID": 68649,
          "IngredientName": "pepper",
          "IngredientStep": 50,
          "LanguageId": 0,
          "PostPreparation": "",
          "PrePreparation": "",
          "QuantityNum": 0,
          "QuantityText": "",
          "QuantityUnit": "",
          "RecipeIngredientID": 67944,
          "TrialMeasure": null,
          "TrialWeight": null
        },
        {
          "FullMeasure": null,
          "FullWeight": null,
          "IngredientGridHeaders": null,
          "IngredientID": 67752,
          "IngredientName": "carrots, cut into 1-1/2-inch chunks",
          "IngredientStep": 60,
          "LanguageId": 0,
          "PostPreparation": "",
          "PrePreparation": "",
          "QuantityNum": 6,
          "QuantityText": "6",
          "QuantityUnit": "",
          "RecipeIngredientID": 68233,
          "TrialMeasure": null,
          "TrialWeight": null
        },
        {
          "FullMeasure": null,
          "FullWeight": null,
          "IngredientGridHeaders": null,
          "IngredientID": 68918,
          "IngredientName": "potato pieces",
          "IngredientStep": 70,
          "LanguageId": 0,
          "PostPreparation": "",
          "PrePreparation": "",
          "QuantityNum": 2,
          "QuantityText": "2",
          "QuantityUnit": "cups",
          "RecipeIngredientID": 62738,
          "TrialMeasure": null,
          "TrialWeight": null
        },
        {
          "FullMeasure": null,
          "FullWeight": null,
          "IngredientGridHeaders": null,
          "IngredientID": 69214,
          "IngredientName": "tomato, chopped",
          "IngredientStep": 80,
          "LanguageId": 0,
          "PostPreparation": "",
          "PrePreparation": "",
          "QuantityNum": 1,
          "QuantityText": "1",
          "QuantityUnit": "large",
          "RecipeIngredientID": 65276,
          "TrialMeasure": null,
          "TrialWeight": null
        },
        {
          "FullMeasure": null,
          "FullWeight": null,
          "IngredientGridHeaders": null,
          "IngredientID": 68776,
          "IngredientName": "onion, sliced",
          "IngredientStep": 90,
          "LanguageId": 0,
          "PostPreparation": "",
          "PrePreparation": "",
          "QuantityNum": 1,
          "QuantityText": "1",
          "QuantityUnit": "",
          "RecipeIngredientID": 65174,
          "TrialMeasure": null,
          "TrialWeight": null
        },
        {
          "FullMeasure": null,
          "FullWeight": null,
          "IngredientGridHeaders": null,
          "IngredientID": 69099,
          "IngredientName": "flour",
          "IngredientStep": 100,
          "LanguageId": 0,
          "PostPreparation": "",
          "PrePreparation": "",
          "QuantityNum": 2,
          "QuantityText": "2",
          "QuantityUnit": "Tbsp.",
          "RecipeIngredientID": 70990,
          "TrialMeasure": null,
          "TrialWeight": null
        },
        {
          "FullMeasure": null,
          "FullWeight": null,
          "IngredientGridHeaders": null,
          "IngredientID": 70660,
          "IngredientName": "hot cooked brown rice",
          "IngredientStep": 110,
          "LanguageId": 0,
          "PostPreparation": "",
          "PrePreparation": "",
          "QuantityNum": 4,
          "QuantityText": "4",
          "QuantityUnit": "cups",
          "RecipeIngredientID": 66198,
          "TrialMeasure": null,
          "TrialWeight": null
        }
      ],
      "IsHealthyLiving": true,
      "KRLId": "505135",
      "KeyIngredients": [],
      "Keywords": "Entree,Nutrition and Well-Being,All Seasons,Kwanzaa,Dinner",
      "LanguageId": 1,
      "LifeStyles": [
        "Low fat",
        "Low calorie",
        "Good source of vitamin A or C",
        "Generally Nutritious",
        "Low sodium",
        "Diabetes Center"
      ],
      "NumberOfIngredients": 11,
      "NumberOfRatings": 26,
      "NumberOfRatingsWithComments": "19",
      "NumberOfServings": "Makes 8 servings.",
      "NumberOfTrialServings": null,
      "NutritionBonus": "Your family is sure to enjoy this flavorful low-calorie, low-sodium meal that's an excellent source of vitamin A from the carrots.  And as a bonus, it's also low in fat.",
      "NutritionExchangeItemId": 1,
      "NutritionGridItems": null,
      "NutritionItems": [
        {
          "DisplayOrder": 1,
          "Document": null,
          "NutritionItemID": 371,
          "NutritionItemName": "Calories",
          "Predriscriptor": "",
          "Quantity": 310,
          "Unit": "          "
        },
        {
          "DisplayOrder": 2,
          "Document": null,
          "NutritionItemID": 376,
          "NutritionItemName": "Total fat",
          "Predriscriptor": "",
          "Quantity": 7,
          "Unit": "g         "
        },
        {
          "DisplayOrder": 3,
          "Document": null,
          "NutritionItemID": 377,
          "NutritionItemName": "Saturated fat",
          "Predriscriptor": "",
          "Quantity": 2,
          "Unit": "g         "
        },
        {
          "DisplayOrder": 4,
          "Document": null,
          "NutritionItemID": 379,
          "NutritionItemName": "Polyunsaturated Fat",
          "Predriscriptor": "",
          "Quantity": 1,
          "Unit": "g         "
        },
        {
          "DisplayOrder": 5,
          "Document": null,
          "NutritionItemID": 378,
          "NutritionItemName": "Monounsaturated Fat",
          "Predriscriptor": "",
          "Quantity": 3,
          "Unit": "g         "
        },
        {
          "DisplayOrder": 6,
          "Document": null,
          "NutritionItemID": 380,
          "NutritionItemName": "Trans Fat",
          "Predriscriptor": "",
          "Quantity": 0,
          "Unit": "g         "
        },
        {
          "DisplayOrder": 7,
          "Document": null,
          "NutritionItemID": 381,
          "NutritionItemName": "Cholesterol",
          "Predriscriptor": "",
          "Quantity": 60,
          "Unit": "mg        "
        },
        {
          "DisplayOrder": 8,
          "Document": null,
          "NutritionItemID": 389,
          "NutritionItemName": "Sodium",
          "Predriscriptor": "",
          "Quantity": 80,
          "Unit": "mg        "
        },
        {
          "DisplayOrder": 10,
          "Document": null,
          "NutritionItemID": 373,
          "NutritionItemName": "Carbohydrate",
          "Predriscriptor": "",
          "Quantity": 37,
          "Unit": "g         "
        },
        {
          "DisplayOrder": 11,
          "Document": null,
          "NutritionItemID": 374,
          "NutritionItemName": "Dietary fiber",
          "Predriscriptor": "",
          "Quantity": 4,
          "Unit": "g         "
        },
        {
          "DisplayOrder": 12,
          "Document": null,
          "NutritionItemID": 375,
          "NutritionItemName": "Sugars",
          "Predriscriptor": "",
          "Quantity": 5,
          "Unit": "g         "
        },
        {
          "DisplayOrder": 13,
          "Document": null,
          "NutritionItemID": 372,
          "NutritionItemName": "Protein",
          "Predriscriptor": "",
          "Quantity": 24,
          "Unit": "g         "
        },
        {
          "DisplayOrder": 14,
          "Document": null,
          "NutritionItemID": 382,
          "NutritionItemName": "Vitamin A",
          "Predriscriptor": "",
          "Quantity": 270,
          "Unit": "%DV       "
        },
        {
          "DisplayOrder": 15,
          "Document": null,
          "NutritionItemID": 383,
          "NutritionItemName": "Vitamin C",
          "Predriscriptor": "",
          "Quantity": 6,
          "Unit": "%DV       "
        },
        {
          "DisplayOrder": 16,
          "Document": null,
          "NutritionItemID": 386,
          "NutritionItemName": "Calcium",
          "Predriscriptor": "",
          "Quantity": 4,
          "Unit": "%DV       "
        },
        {
          "DisplayOrder": 17,
          "Document": null,
          "NutritionItemID": 387,
          "NutritionItemName": "Iron",
          "Predriscriptor": "",
          "Quantity": 20,
          "Unit": "%DV       "
        }
      ],
      "NutritionServingText": null,
      "PrepStepImage": null,
      "PreparationDescription": "Brown meat on all sides in hot oil in nonstick Dutch oven or large deep skillet.  Pour 1 cup water and coffee over meat.  Season with pepper.  Bring to boil; cover.  Simmer on low heat 1 hour.$Add carrots, potatoes, tomatoes and onions; simmer, covered, 45 min. or until meat is done (160ºF) and vegetables are tender.  Place meat and vegetables on platter, reserving liquid in pan. Cover meat and vegetables to keep warm.$Mix remaining water and flour until well blended.  Gradually add to hot liquid in pan; cook 3 to 5 min. or until mixture boils and thickens, stirring constantly.  Simmer 3 min., stirring constantly.$Cut meat across grain into thin slices.  Serve with vegetables, gravy and rice.",
      "PreparationPreText": "",
      "PreparationSteps": [
        {
          "Description": "Brown meat on all sides in hot oil in nonstick Dutch oven or large deep skillet.  Pour 1 cup water and coffee over meat.  Season with pepper.  Bring to boil; cover.  Simmer on low heat 1 hour.",
          "PreparationStepImage": {
            "PictureFormats": [],
            "author": null,
            "id": null,
            "imageType": null,
            "mimeType": null,
            "publicationDate": null,
            "status": null,
            "title": null,
            "type": null
          },
          "Sequence": 1
        },
        {
          "Description": "Add carrots, potatoes, tomatoes and onions; simmer, covered, 45 min. or until meat is done (160ºF) and vegetables are tender.  Place meat and vegetables on platter, reserving liquid in pan. Cover meat and vegetables to keep warm.",
          "PreparationStepImage": {
            "PictureFormats": [],
            "author": null,
            "id": null,
            "imageType": null,
            "mimeType": null,
            "publicationDate": null,
            "status": null,
            "title": null,
            "type": null
          },
          "Sequence": 2
        },
        {
          "Description": "Mix remaining water and flour until well blended.  Gradually add to hot liquid in pan; cook 3 to 5 min. or until mixture boils and thickens, stirring constantly.  Simmer 3 min., stirring constantly.",
          "PreparationStepImage": {
            "PictureFormats": [],
            "author": null,
            "id": null,
            "imageType": null,
            "mimeType": null,
            "publicationDate": null,
            "status": null,
            "title": null,
            "type": null
          },
          "Sequence": 3
        },
        {
          "Description": "Cut meat across grain into thin slices.  Serve with vegetables, gravy and rice.",
          "PreparationStepImage": {
            "PictureFormats": [],
            "author": null,
            "id": null,
            "imageType": null,
            "mimeType": null,
            "publicationDate": null,
            "status": null,
            "title": null,
            "type": null
          },
          "Sequence": 4
        }
      ],
      "PreparationTime": 20,
      "Promotion": null,
      "Ratings": {
        "TotalCount": 26,
        "PageCount": 10,
        "PageNo": 1,
        "Rating": [
          {
            "Comment": "Very good.",
            "DisplayName": true,
            "RatingValue": 4,
            "SubmitDate": "/Date(1228247431000-0600)/",
            "UpdatedDate": "/Date(1228247431000-0600)/",
            "UserName": "adembkoski"
          },
          {
            "Comment": "This is a great \"meat & potatoes\" meal for the family, especially on a fall or winter evening. I actually use about double the amount of coffee and a little more water to make the meal more stew like. The meal works great with browned stew meat instead of pot roast if you're short on time. ",
            "DisplayName": true,
            "RatingValue": 4,
            "SubmitDate": "/Date(1223257072000-0500)/",
            "UpdatedDate": "/Date(1223257072000-0500)/",
            "UserName": "kesparza22"
          },
          {
            "Comment": "the rate on this meal is a 8",
            "DisplayName": false,
            "RatingValue": 4,
            "SubmitDate": "/Date(1197568130000-0600)/",
            "UpdatedDate": "/Date(1197568130000-0600)/",
            "UserName": "1978kathy"
          },
          {
            "Comment": "",
            "DisplayName": true,
            "RatingValue": 4,
            "SubmitDate": "/Date(1194635072000-0600)/",
            "UpdatedDate": "/Date(1194635072000-0600)/",
            "UserName": "shantrav"
          },
          {
            "Comment": "My 3 year old is a die hard chicken fan, yet downed 3 bowls of this!  husband and I loved it too!",
            "DisplayName": true,
            "RatingValue": 4,
            "SubmitDate": "/Date(1180400733000-0500)/",
            "UpdatedDate": "/Date(1180400733000-0500)/",
            "UserName": "Alice_23"
          },
          {
            "Comment": "Try substituting parsnips for carrots for a little sweeter flavor.  Also use 1/2 tsp garlic for extra flavor.",
            "DisplayName": true,
            "RatingValue": 4,
            "SubmitDate": "/Date(1171500444000-0600)/",
            "UpdatedDate": "/Date(1171500444000-0600)/",
            "UserName": "georgebrown"
          },
          {
            "Comment": "",
            "DisplayName": true,
            "RatingValue": 4,
            "SubmitDate": "/Date(1166561576000-0600)/",
            "UpdatedDate": "/Date(1166561576000-0600)/",
            "UserName": "jim331"
          },
          {
            "Comment": "my picky eater child's fave",
            "DisplayName": true,
            "RatingValue": 4,
            "SubmitDate": "/Date(1141211216000-0600)/",
            "UpdatedDate": "/Date(1141211216000-0600)/",
            "UserName": "cherrytf"
          },
          {
            "Comment": "used oleo to brown after dredging meat in onion powder and pepper. added 1 tsp catsup and 1/4 cup tomato juice, a quart of leftover morning coffee and enough water to clean out the catsup bottle. the secret to tender meat is to cook it low and slow",
            "DisplayName": true,
            "RatingValue": 4,
            "SubmitDate": "/Date(1140564967000-0600)/",
            "UpdatedDate": "/Date(1140564967000-0600)/",
            "UserName": "anniemcwilliams"
          },
          {
            "Comment": "The meat came out so tender. It was so easy to cut. I love how moist the meat was and the flavor of the vegetables in the meal was just right. Excellent dish!",
            "DisplayName": true,
            "RatingValue": 5,
            "SubmitDate": "/Date(1122144997000-0500)/",
            "UpdatedDate": "/Date(1122144997000-0500)/",
            "UserName": "sittinonxgo"
          }
        ]
      },
      "RecipeDisplayFormatId": 0,
      "RecipeId": 53536,
      "RecipeName": "Pot Roast and Vegetables",
      "RecipeType": 0,
      "RelatedData": {
        "RelatedBrands": null,
        "RelatedProducts": null,
        "RelatedRecipes": {
          "DefaultTopCount": 5,
          "Recipe": [
            {
              "AverageRating": 4.4,
              "HasVideo": false,
              "IsHealthyLiving": true,
              "NumberOfRatings": 81,
              "PhotoName": "73993.jpg",
              "PhotoUrl": "http://assets.kraftfoods.com/recipe_images/opendeploy/73993.jpg",
              "RecipeId": 73993,
              "RecipeName": "Beef Pot Roast and Winter Vegetables",
              "SEOName": "beef-pot-roast-winter-vegetables-73993",
              "ThumbnailPhoto": null
            },
            {
              "AverageRating": 5,
              "HasVideo": false,
              "IsHealthyLiving": true,
              "NumberOfRatings": 1,
              "PhotoName": "Pot_Roast_and_Vegetables.jpg",
              "PhotoUrl": "http://assets.kraftfoods.com/recipe_images/opendeploy/Pot_Roast_and_Vegetables.jpg",
              "RecipeId": 53537,
              "RecipeName": "Pot Roast and Vegetables",
              "SEOName": "pot-roast-vegetables-53537",
              "ThumbnailPhoto": null
            },
            {
              "AverageRating": 4.2,
              "HasVideo": false,
              "IsHealthyLiving": true,
              "NumberOfRatings": 17,
              "PhotoName": "133428.jpg",
              "PhotoUrl": "http://assets.kraftfoods.com/recipe_images/opendeploy/133428.jpg",
              "RecipeId": 133428,
              "RecipeName": "Slow-Cooker Pot Roast Recipe",
              "SEOName": "slow-cooker-pot-roast-recipe-133428",
              "ThumbnailPhoto": null
            },
            {
              "AverageRating": 4.3,
              "HasVideo": false,
              "IsHealthyLiving": true,
              "NumberOfRatings": 205,
              "PhotoName": "54353.jpg",
              "PhotoUrl": "http://assets.kraftfoods.com/recipe_images/opendeploy/54353.jpg",
              "RecipeId": 54353,
              "RecipeName": "Savory Pot Roast",
              "SEOName": "savory-pot-roast-54353",
              "ThumbnailPhoto": null
            },
            {
              "AverageRating": 4.5,
              "HasVideo": false,
              "IsHealthyLiving": true,
              "NumberOfRatings": 2,
              "PhotoName": "opendeploy/568489_1_1_retail-1369c991aeb4760c618003e47a729e62a6e2722c_306x204.jpg",
              "PhotoUrl": "http://assets.kraftfoods.com/recipe_images/opendeploy/opendeploy/568489_1_1_retail-1369c991aeb4760c618003e47a729e62a6e2722c_306x204.jpg",
              "RecipeId": 136982,
              "RecipeName": "Tuscan Pot Roast",
              "SEOName": "tuscan-pot-roast-136982",
              "ThumbnailPhoto": null
            }
          ],
          "TotalCount": 1540
        }
      },
      "RiseIngredients": [
        {
          "IngredientCategory": "KRL",
          "IngredientId": 67752,
          "IngredientIndustrySector": "Retail",
          "IngredientType": "Inedible",
          "ProductId": null,
          "RecipeId": 53536
        },
        {
          "IngredientCategory": "KRL",
          "IngredientId": 67921,
          "IngredientIndustrySector": "Retail",
          "IngredientType": "Inedible",
          "ProductId": null,
          "RecipeId": 53536
        },
        {
          "IngredientCategory": "KRL",
          "IngredientId": 68581,
          "IngredientIndustrySector": "Retail",
          "IngredientType": "KHC",
          "ProductId": "00043000021958",
          "RecipeId": 53536
        },
        {
          "IngredientCategory": "KRL",
          "IngredientId": 68649,
          "IngredientIndustrySector": "Retail",
          "IngredientType": "Inedible",
          "ProductId": null,
          "RecipeId": 53536
        },
        {
          "IngredientCategory": "KRL",
          "IngredientId": 68776,
          "IngredientIndustrySector": "Retail",
          "IngredientType": "Inedible",
          "ProductId": null,
          "RecipeId": 53536
        },
        {
          "IngredientCategory": "KRL",
          "IngredientId": 68791,
          "IngredientIndustrySector": "Retail",
          "IngredientType": "Generic",
          "ProductId": null,
          "RecipeId": 53536
        },
        {
          "IngredientCategory": "KRL",
          "IngredientId": 68918,
          "IngredientIndustrySector": "Retail",
          "IngredientType": "Inedible",
          "ProductId": null,
          "RecipeId": 53536
        },
        {
          "IngredientCategory": "KRL",
          "IngredientId": 69099,
          "IngredientIndustrySector": "Retail",
          "IngredientType": "Inedible",
          "ProductId": null,
          "RecipeId": 53536
        },
        {
          "IngredientCategory": "KRL",
          "IngredientId": 69214,
          "IngredientIndustrySector": "Retail",
          "IngredientType": "Inedible",
          "ProductId": null,
          "RecipeId": 53536
        },
        {
          "IngredientCategory": "KRL",
          "IngredientId": 70660,
          "IngredientIndustrySector": "Retail",
          "IngredientType": "Inedible",
          "ProductId": null,
          "RecipeId": 53536
        },
        {
          "IngredientCategory": "KRL",
          "IngredientId": 71559,
          "IngredientIndustrySector": "Retail",
          "IngredientType": "Inedible",
          "ProductId": null,
          "RecipeId": 53536
        }
      ],
      "RiseTaxonomy": [
        {
          "ParentTaxonomyId": 0,
          "RecipeId": 53536,
          "ResourceName": "Recipe",
          "TaxonomyId": 312,
          "TaxonomyName": "Kwanzaa",
          "TaxonomyTypeId": 5,
          "TaxonomyTypeName": "Occasion-Theme"
        }
      ],
      "Riserecipe": [
        {
          "GRIN": 505135,
          "RecipeId": 53536,
          "RecipeIndustrySector": "Retail",
          "RecipeType": "Internal"
        }
      ],
      "RomanceText": "A long simmer in a Dutch oven makes this pot roast tender, moist and juicy. And the secret sauce ingredient? Fresh-brewed coffee.",
      "SEOName": "pot-roast-vegetables-53536",
      "Tips": [
        {
          "RecipeId": 53536,
          "Sequence": 10,
          "TipDescription": "Cool any leftovers; refrigerate up to 2 days.  When ready to serve, spoon onto 6-inch flour tortillas.  Sprinkle with KRAFT Shredded Cheddar Cheese; roll up.  Place, seam-sides down, in shallow baking dish.  Bake at 350°F until filling is heated through and cheese is melted.",
          "TipID": 1,
          "TipName": "Creative Leftovers"
        }
      ],
      "TotalTime": 210,
      "TradeMarkInfo": null,
      "Video": [],
      "Yield": "Makes 8 servings."
    }
  ]
}