{
  "Metadata": {
    "PageCount": 1,
    "PageNo": 0,
    "TotalCount": 0
  },
  "Recipes": [
    {
      "AdServingKeywords": "Easy,All Seasons,Birthday party,Refrigerated Dessert,Kid-Friendly,Kids Can Cook,Jell-O",
      "AlternateLanguageRecipes": [],
      "Assets": [],
      "AverageRating": 0,
      "BrandId": 1,
      "Branding": null,
      "CSSSkins": null,
      "CarbCounter": null,
      "Categories": [
        {
          "CategoryID": 11,
          "CategoryName": "Primary",
          "CategoryRank": 0,
          "SubCategoryID": 96,
          "SubCategoryName": "Appetizers & Snacks",
          "SubCategoryRank": 10
        },
        {
          "CategoryID": 11,
          "CategoryName": "Primary",
          "CategoryRank": 0,
          "SubCategoryID": 103,
          "SubCategoryName": "Desserts",
          "SubCategoryRank": 40
        },
        {
          "CategoryID": 12,
          "CategoryName": "Especially for Kids",
          "CategoryRank": 7,
          "SubCategoryID": 151,
          "SubCategoryName": "Desserts",
          "SubCategoryRank": 30
        },
        {
          "CategoryID": 12,
          "CategoryName": "Especially for Kids",
          "CategoryRank": 7,
          "SubCategoryID": 152,
          "SubCategoryName": "Snacks",
          "SubCategoryRank": 50
        },
        {
          "CategoryID": 762,
          "CategoryName": "Kids Cooking",
          "CategoryRank": 16,
          "SubCategoryID": 2591,
          "SubCategoryName": "Cooked",
          "SubCategoryRank": 1
        },
        {
          "CategoryID": 762,
          "CategoryName": "Kids Cooking",
          "CategoryRank": 16,
          "SubCategoryID": 2592,
          "SubCategoryName": "No Cooking",
          "SubCategoryRank": 1
        },
        {
          "CategoryID": 762,
          "CategoryName": "Kids Cooking",
          "CategoryRank": 16,
          "SubCategoryID": 2593,
          "SubCategoryName": "Sweet",
          "SubCategoryRank": 1
        },
        {
          "CategoryID": 762,
          "CategoryName": "Kids Cooking",
          "CategoryRank": 16,
          "SubCategoryID": 2594,
          "SubCategoryName": "Savoury",
          "SubCategoryRank": 1
        }
      ],
      "Classifications": [],
      "ComplimentaryRecipes": null,
      "CookingMethod": null,
      "Copyright": null,
      "Courses": [],
      "DietExchange": null,
      "DishDetails": [],
      "EndDate": "/Date(-62135575200000-0600)/",
      "HasVideo": false,
      "Ingredients": [
        {
          "FullMeasure": null,
          "FullWeight": null,
          "IngredientGridHeaders": null,
          "IngredientID": 68791,
          "IngredientName": "boiling water ",
          "IngredientStep": 10,
          "LanguageId": 0,
          "PostPreparation": "",
          "PrePreparation": "",
          "QuantityNum": 1.5,
          "QuantityText": "1-1/2",
          "QuantityUnit": "cups",
          "RecipeIngredientID": 134890,
          "TrialMeasure": null,
          "TrialWeight": null
        },
        {
          "FullMeasure": null,
          "FullWeight": null,
          "IngredientGridHeaders": null,
          "IngredientID": 68322,
          "IngredientName": "(6 oz.) JELL-O Gelatin, any flavor",
          "IngredientStep": 20,
          "LanguageId": 0,
          "PostPreparation": "",
          "PrePreparation": "",
          "QuantityNum": 1,
          "QuantityText": "1",
          "QuantityUnit": "pkg.",
          "RecipeIngredientID": 137388,
          "TrialMeasure": null,
          "TrialWeight": null
        }
      ],
      "IsHealthyLiving": false,
      "KRLId": "559655",
      "KeyIngredients": [],
      "Keywords": "Easy,All Seasons,Birthday party,Refrigerated Dessert,Kid-Friendly,Kids Can Cook",
      "LanguageId": 1,
      "LifeStyles": [],
      "NumberOfIngredients": 2,
      "NumberOfRatings": 0,
      "NumberOfRatingsWithComments": "0",
      "NumberOfServings": "7 servings",
      "NumberOfTrialServings": null,
      "NutritionBonus": null,
      "NutritionExchangeItemId": 0,
      "NutritionGridItems": null,
      "NutritionItems": [
        {
          "DisplayOrder": 1,
          "Document": null,
          "NutritionItemID": 371,
          "NutritionItemName": "Calories",
          "Predriscriptor": "",
          "Quantity": 90,
          "Unit": "          "
        },
        {
          "DisplayOrder": 2,
          "Document": null,
          "NutritionItemID": 376,
          "NutritionItemName": "Total fat",
          "Predriscriptor": "",
          "Quantity": 0,
          "Unit": "g         "
        },
        {
          "DisplayOrder": 3,
          "Document": null,
          "NutritionItemID": 377,
          "NutritionItemName": "Saturated fat",
          "Predriscriptor": "",
          "Quantity": 0,
          "Unit": "g         "
        },
        {
          "DisplayOrder": 4,
          "Document": null,
          "NutritionItemID": 379,
          "NutritionItemName": "Polyunsaturated Fat",
          "Predriscriptor": "",
          "Quantity": 0,
          "Unit": "g         "
        },
        {
          "DisplayOrder": 5,
          "Document": null,
          "NutritionItemID": 378,
          "NutritionItemName": "Monounsaturated Fat",
          "Predriscriptor": "",
          "Quantity": 0,
          "Unit": "g         "
        },
        {
          "DisplayOrder": 6,
          "Document": null,
          "NutritionItemID": 380,
          "NutritionItemName": "Trans Fat",
          "Predriscriptor": "",
          "Quantity": 0,
          "Unit": "g         "
        },
        {
          "DisplayOrder": 7,
          "Document": null,
          "NutritionItemID": 381,
          "NutritionItemName": "Cholesterol",
          "Predriscriptor": "",
          "Quantity": 0,
          "Unit": "mg        "
        },
        {
          "DisplayOrder": 8,
          "Document": null,
          "NutritionItemID": 389,
          "NutritionItemName": "Sodium",
          "Predriscriptor": "",
          "Quantity": 100,
          "Unit": "mg        "
        },
        {
          "DisplayOrder": 10,
          "Document": null,
          "NutritionItemID": 373,
          "NutritionItemName": "Carbohydrate",
          "Predriscriptor": "",
          "Quantity": 21,
          "Unit": "g         "
        },
        {
          "DisplayOrder": 11,
          "Document": null,
          "NutritionItemID": 374,
          "NutritionItemName": "Dietary fiber",
          "Predriscriptor": "",
          "Quantity": 0,
          "Unit": "g         "
        },
        {
          "DisplayOrder": 12,
          "Document": null,
          "NutritionItemID": 375,
          "NutritionItemName": "Sugars",
          "Predriscriptor": "",
          "Quantity": 21,
          "Unit": "g         "
        },
        {
          "DisplayOrder": 13,
          "Document": null,
          "NutritionItemID": 372,
          "NutritionItemName": "Protein",
          "Predriscriptor": "",
          "Quantity": 2,
          "Unit": "g         "
        },
        {
          "DisplayOrder": 14,
          "Document": null,
          "NutritionItemID": 382,
          "NutritionItemName": "Vitamin A",
          "Predriscriptor": "",
          "Quantity": 0,
          "Unit": "%DV       "
        },
        {
          "DisplayOrder": 15,
          "Document": null,
          "NutritionItemID": 383,
          "NutritionItemName": "Vitamin C",
          "Predriscriptor": "",
          "Quantity": 0,
          "Unit": "%DV       "
        },
        {
          "DisplayOrder": 16,
          "Document": null,
          "NutritionItemID": 386,
          "NutritionItemName": "Calcium",
          "Predriscriptor": "",
          "Quantity": 0,
          "Unit": "%DV       "
        },
        {
          "DisplayOrder": 17,
          "Document": null,
          "NutritionItemID": 387,
          "NutritionItemName": "Iron",
          "Predriscriptor": "",
          "Quantity": 0,
          "Unit": "%DV       "
        }
      ],
      "NutritionServingText": null,
      "PrepStepImage": null,
      "PreparationDescription": "Spray inside of JELL-O JIGGLERS Happy Birthday Mold with cooking spray; place, fill side up, on baking sheet. $Add boiling water to gelatin mix in small bowl; stir 3 min. until completely dissolved. Pour into prepared mold. Refrigerate 3 hours or until firm. $Dip bottom of mold in warm water 15 sec.; invert onto plate.  Shake mold gently to remove JIGGLERS. ",
      "PreparationPreText": "",
      "PreparationSteps": [
        {
          "Description": "Spray inside of JELL-O JIGGLERS Happy Birthday Mold with cooking spray; place, fill side up, on baking sheet. ",
          "PreparationStepImage": {
            "PictureFormats": [],
            "author": null,
            "id": null,
            "imageType": null,
            "mimeType": null,
            "publicationDate": null,
            "status": null,
            "title": null,
            "type": null
          },
          "Sequence": 1
        },
        {
          "Description": "Add boiling water to gelatin mix in small bowl; stir 3 min. until completely dissolved. Pour into prepared mold. Refrigerate 3 hours or until firm. ",
          "PreparationStepImage": {
            "PictureFormats": [],
            "author": null,
            "id": null,
            "imageType": null,
            "mimeType": null,
            "publicationDate": null,
            "status": null,
            "title": null,
            "type": null
          },
          "Sequence": 2
        },
        {
          "Description": "Dip bottom of mold in warm water 15 sec.; invert onto plate.  Shake mold gently to remove JIGGLERS. ",
          "PreparationStepImage": {
            "PictureFormats": [],
            "author": null,
            "id": null,
            "imageType": null,
            "mimeType": null,
            "publicationDate": null,
            "status": null,
            "title": null,
            "type": null
          },
          "Sequence": 3
        }
      ],
      "PreparationTime": 10,
      "Promotion": null,
      "Ratings": {
        "TotalCount": 0,
        "PageCount": 10,
        "PageNo": 1,
        "Rating": []
      },
      "RecipeDisplayFormatId": 0,
      "RecipeId": 178444,
      "RecipeName": "Happy Birthday JELL-O JIGGLERS",
      "RecipeType": 0,
      "RelatedData": {
        "RelatedBrands": null,
        "RelatedProducts": null,
        "RelatedRecipes": {
          "DefaultTopCount": 5,
          "Recipe": [
            {
              "AverageRating": 4.5,
              "HasVideo": false,
              "IsHealthyLiving": false,
              "NumberOfRatings": 4,
              "PhotoName": "50970.jpg",
              "PhotoUrl": "http://assets.kraftfoods.com/recipe_images/opendeploy/50970.jpg",
              "RecipeId": 50970,
              "RecipeName": "Juicy Holiday JIGGLERS",
              "SEOName": "juicy-holiday-jigglers-50970",
              "ThumbnailPhoto": null
            },
            {
              "AverageRating": 4,
              "HasVideo": false,
              "IsHealthyLiving": false,
              "NumberOfRatings": 1,
              "PhotoName": "189612.jpg",
              "PhotoUrl": "http://assets.kraftfoods.com/recipe_images/opendeploy/189612.jpg",
              "RecipeId": 189612,
              "RecipeName": "JELL-O JIGGLERS Movie/TV Character Mold Kit",
              "SEOName": "jell-o-jigglers-movietv-character-mold-kit-189612",
              "ThumbnailPhoto": null
            },
            {
              "AverageRating": 5,
              "HasVideo": false,
              "IsHealthyLiving": false,
              "NumberOfRatings": 4,
              "PhotoName": "181885.jpg",
              "PhotoUrl": "http://assets.kraftfoods.com/recipe_images/opendeploy/181885.jpg",
              "RecipeId": 181885,
              "RecipeName": "JELL-O Candy Cane JIGGLERS",
              "SEOName": "jell-o-candy-cane-jigglers-181885",
              "ThumbnailPhoto": null
            },
            {
              "AverageRating": 5,
              "HasVideo": true,
              "IsHealthyLiving": false,
              "NumberOfRatings": 1,
              "PhotoName": "opendeploy/569111_1_1_retail-473804b30648ec8e67a3a030dd3b3d0274cf7916_306x204.jpg",
              "PhotoUrl": "http://assets.kraftfoods.com/recipe_images/opendeploy/opendeploy/569111_1_1_retail-473804b30648ec8e67a3a030dd3b3d0274cf7916_306x204.jpg",
              "RecipeId": 175621,
              "RecipeName": "JELL-O®  Sports Team JIGGLERS®",
              "SEOName": "jell-o-sports-team-jigglers-175621",
              "ThumbnailPhoto": null
            },
            {
              "AverageRating": 5,
              "HasVideo": false,
              "IsHealthyLiving": false,
              "NumberOfRatings": 3,
              "PhotoName": "109243.jpg",
              "PhotoUrl": "http://assets.kraftfoods.com/recipe_images/opendeploy/109243.jpg",
              "RecipeId": 109243,
              "RecipeName": "Spring JELL-O JIGGLERS",
              "SEOName": "spring-jell-o-jigglers-109243",
              "ThumbnailPhoto": null
            }
          ],
          "TotalCount": 1447
        }
      },
      "RiseIngredients": [
        {
          "IngredientCategory": "KRL",
          "IngredientId": 68322,
          "IngredientIndustrySector": "Retail",
          "IngredientType": "Inedible",
          "ProductId": null,
          "RecipeId": 178444
        },
        {
          "IngredientCategory": "KRL",
          "IngredientId": 68791,
          "IngredientIndustrySector": "Retail",
          "IngredientType": "Generic",
          "ProductId": null,
          "RecipeId": 178444
        }
      ],
      "RiseTaxonomy": [],
      "Riserecipe": [
        {
          "GRIN": 559655,
          "RecipeId": 178444,
          "RecipeIndustrySector": "Retail",
          "RecipeType": "Internal"
        }
      ],
      "RomanceText": "Get out the JELL-O JIGGLERS Happy Birthday Mold and your choice of JELL-O Gelatin to make someone's birthday extra fun.",
      "SEOName": "happy-birthday-jell-o-jigglers-178444",
      "Tips": [
        {
          "RecipeId": 178444,
          "Sequence": 10,
          "TipDescription": "Just before serving, decorate unmolded JIGGLERS with frosting, icing gels, miniature semi-sweet chocolate chips, colorful sprinkles and/or small candies.",
          "TipID": 1,
          "TipName": "Be Creative"
        },
        {
          "RecipeId": 178444,
          "Sequence": 20,
          "TipDescription": "Prepare recipe as directed, reducing boiling water to 1 cup, and adding 1 can (5 oz.) evaporated milk to dissolved gelatin before pouring into prepared mold. \n",
          "TipID": 2,
          "TipName": "Creamy JIGGLERS"
        },
        {
          "RecipeId": 178444,
          "Sequence": 30,
          "TipDescription": "For children under 6 years of age, cut JIGGLERS into small bite-size pieces. Children should always be seated and supervised while eating.  For more information, visit <a href=\"/HealthyLiving/Articles/FoodSafety/FeedingYourChildren.htm\">www.KraftKidsSafe.com</a>.",
          "TipID": 5758,
          "TipName": "KEEP KIDS SAFE! "
        },
        {
          "RecipeId": 178444,
          "Sequence": 40,
          "TipDescription": "Order the JELL-O JIGGLERS Happy Birthday Mold <a href=\"https://apfco.com/secure/w1381/product_description.cfm?product=KW1381-44\">Kraft Corner Store</a>.",
          "TipID": 3,
          "TipName": "How to Order the JELL-O JIGGLERS Happy Birthday Mold"
        }
      ],
      "TotalTime": 190,
      "TradeMarkInfo": null,
      "Video": [],
      "Yield": "7 servings"
    }
  ]
}