{
  "Metadata": {
    "PageCount": 1,
    "PageNo": 0,
    "TotalCount": 0
  },
  "Recipes": [
    {
      "AdServingKeywords": "Aluminum Foil,Sandwich,Italian,Cheese,Chicken,Meat,Mozzarella,Pasta Sauce,Poultry,Classico,Kraft Cheese,Kraft Shredded Cheese,Shake N Bake,All Seasons,Dinner,Lunch",
      "AlternateLanguageRecipes": [],
      "Assets": [
        {
          "PictureFormats": [
            {
              "rendition": "290x194",
              "url": "http://assets.kraftfoods.com/recipe_images/opendeploy/94516_290x194.jpg"
            },
            {
              "rendition": "640x428",
              "url": "http://assets.kraftfoods.com/recipe_images/opendeploy/94516_640x428.jpg"
            },
            {
              "rendition": "600x250",
              "url": "http://assets.kraftfoods.com/recipe_images/opendeploy/94516_600x250.jpg"
            }
          ],
          "author": "BulKUpload",
          "id": "2",
          "imageType": "Primary",
          "mimeType": "image/jpeg",
          "publicationDate": null,
          "status": "1",
          "title": "94516",
          "type": "image"
        },
        {
          "PictureFormats": [
            {
              "rendition": "140x90",
              "url": "http://assets.kraftfoods.com/recipe_images/opendeploy/94516_MXM_K46790V1_OR1_OH_140x90.jpg"
            },
            {
              "rendition": "300x250",
              "url": "http://assets.kraftfoods.com/recipe_images/opendeploy/94516_MXM_K46790V1_OR1_OH_300x250.jpg"
            },
            {
              "rendition": "960x300",
              "url": "http://assets.kraftfoods.com/recipe_images/opendeploy/94516_MXM_K46790V1_OR1_OH_960x300.jpg"
            }
          ],
          "author": null,
          "id": "2",
          "imageType": "Primary",
          "mimeType": "image/jpeg",
          "publicationDate": null,
          "status": "1",
          "title": "94516_MXM_K46790V1_OR1_OH",
          "type": "image"
        },
        {
          "PictureFormats": [
            {
              "rendition": "300x200",
              "url": "http://assets.kraftfoods.com/recipe_images/94516.jpg"
            }
          ],
          "author": "BulKUpload",
          "id": "0",
          "imageType": "LANDSCAPE",
          "mimeType": "image/jpeg",
          "publicationDate": null,
          "status": "1",
          "title": "94516.jpg",
          "type": "image"
        }
      ],
      "AverageRating": 4.2,
      "BrandId": 1,
      "Branding": null,
      "CSSSkins": null,
      "CarbCounter": null,
      "Categories": [
        {
          "CategoryID": 11,
          "CategoryName": "Primary",
          "CategoryRank": 0,
          "SubCategoryID": 105,
          "SubCategoryName": "Sandwiches",
          "SubCategoryRank": 80
        },
        {
          "CategoryID": 14,
          "CategoryName": "Soup/Sandwiches",
          "CategoryRank": 14,
          "SubCategoryID": 160,
          "SubCategoryName": "Hot Sandwiches",
          "SubCategoryRank": 70
        },
        {
          "CategoryID": 751,
          "CategoryName": "Breads, Sandwiches, Wraps & Burgers",
          "CategoryRank": 5,
          "SubCategoryID": 2532,
          "SubCategoryName": "Toasted / Grilled / Cooked",
          "SubCategoryRank": 1
        }
      ],
      "Classifications": [],
      "ComplimentaryRecipes": null,
      "CookingMethod": null,
      "Copyright": null,
      "Courses": [
        "Sandwiches"
      ],
      "DietExchange": null,
      "DishDetails": [
        {
          "Text": "chicken recipes",
          "Url": "/recipes/dinner/chicken-recipes/main.aspx"
        },
        {
          "Text": "grilled chicken recipes",
          "Url": "/recipes/dinner/chicken-recipes/grilled-chicken/main.aspx"
        },
        {
          "Text": "healthy living chicken recipes",
          "Url": "/recipes/dinner/chicken-recipes/hl/main.aspx"
        },
        {
          "Text": "slow cooker chicken recipes",
          "Url": "/recipes/dinner/chicken-recipes/slow-cooker/main.aspx"
        },
        {
          "Text": "whole chicken recipes",
          "Url": "/recipes/dinner/chicken-recipes/whole-chicken/main.aspx"
        },
        {
          "Text": "chicken breast recipes",
          "Url": "/recipes/dinner/chicken-recipes/chicken-breast/main.aspx"
        },
        {
          "Text": "chicken casseroles",
          "Url": "/recipes/dinner/chicken-recipes/casseroles/main.aspx"
        },
        {
          "Text": "chicken pasta recipes",
          "Url": "/recipes/dinner/chicken-recipes/pasta-dishes/main.aspx"
        },
        {
          "Text": "chicken salad recipes",
          "Url": "/recipes/dinner/chicken-recipes/salads/main.aspx"
        },
        {
          "Text": "chicken stir-fry recipes",
          "Url": "/recipes/dinner/chicken-recipes/stir-fry/main.aspx"
        },
        {
          "Text": "chicken wing recipes",
          "Url": "/recipes/appetizers/chicken-wing-recipes/main.aspx"
        },
        {
          "Text": "baked chicken recipes",
          "Url": "/recipes/dinner/chicken-recipes/baked-chicken/main.aspx"
        },
        {
          "Text": "bbq chicken recipes",
          "Url": "/recipes/holidays-and-entertaining/entertaining/summer/bbq-recipes/bbq-chicken-recipes/main.aspx"
        }
      ],
      "EndDate": "/Date(-62135575200000-0600)/",
      "HasVideo": false,
      "Ingredients": [
        {
          "FullMeasure": null,
          "FullWeight": null,
          "IngredientGridHeaders": null,
          "IngredientID": 72876,
          "IngredientName": "small boneless skinless chicken breasts (about 1 lb.)",
          "IngredientStep": 10,
          "LanguageId": 0,
          "PostPreparation": "",
          "PrePreparation": "",
          "QuantityNum": 4,
          "QuantityText": "4",
          "QuantityUnit": "",
          "RecipeIngredientID": 35053,
          "TrialMeasure": null,
          "TrialWeight": null
        },
        {
          "FullMeasure": null,
          "FullWeight": null,
          "IngredientGridHeaders": null,
          "IngredientID": 68203,
          "IngredientName": "SHAKE 'N BAKE Chicken Coating Mix",
          "IngredientStep": 20,
          "LanguageId": 0,
          "PostPreparation": "",
          "PrePreparation": "",
          "QuantityNum": 0.5,
          "QuantityText": "1/2",
          "QuantityUnit": "pkt.",
          "RecipeIngredientID": 28716,
          "TrialMeasure": null,
          "TrialWeight": null
        },
        {
          "FullMeasure": null,
          "FullWeight": null,
          "IngredientGridHeaders": null,
          "IngredientID": 74769,
          "IngredientName": "OLIVO by CLASSICO Traditional Pasta Sauce",
          "IngredientStep": 30,
          "LanguageId": 0,
          "PostPreparation": "",
          "PrePreparation": "",
          "QuantityNum": 0.5,
          "QuantityText": "1/2",
          "QuantityUnit": "cup",
          "RecipeIngredientID": 37792,
          "TrialMeasure": null,
          "TrialWeight": null
        },
        {
          "FullMeasure": null,
          "FullWeight": null,
          "IngredientGridHeaders": null,
          "IngredientID": 68032,
          "IngredientName": "KRAFT Shredded Low-Moisture Part-Skim Mozzarella Cheese",
          "IngredientStep": 40,
          "LanguageId": 0,
          "PostPreparation": "",
          "PrePreparation": "",
          "QuantityNum": 0.75,
          "QuantityText": "3/4",
          "QuantityUnit": "cup",
          "RecipeIngredientID": 35052,
          "TrialMeasure": null,
          "TrialWeight": null
        }
      ],
      "IsHealthyLiving": false,
      "KRLId": "551336",
      "KeyIngredients": [],
      "Keywords": "Aluminum Foil,Sandwich,Italian,All Seasons",
      "LanguageId": 1,
      "LifeStyles": [],
      "NumberOfIngredients": 4,
      "NumberOfRatings": 19,
      "NumberOfRatingsWithComments": "13",
      "NumberOfServings": "Makes 4 servings, one sandwich each.",
      "NumberOfTrialServings": null,
      "NutritionBonus": null,
      "NutritionExchangeItemId": 0,
      "NutritionGridItems": null,
      "NutritionItems": [
        {
          "DisplayOrder": 10,
          "Document": null,
          "NutritionItemID": 371,
          "NutritionItemName": "Calories",
          "Predriscriptor": "",
          "Quantity": 410,
          "Unit": "          "
        },
        {
          "DisplayOrder": 20,
          "Document": null,
          "NutritionItemID": 376,
          "NutritionItemName": "Total fat",
          "Predriscriptor": "",
          "Quantity": 10,
          "Unit": "g         "
        },
        {
          "DisplayOrder": 30,
          "Document": null,
          "NutritionItemID": 377,
          "NutritionItemName": "Saturated fat",
          "Predriscriptor": "",
          "Quantity": 4,
          "Unit": "g         "
        },
        {
          "DisplayOrder": 40,
          "Document": null,
          "NutritionItemID": 379,
          "NutritionItemName": "Polyunsaturated Fat",
          "Predriscriptor": "",
          "Quantity": 2,
          "Unit": "g         "
        },
        {
          "DisplayOrder": 50,
          "Document": null,
          "NutritionItemID": 378,
          "NutritionItemName": "Monounsaturated Fat",
          "Predriscriptor": "",
          "Quantity": 2,
          "Unit": "g         "
        },
        {
          "DisplayOrder": 60,
          "Document": null,
          "NutritionItemID": 381,
          "NutritionItemName": "Cholesterol",
          "Predriscriptor": "",
          "Quantity": 80,
          "Unit": "mg        "
        },
        {
          "DisplayOrder": 70,
          "Document": null,
          "NutritionItemID": 389,
          "NutritionItemName": "Sodium",
          "Predriscriptor": "",
          "Quantity": 920,
          "Unit": "mg        "
        },
        {
          "DisplayOrder": 80,
          "Document": null,
          "NutritionItemID": 373,
          "NutritionItemName": "Carbohydrate",
          "Predriscriptor": "",
          "Quantity": 41,
          "Unit": "g         "
        },
        {
          "DisplayOrder": 90,
          "Document": null,
          "NutritionItemID": 374,
          "NutritionItemName": "Dietary fiber",
          "Predriscriptor": "",
          "Quantity": 2,
          "Unit": "g         "
        },
        {
          "DisplayOrder": 100,
          "Document": null,
          "NutritionItemID": 375,
          "NutritionItemName": "Sugars",
          "Predriscriptor": "",
          "Quantity": 2,
          "Unit": "g         "
        },
        {
          "DisplayOrder": 110,
          "Document": null,
          "NutritionItemID": 372,
          "NutritionItemName": "Protein",
          "Predriscriptor": "",
          "Quantity": 37,
          "Unit": "g         "
        },
        {
          "DisplayOrder": 120,
          "Document": null,
          "NutritionItemID": 382,
          "NutritionItemName": "Vitamin A",
          "Predriscriptor": "",
          "Quantity": 10,
          "Unit": "%DV       "
        },
        {
          "DisplayOrder": 130,
          "Document": null,
          "NutritionItemID": 383,
          "NutritionItemName": "Vitamin C",
          "Predriscriptor": "",
          "Quantity": 2,
          "Unit": "%DV       "
        },
        {
          "DisplayOrder": 140,
          "Document": null,
          "NutritionItemID": 386,
          "NutritionItemName": "Calcium",
          "Predriscriptor": "",
          "Quantity": 20,
          "Unit": "%DV       "
        },
        {
          "DisplayOrder": 150,
          "Document": null,
          "NutritionItemID": 387,
          "NutritionItemName": "Iron",
          "Predriscriptor": "",
          "Quantity": 20,
          "Unit": "%DV       "
        }
      ],
      "NutritionServingText": null,
      "PrepStepImage": null,
      "PreparationDescription": "Preheat oven to 400°F.  Coat chicken in coating mix as directed on package.  Place on foil-covered baking sheet. $Bake 20 min. or until cooked through.  Top with sauce and cheese.  Bake an additional 5 min. or until cheese melts. $Fill buns with chicken.",
      "PreparationPreText": null,
      "PreparationSteps": [
        {
          "Description": "Preheat oven to 400°F.  Coat chicken in coating mix as directed on package.  Place on foil-covered baking sheet. ",
          "PreparationStepImage": {
            "PictureFormats": [],
            "author": null,
            "id": null,
            "imageType": null,
            "mimeType": null,
            "publicationDate": null,
            "status": null,
            "title": null,
            "type": null
          },
          "Sequence": 1
        },
        {
          "Description": "Bake 20 min. or until cooked through.  Top with sauce and cheese.  Bake an additional 5 min. or until cheese melts. ",
          "PreparationStepImage": {
            "PictureFormats": [],
            "author": null,
            "id": null,
            "imageType": null,
            "mimeType": null,
            "publicationDate": null,
            "status": null,
            "title": null,
            "type": null
          },
          "Sequence": 2
        },
        {
          "Description": "Fill buns with chicken.",
          "PreparationStepImage": {
            "PictureFormats": [],
            "author": null,
            "id": null,
            "imageType": null,
            "mimeType": null,
            "publicationDate": null,
            "status": null,
            "title": null,
            "type": null
          },
          "Sequence": 3
        }
      ],
      "PreparationTime": 5,
      "Promotion": null,
      "Ratings": {
        "TotalCount": 19,
        "PageCount": 10,
        "PageNo": 1,
        "Rating": [
          {
            "Comment": "",
            "DisplayName": true,
            "RatingValue": 4,
            "SubmitDate": "/Date(1227285720000-0600)/",
            "UpdatedDate": "/Date(1227285720000-0600)/",
            "UserName": "hellokitty27100"
          },
          {
            "Comment": "Easy to make and very good. I will add spices next time to add more flavor.",
            "DisplayName": true,
            "RatingValue": 4,
            "SubmitDate": "/Date(1187050986000-0500)/",
            "UpdatedDate": "/Date(1187050986000-0500)/",
            "UserName": "diansie"
          },
          {
            "Comment": "These were very good and a nice change from the chicken sandwiches I usually make.",
            "DisplayName": true,
            "RatingValue": 4,
            "SubmitDate": "/Date(1186069258000-0500)/",
            "UpdatedDate": "/Date(1186069258000-0500)/",
            "UserName": "JudiPaula"
          },
          {
            "Comment": "",
            "DisplayName": true,
            "RatingValue": 4,
            "SubmitDate": "/Date(1175801541000-0500)/",
            "UpdatedDate": "/Date(1175801541000-0500)/",
            "UserName": "mavogel"
          },
          {
            "Comment": "My husband and I loved this sandwich.  Because we are not big spaghetti sauce fans, we used regular miracle whip instead.  We loved it and my husband wants me to make it again.",
            "DisplayName": true,
            "RatingValue": 5,
            "SubmitDate": "/Date(1170384759000-0600)/",
            "UpdatedDate": "/Date(1170384759000-0600)/",
            "UserName": "sthrhnsn"
          },
          {
            "Comment": "Awesome!  Family loved it.  Jazz it up suggestion really did it!  Has been added to our weekly menu - great for next day lunch on a bun or cut / tossed into a salad.",
            "DisplayName": true,
            "RatingValue": 5,
            "SubmitDate": "/Date(1168465102000-0600)/",
            "UpdatedDate": "/Date(1168465102000-0600)/",
            "UserName": "stephaniesmom"
          },
          {
            "Comment": "",
            "DisplayName": false,
            "RatingValue": 3,
            "SubmitDate": "/Date(1165534663000-0600)/",
            "UpdatedDate": "/Date(1165534663000-0600)/",
            "UserName": "tpettet1"
          },
          {
            "Comment": "Delicious! I used the Jazz It Up Tip & also added banana peppers to bell pepper mix for a little bit of spice. ",
            "DisplayName": true,
            "RatingValue": 5,
            "SubmitDate": "/Date(1163532170000-0600)/",
            "UpdatedDate": "/Date(1163532170000-0600)/",
            "UserName": "Danielle_1979"
          },
          {
            "Comment": "",
            "DisplayName": true,
            "RatingValue": 4,
            "SubmitDate": "/Date(1161203896000-0500)/",
            "UpdatedDate": "/Date(1161203896000-0500)/",
            "UserName": "jbenzon"
          },
          {
            "Comment": "So much better than a fast food breaded chicken sandwich!",
            "DisplayName": true,
            "RatingValue": 4,
            "SubmitDate": "/Date(1160601196000-0500)/",
            "UpdatedDate": "/Date(1160601196000-0500)/",
            "UserName": "suzmuffin"
          }
        ]
      },
      "RecipeDisplayFormatId": 0,
      "RecipeId": 94516,
      "RecipeName": "Hot Italian Chicken Sandwiches",
      "RecipeType": 0,
      "RelatedData": {
        "RelatedBrands": null,
        "RelatedProducts": null,
        "RelatedRecipes": {
          "DefaultTopCount": 5,
          "Recipe": [
            {
              "AverageRating": 4.3,
              "HasVideo": false,
              "IsHealthyLiving": true,
              "NumberOfRatings": 72,
              "PhotoName": "Southwest-Chicken-Salad-Panini-55594.jpg",
              "PhotoUrl": "http://assets.kraftfoods.com/recipe_images/opendeploy/Southwest-Chicken-Salad-Panini-55594.jpg",
              "RecipeId": 111260,
              "RecipeName": "Southwest Chicken Salad Panini",
              "SEOName": "southwest-chicken-salad-panini-111260",
              "ThumbnailPhoto": null
            },
            {
              "AverageRating": 4.3,
              "HasVideo": false,
              "IsHealthyLiving": false,
              "NumberOfRatings": 4,
              "PhotoName": "Salsa-Chicken-Wrap-Pineapple-Pico-Gallo-57913.jpg",
              "PhotoUrl": "http://assets.kraftfoods.com/recipe_images/opendeploy/Salsa-Chicken-Wrap-Pineapple-Pico-Gallo-57913.jpg",
              "RecipeId": 115940,
              "RecipeName": "Salsa Chicken Wrap with Pineapple Pico de Gallo",
              "SEOName": "salsa-chicken-wrap-pineapple-pico-de-gallo-115940",
              "ThumbnailPhoto": null
            },
            {
              "AverageRating": 4,
              "HasVideo": false,
              "IsHealthyLiving": false,
              "NumberOfRatings": 4,
              "PhotoName": "Chicken_Pozole.jpg",
              "PhotoUrl": "http://assets.kraftfoods.com/recipe_images/opendeploy/Chicken_Pozole.jpg",
              "RecipeId": 90083,
              "RecipeName": "Chicken Pozole",
              "SEOName": "chicken-pozole-90083",
              "ThumbnailPhoto": null
            },
            {
              "AverageRating": 5,
              "HasVideo": false,
              "IsHealthyLiving": false,
              "NumberOfRatings": 3,
              "PhotoName": "145666.jpg",
              "PhotoUrl": "http://assets.kraftfoods.com/recipe_images/opendeploy/145666.jpg",
              "RecipeId": 145666,
              "RecipeName": "BBQ Chicken Pizza Roll",
              "SEOName": "bbq-chicken-pizza-roll-145666",
              "ThumbnailPhoto": null
            },
            {
              "AverageRating": 4.8,
              "HasVideo": false,
              "IsHealthyLiving": false,
              "NumberOfRatings": 5,
              "PhotoName": "185163.jpg",
              "PhotoUrl": "http://assets.kraftfoods.com/recipe_images/opendeploy/185163.jpg",
              "RecipeId": 185163,
              "RecipeName": "Slow-Cooker Buffalo Chicken Chili",
              "SEOName": "slow-cooker-buffalo-chicken-chili-185163",
              "ThumbnailPhoto": null
            }
          ],
          "TotalCount": 3595
        }
      },
      "RiseIngredients": [
        {
          "IngredientCategory": "KRL",
          "IngredientId": 68032,
          "IngredientIndustrySector": "Retail",
          "IngredientType": "KHC",
          "ProductId": "00021000051298",
          "RecipeId": 94516
        },
        {
          "IngredientCategory": "KRL",
          "IngredientId": 68203,
          "IngredientIndustrySector": "Retail",
          "IngredientType": "KHC",
          "ProductId": "00043000958025",
          "RecipeId": 94516
        },
        {
          "IngredientCategory": "KRL",
          "IngredientId": 72876,
          "IngredientIndustrySector": "Retail",
          "IngredientType": "Inedible",
          "ProductId": null,
          "RecipeId": 94516
        },
        {
          "IngredientCategory": "KRL",
          "IngredientId": 74769,
          "IngredientIndustrySector": "Retail",
          "IngredientType": "KHC",
          "ProductId": "00041129000021",
          "RecipeId": 94516
        }
      ],
      "RiseTaxonomy": [],
      "Riserecipe": [
        {
          "GRIN": 551336,
          "RecipeId": 94516,
          "RecipeIndustrySector": "Retail",
          "RecipeType": "Internal"
        }
      ],
      "RomanceText": "SHAKE 'N BAKE Chicken Coating Mix is all it takes to transform plain chicken breasts into the crispy centerpieces of these hearty Italian sandwiches.",
      "SEOName": "hot-italian-chicken-sandwiches-94516",
      "Tips": [
        {
          "RecipeId": 94516,
          "Sequence": 10,
          "TipDescription": "For an authentic, yet easy topping to your sandwiches, sauté 1 <u>each</u> red and green pepper and 1 small onion, sliced, in nonstick skillet sprayed with cooking spray until tender.",
          "TipID": 1,
          "TipName": "Jazz It Up"
        },
        {
          "RecipeId": 94516,
          "Sequence": 20,
          "TipDescription": "Serve sandwich with a green salad tossed with KRAFT Zesty Italian Dressing.",
          "TipID": 2,
          "TipName": "Serving Suggestion"
        },
        {
          "RecipeId": 94516,
          "Sequence": 30,
          "TipDescription": "You can substitute turkey, pork or veal cutlets for the chicken in this dish.",
          "TipID": 3,
          "TipName": "Substitute"
        },
        {
          "RecipeId": 94516,
          "Sequence": 40,
          "TipDescription": "Pound chicken to flatten if you prefer a thinner chicken sandwich.",
          "TipID": 4,
          "TipName": "Cooking Know-How"
        }
      ],
      "TotalTime": 30,
      "TradeMarkInfo": null,
      "Video": [],
      "Yield": "Makes 4 servings, one sandwich each."
    }
  ]
}