{
  "Metadata": {
    "PageCount": 1,
    "PageNo": 0,
    "TotalCount": 0
  },
  "Recipes": [
    {
      "AdServingKeywords": "Berries,Cream Cheese,Dairy,Fruit,Strawberry,Dessert,No Bake,Easy,Summer,All Seasons,Cheesecake-No Bake,Frozen Dessert,Pies and Tarts,Cool Whip,Jell-O,Philadelphia,Creamy",
      "AlternateLanguageRecipes": [],
      "Assets": [
        {
          "PictureFormats": [
            {
              "rendition": "640x428",
              "url": "http://assets.kraftfoods.com/recipe_images/opendeploy/113435_640x428.jpg"
            },
            {
              "rendition": "290x194",
              "url": "http://assets.kraftfoods.com/recipe_images/opendeploy/113435_290x194.jpg"
            },
            {
              "rendition": "600x250",
              "url": "http://assets.kraftfoods.com/recipe_images/opendeploy/113435_600x250.jpg"
            },
            {
              "rendition": "640x428",
              "url": "http://assets.kraftfoods.com/recipe_images/opendeploy/113435_640x428.jpg"
            }
          ],
          "author": null,
          "id": "3",
          "imageType": "Primary",
          "mimeType": "image/jpeg",
          "publicationDate": null,
          "status": "1",
          "title": "113435",
          "type": "image"
        },
        {
          "PictureFormats": [
            {
              "rendition": "300x200",
              "url": "http://assets.kraftfoods.com/recipe_images/113435.jpg"
            },
            {
              "rendition": "300x200",
              "url": "http://assets.kraftfoods.com/recipe_images/Strawberry-Cream-Freeze-Serve-it-Your-Way-56802.jpg"
            }
          ],
          "author": null,
          "id": "1",
          "imageType": "LANDSCAPE",
          "mimeType": "image/jpeg",
          "publicationDate": null,
          "status": "1",
          "title": "Strawberry-Cream-Freeze-Serve-it-Your-Way-56802.jpg",
          "type": "image"
        }
      ],
      "AverageRating": 4.6,
      "BrandId": 1,
      "Branding": null,
      "CSSSkins": null,
      "CarbCounter": null,
      "Categories": [
        {
          "CategoryID": 3,
          "CategoryName": "Cookies/Candy/Other Desserts",
          "CategoryRank": 6,
          "SubCategoryID": 17,
          "SubCategoryName": "Other Frozen Desserts",
          "SubCategoryRank": 120
        },
        {
          "CategoryID": 4,
          "CategoryName": "Cakes/Pies/Cheesecakes",
          "CategoryRank": 5,
          "SubCategoryID": 354,
          "SubCategoryName": "Pies: Frozen",
          "SubCategoryRank": 110
        },
        {
          "CategoryID": 11,
          "CategoryName": "Primary",
          "CategoryRank": 0,
          "SubCategoryID": 103,
          "SubCategoryName": "Desserts",
          "SubCategoryRank": 40
        },
        {
          "CategoryID": 759,
          "CategoryName": "Desserts",
          "CategoryRank": 13,
          "SubCategoryID": 2578,
          "SubCategoryName": "Frozen",
          "SubCategoryRank": 1
        },
        {
          "CategoryID": 759,
          "CategoryName": "Desserts",
          "CategoryRank": 13,
          "SubCategoryID": 2581,
          "SubCategoryName": "Pastry",
          "SubCategoryRank": 1
        },
        {
          "CategoryID": 1759,
          "CategoryName": "Philly Desserts",
          "CategoryRank": 0,
          "SubCategoryID": 16840,
          "SubCategoryName": "Brick Cream Cheese",
          "SubCategoryRank": 0
        },
        {
          "CategoryID": 1759,
          "CategoryName": "Philly Desserts",
          "CategoryRank": 0,
          "SubCategoryID": 16843,
          "SubCategoryName": "Use for All",
          "SubCategoryRank": 0
        }
      ],
      "Classifications": [],
      "ComplimentaryRecipes": [
        {
          "AverageRating": 0,
          "HasVideo": false,
          "IsHealthyLiving": false,
          "NumberOfRatings": 0,
          "PhotoName": null,
          "PhotoUrl": null,
          "RecipeId": 74908,
          "RecipeName": null,
          "SEOName": "caribbean-bbq-chicken-74908",
          "ThumbnailPhoto": "Caribbean_BBQ_Chicken.jpg"
        }
      ],
      "CookingMethod": null,
      "Copyright": null,
      "Courses": [
        "Desserts"
      ],
      "DietExchange": null,
      "DishDetails": [
        {
          "Text": "desserts",
          "Url": "/recipes/dessert/main.aspx"
        },
        {
          "Text": "fruity desserts",
          "Url": "/recipes/dessert/fruitydesserts.aspx"
        },
        {
          "Text": "gelatin desserts",
          "Url": "/recipes/dessert/gelatindesserts.aspx"
        },
        {
          "Text": "layered desserts",
          "Url": "/recipes/dessert/layereddesserts.aspx"
        },
        {
          "Text": "brownie recipes",
          "Url": "/recipes/dessert/brownie-recipes/main.aspx"
        },
        {
          "Text": "budget desserts",
          "Url": "/recipes/budget/budget-desserts.aspx"
        },
        {
          "Text": "no bake desserts",
          "Url": "/recipes/dessert/nobakedesserts.aspx"
        },
        {
          "Text": "pumpkin recipes",
          "Url": "/recipes/dessert/pumpkin-recipes.aspx"
        },
        {
          "Text": "chocolate cake recipes",
          "Url": "/recipes/dessert/chocolate-cake-recipes/main.aspx"
        },
        {
          "Text": "cheesecake recipes",
          "Url": "/recipes/dessert/cheesecake-center/cheesecake-recipes/main.aspx"
        },
        {
          "Text": "chocolate lovers recipes",
          "Url": "/recipes/dessert/chocolate-center/chocolateloversrecipes.aspx"
        },
        {
          "Text": "classic desserts",
          "Url": "/recipes/dessert/classicdesserts.aspx"
        },
        {
          "Text": "cookie ball recipes",
          "Url": "/recipes/dessert/cookie-ball-recipes/main.aspx"
        },
        {
          "Text": "cookie recipes",
          "Url": "/recipes/dessert/cookie-recipes/main.aspx"
        },
        {
          "Text": "cupcake recipes",
          "Url": "/recipes/dessert/cupcake-recipes/main.aspx"
        },
        {
          "Text": "healthy living desserts",
          "Url": "/healthy-living-ideas/diabetes-center/recipes/dessert-recipes.aspx"
        },
        {
          "Text": "pumpkin pie recipes",
          "Url": "/recipes/holidays-and-entertaining/holidays/Thanksgiving/pumpkin-pie-recipes.aspx"
        },
        {
          "Text": "pie recipes",
          "Url": "/recipes/dessert/pie-recipes/main.aspx"
        }
      ],
      "EndDate": "/Date(-62135575200000-0600)/",
      "HasVideo": false,
      "Ingredients": [
        {
          "FullMeasure": "1 pkg.",
          "FullWeight": "",
          "IngredientGridHeaders": null,
          "IngredientID": 628,
          "IngredientName": "PHILADELPHIA Cream Cheese",
          "IngredientStep": 10,
          "LanguageId": 0,
          "PostPreparation": ", softened",
          "PrePreparation": "(8 oz.)",
          "QuantityNum": 1,
          "QuantityText": "1",
          "QuantityUnit": "pkg.",
          "RecipeIngredientID": 6446657,
          "TrialMeasure": "",
          "TrialWeight": ""
        },
        {
          "FullMeasure": "1 cup",
          "FullWeight": "",
          "IngredientGridHeaders": null,
          "IngredientID": 1345,
          "IngredientName": "milk",
          "IngredientStep": 20,
          "LanguageId": 0,
          "PostPreparation": "",
          "PrePreparation": "cold",
          "QuantityNum": 1,
          "QuantityText": "1",
          "QuantityUnit": "cup",
          "RecipeIngredientID": 6446658,
          "TrialMeasure": "",
          "TrialWeight": ""
        },
        {
          "FullMeasure": "1 pkg.",
          "FullWeight": "",
          "IngredientGridHeaders": null,
          "IngredientID": 285,
          "IngredientName": "JELL-O Vanilla Flavor Instant Pudding",
          "IngredientStep": 30,
          "LanguageId": 0,
          "PostPreparation": "",
          "PrePreparation": "(3.4 oz.)",
          "QuantityNum": 1,
          "QuantityText": "1",
          "QuantityUnit": "pkg.",
          "RecipeIngredientID": 6446656,
          "TrialMeasure": "",
          "TrialWeight": ""
        },
        {
          "FullMeasure": "1-1/2 cups",
          "FullWeight": "",
          "IngredientGridHeaders": null,
          "IngredientID": 140,
          "IngredientName": "COOL WHIP Whipped Topping",
          "IngredientStep": 40,
          "LanguageId": 0,
          "PostPreparation": "",
          "PrePreparation": "thawed",
          "QuantityNum": 1,
          "QuantityText": "1-1/2",
          "QuantityUnit": "cups",
          "RecipeIngredientID": 6446655,
          "TrialMeasure": "",
          "TrialWeight": ""
        },
        {
          "FullMeasure": "20",
          "FullWeight": "",
          "IngredientGridHeaders": null,
          "IngredientID": 1736,
          "IngredientName": "vanilla wafers",
          "IngredientStep": 50,
          "LanguageId": 0,
          "PostPreparation": ", coarsely broken",
          "PrePreparation": "",
          "QuantityNum": 20,
          "QuantityText": "20",
          "QuantityUnit": "",
          "RecipeIngredientID": 6446661,
          "TrialMeasure": "",
          "TrialWeight": ""
        },
        {
          "FullMeasure": "1 cup",
          "FullWeight": "",
          "IngredientGridHeaders": null,
          "IngredientID": 1659,
          "IngredientName": "strawberries",
          "IngredientStep": 60,
          "LanguageId": 0,
          "PostPreparation": "",
          "PrePreparation": "sliced fresh",
          "QuantityNum": 1,
          "QuantityText": "1",
          "QuantityUnit": "cup",
          "RecipeIngredientID": 6446659,
          "TrialMeasure": "",
          "TrialWeight": ""
        },
        {
          "FullMeasure": "1/2 cup",
          "FullWeight": "",
          "IngredientGridHeaders": null,
          "IngredientID": 493,
          "IngredientName": "strawberry ice cream topping",
          "IngredientStep": 70,
          "LanguageId": 0,
          "PostPreparation": "",
          "PrePreparation": "",
          "QuantityNum": 0,
          "QuantityText": "1/2",
          "QuantityUnit": "cup",
          "RecipeIngredientID": 6446660,
          "TrialMeasure": "",
          "TrialWeight": ""
        }
      ],
      "IsHealthyLiving": false,
      "KRLId": "561832",
      "KeyIngredients": [
        "Berries",
        "Cream Cheese",
        "Dairy",
        "Fruit",
        "Strawberry"
      ],
      "Keywords": "PHILADELPHIA Cream Cheese,berries,cheese,cookies,COOL WHIP,cream cheese,dessert toppings,JELL-O Pudding Mix,milk,strawberries,vanilla pudding mix,vanilla wafers,whipped topping,pudding mix-instant,Easy,No Bake,Summer,Cheesecake-No Bake,Frozen Dessert,Pies and Tarts,All Seasons,Creamy",
      "LanguageId": 1,
      "LifeStyles": [],
      "NumberOfIngredients": 7,
      "NumberOfRatings": 27,
      "NumberOfRatingsWithComments": "23",
      "NumberOfServings": "8 servings",
      "NumberOfTrialServings": null,
      "NutritionBonus": null,
      "NutritionExchangeItemId": 0,
      "NutritionGridItems": null,
      "NutritionItems": [
        {
          "DisplayOrder": 1,
          "Document": null,
          "NutritionItemID": 3,
          "NutritionItemName": "Calories",
          "Predriscriptor": "",
          "Quantity": 400,
          "Unit": "          "
        },
        {
          "DisplayOrder": 2,
          "Document": "fat_cholesterol.html",
          "NutritionItemID": 4,
          "NutritionItemName": "Total fat",
          "Predriscriptor": "",
          "Quantity": 19,
          "Unit": "g         "
        },
        {
          "DisplayOrder": 3,
          "Document": "fat_cholesterol.html",
          "NutritionItemID": 9,
          "NutritionItemName": "Saturated fat",
          "Predriscriptor": "",
          "Quantity": 11,
          "Unit": "g         "
        },
        {
          "DisplayOrder": 7,
          "Document": "fat_cholesterol.html",
          "NutritionItemID": 2,
          "NutritionItemName": "Cholesterol",
          "Predriscriptor": "",
          "Quantity": 40,
          "Unit": "mg        "
        },
        {
          "DisplayOrder": 8,
          "Document": "sodium.html",
          "NutritionItemID": 8,
          "NutritionItemName": "Sodium",
          "Predriscriptor": "",
          "Quantity": 450,
          "Unit": "mg        "
        },
        {
          "DisplayOrder": 10,
          "Document": "carbs_sugars_fiber.html",
          "NutritionItemID": 1,
          "NutritionItemName": "Carbohydrate",
          "Predriscriptor": "",
          "Quantity": 53,
          "Unit": "g         "
        },
        {
          "DisplayOrder": 11,
          "Document": "carbs_sugars_fiber.html",
          "NutritionItemID": 7,
          "NutritionItemName": "Dietary fiber",
          "Predriscriptor": "",
          "Quantity": 1,
          "Unit": "g         "
        },
        {
          "DisplayOrder": 12,
          "Document": "carbs_sugars_fiber.html",
          "NutritionItemID": 5,
          "NutritionItemName": "Sugars",
          "Predriscriptor": "",
          "Quantity": 36,
          "Unit": "g         "
        },
        {
          "DisplayOrder": 13,
          "Document": null,
          "NutritionItemID": 6,
          "NutritionItemName": "Protein",
          "Predriscriptor": "",
          "Quantity": 4,
          "Unit": "g         "
        },
        {
          "DisplayOrder": 14,
          "Document": null,
          "NutritionItemID": 10,
          "NutritionItemName": "Vitamin A",
          "Predriscriptor": "",
          "Quantity": 8,
          "Unit": "%DV       "
        },
        {
          "DisplayOrder": 15,
          "Document": null,
          "NutritionItemID": 11,
          "NutritionItemName": "Vitamin C",
          "Predriscriptor": "",
          "Quantity": 20,
          "Unit": "%DV       "
        },
        {
          "DisplayOrder": 16,
          "Document": "dairy_and_calcium.html",
          "NutritionItemID": 12,
          "NutritionItemName": "Calcium",
          "Predriscriptor": "",
          "Quantity": 8,
          "Unit": "%DV       "
        },
        {
          "DisplayOrder": 17,
          "Document": null,
          "NutritionItemID": 13,
          "NutritionItemName": "Iron",
          "Predriscriptor": "",
          "Quantity": 8,
          "Unit": "%DV       "
        }
      ],
      "NutritionServingText": " ",
      "PrepStepImage": null,
      "PreparationDescription": "<b>MAKE THE FILLING:</b>$Beat cream cheese in large bowl with mixer until creamy. Gradually beat in milk. Add dry pudding mix; beat 2 min. Stir in COOL WHIP, wafers and berries. Swirl in ice cream topping.$<b>SERVE IT YOUR WAY!</b>$<b>PIE:</b> Spread filling into 6-oz. OREO Pie Crust. Freeze 6 hours or until firm. Garnish with additional berries, if desired. Makes 8 servings.$Mini <b>PIES:</b> Spoon filling into 12 cupcake liners.  Freeze 4 hours. Remove paper liners.  Garnish desserts with additional berries, if desired. Makes 12 servings.$Waffle <b>BOWLS:</b> Freeze filling 6 hours or until firm. Let stand 15 min. before scooping into waffle bowls. Makes 8 servings.",
      "PreparationPreText": "",
      "PreparationSteps": [
        {
          "Description": "<b>MAKE THE FILLING:</b>",
          "PreparationStepImage": {
            "PictureFormats": [],
            "author": null,
            "id": null,
            "imageType": null,
            "mimeType": null,
            "publicationDate": null,
            "status": null,
            "title": null,
            "type": null
          },
          "Sequence": 1
        },
        {
          "Description": "Beat cream cheese in large bowl with mixer until creamy. Gradually beat in milk. Add dry pudding mix; beat 2 min. Stir in COOL WHIP, wafers and berries. Swirl in ice cream topping.",
          "PreparationStepImage": {
            "PictureFormats": [],
            "author": null,
            "id": null,
            "imageType": null,
            "mimeType": null,
            "publicationDate": null,
            "status": null,
            "title": null,
            "type": null
          },
          "Sequence": 2
        },
        {
          "Description": "<b>SERVE IT YOUR WAY!</b>",
          "PreparationStepImage": {
            "PictureFormats": [],
            "author": null,
            "id": null,
            "imageType": null,
            "mimeType": null,
            "publicationDate": null,
            "status": null,
            "title": null,
            "type": null
          },
          "Sequence": 3
        },
        {
          "Description": "<b>PIE:</b> Spread filling into 6-oz. OREO Pie Crust. Freeze 6 hours or until firm. Garnish with additional berries, if desired. Makes 8 servings.",
          "PreparationStepImage": {
            "PictureFormats": [],
            "author": null,
            "id": null,
            "imageType": null,
            "mimeType": null,
            "publicationDate": null,
            "status": null,
            "title": null,
            "type": null
          },
          "Sequence": 4
        },
        {
          "Description": "Mini <b>PIES:</b> Spoon filling into 12 cupcake liners.  Freeze 4 hours. Remove paper liners.  Garnish desserts with additional berries, if desired. Makes 12 servings.",
          "PreparationStepImage": {
            "PictureFormats": [],
            "author": null,
            "id": null,
            "imageType": null,
            "mimeType": null,
            "publicationDate": null,
            "status": null,
            "title": null,
            "type": null
          },
          "Sequence": 5
        },
        {
          "Description": "Waffle <b>BOWLS:</b> Freeze filling 6 hours or until firm. Let stand 15 min. before scooping into waffle bowls. Makes 8 servings.",
          "PreparationStepImage": {
            "PictureFormats": [],
            "author": null,
            "id": null,
            "imageType": null,
            "mimeType": null,
            "publicationDate": null,
            "status": null,
            "title": null,
            "type": null
          },
          "Sequence": 6
        }
      ],
      "PreparationTime": 20,
      "Promotion": null,
      "Ratings": {
        "TotalCount": 27,
        "PageCount": 10,
        "PageNo": 1,
        "Rating": [
          {
            "Comment": "That was ICE ***** TOPPING",
            "DisplayName": true,
            "RatingValue": 4,
            "SubmitDate": "/Date(1434395764000-0500)/",
            "UpdatedDate": "/Date(1434395764000-0500)/",
            "UserName": "Tonif4"
          },
          {
            "Comment": "This recipe calls for strawberry ice ***** topping, not strawberry syrup. The ice ***** topping is like preserves, not runny like syrup. The ice ***** topping will give you the results you are looking for :)",
            "DisplayName": true,
            "RatingValue": 4,
            "SubmitDate": "/Date(1434395573000-0500)/",
            "UpdatedDate": "/Date(1434395573000-0500)/",
            "UserName": "Tonif4"
          },
          {
            "Comment": "For mothers day",
            "DisplayName": true,
            "RatingValue": 5,
            "SubmitDate": "/Date(1399759026000-0500)/",
            "UpdatedDate": "/Date(1399759026000-0500)/",
            "UserName": "Ytasnif"
          },
          {
            "Comment": "THIS RECIPE WAS SO DELECTABLE.\r\nIT WASNT SUPER SWEET, IT WAS PERFECT.\r\nIT TASTE LIKE A STRAWBERRY SHORT CAKE OR STRAWBERRY CHEESE CAKE.\r\nI WOULD ALSO TRY USING DIFFERENT FLAVORS, LIKE CHOCOLATE PUDDING MIX MIXED WITH SWIRLS OF CARAMEL AND BROWNIE PIECES...(YUM!)",
            "DisplayName": true,
            "RatingValue": 4,
            "SubmitDate": "/Date(1318854091000-0500)/",
            "UpdatedDate": "/Date(1318854091000-0500)/",
            "UserName": "JMC640"
          },
          {
            "Comment": "Way too sweet! I think maybe there's too much strawberry syrup. Also, when I added the syrup the whole thing turned pink. I might try it again with more fresh strawberries and much less strawberry syrup. It also needs to be thawed our before it's served.",
            "DisplayName": true,
            "RatingValue": 2,
            "SubmitDate": "/Date(1304015123000-0500)/",
            "UpdatedDate": "/Date(1304015123000-0500)/",
            "UserName": "ReginaMarie326"
          },
          {
            "Comment": "This recipe is quick and easy and absolutely delicious!! I made this last year for the holidays and going to make it again!! When I made it last year, it was gone w/in a half hour!!",
            "DisplayName": true,
            "RatingValue": 5,
            "SubmitDate": "/Date(1292600355000-0600)/",
            "UpdatedDate": "/Date(1292600355000-0600)/",
            "UserName": "Jenya"
          },
          {
            "Comment": "Mother-in-law made this dessert, it was a hit in her home. Will make it during the holidays!!!",
            "DisplayName": false,
            "RatingValue": 5,
            "SubmitDate": "/Date(1284962839000-0500)/",
            "UpdatedDate": "/Date(1284962839000-0500)/",
            "UserName": "Sylvia85299"
          },
          {
            "Comment": "WOW!! That's all I can say! This will definitely be a must make again! Between the hubby and kid it was gone in less than 2 days! ",
            "DisplayName": true,
            "RatingValue": 5,
            "SubmitDate": "/Date(1277675454000-0500)/",
            "UpdatedDate": "/Date(1277675454000-0500)/",
            "UserName": "brittlemmon"
          },
          {
            "Comment": "i love this recipe its great! its a must make!",
            "DisplayName": true,
            "RatingValue": 5,
            "SubmitDate": "/Date(1271200721000-0500)/",
            "UpdatedDate": "/Date(1271200721000-0500)/",
            "UserName": "ksettles01"
          },
          {
            "Comment": "",
            "DisplayName": true,
            "RatingValue": 5,
            "SubmitDate": "/Date(1270928083000-0500)/",
            "UpdatedDate": "/Date(1270928083000-0500)/",
            "UserName": "philliphull"
          }
        ]
      },
      "RecipeDisplayFormatId": 5,
      "RecipeId": 113435,
      "RecipeName": "Strawberry Cream Freeze: Serve it Your Way!",
      "RecipeType": 0,
      "RelatedData": {
        "RelatedBrands": null,
        "RelatedProducts": null,
        "RelatedRecipes": {
          "DefaultTopCount": 5,
          "Recipe": [
            {
              "AverageRating": 4.2,
              "HasVideo": false,
              "IsHealthyLiving": false,
              "NumberOfRatings": 12,
              "PhotoName": "Strawberry_Margarita_Freeze.jpg",
              "PhotoUrl": "http://assets.kraftfoods.com/recipe_images/opendeploy/Strawberry_Margarita_Freeze.jpg",
              "RecipeId": 74889,
              "RecipeName": "Strawberry Margarita Freeze",
              "SEOName": "strawberry-margarita-freeze-74889",
              "ThumbnailPhoto": null
            },
            {
              "AverageRating": 4.5,
              "HasVideo": false,
              "IsHealthyLiving": false,
              "NumberOfRatings": 242,
              "PhotoName": "64850.jpg",
              "PhotoUrl": "http://assets.kraftfoods.com/recipe_images/opendeploy/64850.jpg",
              "RecipeId": 64850,
              "RecipeName": "Strawberry Freeze",
              "SEOName": "strawberry-freeze-64850",
              "ThumbnailPhoto": null
            },
            {
              "AverageRating": 4.8,
              "HasVideo": false,
              "IsHealthyLiving": false,
              "NumberOfRatings": 6,
              "PhotoName": "120174.jpg",
              "PhotoUrl": "http://assets.kraftfoods.com/recipe_images/opendeploy/120174.jpg",
              "RecipeId": 120174,
              "RecipeName": "Strawberry Cheesecake Ice Cream",
              "SEOName": "strawberry-cheesecake-ice-cream-120174",
              "ThumbnailPhoto": null
            },
            {
              "AverageRating": 4.4,
              "HasVideo": false,
              "IsHealthyLiving": false,
              "NumberOfRatings": 17,
              "PhotoName": "Fruity_PHILADELPHIA_Freeze.jpg",
              "PhotoUrl": "http://assets.kraftfoods.com/recipe_images/opendeploy/Fruity_PHILADELPHIA_Freeze.jpg",
              "RecipeId": 54273,
              "RecipeName": "Fruity PHILADELPHIA Freeze",
              "SEOName": "fruity-philadelphia-freeze-54273",
              "ThumbnailPhoto": null
            },
            {
              "AverageRating": 4.3,
              "HasVideo": false,
              "IsHealthyLiving": false,
              "NumberOfRatings": 3,
              "PhotoName": "Strawberries_N_Cream_Shortcake_Squares.jpg",
              "PhotoUrl": "http://assets.kraftfoods.com/recipe_images/opendeploy/Strawberries_N_Cream_Shortcake_Squares.jpg",
              "RecipeId": 54880,
              "RecipeName": "Strawberries 'N Cream Shortcake Squares",
              "SEOName": "strawberries-n-cream-shortcake-squares-54880",
              "ThumbnailPhoto": null
            }
          ],
          "TotalCount": 4277
        }
      },
      "RiseIngredients": [],
      "RiseTaxonomy": [],
      "Riserecipe": [
        {
          "GRIN": 561832,
          "RecipeId": 113435,
          "RecipeIndustrySector": "Retail",
          "RecipeType": "Internal"
        }
      ],
      "RomanceText": "Big pie, mini pie or scooped like ice cream, Strawberry Cream Freeze is like a frozen cheesecake mousse with juicy, fresh berries.",
      "SEOName": "strawberry-cream-freeze-serve-it-your-way-113435",
      "Tips": [
        {
          "RecipeId": 113435,
          "Sequence": 10,
          "TipDescription": "Prepare using PHILADELPHIA Neufchatel Cheese, 1 pkg. (1 oz.) JELL-O Vanilla Flavor Sugar Free Fat Free Instant Pudding and COOL WHIP LITE Whipped Topping.",
          "TipID": 2,
          "TipName": "Variation  "
        },
        {
          "RecipeId": 113435,
          "Sequence": 10,
          "TipDescription": "The best way to thaw frozen COOL WHIP Whipped Topping is in its container in the refrigerator.  Depending on the size tub you have, the thawing time varies.  Recommended thawing times are:  8-oz. tub - 4 hours; 12-oz. tub - 5 hours;  16-oz. tub - 6 hours.  We DO NOT recommend thawing COOL WHIP Whipped Topping in the microwave.",
          "TipID": 4618,
          "TipName": "How to Thaw COOL WHIP Whipped Topping"
        },
        {
          "RecipeId": 113435,
          "Sequence": 20,
          "TipDescription": "Keep a tub of COOL WHIP Whipped Topping in the freezer to use as an easy dessert topping, as a last-minute frosting for cakes or for spooning over cut-up fresh fruit.  Once thawed, the whipped topping should be refrigerated and used within 2 weeks.  For longer storage, COOL WHIP Whipped Topping can be re-frozen up to five times.",
          "TipID": 3808,
          "TipName": "Storing COOL WHIP"
        },
        {
          "RecipeId": 113435,
          "Sequence": 50,
          "TipDescription": "Use 1 pkg. (3.4 oz.) JELL-O SIMPLY GOOD Vanilla Bean Flavor Pudding.",
          "TipID": 5768,
          "TipName": "Best Apples for Baking and Cooking"
        },
        {
          "RecipeId": 113435,
          "Sequence": 50,
          "TipDescription": "Use 1 pkg. (3.4 oz.) JELL-O SIMPLY GOOD Vanilla Bean Flavor Pudding.",
          "TipID": 5768,
          "TipName": "Substitute"
        }
      ],
      "TotalTime": 380,
      "TradeMarkInfo": null,
      "Video": [],
      "Yield": "8 servings"
    }
  ]
}