{
  "Metadata": {
    "PageCount": 1,
    "PageNo": 0,
    "TotalCount": 0
  },
  "Recipes": [
    {
      "AdServingKeywords": "Bacon,Cheese,Meat,Onion,Parmesan,Pasta Sauce,Vegetables,Appetizer,Baked,Easy,All Seasons,Cocktail party,Kwanzaa,Classico,Kraft Grated Cheese,Oscar Mayer,Cooking for a Crowd",
      "AlternateLanguageRecipes": [],
      "Assets": [
        {
          "PictureFormats": [
            {
              "rendition": "290x194",
              "url": "http://assets.kraftfoods.com/recipe_images/opendeploy/503369_1_1_retail-261fac3c3bf9161bfc8050c4ee9ed1f101cfa841_291x194.jpg"
            },
            {
              "rendition": "306x204",
              "url": "http://assets.kraftfoods.com/recipe_images/opendeploy/503369_1_1_retail-261fac3c3bf9161bfc8050c4ee9ed1f101cfa841_306x204.jpg"
            },
            {
              "rendition": "640x428",
              "url": "http://assets.kraftfoods.com/recipe_images/opendeploy/503369_1_1_retail-261fac3c3bf9161bfc8050c4ee9ed1f101cfa841_642x428.jpg"
            }
          ],
          "author": "Kraft",
          "id": "2",
          "imageType": "Primary",
          "mimeType": "image/jpeg",
          "publicationDate": null,
          "status": "1",
          "title": "503369_1_1_retail-261fac3c3bf9161bfc8050c4ee9ed1f101cfa841",
          "type": "image"
        }
      ],
      "AverageRating": 4.6,
      "BrandId": 1,
      "Branding": null,
      "CSSSkins": null,
      "CarbCounter": null,
      "Categories": [
        {
          "CategoryID": 6,
          "CategoryName": "Appetizers/Snacks",
          "CategoryRank": 1,
          "SubCategoryID": 442,
          "SubCategoryName": "Bruschetta/Crostini/Toasts",
          "SubCategoryRank": 10
        },
        {
          "CategoryID": 11,
          "CategoryName": "Primary",
          "CategoryRank": 0,
          "SubCategoryID": 96,
          "SubCategoryName": "Appetizers & Snacks",
          "SubCategoryRank": 10
        },
        {
          "CategoryID": 748,
          "CategoryName": "Finger Food, Dips & Appetisers",
          "CategoryRank": 2,
          "SubCategoryID": 2523,
          "SubCategoryName": "Hot",
          "SubCategoryRank": 1
        }
      ],
      "Classifications": [],
      "ComplimentaryRecipes": [
        {
          "AverageRating": 0,
          "HasVideo": false,
          "IsHealthyLiving": false,
          "NumberOfRatings": 0,
          "PhotoName": null,
          "PhotoUrl": null,
          "RecipeId": 51250,
          "RecipeName": null,
          "SEOName": "mixed-greens-pear-pecan-salad-51250",
          "ThumbnailPhoto": "51250.jpg"
        }
      ],
      "CookingMethod": null,
      "Copyright": null,
      "Courses": [
        "Appetizers"
      ],
      "DietExchange": null,
      "DishDetails": [
        {
          "Text": "appetizers",
          "Url": "/recipes/appetizers/main.aspx"
        },
        {
          "Text": "cold appetizers",
          "Url": "/recipes/appetizers/coldappetizers.aspx"
        },
        {
          "Text": "cheese plates",
          "Url": "/recipes/appetizers/entertainingcheeseplates.aspx"
        },
        {
          "Text": "hot appetizers",
          "Url": "/recipes/appetizers/hotappetizers.aspx"
        },
        {
          "Text": "quick appetizers",
          "Url": "/recipes/appetizers/quick.aspx"
        },
        {
          "Text": "salsa recipes",
          "Url": "/recipes/appetizers/salsa-recipes/main.aspx"
        },
        {
          "Text": "seafood appetizers",
          "Url": "/recipes/dinner/seafood/appetizers/main.aspx"
        },
        {
          "Text": "dip recipes",
          "Url": "/recipes/appetizers/dip-recipes/main.aspx"
        }
      ],
      "EndDate": "/Date(-62135575200000-0600)/",
      "HasVideo": false,
      "Ingredients": [
        {
          "FullMeasure": "2",
          "FullWeight": "",
          "IngredientGridHeaders": null,
          "IngredientID": 273,
          "IngredientName": "Italian pizza crust",
          "IngredientStep": 10,
          "LanguageId": 0,
          "PostPreparation": "s (6 inch)",
          "PrePreparation": "",
          "QuantityNum": 2,
          "QuantityText": "2",
          "QuantityUnit": "",
          "RecipeIngredientID": 5247621,
          "TrialMeasure": "",
          "TrialWeight": ""
        },
        {
          "FullMeasure": "1/4 cup",
          "FullWeight": "",
          "IngredientGridHeaders": null,
          "IngredientID": 30091,
          "IngredientName": "CLASSICO Creamy Alfredo Pasta Sauce",
          "IngredientStep": 20,
          "LanguageId": 0,
          "PostPreparation": "",
          "PrePreparation": "",
          "QuantityNum": 0,
          "QuantityText": "1/4",
          "QuantityUnit": "cup",
          "RecipeIngredientID": 5247624,
          "TrialMeasure": "",
          "TrialWeight": ""
        },
        {
          "FullMeasure": "6 slices",
          "FullWeight": "",
          "IngredientGridHeaders": null,
          "IngredientID": 589,
          "IngredientName": "OSCAR MAYER Center Cut Bacon",
          "IngredientStep": 30,
          "LanguageId": 0,
          "PostPreparation": ", crumbled",
          "PrePreparation": "cooked",
          "QuantityNum": 6,
          "QuantityText": "6",
          "QuantityUnit": "slices",
          "RecipeIngredientID": 5247623,
          "TrialMeasure": "",
          "TrialWeight": ""
        },
        {
          "FullMeasure": "3 Tbsp.",
          "FullWeight": "",
          "IngredientGridHeaders": null,
          "IngredientID": 1529,
          "IngredientName": "red onion",
          "IngredientStep": 40,
          "LanguageId": 0,
          "PostPreparation": "s",
          "PrePreparation": "chopped",
          "QuantityNum": 3,
          "QuantityText": "3",
          "QuantityUnit": "Tbsp.",
          "RecipeIngredientID": 5247622,
          "TrialMeasure": "",
          "TrialWeight": ""
        },
        {
          "FullMeasure": "2 tsp.",
          "FullWeight": "",
          "IngredientGridHeaders": null,
          "IngredientID": 397,
          "IngredientName": "KRAFT Grated Parmesan Cheese",
          "IngredientStep": 50,
          "LanguageId": 0,
          "PostPreparation": "",
          "PrePreparation": "",
          "QuantityNum": 2,
          "QuantityText": "2",
          "QuantityUnit": "tsp.",
          "RecipeIngredientID": 5247626,
          "TrialMeasure": "",
          "TrialWeight": ""
        },
        {
          "FullMeasure": "2 tsp.",
          "FullWeight": "",
          "IngredientGridHeaders": null,
          "IngredientID": 1119,
          "IngredientName": "fresh parsley",
          "IngredientStep": 60,
          "LanguageId": 0,
          "PostPreparation": "",
          "PrePreparation": "chopped",
          "QuantityNum": 2,
          "QuantityText": "2",
          "QuantityUnit": "tsp.",
          "RecipeIngredientID": 5247625,
          "TrialMeasure": "",
          "TrialWeight": ""
        }
      ],
      "IsHealthyLiving": false,
      "KRLId": "503369",
      "KeyIngredients": [
        "Bacon",
        "Cheese",
        "Meat",
        "Onion",
        "Parmesan",
        "Vegetables"
      ],
      "Keywords": "onions,OSCAR MAYER Bacon,parmesan cheese,pizza crust,pork,alfredo sauce,bacon,cheese,KRAFT Parmesan Cheese,meat,parsley,Appetizer,Easy,Baked,All Seasons,Cocktail party,Kwanzaa,Cooking for a Crowd",
      "LanguageId": 1,
      "LifeStyles": [],
      "NumberOfIngredients": 6,
      "NumberOfRatings": 16,
      "NumberOfRatingsWithComments": "11",
      "NumberOfServings": "12 servings",
      "NumberOfTrialServings": "",
      "NutritionBonus": null,
      "NutritionExchangeItemId": 0,
      "NutritionGridItems": null,
      "NutritionItems": [
        {
          "DisplayOrder": 1,
          "Document": null,
          "NutritionItemID": 3,
          "NutritionItemName": "Calories",
          "Predriscriptor": "",
          "Quantity": 100,
          "Unit": "          "
        },
        {
          "DisplayOrder": 2,
          "Document": "fat_cholesterol.html",
          "NutritionItemID": 4,
          "NutritionItemName": "Total fat",
          "Predriscriptor": "",
          "Quantity": 4,
          "Unit": "g         "
        },
        {
          "DisplayOrder": 3,
          "Document": "fat_cholesterol.html",
          "NutritionItemID": 9,
          "NutritionItemName": "Saturated fat",
          "Predriscriptor": "",
          "Quantity": 1.5,
          "Unit": "g         "
        },
        {
          "DisplayOrder": 7,
          "Document": "fat_cholesterol.html",
          "NutritionItemID": 2,
          "NutritionItemName": "Cholesterol",
          "Predriscriptor": "",
          "Quantity": 5,
          "Unit": "mg        "
        },
        {
          "DisplayOrder": 8,
          "Document": "sodium.html",
          "NutritionItemID": 8,
          "NutritionItemName": "Sodium",
          "Predriscriptor": "",
          "Quantity": 270,
          "Unit": "mg        "
        },
        {
          "DisplayOrder": 10,
          "Document": "carbs_sugars_fiber.html",
          "NutritionItemID": 1,
          "NutritionItemName": "Carbohydrate",
          "Predriscriptor": "",
          "Quantity": 13,
          "Unit": "g         "
        },
        {
          "DisplayOrder": 11,
          "Document": "carbs_sugars_fiber.html",
          "NutritionItemID": 7,
          "NutritionItemName": "Dietary fiber",
          "Predriscriptor": "",
          "Quantity": 0,
          "Unit": "g         "
        },
        {
          "DisplayOrder": 12,
          "Document": "carbs_sugars_fiber.html",
          "NutritionItemID": 5,
          "NutritionItemName": "Sugars",
          "Predriscriptor": "",
          "Quantity": 0,
          "Unit": "g         "
        },
        {
          "DisplayOrder": 13,
          "Document": null,
          "NutritionItemID": 6,
          "NutritionItemName": "Protein",
          "Predriscriptor": "",
          "Quantity": 4,
          "Unit": "g         "
        },
        {
          "DisplayOrder": 14,
          "Document": null,
          "NutritionItemID": 10,
          "NutritionItemName": "Vitamin A",
          "Predriscriptor": "",
          "Quantity": 0,
          "Unit": "%DV       "
        },
        {
          "DisplayOrder": 15,
          "Document": null,
          "NutritionItemID": 11,
          "NutritionItemName": "Vitamin C",
          "Predriscriptor": "",
          "Quantity": 0,
          "Unit": "%DV       "
        },
        {
          "DisplayOrder": 16,
          "Document": "dairy_and_calcium.html",
          "NutritionItemID": 12,
          "NutritionItemName": "Calcium",
          "Predriscriptor": "",
          "Quantity": 2,
          "Unit": "%DV       "
        },
        {
          "DisplayOrder": 17,
          "Document": null,
          "NutritionItemID": 13,
          "NutritionItemName": "Iron",
          "Predriscriptor": "",
          "Quantity": 2,
          "Unit": "%DV       "
        }
      ],
      "NutritionServingText": null,
      "PrepStepImage": null,
      "PreparationDescription": "Place pizza crusts in single layer on baking sheet; spread with sauce.  $Top with remaining ingredients.$Bake 8 min. or until crusts are crisp and golden brown, and pizzas are heated through.  ",
      "PreparationPreText": "Heat oven to 350°F.",
      "PreparationSteps": [
        {
          "Description": "Place pizza crusts in single layer on baking sheet; spread with sauce.  ",
          "PreparationStepImage": {
            "PictureFormats": [],
            "author": null,
            "id": null,
            "imageType": null,
            "mimeType": null,
            "publicationDate": null,
            "status": null,
            "title": null,
            "type": null
          },
          "Sequence": 1
        },
        {
          "Description": "Top with remaining ingredients.",
          "PreparationStepImage": {
            "PictureFormats": [],
            "author": null,
            "id": null,
            "imageType": null,
            "mimeType": null,
            "publicationDate": null,
            "status": null,
            "title": null,
            "type": null
          },
          "Sequence": 2
        },
        {
          "Description": "Bake 8 min. or until crusts are crisp and golden brown, and pizzas are heated through.  ",
          "PreparationStepImage": {
            "PictureFormats": [],
            "author": null,
            "id": null,
            "imageType": null,
            "mimeType": null,
            "publicationDate": null,
            "status": null,
            "title": null,
            "type": null
          },
          "Sequence": 3
        }
      ],
      "PreparationTime": 15,
      "Promotion": null,
      "Ratings": {
        "TotalCount": 16,
        "PageCount": 10,
        "PageNo": 1,
        "Rating": [
          {
            "Comment": "Mmmm, soooo good. I could eat a whole pizza with this on it. I made my own alfredo sauce quickly and used that, but you could use a jar just as easily.",
            "DisplayName": true,
            "RatingValue": 4,
            "SubmitDate": "/Date(1277055832000-0500)/",
            "UpdatedDate": "/Date(1277055832000-0500)/",
            "UserName": "pinstripesteph"
          },
          {
            "Comment": "",
            "DisplayName": true,
            "RatingValue": 5,
            "SubmitDate": "/Date(1272764164000-0500)/",
            "UpdatedDate": "/Date(1272764164000-0500)/",
            "UserName": "ktkeiser"
          },
          {
            "Comment": "My husband hates alfredo sauce but asks me to make this again. Use precooked bacon crumbles to speed up the process.",
            "DisplayName": true,
            "RatingValue": 4,
            "SubmitDate": "/Date(1229472386000-0600)/",
            "UpdatedDate": "/Date(1229472386000-0600)/",
            "UserName": "sheeeena"
          },
          {
            "Comment": "We loved this recipe!  I wasn't able to find Italian pizza crust in our grocery store, so I sprinkled a little dried oregano, thyme, and garlic powder on the pizza dough before adding the sauce. Everyone at the party asked for the recipe!!  I will certainly make it again.",
            "DisplayName": true,
            "RatingValue": 5,
            "SubmitDate": "/Date(1210194504000-0500)/",
            "UpdatedDate": "/Date(1210194504000-0500)/",
            "UserName": "Cybil554"
          },
          {
            "Comment": "",
            "DisplayName": false,
            "RatingValue": 4,
            "SubmitDate": "/Date(1200880027000-0600)/",
            "UpdatedDate": "/Date(1200880027000-0600)/",
            "UserName": "angieo1208"
          },
          {
            "Comment": "I absolutely love this appetizer. It has become one of our holiday favorites. I usually substitute Kraft's grated Parmesan Cheese with Kraft's grated Parmesan and Romano Cheese-yummy!",
            "DisplayName": true,
            "RatingValue": 5,
            "SubmitDate": "/Date(1199225053000-0600)/",
            "UpdatedDate": "/Date(1199225053000-0600)/",
            "UserName": "lorahardman"
          },
          {
            "Comment": "Easy and delicious. I will definitely make it again.",
            "DisplayName": true,
            "RatingValue": 5,
            "SubmitDate": "/Date(1177767834000-0500)/",
            "UpdatedDate": "/Date(1177767834000-0500)/",
            "UserName": "chefkoch#1"
          },
          {
            "Comment": "This is my go to appetizer for any function. It's easy, and delicious. Even my super picky husband loves it!!",
            "DisplayName": true,
            "RatingValue": 5,
            "SubmitDate": "/Date(1176568660000-0500)/",
            "UpdatedDate": "/Date(1176568660000-0500)/",
            "UserName": "GrkGoddess214"
          },
          {
            "Comment": "This was so good, especially right out of the oven.  I used precooked bacon and it was fast and easy to make.  ",
            "DisplayName": false,
            "RatingValue": 5,
            "SubmitDate": "/Date(1167537315000-0600)/",
            "UpdatedDate": "/Date(1167537315000-0600)/",
            "UserName": "kimannMchose"
          },
          {
            "Comment": "This was easy to make and yummy to eat. I served it to guests prior to all of us going out to dinner celebrating the new 2006 New Year. ",
            "DisplayName": true,
            "RatingValue": 5,
            "SubmitDate": "/Date(1136340095000-0600)/",
            "UpdatedDate": "/Date(1136340095000-0600)/",
            "UserName": "Joanne943"
          }
        ]
      },
      "RecipeDisplayFormatId": 5,
      "RecipeId": 50701,
      "RecipeName": "Bacon-Carbonara Appetizers",
      "RecipeType": 0,
      "RelatedData": {
        "RelatedBrands": null,
        "RelatedProducts": null,
        "RelatedRecipes": {
          "DefaultTopCount": 5,
          "Recipe": [
            {
              "AverageRating": 4.6,
              "HasVideo": false,
              "IsHealthyLiving": false,
              "NumberOfRatings": 5,
              "PhotoName": "150532.jpg",
              "PhotoUrl": "http://assets.kraftfoods.com/recipe_images/opendeploy/150532.jpg",
              "RecipeId": 150532,
              "RecipeName": "Pasta Carbonara",
              "SEOName": "pasta-carbonara-150532",
              "ThumbnailPhoto": null
            },
            {
              "AverageRating": 4.4,
              "HasVideo": false,
              "IsHealthyLiving": false,
              "NumberOfRatings": 42,
              "PhotoName": "126663.jpg",
              "PhotoUrl": "http://assets.kraftfoods.com/recipe_images/opendeploy/126663.jpg",
              "RecipeId": 126663,
              "RecipeName": "Shrimp Carbonara",
              "SEOName": "shrimp-carbonara-126663",
              "ThumbnailPhoto": null
            },
            {
              "AverageRating": 4,
              "HasVideo": false,
              "IsHealthyLiving": false,
              "NumberOfRatings": 23,
              "PhotoName": "113735.jpg",
              "PhotoUrl": "http://assets.kraftfoods.com/recipe_images/opendeploy/113735.jpg",
              "RecipeId": 113735,
              "RecipeName": "PHILADELPHIA Quick Pasta Carbonara",
              "SEOName": "philadelphia-quick-pasta-carbonara-113735",
              "ThumbnailPhoto": null
            },
            {
              "AverageRating": 4.2,
              "HasVideo": false,
              "IsHealthyLiving": false,
              "NumberOfRatings": 30,
              "PhotoName": "DI_GIORNO_Easy_Tortellini_Carbonara.jpg",
              "PhotoUrl": "http://assets.kraftfoods.com/recipe_images/opendeploy/DI_GIORNO_Easy_Tortellini_Carbonara.jpg",
              "RecipeId": 50472,
              "RecipeName": "Easy Tortellini Carbonara",
              "SEOName": "easy-tortellini-carbonara-50472",
              "ThumbnailPhoto": null
            },
            {
              "AverageRating": 5,
              "HasVideo": false,
              "IsHealthyLiving": false,
              "NumberOfRatings": 1,
              "PhotoName": "Pasta_Carbonara.jpg",
              "PhotoUrl": "http://assets.kraftfoods.com/recipe_images/opendeploy/Pasta_Carbonara.jpg",
              "RecipeId": 50399,
              "RecipeName": "Tortellini Pasta Carbonara",
              "SEOName": "tortellini-pasta-carbonara-50399",
              "ThumbnailPhoto": null
            }
          ],
          "TotalCount": 1468
        }
      },
      "RiseIngredients": [],
      "RiseTaxonomy": [],
      "Riserecipe": [
        {
          "GRIN": 503369,
          "RecipeId": 50701,
          "RecipeIndustrySector": "Retail",
          "RecipeType": "Internal"
        }
      ],
      "RomanceText": "Your guests will assume the event was catered—there's no need to tell them these tasty bacon-topped apps actually took you less than 20 minutes to make.",
      "SEOName": "bacon-carbonara-appetizers-50701",
      "Tips": [
        {
          "RecipeId": 50701,
          "Sequence": 10,
          "TipDescription": "When chopping parsley or cilantro, chop both the leaves and tender portion at the tops of the stems.   Both are tender and full of flavor.  Because the base of the stems are tougher, they should be discarded.  ",
          "TipID": 3574,
          "TipName": "Chopping Parsley or Cilantro"
        }
      ],
      "TotalTime": 15,
      "TradeMarkInfo": null,
      "Video": [],
      "Yield": "12 servings"
    }
  ]
}