{
  "Metadata": {
    "PageCount": 1,
    "PageNo": 0,
    "TotalCount": 0
  },
  "Recipes": [
    {
      "AdServingKeywords": "Dessert,Dairy,Lime,Easy,No Bake,Caribbean,Frozen Dessert,Pies and Tarts,All Seasons,Cool Whip,Kool-Aid,Creamy",
      "AlternateLanguageRecipes": [],
      "Assets": [
        {
          "PictureFormats": [
            {
              "rendition": "640x428",
              "url": "http://assets.kraftfoods.com/recipe_images/opendeploy/75164_640x428.jpg"
            },
            {
              "rendition": "600x250",
              "url": "http://assets.kraftfoods.com/recipe_images/opendeploy/75164_600x250.jpg"
            },
            {
              "rendition": "290x194",
              "url": "http://assets.kraftfoods.com/recipe_images/opendeploy/75164_290x194.jpg"
            },
            {
              "rendition": "600x250",
              "url": "http://assets.kraftfoods.com/recipe_images/opendeploy/75164_600x250.jpg"
            },
            {
              "rendition": "640x428",
              "url": "http://assets.kraftfoods.com/recipe_images/opendeploy/75164_640x428.jpg"
            }
          ],
          "author": null,
          "id": "4",
          "imageType": "Primary",
          "mimeType": "image/jpeg",
          "publicationDate": null,
          "status": "1",
          "title": "75164",
          "type": "image"
        },
        {
          "PictureFormats": [
            {
              "rendition": "300x200",
              "url": "http://assets.kraftfoods.com/recipe_images/75164.jpg"
            },
            {
              "rendition": "300x200",
              "url": "http://assets.kraftfoods.com/recipe_images/Key_Lime_Margarita_Pie.jpg"
            }
          ],
          "author": null,
          "id": "1",
          "imageType": "LANDSCAPE",
          "mimeType": "image/jpeg",
          "publicationDate": null,
          "status": "1",
          "title": "Key_Lime_Margarita_Pie.jpg",
          "type": "image"
        }
      ],
      "AverageRating": 4.5,
      "BrandId": 1,
      "Branding": null,
      "CSSSkins": null,
      "CarbCounter": null,
      "Categories": [
        {
          "CategoryID": 4,
          "CategoryName": "Cakes/Pies/Cheesecakes",
          "CategoryRank": 5,
          "SubCategoryID": 354,
          "SubCategoryName": "Pies: Frozen",
          "SubCategoryRank": 110
        },
        {
          "CategoryID": 11,
          "CategoryName": "Primary",
          "CategoryRank": 0,
          "SubCategoryID": 103,
          "SubCategoryName": "Desserts",
          "SubCategoryRank": 40
        },
        {
          "CategoryID": 759,
          "CategoryName": "Desserts",
          "CategoryRank": 13,
          "SubCategoryID": 2578,
          "SubCategoryName": "Frozen",
          "SubCategoryRank": 1
        },
        {
          "CategoryID": 759,
          "CategoryName": "Desserts",
          "CategoryRank": 13,
          "SubCategoryID": 2581,
          "SubCategoryName": "Pastry",
          "SubCategoryRank": 1
        }
      ],
      "Classifications": [],
      "ComplimentaryRecipes": [
        {
          "AverageRating": 0,
          "HasVideo": false,
          "IsHealthyLiving": false,
          "NumberOfRatings": 0,
          "PhotoName": null,
          "PhotoUrl": null,
          "RecipeId": 174808,
          "RecipeName": null,
          "SEOName": "primavera-pasta-toss-174808",
          "ThumbnailPhoto": "171656_SF_66336v0E_WP.jpg"
        }
      ],
      "CookingMethod": null,
      "Copyright": null,
      "Courses": [
        "Desserts"
      ],
      "DietExchange": null,
      "DishDetails": [
        {
          "Text": "desserts",
          "Url": "/recipes/dessert/main.aspx"
        },
        {
          "Text": "fruity desserts",
          "Url": "/recipes/dessert/fruitydesserts.aspx"
        },
        {
          "Text": "gelatin desserts",
          "Url": "/recipes/dessert/gelatindesserts.aspx"
        },
        {
          "Text": "layered desserts",
          "Url": "/recipes/dessert/layereddesserts.aspx"
        },
        {
          "Text": "brownie recipes",
          "Url": "/recipes/dessert/brownie-recipes/main.aspx"
        },
        {
          "Text": "budget desserts",
          "Url": "/recipes/budget/budget-desserts.aspx"
        },
        {
          "Text": "no bake desserts",
          "Url": "/recipes/dessert/nobakedesserts.aspx"
        },
        {
          "Text": "pumpkin recipes",
          "Url": "/recipes/dessert/pumpkin-recipes.aspx"
        },
        {
          "Text": "chocolate cake recipes",
          "Url": "/recipes/dessert/chocolate-cake-recipes/main.aspx"
        },
        {
          "Text": "cheesecake recipes",
          "Url": "/recipes/dessert/cheesecake-center/cheesecake-recipes/main.aspx"
        },
        {
          "Text": "chocolate lovers recipes",
          "Url": "/recipes/dessert/chocolate-center/chocolateloversrecipes.aspx"
        },
        {
          "Text": "classic desserts",
          "Url": "/recipes/dessert/classicdesserts.aspx"
        },
        {
          "Text": "cookie ball recipes",
          "Url": "/recipes/dessert/cookie-ball-recipes/main.aspx"
        },
        {
          "Text": "cookie recipes",
          "Url": "/recipes/dessert/cookie-recipes/main.aspx"
        },
        {
          "Text": "cupcake recipes",
          "Url": "/recipes/dessert/cupcake-recipes/main.aspx"
        },
        {
          "Text": "healthy living desserts",
          "Url": "/healthy-living-ideas/diabetes-center/recipes/dessert-recipes.aspx"
        },
        {
          "Text": "pumpkin pie recipes",
          "Url": "/recipes/holidays-and-entertaining/holidays/Thanksgiving/pumpkin-pie-recipes.aspx"
        },
        {
          "Text": "pie recipes",
          "Url": "/recipes/dessert/pie-recipes/main.aspx"
        }
      ],
      "EndDate": "/Date(-62135575200000-0600)/",
      "HasVideo": false,
      "Ingredients": [
        {
          "FullMeasure": null,
          "FullWeight": null,
          "IngredientGridHeaders": null,
          "IngredientID": 68682,
          "IngredientName": "finely crushed pretzels",
          "IngredientStep": 10,
          "LanguageId": 0,
          "PostPreparation": "",
          "PrePreparation": "",
          "QuantityNum": 1.25,
          "QuantityText": "1-1/4",
          "QuantityUnit": "cups",
          "RecipeIngredientID": 15812,
          "TrialMeasure": null,
          "TrialWeight": null
        },
        {
          "FullMeasure": null,
          "FullWeight": null,
          "IngredientGridHeaders": null,
          "IngredientID": 68174,
          "IngredientName": "sugar",
          "IngredientStep": 20,
          "LanguageId": 0,
          "PostPreparation": "",
          "PrePreparation": "",
          "QuantityNum": 0.25,
          "QuantityText": "1/4",
          "QuantityUnit": "cup",
          "RecipeIngredientID": 25371,
          "TrialMeasure": null,
          "TrialWeight": null
        },
        {
          "FullMeasure": null,
          "FullWeight": null,
          "IngredientGridHeaders": null,
          "IngredientID": 67994,
          "IngredientName": "butter, melted",
          "IngredientStep": 30,
          "LanguageId": 0,
          "PostPreparation": "",
          "PrePreparation": "",
          "QuantityNum": 6,
          "QuantityText": "6",
          "QuantityUnit": "Tbsp.",
          "RecipeIngredientID": 25140,
          "TrialMeasure": null,
          "TrialWeight": null
        },
        {
          "FullMeasure": null,
          "FullWeight": null,
          "IngredientGridHeaders": null,
          "IngredientID": 68747,
          "IngredientName": "(14 oz.) sweetened condensed milk",
          "IngredientStep": 40,
          "LanguageId": 0,
          "PostPreparation": "",
          "PrePreparation": "",
          "QuantityNum": 1,
          "QuantityText": "1",
          "QuantityUnit": "can",
          "RecipeIngredientID": 15717,
          "TrialMeasure": null,
          "TrialWeight": null
        },
        {
          "FullMeasure": null,
          "FullWeight": null,
          "IngredientGridHeaders": null,
          "IngredientID": 68121,
          "IngredientName": "lime juice",
          "IngredientStep": 50,
          "LanguageId": 0,
          "PostPreparation": "",
          "PrePreparation": "",
          "QuantityNum": 0.5,
          "QuantityText": "1/2",
          "QuantityUnit": "cup",
          "RecipeIngredientID": 22939,
          "TrialMeasure": null,
          "TrialWeight": null
        },
        {
          "FullMeasure": null,
          "FullWeight": null,
          "IngredientGridHeaders": null,
          "IngredientID": 70232,
          "IngredientName": "(0.13 oz.) KOOL-AID Lemon-Lime Flavor Unsweetened Drink Mix",
          "IngredientStep": 60,
          "LanguageId": 0,
          "PostPreparation": "",
          "PrePreparation": "",
          "QuantityNum": 1,
          "QuantityText": "1",
          "QuantityUnit": "env.",
          "RecipeIngredientID": 21351,
          "TrialMeasure": null,
          "TrialWeight": null
        },
        {
          "FullMeasure": null,
          "FullWeight": null,
          "IngredientGridHeaders": null,
          "IngredientID": 67974,
          "IngredientName": "(8 oz.) COOL WHIP Whipped Topping, thawed, divided",
          "IngredientStep": 70,
          "LanguageId": 0,
          "PostPreparation": "",
          "PrePreparation": "",
          "QuantityNum": 1,
          "QuantityText": "1",
          "QuantityUnit": "tub",
          "RecipeIngredientID": 21110,
          "TrialMeasure": null,
          "TrialWeight": null
        }
      ],
      "IsHealthyLiving": false,
      "KRLId": "548934",
      "KeyIngredients": [],
      "Keywords": "Dessert,No Bake,Easy,Caribbean,All Seasons,Frozen Dessert,Pies and Tarts,Creamy",
      "LanguageId": 1,
      "LifeStyles": [],
      "NumberOfIngredients": 7,
      "NumberOfRatings": 323,
      "NumberOfRatingsWithComments": "289",
      "NumberOfServings": "10 servings",
      "NumberOfTrialServings": null,
      "NutritionBonus": null,
      "NutritionExchangeItemId": 0,
      "NutritionGridItems": null,
      "NutritionItems": [
        {
          "DisplayOrder": 0,
          "Document": null,
          "NutritionItemID": 384,
          "NutritionItemName": "Vitamin D",
          "Predriscriptor": "",
          "Quantity": 0,
          "Unit": "%DV       "
        },
        {
          "DisplayOrder": 0,
          "Document": null,
          "NutritionItemID": 385,
          "NutritionItemName": "Vitamin E",
          "Predriscriptor": "",
          "Quantity": 2,
          "Unit": "%DV       "
        },
        {
          "DisplayOrder": 0,
          "Document": null,
          "NutritionItemID": 388,
          "NutritionItemName": "Potassium",
          "Predriscriptor": "",
          "Quantity": 0,
          "Unit": "%DV       "
        },
        {
          "DisplayOrder": 0,
          "Document": null,
          "NutritionItemID": 390,
          "NutritionItemName": "Added Sugars",
          "Predriscriptor": "",
          "Quantity": 10,
          "Unit": "g         "
        },
        {
          "DisplayOrder": 1,
          "Document": null,
          "NutritionItemID": 371,
          "NutritionItemName": "Calories",
          "Predriscriptor": "",
          "Quantity": 330,
          "Unit": "          "
        },
        {
          "DisplayOrder": 2,
          "Document": null,
          "NutritionItemID": 376,
          "NutritionItemName": "Total fat",
          "Predriscriptor": "",
          "Quantity": 16,
          "Unit": "g         "
        },
        {
          "DisplayOrder": 3,
          "Document": null,
          "NutritionItemID": 377,
          "NutritionItemName": "Saturated fat",
          "Predriscriptor": "",
          "Quantity": 11,
          "Unit": "g         "
        },
        {
          "DisplayOrder": 4,
          "Document": null,
          "NutritionItemID": 379,
          "NutritionItemName": "Polyunsaturated Fat",
          "Predriscriptor": "",
          "Quantity": 0,
          "Unit": "g         "
        },
        {
          "DisplayOrder": 5,
          "Document": null,
          "NutritionItemID": 378,
          "NutritionItemName": "Monounsaturated Fat",
          "Predriscriptor": "",
          "Quantity": 0,
          "Unit": "g         "
        },
        {
          "DisplayOrder": 6,
          "Document": null,
          "NutritionItemID": 380,
          "NutritionItemName": "Trans Fat",
          "Predriscriptor": "",
          "Quantity": 0,
          "Unit": "g         "
        },
        {
          "DisplayOrder": 7,
          "Document": null,
          "NutritionItemID": 381,
          "NutritionItemName": "Cholesterol",
          "Predriscriptor": "",
          "Quantity": 30,
          "Unit": "mg        "
        },
        {
          "DisplayOrder": 8,
          "Document": null,
          "NutritionItemID": 389,
          "NutritionItemName": "Sodium",
          "Predriscriptor": "",
          "Quantity": 220,
          "Unit": "mg        "
        },
        {
          "DisplayOrder": 10,
          "Document": null,
          "NutritionItemID": 373,
          "NutritionItemName": "Carbohydrate",
          "Predriscriptor": "",
          "Quantity": 43,
          "Unit": "g         "
        },
        {
          "DisplayOrder": 11,
          "Document": null,
          "NutritionItemID": 374,
          "NutritionItemName": "Dietary fiber",
          "Predriscriptor": "",
          "Quantity": 0,
          "Unit": "g         "
        },
        {
          "DisplayOrder": 12,
          "Document": null,
          "NutritionItemID": 375,
          "NutritionItemName": "Sugars",
          "Predriscriptor": "",
          "Quantity": 34,
          "Unit": "g         "
        },
        {
          "DisplayOrder": 13,
          "Document": null,
          "NutritionItemID": 372,
          "NutritionItemName": "Protein",
          "Predriscriptor": "",
          "Quantity": 4,
          "Unit": "g         "
        },
        {
          "DisplayOrder": 14,
          "Document": null,
          "NutritionItemID": 382,
          "NutritionItemName": "Vitamin A",
          "Predriscriptor": "",
          "Quantity": 15,
          "Unit": "%DV       "
        },
        {
          "DisplayOrder": 15,
          "Document": null,
          "NutritionItemID": 383,
          "NutritionItemName": "Vitamin C",
          "Predriscriptor": "",
          "Quantity": 4,
          "Unit": "%DV       "
        },
        {
          "DisplayOrder": 16,
          "Document": null,
          "NutritionItemID": 386,
          "NutritionItemName": "Calcium",
          "Predriscriptor": "",
          "Quantity": 8,
          "Unit": "%DV       "
        },
        {
          "DisplayOrder": 17,
          "Document": null,
          "NutritionItemID": 387,
          "NutritionItemName": "Iron",
          "Predriscriptor": "",
          "Quantity": 2,
          "Unit": "%DV       "
        }
      ],
      "NutritionServingText": null,
      "PrepStepImage": null,
      "PreparationDescription": "Combine pretzel crumbs, sugar and butter; press onto bottom and up side of 9-inch pie plate.  Refrigerate until ready to use.$Whisk next 3 ingredients in large bowl until blended.  Stir in 2-1/2 cups COOL WHIP; pour into crust.$Freeze 6 hours or until firm.  Let stand at room temperature 15 min. before serving to soften slightly.  Top with remaining COOL WHIP. ",
      "PreparationPreText": null,
      "PreparationSteps": [
        {
          "Description": "Combine pretzel crumbs, sugar and butter; press onto bottom and up side of 9-inch pie plate.  Refrigerate until ready to use.",
          "PreparationStepImage": {
            "PictureFormats": [],
            "author": null,
            "id": null,
            "imageType": null,
            "mimeType": null,
            "publicationDate": null,
            "status": null,
            "title": null,
            "type": null
          },
          "Sequence": 1
        },
        {
          "Description": "Whisk next 3 ingredients in large bowl until blended.  Stir in 2-1/2 cups COOL WHIP; pour into crust.",
          "PreparationStepImage": {
            "PictureFormats": [],
            "author": null,
            "id": null,
            "imageType": null,
            "mimeType": null,
            "publicationDate": null,
            "status": null,
            "title": null,
            "type": null
          },
          "Sequence": 2
        },
        {
          "Description": "Freeze 6 hours or until firm.  Let stand at room temperature 15 min. before serving to soften slightly.  Top with remaining COOL WHIP. ",
          "PreparationStepImage": {
            "PictureFormats": [],
            "author": null,
            "id": null,
            "imageType": null,
            "mimeType": null,
            "publicationDate": null,
            "status": null,
            "title": null,
            "type": null
          },
          "Sequence": 3
        }
      ],
      "PreparationTime": 15,
      "Promotion": null,
      "Ratings": {
        "TotalCount": 323,
        "PageCount": 10,
        "PageNo": 1,
        "Rating": [
          {
            "Comment": "Yummy!",
            "DisplayName": false,
            "RatingValue": 5,
            "SubmitDate": "/Date(1401484377000-0500)/",
            "UpdatedDate": "/Date(1401484377000-0500)/",
            "UserName": "Marie3191308"
          },
          {
            "Comment": "tremendous flavor",
            "DisplayName": true,
            "RatingValue": 5,
            "SubmitDate": "/Date(1398965452000-0500)/",
            "UpdatedDate": "/Date(1398965452000-0500)/",
            "UserName": "cathy1954sw"
          },
          {
            "Comment": "Ooh, had the sharp tartness of a margarita; not overly sweet.  I'm not a dessert fan or maker so this was a little different for me.  I followed the recipe exactly and lucked into finding some real Key limes.  Ha, ha I had to squeeze about 20 to get 1/2 cup of juice so don't know if I was lucky or not!  Really good recipe, thanks!",
            "DisplayName": true,
            "RatingValue": 4,
            "SubmitDate": "/Date(1396405603000-0500)/",
            "UpdatedDate": "/Date(1396405603000-0500)/",
            "UserName": "RVgalley"
          },
          {
            "Comment": "Love this pie - super fast and easy to make - satisfies the sweet lover but still light and cool",
            "DisplayName": true,
            "RatingValue": 4,
            "SubmitDate": "/Date(1372788556000-0500)/",
            "UpdatedDate": "/Date(1372788556000-0500)/",
            "UserName": "faunsmith"
          },
          {
            "Comment": "",
            "DisplayName": true,
            "RatingValue": 5,
            "SubmitDate": "/Date(1367533510000-0500)/",
            "UpdatedDate": "/Date(1367533510000-0500)/",
            "UserName": "sschultz1234"
          },
          {
            "Comment": "I have made this recipe in Lemon, Lime and Orange.  Each time it has been a tremendous hit with friends and family alike.  This is a no fail recipe.  Next time I make what we call the Kool-Aid pie, I am going to try a chocolate cookie crust and a cherry or strawberry filling.  Who doesn't like chocolate covered cherries and strawberries .... ",
            "DisplayName": true,
            "RatingValue": 5,
            "SubmitDate": "/Date(1364259283000-0500)/",
            "UpdatedDate": "/Date(1364259283000-0500)/",
            "UserName": "irwind45150"
          },
          {
            "Comment": "My husband loves the tartness!",
            "DisplayName": true,
            "RatingValue": 5,
            "SubmitDate": "/Date(1343759198000-0500)/",
            "UpdatedDate": "/Date(1343759198000-0500)/",
            "UserName": "Mandikay510"
          },
          {
            "Comment": "Excellent!  So tasty and so easy!  I've made this several times.",
            "DisplayName": true,
            "RatingValue": 5,
            "SubmitDate": "/Date(1342797032000-0500)/",
            "UpdatedDate": "/Date(1342797032000-0500)/",
            "UserName": "bennettandkelly"
          },
          {
            "Comment": "This was a real hit for our Father's Day picnic! The pretzel crust is imperative in my opinion. I used \"Crystal Lite\" Margarita flavor instead of the Lime Kool Aid, and added some lime zest to the filling. A perfect summer pie.",
            "DisplayName": true,
            "RatingValue": 5,
            "SubmitDate": "/Date(1340402160000-0500)/",
            "UpdatedDate": "/Date(1340402160000-0500)/",
            "UserName": "nyerlando"
          },
          {
            "Comment": "Got rave reviews on this one! Great for hot summer days - very refreshing! ",
            "DisplayName": true,
            "RatingValue": 5,
            "SubmitDate": "/Date(1339982361000-0500)/",
            "UpdatedDate": "/Date(1339982361000-0500)/",
            "UserName": "tierney78"
          }
        ]
      },
      "RecipeDisplayFormatId": 0,
      "RecipeId": 75164,
      "RecipeName": "Key Lime Margarita Pie",
      "RecipeType": 0,
      "RelatedData": {
        "RelatedBrands": null,
        "RelatedProducts": null,
        "RelatedRecipes": {
          "DefaultTopCount": 5,
          "Recipe": [
            {
              "AverageRating": 4,
              "HasVideo": false,
              "IsHealthyLiving": false,
              "NumberOfRatings": 3,
              "PhotoName": "112368.jpg",
              "PhotoUrl": "http://assets.kraftfoods.com/recipe_images/opendeploy/112368.jpg",
              "RecipeId": 112368,
              "RecipeName": "Margarita Cheesecake Pie",
              "SEOName": "margarita-cheesecake-pie-112368",
              "ThumbnailPhoto": null
            },
            {
              "AverageRating": 4.2,
              "HasVideo": false,
              "IsHealthyLiving": false,
              "NumberOfRatings": 45,
              "PhotoName": "54360.jpg",
              "PhotoUrl": "http://assets.kraftfoods.com/recipe_images/opendeploy/54360.jpg",
              "RecipeId": 54360,
              "RecipeName": "Key Lime Cheesecake Pie",
              "SEOName": "key-lime-cheesecake-pie-54360",
              "ThumbnailPhoto": null
            },
            {
              "AverageRating": 4.3,
              "HasVideo": false,
              "IsHealthyLiving": false,
              "NumberOfRatings": 82,
              "PhotoName": "51567.jpg",
              "PhotoUrl": "http://assets.kraftfoods.com/recipe_images/opendeploy/51567.jpg",
              "RecipeId": 51567,
              "RecipeName": "PHILADELPHIA 3-STEP Key Lime Cheesecake",
              "SEOName": "philadelphia-3-step-key-lime-cheesecake-51567",
              "ThumbnailPhoto": null
            },
            {
              "AverageRating": 4.6,
              "HasVideo": false,
              "IsHealthyLiving": false,
              "NumberOfRatings": 21,
              "PhotoName": "Margarita_Shrimp_And_Vegetable_Kabobs.jpg",
              "PhotoUrl": "http://assets.kraftfoods.com/recipe_images/opendeploy/Margarita_Shrimp_And_Vegetable_Kabobs.jpg",
              "RecipeId": 50230,
              "RecipeName": "Margarita Shrimp and Vegetable Kabobs",
              "SEOName": "margarita-shrimp-vegetable-kabobs-50230",
              "ThumbnailPhoto": null
            },
            {
              "AverageRating": 4.4,
              "HasVideo": false,
              "IsHealthyLiving": false,
              "NumberOfRatings": 159,
              "PhotoName": "opendeploy/543500_1_1_retail-bca2dfdbaae65d57432553d7a688dbb14c10289f_306x204.jpg",
              "PhotoUrl": "http://assets.kraftfoods.com/recipe_images/opendeploy/opendeploy/543500_1_1_retail-bca2dfdbaae65d57432553d7a688dbb14c10289f_306x204.jpg",
              "RecipeId": 60597,
              "RecipeName": "Strawberry Margarita Squares",
              "SEOName": "strawberry-margarita-squares-60597",
              "ThumbnailPhoto": null
            }
          ],
          "TotalCount": 1615
        }
      },
      "RiseIngredients": [
        {
          "IngredientCategory": "KRL",
          "IngredientId": 67974,
          "IngredientIndustrySector": "Retail",
          "IngredientType": "Inedible",
          "ProductId": "00043000009536",
          "RecipeId": 75164
        },
        {
          "IngredientCategory": "KRL",
          "IngredientId": 67994,
          "IngredientIndustrySector": "Retail",
          "IngredientType": "Inedible",
          "ProductId": null,
          "RecipeId": 75164
        },
        {
          "IngredientCategory": "KRL",
          "IngredientId": 68121,
          "IngredientIndustrySector": "Retail",
          "IngredientType": "Inedible",
          "ProductId": null,
          "RecipeId": 75164
        },
        {
          "IngredientCategory": "KRL",
          "IngredientId": 68174,
          "IngredientIndustrySector": "Retail",
          "IngredientType": "Inedible",
          "ProductId": null,
          "RecipeId": 75164
        },
        {
          "IngredientCategory": "KRL",
          "IngredientId": 68682,
          "IngredientIndustrySector": "Retail",
          "IngredientType": "Inedible",
          "ProductId": null,
          "RecipeId": 75164
        },
        {
          "IngredientCategory": "KRL",
          "IngredientId": 68747,
          "IngredientIndustrySector": "Retail",
          "IngredientType": "Inedible",
          "ProductId": null,
          "RecipeId": 75164
        },
        {
          "IngredientCategory": "KRL",
          "IngredientId": 70232,
          "IngredientIndustrySector": "Retail",
          "IngredientType": "KHC",
          "ProductId": "00043000955444",
          "RecipeId": 75164
        }
      ],
      "RiseTaxonomy": [
        {
          "ParentTaxonomyId": 0,
          "RecipeId": 75164,
          "ResourceName": "Recipe",
          "TaxonomyId": 63,
          "TaxonomyName": "Desserts",
          "TaxonomyTypeId": 2,
          "TaxonomyTypeName": "Meal Part"
        },
        {
          "ParentTaxonomyId": 41,
          "RecipeId": 75164,
          "ResourceName": "Recipe",
          "TaxonomyId": 128,
          "TaxonomyName": "Pies & Tarts, Frozen",
          "TaxonomyTypeId": 3,
          "TaxonomyTypeName": "Dish Type"
        }
      ],
      "Riserecipe": [
        {
          "GRIN": 548934,
          "RecipeId": 75164,
          "RecipeIndustrySector": "Retail",
          "RecipeType": "Internal"
        }
      ],
      "RomanceText": "Enjoy our Key Lime Margarita Pie, but don't worry about alcohol! This Key Lime Margarita Pie's taste is from a salty pretzel crust and citrusy filling.",
      "SEOName": "key-lime-margarita-pie-75164",
      "Tips": [
        {
          "RecipeId": 75164,
          "Sequence": 10,
          "TipDescription": "Balance your food choices throughout the day so you can enjoy a serving of this sweet summer treat.",
          "TipID": 1,
          "TipName": "Size Wise"
        },
        {
          "RecipeId": 75164,
          "Sequence": 20,
          "TipDescription": "For easier serving, dip pie plate in warm water, just to rim, for 30 sec. before removing pie slices.",
          "TipID": 2,
          "TipName": "Make it Easy"
        },
        {
          "RecipeId": 75164,
          "Sequence": 30,
          "TipDescription": "For stronger lime flavor, stir in 2 Tbsp. lime zest along with the lime juice.",
          "TipID": 3,
          "TipName": "Special Extra"
        },
        {
          "RecipeId": 75164,
          "Sequence": 40,
          "TipDescription": "Garnish with lime zest before serving.",
          "TipID": 4,
          "TipName": "Special Extra"
        }
      ],
      "TotalTime": 375,
      "TradeMarkInfo": null,
      "Video": [],
      "Yield": "10 servings"
    }
  ]
}