{
  "Metadata": {
    "PageCount": 1,
    "PageNo": 0,
    "TotalCount": 0
  },
  "Recipes": [
    {
      "AdServingKeywords": "Dessert,Cream Cheese,Cool Whip,Jell-O,Philadelphia",
      "AlternateLanguageRecipes": [],
      "Assets": [
        {
          "PictureFormats": [
            {
              "rendition": "300x200",
              "url": "http://assets.kraftfoods.com/recipe_images/Red_White_Blue_Parfaits.jpg"
            }
          ],
          "author": null,
          "id": "0",
          "imageType": "LANDSCAPE",
          "mimeType": null,
          "publicationDate": null,
          "status": "1",
          "title": "Red_White_Blue_Parfaits.jpg",
          "type": "image"
        }
      ],
      "AverageRating": 5,
      "BrandId": 1,
      "Branding": null,
      "CSSSkins": null,
      "CarbCounter": null,
      "Categories": [
        {
          "CategoryID": 3,
          "CategoryName": "Cookies/Candy/Other Desserts",
          "CategoryRank": 6,
          "SubCategoryID": 369,
          "SubCategoryName": "Parfaits",
          "SubCategoryRank": 160
        },
        {
          "CategoryID": 11,
          "CategoryName": "Primary",
          "CategoryRank": 0,
          "SubCategoryID": 103,
          "SubCategoryName": "Desserts",
          "SubCategoryRank": 40
        }
      ],
      "Classifications": [],
      "ComplimentaryRecipes": null,
      "CookingMethod": null,
      "Copyright": null,
      "Courses": [
        "Desserts"
      ],
      "DietExchange": null,
      "DishDetails": [
        {
          "Text": "desserts",
          "Url": "/recipes/dessert/main.aspx"
        },
        {
          "Text": "fruity desserts",
          "Url": "/recipes/dessert/fruitydesserts.aspx"
        },
        {
          "Text": "gelatin desserts",
          "Url": "/recipes/dessert/gelatindesserts.aspx"
        },
        {
          "Text": "layered desserts",
          "Url": "/recipes/dessert/layereddesserts.aspx"
        },
        {
          "Text": "brownie recipes",
          "Url": "/recipes/dessert/brownie-recipes/main.aspx"
        },
        {
          "Text": "budget desserts",
          "Url": "/recipes/budget/budget-desserts.aspx"
        },
        {
          "Text": "no bake desserts",
          "Url": "/recipes/dessert/nobakedesserts.aspx"
        },
        {
          "Text": "pumpkin recipes",
          "Url": "/recipes/dessert/pumpkin-recipes.aspx"
        },
        {
          "Text": "chocolate cake recipes",
          "Url": "/recipes/dessert/chocolate-cake-recipes/main.aspx"
        },
        {
          "Text": "cheesecake recipes",
          "Url": "/recipes/dessert/cheesecake-center/cheesecake-recipes/main.aspx"
        },
        {
          "Text": "chocolate lovers recipes",
          "Url": "/recipes/dessert/chocolate-center/chocolateloversrecipes.aspx"
        },
        {
          "Text": "classic desserts",
          "Url": "/recipes/dessert/classicdesserts.aspx"
        },
        {
          "Text": "cookie ball recipes",
          "Url": "/recipes/dessert/cookie-ball-recipes/main.aspx"
        },
        {
          "Text": "cookie recipes",
          "Url": "/recipes/dessert/cookie-recipes/main.aspx"
        },
        {
          "Text": "cupcake recipes",
          "Url": "/recipes/dessert/cupcake-recipes/main.aspx"
        },
        {
          "Text": "healthy living desserts",
          "Url": "/healthy-living-ideas/diabetes-center/recipes/dessert-recipes.aspx"
        }
      ],
      "EndDate": "/Date(-62135575200000-0600)/",
      "HasVideo": false,
      "Ingredients": [
        {
          "FullMeasure": null,
          "FullWeight": null,
          "IngredientGridHeaders": null,
          "IngredientID": 68791,
          "IngredientName": "boiling water, divided",
          "IngredientStep": 10,
          "LanguageId": 0,
          "PostPreparation": "",
          "PrePreparation": "",
          "QuantityNum": 2,
          "QuantityText": "2",
          "QuantityUnit": "cups",
          "RecipeIngredientID": 49678,
          "TrialMeasure": null,
          "TrialWeight": null
        },
        {
          "FullMeasure": null,
          "FullWeight": null,
          "IngredientGridHeaders": null,
          "IngredientID": 68322,
          "IngredientName": "(4-serving size) JELL-O Gelatin, any red flavor",
          "IngredientStep": 20,
          "LanguageId": 0,
          "PostPreparation": "",
          "PrePreparation": "",
          "QuantityNum": 1,
          "QuantityText": "1",
          "QuantityUnit": "pkg.",
          "RecipeIngredientID": 51943,
          "TrialMeasure": null,
          "TrialWeight": null
        },
        {
          "FullMeasure": null,
          "FullWeight": null,
          "IngredientGridHeaders": null,
          "IngredientID": 68122,
          "IngredientName": "(4-serving size) JELL-O Berry Blue Flavor Gelatin",
          "IngredientStep": 30,
          "LanguageId": 0,
          "PostPreparation": "",
          "PrePreparation": "",
          "QuantityNum": 1,
          "QuantityText": "1",
          "QuantityUnit": "pkg.",
          "RecipeIngredientID": 48169,
          "TrialMeasure": null,
          "TrialWeight": null
        },
        {
          "FullMeasure": null,
          "FullWeight": null,
          "IngredientGridHeaders": null,
          "IngredientID": 68791,
          "IngredientName": "cold water, divided",
          "IngredientStep": 40,
          "LanguageId": 0,
          "PostPreparation": "",
          "PrePreparation": "",
          "QuantityNum": 2,
          "QuantityText": "2",
          "QuantityUnit": "cups",
          "RecipeIngredientID": 49679,
          "TrialMeasure": null,
          "TrialWeight": null
        },
        {
          "FullMeasure": null,
          "FullWeight": null,
          "IngredientGridHeaders": null,
          "IngredientID": 68324,
          "IngredientName": " ( 8 oz.) PHILADELPHIA Cream Cheese, softened",
          "IngredientStep": 50,
          "LanguageId": 0,
          "PostPreparation": "",
          "PrePreparation": "",
          "QuantityNum": 1,
          "QuantityText": "1",
          "QuantityUnit": "pkg.",
          "RecipeIngredientID": 57554,
          "TrialMeasure": null,
          "TrialWeight": null
        },
        {
          "FullMeasure": null,
          "FullWeight": null,
          "IngredientGridHeaders": null,
          "IngredientID": 68174,
          "IngredientName": "sugar",
          "IngredientStep": 60,
          "LanguageId": 0,
          "PostPreparation": "",
          "PrePreparation": "",
          "QuantityNum": 0.33,
          "QuantityText": "1/3",
          "QuantityUnit": "cup",
          "RecipeIngredientID": 57356,
          "TrialMeasure": null,
          "TrialWeight": null
        },
        {
          "FullMeasure": null,
          "FullWeight": null,
          "IngredientGridHeaders": null,
          "IngredientID": 67974,
          "IngredientName": "thawed COOL WHIP Whipped Topping",
          "IngredientStep": 70,
          "LanguageId": 0,
          "PostPreparation": "",
          "PrePreparation": "",
          "QuantityNum": 2,
          "QuantityText": "2",
          "QuantityUnit": "cups",
          "RecipeIngredientID": 51488,
          "TrialMeasure": null,
          "TrialWeight": null
        }
      ],
      "IsHealthyLiving": false,
      "KRLId": "503265",
      "KeyIngredients": [],
      "Keywords": "Dessert",
      "LanguageId": 1,
      "LifeStyles": [],
      "NumberOfIngredients": 7,
      "NumberOfRatings": 3,
      "NumberOfRatingsWithComments": "2",
      "NumberOfServings": "Makes 10 servings, 1 parfait each.",
      "NumberOfTrialServings": null,
      "NutritionBonus": null,
      "NutritionExchangeItemId": 0,
      "NutritionGridItems": null,
      "NutritionItems": [],
      "NutritionServingText": null,
      "PrepStepImage": null,
      "PreparationDescription": "Stir 1 cup of the boiling water into each flavor gelatin in separate bowls at least 2 minutes until completely dissolved.  Stir 1 cup of the cold water into dissolved gelatin in each bowl.  Pour each flavor of gelatin into separate 8-inch square pan.$Refrigerate 4 hours or until firm.  Cut gelatin in each pan into 1/2-inch cubes. $Beat cream cheese and sugar in medium bowl with wire whisk until well blended.  Add whipped topping; mix well.  Spoon alternating flavors of gelatin cubes into 10 parfait or dessert glasses alternately with the whipped topping.  Store leftover parfaits in refrigerator.  ",
      "PreparationPreText": null,
      "PreparationSteps": [
        {
          "Description": "Stir 1 cup of the boiling water into each flavor gelatin in separate bowls at least 2 minutes until completely dissolved.  Stir 1 cup of the cold water into dissolved gelatin in each bowl.  Pour each flavor of gelatin into separate 8-inch square pan.",
          "PreparationStepImage": {
            "PictureFormats": [],
            "author": null,
            "id": null,
            "imageType": null,
            "mimeType": null,
            "publicationDate": null,
            "status": null,
            "title": null,
            "type": null
          },
          "Sequence": 1
        },
        {
          "Description": "Refrigerate 4 hours or until firm.  Cut gelatin in each pan into 1/2-inch cubes. ",
          "PreparationStepImage": {
            "PictureFormats": [],
            "author": null,
            "id": null,
            "imageType": null,
            "mimeType": null,
            "publicationDate": null,
            "status": null,
            "title": null,
            "type": null
          },
          "Sequence": 2
        },
        {
          "Description": "Beat cream cheese and sugar in medium bowl with wire whisk until well blended.  Add whipped topping; mix well.  Spoon alternating flavors of gelatin cubes into 10 parfait or dessert glasses alternately with the whipped topping.  Store leftover parfaits in refrigerator.  ",
          "PreparationStepImage": {
            "PictureFormats": [],
            "author": null,
            "id": null,
            "imageType": null,
            "mimeType": null,
            "publicationDate": null,
            "status": null,
            "title": null,
            "type": null
          },
          "Sequence": 3
        }
      ],
      "PreparationTime": 10,
      "Promotion": null,
      "Ratings": {
        "TotalCount": 3,
        "PageCount": 10,
        "PageNo": 1,
        "Rating": [
          {
            "Comment": "This is a great recipe for the Fourth of July dessert. My children loved it!",
            "DisplayName": true,
            "RatingValue": 5,
            "SubmitDate": "/Date(1111716913000-0500)/",
            "UpdatedDate": "/Date(1111716913000-0500)/",
            "UserName": "BerryAngel"
          },
          {
            "Comment": "",
            "DisplayName": true,
            "RatingValue": 5,
            "SubmitDate": "/Date(1100663567000-0600)/",
            "UpdatedDate": "/Date(1100663567000-0600)/",
            "UserName": "DEVILCOOK"
          },
          {
            "Comment": "The Cream cheese was awful! I substituted whipped cream for it and it was delicous! a real deserving *****! With the cream cheese i would have rated it a **. Definately whipped cream!",
            "DisplayName": true,
            "RatingValue": 5,
            "SubmitDate": "/Date(1089828308000-0500)/",
            "UpdatedDate": "/Date(1089828308000-0500)/",
            "UserName": "chef_christie"
          }
        ]
      },
      "RecipeDisplayFormatId": 0,
      "RecipeId": 65083,
      "RecipeName": "Red, White & Blue Parfaits",
      "RecipeType": 0,
      "RelatedData": {
        "RelatedBrands": null,
        "RelatedProducts": null,
        "RelatedRecipes": {
          "DefaultTopCount": 5,
          "Recipe": [
            {
              "AverageRating": 4.2,
              "HasVideo": false,
              "IsHealthyLiving": false,
              "NumberOfRatings": 13,
              "PhotoName": "Uncle_Sams_Red_White_n_Blue_Parfaits.jpg",
              "PhotoUrl": "http://assets.kraftfoods.com/recipe_images/opendeploy/Uncle_Sams_Red_White_n_Blue_Parfaits.jpg",
              "RecipeId": 50176,
              "RecipeName": "Uncle Sam's Red, White & Blue Parfaits",
              "SEOName": "uncle-sams-red-white-blue-parfaits-50176",
              "ThumbnailPhoto": null
            },
            {
              "AverageRating": 4.4,
              "HasVideo": false,
              "IsHealthyLiving": false,
              "NumberOfRatings": 23,
              "PhotoName": "PHILADELPHIA_Cheesecake_Creme_Parfaits1.jpg",
              "PhotoUrl": "http://assets.kraftfoods.com/recipe_images/opendeploy/PHILADELPHIA_Cheesecake_Creme_Parfaits1.jpg",
              "RecipeId": 51000,
              "RecipeName": "PHILADELPHIA Cheesecake Creme Parfaits",
              "SEOName": "philadelphia-cheesecake-creme-parfaits-51000",
              "ThumbnailPhoto": null
            },
            {
              "AverageRating": 4,
              "HasVideo": false,
              "IsHealthyLiving": false,
              "NumberOfRatings": 2,
              "PhotoName": "57624.jpg",
              "PhotoUrl": "http://assets.kraftfoods.com/recipe_images/opendeploy/57624.jpg",
              "RecipeId": 57624,
              "RecipeName": "Star Spangled Snack",
              "SEOName": "star-spangled-snack-57624",
              "ThumbnailPhoto": null
            },
            {
              "AverageRating": 4.5,
              "HasVideo": false,
              "IsHealthyLiving": false,
              "NumberOfRatings": 4,
              "PhotoName": "",
              "PhotoUrl": "",
              "RecipeId": 180316,
              "RecipeName": "Red, White and Blue Icebox Cake",
              "SEOName": "red-white-blue-icebox-cake-180316",
              "ThumbnailPhoto": null
            },
            {
              "AverageRating": 5,
              "HasVideo": false,
              "IsHealthyLiving": false,
              "NumberOfRatings": 2,
              "PhotoName": "179799.jpg",
              "PhotoUrl": "http://assets.kraftfoods.com/recipe_images/opendeploy/179799.jpg",
              "RecipeId": 179799,
              "RecipeName": "Red, White & Blue Cupcakes",
              "SEOName": "red-white-blue-cupcakes-179799",
              "ThumbnailPhoto": null
            }
          ],
          "TotalCount": 2027
        }
      },
      "RiseIngredients": [
        {
          "IngredientCategory": "KRL",
          "IngredientId": 67974,
          "IngredientIndustrySector": "Retail",
          "IngredientType": "Inedible",
          "ProductId": "00043000009536",
          "RecipeId": 65083
        },
        {
          "IngredientCategory": "KRL",
          "IngredientId": 68122,
          "IngredientIndustrySector": "Retail",
          "IngredientType": "Inedible",
          "ProductId": "00043000200407",
          "RecipeId": 65083
        },
        {
          "IngredientCategory": "KRL",
          "IngredientId": 68174,
          "IngredientIndustrySector": "Retail",
          "IngredientType": "Inedible",
          "ProductId": null,
          "RecipeId": 65083
        },
        {
          "IngredientCategory": "KRL",
          "IngredientId": 68322,
          "IngredientIndustrySector": "Retail",
          "IngredientType": "Inedible",
          "ProductId": null,
          "RecipeId": 65083
        },
        {
          "IngredientCategory": "KRL",
          "IngredientId": 68324,
          "IngredientIndustrySector": "Retail",
          "IngredientType": "KHC",
          "ProductId": "00068100897210",
          "RecipeId": 65083
        },
        {
          "IngredientCategory": "KRL",
          "IngredientId": 68791,
          "IngredientIndustrySector": "Retail",
          "IngredientType": "Generic",
          "ProductId": null,
          "RecipeId": 65083
        }
      ],
      "RiseTaxonomy": [
        {
          "ParentTaxonomyId": 49,
          "RecipeId": 65083,
          "ResourceName": "Recipe",
          "TaxonomyId": 221,
          "TaxonomyName": "Parfaits",
          "TaxonomyTypeId": 3,
          "TaxonomyTypeName": "Dish Type"
        },
        {
          "ParentTaxonomyId": 0,
          "RecipeId": 65083,
          "ResourceName": "Recipe",
          "TaxonomyId": 300,
          "TaxonomyName": "4th of July",
          "TaxonomyTypeId": 5,
          "TaxonomyTypeName": "Occasion-Theme"
        },
        {
          "ParentTaxonomyId": 0,
          "RecipeId": 65083,
          "ResourceName": "Recipe",
          "TaxonomyId": 313,
          "TaxonomyName": "Labor Day",
          "TaxonomyTypeId": 5,
          "TaxonomyTypeName": "Occasion-Theme"
        },
        {
          "ParentTaxonomyId": 0,
          "RecipeId": 65083,
          "ResourceName": "Recipe",
          "TaxonomyId": 316,
          "TaxonomyName": "Memorial Day",
          "TaxonomyTypeId": 5,
          "TaxonomyTypeName": "Occasion-Theme"
        }
      ],
      "Riserecipe": [
        {
          "GRIN": 503265,
          "RecipeId": 65083,
          "RecipeIndustrySector": "Retail",
          "RecipeType": "Internal"
        }
      ],
      "RomanceText": null,
      "SEOName": "red-white-blue-parfaits-65083",
      "Tips": [
        {
          "RecipeId": 65083,
          "Sequence": 10,
          "TipDescription": "To serve at non-patriotic occasions, prepare as directed using your choice of JELL-O Gelatin flavors.",
          "TipID": 1,
          "TipName": "Variation"
        },
        {
          "RecipeId": 65083,
          "Sequence": 20,
          "TipDescription": "Prepare as directed, using JELL-O Sugar Free Gelatin, PHILADELPHIA Neufchatel Cheese  and COOL WHIP LITE Whipped Topping.",
          "TipID": 2,
          "TipName": "Substitute"
        }
      ],
      "TotalTime": 250,
      "TradeMarkInfo": null,
      "Video": [],
      "Yield": "Makes 10 servings, 1 parfait each."
    }
  ]
}