{
  "Metadata": {
    "PageCount": 1,
    "PageNo": 0,
    "TotalCount": 0
  },
  "Recipes": [
    {
      "AdServingKeywords": "Entree,Bacon,Beef,Cheese,Ground Beef,Meat,Onion,Pasta/Noodles,Tomato,Vegetables,Top of Stove,Easy,Dinner,Skillet Dish,All Seasons,Bulls-Eye,Oscar Mayer,Velveeta,Kid-Friendly",
      "AlternateLanguageRecipes": [],
      "Assets": [
        {
          "PictureFormats": [
            {
              "rendition": "290x194",
              "url": "http://assets.kraftfoods.com/recipe_images/opendeploy/500835_1_1_retail-f4c93620382ce48c863cb9d971a3c1d642cb45a1_291x194.jpg"
            },
            {
              "rendition": "306x204",
              "url": "http://assets.kraftfoods.com/recipe_images/opendeploy/500835_1_1_retail-f4c93620382ce48c863cb9d971a3c1d642cb45a1_306x204.jpg"
            },
            {
              "rendition": "640x428",
              "url": "http://assets.kraftfoods.com/recipe_images/opendeploy/500835_1_1_retail-f4c93620382ce48c863cb9d971a3c1d642cb45a1_642x428.jpg"
            }
          ],
          "author": "Kraft",
          "id": "2",
          "imageType": "Primary",
          "mimeType": "image/jpeg",
          "publicationDate": null,
          "status": "1",
          "title": "500835_1_1_retail-f4c93620382ce48c863cb9d971a3c1d642cb45a1",
          "type": "image"
        }
      ],
      "AverageRating": 3.8,
      "BrandId": 1,
      "Branding": null,
      "CSSSkins": null,
      "CarbCounter": null,
      "Categories": [
        {
          "CategoryID": 7,
          "CategoryName": "Pork/Beef Entrees",
          "CategoryRank": 10,
          "SubCategoryID": 454,
          "SubCategoryName": "Ground Beef: Skillets",
          "SubCategoryRank": 70
        },
        {
          "CategoryID": 11,
          "CategoryName": "Primary",
          "CategoryRank": 0,
          "SubCategoryID": 97,
          "SubCategoryName": "Entrees",
          "SubCategoryRank": 50
        },
        {
          "CategoryID": 755,
          "CategoryName": "International Flavours",
          "CategoryRank": 9,
          "SubCategoryID": 2555,
          "SubCategoryName": "Mexican / Spanish",
          "SubCategoryRank": 1
        },
        {
          "CategoryID": 756,
          "CategoryName": "Main Meals (Meat / Seafood / Egg)",
          "CategoryRank": 10,
          "SubCategoryID": 2563,
          "SubCategoryName": "Beef",
          "SubCategoryRank": 1
        }
      ],
      "Classifications": [],
      "ComplimentaryRecipes": null,
      "CookingMethod": null,
      "Copyright": null,
      "Courses": [
        "Main dishes"
      ],
      "DietExchange": null,
      "DishDetails": [
        {
          "Text": "ground beef recipes",
          "Url": "/recipes/dinner/ground-beef-recipes/main.aspx"
        },
        {
          "Text": "top 10 beef recipes",
          "Url": "/recipes/dinner/top-10/beef-recipes/main.aspx"
        },
        {
          "Text": "1 bag 5 dinners",
          "Url": "/recipes/dinner/1Bag5Dinners/1bag5dinnerschickenbeef.aspx"
        }
      ],
      "EndDate": "/Date(-62135575200000-0600)/",
      "HasVideo": false,
      "Ingredients": [
        {
          "FullMeasure": null,
          "FullWeight": null,
          "IngredientGridHeaders": null,
          "IngredientID": 68093,
          "IngredientName": "ground beef",
          "IngredientStep": 10,
          "LanguageId": 0,
          "PostPreparation": "",
          "PrePreparation": "",
          "QuantityNum": 1.5,
          "QuantityText": "1-1/2",
          "QuantityUnit": "lb.",
          "RecipeIngredientID": 19395,
          "TrialMeasure": null,
          "TrialWeight": null
        },
        {
          "FullMeasure": null,
          "FullWeight": null,
          "IngredientGridHeaders": null,
          "IngredientID": 68776,
          "IngredientName": "onion, chopped",
          "IngredientStep": 20,
          "LanguageId": 0,
          "PostPreparation": "",
          "PrePreparation": "",
          "QuantityNum": 1,
          "QuantityText": "1",
          "QuantityUnit": "small",
          "RecipeIngredientID": 18810,
          "TrialMeasure": null,
          "TrialWeight": null
        },
        {
          "FullMeasure": null,
          "FullWeight": null,
          "IngredientGridHeaders": null,
          "IngredientID": 68791,
          "IngredientName": "water",
          "IngredientStep": 30,
          "LanguageId": 0,
          "PostPreparation": "",
          "PrePreparation": "",
          "QuantityNum": 2.75,
          "QuantityText": "2-3/4",
          "QuantityUnit": "cups",
          "RecipeIngredientID": 16769,
          "TrialMeasure": null,
          "TrialWeight": null
        },
        {
          "FullMeasure": null,
          "FullWeight": null,
          "IngredientGridHeaders": null,
          "IngredientID": 67697,
          "IngredientName": "BULL'S-EYE or KRAFT Original Barbecue Sauce",
          "IngredientStep": 40,
          "LanguageId": 0,
          "PostPreparation": "",
          "PrePreparation": "",
          "QuantityNum": 0.5,
          "QuantityText": "1/2",
          "QuantityUnit": "cup",
          "RecipeIngredientID": 21544,
          "TrialMeasure": null,
          "TrialWeight": null
        },
        {
          "FullMeasure": null,
          "FullWeight": null,
          "IngredientGridHeaders": null,
          "IngredientID": 67870,
          "IngredientName": "elbow macaroni, uncooked",
          "IngredientStep": 50,
          "LanguageId": 0,
          "PostPreparation": "",
          "PrePreparation": "",
          "QuantityNum": 2,
          "QuantityText": "2",
          "QuantityUnit": "cups",
          "RecipeIngredientID": 24077,
          "TrialMeasure": null,
          "TrialWeight": null
        },
        {
          "FullMeasure": null,
          "FullWeight": null,
          "IngredientGridHeaders": null,
          "IngredientID": 67959,
          "IngredientName": "(8 oz.) VELVEETA®, cut into 1/2-inch cubes",
          "IngredientStep": 60,
          "LanguageId": 0,
          "PostPreparation": "",
          "PrePreparation": "",
          "QuantityNum": 0.5,
          "QuantityText": "1/2",
          "QuantityUnit": "lb.",
          "RecipeIngredientID": 18979,
          "TrialMeasure": null,
          "TrialWeight": null
        },
        {
          "FullMeasure": null,
          "FullWeight": null,
          "IngredientGridHeaders": null,
          "IngredientID": 69214,
          "IngredientName": "tomato, chopped",
          "IngredientStep": 70,
          "LanguageId": 0,
          "PostPreparation": "",
          "PrePreparation": "",
          "QuantityNum": 1,
          "QuantityText": "1",
          "QuantityUnit": "large",
          "RecipeIngredientID": 18981,
          "TrialMeasure": null,
          "TrialWeight": null
        },
        {
          "FullMeasure": null,
          "FullWeight": null,
          "IngredientGridHeaders": null,
          "IngredientID": 68760,
          "IngredientName": "OSCAR MAYER Real Bacon Recipe Pieces",
          "IngredientStep": 80,
          "LanguageId": 0,
          "PostPreparation": "",
          "PrePreparation": "",
          "QuantityNum": 0.5,
          "QuantityText": "1/2",
          "QuantityUnit": "cup",
          "RecipeIngredientID": 19374,
          "TrialMeasure": null,
          "TrialWeight": null
        }
      ],
      "IsHealthyLiving": false,
      "KRLId": "500835",
      "KeyIngredients": [],
      "Keywords": "Top of Stove ,Entree,Easy,Kid-Friendly,All Seasons,Pasta,Skillet Dish",
      "LanguageId": 1,
      "LifeStyles": [],
      "NumberOfIngredients": 8,
      "NumberOfRatings": 22,
      "NumberOfRatingsWithComments": "19",
      "NumberOfServings": "Makes 6 servings.",
      "NumberOfTrialServings": null,
      "NutritionBonus": null,
      "NutritionExchangeItemId": 0,
      "NutritionGridItems": null,
      "NutritionItems": [
        {
          "DisplayOrder": 10,
          "Document": null,
          "NutritionItemID": 371,
          "NutritionItemName": "Calories",
          "Predriscriptor": "",
          "Quantity": 530,
          "Unit": "          "
        },
        {
          "DisplayOrder": 20,
          "Document": null,
          "NutritionItemID": 376,
          "NutritionItemName": "Total fat",
          "Predriscriptor": "",
          "Quantity": 24,
          "Unit": "g         "
        },
        {
          "DisplayOrder": 30,
          "Document": null,
          "NutritionItemID": 377,
          "NutritionItemName": "Saturated fat",
          "Predriscriptor": "",
          "Quantity": 11,
          "Unit": "g         "
        },
        {
          "DisplayOrder": 40,
          "Document": null,
          "NutritionItemID": 379,
          "NutritionItemName": "Polyunsaturated Fat",
          "Predriscriptor": "",
          "Quantity": 0.5,
          "Unit": "g         "
        },
        {
          "DisplayOrder": 50,
          "Document": null,
          "NutritionItemID": 378,
          "NutritionItemName": "Monounsaturated Fat",
          "Predriscriptor": "",
          "Quantity": 6,
          "Unit": "g         "
        },
        {
          "DisplayOrder": 60,
          "Document": null,
          "NutritionItemID": 381,
          "NutritionItemName": "Cholesterol",
          "Predriscriptor": "",
          "Quantity": 100,
          "Unit": "mg        "
        },
        {
          "DisplayOrder": 70,
          "Document": null,
          "NutritionItemID": 389,
          "NutritionItemName": "Sodium",
          "Predriscriptor": "",
          "Quantity": 1110,
          "Unit": "mg        "
        },
        {
          "DisplayOrder": 80,
          "Document": null,
          "NutritionItemID": 373,
          "NutritionItemName": "Carbohydrate",
          "Predriscriptor": "",
          "Quantity": 43,
          "Unit": "g         "
        },
        {
          "DisplayOrder": 90,
          "Document": null,
          "NutritionItemID": 374,
          "NutritionItemName": "Dietary fiber",
          "Predriscriptor": "",
          "Quantity": 2,
          "Unit": "g         "
        },
        {
          "DisplayOrder": 100,
          "Document": null,
          "NutritionItemID": 375,
          "NutritionItemName": "Sugars",
          "Predriscriptor": "",
          "Quantity": 14,
          "Unit": "g         "
        },
        {
          "DisplayOrder": 110,
          "Document": null,
          "NutritionItemID": 372,
          "NutritionItemName": "Protein",
          "Predriscriptor": "",
          "Quantity": 35,
          "Unit": "g         "
        },
        {
          "DisplayOrder": 120,
          "Document": null,
          "NutritionItemID": 382,
          "NutritionItemName": "Vitamin A",
          "Predriscriptor": "",
          "Quantity": 25,
          "Unit": "%DV       "
        },
        {
          "DisplayOrder": 130,
          "Document": null,
          "NutritionItemID": 383,
          "NutritionItemName": "Vitamin C",
          "Predriscriptor": "",
          "Quantity": 2,
          "Unit": "%DV       "
        },
        {
          "DisplayOrder": 140,
          "Document": null,
          "NutritionItemID": 386,
          "NutritionItemName": "Calcium",
          "Predriscriptor": "",
          "Quantity": 15,
          "Unit": "%DV       "
        },
        {
          "DisplayOrder": 150,
          "Document": null,
          "NutritionItemID": 387,
          "NutritionItemName": "Iron",
          "Predriscriptor": "",
          "Quantity": 25,
          "Unit": "%DV       "
        }
      ],
      "NutritionServingText": null,
      "PrepStepImage": null,
      "PreparationDescription": "Brown meat with onions in large skillet on medium heat; drain.  Stir in water and barbecue sauce.  Bring to boil.  Add macaroni; cook 8 to 10 min. or until tender, stirring occasionally.$Stir in VELVEETA; cook until VELVEETA is completely melted and mixture is well blended, stirring occasionally.$Top with tomatoes and bacon.",
      "PreparationPreText": null,
      "PreparationSteps": [
        {
          "Description": "Brown meat with onions in large skillet on medium heat; drain.  Stir in water and barbecue sauce.  Bring to boil.  Add macaroni; cook 8 to 10 min. or until tender, stirring occasionally.",
          "PreparationStepImage": {
            "PictureFormats": [],
            "author": null,
            "id": null,
            "imageType": null,
            "mimeType": null,
            "publicationDate": null,
            "status": null,
            "title": null,
            "type": null
          },
          "Sequence": 1
        },
        {
          "Description": "Stir in VELVEETA; cook until VELVEETA is completely melted and mixture is well blended, stirring occasionally.",
          "PreparationStepImage": {
            "PictureFormats": [],
            "author": null,
            "id": null,
            "imageType": null,
            "mimeType": null,
            "publicationDate": null,
            "status": null,
            "title": null,
            "type": null
          },
          "Sequence": 2
        },
        {
          "Description": "Top with tomatoes and bacon.",
          "PreparationStepImage": {
            "PictureFormats": [],
            "author": null,
            "id": null,
            "imageType": null,
            "mimeType": null,
            "publicationDate": null,
            "status": null,
            "title": null,
            "type": null
          },
          "Sequence": 3
        }
      ],
      "PreparationTime": 10,
      "Promotion": null,
      "Ratings": {
        "TotalCount": 22,
        "PageCount": 10,
        "PageNo": 1,
        "Rating": [
          {
            "Comment": "Great recipe to get that backyard bbq taste without pulling out the grill! Great if its hot and you're inside with the A/C on. Its great in mid-winter when you're wishing it was the middle of summer. Quick and easy! ",
            "DisplayName": true,
            "RatingValue": 5,
            "SubmitDate": "/Date(1340919070000-0500)/",
            "UpdatedDate": "/Date(1340919070000-0500)/",
            "UserName": "kschleisman"
          },
          {
            "Comment": "It was OK.  My husband liked it.  That's the only reason I would make it again.  I thought it was kind of bland.  It was missing something.  It was very quick and easy, however, and made a lot so if I never need a lot of filling food quick, this is what I'll be making.",
            "DisplayName": true,
            "RatingValue": 2,
            "SubmitDate": "/Date(1285365262000-0500)/",
            "UpdatedDate": "/Date(1285365262000-0500)/",
            "UserName": "Lacie Taylor"
          },
          {
            "Comment": "",
            "DisplayName": true,
            "RatingValue": 4,
            "SubmitDate": "/Date(1275005681000-0500)/",
            "UpdatedDate": "/Date(1275005681000-0500)/",
            "UserName": "butterfly12345"
          },
          {
            "Comment": "Kids didnt seem to like the taste. I thought it was alright. A good quick recipe.",
            "DisplayName": true,
            "RatingValue": 3,
            "SubmitDate": "/Date(1254888708000-0500)/",
            "UpdatedDate": "/Date(1254888708000-0500)/",
            "UserName": "Jarholly"
          },
          {
            "Comment": "I used shell macaroni, since I had it on hand instead, and I like it better than elbow anyway. The home-grown veggies I used throughout, in particular the tomatoes, really put this dish over the top! So yummy!",
            "DisplayName": true,
            "RatingValue": 5,
            "SubmitDate": "/Date(1250136838000-0500)/",
            "UpdatedDate": "/Date(1250136838000-0500)/",
            "UserName": "aemoutos"
          },
          {
            "Comment": "Substituted a canned of diced tomatoes for the tomato, and left out bacon if not readily available.",
            "DisplayName": true,
            "RatingValue": 5,
            "SubmitDate": "/Date(1226087405000-0600)/",
            "UpdatedDate": "/Date(1226087405000-0600)/",
            "UserName": "BandMom2001"
          },
          {
            "Comment": "It was very good and easy to make.",
            "DisplayName": false,
            "RatingValue": 4,
            "SubmitDate": "/Date(1196952731000-0600)/",
            "UpdatedDate": "/Date(1196952731000-0600)/",
            "UserName": "mommy dog "
          },
          {
            "Comment": "Really too rich and think to be enjoyable. Even my husband who eats just about anything said it was too much for him. ",
            "DisplayName": true,
            "RatingValue": 1,
            "SubmitDate": "/Date(1188929455000-0500)/",
            "UpdatedDate": "/Date(1188929455000-0500)/",
            "UserName": "SK65181"
          },
          {
            "Comment": "Left out tomatoes due to very picky eater but he loved this pasta recipe and finished it the next day. Love the ease of this and that it is tasy.",
            "DisplayName": true,
            "RatingValue": 4,
            "SubmitDate": "/Date(1188430369000-0500)/",
            "UpdatedDate": "/Date(1188430369000-0500)/",
            "UserName": "momkapo"
          },
          {
            "Comment": "Way better than what I expected. I used the shell macaroni that comes with the cheese sauce instead of the elbow macaroni and velveeta. Did everything else, except for the bacon on the top. Will try that next time. Very yummy and quick.",
            "DisplayName": true,
            "RatingValue": 4,
            "SubmitDate": "/Date(1182296305000-0500)/",
            "UpdatedDate": "/Date(1182296305000-0500)/",
            "UserName": "metaljess"
          }
        ]
      },
      "RecipeDisplayFormatId": 0,
      "RecipeId": 69012,
      "RecipeName": "VELVEETA BBQ Bacon Cheeseburger Mac",
      "RecipeType": 0,
      "RelatedData": {
        "RelatedBrands": null,
        "RelatedProducts": null,
        "RelatedRecipes": {
          "DefaultTopCount": 5,
          "Recipe": [
            {
              "AverageRating": 4.1,
              "HasVideo": false,
              "IsHealthyLiving": false,
              "NumberOfRatings": 33,
              "PhotoName": "92267-Velveeta-Shells-Cheese-Cheeseburger-Mac-3851.jpg",
              "PhotoUrl": "http://assets.kraftfoods.com/recipe_images/opendeploy/92267-Velveeta-Shells-Cheese-Cheeseburger-Mac-3851.jpg",
              "RecipeId": 92267,
              "RecipeName": "VELVEETA Shells & Cheese Cheeseburger Mac",
              "SEOName": "velveeta-shells-cheese-cheeseburger-mac-92267",
              "ThumbnailPhoto": null
            },
            {
              "AverageRating": 4.2,
              "HasVideo": false,
              "IsHealthyLiving": false,
              "NumberOfRatings": 139,
              "PhotoName": "53417.jpg",
              "PhotoUrl": "http://assets.kraftfoods.com/recipe_images/opendeploy/53417.jpg",
              "RecipeId": 53417,
              "RecipeName": "Cheesy Cheeseburger Mac",
              "SEOName": "cheesy-cheeseburger-mac-53417",
              "ThumbnailPhoto": null
            },
            {
              "AverageRating": 4.3,
              "HasVideo": false,
              "IsHealthyLiving": false,
              "NumberOfRatings": 3,
              "PhotoName": "120230.jpg",
              "PhotoUrl": "http://assets.kraftfoods.com/recipe_images/opendeploy/120230.jpg",
              "RecipeId": 120230,
              "RecipeName": "Bacon-Cheeseburger Mac",
              "SEOName": "bacon-cheeseburger-mac-120230",
              "ThumbnailPhoto": null
            },
            {
              "AverageRating": 4.2,
              "HasVideo": true,
              "IsHealthyLiving": false,
              "NumberOfRatings": 1102,
              "PhotoName": "94445.jpg",
              "PhotoUrl": "http://assets.kraftfoods.com/recipe_images/opendeploy/94445.jpg",
              "RecipeId": 94445,
              "RecipeName": "Bacon Cheeseburger Roll-Up",
              "SEOName": "bacon-cheeseburger-roll-up-94445",
              "ThumbnailPhoto": null
            },
            {
              "AverageRating": 4.2,
              "HasVideo": false,
              "IsHealthyLiving": false,
              "NumberOfRatings": 86,
              "PhotoName": "All-American-BBQ-Bacon-Cheeseburgers-1743.jpg",
              "PhotoUrl": "http://assets.kraftfoods.com/recipe_images/opendeploy/All-American-BBQ-Bacon-Cheeseburgers-1743.jpg",
              "RecipeId": 57447,
              "RecipeName": "All-American BBQ-Bacon Cheeseburgers",
              "SEOName": "all-american-bbq-bacon-cheeseburgers-57447",
              "ThumbnailPhoto": null
            }
          ],
          "TotalCount": 1528
        }
      },
      "RiseIngredients": [
        {
          "IngredientCategory": "KRL",
          "IngredientId": 67697,
          "IngredientIndustrySector": "Retail",
          "IngredientType": "KHC",
          "ProductId": "00019582411104",
          "RecipeId": 69012
        },
        {
          "IngredientCategory": "KRL",
          "IngredientId": 67870,
          "IngredientIndustrySector": "Retail",
          "IngredientType": "Inedible",
          "ProductId": null,
          "RecipeId": 69012
        },
        {
          "IngredientCategory": "KRL",
          "IngredientId": 67959,
          "IngredientIndustrySector": "Retail",
          "IngredientType": "KHC",
          "ProductId": "00068100018578",
          "RecipeId": 69012
        },
        {
          "IngredientCategory": "KRL",
          "IngredientId": 68093,
          "IngredientIndustrySector": "Retail",
          "IngredientType": "Inedible",
          "ProductId": null,
          "RecipeId": 69012
        },
        {
          "IngredientCategory": "KRL",
          "IngredientId": 68760,
          "IngredientIndustrySector": "Retail",
          "IngredientType": "Inedible",
          "ProductId": "00044700075692",
          "RecipeId": 69012
        },
        {
          "IngredientCategory": "KRL",
          "IngredientId": 68776,
          "IngredientIndustrySector": "Retail",
          "IngredientType": "Inedible",
          "ProductId": null,
          "RecipeId": 69012
        },
        {
          "IngredientCategory": "KRL",
          "IngredientId": 68791,
          "IngredientIndustrySector": "Retail",
          "IngredientType": "Generic",
          "ProductId": null,
          "RecipeId": 69012
        },
        {
          "IngredientCategory": "KRL",
          "IngredientId": 69214,
          "IngredientIndustrySector": "Retail",
          "IngredientType": "Inedible",
          "ProductId": null,
          "RecipeId": 69012
        }
      ],
      "RiseTaxonomy": [
        {
          "ParentTaxonomyId": 0,
          "RecipeId": 69012,
          "ResourceName": "Recipe",
          "TaxonomyId": 309,
          "TaxonomyName": "Halloween",
          "TaxonomyTypeId": 5,
          "TaxonomyTypeName": "Occasion-Theme"
        }
      ],
      "Riserecipe": [
        {
          "GRIN": 500835,
          "RecipeId": 69012,
          "RecipeIndustrySector": "Retail",
          "RecipeType": "Internal"
        }
      ],
      "RomanceText": "This beefed-up mac and cheese has it all—ground beef, tomatoes, bacon bits and BBQ sauce. It's just like a classic diner cheeseburger—without the bun.",
      "SEOName": "velveeta-bbq-bacon-cheeseburger-mac-69012",
      "Tips": [
        {
          "RecipeId": 69012,
          "Sequence": 10,
          "TipDescription": "Serve with a crisp green vegetable, such as hot steamed broccoli.",
          "TipID": 1,
          "TipName": "Serving Suggestion"
        },
        {
          "RecipeId": 69012,
          "Sequence": 20,
          "TipDescription": "Substitute rotini for the elbow macaroni.",
          "TipID": 2,
          "TipName": "Substitute"
        }
      ],
      "TotalTime": 25,
      "TradeMarkInfo": null,
      "Video": [],
      "Yield": "Makes 6 servings."
    }
  ]
}