{
  "Metadata": {
    "PageCount": 1,
    "PageNo": 0,
    "TotalCount": 0
  },
  "Recipes": [
    {
      "AdServingKeywords": "Canning/Preserving,Nutrition and Well-Being,Sure.Jell",
      "AlternateLanguageRecipes": [],
      "Assets": [],
      "AverageRating": 4.3,
      "BrandId": 1,
      "Branding": null,
      "CSSSkins": null,
      "CarbCounter": null,
      "Categories": [
        {
          "CategoryID": 11,
          "CategoryName": "Primary",
          "CategoryRank": 0,
          "SubCategoryID": 180,
          "SubCategoryName": "Jams, Jellies & Preserves",
          "SubCategoryRank": 60
        },
        {
          "CategoryID": 13,
          "CategoryName": "Jams/Jellies/Preserves",
          "CategoryRank": 8,
          "SubCategoryID": 175,
          "SubCategoryName": "Apple, Peach, Pear & Other",
          "SubCategoryRank": 10
        }
      ],
      "Classifications": [
        {
          "ClassficationId": 9,
          "ClassificationName": "Low fat"
        },
        {
          "ClassficationId": 14,
          "ClassificationName": "Generally Nutritious"
        },
        {
          "ClassficationId": 22,
          "ClassificationName": "Low sodium"
        }
      ],
      "ComplimentaryRecipes": null,
      "CookingMethod": null,
      "Copyright": null,
      "Courses": [],
      "DietExchange": "",
      "DishDetails": [],
      "EndDate": "/Date(-62135575200000-0600)/",
      "HasVideo": false,
      "Ingredients": [
        {
          "FullMeasure": null,
          "FullWeight": null,
          "IngredientGridHeaders": null,
          "IngredientID": 68599,
          "IngredientName": "prepared juice (buy about 6-1/2 lb. fully ripe plums)",
          "IngredientStep": 10,
          "LanguageId": 0,
          "PostPreparation": "",
          "PrePreparation": "",
          "QuantityNum": 6,
          "QuantityText": "6",
          "QuantityUnit": "cups",
          "RecipeIngredientID": 163807,
          "TrialMeasure": null,
          "TrialWeight": null
        },
        {
          "FullMeasure": null,
          "FullWeight": null,
          "IngredientGridHeaders": null,
          "IngredientID": 68791,
          "IngredientName": "water",
          "IngredientStep": 20,
          "LanguageId": 0,
          "PostPreparation": "",
          "PrePreparation": "",
          "QuantityNum": 1.5,
          "QuantityText": "1-1/2",
          "QuantityUnit": "cups",
          "RecipeIngredientID": 162048,
          "TrialMeasure": null,
          "TrialWeight": null
        },
        {
          "FullMeasure": null,
          "FullWeight": null,
          "IngredientGridHeaders": null,
          "IngredientID": 68174,
          "IngredientName": "sugar, measured into separate bowl, divided",
          "IngredientStep": 30,
          "LanguageId": 0,
          "PostPreparation": "",
          "PrePreparation": "",
          "QuantityNum": 3,
          "QuantityText": "3",
          "QuantityUnit": "cups",
          "RecipeIngredientID": 158364,
          "TrialMeasure": null,
          "TrialWeight": null
        },
        {
          "FullMeasure": null,
          "FullWeight": null,
          "IngredientGridHeaders": null,
          "IngredientID": 68546,
          "IngredientName": "SURE-JELL For Less or No Sugar Needed Recipes Premium Fruit Pectin",
          "IngredientStep": 40,
          "LanguageId": 0,
          "PostPreparation": "",
          "PrePreparation": "",
          "QuantityNum": 1,
          "QuantityText": "1",
          "QuantityUnit": "box",
          "RecipeIngredientID": 161287,
          "TrialMeasure": null,
          "TrialWeight": null
        },
        {
          "FullMeasure": null,
          "FullWeight": null,
          "IngredientGridHeaders": null,
          "IngredientID": 68319,
          "IngredientName": "butter or margarine ",
          "IngredientStep": 50,
          "LanguageId": 0,
          "PostPreparation": "",
          "PrePreparation": "",
          "QuantityNum": 0.5,
          "QuantityText": "1/2",
          "QuantityUnit": "tsp.",
          "RecipeIngredientID": 156860,
          "TrialMeasure": null,
          "TrialWeight": null
        }
      ],
      "IsHealthyLiving": true,
      "KRLId": "516788",
      "KeyIngredients": [],
      "Keywords": "Canning/Preserving,Nutrition and Well-Being",
      "LanguageId": 1,
      "LifeStyles": [
        "Low fat",
        "Generally Nutritious",
        "Low sodium"
      ],
      "NumberOfIngredients": 5,
      "NumberOfRatings": 3,
      "NumberOfRatingsWithComments": "3",
      "NumberOfServings": "Makes about 7 (1-cup) jars or 112 servings, 1 Tbsp. each.",
      "NumberOfTrialServings": null,
      "NutritionBonus": "Use this fat-free lower sugar jelly in place of a fat-based spread on your toast or bagel.",
      "NutritionExchangeItemId": 1,
      "NutritionGridItems": null,
      "NutritionItems": [
        {
          "DisplayOrder": 10,
          "Document": null,
          "NutritionItemID": 371,
          "NutritionItemName": "Calories",
          "Predriscriptor": "",
          "Quantity": 25,
          "Unit": "          "
        },
        {
          "DisplayOrder": 20,
          "Document": null,
          "NutritionItemID": 376,
          "NutritionItemName": "Total fat",
          "Predriscriptor": "",
          "Quantity": 0,
          "Unit": "g         "
        },
        {
          "DisplayOrder": 30,
          "Document": null,
          "NutritionItemID": 377,
          "NutritionItemName": "Saturated fat",
          "Predriscriptor": "",
          "Quantity": 0,
          "Unit": "g         "
        },
        {
          "DisplayOrder": 40,
          "Document": null,
          "NutritionItemID": 379,
          "NutritionItemName": "Polyunsaturated Fat",
          "Predriscriptor": "",
          "Quantity": 0,
          "Unit": "g         "
        },
        {
          "DisplayOrder": 50,
          "Document": null,
          "NutritionItemID": 378,
          "NutritionItemName": "Monounsaturated Fat",
          "Predriscriptor": "",
          "Quantity": 0,
          "Unit": "g         "
        },
        {
          "DisplayOrder": 60,
          "Document": null,
          "NutritionItemID": 381,
          "NutritionItemName": "Cholesterol",
          "Predriscriptor": "",
          "Quantity": 0,
          "Unit": "mg        "
        },
        {
          "DisplayOrder": 70,
          "Document": null,
          "NutritionItemID": 389,
          "NutritionItemName": "Sodium",
          "Predriscriptor": "",
          "Quantity": 5,
          "Unit": "mg        "
        },
        {
          "DisplayOrder": 80,
          "Document": null,
          "NutritionItemID": 373,
          "NutritionItemName": "Carbohydrate",
          "Predriscriptor": "",
          "Quantity": 7,
          "Unit": "g         "
        },
        {
          "DisplayOrder": 90,
          "Document": null,
          "NutritionItemID": 374,
          "NutritionItemName": "Dietary fiber",
          "Predriscriptor": "",
          "Quantity": 0,
          "Unit": "g         "
        },
        {
          "DisplayOrder": 100,
          "Document": null,
          "NutritionItemID": 375,
          "NutritionItemName": "Sugars",
          "Predriscriptor": "",
          "Quantity": 7,
          "Unit": "g         "
        },
        {
          "DisplayOrder": 110,
          "Document": null,
          "NutritionItemID": 372,
          "NutritionItemName": "Protein",
          "Predriscriptor": "",
          "Quantity": 0,
          "Unit": "g         "
        },
        {
          "DisplayOrder": 120,
          "Document": null,
          "NutritionItemID": 382,
          "NutritionItemName": "Vitamin A",
          "Predriscriptor": "",
          "Quantity": 0,
          "Unit": "%DV       "
        },
        {
          "DisplayOrder": 130,
          "Document": null,
          "NutritionItemID": 383,
          "NutritionItemName": "Vitamin C",
          "Predriscriptor": "",
          "Quantity": 2,
          "Unit": "%DV       "
        },
        {
          "DisplayOrder": 140,
          "Document": null,
          "NutritionItemID": 386,
          "NutritionItemName": "Calcium",
          "Predriscriptor": "",
          "Quantity": 0,
          "Unit": "%DV       "
        },
        {
          "DisplayOrder": 150,
          "Document": null,
          "NutritionItemID": 387,
          "NutritionItemName": "Iron",
          "Predriscriptor": "",
          "Quantity": 0,
          "Unit": "%DV       "
        }
      ],
      "NutritionServingText": null,
      "PrepStepImage": null,
      "PreparationDescription": "Bring boiling-water canner, half full with water, to simmer.  Wash jars and screw bands in hot soapy water; rinse with warm water.  Pour boiling water over flat lids in saucepan off the heat.  Let stand in hot water until ready to use.  Drain well before filling.$Pit unpeeled plums.  Finely chop or grind fruit; place in large saucepan.  Add water.  Bring to boil.  Reduce heat to low; cover and simmer 5 min., stirring occasionally.  Place 3 layers of damp cheesecloth or jelly bag in large bowl.  Pour prepared fruit into cheesecloth.  Tie cheesecloth closed; hang and let drip into bowl until dripping stops.  Press gently.  Measure exactly 6 cups prepared juice into 6- or 8-qt. saucepot.  (If necessary, add up to 1/2 cup water for exact measure.)$Mix 1/4 cup of the sugar and pectin in small bowl.  Add to juice in saucepot; mix well.  Add butter to reduce foaming.  Bring mixture to full rolling boil (a boil that doesn't stop bubbling when stirred) on high heat, stirring constantly.  Stir in remaining 2-3/4 cups sugar.  Return to full rolling boil and boil exactly 1 min., stirring constantly.  Remove from heat.  Skim off any foam with metal spoon.$Ladle immediately into prepared jars, filling to within 1/4 inch of tops.  Wipe jar rims and threads.  Cover with two-piece lids.  Screw bands tightly.  Place jars on elevated rack in canner.  Lower rack into canner.  (Water must cover jars by 1 to 2 inches.  Add boiling water, if necessary.)  Cover; bring water to gentle boil. Process 5 min.  Remove jars and place upright on towel to cool completely.  After jars cool, check seals by pressing middle of lid with finger.  (If lids spring back, lids are not sealed and refrigeration is necessary.)",
      "PreparationPreText": null,
      "PreparationSteps": [
        {
          "Description": "Bring boiling-water canner, half full with water, to simmer.  Wash jars and screw bands in hot soapy water; rinse with warm water.  Pour boiling water over flat lids in saucepan off the heat.  Let stand in hot water until ready to use.  Drain well before filling.",
          "PreparationStepImage": {
            "PictureFormats": [],
            "author": null,
            "id": null,
            "imageType": null,
            "mimeType": null,
            "publicationDate": null,
            "status": null,
            "title": null,
            "type": null
          },
          "Sequence": 1
        },
        {
          "Description": "Pit unpeeled plums.  Finely chop or grind fruit; place in large saucepan.  Add water.  Bring to boil.  Reduce heat to low; cover and simmer 5 min., stirring occasionally.  Place 3 layers of damp cheesecloth or jelly bag in large bowl.  Pour prepared fruit into cheesecloth.  Tie cheesecloth closed; hang and let drip into bowl until dripping stops.  Press gently.  Measure exactly 6 cups prepared juice into 6- or 8-qt. saucepot.  (If necessary, add up to 1/2 cup water for exact measure.)",
          "PreparationStepImage": {
            "PictureFormats": [],
            "author": null,
            "id": null,
            "imageType": null,
            "mimeType": null,
            "publicationDate": null,
            "status": null,
            "title": null,
            "type": null
          },
          "Sequence": 2
        },
        {
          "Description": "Mix 1/4 cup of the sugar and pectin in small bowl.  Add to juice in saucepot; mix well.  Add butter to reduce foaming.  Bring mixture to full rolling boil (a boil that doesn't stop bubbling when stirred) on high heat, stirring constantly.  Stir in remaining 2-3/4 cups sugar.  Return to full rolling boil and boil exactly 1 min., stirring constantly.  Remove from heat.  Skim off any foam with metal spoon.",
          "PreparationStepImage": {
            "PictureFormats": [],
            "author": null,
            "id": null,
            "imageType": null,
            "mimeType": null,
            "publicationDate": null,
            "status": null,
            "title": null,
            "type": null
          },
          "Sequence": 3
        },
        {
          "Description": "Ladle immediately into prepared jars, filling to within 1/4 inch of tops.  Wipe jar rims and threads.  Cover with two-piece lids.  Screw bands tightly.  Place jars on elevated rack in canner.  Lower rack into canner.  (Water must cover jars by 1 to 2 inches.  Add boiling water, if necessary.)  Cover; bring water to gentle boil. Process 5 min.  Remove jars and place upright on towel to cool completely.  After jars cool, check seals by pressing middle of lid with finger.  (If lids spring back, lids are not sealed and refrigeration is necessary.)",
          "PreparationStepImage": {
            "PictureFormats": [],
            "author": null,
            "id": null,
            "imageType": null,
            "mimeType": null,
            "publicationDate": null,
            "status": null,
            "title": null,
            "type": null
          },
          "Sequence": 4
        }
      ],
      "PreparationTime": 60,
      "Promotion": {
        "IngredientElevation": "",
        "PromoAltText": "",
        "PromoImage": "",
        "PromoLink": "",
        "SponsorshipAltText": "",
        "SponsorshipLink": "",
        "SponsorshipLogo": "",
        "UpperRightImage": ""
      },
      "Ratings": {
        "TotalCount": 3,
        "PageCount": 10,
        "PageNo": 1,
        "Rating": [
          {
            "Comment": "I just made this VERY EASY recipe and am so happy ... it came out a little loose but set enough to spread.  Love the fact that it is low sugar.  VERY TASTY too.",
            "DisplayName": true,
            "RatingValue": 5,
            "SubmitDate": "/Date(1377828880000-0500)/",
            "UpdatedDate": "/Date(1377828880000-0500)/",
            "UserName": "Georgia8291308"
          },
          {
            "Comment": "Love this jelly but I make one addition.  My mom taught me years ago that plum jelly tended to take a very long time (sometimes weeks) to set...UNLESS you substituted about 1/4 cup apple juice for the plum juice.  It sets beautifully then & the taste stays all plum.  We use the small plums from our very very old plum trees in a grove of aging trees & undergrowth.",
            "DisplayName": true,
            "RatingValue": 4,
            "SubmitDate": "/Date(1126056642000-0500)/",
            "UpdatedDate": "/Date(1126056642000-0500)/",
            "UserName": "GeeGee70"
          },
          {
            "Comment": "The taste is great, but the jelly did not jell like a recipe with more sugar would.  I guess that is ok as long as it is safe to eat.  It sealed just fine and is pretty, just not solidlly jelled",
            "DisplayName": true,
            "RatingValue": 4,
            "SubmitDate": "/Date(1088805620000-0500)/",
            "UpdatedDate": "/Date(1088805630000-0500)/",
            "UserName": "annetteconfetti"
          }
        ]
      },
      "RecipeDisplayFormatId": 0,
      "RecipeId": 60549,
      "RecipeName": "SURE.JELL® for Less or No Sugar Needed Recipes - Plum Jelly",
      "RecipeType": 0,
      "RelatedData": {
        "RelatedBrands": null,
        "RelatedProducts": null,
        "RelatedRecipes": {
          "DefaultTopCount": 5,
          "Recipe": [
            {
              "AverageRating": 4,
              "HasVideo": false,
              "IsHealthyLiving": true,
              "NumberOfRatings": 6,
              "PhotoName": "SURE_JELL_for_Lower_Sugar_Recipes_Red_Raspberry_Freezer_Jam.jpg",
              "PhotoUrl": "http://assets.kraftfoods.com/recipe_images/opendeploy/SURE_JELL_for_Lower_Sugar_Recipes_Red_Raspberry_Freezer_Jam.jpg",
              "RecipeId": 57883,
              "RecipeName": "SURE.JELL for Less or No Sugar Needed Recipes - Red Raspberry Freezer Jam",
              "SEOName": "surejell-for-less-no-sugar-needed-recipes-red-raspberry-freezer-jam-57883",
              "ThumbnailPhoto": null
            },
            {
              "AverageRating": 4,
              "HasVideo": false,
              "IsHealthyLiving": true,
              "NumberOfRatings": 3,
              "PhotoName": "50810.jpg",
              "PhotoUrl": "http://assets.kraftfoods.com/recipe_images/opendeploy/50810.jpg",
              "RecipeId": 50810,
              "RecipeName": "SURE.JELL for Less or No Sugar Needed Recipes - Blackberry Freezer Jam",
              "SEOName": "surejell-for-less-no-sugar-needed-recipes-blackberry-freezer-jam-50810",
              "ThumbnailPhoto": null
            },
            {
              "AverageRating": 5,
              "HasVideo": false,
              "IsHealthyLiving": true,
              "NumberOfRatings": 1,
              "PhotoName": "60575.jpg",
              "PhotoUrl": "http://assets.kraftfoods.com/recipe_images/opendeploy/60575.jpg",
              "RecipeId": 60575,
              "RecipeName": "Mixed Berry Freezer Jam",
              "SEOName": "mixed-berry-freezer-jam-60575",
              "ThumbnailPhoto": null
            },
            {
              "AverageRating": 4.7,
              "HasVideo": false,
              "IsHealthyLiving": false,
              "NumberOfRatings": 11,
              "PhotoName": "52036.jpg",
              "PhotoUrl": "http://assets.kraftfoods.com/recipe_images/opendeploy/52036.jpg",
              "RecipeId": 52036,
              "RecipeName": "SURE.JELL Plum Jam",
              "SEOName": "surejell-plum-jam-52036",
              "ThumbnailPhoto": null
            },
            {
              "AverageRating": 4,
              "HasVideo": false,
              "IsHealthyLiving": false,
              "NumberOfRatings": 1,
              "PhotoName": "SUREJELL_Herbed_Onion_Jelly.jpg",
              "PhotoUrl": "http://assets.kraftfoods.com/recipe_images/opendeploy/SUREJELL_Herbed_Onion_Jelly.jpg",
              "RecipeId": 52885,
              "RecipeName": "SURE.JELL® Herbed Onion Jelly",
              "SEOName": "surejell-herbed-onion-jelly-52885",
              "ThumbnailPhoto": null
            }
          ],
          "TotalCount": 2857
        }
      },
      "RiseIngredients": [
        {
          "IngredientCategory": "KRL",
          "IngredientId": 68174,
          "IngredientIndustrySector": "Retail",
          "IngredientType": "Inedible",
          "ProductId": null,
          "RecipeId": 60549
        },
        {
          "IngredientCategory": "KRL",
          "IngredientId": 68319,
          "IngredientIndustrySector": "Retail",
          "IngredientType": "Inedible",
          "ProductId": null,
          "RecipeId": 60549
        },
        {
          "IngredientCategory": "KRL",
          "IngredientId": 68546,
          "IngredientIndustrySector": "Retail",
          "IngredientType": "KHC",
          "ProductId": "00043000293225",
          "RecipeId": 60549
        },
        {
          "IngredientCategory": "KRL",
          "IngredientId": 68599,
          "IngredientIndustrySector": "Retail",
          "IngredientType": "KHC",
          "ProductId": null,
          "RecipeId": 60549
        },
        {
          "IngredientCategory": "KRL",
          "IngredientId": 68791,
          "IngredientIndustrySector": "Retail",
          "IngredientType": "Generic",
          "ProductId": null,
          "RecipeId": 60549
        }
      ],
      "RiseTaxonomy": [
        {
          "ParentTaxonomyId": 40,
          "RecipeId": 60549,
          "ResourceName": "Recipe",
          "TaxonomyId": 112,
          "TaxonomyName": "Apple, Peach, Pear & Other",
          "TaxonomyTypeId": 3,
          "TaxonomyTypeName": "Dish Type"
        }
      ],
      "Riserecipe": [
        {
          "GRIN": 516788,
          "RecipeId": 60549,
          "RecipeIndustrySector": "Retail",
          "RecipeType": "Internal"
        }
      ],
      "RomanceText": "Naturally sweet plums are plum terrific in this SURE.JELL for Less or No Sugar Needed Recipes - Plum Jelly.",
      "SEOName": "surejell-for-less-no-sugar-needed-recipes-plum-jelly-60549",
      "Tips": [
        {
          "RecipeId": 60549,
          "Sequence": 10,
          "TipDescription": "To get exact level cup measure of sugar, spoon sugar into dry metal or plastic measuring cup, then level by scraping excess sugar from top of cup with a straight-edged knife.",
          "TipID": 1,
          "TipName": "How to Measure Precisely"
        },
        {
          "RecipeId": 60549,
          "Sequence": 20,
          "TipDescription": "At altitudes above 1,000 feet, increase processing time as indicated: 1,001 to 3,000 feet-increase processing time by 5 min.; 3,001 to 6,000 feet-increase processing time by 10 min.; 6,001 to 8,000 feet-increase processing time by 15 min.; 8,001 to 10,000 feet-increase processing time by 20 min.",
          "TipID": 2,
          "TipName": "Altitude Chart"
        },
        {
          "RecipeId": 60549,
          "Sequence": 30,
          "TipDescription": "Every once in a while, you may find that your jam does not set the way you expected.  If your efforts resulted in a runny batch, try our <a href=\" http://www.kraftrecipes.com/recipes/remake-directions-for-surejell-for-less-no-sugar-needed-recipes-cooked-jam-jelly-108047.aspx\">Remake Directions</a> to improve your finished jam.  If your jam still doesn't set, you can always use it as a glaze or syrup.",
          "TipID": 5747,
          "TipName": "Jam or Jelly Didn't Set?"
        }
      ],
      "TotalTime": 60,
      "TradeMarkInfo": null,
      "Video": [],
      "Yield": "Makes about 7 (1-cup) jars or 112 servings, 1 Tbsp. each."
    }
  ]
}