{
  "Metadata": {
    "PageCount": 1,
    "PageNo": 0,
    "TotalCount": 0
  },
  "Recipes": [
    {
      "AdServingKeywords": "Top of Stove ,Entree,Italian,Easy,Cheese,Cream Cheese,Dairy,Garlic,Onion,Parmesan,Pasta Sauce,Pasta/Noodles,Spinach,Vegetables,Classico,Kraft Grated Cheese,Philadelphia,All Seasons,Dinner,Valentines Day,Creamy",
      "AlternateLanguageRecipes": [
        {
          "LanguageId": "2",
          "RecipeId": "127616",
          "SiteId": "1"
        },
        {
          "LanguageId": "2",
          "RecipeId": "127616",
          "SiteId": "90"
        }
      ],
      "Assets": [
        {
          "PictureFormats": [
            {
              "rendition": "290x194",
              "url": "http://assets.kraftfoods.com/recipe_images/opendeploy/127615_290x194.jpg"
            },
            {
              "rendition": "640x428",
              "url": "http://assets.kraftfoods.com/recipe_images/opendeploy/127615_640x428.jpg"
            },
            {
              "rendition": "600x250",
              "url": "http://assets.kraftfoods.com/recipe_images/opendeploy/127615_600x250.jpg"
            }
          ],
          "author": "BulKUpload",
          "id": "2",
          "imageType": "Primary",
          "mimeType": "image/jpeg",
          "publicationDate": null,
          "status": "1",
          "title": "127615",
          "type": "image"
        },
        {
          "PictureFormats": [
            {
              "rendition": "140x90",
              "url": "http://assets.kraftfoods.com/recipe_images/opendeploy/127615_MXM_K60896V1_OR1_CR_140x90.jpg"
            },
            {
              "rendition": "300x250",
              "url": "http://assets.kraftfoods.com/recipe_images/opendeploy/127615_MXM_K60896V1_OR1_CR_300x250.jpg"
            },
            {
              "rendition": "960x300",
              "url": "http://assets.kraftfoods.com/recipe_images/opendeploy/127615_MXM_K60896V1_OR1_CR_960x300.jpg"
            }
          ],
          "author": null,
          "id": "2",
          "imageType": "Primary",
          "mimeType": "image/jpeg",
          "publicationDate": null,
          "status": "1",
          "title": "127615_MXM_K60896V1_OR1_CR",
          "type": "image"
        },
        {
          "PictureFormats": [
            {
              "rendition": "300x200",
              "url": "http://assets.kraftfoods.com/recipe_images/127615.jpg"
            }
          ],
          "author": "BulKUpload",
          "id": "0",
          "imageType": "LANDSCAPE",
          "mimeType": "image/jpeg",
          "publicationDate": null,
          "status": "1",
          "title": "127615.jpg",
          "type": "image"
        }
      ],
      "AverageRating": 4.6,
      "BrandId": 1,
      "Branding": {
        "IngredientElevation": "",
        "PromoAltText": "",
        "PromoImage": "",
        "PromoLink": "",
        "SponsorshipAltText": "",
        "SponsorshipLink": "",
        "SponsorshipLogo": "",
        "UpperRightImage": ""
      },
      "CSSSkins": [
        {
          "brand": "Phillyskin1",
          "fileName": "",
          "id": "1"
        }
      ],
      "CarbCounter": null,
      "Categories": [
        {
          "CategoryID": 8,
          "CategoryName": "Seafood/Meatless Entrees",
          "CategoryRank": 12,
          "SubCategoryID": 48,
          "SubCategoryName": "Meatless: Pasta",
          "SubCategoryRank": 50
        },
        {
          "CategoryID": 11,
          "CategoryName": "Primary",
          "CategoryRank": 0,
          "SubCategoryID": 97,
          "SubCategoryName": "Entrees",
          "SubCategoryRank": 50
        },
        {
          "CategoryID": 15,
          "CategoryName": "Pasta/Pizza Entrees",
          "CategoryRank": 9,
          "SubCategoryID": 386,
          "SubCategoryName": "Pasta: Meatless",
          "SubCategoryRank": 50
        },
        {
          "CategoryID": 753,
          "CategoryName": "Pizza & Pasta",
          "CategoryRank": 7,
          "SubCategoryID": 2541,
          "SubCategoryName": "Vegetarian Pizza",
          "SubCategoryRank": 1
        },
        {
          "CategoryID": 753,
          "CategoryName": "Pizza & Pasta",
          "CategoryRank": 7,
          "SubCategoryID": 2542,
          "SubCategoryName": "Creamy / Cheesy Pasta",
          "SubCategoryRank": 1
        },
        {
          "CategoryID": 753,
          "CategoryName": "Pizza & Pasta",
          "CategoryRank": 7,
          "SubCategoryID": 2545,
          "SubCategoryName": "Other",
          "SubCategoryRank": 1
        },
        {
          "CategoryID": 756,
          "CategoryName": "Main Meals (Meat / Seafood / Egg)",
          "CategoryRank": 10,
          "SubCategoryID": 2560,
          "SubCategoryName": "Seafood",
          "SubCategoryRank": 1
        },
        {
          "CategoryID": 757,
          "CategoryName": "Vegetables & Vegetarian Meals",
          "CategoryRank": 11,
          "SubCategoryID": 2569,
          "SubCategoryName": "Entrée",
          "SubCategoryRank": 1
        },
        {
          "CategoryID": 757,
          "CategoryName": "Vegetables & Vegetarian Meals",
          "CategoryRank": 11,
          "SubCategoryID": 2570,
          "SubCategoryName": "Main Meal",
          "SubCategoryRank": 1
        },
        {
          "CategoryID": 1764,
          "CategoryName": "Philly Dinner",
          "CategoryRank": 0,
          "SubCategoryID": 16866,
          "SubCategoryName": "Spread Cream Cheese",
          "SubCategoryRank": 0
        },
        {
          "CategoryID": 1764,
          "CategoryName": "Philly Dinner",
          "CategoryRank": 0,
          "SubCategoryID": 16869,
          "SubCategoryName": "Use for All",
          "SubCategoryRank": 0
        }
      ],
      "Classifications": [],
      "ComplimentaryRecipes": [
        {
          "AverageRating": 0,
          "HasVideo": false,
          "IsHealthyLiving": false,
          "NumberOfRatings": 0,
          "PhotoName": null,
          "PhotoUrl": null,
          "RecipeId": 131209,
          "RecipeName": null,
          "SEOName": "shrimp-broccoli-fettuccine-131209",
          "ThumbnailPhoto": "Shrimp-Broccoli-Fettuccine-52842.jpg"
        }
      ],
      "CookingMethod": null,
      "Copyright": null,
      "Courses": [
        "Main dishes"
      ],
      "DietExchange": null,
      "DishDetails": [],
      "EndDate": "/Date(-62135575200000-0600)/",
      "HasVideo": false,
      "Ingredients": [
        {
          "FullMeasure": null,
          "FullWeight": null,
          "IngredientGridHeaders": null,
          "IngredientID": 69115,
          "IngredientName": "(1/2 of 8-oz. tub) PHILADELPHIA Cream Cheese Spread",
          "IngredientStep": 10,
          "LanguageId": 0,
          "PostPreparation": "",
          "PrePreparation": "",
          "QuantityNum": 0.5,
          "QuantityText": "1/2",
          "QuantityUnit": "cup",
          "RecipeIngredientID": 199759,
          "TrialMeasure": null,
          "TrialWeight": null
        },
        {
          "FullMeasure": null,
          "FullWeight": null,
          "IngredientGridHeaders": null,
          "IngredientID": 68096,
          "IngredientName": "milk",
          "IngredientStep": 20,
          "LanguageId": 0,
          "PostPreparation": "",
          "PrePreparation": "",
          "QuantityNum": 1,
          "QuantityText": "1",
          "QuantityUnit": "Tbsp.",
          "RecipeIngredientID": 202897,
          "TrialMeasure": null,
          "TrialWeight": null
        },
        {
          "FullMeasure": null,
          "FullWeight": null,
          "IngredientGridHeaders": null,
          "IngredientID": 68813,
          "IngredientName": "olive oil",
          "IngredientStep": 30,
          "LanguageId": 0,
          "PostPreparation": "",
          "PrePreparation": "",
          "QuantityNum": 1,
          "QuantityText": "1",
          "QuantityUnit": "Tbsp.",
          "RecipeIngredientID": 202710,
          "TrialMeasure": null,
          "TrialWeight": null
        },
        {
          "FullMeasure": null,
          "FullWeight": null,
          "IngredientGridHeaders": null,
          "IngredientID": 68776,
          "IngredientName": "onion, chopped",
          "IngredientStep": 40,
          "LanguageId": 0,
          "PostPreparation": "",
          "PrePreparation": "",
          "QuantityNum": 1,
          "QuantityText": "1",
          "QuantityUnit": "",
          "RecipeIngredientID": 198180,
          "TrialMeasure": null,
          "TrialWeight": null
        },
        {
          "FullMeasure": null,
          "FullWeight": null,
          "IngredientGridHeaders": null,
          "IngredientID": 68817,
          "IngredientName": "garlic, minced",
          "IngredientStep": 50,
          "LanguageId": 0,
          "PostPreparation": "",
          "PrePreparation": "",
          "QuantityNum": 1,
          "QuantityText": "1",
          "QuantityUnit": "clove",
          "RecipeIngredientID": 202196,
          "TrialMeasure": null,
          "TrialWeight": null
        },
        {
          "FullMeasure": null,
          "FullWeight": null,
          "IngredientGridHeaders": null,
          "IngredientID": 70459,
          "IngredientName": "fat-free reduced-sodium chicken broth",
          "IngredientStep": 60,
          "LanguageId": 0,
          "PostPreparation": "",
          "PrePreparation": "",
          "QuantityNum": 1.5,
          "QuantityText": "1-1/2",
          "QuantityUnit": "cups",
          "RecipeIngredientID": 197266,
          "TrialMeasure": null,
          "TrialWeight": null
        },
        {
          "FullMeasure": null,
          "FullWeight": null,
          "IngredientGridHeaders": null,
          "IngredientID": 74769,
          "IngredientName": "OLIVO by CLASSICO Traditional Pasta Sauce",
          "IngredientStep": 70,
          "LanguageId": 0,
          "PostPreparation": "",
          "PrePreparation": "",
          "QuantityNum": 1,
          "QuantityText": "1",
          "QuantityUnit": "cup",
          "RecipeIngredientID": 205642,
          "TrialMeasure": null,
          "TrialWeight": null
        },
        {
          "FullMeasure": null,
          "FullWeight": null,
          "IngredientGridHeaders": null,
          "IngredientID": 72046,
          "IngredientName": "(9 oz.) refrigerated cheese tortellini, uncooked",
          "IngredientStep": 80,
          "LanguageId": 0,
          "PostPreparation": "",
          "PrePreparation": "",
          "QuantityNum": 1,
          "QuantityText": "1",
          "QuantityUnit": "pkg.",
          "RecipeIngredientID": 206454,
          "TrialMeasure": null,
          "TrialWeight": null
        },
        {
          "FullMeasure": null,
          "FullWeight": null,
          "IngredientGridHeaders": null,
          "IngredientID": 68643,
          "IngredientName": "loosely packed baby spinach leaves",
          "IngredientStep": 90,
          "LanguageId": 0,
          "PostPreparation": "",
          "PrePreparation": "",
          "QuantityNum": 4,
          "QuantityText": "4",
          "QuantityUnit": "cups",
          "RecipeIngredientID": 205110,
          "TrialMeasure": null,
          "TrialWeight": null
        },
        {
          "FullMeasure": null,
          "FullWeight": null,
          "IngredientGridHeaders": null,
          "IngredientID": 68447,
          "IngredientName": "KRAFT Grated Parmesan Cheese",
          "IngredientStep": 100,
          "LanguageId": 0,
          "PostPreparation": "",
          "PrePreparation": "",
          "QuantityNum": 0.25,
          "QuantityText": "1/4",
          "QuantityUnit": "cup",
          "RecipeIngredientID": 196078,
          "TrialMeasure": null,
          "TrialWeight": null
        }
      ],
      "IsHealthyLiving": false,
      "KRLId": "567419",
      "KeyIngredients": [],
      "Keywords": "Top of Stove ,Entree,Italian,Easy,All Seasons,Valentines Day,Pasta",
      "LanguageId": 1,
      "LifeStyles": [],
      "NumberOfIngredients": 10,
      "NumberOfRatings": 52,
      "NumberOfRatingsWithComments": "39",
      "NumberOfServings": "4 servings, 1-1/4 cups each",
      "NumberOfTrialServings": null,
      "NutritionBonus": null,
      "NutritionExchangeItemId": 0,
      "NutritionGridItems": null,
      "NutritionItems": [
        {
          "DisplayOrder": 1,
          "Document": null,
          "NutritionItemID": 371,
          "NutritionItemName": "Calories",
          "Predriscriptor": "",
          "Quantity": 400,
          "Unit": "          "
        },
        {
          "DisplayOrder": 2,
          "Document": null,
          "NutritionItemID": 376,
          "NutritionItemName": "Total fat",
          "Predriscriptor": "",
          "Quantity": 19,
          "Unit": "g         "
        },
        {
          "DisplayOrder": 3,
          "Document": null,
          "NutritionItemID": 377,
          "NutritionItemName": "Saturated fat",
          "Predriscriptor": "",
          "Quantity": 9,
          "Unit": "g         "
        },
        {
          "DisplayOrder": 4,
          "Document": null,
          "NutritionItemID": 379,
          "NutritionItemName": "Polyunsaturated Fat",
          "Predriscriptor": "",
          "Quantity": 1,
          "Unit": "g         "
        },
        {
          "DisplayOrder": 5,
          "Document": null,
          "NutritionItemID": 378,
          "NutritionItemName": "Monounsaturated Fat",
          "Predriscriptor": "",
          "Quantity": 2.5,
          "Unit": "g         "
        },
        {
          "DisplayOrder": 6,
          "Document": null,
          "NutritionItemID": 380,
          "NutritionItemName": "Trans Fat",
          "Predriscriptor": "",
          "Quantity": 0,
          "Unit": "g         "
        },
        {
          "DisplayOrder": 7,
          "Document": null,
          "NutritionItemID": 381,
          "NutritionItemName": "Cholesterol",
          "Predriscriptor": "",
          "Quantity": 55,
          "Unit": "mg        "
        },
        {
          "DisplayOrder": 8,
          "Document": null,
          "NutritionItemID": 389,
          "NutritionItemName": "Sodium",
          "Predriscriptor": "",
          "Quantity": 950,
          "Unit": "mg        "
        },
        {
          "DisplayOrder": 10,
          "Document": null,
          "NutritionItemID": 373,
          "NutritionItemName": "Carbohydrate",
          "Predriscriptor": "",
          "Quantity": 40,
          "Unit": "g         "
        },
        {
          "DisplayOrder": 11,
          "Document": null,
          "NutritionItemID": 374,
          "NutritionItemName": "Dietary fiber",
          "Predriscriptor": "",
          "Quantity": 4,
          "Unit": "g         "
        },
        {
          "DisplayOrder": 12,
          "Document": null,
          "NutritionItemID": 375,
          "NutritionItemName": "Sugars",
          "Predriscriptor": "",
          "Quantity": 8,
          "Unit": "g         "
        },
        {
          "DisplayOrder": 13,
          "Document": null,
          "NutritionItemID": 372,
          "NutritionItemName": "Protein",
          "Predriscriptor": "",
          "Quantity": 16,
          "Unit": "g         "
        },
        {
          "DisplayOrder": 14,
          "Document": null,
          "NutritionItemID": 382,
          "NutritionItemName": "Vitamin A",
          "Predriscriptor": "",
          "Quantity": 100,
          "Unit": "%DV       "
        },
        {
          "DisplayOrder": 15,
          "Document": null,
          "NutritionItemID": 383,
          "NutritionItemName": "Vitamin C",
          "Predriscriptor": "",
          "Quantity": 6,
          "Unit": "%DV       "
        },
        {
          "DisplayOrder": 16,
          "Document": null,
          "NutritionItemID": 386,
          "NutritionItemName": "Calcium",
          "Predriscriptor": "",
          "Quantity": 25,
          "Unit": "%DV       "
        },
        {
          "DisplayOrder": 17,
          "Document": null,
          "NutritionItemID": 387,
          "NutritionItemName": "Iron",
          "Predriscriptor": "",
          "Quantity": 10,
          "Unit": "%DV       "
        }
      ],
      "NutritionServingText": null,
      "PrepStepImage": null,
      "PreparationDescription": "Mix cream cheese spread and milk until blended. $Heat oil in large skillet on medium heat.  Add onions and garlic; cook and stir 5 min. or until onions are crisp-tender.  Stir in broth and pasta sauce.  Bring to boil.$Add pasta; stir.  Cover; cook on medium heat 5 min., stirring occasionally.  Add cream cheese mixture; cook and stir 3 to 5 min. or until heated through. Cover; cook 5 min. or until pasta is tender, stirring occasionally.$Stir in spinach; cook, covered, 1 min. or just until wilted.  Top with Parmesan.",
      "PreparationPreText": "",
      "PreparationSteps": [
        {
          "Description": "Mix cream cheese spread and milk until blended. ",
          "PreparationStepImage": {
            "PictureFormats": [],
            "author": null,
            "id": null,
            "imageType": null,
            "mimeType": null,
            "publicationDate": null,
            "status": null,
            "title": null,
            "type": null
          },
          "Sequence": 1
        },
        {
          "Description": "Heat oil in large skillet on medium heat.  Add onions and garlic; cook and stir 5 min. or until onions are crisp-tender.  Stir in broth and pasta sauce.  Bring to boil.",
          "PreparationStepImage": {
            "PictureFormats": [],
            "author": null,
            "id": null,
            "imageType": null,
            "mimeType": null,
            "publicationDate": null,
            "status": null,
            "title": null,
            "type": null
          },
          "Sequence": 2
        },
        {
          "Description": "Add pasta; stir.  Cover; cook on medium heat 5 min., stirring occasionally.  Add cream cheese mixture; cook and stir 3 to 5 min. or until heated through. Cover; cook 5 min. or until pasta is tender, stirring occasionally.",
          "PreparationStepImage": {
            "PictureFormats": [],
            "author": null,
            "id": null,
            "imageType": null,
            "mimeType": null,
            "publicationDate": null,
            "status": null,
            "title": null,
            "type": null
          },
          "Sequence": 3
        },
        {
          "Description": "Stir in spinach; cook, covered, 1 min. or just until wilted.  Top with Parmesan.",
          "PreparationStepImage": {
            "PictureFormats": [],
            "author": null,
            "id": null,
            "imageType": null,
            "mimeType": null,
            "publicationDate": null,
            "status": null,
            "title": null,
            "type": null
          },
          "Sequence": 4
        }
      ],
      "PreparationTime": 35,
      "Promotion": null,
      "Ratings": {
        "TotalCount": 52,
        "PageCount": 10,
        "PageNo": 1,
        "Rating": [
          {
            "Comment": "Delish!  Super easy and quick to make!  Great flavor! Will definitely make again!",
            "DisplayName": true,
            "RatingValue": 5,
            "SubmitDate": "/Date(1382134159000-0500)/",
            "UpdatedDate": "/Date(1382134159000-0500)/",
            "UserName": "duffy517"
          },
          {
            "Comment": "",
            "DisplayName": true,
            "RatingValue": 4,
            "SubmitDate": "/Date(1375229540000-0500)/",
            "UpdatedDate": "/Date(1375229540000-0500)/",
            "UserName": "drosato1"
          },
          {
            "Comment": "This recipe is easy and delicious! I've made it countless times now! ",
            "DisplayName": true,
            "RatingValue": 5,
            "SubmitDate": "/Date(1373903144000-0500)/",
            "UpdatedDate": "/Date(1373903144000-0500)/",
            "UserName": "xeclcx"
          },
          {
            "Comment": "",
            "DisplayName": true,
            "RatingValue": 5,
            "SubmitDate": "/Date(1368313523000-0500)/",
            "UpdatedDate": "/Date(1368313523000-0500)/",
            "UserName": "silkies01"
          },
          {
            "Comment": "Super easy and GREAT flavor. I gave this to my step daughter who is pretty hard to please when it comes to dinner. Her eyes lit up after her first bite. Everyone loved it. I couldn't find the original cooking creme so I used the Savory Garlic. I'm definitely making this again. Only thing I didn't like was that everyone liked it so much there were no left overs for lunch the next day.",
            "DisplayName": true,
            "RatingValue": 5,
            "SubmitDate": "/Date(1367946711000-0500)/",
            "UpdatedDate": "/Date(1367946711000-0500)/",
            "UserName": "m2dapizzle"
          },
          {
            "Comment": "Everyone in my family loved it! In the true nature of cooking regularly, I did change it up some. First of all, I doubled the recipe using 2 - 9 oz. bags of frozen tortellini. I used leftover MEAT sauce instead of plain spaghetti sauce-VERY hearty! I used an 8 oz. block of cream cheese instead of the cooking creme (I didn't have cooking creme) And I used frozen spinach instead of fresh (about 4 cups frozen, unthawed and unpacked) It was delicious and will become a regular in our household!!!",
            "DisplayName": true,
            "RatingValue": 5,
            "SubmitDate": "/Date(1367941125000-0500)/",
            "UpdatedDate": "/Date(1367941125000-0500)/",
            "UserName": "iambuggy"
          },
          {
            "Comment": "I used Savory Garlic creme (couldn't find Original) and added some Italian Sausage.  Sauce is very tasty and the spinach blends in so well it's not a separate taste.  Next time I will try fresh raviolis or mini raviolis.  Thanks, really good!",
            "DisplayName": true,
            "RatingValue": 4,
            "SubmitDate": "/Date(1367631446000-0500)/",
            "UpdatedDate": "/Date(1367631446000-0500)/",
            "UserName": "RVgalley"
          },
          {
            "Comment": "",
            "DisplayName": true,
            "RatingValue": 5,
            "SubmitDate": "/Date(1357673582000-0600)/",
            "UpdatedDate": "/Date(1365343464000-0500)/",
            "UserName": "LisaDeaKyne"
          },
          {
            "Comment": "I added mushrooms and sundried tomatoes for some extra flavor",
            "DisplayName": false,
            "RatingValue": 5,
            "SubmitDate": "/Date(1362437843000-0600)/",
            "UpdatedDate": "/Date(1362437843000-0600)/",
            "UserName": "Jill0212"
          },
          {
            "Comment": "",
            "DisplayName": true,
            "RatingValue": 4,
            "SubmitDate": "/Date(1360199559000-0600)/",
            "UpdatedDate": "/Date(1360199559000-0600)/",
            "UserName": "knottford"
          }
        ]
      },
      "RecipeDisplayFormatId": 0,
      "RecipeId": 127615,
      "RecipeName": "Tortellini in Creamy Rosé Sauce",
      "RecipeType": 0,
      "RelatedData": {
        "RelatedBrands": null,
        "RelatedProducts": null,
        "RelatedRecipes": {
          "DefaultTopCount": 5,
          "Recipe": [
            {
              "AverageRating": 5,
              "HasVideo": false,
              "IsHealthyLiving": false,
              "NumberOfRatings": 1,
              "PhotoName": "Pasta_Carbonara.jpg",
              "PhotoUrl": "http://assets.kraftfoods.com/recipe_images/opendeploy/Pasta_Carbonara.jpg",
              "RecipeId": 50399,
              "RecipeName": "Tortellini Pasta Carbonara",
              "SEOName": "tortellini-pasta-carbonara-50399",
              "ThumbnailPhoto": null
            },
            {
              "AverageRating": 4.2,
              "HasVideo": false,
              "IsHealthyLiving": false,
              "NumberOfRatings": 30,
              "PhotoName": "DI_GIORNO_Easy_Tortellini_Carbonara.jpg",
              "PhotoUrl": "http://assets.kraftfoods.com/recipe_images/opendeploy/DI_GIORNO_Easy_Tortellini_Carbonara.jpg",
              "RecipeId": 50472,
              "RecipeName": "Easy Tortellini Carbonara",
              "SEOName": "easy-tortellini-carbonara-50472",
              "ThumbnailPhoto": null
            },
            {
              "AverageRating": 4.4,
              "HasVideo": false,
              "IsHealthyLiving": false,
              "NumberOfRatings": 43,
              "PhotoName": "Cheesy_Tortellini-Bacon.jpg",
              "PhotoUrl": "http://assets.kraftfoods.com/recipe_images/opendeploy/Cheesy_Tortellini-Bacon.jpg",
              "RecipeId": 56051,
              "RecipeName": "Easy Cheesy Tortellini & Bacon",
              "SEOName": "easy-cheesy-tortellini-bacon-56051",
              "ThumbnailPhoto": null
            },
            {
              "AverageRating": 4.2,
              "HasVideo": false,
              "IsHealthyLiving": false,
              "NumberOfRatings": 130,
              "PhotoName": "108643.jpg",
              "PhotoUrl": "http://assets.kraftfoods.com/recipe_images/opendeploy/108643.jpg",
              "RecipeId": 108643,
              "RecipeName": "Simple & Creamy Tortellini Alfredo",
              "SEOName": "simple-creamy-tortellini-alfredo-108643",
              "ThumbnailPhoto": null
            },
            {
              "AverageRating": 4.1,
              "HasVideo": false,
              "IsHealthyLiving": false,
              "NumberOfRatings": 142,
              "PhotoName": "107341.jpg",
              "PhotoUrl": "http://assets.kraftfoods.com/recipe_images/opendeploy/107341.jpg",
              "RecipeId": 107341,
              "RecipeName": "Creamy Tomato Tortellini",
              "SEOName": "creamy-tomato-tortellini-107341",
              "ThumbnailPhoto": null
            }
          ],
          "TotalCount": 2059
        }
      },
      "RiseIngredients": [
        {
          "IngredientCategory": "KRL",
          "IngredientId": 68096,
          "IngredientIndustrySector": "Retail",
          "IngredientType": "Inedible",
          "ProductId": null,
          "RecipeId": 127615
        },
        {
          "IngredientCategory": "KRL",
          "IngredientId": 68447,
          "IngredientIndustrySector": "Retail",
          "IngredientType": "Inedible",
          "ProductId": "00021000051229",
          "RecipeId": 127615
        },
        {
          "IngredientCategory": "KRL",
          "IngredientId": 68643,
          "IngredientIndustrySector": "Retail",
          "IngredientType": "Inedible",
          "ProductId": null,
          "RecipeId": 127615
        },
        {
          "IngredientCategory": "KRL",
          "IngredientId": 68776,
          "IngredientIndustrySector": "Retail",
          "IngredientType": "Inedible",
          "ProductId": null,
          "RecipeId": 127615
        },
        {
          "IngredientCategory": "KRL",
          "IngredientId": 68813,
          "IngredientIndustrySector": "Retail",
          "IngredientType": "Inedible",
          "ProductId": null,
          "RecipeId": 127615
        },
        {
          "IngredientCategory": "KRL",
          "IngredientId": 68817,
          "IngredientIndustrySector": "Retail",
          "IngredientType": "Inedible",
          "ProductId": null,
          "RecipeId": 127615
        },
        {
          "IngredientCategory": "KRL",
          "IngredientId": 69115,
          "IngredientIndustrySector": "Retail",
          "IngredientType": "KHC",
          "ProductId": "00021000007554",
          "RecipeId": 127615
        },
        {
          "IngredientCategory": "KRL",
          "IngredientId": 70459,
          "IngredientIndustrySector": "Retail",
          "IngredientType": "KHC",
          "ProductId": null,
          "RecipeId": 127615
        },
        {
          "IngredientCategory": "KRL",
          "IngredientId": 72046,
          "IngredientIndustrySector": "Retail",
          "IngredientType": "Inedible",
          "ProductId": null,
          "RecipeId": 127615
        },
        {
          "IngredientCategory": "KRL",
          "IngredientId": 74769,
          "IngredientIndustrySector": "Retail",
          "IngredientType": "KHC",
          "ProductId": "00041129000021",
          "RecipeId": 127615
        }
      ],
      "RiseTaxonomy": [],
      "Riserecipe": [
        {
          "GRIN": 567419,
          "RecipeId": 127615,
          "RecipeIndustrySector": "Retail",
          "RecipeType": "Internal"
        }
      ],
      "RomanceText": "Made with refrigerated cheese tortellini and a blend of broth and spaghetti sauce, this creamy pasta dish only takes 35 minutes start to finish.",
      "SEOName": "tortellini-in-creamy-rose-sauce-127615",
      "Tips": [
        {
          "RecipeId": 127615,
          "Sequence": 10,
          "TipDescription": "Serve with hot steamed fresh green beans, or a mixed green salad tossed with your favorite KRAFT Dressing.",
          "TipID": 1,
          "TipName": "Serving Suggestion"
        },
        {
          "RecipeId": 127615,
          "Sequence": 20,
          "TipDescription": "Prepare using vegetable broth.",
          "TipID": 2,
          "TipName": "Vegetarian Option"
        },
        {
          "RecipeId": 127615,
          "Sequence": 30,
          "TipDescription": "Prepare using beef tortellini.",
          "TipID": 3,
          "TipName": "Substitute"
        }
      ],
      "TotalTime": 35,
      "TradeMarkInfo": null,
      "Video": [],
      "Yield": "4 servings, 1-1/4 cups each"
    }
  ]
}