{
  "Metadata": {
    "PageCount": 1,
    "PageNo": 0,
    "TotalCount": 0
  },
  "Recipes": [
    {
      "AdServingKeywords": "Side Dish,Broccoli,Carrot,Mushroom,Peas,Vegetables,Top of Stove,Easy,Nutrition and Well-Being,All Seasons,Cooking for a Crowd,Good Seasons",
      "AlternateLanguageRecipes": [],
      "Assets": [
        {
          "PictureFormats": [
            {
              "rendition": "290x194",
              "url": "http://assets.kraftfoods.com/recipe_images/opendeploy/500147_1_1_retail-e340ae97f15217f27e708a5a3e22ffa992c404c7_291x194.jpg"
            },
            {
              "rendition": "306x204",
              "url": "http://assets.kraftfoods.com/recipe_images/opendeploy/500147_1_1_retail-e340ae97f15217f27e708a5a3e22ffa992c404c7_306x204.jpg"
            },
            {
              "rendition": "640x428",
              "url": "http://assets.kraftfoods.com/recipe_images/opendeploy/500147_1_1_retail-e340ae97f15217f27e708a5a3e22ffa992c404c7_642x428.jpg"
            }
          ],
          "author": "Kraft",
          "id": "2",
          "imageType": "Primary",
          "mimeType": "image/jpeg",
          "publicationDate": null,
          "status": "1",
          "title": "500147_1_1_retail-e340ae97f15217f27e708a5a3e22ffa992c404c7",
          "type": "image"
        }
      ],
      "AverageRating": 4.2,
      "BrandId": 1,
      "Branding": null,
      "CSSSkins": null,
      "CarbCounter": "1/2",
      "Categories": [
        {
          "CategoryID": 9,
          "CategoryName": "Salads/Side Dishes",
          "CategoryRank": 13,
          "SubCategoryID": 39,
          "SubCategoryName": "Vegetables Side Dishes",
          "SubCategoryRank": 200
        },
        {
          "CategoryID": 11,
          "CategoryName": "Primary",
          "CategoryRank": 0,
          "SubCategoryID": 99,
          "SubCategoryName": "Side Dishes",
          "SubCategoryRank": 90
        },
        {
          "CategoryID": 757,
          "CategoryName": "Vegetables & Vegetarian Meals",
          "CategoryRank": 11,
          "SubCategoryID": 2569,
          "SubCategoryName": "Entrée",
          "SubCategoryRank": 1
        },
        {
          "CategoryID": 757,
          "CategoryName": "Vegetables & Vegetarian Meals",
          "CategoryRank": 11,
          "SubCategoryID": 2571,
          "SubCategoryName": "Side / Other",
          "SubCategoryRank": 1
        }
      ],
      "Classifications": [
        {
          "ClassficationId": 8,
          "ClassificationName": "Good source of fiber"
        },
        {
          "ClassficationId": 13,
          "ClassificationName": "Good source of vitamin A or C"
        },
        {
          "ClassficationId": 14,
          "ClassificationName": "Generally Nutritious"
        },
        {
          "ClassficationId": 119,
          "ClassificationName": "Diabetes Center"
        }
      ],
      "ComplimentaryRecipes": [
        {
          "AverageRating": 0,
          "HasVideo": false,
          "IsHealthyLiving": false,
          "NumberOfRatings": 0,
          "PhotoName": null,
          "PhotoUrl": null,
          "RecipeId": 53254,
          "RecipeName": null,
          "SEOName": "garlic-breadsticks-53254",
          "ThumbnailPhoto": "Garlic_Breadsticks.jpg"
        }
      ],
      "CookingMethod": null,
      "Copyright": null,
      "Courses": [
        "Main dishes",
        "Salads & sides"
      ],
      "DietExchange": "2 Vegetable,1/2 Fat",
      "DishDetails": [],
      "EndDate": "/Date(-62135575200000-0600)/",
      "HasVideo": false,
      "Ingredients": [
        {
          "FullMeasure": "2 Tbsp.",
          "FullWeight": "",
          "IngredientGridHeaders": null,
          "IngredientID": 1369,
          "IngredientName": "olive oil",
          "IngredientStep": 10,
          "LanguageId": 0,
          "PostPreparation": "",
          "PrePreparation": "",
          "QuantityNum": 2,
          "QuantityText": "2",
          "QuantityUnit": "Tbsp.",
          "RecipeIngredientID": 6091796,
          "TrialMeasure": "",
          "TrialWeight": ""
        },
        {
          "FullMeasure": "1-1/2 cups",
          "FullWeight": "",
          "IngredientGridHeaders": null,
          "IngredientID": 853,
          "IngredientName": "broccoli",
          "IngredientStep": 20,
          "LanguageId": 0,
          "PostPreparation": " and cauliflower florets",
          "PrePreparation": "each:",
          "QuantityNum": 1,
          "QuantityText": "1-1/2",
          "QuantityUnit": "cups",
          "RecipeIngredientID": 6091797,
          "TrialMeasure": "",
          "TrialWeight": ""
        },
        {
          "FullMeasure": "1 cup",
          "FullWeight": "",
          "IngredientGridHeaders": null,
          "IngredientID": 883,
          "IngredientName": "carrot",
          "IngredientStep": 30,
          "LanguageId": 0,
          "PostPreparation": "s",
          "PrePreparation": "diagonally sliced",
          "QuantityNum": 1,
          "QuantityText": "1",
          "QuantityUnit": "cup",
          "RecipeIngredientID": 6091799,
          "TrialMeasure": "",
          "TrialWeight": ""
        },
        {
          "FullMeasure": "3/4 cup",
          "FullWeight": "",
          "IngredientGridHeaders": null,
          "IngredientID": 4411,
          "IngredientName": "snow peas",
          "IngredientStep": 40,
          "LanguageId": 0,
          "PostPreparation": " and sliced yellow squash",
          "PrePreparation": "each:",
          "QuantityNum": 0,
          "QuantityText": "3/4",
          "QuantityUnit": "cup",
          "RecipeIngredientID": 6091801,
          "TrialMeasure": "",
          "TrialWeight": ""
        },
        {
          "FullMeasure": "1/2 cup",
          "FullWeight": "",
          "IngredientGridHeaders": null,
          "IngredientID": 1361,
          "IngredientName": "mushrooms",
          "IngredientStep": 50,
          "LanguageId": 0,
          "PostPreparation": ", red pepper strips and onion wedges",
          "PrePreparation": "each: sliced",
          "QuantityNum": 0,
          "QuantityText": "1/2",
          "QuantityUnit": "cup",
          "RecipeIngredientID": 6091800,
          "TrialMeasure": "",
          "TrialWeight": ""
        },
        {
          "FullMeasure": "1/4 cup",
          "FullWeight": "",
          "IngredientGridHeaders": null,
          "IngredientID": 30128,
          "IngredientName": "HEINZ Red Wine Vinegar",
          "IngredientStep": 60,
          "LanguageId": 0,
          "PostPreparation": "",
          "PrePreparation": "",
          "QuantityNum": 0,
          "QuantityText": "1/4",
          "QuantityUnit": "cup",
          "RecipeIngredientID": 6091802,
          "TrialMeasure": "",
          "TrialWeight": ""
        },
        {
          "FullMeasure": "1 env.",
          "FullWeight": "",
          "IngredientGridHeaders": null,
          "IngredientID": 246,
          "IngredientName": "GOOD SEASONS Italian Dressing Mix",
          "IngredientStep": 70,
          "LanguageId": 0,
          "PostPreparation": "",
          "PrePreparation": "",
          "QuantityNum": 1,
          "QuantityText": "1",
          "QuantityUnit": "env.",
          "RecipeIngredientID": 6091798,
          "TrialMeasure": "",
          "TrialWeight": ""
        }
      ],
      "IsHealthyLiving": true,
      "KRLId": "500147",
      "KeyIngredients": [
        "Broccoli",
        "Carrot",
        "Mushroom",
        "Peas",
        "Vegetables"
      ],
      "Keywords": "mushrooms,oil,olive oil,pea pods,broccoli,carrots,GOOD SEASONS Dressing Mix,salad dressing mix,vinegar,italian dressing mix,Side Dish,Top of Stove,Easy,Nutrition and Well-Being,All Seasons,Cooking for a Crowd",
      "LanguageId": 1,
      "LifeStyles": [
        "Good source of fiber",
        "Good source of vitamin A or C",
        "Generally Nutritious",
        "Diabetes Center"
      ],
      "NumberOfIngredients": 11,
      "NumberOfRatings": 59,
      "NumberOfRatingsWithComments": "47",
      "NumberOfServings": "8 servings",
      "NumberOfTrialServings": null,
      "NutritionBonus": "This flavorful recipe provides 1 cup of vegetables per serving of the recommended 2-1/2 cups per day.  The carrots are high in vitamin A, and the broccoli, cauliflower and red pepper team up for an excellent source of vitamin C.  ",
      "NutritionExchangeItemId": 2,
      "NutritionGridItems": null,
      "NutritionItems": [
        {
          "DisplayOrder": 1,
          "Document": null,
          "NutritionItemID": 3,
          "NutritionItemName": "Calories",
          "Predriscriptor": "",
          "Quantity": 60,
          "Unit": "          "
        },
        {
          "DisplayOrder": 2,
          "Document": "fat_cholesterol.html",
          "NutritionItemID": 4,
          "NutritionItemName": "Total fat",
          "Predriscriptor": "",
          "Quantity": 3.5,
          "Unit": "g         "
        },
        {
          "DisplayOrder": 3,
          "Document": "fat_cholesterol.html",
          "NutritionItemID": 9,
          "NutritionItemName": "Saturated fat",
          "Predriscriptor": "",
          "Quantity": 0,
          "Unit": "g         "
        },
        {
          "DisplayOrder": 7,
          "Document": "fat_cholesterol.html",
          "NutritionItemID": 2,
          "NutritionItemName": "Cholesterol",
          "Predriscriptor": "",
          "Quantity": 0,
          "Unit": "mg        "
        },
        {
          "DisplayOrder": 8,
          "Document": "sodium.html",
          "NutritionItemID": 8,
          "NutritionItemName": "Sodium",
          "Predriscriptor": "",
          "Quantity": 340,
          "Unit": "mg        "
        },
        {
          "DisplayOrder": 10,
          "Document": "carbs_sugars_fiber.html",
          "NutritionItemID": 1,
          "NutritionItemName": "Carbohydrate",
          "Predriscriptor": "",
          "Quantity": 7,
          "Unit": "g         "
        },
        {
          "DisplayOrder": 11,
          "Document": "carbs_sugars_fiber.html",
          "NutritionItemID": 7,
          "NutritionItemName": "Dietary fiber",
          "Predriscriptor": "",
          "Quantity": 2,
          "Unit": "g         "
        },
        {
          "DisplayOrder": 12,
          "Document": "carbs_sugars_fiber.html",
          "NutritionItemID": 5,
          "NutritionItemName": "Sugars",
          "Predriscriptor": "",
          "Quantity": 4,
          "Unit": "g         "
        },
        {
          "DisplayOrder": 13,
          "Document": null,
          "NutritionItemID": 6,
          "NutritionItemName": "Protein",
          "Predriscriptor": "",
          "Quantity": 2,
          "Unit": "g         "
        },
        {
          "DisplayOrder": 14,
          "Document": null,
          "NutritionItemID": 10,
          "NutritionItemName": "Vitamin A",
          "Predriscriptor": "",
          "Quantity": 50,
          "Unit": "%DV       "
        },
        {
          "DisplayOrder": 15,
          "Document": null,
          "NutritionItemID": 11,
          "NutritionItemName": "Vitamin C",
          "Predriscriptor": "",
          "Quantity": 35,
          "Unit": "%DV       "
        },
        {
          "DisplayOrder": 16,
          "Document": "dairy_and_calcium.html",
          "NutritionItemID": 12,
          "NutritionItemName": "Calcium",
          "Predriscriptor": "",
          "Quantity": 2,
          "Unit": "%DV       "
        },
        {
          "DisplayOrder": 17,
          "Document": null,
          "NutritionItemID": 13,
          "NutritionItemName": "Iron",
          "Predriscriptor": "",
          "Quantity": 4,
          "Unit": "%DV       "
        }
      ],
      "NutritionServingText": "",
      "PrepStepImage": null,
      "PreparationDescription": "Heat oil in large skillet on medium-high heat.$Add vegetables; cook and stir until crisp-tender.$Stir in vinegar and dressing mix; cook until heated through, stirring occasionally.",
      "PreparationPreText": null,
      "PreparationSteps": [
        {
          "Description": "Heat oil in large skillet on medium-high heat.",
          "PreparationStepImage": {
            "PictureFormats": [],
            "author": null,
            "id": null,
            "imageType": null,
            "mimeType": null,
            "publicationDate": null,
            "status": null,
            "title": null,
            "type": null
          },
          "Sequence": 1
        },
        {
          "Description": "Add vegetables; cook and stir until crisp-tender.",
          "PreparationStepImage": {
            "PictureFormats": [],
            "author": null,
            "id": null,
            "imageType": null,
            "mimeType": null,
            "publicationDate": null,
            "status": null,
            "title": null,
            "type": null
          },
          "Sequence": 2
        },
        {
          "Description": "Stir in vinegar and dressing mix; cook until heated through, stirring occasionally.",
          "PreparationStepImage": {
            "PictureFormats": [],
            "author": null,
            "id": null,
            "imageType": null,
            "mimeType": null,
            "publicationDate": null,
            "status": null,
            "title": null,
            "type": null
          },
          "Sequence": 3
        }
      ],
      "PreparationTime": 15,
      "Promotion": null,
      "Ratings": {
        "TotalCount": 59,
        "PageCount": 10,
        "PageNo": 1,
        "Rating": [
          {
            "Comment": "haven't tried this yet but sounds great.  Maybe they won't be soggy if you use a grilling utensil on your bbq grill or even roast them in oven.",
            "DisplayName": true,
            "RatingValue": 4,
            "SubmitDate": "/Date(1297543449000-0600)/",
            "UpdatedDate": "/Date(1297543449000-0600)/",
            "UserName": "smygelski"
          },
          {
            "Comment": "So good! Great side with chicken!",
            "DisplayName": true,
            "RatingValue": 5,
            "SubmitDate": "/Date(1268083951000-0600)/",
            "UpdatedDate": "/Date(1268083951000-0600)/",
            "UserName": "jennynicole424"
          },
          {
            "Comment": "I made this as a side dish and it turned out really good! Next time I will add more veggies! ",
            "DisplayName": true,
            "RatingValue": 4,
            "SubmitDate": "/Date(1244064831000-0500)/",
            "UpdatedDate": "/Date(1244064831000-0500)/",
            "UserName": "lydiagaddis"
          },
          {
            "Comment": "DELICIOUS!!",
            "DisplayName": true,
            "RatingValue": 5,
            "SubmitDate": "/Date(1234909623000-0600)/",
            "UpdatedDate": "/Date(1234909623000-0600)/",
            "UserName": "jennijacks"
          },
          {
            "Comment": "",
            "DisplayName": true,
            "RatingValue": 2,
            "SubmitDate": "/Date(1229557428000-0600)/",
            "UpdatedDate": "/Date(1229557428000-0600)/",
            "UserName": "roddiegirl"
          },
          {
            "Comment": "",
            "DisplayName": true,
            "RatingValue": 3,
            "SubmitDate": "/Date(1218403903000-0500)/",
            "UpdatedDate": "/Date(1218403903000-0500)/",
            "UserName": "mtmomany"
          },
          {
            "Comment": "Excellent!  ",
            "DisplayName": true,
            "RatingValue": 5,
            "SubmitDate": "/Date(1217373365000-0500)/",
            "UpdatedDate": "/Date(1217373365000-0500)/",
            "UserName": "mlaundre"
          },
          {
            "Comment": "I made this my main dinner and it was great, added a green salad and frech bread.",
            "DisplayName": true,
            "RatingValue": 5,
            "SubmitDate": "/Date(1212438447000-0500)/",
            "UpdatedDate": "/Date(1212438447000-0500)/",
            "UserName": "kmburke12"
          },
          {
            "Comment": "",
            "DisplayName": true,
            "RatingValue": 5,
            "SubmitDate": "/Date(1200440341000-0600)/",
            "UpdatedDate": "/Date(1202332516000-0600)/",
            "UserName": "shelliranae"
          },
          {
            "Comment": "",
            "DisplayName": true,
            "RatingValue": 3,
            "SubmitDate": "/Date(1201365801000-0600)/",
            "UpdatedDate": "/Date(1201365839000-0600)/",
            "UserName": "jvalero"
          }
        ]
      },
      "RecipeDisplayFormatId": 5,
      "RecipeId": 53350,
      "RecipeName": "Fresh Sautéed Vegetables",
      "RecipeType": 0,
      "RelatedData": {
        "RelatedBrands": null,
        "RelatedProducts": null,
        "RelatedRecipes": {
          "DefaultTopCount": 5,
          "Recipe": [
            {
              "AverageRating": 4.2,
              "HasVideo": false,
              "IsHealthyLiving": true,
              "NumberOfRatings": 91,
              "PhotoName": "Sauteed_Spinach_with_Mushrooms.jpg",
              "PhotoUrl": "http://assets.kraftfoods.com/recipe_images/opendeploy/Sauteed_Spinach_with_Mushrooms.jpg",
              "RecipeId": 56599,
              "RecipeName": "Sautéed Spinach with Mushrooms",
              "SEOName": "sauteed-spinach-mushrooms-56599",
              "ThumbnailPhoto": null
            },
            {
              "AverageRating": 4.8,
              "HasVideo": false,
              "IsHealthyLiving": true,
              "NumberOfRatings": 6,
              "PhotoName": "70262.jpg",
              "PhotoUrl": "http://assets.kraftfoods.com/recipe_images/opendeploy/70262.jpg",
              "RecipeId": 70262,
              "RecipeName": "Sauteed Spinach with Carrots, Raisins and Almonds",
              "SEOName": "sauteed-spinach-carrots-raisins-almonds-70262",
              "ThumbnailPhoto": null
            },
            {
              "AverageRating": 4.6,
              "HasVideo": false,
              "IsHealthyLiving": false,
              "NumberOfRatings": 29,
              "PhotoName": "76156.jpg",
              "PhotoUrl": "http://assets.kraftfoods.com/recipe_images/opendeploy/76156.jpg",
              "RecipeId": 76156,
              "RecipeName": "Zesty Italian Sauteed Onion, Pepper and Beef Sandwich",
              "SEOName": "zesty-italian-sauteed-onion-pepper-beef-sandwich-76156",
              "ThumbnailPhoto": null
            },
            {
              "AverageRating": 4.1,
              "HasVideo": false,
              "IsHealthyLiving": true,
              "NumberOfRatings": 67,
              "PhotoName": "74045.jpg",
              "PhotoUrl": "http://assets.kraftfoods.com/recipe_images/opendeploy/74045.jpg",
              "RecipeId": 74045,
              "RecipeName": "Sautéed Asparagus",
              "SEOName": "sauteed-asparagus-74045",
              "ThumbnailPhoto": null
            },
            {
              "AverageRating": 5,
              "HasVideo": false,
              "IsHealthyLiving": false,
              "NumberOfRatings": 1,
              "PhotoName": "169500.jpg",
              "PhotoUrl": "http://assets.kraftfoods.com/recipe_images/opendeploy/169500.jpg",
              "RecipeId": 169500,
              "RecipeName": "Sautéed Corn with Bacon & Green Onions",
              "SEOName": "sauteed-corn-bacon-green-onions-169500",
              "ThumbnailPhoto": null
            }
          ],
          "TotalCount": 1912
        }
      },
      "RiseIngredients": [],
      "RiseTaxonomy": [],
      "Riserecipe": [
        {
          "GRIN": 500147,
          "RecipeId": 53350,
          "RecipeIndustrySector": "Retail",
          "RecipeType": "Internal"
        }
      ],
      "RomanceText": "Mix eight different vegetables for our Fresh Sautéed Vegetables recipe. The sautéed vegetables are seasoned with vinegar and Italian salad dressing mix.",
      "SEOName": "fresh-sauteed-vegetables-53350",
      "Tips": [
        {
          "RecipeId": 53350,
          "Sequence": 10,
          "TipDescription": "Prepare as directed, using 7 cups of any combination of your favorite cut-up vegetables.",
          "TipID": 1,
          "TipName": "Substitute"
        }
      ],
      "TotalTime": 25,
      "TradeMarkInfo": null,
      "Video": [],
      "Yield": "Makes 8 servings."
    }
  ]
}