{
  "Metadata": {
    "PageCount": 1,
    "PageNo": 0,
    "TotalCount": 0
  },
  "Recipes": [
    {
      "AdServingKeywords": "Sandwich,All Seasons,Dinner,Lunch,Jet-Puffed",
      "AlternateLanguageRecipes": [],
      "Assets": [],
      "AverageRating": 0,
      "BrandId": 1,
      "Branding": null,
      "CSSSkins": null,
      "CarbCounter": null,
      "Categories": [
        {
          "CategoryID": 11,
          "CategoryName": "Primary",
          "CategoryRank": 0,
          "SubCategoryID": 105,
          "SubCategoryName": "Sandwiches",
          "SubCategoryRank": 80
        },
        {
          "CategoryID": 14,
          "CategoryName": "Soup/Sandwiches",
          "CategoryRank": 14,
          "SubCategoryID": 159,
          "SubCategoryName": "Cold Sandwiches",
          "SubCategoryRank": 40
        },
        {
          "CategoryID": 14,
          "CategoryName": "Soup/Sandwiches",
          "CategoryRank": 14,
          "SubCategoryID": 165,
          "SubCategoryName": "Meatless Sandwiches",
          "SubCategoryRank": 80
        },
        {
          "CategoryID": 751,
          "CategoryName": "Breads, Sandwiches, Wraps & Burgers",
          "CategoryRank": 5,
          "SubCategoryID": 2531,
          "SubCategoryName": "Fresh",
          "SubCategoryRank": 1
        },
        {
          "CategoryID": 757,
          "CategoryName": "Vegetables & Vegetarian Meals",
          "CategoryRank": 11,
          "SubCategoryID": 2571,
          "SubCategoryName": "Side / Other",
          "SubCategoryRank": 1
        }
      ],
      "Classifications": [],
      "ComplimentaryRecipes": null,
      "CookingMethod": null,
      "Copyright": null,
      "Courses": [
        "Salads & sides",
        "Sandwiches"
      ],
      "DietExchange": null,
      "DishDetails": [],
      "EndDate": "/Date(-62135575200000-0600)/",
      "HasVideo": false,
      "Ingredients": [
        {
          "FullMeasure": "2 slices",
          "FullWeight": "",
          "IngredientGridHeaders": null,
          "IngredientID": 1746,
          "IngredientName": "white bread",
          "IngredientStep": 10,
          "LanguageId": 0,
          "PostPreparation": "",
          "PrePreparation": "",
          "QuantityNum": 2,
          "QuantityText": "2",
          "QuantityUnit": "slices",
          "RecipeIngredientID": 6344003,
          "TrialMeasure": "",
          "TrialWeight": ""
        },
        {
          "FullMeasure": "2 Tbsp.",
          "FullWeight": "",
          "IngredientGridHeaders": null,
          "IngredientID": 23281,
          "IngredientName": "creamy peanut butter",
          "IngredientStep": 20,
          "LanguageId": 0,
          "PostPreparation": "",
          "PrePreparation": "",
          "QuantityNum": 2,
          "QuantityText": "2",
          "QuantityUnit": "Tbsp.",
          "RecipeIngredientID": 6344004,
          "TrialMeasure": "",
          "TrialWeight": ""
        },
        {
          "FullMeasure": "1/4 cup",
          "FullWeight": "",
          "IngredientGridHeaders": null,
          "IngredientID": 1332,
          "IngredientName": "JET-PUFFED Marshmallow Creme",
          "IngredientStep": 30,
          "LanguageId": 0,
          "PostPreparation": "",
          "PrePreparation": "",
          "QuantityNum": 0,
          "QuantityText": "1/4",
          "QuantityUnit": "cup",
          "RecipeIngredientID": 6344005,
          "TrialMeasure": "",
          "TrialWeight": ""
        }
      ],
      "IsHealthyLiving": false,
      "KRLId": "566143",
      "KeyIngredients": [
        "Bread",
        "Candy"
      ],
      "Keywords": "peanut butter,bread,marshmallow creme,white bread,JET-PUFFED Marshmallow Creme,PLANTERS Peanut Butter,Sandwich,All Seasons,Dinner,Lunch",
      "LanguageId": 1,
      "LifeStyles": [],
      "NumberOfIngredients": 3,
      "NumberOfRatings": 0,
      "NumberOfRatingsWithComments": "0",
      "NumberOfServings": "1 serving",
      "NumberOfTrialServings": "",
      "NutritionBonus": null,
      "NutritionExchangeItemId": 0,
      "NutritionGridItems": null,
      "NutritionItems": [
        {
          "DisplayOrder": 1,
          "Document": null,
          "NutritionItemID": 3,
          "NutritionItemName": "Calories",
          "Predriscriptor": "",
          "Quantity": 410,
          "Unit": "          "
        },
        {
          "DisplayOrder": 2,
          "Document": "fat_cholesterol.html",
          "NutritionItemID": 4,
          "NutritionItemName": "Total fat",
          "Predriscriptor": "",
          "Quantity": 17,
          "Unit": "g         "
        },
        {
          "DisplayOrder": 3,
          "Document": "fat_cholesterol.html",
          "NutritionItemID": 9,
          "NutritionItemName": "Saturated fat",
          "Predriscriptor": "",
          "Quantity": 3,
          "Unit": "g         "
        },
        {
          "DisplayOrder": 7,
          "Document": "fat_cholesterol.html",
          "NutritionItemID": 2,
          "NutritionItemName": "Cholesterol",
          "Predriscriptor": "",
          "Quantity": 0,
          "Unit": "mg        "
        },
        {
          "DisplayOrder": 8,
          "Document": "sodium.html",
          "NutritionItemID": 8,
          "NutritionItemName": "Sodium",
          "Predriscriptor": "",
          "Quantity": 410,
          "Unit": "mg        "
        },
        {
          "DisplayOrder": 10,
          "Document": "carbs_sugars_fiber.html",
          "NutritionItemID": 1,
          "NutritionItemName": "Carbohydrate",
          "Predriscriptor": "",
          "Quantity": 55,
          "Unit": "g         "
        },
        {
          "DisplayOrder": 11,
          "Document": "carbs_sugars_fiber.html",
          "NutritionItemID": 7,
          "NutritionItemName": "Dietary fiber",
          "Predriscriptor": "",
          "Quantity": 3,
          "Unit": "g         "
        },
        {
          "DisplayOrder": 12,
          "Document": "carbs_sugars_fiber.html",
          "NutritionItemID": 5,
          "NutritionItemName": "Sugars",
          "Predriscriptor": "",
          "Quantity": 22,
          "Unit": "g         "
        },
        {
          "DisplayOrder": 13,
          "Document": null,
          "NutritionItemID": 6,
          "NutritionItemName": "Protein",
          "Predriscriptor": "",
          "Quantity": 12,
          "Unit": "g         "
        },
        {
          "DisplayOrder": 14,
          "Document": null,
          "NutritionItemID": 10,
          "NutritionItemName": "Vitamin A",
          "Predriscriptor": "",
          "Quantity": 0,
          "Unit": "%DV       "
        },
        {
          "DisplayOrder": 15,
          "Document": null,
          "NutritionItemID": 11,
          "NutritionItemName": "Vitamin C",
          "Predriscriptor": "",
          "Quantity": 0,
          "Unit": "%DV       "
        },
        {
          "DisplayOrder": 16,
          "Document": "dairy_and_calcium.html",
          "NutritionItemID": 12,
          "NutritionItemName": "Calcium",
          "Predriscriptor": "",
          "Quantity": 6,
          "Unit": "%DV       "
        },
        {
          "DisplayOrder": 17,
          "Document": null,
          "NutritionItemID": 13,
          "NutritionItemName": "Iron",
          "Predriscriptor": "",
          "Quantity": 10,
          "Unit": "%DV       "
        }
      ],
      "NutritionServingText": " ",
      "PrepStepImage": null,
      "PreparationDescription": "Spread 1 bread slice with peanut butter, then spread second bread slice with marshmallow creme.$Cover peanut butter-topped bread slice with marshmallow-topped bread slice (marshmallow-side down) to make sandwich.",
      "PreparationPreText": "",
      "PreparationSteps": [
        {
          "Description": "Spread 1 bread slice with peanut butter, then spread second bread slice with marshmallow creme.",
          "PreparationStepImage": {
            "PictureFormats": [],
            "author": null,
            "id": null,
            "imageType": null,
            "mimeType": null,
            "publicationDate": null,
            "status": null,
            "title": null,
            "type": null
          },
          "Sequence": 1
        },
        {
          "Description": "Cover peanut butter-topped bread slice with marshmallow-topped bread slice (marshmallow-side down) to make sandwich.",
          "PreparationStepImage": {
            "PictureFormats": [],
            "author": null,
            "id": null,
            "imageType": null,
            "mimeType": null,
            "publicationDate": null,
            "status": null,
            "title": null,
            "type": null
          },
          "Sequence": 2
        }
      ],
      "PreparationTime": 10,
      "Promotion": null,
      "Ratings": {
        "TotalCount": 0,
        "PageCount": 10,
        "PageNo": 1,
        "Rating": []
      },
      "RecipeDisplayFormatId": 5,
      "RecipeId": 174680,
      "RecipeName": "Peanut Butter-Marshmallow Sandwich",
      "RecipeType": 0,
      "RelatedData": {
        "RelatedBrands": null,
        "RelatedProducts": null,
        "RelatedRecipes": {
          "DefaultTopCount": 5,
          "Recipe": [
            {
              "AverageRating": 4.9,
              "HasVideo": false,
              "IsHealthyLiving": false,
              "NumberOfRatings": 9,
              "PhotoName": "NUTTER_BUTTER_Chocolate_Cream_Pie.jpg",
              "PhotoUrl": "http://assets.kraftfoods.com/recipe_images/opendeploy/NUTTER_BUTTER_Chocolate_Cream_Pie.jpg",
              "RecipeId": 56347,
              "RecipeName": "Chocolate-Marshmallow Cream Pie",
              "SEOName": "chocolate-marshmallow-cream-pie-56347",
              "ThumbnailPhoto": null
            },
            {
              "AverageRating": 4.6,
              "HasVideo": false,
              "IsHealthyLiving": false,
              "NumberOfRatings": 9,
              "PhotoName": "Marshmallow_n_Peanut_Butter_Snack.jpg",
              "PhotoUrl": "http://assets.kraftfoods.com/recipe_images/opendeploy/Marshmallow_n_Peanut_Butter_Snack.jpg",
              "RecipeId": 95090,
              "RecipeName": "Marshmallow & Peanut Butter Snack",
              "SEOName": "marshmallow-peanut-butter-snack-95090",
              "ThumbnailPhoto": null
            },
            {
              "AverageRating": 4.7,
              "HasVideo": false,
              "IsHealthyLiving": false,
              "NumberOfRatings": 3,
              "PhotoName": "Peanut_Butter_Smores.jpg",
              "PhotoUrl": "http://assets.kraftfoods.com/recipe_images/opendeploy/Peanut_Butter_Smores.jpg",
              "RecipeId": 56692,
              "RecipeName": "Peanut Butter S'mores",
              "SEOName": "peanut-butter-smores-56692",
              "ThumbnailPhoto": null
            },
            {
              "AverageRating": 4.5,
              "HasVideo": false,
              "IsHealthyLiving": false,
              "NumberOfRatings": 2,
              "PhotoName": "Marshmallow-Panini-60090.jpg",
              "PhotoUrl": "http://assets.kraftfoods.com/recipe_images/opendeploy/Marshmallow-Panini-60090.jpg",
              "RecipeId": 125664,
              "RecipeName": "STACKERMALLOW Dessert Panini",
              "SEOName": "stackermallow-dessert-panini-125664",
              "ThumbnailPhoto": null
            },
            {
              "AverageRating": 4,
              "HasVideo": false,
              "IsHealthyLiving": false,
              "NumberOfRatings": 9,
              "PhotoName": "54629.jpg",
              "PhotoUrl": "http://assets.kraftfoods.com/recipe_images/opendeploy/54629.jpg",
              "RecipeId": 54629,
              "RecipeName": "OREO Pizza",
              "SEOName": "oreo-pizza-54629",
              "ThumbnailPhoto": null
            }
          ],
          "TotalCount": 2785
        }
      },
      "RiseIngredients": [],
      "RiseTaxonomy": [],
      "Riserecipe": [
        {
          "GRIN": 566143,
          "RecipeId": 174680,
          "RecipeIndustrySector": "Retail",
          "RecipeType": "Internal"
        }
      ],
      "RomanceText": "Peanut butter and marshmallow creme always taste wonderful together—as they do in this super-simple sandwich.",
      "SEOName": "peanut-butter-marshmallow-sandwich-174680",
      "Tips": [
        {
          "RecipeId": 174680,
          "Sequence": 10,
          "TipDescription": "Balance out your food choices throughout the day so you can have one of these sweet peanutty sandwiches.",
          "TipID": 2,
          "TipName": "Size Wise"
        },
        {
          "RecipeId": 174680,
          "Sequence": 20,
          "TipDescription": "Substitute chocolate-hazelnut spread for the peanut butter.",
          "TipID": 1,
          "TipName": "Substitute"
        }
      ],
      "TotalTime": 10,
      "TradeMarkInfo": null,
      "Video": [],
      "Yield": "1 serving"
    }
  ]
}