{
  "Metadata": {
    "PageCount": 1,
    "PageNo": 0,
    "TotalCount": 0
  },
  "Recipes": [
    {
      "AdServingKeywords": "Asparagus,Fish,Lemon,Pasta/Noodles,Salmon,Entree,Baked,Easy,MSASkin1,Dinner,All Seasons,New Years",
      "AlternateLanguageRecipes": [],
      "Assets": [
        {
          "PictureFormats": [
            {
              "rendition": "300x200",
              "url": "http://assets.kraftfoods.com/recipe_images/Parmesan-Herb-Crusted-Salmon-Citrus-Orzo-46732B.jpg"
            }
          ],
          "author": null,
          "id": "0",
          "imageType": "LANDSCAPE",
          "mimeType": null,
          "publicationDate": null,
          "status": "1",
          "title": "Parmesan-Herb-Crusted-Salmon-Citrus-Orzo-46732B.jpg",
          "type": "image"
        }
      ],
      "AverageRating": 0,
      "BrandId": 1,
      "Branding": {
        "IngredientElevation": "",
        "PromoAltText": "",
        "PromoImage": "",
        "PromoLink": "",
        "SponsorshipAltText": "",
        "SponsorshipLink": "",
        "SponsorshipLogo": "",
        "UpperRightImage": ""
      },
      "CSSSkins": [
        {
          "brand": "MSASkin1",
          "fileName": "msa_skin",
          "id": "1"
        }
      ],
      "CarbCounter": null,
      "Categories": [
        {
          "CategoryID": 8,
          "CategoryName": "Seafood/Meatless Entrees",
          "CategoryRank": 12,
          "SubCategoryID": 34,
          "SubCategoryName": "Seafood: Fillets/Steaks",
          "SubCategoryRank": 70
        },
        {
          "CategoryID": 11,
          "CategoryName": "Primary",
          "CategoryRank": 0,
          "SubCategoryID": 97,
          "SubCategoryName": "Entrees",
          "SubCategoryRank": 50
        },
        {
          "CategoryID": 756,
          "CategoryName": "Main Meals (Meat / Seafood / Egg)",
          "CategoryRank": 10,
          "SubCategoryID": 2560,
          "SubCategoryName": "Seafood",
          "SubCategoryRank": 1
        }
      ],
      "Classifications": [],
      "ComplimentaryRecipes": null,
      "CookingMethod": null,
      "Copyright": null,
      "Courses": [
        "Breads",
        "Main dishes"
      ],
      "DietExchange": null,
      "DishDetails": [],
      "EndDate": "/Date(-62135575200000-0600)/",
      "HasVideo": false,
      "Ingredients": [
        {
          "FullMeasure": null,
          "FullWeight": null,
          "IngredientGridHeaders": null,
          "IngredientID": 71931,
          "IngredientName": "skinless salmon fillets (1-1/2 lb.)",
          "IngredientStep": 10,
          "LanguageId": 0,
          "PostPreparation": "",
          "PrePreparation": "",
          "QuantityNum": 6,
          "QuantityText": "6",
          "QuantityUnit": "",
          "RecipeIngredientID": 44164,
          "TrialMeasure": null,
          "TrialWeight": null
        },
        {
          "FullMeasure": null,
          "FullWeight": null,
          "IngredientGridHeaders": null,
          "IngredientID": 68351,
          "IngredientName": " (14.5 oz.) chicken broth",
          "IngredientStep": 30,
          "LanguageId": 0,
          "PostPreparation": "",
          "PrePreparation": "",
          "QuantityNum": 1,
          "QuantityText": "1",
          "QuantityUnit": "can",
          "RecipeIngredientID": 40657,
          "TrialMeasure": null,
          "TrialWeight": null
        },
        {
          "FullMeasure": null,
          "FullWeight": null,
          "IngredientGridHeaders": null,
          "IngredientID": 68791,
          "IngredientName": "water",
          "IngredientStep": 40,
          "LanguageId": 0,
          "PostPreparation": "",
          "PrePreparation": "",
          "QuantityNum": 0.33,
          "QuantityText": "1/3",
          "QuantityUnit": "cup",
          "RecipeIngredientID": 41077,
          "TrialMeasure": null,
          "TrialWeight": null
        },
        {
          "FullMeasure": null,
          "FullWeight": null,
          "IngredientGridHeaders": null,
          "IngredientID": 68831,
          "IngredientName": "orzo pasta, uncooked",
          "IngredientStep": 50,
          "LanguageId": 0,
          "PostPreparation": "",
          "PrePreparation": "",
          "QuantityNum": 1,
          "QuantityText": "1",
          "QuantityUnit": "cup",
          "RecipeIngredientID": 49822,
          "TrialMeasure": null,
          "TrialWeight": null
        },
        {
          "FullMeasure": null,
          "FullWeight": null,
          "IngredientGridHeaders": null,
          "IngredientID": 71164,
          "IngredientName": "fresh asparagus spears, cut into 1-inch lengths",
          "IngredientStep": 60,
          "LanguageId": 0,
          "PostPreparation": "",
          "PrePreparation": "",
          "QuantityNum": 0.5,
          "QuantityText": "1/2",
          "QuantityUnit": "lb.",
          "RecipeIngredientID": 47131,
          "TrialMeasure": null,
          "TrialWeight": null
        },
        {
          "FullMeasure": null,
          "FullWeight": null,
          "IngredientGridHeaders": null,
          "IngredientID": 68051,
          "IngredientName": "zest and 2 Tbsp. juice from 1 lemon",
          "IngredientStep": 70,
          "LanguageId": 0,
          "PostPreparation": "",
          "PrePreparation": "",
          "QuantityNum": 2,
          "QuantityText": "2",
          "QuantityUnit": "tsp.",
          "RecipeIngredientID": 43097,
          "TrialMeasure": null,
          "TrialWeight": null
        },
        {
          "FullMeasure": null,
          "FullWeight": null,
          "IngredientGridHeaders": null,
          "IngredientID": 67683,
          "IngredientName": "extra virgin olive oil",
          "IngredientStep": 80,
          "LanguageId": 0,
          "PostPreparation": "",
          "PrePreparation": "",
          "QuantityNum": 2,
          "QuantityText": "2",
          "QuantityUnit": "Tbsp.",
          "RecipeIngredientID": 40656,
          "TrialMeasure": null,
          "TrialWeight": null
        },
        {
          "FullMeasure": null,
          "FullWeight": null,
          "IngredientGridHeaders": null,
          "IngredientID": 68320,
          "IngredientName": "<u>each</u> chopped fresh chives and parsley",
          "IngredientStep": 90,
          "LanguageId": 0,
          "PostPreparation": "",
          "PrePreparation": "",
          "QuantityNum": 1,
          "QuantityText": "1",
          "QuantityUnit": "Tbsp.",
          "RecipeIngredientID": 47474,
          "TrialMeasure": null,
          "TrialWeight": null
        }
      ],
      "IsHealthyLiving": false,
      "KRLId": "551253",
      "KeyIngredients": [],
      "Keywords": "Baked,Entree,Easy,All Seasons,New Years,Pasta",
      "LanguageId": 1,
      "LifeStyles": [],
      "NumberOfIngredients": 8,
      "NumberOfRatings": 0,
      "NumberOfRatingsWithComments": "0",
      "NumberOfServings": "6 servings",
      "NumberOfTrialServings": null,
      "NutritionBonus": null,
      "NutritionExchangeItemId": 0,
      "NutritionGridItems": null,
      "NutritionItems": [
        {
          "DisplayOrder": 1,
          "Document": null,
          "NutritionItemID": 371,
          "NutritionItemName": "Calories",
          "Predriscriptor": "",
          "Quantity": 460,
          "Unit": "          "
        },
        {
          "DisplayOrder": 2,
          "Document": null,
          "NutritionItemID": 376,
          "NutritionItemName": "Total fat",
          "Predriscriptor": "",
          "Quantity": 18,
          "Unit": "g         "
        },
        {
          "DisplayOrder": 3,
          "Document": null,
          "NutritionItemID": 377,
          "NutritionItemName": "Saturated fat",
          "Predriscriptor": "",
          "Quantity": 5,
          "Unit": "g         "
        },
        {
          "DisplayOrder": 4,
          "Document": null,
          "NutritionItemID": 379,
          "NutritionItemName": "Polyunsaturated Fat",
          "Predriscriptor": "",
          "Quantity": 2.5,
          "Unit": "g         "
        },
        {
          "DisplayOrder": 5,
          "Document": null,
          "NutritionItemID": 378,
          "NutritionItemName": "Monounsaturated Fat",
          "Predriscriptor": "",
          "Quantity": 7,
          "Unit": "g         "
        },
        {
          "DisplayOrder": 6,
          "Document": null,
          "NutritionItemID": 380,
          "NutritionItemName": "Trans Fat",
          "Predriscriptor": "",
          "Quantity": 0,
          "Unit": "g         "
        },
        {
          "DisplayOrder": 7,
          "Document": null,
          "NutritionItemID": 381,
          "NutritionItemName": "Cholesterol",
          "Predriscriptor": "",
          "Quantity": 70,
          "Unit": "mg        "
        },
        {
          "DisplayOrder": 8,
          "Document": null,
          "NutritionItemID": 389,
          "NutritionItemName": "Sodium",
          "Predriscriptor": "",
          "Quantity": 690,
          "Unit": "mg        "
        },
        {
          "DisplayOrder": 10,
          "Document": null,
          "NutritionItemID": 373,
          "NutritionItemName": "Carbohydrate",
          "Predriscriptor": "",
          "Quantity": 38,
          "Unit": "g         "
        },
        {
          "DisplayOrder": 11,
          "Document": null,
          "NutritionItemID": 374,
          "NutritionItemName": "Dietary fiber",
          "Predriscriptor": "",
          "Quantity": 3,
          "Unit": "g         "
        },
        {
          "DisplayOrder": 12,
          "Document": null,
          "NutritionItemID": 375,
          "NutritionItemName": "Sugars",
          "Predriscriptor": "",
          "Quantity": 2,
          "Unit": "g         "
        },
        {
          "DisplayOrder": 13,
          "Document": null,
          "NutritionItemID": 372,
          "NutritionItemName": "Protein",
          "Predriscriptor": "",
          "Quantity": 35,
          "Unit": "g         "
        },
        {
          "DisplayOrder": 14,
          "Document": null,
          "NutritionItemID": 382,
          "NutritionItemName": "Vitamin A",
          "Predriscriptor": "",
          "Quantity": 25,
          "Unit": "%DV       "
        },
        {
          "DisplayOrder": 15,
          "Document": null,
          "NutritionItemID": 383,
          "NutritionItemName": "Vitamin C",
          "Predriscriptor": "",
          "Quantity": 4,
          "Unit": "%DV       "
        },
        {
          "DisplayOrder": 16,
          "Document": null,
          "NutritionItemID": 386,
          "NutritionItemName": "Calcium",
          "Predriscriptor": "",
          "Quantity": 15,
          "Unit": "%DV       "
        },
        {
          "DisplayOrder": 17,
          "Document": null,
          "NutritionItemID": 387,
          "NutritionItemName": "Iron",
          "Predriscriptor": "",
          "Quantity": 15,
          "Unit": "%DV       "
        }
      ],
      "NutritionServingText": null,
      "PrepStepImage": null,
      "PreparationDescription": "Coat fish with cheese mixture and bake as directed on package.$Meanwhile, bring broth and water to boil in large saucepan. Stir in orzo; cook 6 to 7 min. or until tender.  Add asparagus; cook 2 min. or until crisp-tender.  Add remaining ingredients; mix well.$Serve orzo mixture topped with fish.  ",
      "PreparationPreText": "Heat oven to 375°F.",
      "PreparationSteps": [
        {
          "Description": "Coat fish with cheese mixture and bake as directed on package.",
          "PreparationStepImage": {
            "PictureFormats": [],
            "author": null,
            "id": null,
            "imageType": null,
            "mimeType": null,
            "publicationDate": null,
            "status": null,
            "title": null,
            "type": null
          },
          "Sequence": 1
        },
        {
          "Description": "Meanwhile, bring broth and water to boil in large saucepan. Stir in orzo; cook 6 to 7 min. or until tender.  Add asparagus; cook 2 min. or until crisp-tender.  Add remaining ingredients; mix well.",
          "PreparationStepImage": {
            "PictureFormats": [],
            "author": null,
            "id": null,
            "imageType": null,
            "mimeType": null,
            "publicationDate": null,
            "status": null,
            "title": null,
            "type": null
          },
          "Sequence": 2
        },
        {
          "Description": "Serve orzo mixture topped with fish.  ",
          "PreparationStepImage": {
            "PictureFormats": [],
            "author": null,
            "id": null,
            "imageType": null,
            "mimeType": null,
            "publicationDate": null,
            "status": null,
            "title": null,
            "type": null
          },
          "Sequence": 3
        }
      ],
      "PreparationTime": 15,
      "Promotion": {
        "IngredientElevation": "",
        "PromoAltText": "",
        "PromoImage": "",
        "PromoLink": "",
        "SponsorshipAltText": "",
        "SponsorshipLink": "",
        "SponsorshipLogo": "",
        "UpperRightImage": ""
      },
      "Ratings": {
        "TotalCount": 0,
        "PageCount": 10,
        "PageNo": 1,
        "Rating": []
      },
      "RecipeDisplayFormatId": 0,
      "RecipeId": 139111,
      "RecipeName": "Parmesan-Herb Crusted Salmon with Citrus Orzo",
      "RecipeType": 0,
      "RelatedData": {
        "RelatedBrands": null,
        "RelatedProducts": null,
        "RelatedRecipes": {
          "DefaultTopCount": 5,
          "Recipe": [
            {
              "AverageRating": 4.6,
              "HasVideo": false,
              "IsHealthyLiving": true,
              "NumberOfRatings": 66,
              "PhotoName": "opendeploy/53704-b9949ca53410823ae4026edc8de752464fa60957_306x204.jpg",
              "PhotoUrl": "http://assets.kraftfoods.com/recipe_images/opendeploy/opendeploy/53704-b9949ca53410823ae4026edc8de752464fa60957_306x204.jpg",
              "RecipeId": 53704,
              "RecipeName": "Banana-Cinnamon Spice Pie",
              "SEOName": "banana-cinnamon-spice-pie-53704",
              "ThumbnailPhoto": null
            },
            {
              "AverageRating": 4.5,
              "HasVideo": false,
              "IsHealthyLiving": true,
              "NumberOfRatings": 222,
              "PhotoName": "51072.jpg",
              "PhotoUrl": "http://assets.kraftfoods.com/recipe_images/opendeploy/51072.jpg",
              "RecipeId": 51072,
              "RecipeName": "Easy Banana Cream Pie",
              "SEOName": "easy-banana-cream-pie-51072",
              "ThumbnailPhoto": null
            },
            {
              "AverageRating": 4.6,
              "HasVideo": false,
              "IsHealthyLiving": true,
              "NumberOfRatings": 611,
              "PhotoName": "94520.jpg",
              "PhotoUrl": "http://assets.kraftfoods.com/recipe_images/opendeploy/94520.jpg",
              "RecipeId": 94520,
              "RecipeName": "Banana Pudding Squares",
              "SEOName": "banana-pudding-squares-94520",
              "ThumbnailPhoto": null
            },
            {
              "AverageRating": 4.5,
              "HasVideo": false,
              "IsHealthyLiving": true,
              "NumberOfRatings": 50,
              "PhotoName": "53805.jpg",
              "PhotoUrl": "http://assets.kraftfoods.com/recipe_images/opendeploy/53805.jpg",
              "RecipeId": 53805,
              "RecipeName": "Easy Low-Fat Banana Pudding",
              "SEOName": "easy-low-fat-banana-pudding-53805",
              "ThumbnailPhoto": null
            },
            {
              "AverageRating": 4.5,
              "HasVideo": false,
              "IsHealthyLiving": true,
              "NumberOfRatings": 46,
              "PhotoName": "Quick_Banana_Pudding.jpg",
              "PhotoUrl": "http://assets.kraftfoods.com/recipe_images/opendeploy/Quick_Banana_Pudding.jpg",
              "RecipeId": 53949,
              "RecipeName": "Quick Homemade Banana Pudding Recipe",
              "SEOName": "quick-homemade-banana-pudding-recipe-53949",
              "ThumbnailPhoto": null
            }
          ],
          "TotalCount": 3300
        }
      },
      "RiseIngredients": [
        {
          "IngredientCategory": "KRL",
          "IngredientId": 67683,
          "IngredientIndustrySector": "Retail",
          "IngredientType": "Inedible",
          "ProductId": null,
          "RecipeId": 139111
        },
        {
          "IngredientCategory": "KRL",
          "IngredientId": 68051,
          "IngredientIndustrySector": "Retail",
          "IngredientType": "Inedible",
          "ProductId": null,
          "RecipeId": 139111
        },
        {
          "IngredientCategory": "KRL",
          "IngredientId": 68320,
          "IngredientIndustrySector": "Retail",
          "IngredientType": "Inedible",
          "ProductId": null,
          "RecipeId": 139111
        },
        {
          "IngredientCategory": "KRL",
          "IngredientId": 68351,
          "IngredientIndustrySector": "Retail",
          "IngredientType": "Inedible",
          "ProductId": null,
          "RecipeId": 139111
        },
        {
          "IngredientCategory": "KRL",
          "IngredientId": 68791,
          "IngredientIndustrySector": "Retail",
          "IngredientType": "Generic",
          "ProductId": null,
          "RecipeId": 139111
        },
        {
          "IngredientCategory": "KRL",
          "IngredientId": 68831,
          "IngredientIndustrySector": "Retail",
          "IngredientType": "Inedible",
          "ProductId": null,
          "RecipeId": 139111
        },
        {
          "IngredientCategory": "KRL",
          "IngredientId": 71164,
          "IngredientIndustrySector": "Retail",
          "IngredientType": "Inedible",
          "ProductId": null,
          "RecipeId": 139111
        },
        {
          "IngredientCategory": "KRL",
          "IngredientId": 71931,
          "IngredientIndustrySector": "Retail",
          "IngredientType": "Inedible",
          "ProductId": null,
          "RecipeId": 139111
        }
      ],
      "RiseTaxonomy": [],
      "Riserecipe": [
        {
          "GRIN": 551253,
          "RecipeId": 139111,
          "RecipeIndustrySector": "Retail",
          "RecipeType": "Internal"
        }
      ],
      "RomanceText": "",
      "SEOName": "parmesan-herb-crusted-salmon-citrus-orzo-139111",
      "Tips": [
        {
          "RecipeId": 139111,
          "Sequence": 10,
          "TipDescription": "Serve with a side green salad tossed with your favorite KRAFT Dressing.",
          "TipID": 1,
          "TipName": "Serving Suggestion"
        },
        {
          "RecipeId": 139111,
          "Sequence": 20,
          "TipDescription": "Add 1/4 tsp. dill weed to the orzo mixture along with the chives and parsley.",
          "TipID": 2,
          "TipName": "Special Extra"
        }
      ],
      "TotalTime": 30,
      "TradeMarkInfo": null,
      "Video": [],
      "Yield": "6 servings"
    }
  ]
}