{
  "Metadata": {
    "PageCount": 1,
    "PageNo": 0,
    "TotalCount": 0
  },
  "Recipes": [
    {
      "AdServingKeywords": "Beef,Cheese,Ground Beef,Lettuce,Meat,Tomato,Vegetables,Entree,All Seasons,Dinner,Lunch,Claussen,Kraft Barbecue Sauce,Kraft Singles",
      "AlternateLanguageRecipes": [],
      "Assets": [
        {
          "PictureFormats": [
            {
              "rendition": "640x428",
              "url": "http://assets.kraftfoods.com/recipe_images/opendeploy/66132_640x428.jpg"
            },
            {
              "rendition": "290x194",
              "url": "http://assets.kraftfoods.com/recipe_images/opendeploy/66132_290x194.jpg"
            }
          ],
          "author": null,
          "id": "1",
          "imageType": "Primary",
          "mimeType": "image/jpeg",
          "publicationDate": null,
          "status": "1",
          "title": "66132",
          "type": "image"
        },
        {
          "PictureFormats": [
            {
              "rendition": "140x90",
              "url": "http://assets.kraftfoods.com/recipe_images/opendeploy/66132_KRL_K45504V1_OR1_OH_140x90.jpg"
            }
          ],
          "author": null,
          "id": "0",
          "imageType": "Primary",
          "mimeType": "image/jpeg",
          "publicationDate": null,
          "status": "1",
          "title": "66132_KRL_K45504V1_OR1_OH",
          "type": "image"
        },
        {
          "PictureFormats": [
            {
              "rendition": "300x200",
              "url": "http://assets.kraftfoods.com/recipe_images/66132.jpg"
            }
          ],
          "author": null,
          "id": "0",
          "imageType": "LANDSCAPE",
          "mimeType": "image/jpeg",
          "publicationDate": null,
          "status": "1",
          "title": "66132.jpg",
          "type": "image"
        }
      ],
      "AverageRating": 3.8,
      "BrandId": 1,
      "Branding": null,
      "CSSSkins": null,
      "CarbCounter": null,
      "Categories": [
        {
          "CategoryID": 7,
          "CategoryName": "Pork/Beef Entrees",
          "CategoryRank": 10,
          "SubCategoryID": 419,
          "SubCategoryName": "Salads",
          "SubCategoryRank": 150
        },
        {
          "CategoryID": 9,
          "CategoryName": "Salads/Side Dishes",
          "CategoryRank": 13,
          "SubCategoryID": 423,
          "SubCategoryName": "Main Dish Salads: Beef",
          "SubCategoryRank": 50
        },
        {
          "CategoryID": 11,
          "CategoryName": "Primary",
          "CategoryRank": 0,
          "SubCategoryID": 97,
          "SubCategoryName": "Entrees",
          "SubCategoryRank": 50
        },
        {
          "CategoryID": 11,
          "CategoryName": "Primary",
          "CategoryRank": 0,
          "SubCategoryID": 98,
          "SubCategoryName": "Salads",
          "SubCategoryRank": 70
        },
        {
          "CategoryID": 752,
          "CategoryName": "Salads",
          "CategoryRank": 6,
          "SubCategoryID": 2534,
          "SubCategoryName": "Main Course",
          "SubCategoryRank": 1
        },
        {
          "CategoryID": 752,
          "CategoryName": "Salads",
          "CategoryRank": 6,
          "SubCategoryID": 2537,
          "SubCategoryName": "Pasta / Rice",
          "SubCategoryRank": 1
        },
        {
          "CategoryID": 752,
          "CategoryName": "Salads",
          "CategoryRank": 6,
          "SubCategoryID": 2538,
          "SubCategoryName": "Potato",
          "SubCategoryRank": 1
        },
        {
          "CategoryID": 756,
          "CategoryName": "Main Meals (Meat / Seafood / Egg)",
          "CategoryRank": 10,
          "SubCategoryID": 2563,
          "SubCategoryName": "Beef",
          "SubCategoryRank": 1
        }
      ],
      "Classifications": [],
      "ComplimentaryRecipes": [
        {
          "AverageRating": 0,
          "HasVideo": false,
          "IsHealthyLiving": false,
          "NumberOfRatings": 0,
          "PhotoName": null,
          "PhotoUrl": null,
          "RecipeId": 53638,
          "RecipeName": null,
          "SEOName": "pudding-in-a-cloud-53638",
          "ThumbnailPhoto": "53638.jpg"
        }
      ],
      "CookingMethod": null,
      "Copyright": null,
      "Courses": [
        "Main dishes",
        "Salads & sides"
      ],
      "DietExchange": null,
      "DishDetails": [
        {
          "Text": "ground beef recipes",
          "Url": "/recipes/dinner/ground-beef-recipes/main.aspx"
        },
        {
          "Text": "top 10 beef recipes",
          "Url": "/recipes/dinner/top-10/beef-recipes/main.aspx"
        },
        {
          "Text": "1 bag 5 dinners",
          "Url": "/recipes/dinner/1Bag5Dinners/1bag5dinnerschickenbeef.aspx"
        }
      ],
      "EndDate": "/Date(-62135575200000-0600)/",
      "HasVideo": false,
      "Ingredients": [
        {
          "FullMeasure": "1 lb.",
          "FullWeight": "",
          "IngredientGridHeaders": null,
          "IngredientID": 1212,
          "IngredientName": "ground beef",
          "IngredientStep": 10,
          "LanguageId": 0,
          "PostPreparation": "",
          "PrePreparation": "extra lean",
          "QuantityNum": 1,
          "QuantityText": "1",
          "QuantityUnit": "lb.",
          "RecipeIngredientID": 4522571,
          "TrialMeasure": "",
          "TrialWeight": ""
        },
        {
          "FullMeasure": "1/2 cup",
          "FullWeight": "",
          "IngredientGridHeaders": null,
          "IngredientID": 476,
          "IngredientName": "KRAFT Original Barbecue Sauce",
          "IngredientStep": 20,
          "LanguageId": 0,
          "PostPreparation": "",
          "PrePreparation": "",
          "QuantityNum": 0,
          "QuantityText": "1/2",
          "QuantityUnit": "cup",
          "RecipeIngredientID": 4522573,
          "TrialMeasure": "",
          "TrialWeight": ""
        },
        {
          "FullMeasure": "2 small",
          "FullWeight": "",
          "IngredientGridHeaders": null,
          "IngredientID": 1702,
          "IngredientName": "tomato",
          "IngredientStep": 30,
          "LanguageId": 0,
          "PostPreparation": "es, chopped",
          "PrePreparation": "",
          "QuantityNum": 2,
          "QuantityText": "2",
          "QuantityUnit": "small",
          "RecipeIngredientID": 4522575,
          "TrialMeasure": "",
          "TrialWeight": ""
        },
        {
          "FullMeasure": "1/3 cup",
          "FullWeight": "",
          "IngredientGridHeaders": null,
          "IngredientID": 120,
          "IngredientName": "CLAUSSEN Kosher Dill Pickles",
          "IngredientStep": 40,
          "LanguageId": 0,
          "PostPreparation": "",
          "PrePreparation": "chopped",
          "QuantityNum": 0,
          "QuantityText": "1/3",
          "QuantityUnit": "cup",
          "RecipeIngredientID": 4522574,
          "TrialMeasure": "",
          "TrialWeight": ""
        },
        {
          "FullMeasure": "8 cups",
          "FullWeight": "",
          "IngredientGridHeaders": null,
          "IngredientID": 3198,
          "IngredientName": "iceberg lettuce",
          "IngredientStep": 50,
          "LanguageId": 0,
          "PostPreparation": "",
          "PrePreparation": "shredded",
          "QuantityNum": 7,
          "QuantityText": "8",
          "QuantityUnit": "cups",
          "RecipeIngredientID": 4522570,
          "TrialMeasure": "",
          "TrialWeight": ""
        },
        {
          "FullMeasure": "4",
          "FullWeight": "",
          "IngredientGridHeaders": null,
          "IngredientID": 405,
          "IngredientName": "KRAFT Singles",
          "IngredientStep": 60,
          "LanguageId": 0,
          "PostPreparation": ", cut diagonally in half",
          "PrePreparation": "",
          "QuantityNum": 4,
          "QuantityText": "4",
          "QuantityUnit": "",
          "RecipeIngredientID": 4522572,
          "TrialMeasure": "",
          "TrialWeight": ""
        }
      ],
      "IsHealthyLiving": false,
      "KRLId": "549006",
      "KeyIngredients": [
        "Beef",
        "Cheese",
        "Fruit",
        "Lettuce",
        "Meat",
        "Tomato",
        "Vegetables"
      ],
      "Keywords": "pickles,american cheese,barbecue sauce,beef,cheese,CLAUSSEN Pickles,ground beef,hamburger meat,KRAFT Barbecue Sauce,KRAFT Singles,lettuce,meat,tomatoes,cheese slices,bbq sauce,beef-ground,singles,Entree,Dinner,Lunch,All Seasons",
      "LanguageId": 1,
      "LifeStyles": [],
      "NumberOfIngredients": 6,
      "NumberOfRatings": 23,
      "NumberOfRatingsWithComments": "14",
      "NumberOfServings": "4 servings",
      "NumberOfTrialServings": null,
      "NutritionBonus": null,
      "NutritionExchangeItemId": 0,
      "NutritionGridItems": null,
      "NutritionItems": [
        {
          "DisplayOrder": 1,
          "Document": null,
          "NutritionItemID": 3,
          "NutritionItemName": "Calories",
          "Predriscriptor": "",
          "Quantity": 280,
          "Unit": "          "
        },
        {
          "DisplayOrder": 2,
          "Document": "fat_cholesterol.html",
          "NutritionItemID": 4,
          "NutritionItemName": "Total fat",
          "Predriscriptor": "",
          "Quantity": 11,
          "Unit": "g         "
        },
        {
          "DisplayOrder": 3,
          "Document": "fat_cholesterol.html",
          "NutritionItemID": 9,
          "NutritionItemName": "Saturated fat",
          "Predriscriptor": "",
          "Quantity": 6,
          "Unit": "g         "
        },
        {
          "DisplayOrder": 7,
          "Document": "fat_cholesterol.html",
          "NutritionItemID": 2,
          "NutritionItemName": "Cholesterol",
          "Predriscriptor": "",
          "Quantity": 85,
          "Unit": "mg        "
        },
        {
          "DisplayOrder": 8,
          "Document": "sodium.html",
          "NutritionItemID": 8,
          "NutritionItemName": "Sodium",
          "Predriscriptor": "",
          "Quantity": 940,
          "Unit": "mg        "
        },
        {
          "DisplayOrder": 10,
          "Document": "carbs_sugars_fiber.html",
          "NutritionItemID": 1,
          "NutritionItemName": "Carbohydrate",
          "Predriscriptor": "",
          "Quantity": 17,
          "Unit": "g         "
        },
        {
          "DisplayOrder": 11,
          "Document": "carbs_sugars_fiber.html",
          "NutritionItemID": 7,
          "NutritionItemName": "Dietary fiber",
          "Predriscriptor": "",
          "Quantity": 2,
          "Unit": "g         "
        },
        {
          "DisplayOrder": 12,
          "Document": "carbs_sugars_fiber.html",
          "NutritionItemID": 5,
          "NutritionItemName": "Sugars",
          "Predriscriptor": "",
          "Quantity": 12,
          "Unit": "g         "
        },
        {
          "DisplayOrder": 13,
          "Document": null,
          "NutritionItemID": 6,
          "NutritionItemName": "Protein",
          "Predriscriptor": "",
          "Quantity": 28,
          "Unit": "g         "
        },
        {
          "DisplayOrder": 14,
          "Document": null,
          "NutritionItemID": 10,
          "NutritionItemName": "Vitamin A",
          "Predriscriptor": "",
          "Quantity": 20,
          "Unit": "%DV       "
        },
        {
          "DisplayOrder": 15,
          "Document": null,
          "NutritionItemID": 11,
          "NutritionItemName": "Vitamin C",
          "Predriscriptor": "",
          "Quantity": 10,
          "Unit": "%DV       "
        },
        {
          "DisplayOrder": 16,
          "Document": "dairy_and_calcium.html",
          "NutritionItemID": 12,
          "NutritionItemName": "Calcium",
          "Predriscriptor": "",
          "Quantity": 30,
          "Unit": "%DV       "
        },
        {
          "DisplayOrder": 17,
          "Document": null,
          "NutritionItemID": 13,
          "NutritionItemName": "Iron",
          "Predriscriptor": "",
          "Quantity": 20,
          "Unit": "%DV       "
        }
      ],
      "NutritionServingText": null,
      "PrepStepImage": null,
      "PreparationDescription": "Brown meat in large skillet on medium-high heat; drain.  Add barbecue sauce, tomatoes and pickles; mix well.  Cook 2 min. or until heated through, stirring occasionally.$Place 2 cups of the lettuce on each of 4 salad plates; top evenly with the meat mixture and Singles. $Serve warm.",
      "PreparationPreText": null,
      "PreparationSteps": [
        {
          "Description": "Brown meat in large skillet on medium-high heat; drain.  Add barbecue sauce, tomatoes and pickles; mix well.  Cook 2 min. or until heated through, stirring occasionally.",
          "PreparationStepImage": {
            "PictureFormats": [],
            "author": null,
            "id": null,
            "imageType": null,
            "mimeType": null,
            "publicationDate": null,
            "status": null,
            "title": null,
            "type": null
          },
          "Sequence": 1
        },
        {
          "Description": "Place 2 cups of the lettuce on each of 4 salad plates; top evenly with the meat mixture and Singles. ",
          "PreparationStepImage": {
            "PictureFormats": [],
            "author": null,
            "id": null,
            "imageType": null,
            "mimeType": null,
            "publicationDate": null,
            "status": null,
            "title": null,
            "type": null
          },
          "Sequence": 2
        },
        {
          "Description": "Serve warm.",
          "PreparationStepImage": {
            "PictureFormats": [],
            "author": null,
            "id": null,
            "imageType": null,
            "mimeType": null,
            "publicationDate": null,
            "status": null,
            "title": null,
            "type": null
          },
          "Sequence": 3
        }
      ],
      "PreparationTime": 15,
      "Promotion": null,
      "Ratings": {
        "TotalCount": 23,
        "PageCount": 10,
        "PageNo": 1,
        "Rating": [
          {
            "Comment": "My hubby and son both like these. Hubby even like the pickles in it which he usual does not like. ",
            "DisplayName": true,
            "RatingValue": 3,
            "SubmitDate": "/Date(1248213179000-0500)/",
            "UpdatedDate": "/Date(1248213179000-0500)/",
            "UserName": "alieda"
          },
          {
            "Comment": "",
            "DisplayName": true,
            "RatingValue": 5,
            "SubmitDate": "/Date(1232120733000-0600)/",
            "UpdatedDate": "/Date(1232120733000-0600)/",
            "UserName": "jnstorm"
          },
          {
            "Comment": "Yummy!  Good way to eat a salad.  I really liked the dill pickle taste.",
            "DisplayName": true,
            "RatingValue": 4,
            "SubmitDate": "/Date(1212611596000-0500)/",
            "UpdatedDate": "/Date(1212611660000-0500)/",
            "UserName": "Overjoyed1"
          },
          {
            "Comment": "",
            "DisplayName": true,
            "RatingValue": 4,
            "SubmitDate": "/Date(1209239156000-0500)/",
            "UpdatedDate": "/Date(1209239156000-0500)/",
            "UserName": "inkmistress"
          },
          {
            "Comment": "Very easy to make and a different meal than what is usually on the dinner menu.  Would make this again, but will experiment with different add-ins.  ",
            "DisplayName": true,
            "RatingValue": 4,
            "SubmitDate": "/Date(1198807481000-0600)/",
            "UpdatedDate": "/Date(1198807484000-0600)/",
            "UserName": "maryellenamos"
          },
          {
            "Comment": "",
            "DisplayName": true,
            "RatingValue": 2,
            "SubmitDate": "/Date(1177116636000-0500)/",
            "UpdatedDate": "/Date(1177116636000-0500)/",
            "UserName": "cdarling2"
          },
          {
            "Comment": "",
            "DisplayName": true,
            "RatingValue": 5,
            "SubmitDate": "/Date(1177014372000-0500)/",
            "UpdatedDate": "/Date(1177014372000-0500)/",
            "UserName": "nkktait"
          },
          {
            "Comment": "AWESOME!  SO EASY TO MAKE...PRETTY CHEAP AND ABSOLUTELY DELICIOUS....LOVED IT!  HUSBAND LIKED IT WITH ONION ON IT ALSO....DELICIOUS.",
            "DisplayName": true,
            "RatingValue": 5,
            "SubmitDate": "/Date(1162354512000-0500)/",
            "UpdatedDate": "/Date(1162354512000-0500)/",
            "UserName": "smileykay2002"
          },
          {
            "Comment": "Maybe I made this wrong, but the taste was very bland.  I expected more oomph with the barbecue sauce.  It didn't taste very much like a cheeseburger.",
            "DisplayName": true,
            "RatingValue": 2,
            "SubmitDate": "/Date(1160753703000-0500)/",
            "UpdatedDate": "/Date(1160753703000-0500)/",
            "UserName": "stifknees"
          },
          {
            "Comment": "",
            "DisplayName": true,
            "RatingValue": 3,
            "SubmitDate": "/Date(1159128668000-0500)/",
            "UpdatedDate": "/Date(1159128668000-0500)/",
            "UserName": "carriepeck"
          }
        ]
      },
      "RecipeDisplayFormatId": 5,
      "RecipeId": 66132,
      "RecipeName": "Cheeseburger Salad",
      "RecipeType": 0,
      "RelatedData": {
        "RelatedBrands": null,
        "RelatedProducts": null,
        "RelatedRecipes": {
          "DefaultTopCount": 5,
          "Recipe": [
            {
              "AverageRating": 4.5,
              "HasVideo": false,
              "IsHealthyLiving": false,
              "NumberOfRatings": 2,
              "PhotoName": "118929.jpg",
              "PhotoUrl": "http://assets.kraftfoods.com/recipe_images/opendeploy/118929.jpg",
              "RecipeId": 118929,
              "RecipeName": "Ranch-Bacon Cheeseburgers",
              "SEOName": "ranch-bacon-cheeseburgers-118929",
              "ThumbnailPhoto": null
            },
            {
              "AverageRating": 4.4,
              "HasVideo": false,
              "IsHealthyLiving": false,
              "NumberOfRatings": 37,
              "PhotoName": "opendeploy/505671_1_1_retail-b20b9aff90d3a28e17240dd1a45289252b22ab2a_306x204.jpg",
              "PhotoUrl": "http://assets.kraftfoods.com/recipe_images/opendeploy/opendeploy/505671_1_1_retail-b20b9aff90d3a28e17240dd1a45289252b22ab2a_306x204.jpg",
              "RecipeId": 50098,
              "RecipeName": "All-American DELI DELUXE Cheeseburgers",
              "SEOName": "all-american-deli-deluxe-cheeseburgers-50098",
              "ThumbnailPhoto": null
            },
            {
              "AverageRating": 4,
              "HasVideo": false,
              "IsHealthyLiving": true,
              "NumberOfRatings": 2,
              "PhotoName": "Tuscan_Tomato_Burgers.jpg",
              "PhotoUrl": "http://assets.kraftfoods.com/recipe_images/opendeploy/Tuscan_Tomato_Burgers.jpg",
              "RecipeId": 65119,
              "RecipeName": "Tuscan Tomato Burgers",
              "SEOName": "tuscan-tomato-burgers-65119",
              "ThumbnailPhoto": null
            },
            {
              "AverageRating": 4.2,
              "HasVideo": false,
              "IsHealthyLiving": false,
              "NumberOfRatings": 5,
              "PhotoName": "Cowgirl-Burgers-61029.jpg",
              "PhotoUrl": "http://assets.kraftfoods.com/recipe_images/opendeploy/Cowgirl-Burgers-61029.jpg",
              "RecipeId": 126934,
              "RecipeName": "Cowgirl Turkey Burgers",
              "SEOName": "cowgirl-turkey-burgers-126934",
              "ThumbnailPhoto": null
            },
            {
              "AverageRating": 5,
              "HasVideo": false,
              "IsHealthyLiving": false,
              "NumberOfRatings": 1,
              "PhotoName": "171909_GEO_66028v0E_WP.jpg",
              "PhotoUrl": "http://assets.kraftfoods.com/recipe_images/opendeploy/171909_GEO_66028v0E_WP.jpg",
              "RecipeId": 171909,
              "RecipeName": "Cheeseburger Meatball Kabobs",
              "SEOName": "cheeseburger-meatball-kabobs-171909",
              "ThumbnailPhoto": null
            }
          ],
          "TotalCount": 1859
        }
      },
      "RiseIngredients": [],
      "RiseTaxonomy": [],
      "Riserecipe": [
        {
          "GRIN": 549006,
          "RecipeId": 66132,
          "RecipeIndustrySector": "Retail",
          "RecipeType": "Internal"
        }
      ],
      "RomanceText": "Melted cheese and a blend of skillet-cooked ground beef and BBQ sauce top a lettuce salad in this bun-free version of a classic cheeseburger.",
      "SEOName": "cheeseburger-salad-66132",
      "Tips": [
        {
          "RecipeId": 66132,
          "Sequence": 10,
          "TipDescription": "To dispose of bacon and ground beef grease, pour the slightly cooled grease into a bowl lined with plastic wrap.  Refrigerate until firm.  Then, remove the plastic wrap from the bowl and throw away with the hardened grease. ",
          "TipID": 1,
          "TipName": "Easy Cleanup"
        }
      ],
      "TotalTime": 15,
      "TradeMarkInfo": null,
      "Video": [],
      "Yield": "Makes 4 servings."
    }
  ]
}