{
  "Metadata": {
    "PageCount": 1,
    "PageNo": 0,
    "TotalCount": 0
  },
  "Recipes": [
    {
      "AdServingKeywords": "Dessert,Cream Cheese,Eggs,Baked,Intermediate,Winter,All Seasons,New Years,Cake,Cheesecake,Jet-Puffed,Philadelphia",
      "AlternateLanguageRecipes": [
        {
          "LanguageId": "2",
          "RecipeId": "183247",
          "SiteId": "1"
        },
        {
          "LanguageId": "2",
          "RecipeId": "183247",
          "SiteId": "90"
        }
      ],
      "Assets": [
        {
          "PictureFormats": [
            {
              "rendition": "640x428",
              "url": "http://assets.kraftfoods.com/recipe_images/opendeploy/139182_640x428.jpg"
            }
          ],
          "author": null,
          "id": "0",
          "imageType": "Primary",
          "mimeType": "image/jpeg",
          "publicationDate": null,
          "status": "1",
          "title": "139182",
          "type": "image"
        },
        {
          "PictureFormats": [
            {
              "rendition": "300x200",
              "url": "http://assets.kraftfoods.com/recipe_images/Spiced-Hot-Chocolate-Cheesecake-62653.jpg"
            }
          ],
          "author": null,
          "id": "0",
          "imageType": "LANDSCAPE",
          "mimeType": null,
          "publicationDate": null,
          "status": "1",
          "title": "Spiced-Hot-Chocolate-Cheesecake-62653.jpg",
          "type": "image"
        }
      ],
      "AverageRating": 4,
      "BrandId": 1,
      "Branding": null,
      "CSSSkins": null,
      "CarbCounter": null,
      "Categories": [
        {
          "CategoryID": 4,
          "CategoryName": "Cakes/Pies/Cheesecakes",
          "CategoryRank": 5,
          "SubCategoryID": 123,
          "SubCategoryName": "Cheesecakes: Baked",
          "SubCategoryRank": 60
        },
        {
          "CategoryID": 11,
          "CategoryName": "Primary",
          "CategoryRank": 0,
          "SubCategoryID": 103,
          "SubCategoryName": "Desserts",
          "SubCategoryRank": 40
        },
        {
          "CategoryID": 760,
          "CategoryName": "Cheesecakes",
          "CategoryRank": 14,
          "SubCategoryID": 2582,
          "SubCategoryName": "Baked",
          "SubCategoryRank": 1
        },
        {
          "CategoryID": 1760,
          "CategoryName": "Philly Cheesecakes",
          "CategoryRank": 0,
          "SubCategoryID": 16844,
          "SubCategoryName": "Brick Cream Cheese",
          "SubCategoryRank": 0
        },
        {
          "CategoryID": 1760,
          "CategoryName": "Philly Cheesecakes",
          "CategoryRank": 0,
          "SubCategoryID": 16847,
          "SubCategoryName": "Use for all",
          "SubCategoryRank": 0
        }
      ],
      "Classifications": [],
      "ComplimentaryRecipes": [
        {
          "AverageRating": 0,
          "HasVideo": false,
          "IsHealthyLiving": false,
          "NumberOfRatings": 0,
          "PhotoName": null,
          "PhotoUrl": null,
          "RecipeId": 120144,
          "RecipeName": null,
          "SEOName": "hot-chocolate-brownie-cupcakes-120144",
          "ThumbnailPhoto": "Hot-Chocolate-Brownie-Cupcakes-58623.jpg"
        }
      ],
      "CookingMethod": null,
      "Copyright": null,
      "Courses": [
        "Desserts"
      ],
      "DietExchange": null,
      "DishDetails": [
        {
          "Text": "desserts",
          "Url": "/recipes/dessert/main.aspx"
        },
        {
          "Text": "fruity desserts",
          "Url": "/recipes/dessert/fruitydesserts.aspx"
        },
        {
          "Text": "gelatin desserts",
          "Url": "/recipes/dessert/gelatindesserts.aspx"
        },
        {
          "Text": "layered desserts",
          "Url": "/recipes/dessert/layereddesserts.aspx"
        },
        {
          "Text": "brownie recipes",
          "Url": "/recipes/dessert/brownie-recipes/main.aspx"
        },
        {
          "Text": "budget desserts",
          "Url": "/recipes/budget/budget-desserts.aspx"
        },
        {
          "Text": "no bake desserts",
          "Url": "/recipes/dessert/nobakedesserts.aspx"
        },
        {
          "Text": "pumpkin recipes",
          "Url": "/recipes/dessert/pumpkin-recipes.aspx"
        },
        {
          "Text": "chocolate cake recipes",
          "Url": "/recipes/dessert/chocolate-cake-recipes/main.aspx"
        },
        {
          "Text": "cheesecake recipes",
          "Url": "/recipes/dessert/cheesecake-center/cheesecake-recipes/main.aspx"
        },
        {
          "Text": "chocolate lovers recipes",
          "Url": "/recipes/dessert/chocolate-center/chocolateloversrecipes.aspx"
        },
        {
          "Text": "classic desserts",
          "Url": "/recipes/dessert/classicdesserts.aspx"
        },
        {
          "Text": "cookie ball recipes",
          "Url": "/recipes/dessert/cookie-ball-recipes/main.aspx"
        },
        {
          "Text": "cookie recipes",
          "Url": "/recipes/dessert/cookie-recipes/main.aspx"
        },
        {
          "Text": "cupcake recipes",
          "Url": "/recipes/dessert/cupcake-recipes/main.aspx"
        },
        {
          "Text": "healthy living desserts",
          "Url": "/healthy-living-ideas/diabetes-center/recipes/dessert-recipes.aspx"
        },
        {
          "Text": "cheesecake recipes",
          "Url": "/recipes/dessert/cheesecake-center/cheesecake-recipes/main.aspx"
        },
        {
          "Text": "no bake cheesecake recipes",
          "Url": "/recipes/dessert/cheesecake-center/no-bake-cheesecake-recipes.aspx"
        },
        {
          "Text": "strawberry cheesecake recipes",
          "Url": "/recipes/dessert/cheesecake-center/strawberry-cheesecake-recipes.aspx"
        },
        {
          "Text": "cheese cake for all seasons",
          "Url": "/recipes/dessert/cheesecake-center/cheesecakeforallseasons.aspx"
        },
        {
          "Text": "chocolate cheesecake recipes",
          "Url": "/recipes/dessert/cheesecake-center/chocolate-cheesecake-recipes.aspx"
        },
        {
          "Text": "pumpkin cheesecake recipes",
          "Url": "/recipes/dessert/cheesecake-center/pumpkin-cheesecake-recipes.aspx"
        }
      ],
      "EndDate": "/Date(-62135575200000-0600)/",
      "HasVideo": false,
      "Ingredients": [
        {
          "FullMeasure": "30",
          "FullWeight": "",
          "IngredientGridHeaders": null,
          "IngredientID": 5499,
          "IngredientName": "gingersnaps",
          "IngredientStep": 10,
          "LanguageId": 0,
          "PostPreparation": ", finely crushed (about 1-1/2 cups)",
          "PrePreparation": "",
          "QuantityNum": 30,
          "QuantityText": "30",
          "QuantityUnit": "",
          "RecipeIngredientID": 4878407,
          "TrialMeasure": "",
          "TrialWeight": ""
        },
        {
          "FullMeasure": "1/4 cup",
          "FullWeight": "",
          "IngredientGridHeaders": null,
          "IngredientID": 864,
          "IngredientName": "butter or margarine",
          "IngredientStep": 20,
          "LanguageId": 0,
          "PostPreparation": ", melted",
          "PrePreparation": "",
          "QuantityNum": 0,
          "QuantityText": "1/4",
          "QuantityUnit": "cup",
          "RecipeIngredientID": 4878405,
          "TrialMeasure": "",
          "TrialWeight": ""
        },
        {
          "FullMeasure": "4 pkg.",
          "FullWeight": "",
          "IngredientGridHeaders": null,
          "IngredientID": 628,
          "IngredientName": "PHILADELPHIA Cream Cheese",
          "IngredientStep": 30,
          "LanguageId": 0,
          "PostPreparation": ", softened",
          "PrePreparation": "(8 oz. each)",
          "QuantityNum": 4,
          "QuantityText": "4",
          "QuantityUnit": "pkg.",
          "RecipeIngredientID": 4878409,
          "TrialMeasure": "",
          "TrialWeight": ""
        },
        {
          "FullMeasure": "1 cup",
          "FullWeight": "",
          "IngredientGridHeaders": null,
          "IngredientID": 1845,
          "IngredientName": "sugar",
          "IngredientStep": 40,
          "LanguageId": 0,
          "PostPreparation": ", divided",
          "PrePreparation": " plus 2 Tbsp. ",
          "QuantityNum": 1,
          "QuantityText": "1",
          "QuantityUnit": "cup",
          "RecipeIngredientID": 4878404,
          "TrialMeasure": "",
          "TrialWeight": ""
        },
        {
          "FullMeasure": "1/2 cup",
          "FullWeight": "",
          "IngredientGridHeaders": null,
          "IngredientID": 7466,
          "IngredientName": "unsweetened cocoa powder",
          "IngredientStep": 50,
          "LanguageId": 0,
          "PostPreparation": "",
          "PrePreparation": "",
          "QuantityNum": 0,
          "QuantityText": "1/2",
          "QuantityUnit": "cup",
          "RecipeIngredientID": 4878406,
          "TrialMeasure": "",
          "TrialWeight": ""
        },
        {
          "FullMeasure": "1/2 tsp.",
          "FullWeight": "",
          "IngredientGridHeaders": null,
          "IngredientID": 1218,
          "IngredientName": "ground cinnamon",
          "IngredientStep": 60,
          "LanguageId": 0,
          "PostPreparation": "",
          "PrePreparation": "",
          "QuantityNum": 0,
          "QuantityText": "1/2",
          "QuantityUnit": "tsp.",
          "RecipeIngredientID": 4878411,
          "TrialMeasure": "",
          "TrialWeight": ""
        },
        {
          "FullMeasure": "2 tsp.",
          "FullWeight": "",
          "IngredientGridHeaders": null,
          "IngredientID": 1731,
          "IngredientName": "vanilla",
          "IngredientStep": 70,
          "LanguageId": 0,
          "PostPreparation": "",
          "PrePreparation": "",
          "QuantityNum": 2,
          "QuantityText": "2",
          "QuantityUnit": "tsp.",
          "RecipeIngredientID": 4878412,
          "TrialMeasure": "",
          "TrialWeight": ""
        },
        {
          "FullMeasure": "3",
          "FullWeight": "",
          "IngredientGridHeaders": null,
          "IngredientID": 1060,
          "IngredientName": "egg",
          "IngredientStep": 80,
          "LanguageId": 0,
          "PostPreparation": "s",
          "PrePreparation": "",
          "QuantityNum": 3,
          "QuantityText": "3",
          "QuantityUnit": "",
          "RecipeIngredientID": 4878408,
          "TrialMeasure": "",
          "TrialWeight": ""
        },
        {
          "FullMeasure": "1 jar",
          "FullWeight": "",
          "IngredientGridHeaders": null,
          "IngredientID": 1332,
          "IngredientName": "JET-PUFFED Marshmallow Creme",
          "IngredientStep": 90,
          "LanguageId": 0,
          "PostPreparation": "",
          "PrePreparation": "(7 oz.)",
          "QuantityNum": 1,
          "QuantityText": "1",
          "QuantityUnit": "jar",
          "RecipeIngredientID": 4878410,
          "TrialMeasure": "",
          "TrialWeight": ""
        }
      ],
      "IsHealthyLiving": false,
      "KRLId": "569504",
      "KeyIngredients": [
        "Candy",
        "Cream Cheese",
        "Eggs"
      ],
      "Keywords": "PHILADELPHIA Cream Cheese,cheese,cinnamon,cocoa,cookies,cream cheese,eggs,extract,marshmallow creme,sugar,vanilla,butter,margarine,JET-PUFFED Marshmallow Creme,ginger snaps,NABISCO Ginger Snaps,Dessert,Baked,Intermediate,Winter,All Seasons,New Years,Cake,Cheesecake",
      "LanguageId": 1,
      "LifeStyles": [],
      "NumberOfIngredients": 9,
      "NumberOfRatings": 1,
      "NumberOfRatingsWithComments": "0",
      "NumberOfServings": "16 servings",
      "NumberOfTrialServings": "",
      "NutritionBonus": null,
      "NutritionExchangeItemId": 0,
      "NutritionGridItems": null,
      "NutritionItems": [
        {
          "DisplayOrder": 1,
          "Document": null,
          "NutritionItemID": 3,
          "NutritionItemName": "Calories",
          "Predriscriptor": "",
          "Quantity": 380,
          "Unit": "          "
        },
        {
          "DisplayOrder": 2,
          "Document": "fat_cholesterol.html",
          "NutritionItemID": 4,
          "NutritionItemName": "Total fat",
          "Predriscriptor": "",
          "Quantity": 24,
          "Unit": "g         "
        },
        {
          "DisplayOrder": 3,
          "Document": "fat_cholesterol.html",
          "NutritionItemID": 9,
          "NutritionItemName": "Saturated fat",
          "Predriscriptor": "",
          "Quantity": 14,
          "Unit": "g         "
        },
        {
          "DisplayOrder": 7,
          "Document": "fat_cholesterol.html",
          "NutritionItemID": 2,
          "NutritionItemName": "Cholesterol",
          "Predriscriptor": "",
          "Quantity": 115,
          "Unit": "mg        "
        },
        {
          "DisplayOrder": 8,
          "Document": "sodium.html",
          "NutritionItemID": 8,
          "NutritionItemName": "Sodium",
          "Predriscriptor": "",
          "Quantity": 340,
          "Unit": "mg        "
        },
        {
          "DisplayOrder": 10,
          "Document": "carbs_sugars_fiber.html",
          "NutritionItemID": 1,
          "NutritionItemName": "Carbohydrate",
          "Predriscriptor": "",
          "Quantity": 38,
          "Unit": "g         "
        },
        {
          "DisplayOrder": 11,
          "Document": "carbs_sugars_fiber.html",
          "NutritionItemID": 7,
          "NutritionItemName": "Dietary fiber",
          "Predriscriptor": "",
          "Quantity": 1,
          "Unit": "g         "
        },
        {
          "DisplayOrder": 12,
          "Document": "carbs_sugars_fiber.html",
          "NutritionItemID": 5,
          "NutritionItemName": "Sugars",
          "Predriscriptor": "",
          "Quantity": 28,
          "Unit": "g         "
        },
        {
          "DisplayOrder": 13,
          "Document": null,
          "NutritionItemID": 6,
          "NutritionItemName": "Protein",
          "Predriscriptor": "",
          "Quantity": 6,
          "Unit": "g         "
        },
        {
          "DisplayOrder": 14,
          "Document": null,
          "NutritionItemID": 10,
          "NutritionItemName": "Vitamin A",
          "Predriscriptor": "",
          "Quantity": 15,
          "Unit": "%DV       "
        },
        {
          "DisplayOrder": 15,
          "Document": null,
          "NutritionItemID": 11,
          "NutritionItemName": "Vitamin C",
          "Predriscriptor": "",
          "Quantity": 0,
          "Unit": "%DV       "
        },
        {
          "DisplayOrder": 16,
          "Document": "dairy_and_calcium.html",
          "NutritionItemID": 12,
          "NutritionItemName": "Calcium",
          "Predriscriptor": "",
          "Quantity": 6,
          "Unit": "%DV       "
        },
        {
          "DisplayOrder": 17,
          "Document": null,
          "NutritionItemID": 13,
          "NutritionItemName": "Iron",
          "Predriscriptor": "",
          "Quantity": 6,
          "Unit": "%DV       "
        }
      ],
      "NutritionServingText": "",
      "PrepStepImage": null,
      "PreparationDescription": "Mix cookie crumbs, butter and 2 Tbsp. sugar; press onto bottom of 9-inch springform pan.  $Beat cream cheese, remaining sugar, cocoa powder, cinnamon and vanilla with mixer until blended.  Add eggs, 1 at a time, mixing on low speed after each just until blended.  Pour over crust.$Bake 55 min. to 1 hour or until center is almost set.  Run knife around rim of pan to loosen cake; cool before removing rim.  Refrigerate cheesecake 4 hours. $Spoon marshmallow creme into microwaveable bowl just before serving cheesecake.  Microwave on HIGH 30 sec. or just until warmed; stir. Pour over cheesecake.",
      "PreparationPreText": "Heat oven to 325°F.",
      "PreparationSteps": [
        {
          "Description": "Mix cookie crumbs, butter and 2 Tbsp. sugar; press onto bottom of 9-inch springform pan.  ",
          "PreparationStepImage": {
            "PictureFormats": [],
            "author": null,
            "id": null,
            "imageType": null,
            "mimeType": null,
            "publicationDate": null,
            "status": null,
            "title": null,
            "type": null
          },
          "Sequence": 1
        },
        {
          "Description": "Beat cream cheese, remaining sugar, cocoa powder, cinnamon and vanilla with mixer until blended.  Add eggs, 1 at a time, mixing on low speed after each just until blended.  Pour over crust.",
          "PreparationStepImage": {
            "PictureFormats": [],
            "author": null,
            "id": null,
            "imageType": null,
            "mimeType": null,
            "publicationDate": null,
            "status": null,
            "title": null,
            "type": null
          },
          "Sequence": 2
        },
        {
          "Description": "Bake 55 min. to 1 hour or until center is almost set.  Run knife around rim of pan to loosen cake; cool before removing rim.  Refrigerate cheesecake 4 hours. ",
          "PreparationStepImage": {
            "PictureFormats": [],
            "author": null,
            "id": null,
            "imageType": null,
            "mimeType": null,
            "publicationDate": null,
            "status": null,
            "title": null,
            "type": null
          },
          "Sequence": 3
        },
        {
          "Description": "Spoon marshmallow creme into microwaveable bowl just before serving cheesecake.  Microwave on HIGH 30 sec. or just until warmed; stir. Pour over cheesecake.",
          "PreparationStepImage": {
            "PictureFormats": [],
            "author": null,
            "id": null,
            "imageType": null,
            "mimeType": null,
            "publicationDate": null,
            "status": null,
            "title": null,
            "type": null
          },
          "Sequence": 4
        }
      ],
      "PreparationTime": 30,
      "Promotion": null,
      "Ratings": {
        "TotalCount": 1,
        "PageCount": 10,
        "PageNo": 1,
        "Rating": [
          {
            "Comment": "",
            "DisplayName": true,
            "RatingValue": 4,
            "SubmitDate": "/Date(1357432019000-0600)/",
            "UpdatedDate": "/Date(1357432019000-0600)/",
            "UserName": "nigoli"
          }
        ]
      },
      "RecipeDisplayFormatId": 5,
      "RecipeId": 139182,
      "RecipeName": "Spiced Hot Chocolate Cheesecake",
      "RecipeType": 0,
      "RelatedData": {
        "RelatedBrands": null,
        "RelatedProducts": null,
        "RelatedRecipes": {
          "DefaultTopCount": 5,
          "Recipe": [
            {
              "AverageRating": 4.2,
              "HasVideo": false,
              "IsHealthyLiving": false,
              "NumberOfRatings": 5,
              "PhotoName": "Cinnamon-Spiced_Chocolate_Tamales.jpg",
              "PhotoUrl": "http://assets.kraftfoods.com/recipe_images/opendeploy/Cinnamon-Spiced_Chocolate_Tamales.jpg",
              "RecipeId": 62903,
              "RecipeName": "Cinnamon-Spiced Chocolate Tamales",
              "SEOName": "cinnamon-spiced-chocolate-tamales-62903",
              "ThumbnailPhoto": null
            },
            {
              "AverageRating": 5,
              "HasVideo": false,
              "IsHealthyLiving": false,
              "NumberOfRatings": 2,
              "PhotoName": "169157_MXM_65090v0E_WP.jpg",
              "PhotoUrl": "http://assets.kraftfoods.com/recipe_images/opendeploy/169157_MXM_65090v0E_WP.jpg",
              "RecipeId": 169157,
              "RecipeName": "Spiced Chocolate-Swirled Pumpkin Cheesecake",
              "SEOName": "spiced-chocolate-swirled-pumpkin-cheesecake-169157",
              "ThumbnailPhoto": null
            },
            {
              "AverageRating": 4.2,
              "HasVideo": false,
              "IsHealthyLiving": false,
              "NumberOfRatings": 56,
              "PhotoName": "89822.jpg",
              "PhotoUrl": "http://assets.kraftfoods.com/recipe_images/opendeploy/89822.jpg",
              "RecipeId": 89822,
              "RecipeName": "Spider Web Pumpkin Cheesecake",
              "SEOName": "spider-web-pumpkin-cheesecake-89822",
              "ThumbnailPhoto": null
            },
            {
              "AverageRating": 4.5,
              "HasVideo": false,
              "IsHealthyLiving": false,
              "NumberOfRatings": 95,
              "PhotoName": "Spicy_Pumpkin_Cake_with_Chocolate_Chunks.jpg",
              "PhotoUrl": "http://assets.kraftfoods.com/recipe_images/opendeploy/Spicy_Pumpkin_Cake_with_Chocolate_Chunks.jpg",
              "RecipeId": 94484,
              "RecipeName": "Spiced Pumpkin Cake with Chocolate Chunks",
              "SEOName": "spiced-pumpkin-cake-chocolate-chunks-94484",
              "ThumbnailPhoto": null
            },
            {
              "AverageRating": 5,
              "HasVideo": false,
              "IsHealthyLiving": false,
              "NumberOfRatings": 2,
              "PhotoName": "182812.jpg",
              "PhotoUrl": "http://assets.kraftfoods.com/recipe_images/opendeploy/182812.jpg",
              "RecipeId": 182812,
              "RecipeName": "Pumpkin Pie-Spiced Flourless Chocolate Cake",
              "SEOName": "pumpkin-pie-spiced-flourless-chocolate-cake-182812",
              "ThumbnailPhoto": null
            }
          ],
          "TotalCount": 3772
        }
      },
      "RiseIngredients": [],
      "RiseTaxonomy": [],
      "Riserecipe": [
        {
          "GRIN": 569504,
          "RecipeId": 139182,
          "RecipeIndustrySector": "Retail",
          "RecipeType": "Internal"
        }
      ],
      "RomanceText": "Even jaded cheesecake fans will sit up and take notice of this Spiced Hot Chocolate Cheesecake, served with a warm glaze of marshmallow creme.",
      "SEOName": "spiced-hot-chocolate-cheesecake-139182",
      "Tips": [
        {
          "RecipeId": 139182,
          "Sequence": 10,
          "TipDescription": "Sweets can be part of a balanced diet but remember to keep tabs on portions.",
          "TipID": 6,
          "TipName": "Size Wise"
        },
        {
          "RecipeId": 139182,
          "Sequence": 20,
          "TipDescription": "Garnish cheesecake with chocolate curls just before serving. Just pull vegetable peeler across bottom of 1-oz. piece of BAKER'S Bittersweet Chocolate to make the curls.",
          "TipID": 5,
          "TipName": "Special Extra"
        },
        {
          "RecipeId": 139182,
          "Sequence": 40,
          "TipDescription": "If using a dark nonstick 9-inch springform pan, reduce oven temperature to 300ºF.",
          "TipID": 4,
          "TipName": "Note"
        }
      ],
      "TotalTime": 390,
      "TradeMarkInfo": null,
      "Video": [],
      "Yield": "16 servings"
    }
  ]
}