{
  "Metadata": {
    "PageCount": 1,
    "PageNo": 0,
    "TotalCount": 0
  },
  "Recipes": [
    {
      "AdServingKeywords": "Dairy,Fruit,Dessert,Easy,Pies and Tarts,All Seasons,Cool Whip,Jell-O",
      "AlternateLanguageRecipes": [],
      "Assets": [],
      "AverageRating": 5,
      "BrandId": 1,
      "Branding": null,
      "CSSSkins": null,
      "CarbCounter": null,
      "Categories": [
        {
          "CategoryID": 4,
          "CategoryName": "Cakes/Pies/Cheesecakes",
          "CategoryRank": 5,
          "SubCategoryID": 14,
          "SubCategoryName": "Pies: Pudding",
          "SubCategoryRank": 140
        },
        {
          "CategoryID": 11,
          "CategoryName": "Primary",
          "CategoryRank": 0,
          "SubCategoryID": 103,
          "SubCategoryName": "Desserts",
          "SubCategoryRank": 40
        },
        {
          "CategoryID": 759,
          "CategoryName": "Desserts",
          "CategoryRank": 13,
          "SubCategoryID": 2581,
          "SubCategoryName": "Pastry",
          "SubCategoryRank": 1
        },
        {
          "CategoryID": 765,
          "CategoryName": "Pies & Pastries",
          "CategoryRank": 19,
          "SubCategoryID": 2611,
          "SubCategoryName": "Sweet",
          "SubCategoryRank": 1
        }
      ],
      "Classifications": [],
      "ComplimentaryRecipes": null,
      "CookingMethod": null,
      "Copyright": null,
      "Courses": [
        "Desserts"
      ],
      "DietExchange": null,
      "DishDetails": [
        {
          "Text": "desserts",
          "Url": "/recipes/dessert/main.aspx"
        },
        {
          "Text": "fruity desserts",
          "Url": "/recipes/dessert/fruitydesserts.aspx"
        },
        {
          "Text": "gelatin desserts",
          "Url": "/recipes/dessert/gelatindesserts.aspx"
        },
        {
          "Text": "layered desserts",
          "Url": "/recipes/dessert/layereddesserts.aspx"
        },
        {
          "Text": "brownie recipes",
          "Url": "/recipes/dessert/brownie-recipes/main.aspx"
        },
        {
          "Text": "budget desserts",
          "Url": "/recipes/budget/budget-desserts.aspx"
        },
        {
          "Text": "no bake desserts",
          "Url": "/recipes/dessert/nobakedesserts.aspx"
        },
        {
          "Text": "pumpkin recipes",
          "Url": "/recipes/dessert/pumpkin-recipes.aspx"
        },
        {
          "Text": "chocolate cake recipes",
          "Url": "/recipes/dessert/chocolate-cake-recipes/main.aspx"
        },
        {
          "Text": "cheesecake recipes",
          "Url": "/recipes/dessert/cheesecake-center/cheesecake-recipes/main.aspx"
        },
        {
          "Text": "chocolate lovers recipes",
          "Url": "/recipes/dessert/chocolate-center/chocolateloversrecipes.aspx"
        },
        {
          "Text": "classic desserts",
          "Url": "/recipes/dessert/classicdesserts.aspx"
        },
        {
          "Text": "cookie ball recipes",
          "Url": "/recipes/dessert/cookie-ball-recipes/main.aspx"
        },
        {
          "Text": "cookie recipes",
          "Url": "/recipes/dessert/cookie-recipes/main.aspx"
        },
        {
          "Text": "cupcake recipes",
          "Url": "/recipes/dessert/cupcake-recipes/main.aspx"
        },
        {
          "Text": "healthy living desserts",
          "Url": "/healthy-living-ideas/diabetes-center/recipes/dessert-recipes.aspx"
        },
        {
          "Text": "pumpkin pie recipes",
          "Url": "/recipes/holidays-and-entertaining/holidays/Thanksgiving/pumpkin-pie-recipes.aspx"
        },
        {
          "Text": "pie recipes",
          "Url": "/recipes/dessert/pie-recipes/main.aspx"
        }
      ],
      "EndDate": "/Date(-62135575200000-0600)/",
      "HasVideo": false,
      "Ingredients": [
        {
          "FullMeasure": "1 pkg.",
          "FullWeight": "",
          "IngredientGridHeaders": null,
          "IngredientID": 344,
          "IngredientName": "JELL-O Chocolate Flavor Instant Pudding",
          "IngredientStep": 10,
          "LanguageId": 0,
          "PostPreparation": "",
          "PrePreparation": "(3.9 oz.)",
          "QuantityNum": 1,
          "QuantityText": "1",
          "QuantityUnit": "pkg.",
          "RecipeIngredientID": 4130955,
          "TrialMeasure": "",
          "TrialWeight": ""
        },
        {
          "FullMeasure": "1 cup",
          "FullWeight": "",
          "IngredientGridHeaders": null,
          "IngredientID": 1345,
          "IngredientName": "milk",
          "IngredientStep": 20,
          "LanguageId": 0,
          "PostPreparation": "",
          "PrePreparation": "cold",
          "QuantityNum": 1,
          "QuantityText": "1",
          "QuantityUnit": "cup",
          "RecipeIngredientID": 4130954,
          "TrialMeasure": "",
          "TrialWeight": ""
        },
        {
          "FullMeasure": "1 can",
          "FullWeight": "",
          "IngredientGridHeaders": null,
          "IngredientID": 892,
          "IngredientName": "cherry pie filling",
          "IngredientStep": 30,
          "LanguageId": 0,
          "PostPreparation": ", divided",
          "PrePreparation": "(21 oz.)",
          "QuantityNum": 1,
          "QuantityText": "1",
          "QuantityUnit": "can",
          "RecipeIngredientID": 4130952,
          "TrialMeasure": "",
          "TrialWeight": ""
        },
        {
          "FullMeasure": "1 tub",
          "FullWeight": "",
          "IngredientGridHeaders": null,
          "IngredientID": 140,
          "IngredientName": "COOL WHIP Whipped Topping",
          "IngredientStep": 40,
          "LanguageId": 0,
          "PostPreparation": ", thawed, divided",
          "PrePreparation": "(8 oz.)",
          "QuantityNum": 1,
          "QuantityText": "1",
          "QuantityUnit": "tub",
          "RecipeIngredientID": 4130953,
          "TrialMeasure": "",
          "TrialWeight": ""
        },
        {
          "FullMeasure": "1",
          "FullWeight": "",
          "IngredientGridHeaders": null,
          "IngredientID": 5509,
          "IngredientName": "OREO Pie Crust",
          "IngredientStep": 50,
          "LanguageId": 0,
          "PostPreparation": " (6 oz.)",
          "PrePreparation": "",
          "QuantityNum": 1,
          "QuantityText": "1",
          "QuantityUnit": "",
          "RecipeIngredientID": 4130956,
          "TrialMeasure": "",
          "TrialWeight": ""
        }
      ],
      "IsHealthyLiving": false,
      "KRLId": "514458",
      "KeyIngredients": [
        "Dairy",
        "Fruit"
      ],
      "Keywords": "pie filling,cherries,cherry pie filling,chocolate pudding mix,COOL WHIP,JELL-O Pudding Mix,milk,whipped topping,pudding mix-instant,pie crust-graham/cookie crumb,OREO Pie Crust,oreos,Dessert,Easy,Pies and Tarts,All Seasons",
      "LanguageId": 1,
      "LifeStyles": [],
      "NumberOfIngredients": 5,
      "NumberOfRatings": 2,
      "NumberOfRatingsWithComments": "0",
      "NumberOfServings": "10 servings ",
      "NumberOfTrialServings": "",
      "NutritionBonus": null,
      "NutritionExchangeItemId": 0,
      "NutritionGridItems": null,
      "NutritionItems": [
        {
          "DisplayOrder": 1,
          "Document": null,
          "NutritionItemID": 3,
          "NutritionItemName": "Calories",
          "Predriscriptor": "",
          "Quantity": 270,
          "Unit": "          "
        },
        {
          "DisplayOrder": 2,
          "Document": "fat_cholesterol.html",
          "NutritionItemID": 4,
          "NutritionItemName": "Total fat",
          "Predriscriptor": "",
          "Quantity": 9,
          "Unit": "g         "
        },
        {
          "DisplayOrder": 3,
          "Document": "fat_cholesterol.html",
          "NutritionItemID": 9,
          "NutritionItemName": "Saturated fat",
          "Predriscriptor": "",
          "Quantity": 6,
          "Unit": "g         "
        },
        {
          "DisplayOrder": 7,
          "Document": "fat_cholesterol.html",
          "NutritionItemID": 2,
          "NutritionItemName": "Cholesterol",
          "Predriscriptor": "Less than",
          "Quantity": 5,
          "Unit": "mg        "
        },
        {
          "DisplayOrder": 8,
          "Document": "sodium.html",
          "NutritionItemID": 8,
          "NutritionItemName": "Sodium",
          "Predriscriptor": "",
          "Quantity": 290,
          "Unit": "mg        "
        },
        {
          "DisplayOrder": 10,
          "Document": "carbs_sugars_fiber.html",
          "NutritionItemID": 1,
          "NutritionItemName": "Carbohydrate",
          "Predriscriptor": "",
          "Quantity": 45,
          "Unit": "g         "
        },
        {
          "DisplayOrder": 11,
          "Document": "carbs_sugars_fiber.html",
          "NutritionItemID": 7,
          "NutritionItemName": "Dietary fiber",
          "Predriscriptor": "",
          "Quantity": 1,
          "Unit": "g         "
        },
        {
          "DisplayOrder": 12,
          "Document": "carbs_sugars_fiber.html",
          "NutritionItemID": 5,
          "NutritionItemName": "Sugars",
          "Predriscriptor": "",
          "Quantity": 34,
          "Unit": "g         "
        },
        {
          "DisplayOrder": 13,
          "Document": null,
          "NutritionItemID": 6,
          "NutritionItemName": "Protein",
          "Predriscriptor": "",
          "Quantity": 2,
          "Unit": "g         "
        },
        {
          "DisplayOrder": 14,
          "Document": null,
          "NutritionItemID": 10,
          "NutritionItemName": "Vitamin A",
          "Predriscriptor": "",
          "Quantity": 4,
          "Unit": "%DV       "
        },
        {
          "DisplayOrder": 15,
          "Document": null,
          "NutritionItemID": 11,
          "NutritionItemName": "Vitamin C",
          "Predriscriptor": "",
          "Quantity": 4,
          "Unit": "%DV       "
        },
        {
          "DisplayOrder": 16,
          "Document": "dairy_and_calcium.html",
          "NutritionItemID": 12,
          "NutritionItemName": "Calcium",
          "Predriscriptor": "",
          "Quantity": 4,
          "Unit": "%DV       "
        },
        {
          "DisplayOrder": 17,
          "Document": null,
          "NutritionItemID": 13,
          "NutritionItemName": "Iron",
          "Predriscriptor": "",
          "Quantity": 8,
          "Unit": "%DV       "
        }
      ],
      "NutritionServingText": " ",
      "PrepStepImage": null,
      "PreparationDescription": "Beat pudding mix and milk in large bowl with whisk 2 min. Add half the pie filling; mix well. Stir in half the COOL WHIP. $Spoon into crust. $Freeze 3 hours or until firm. Remove pie from freezer 10 min. before serving.  Let stand at room temperature to soften slightly.  Top with remaining pie filling and COOL WHIP. ",
      "PreparationPreText": "",
      "PreparationSteps": [
        {
          "Description": "Beat pudding mix and milk in large bowl with whisk 2 min. Add half the pie filling; mix well. Stir in half the COOL WHIP. ",
          "PreparationStepImage": {
            "PictureFormats": [],
            "author": null,
            "id": null,
            "imageType": null,
            "mimeType": null,
            "publicationDate": null,
            "status": null,
            "title": null,
            "type": null
          },
          "Sequence": 1
        },
        {
          "Description": "Spoon into crust. ",
          "PreparationStepImage": {
            "PictureFormats": [],
            "author": null,
            "id": null,
            "imageType": null,
            "mimeType": null,
            "publicationDate": null,
            "status": null,
            "title": null,
            "type": null
          },
          "Sequence": 2
        },
        {
          "Description": "Freeze 3 hours or until firm. Remove pie from freezer 10 min. before serving.  Let stand at room temperature to soften slightly.  Top with remaining pie filling and COOL WHIP. ",
          "PreparationStepImage": {
            "PictureFormats": [],
            "author": null,
            "id": null,
            "imageType": null,
            "mimeType": null,
            "publicationDate": null,
            "status": null,
            "title": null,
            "type": null
          },
          "Sequence": 3
        }
      ],
      "PreparationTime": 10,
      "Promotion": null,
      "Ratings": {
        "TotalCount": 2,
        "PageCount": 10,
        "PageNo": 1,
        "Rating": []
      },
      "RecipeDisplayFormatId": 5,
      "RecipeId": 161912,
      "RecipeName": "Easy Cherry-Chocolate Pie",
      "RecipeType": 0,
      "RelatedData": {
        "RelatedBrands": null,
        "RelatedProducts": null,
        "RelatedRecipes": {
          "DefaultTopCount": 5,
          "Recipe": [
            {
              "AverageRating": 4.6,
              "HasVideo": false,
              "IsHealthyLiving": false,
              "NumberOfRatings": 28,
              "PhotoName": "57154.jpg",
              "PhotoUrl": "http://assets.kraftfoods.com/recipe_images/opendeploy/57154.jpg",
              "RecipeId": 57154,
              "RecipeName": "No-Bake Chocolate-Cherry Cheesecake",
              "SEOName": "no-bake-chocolate-cherry-cheesecake-57154",
              "ThumbnailPhoto": null
            },
            {
              "AverageRating": 4.4,
              "HasVideo": false,
              "IsHealthyLiving": false,
              "NumberOfRatings": 39,
              "PhotoName": "57621.jpg",
              "PhotoUrl": "http://assets.kraftfoods.com/recipe_images/opendeploy/57621.jpg",
              "RecipeId": 57621,
              "RecipeName": "Black Forest Cake Recipe",
              "SEOName": "black-forest-cake-recipe-57621",
              "ThumbnailPhoto": null
            },
            {
              "AverageRating": 4.9,
              "HasVideo": false,
              "IsHealthyLiving": false,
              "NumberOfRatings": 7,
              "PhotoName": "60917.jpg",
              "PhotoUrl": "http://assets.kraftfoods.com/recipe_images/opendeploy/60917.jpg",
              "RecipeId": 60917,
              "RecipeName": "Quick Chocolate-Cherry Trifle",
              "SEOName": "quick-chocolate-cherry-trifle-60917",
              "ThumbnailPhoto": null
            },
            {
              "AverageRating": 4,
              "HasVideo": false,
              "IsHealthyLiving": false,
              "NumberOfRatings": 25,
              "PhotoName": "Chocolate_Cherry_Pie.jpg",
              "PhotoUrl": "http://assets.kraftfoods.com/recipe_images/opendeploy/Chocolate_Cherry_Pie.jpg",
              "RecipeId": 53412,
              "RecipeName": "Chocolate-Cherry Pie",
              "SEOName": "chocolate-cherry-pie-53412",
              "ThumbnailPhoto": null
            },
            {
              "AverageRating": 4.3,
              "HasVideo": false,
              "IsHealthyLiving": false,
              "NumberOfRatings": 23,
              "PhotoName": "Black_Forest_Cheese_Pie.jpg",
              "PhotoUrl": "http://assets.kraftfoods.com/recipe_images/opendeploy/Black_Forest_Cheese_Pie.jpg",
              "RecipeId": 55018,
              "RecipeName": "Black Forest Cheese Pie",
              "SEOName": "black-forest-cheese-pie-55018",
              "ThumbnailPhoto": null
            }
          ],
          "TotalCount": 4945
        }
      },
      "RiseIngredients": [],
      "RiseTaxonomy": [],
      "Riserecipe": [
        {
          "GRIN": 514458,
          "RecipeId": 161912,
          "RecipeIndustrySector": "Retail",
          "RecipeType": "Internal"
        }
      ],
      "RomanceText": "Is there anything chocolate doesn't go with? It proves its compatibility once again in this easy chocolate pudding pie layered with cherry pie filling.",
      "SEOName": "easy-cherry-chocolate-pie-161912",
      "Tips": [
        {
          "RecipeId": 161912,
          "Sequence": 10,
          "TipDescription": "Prepare using 1 pkg. (1 oz.) JELL-O Fat Free Sugar Free Instant Chocolate Pudding, fat-free milk, COOL WHIP LITE Whipped Topping and  a ready-to-use graham cracker crumb crust.",
          "TipID": 2,
          "TipName": "Variation  "
        }
      ],
      "TotalTime": 190,
      "TradeMarkInfo": null,
      "Video": [],
      "Yield": "10 servings "
    }
  ]
}