{
  "Metadata": {
    "PageCount": 1,
    "PageNo": 0,
    "TotalCount": 0
  },
  "Recipes": [
    {
      "AdServingKeywords": "Carrot,Cream Cheese,Vegetables,Side Dish,Top of Stove,Easy,Nutrition and Well-Being,All Seasons,Thanksgiving,Philadelphia,Cooking for a Crowd,Creamy",
      "AlternateLanguageRecipes": [
        {
          "LanguageId": "2",
          "RecipeId": "136985",
          "SiteId": "1"
        },
        {
          "LanguageId": "2",
          "RecipeId": "136985",
          "SiteId": "90"
        }
      ],
      "Assets": [
        {
          "PictureFormats": [
            {
              "rendition": "140x90",
              "url": "http://assets.kraftfoods.com/recipe_images/opendeploy/136984_MXM_K61803V1_OR1_CR_140x90.jpg"
            },
            {
              "rendition": "290x194",
              "url": "http://assets.kraftfoods.com/recipe_images/opendeploy/136984_MXM_K61803V1_OR1_CR_290x194.jpg"
            },
            {
              "rendition": "300x250",
              "url": "http://assets.kraftfoods.com/recipe_images/opendeploy/136984_MXM_K61803V1_OR1_CR_300x250.jpg"
            },
            {
              "rendition": "600x250",
              "url": "http://assets.kraftfoods.com/recipe_images/opendeploy/136984_MXM_K61803V1_OR1_CR_600x250.jpg"
            },
            {
              "rendition": "640x428",
              "url": "http://assets.kraftfoods.com/recipe_images/opendeploy/136984_MXM_K61803V1_OR1_CR_640x428.jpg"
            },
            {
              "rendition": "960x300",
              "url": "http://assets.kraftfoods.com/recipe_images/opendeploy/136984_MXM_K61803V1_OR1_CR_960x300.jpg"
            }
          ],
          "author": null,
          "id": "5",
          "imageType": "Primary",
          "mimeType": "image/jpeg",
          "publicationDate": null,
          "status": "1",
          "title": "136984_MXM_K61803V1_OR1_CR",
          "type": "image"
        },
        {
          "PictureFormats": [
            {
              "rendition": "300x200",
              "url": "http://assets.kraftfoods.com/recipe_images/Creamy-Mashed-Carrots-61803.jpg"
            }
          ],
          "author": null,
          "id": "0",
          "imageType": "LANDSCAPE",
          "mimeType": null,
          "publicationDate": null,
          "status": "1",
          "title": "Creamy-Mashed-Carrots-61803.jpg",
          "type": "image"
        }
      ],
      "AverageRating": 3.7,
      "BrandId": 1,
      "Branding": null,
      "CSSSkins": null,
      "CarbCounter": "1",
      "Categories": [
        {
          "CategoryID": 9,
          "CategoryName": "Salads/Side Dishes",
          "CategoryRank": 13,
          "SubCategoryID": 39,
          "SubCategoryName": "Vegetables Side Dishes",
          "SubCategoryRank": 200
        },
        {
          "CategoryID": 11,
          "CategoryName": "Primary",
          "CategoryRank": 0,
          "SubCategoryID": 99,
          "SubCategoryName": "Side Dishes",
          "SubCategoryRank": 90
        },
        {
          "CategoryID": 757,
          "CategoryName": "Vegetables & Vegetarian Meals",
          "CategoryRank": 11,
          "SubCategoryID": 2569,
          "SubCategoryName": "Entrée",
          "SubCategoryRank": 1
        },
        {
          "CategoryID": 757,
          "CategoryName": "Vegetables & Vegetarian Meals",
          "CategoryRank": 11,
          "SubCategoryID": 2571,
          "SubCategoryName": "Side / Other",
          "SubCategoryRank": 1
        },
        {
          "CategoryID": 1765,
          "CategoryName": "Philly Side Dishes",
          "CategoryRank": 0,
          "SubCategoryID": 16871,
          "SubCategoryName": "Spread Cream Cheese",
          "SubCategoryRank": 0
        },
        {
          "CategoryID": 1765,
          "CategoryName": "Philly Side Dishes",
          "CategoryRank": 0,
          "SubCategoryID": 16874,
          "SubCategoryName": "Use for All",
          "SubCategoryRank": 0
        },
        {
          "CategoryID": 1767,
          "CategoryName": "Philly Healthy Living",
          "CategoryRank": 0,
          "SubCategoryID": 16882,
          "SubCategoryName": "Spread Cream Cheese",
          "SubCategoryRank": 0
        },
        {
          "CategoryID": 1767,
          "CategoryName": "Philly Healthy Living",
          "CategoryRank": 0,
          "SubCategoryID": 16886,
          "SubCategoryName": "Use for All",
          "SubCategoryRank": 0
        }
      ],
      "Classifications": [
        {
          "ClassficationId": 8,
          "ClassificationName": "Good source of fiber"
        },
        {
          "ClassficationId": 9,
          "ClassificationName": "Low fat"
        },
        {
          "ClassficationId": 13,
          "ClassificationName": "Good source of vitamin A or C"
        },
        {
          "ClassficationId": 14,
          "ClassificationName": "Generally Nutritious"
        },
        {
          "ClassficationId": 119,
          "ClassificationName": "Diabetes Center"
        }
      ],
      "ComplimentaryRecipes": [
        {
          "AverageRating": 0,
          "HasVideo": false,
          "IsHealthyLiving": false,
          "NumberOfRatings": 0,
          "PhotoName": null,
          "PhotoUrl": null,
          "RecipeId": 57010,
          "RecipeName": null,
          "SEOName": "creamy-sweet-whipped-carrots-57010",
          "ThumbnailPhoto": "Creamy_Sweet_Whipped_Carrots.jpg"
        }
      ],
      "CookingMethod": null,
      "Copyright": null,
      "Courses": [
        "Main dishes",
        "Salads & sides"
      ],
      "DietExchange": "2 Vegetable,1/2 Fat",
      "DishDetails": [],
      "EndDate": "/Date(-62135575200000-0600)/",
      "HasVideo": false,
      "Ingredients": [
        {
          "FullMeasure": "2 lb.",
          "FullWeight": "",
          "IngredientGridHeaders": null,
          "IngredientID": 883,
          "IngredientName": "carrot",
          "IngredientStep": 10,
          "LanguageId": 0,
          "PostPreparation": "s, peeled, thinly sliced",
          "PrePreparation": "",
          "QuantityNum": 2,
          "QuantityText": "2",
          "QuantityUnit": "lb.",
          "RecipeIngredientID": 5154702,
          "TrialMeasure": "",
          "TrialWeight": ""
        },
        {
          "FullMeasure": "1 can",
          "FullWeight": "",
          "IngredientGridHeaders": null,
          "IngredientID": 9786,
          "IngredientName": "fat-free reduced-sodium chicken broth",
          "IngredientStep": 20,
          "LanguageId": 0,
          "PostPreparation": "",
          "PrePreparation": "(14 oz.)",
          "QuantityNum": 1,
          "QuantityText": "1",
          "QuantityUnit": "can",
          "RecipeIngredientID": 5154703,
          "TrialMeasure": "",
          "TrialWeight": ""
        },
        {
          "FullMeasure": "1/2 cup",
          "FullWeight": "",
          "IngredientGridHeaders": null,
          "IngredientID": 641,
          "IngredientName": "PHILADELPHIA Chive & Onion Cream Cheese Spread",
          "IngredientStep": 30,
          "LanguageId": 0,
          "PostPreparation": "",
          "PrePreparation": "(1/2 of 8-oz. tub)",
          "QuantityNum": 0,
          "QuantityText": "1/2",
          "QuantityUnit": "cup",
          "RecipeIngredientID": 5154704,
          "TrialMeasure": "",
          "TrialWeight": ""
        }
      ],
      "IsHealthyLiving": true,
      "KRLId": "568519",
      "KeyIngredients": [
        "Carrot",
        "Cream Cheese",
        "Vegetables"
      ],
      "Keywords": "carrots,cheese,chicken broth or bouillon,PHILADELPHIA Cream Cheese Spre,cream cheese-flavored,broth,Side Dish,Top of Stove,Easy,Nutrition and Well-Being,All Seasons,Thanksgiving,Cooking for a Crowd,Creamy",
      "LanguageId": 1,
      "LifeStyles": [
        "Good source of fiber",
        "Low fat",
        "Good source of vitamin A or C",
        "Generally Nutritious",
        "Diabetes Center"
      ],
      "NumberOfIngredients": 3,
      "NumberOfRatings": 10,
      "NumberOfRatingsWithComments": "9",
      "NumberOfServings": "8 servings, about 1/2 cup each",
      "NumberOfTrialServings": "",
      "NutritionBonus": "This low-fat side dish is a good source of fiber and rich in vitamin A, thanks to the carrots.\r\n",
      "NutritionExchangeItemId": 1,
      "NutritionGridItems": null,
      "NutritionItems": [
        {
          "DisplayOrder": 1,
          "Document": null,
          "NutritionItemID": 3,
          "NutritionItemName": "Calories",
          "Predriscriptor": "",
          "Quantity": 90,
          "Unit": "          "
        },
        {
          "DisplayOrder": 2,
          "Document": "fat_cholesterol.html",
          "NutritionItemID": 4,
          "NutritionItemName": "Total fat",
          "Predriscriptor": "",
          "Quantity": 4,
          "Unit": "g         "
        },
        {
          "DisplayOrder": 3,
          "Document": "fat_cholesterol.html",
          "NutritionItemID": 9,
          "NutritionItemName": "Saturated fat",
          "Predriscriptor": "",
          "Quantity": 2.5,
          "Unit": "g         "
        },
        {
          "DisplayOrder": 7,
          "Document": "fat_cholesterol.html",
          "NutritionItemID": 2,
          "NutritionItemName": "Cholesterol",
          "Predriscriptor": "",
          "Quantity": 10,
          "Unit": "mg        "
        },
        {
          "DisplayOrder": 8,
          "Document": "sodium.html",
          "NutritionItemID": 8,
          "NutritionItemName": "Sodium",
          "Predriscriptor": "",
          "Quantity": 250,
          "Unit": "mg        "
        },
        {
          "DisplayOrder": 10,
          "Document": "carbs_sugars_fiber.html",
          "NutritionItemID": 1,
          "NutritionItemName": "Carbohydrate",
          "Predriscriptor": "",
          "Quantity": 12,
          "Unit": "g         "
        },
        {
          "DisplayOrder": 11,
          "Document": "carbs_sugars_fiber.html",
          "NutritionItemID": 7,
          "NutritionItemName": "Dietary fiber",
          "Predriscriptor": "",
          "Quantity": 3,
          "Unit": "g         "
        },
        {
          "DisplayOrder": 12,
          "Document": "carbs_sugars_fiber.html",
          "NutritionItemID": 5,
          "NutritionItemName": "Sugars",
          "Predriscriptor": "",
          "Quantity": 8,
          "Unit": "g         "
        },
        {
          "DisplayOrder": 13,
          "Document": null,
          "NutritionItemID": 6,
          "NutritionItemName": "Protein",
          "Predriscriptor": "",
          "Quantity": 2,
          "Unit": "g         "
        },
        {
          "DisplayOrder": 14,
          "Document": null,
          "NutritionItemID": 10,
          "NutritionItemName": "Vitamin A",
          "Predriscriptor": "",
          "Quantity": 380,
          "Unit": "%DV       "
        },
        {
          "DisplayOrder": 15,
          "Document": null,
          "NutritionItemID": 11,
          "NutritionItemName": "Vitamin C",
          "Predriscriptor": "",
          "Quantity": 6,
          "Unit": "%DV       "
        },
        {
          "DisplayOrder": 16,
          "Document": "dairy_and_calcium.html",
          "NutritionItemID": 12,
          "NutritionItemName": "Calcium",
          "Predriscriptor": "",
          "Quantity": 6,
          "Unit": "%DV       "
        },
        {
          "DisplayOrder": 17,
          "Document": null,
          "NutritionItemID": 13,
          "NutritionItemName": "Iron",
          "Predriscriptor": "",
          "Quantity": 2,
          "Unit": "%DV       "
        }
      ],
      "NutritionServingText": "",
      "PrepStepImage": null,
      "PreparationDescription": "Bring carrots and broth to boil in saucepan on high heat; cover.  Simmer on medium-low heat 30 min. or until carrots are very tender and most of the broth is absorbed, uncovering for the last 5 min. $Remove from heat; mash until smooth.$Add cream cheese spread; stir until melted.",
      "PreparationPreText": "",
      "PreparationSteps": [
        {
          "Description": "Bring carrots and broth to boil in saucepan on high heat; cover.  Simmer on medium-low heat 30 min. or until carrots are very tender and most of the broth is absorbed, uncovering for the last 5 min. ",
          "PreparationStepImage": {
            "PictureFormats": [],
            "author": null,
            "id": null,
            "imageType": null,
            "mimeType": null,
            "publicationDate": null,
            "status": null,
            "title": null,
            "type": null
          },
          "Sequence": 1
        },
        {
          "Description": "Remove from heat; mash until smooth.",
          "PreparationStepImage": {
            "PictureFormats": [],
            "author": null,
            "id": null,
            "imageType": null,
            "mimeType": null,
            "publicationDate": null,
            "status": null,
            "title": null,
            "type": null
          },
          "Sequence": 2
        },
        {
          "Description": "Add cream cheese spread; stir until melted.",
          "PreparationStepImage": {
            "PictureFormats": [],
            "author": null,
            "id": null,
            "imageType": null,
            "mimeType": null,
            "publicationDate": null,
            "status": null,
            "title": null,
            "type": null
          },
          "Sequence": 3
        }
      ],
      "PreparationTime": 15,
      "Promotion": null,
      "Ratings": {
        "TotalCount": 10,
        "PageCount": 10,
        "PageNo": 1,
        "Rating": [
          {
            "Comment": "We have made soooo many of these recipes, and 99% of them are fantastic! This one...not so much. I basically made carrot soup :/",
            "DisplayName": true,
            "RatingValue": 1,
            "SubmitDate": "/Date(1419018100000-0600)/",
            "UpdatedDate": "/Date(1419018100000-0600)/",
            "UserName": "AlabamianAmy"
          },
          {
            "Comment": "Definitely not a substitute for mashed potatoes, but pretty tasty in its own right. It has a savory-slightly-sweet flavor to it. A good way to use up some extra carrots.",
            "DisplayName": true,
            "RatingValue": 4,
            "SubmitDate": "/Date(1366219053000-0500)/",
            "UpdatedDate": "/Date(1367435783000-0500)/",
            "UserName": "BrittaniSimon"
          },
          {
            "Comment": "",
            "DisplayName": true,
            "RatingValue": 5,
            "SubmitDate": "/Date(1347354683000-0500)/",
            "UpdatedDate": "/Date(1348164619000-0500)/",
            "UserName": "iduna"
          },
          {
            "Comment": "Love any idea to do veggies with a different twist. I'll use the light cream cheese with a little nutmeg. I've cooked carrots and mashed them with my potatoes, but I like this idea better and it sparks other idea's..like making sweet potato casserole, only using carrots! Thanks, cooks at Kraft! It seems Kraft has always been there to add a little yummy comfort along my 60+ years.",
            "DisplayName": true,
            "RatingValue": 4,
            "SubmitDate": "/Date(1347927959000-0500)/",
            "UpdatedDate": "/Date(1347927959000-0500)/",
            "UserName": "CookKa"
          },
          {
            "Comment": "I used canned carrots and heated them in the broth and followed the rest of the recipe.  Very good and very fast.  Loved it",
            "DisplayName": true,
            "RatingValue": 5,
            "SubmitDate": "/Date(1347925302000-0500)/",
            "UpdatedDate": "/Date(1347925302000-0500)/",
            "UserName": "K.K.JO"
          },
          {
            "Comment": "I thought this was a little bland.  Did anyone add anything extra to 'perk' it up?",
            "DisplayName": true,
            "RatingValue": 3,
            "SubmitDate": "/Date(1347830589000-0500)/",
            "UpdatedDate": "/Date(1347830589000-0500)/",
            "UserName": "Mvt88"
          },
          {
            "Comment": "My family did not like this at all.  I think it has something to do with the texture.  ",
            "DisplayName": true,
            "RatingValue": 1,
            "SubmitDate": "/Date(1347557927000-0500)/",
            "UpdatedDate": "/Date(1347557927000-0500)/",
            "UserName": "mikeadriana"
          },
          {
            "Comment": "I loved this!",
            "DisplayName": true,
            "RatingValue": 5,
            "SubmitDate": "/Date(1347384251000-0500)/",
            "UpdatedDate": "/Date(1347384251000-0500)/",
            "UserName": "HeatherBeyer"
          },
          {
            "Comment": "I use a ricer to get the carrots nice and smooth. We like the carrotes better then potatoes. I put stew over them in the winter.Just use butter like in mashed potatoes.",
            "DisplayName": true,
            "RatingValue": 4,
            "SubmitDate": "/Date(1347382884000-0500)/",
            "UpdatedDate": "/Date(1347382884000-0500)/",
            "UserName": "snowball19"
          },
          {
            "Comment": "my family was not at all sure about this right up till the first bite. Now they keep asking me to please make it again. My nine yea old even reminds me to get more Carrots when we shop. ",
            "DisplayName": true,
            "RatingValue": 5,
            "SubmitDate": "/Date(1346204572000-0500)/",
            "UpdatedDate": "/Date(1346204572000-0500)/",
            "UserName": "acorntwenty5"
          }
        ]
      },
      "RecipeDisplayFormatId": 5,
      "RecipeId": 136984,
      "RecipeName": "Creamy Mashed Carrots",
      "RecipeType": 0,
      "RelatedData": {
        "RelatedBrands": null,
        "RelatedProducts": null,
        "RelatedRecipes": {
          "DefaultTopCount": 5,
          "Recipe": [
            {
              "AverageRating": 4.6,
              "HasVideo": false,
              "IsHealthyLiving": false,
              "NumberOfRatings": 14,
              "PhotoName": "Potato-Carrot-Cauliflower-Mash-59291.jpg",
              "PhotoUrl": "http://assets.kraftfoods.com/recipe_images/opendeploy/Potato-Carrot-Cauliflower-Mash-59291.jpg",
              "RecipeId": 121326,
              "RecipeName": "Potato, Carrot & Cauliflower Mash",
              "SEOName": "potato-carrot-cauliflower-mash-121326",
              "ThumbnailPhoto": null
            },
            {
              "AverageRating": 5,
              "HasVideo": false,
              "IsHealthyLiving": false,
              "NumberOfRatings": 1,
              "PhotoName": "180037.jpg",
              "PhotoUrl": "http://assets.kraftfoods.com/recipe_images/opendeploy/180037.jpg",
              "RecipeId": 180037,
              "RecipeName": "Beef Stew with Mashed Potatoes",
              "SEOName": "beef-stew-mashed-potatoes-180037",
              "ThumbnailPhoto": null
            },
            {
              "AverageRating": 4.3,
              "HasVideo": false,
              "IsHealthyLiving": true,
              "NumberOfRatings": 71,
              "PhotoName": "66189.jpg",
              "PhotoUrl": "http://assets.kraftfoods.com/recipe_images/opendeploy/66189.jpg",
              "RecipeId": 66189,
              "RecipeName": "Creamy Mashed Cauliflower",
              "SEOName": "creamy-mashed-cauliflower-66189",
              "ThumbnailPhoto": null
            },
            {
              "AverageRating": 4,
              "HasVideo": false,
              "IsHealthyLiving": true,
              "NumberOfRatings": 1,
              "PhotoName": "182826.jpg",
              "PhotoUrl": "http://assets.kraftfoods.com/recipe_images/opendeploy/182826.jpg",
              "RecipeId": 182826,
              "RecipeName": "Honey-Dijon Salmon with Creamy Cauliflower Mash",
              "SEOName": "honey-dijon-salmon-creamy-cauliflower-mash-182826",
              "ThumbnailPhoto": null
            },
            {
              "AverageRating": 4.1,
              "HasVideo": false,
              "IsHealthyLiving": true,
              "NumberOfRatings": 7,
              "PhotoName": "Creamy_Mashed_Sweet_Potatoes.jpg",
              "PhotoUrl": "http://assets.kraftfoods.com/recipe_images/opendeploy/Creamy_Mashed_Sweet_Potatoes.jpg",
              "RecipeId": 109205,
              "RecipeName": "Creamy Mashed Sweet Potatoes",
              "SEOName": "creamy-mashed-sweet-potatoes-109205",
              "ThumbnailPhoto": null
            }
          ],
          "TotalCount": 1090
        }
      },
      "RiseIngredients": [],
      "RiseTaxonomy": [],
      "Riserecipe": [
        {
          "GRIN": 568519,
          "RecipeId": 136984,
          "RecipeIndustrySector": "Retail",
          "RecipeType": "Internal"
        }
      ],
      "RomanceText": "We used fat-free, reduced-sodium chicken broth to help make these Creamy Mashed Carrots a Healthy Living recipe.",
      "SEOName": "creamy-mashed-carrots-136984",
      "Tips": [
        {
          "RecipeId": 136984,
          "Sequence": 10,
          "TipDescription": "Sprinkle with chopped fresh chives just before serving.",
          "TipID": 3,
          "TipName": "Special Extra"
        },
        {
          "RecipeId": 136984,
          "Sequence": 20,
          "TipDescription": "Recipe can be prepared ahead of time. Cool, then refrigerate up to 24 hours. Reheat just before serving. ",
          "TipID": 1,
          "TipName": "Make Ahead"
        }
      ],
      "TotalTime": 45,
      "TradeMarkInfo": null,
      "Video": [],
      "Yield": "Makes 8 servings, about 1/2 cup each."
    }
  ]
}