{
  "Metadata": {
    "PageCount": 1,
    "PageNo": 0,
    "TotalCount": 0
  },
  "Recipes": [
    {
      "AdServingKeywords": "Cheese,Chicken,Corn,Lettuce,Meat,Poultry,Tomato,Vegetables,Sandwich,Easy,Nutrition and Well-Being,Mexican,Southwest,Dinner,Lunch,Wrap,All Seasons,Picnic,Kraft Cheese,Kraft Salad Dressing,Kraft Shredded Cheese,Oscar Mayer,Taco Bell®,Spicy",
      "AlternateLanguageRecipes": [],
      "Assets": [
        {
          "PictureFormats": [
            {
              "rendition": "290x194",
              "url": "http://assets.kraftfoods.com/recipe_images/opendeploy/Santa_Fe_Grilled_Chicken_Salad_Wrap_290x194.jpg"
            },
            {
              "rendition": "600x250",
              "url": "http://assets.kraftfoods.com/recipe_images/opendeploy/Santa_Fe_Grilled_Chicken_Salad_Wrap_600x250.jpg"
            },
            {
              "rendition": "640x428",
              "url": "http://assets.kraftfoods.com/recipe_images/opendeploy/Santa_Fe_Grilled_Chicken_Salad_Wrap_640x428.jpg"
            }
          ],
          "author": null,
          "id": "2",
          "imageType": "Primary",
          "mimeType": "image/jpeg",
          "publicationDate": null,
          "status": "1",
          "title": "Santa_Fe_Grilled_Chicken_Salad_Wrap",
          "type": "image"
        },
        {
          "PictureFormats": [
            {
              "rendition": "300x200",
              "url": "http://assets.kraftfoods.com/recipe_images/64882.jpg"
            }
          ],
          "author": "BulKUpload",
          "id": "0",
          "imageType": "LANDSCAPE",
          "mimeType": "image/jpeg",
          "publicationDate": null,
          "status": "1",
          "title": "64882.jpg",
          "type": "image"
        }
      ],
      "AverageRating": 4.4,
      "BrandId": 1,
      "Branding": null,
      "CSSSkins": null,
      "CarbCounter": null,
      "Categories": [
        {
          "CategoryID": 11,
          "CategoryName": "Primary",
          "CategoryRank": 0,
          "SubCategoryID": 105,
          "SubCategoryName": "Sandwiches",
          "SubCategoryRank": 80
        },
        {
          "CategoryID": 14,
          "CategoryName": "Soup/Sandwiches",
          "CategoryRank": 14,
          "SubCategoryID": 162,
          "SubCategoryName": "Wrapped Sandwiches",
          "SubCategoryRank": 120
        },
        {
          "CategoryID": 751,
          "CategoryName": "Breads, Sandwiches, Wraps & Burgers",
          "CategoryRank": 5,
          "SubCategoryID": 2531,
          "SubCategoryName": "Fresh",
          "SubCategoryRank": 1
        },
        {
          "CategoryID": 751,
          "CategoryName": "Breads, Sandwiches, Wraps & Burgers",
          "CategoryRank": 5,
          "SubCategoryID": 2532,
          "SubCategoryName": "Toasted / Grilled / Cooked",
          "SubCategoryRank": 1
        }
      ],
      "Classifications": [
        {
          "ClassficationId": 13,
          "ClassificationName": "Good source of vitamin A or C"
        },
        {
          "ClassficationId": 14,
          "ClassificationName": "Generally Nutritious"
        }
      ],
      "ComplimentaryRecipes": null,
      "CookingMethod": null,
      "Copyright": null,
      "Courses": [
        "Sandwiches"
      ],
      "DietExchange": "",
      "DishDetails": [
        {
          "Text": "chicken recipes",
          "Url": "/recipes/dinner/chicken-recipes/main.aspx"
        },
        {
          "Text": "grilled chicken recipes",
          "Url": "/recipes/dinner/chicken-recipes/grilled-chicken/main.aspx"
        },
        {
          "Text": "healthy living chicken recipes",
          "Url": "/recipes/dinner/chicken-recipes/hl/main.aspx"
        },
        {
          "Text": "slow cooker chicken recipes",
          "Url": "/recipes/dinner/chicken-recipes/slow-cooker/main.aspx"
        },
        {
          "Text": "whole chicken recipes",
          "Url": "/recipes/dinner/chicken-recipes/whole-chicken/main.aspx"
        },
        {
          "Text": "chicken breast recipes",
          "Url": "/recipes/dinner/chicken-recipes/chicken-breast/main.aspx"
        },
        {
          "Text": "chicken casseroles",
          "Url": "/recipes/dinner/chicken-recipes/casseroles/main.aspx"
        },
        {
          "Text": "chicken pasta recipes",
          "Url": "/recipes/dinner/chicken-recipes/pasta-dishes/main.aspx"
        },
        {
          "Text": "chicken salad recipes",
          "Url": "/recipes/dinner/chicken-recipes/salads/main.aspx"
        },
        {
          "Text": "chicken stir-fry recipes",
          "Url": "/recipes/dinner/chicken-recipes/stir-fry/main.aspx"
        },
        {
          "Text": "chicken wing recipes",
          "Url": "/recipes/appetizers/chicken-wing-recipes/main.aspx"
        },
        {
          "Text": "baked chicken recipes",
          "Url": "/recipes/dinner/chicken-recipes/baked-chicken/main.aspx"
        },
        {
          "Text": "bbq chicken recipes",
          "Url": "/recipes/holidays-and-entertaining/entertaining/summer/bbq-recipes/bbq-chicken-recipes/main.aspx"
        }
      ],
      "EndDate": "/Date(-62135575200000-0600)/",
      "HasVideo": false,
      "Ingredients": [
        {
          "FullMeasure": null,
          "FullWeight": null,
          "IngredientGridHeaders": null,
          "IngredientID": 67995,
          "IngredientName": "torn romaine lettuce",
          "IngredientStep": 10,
          "LanguageId": 0,
          "PostPreparation": "",
          "PrePreparation": "",
          "QuantityNum": 4,
          "QuantityText": "4",
          "QuantityUnit": "cups",
          "RecipeIngredientID": 63378,
          "TrialMeasure": null,
          "TrialWeight": null
        },
        {
          "FullMeasure": null,
          "FullWeight": null,
          "IngredientGridHeaders": null,
          "IngredientID": 68440,
          "IngredientName": "(6 oz.) OSCAR MAYER CARVING BOARD Flame Grilled Chicken Breast Strips",
          "IngredientStep": 20,
          "LanguageId": 0,
          "PostPreparation": "",
          "PrePreparation": "",
          "QuantityNum": 1,
          "QuantityText": "1",
          "QuantityUnit": "pkg.",
          "RecipeIngredientID": 475311,
          "TrialMeasure": null,
          "TrialWeight": null
        },
        {
          "FullMeasure": null,
          "FullWeight": null,
          "IngredientGridHeaders": null,
          "IngredientID": 69214,
          "IngredientName": "tomato, chopped",
          "IngredientStep": 30,
          "LanguageId": 0,
          "PostPreparation": "",
          "PrePreparation": "",
          "QuantityNum": 1,
          "QuantityText": "1",
          "QuantityUnit": "large",
          "RecipeIngredientID": 58492,
          "TrialMeasure": null,
          "TrialWeight": null
        },
        {
          "FullMeasure": null,
          "FullWeight": null,
          "IngredientGridHeaders": null,
          "IngredientID": 67811,
          "IngredientName": " (11 oz.) corn, drained",
          "IngredientStep": 40,
          "LanguageId": 0,
          "PostPreparation": "",
          "PrePreparation": "",
          "QuantityNum": 1,
          "QuantityText": "1 ",
          "QuantityUnit": "can",
          "RecipeIngredientID": 64000,
          "TrialMeasure": null,
          "TrialWeight": null
        },
        {
          "FullMeasure": null,
          "FullWeight": null,
          "IngredientGridHeaders": null,
          "IngredientID": 68559,
          "IngredientName": "KRAFT Mexican Style Finely Shredded Four Cheese",
          "IngredientStep": 50,
          "LanguageId": 0,
          "PostPreparation": "",
          "PrePreparation": "",
          "QuantityNum": 0.5,
          "QuantityText": "1/2",
          "QuantityUnit": "cup",
          "RecipeIngredientID": 62280,
          "TrialMeasure": null,
          "TrialWeight": null
        },
        {
          "FullMeasure": null,
          "FullWeight": null,
          "IngredientGridHeaders": null,
          "IngredientID": 68124,
          "IngredientName": "KRAFT Classic Ranch Dressing",
          "IngredientStep": 60,
          "LanguageId": 0,
          "PostPreparation": "",
          "PrePreparation": "",
          "QuantityNum": 0.25,
          "QuantityText": "1/4",
          "QuantityUnit": "cup",
          "RecipeIngredientID": 65649,
          "TrialMeasure": null,
          "TrialWeight": null
        },
        {
          "FullMeasure": null,
          "FullWeight": null,
          "IngredientGridHeaders": null,
          "IngredientID": 68165,
          "IngredientName": "TACO BELL® Thick & Chunky Salsa",
          "IngredientStep": 70,
          "LanguageId": 0,
          "PostPreparation": "",
          "PrePreparation": "",
          "QuantityNum": 0.25,
          "QuantityText": "1/4",
          "QuantityUnit": "cup",
          "RecipeIngredientID": 63556,
          "TrialMeasure": null,
          "TrialWeight": null
        },
        {
          "FullMeasure": null,
          "FullWeight": null,
          "IngredientGridHeaders": null,
          "IngredientID": 69044,
          "IngredientName": "flour tortillas (6 inch)",
          "IngredientStep": 80,
          "LanguageId": 0,
          "PostPreparation": "",
          "PrePreparation": "",
          "QuantityNum": 8,
          "QuantityText": "8",
          "QuantityUnit": "",
          "RecipeIngredientID": 58049,
          "TrialMeasure": null,
          "TrialWeight": null
        }
      ],
      "IsHealthyLiving": true,
      "KRLId": "504752",
      "KeyIngredients": [],
      "Keywords": "Sandwich,Easy,Nutrition and Well-Being,Mexican,Southwest,Dinner,Lunch,Wrap,All Seasons,Picnic,Spicy",
      "LanguageId": 1,
      "LifeStyles": [
        "Good source of vitamin A or C",
        "Generally Nutritious"
      ],
      "NumberOfIngredients": 8,
      "NumberOfRatings": 50,
      "NumberOfRatingsWithComments": "42",
      "NumberOfServings": "Makes 4 servings.",
      "NumberOfTrialServings": null,
      "NutritionBonus": "These easy-to-make wraps are a good source of vitamin A from the lettuce.",
      "NutritionExchangeItemId": 1,
      "NutritionGridItems": null,
      "NutritionItems": [
        {
          "DisplayOrder": 0,
          "Document": null,
          "NutritionItemID": 384,
          "NutritionItemName": "Vitamin D",
          "Predriscriptor": "",
          "Quantity": 0,
          "Unit": "%DV       "
        },
        {
          "DisplayOrder": 0,
          "Document": null,
          "NutritionItemID": 385,
          "NutritionItemName": "Vitamin E",
          "Predriscriptor": "",
          "Quantity": 2,
          "Unit": "%DV       "
        },
        {
          "DisplayOrder": 0,
          "Document": null,
          "NutritionItemID": 388,
          "NutritionItemName": "Potassium",
          "Predriscriptor": "",
          "Quantity": 8,
          "Unit": "%DV       "
        },
        {
          "DisplayOrder": 0,
          "Document": null,
          "NutritionItemID": 390,
          "NutritionItemName": "Added Sugars",
          "Predriscriptor": "",
          "Quantity": 0,
          "Unit": "g         "
        },
        {
          "DisplayOrder": 1,
          "Document": null,
          "NutritionItemID": 371,
          "NutritionItemName": "Calories",
          "Predriscriptor": "",
          "Quantity": 370,
          "Unit": "          "
        },
        {
          "DisplayOrder": 2,
          "Document": null,
          "NutritionItemID": 376,
          "NutritionItemName": "Total fat",
          "Predriscriptor": "",
          "Quantity": 15,
          "Unit": "g         "
        },
        {
          "DisplayOrder": 3,
          "Document": null,
          "NutritionItemID": 377,
          "NutritionItemName": "Saturated fat",
          "Predriscriptor": "",
          "Quantity": 5,
          "Unit": "g         "
        },
        {
          "DisplayOrder": 4,
          "Document": null,
          "NutritionItemID": 379,
          "NutritionItemName": "Polyunsaturated Fat",
          "Predriscriptor": "",
          "Quantity": 0,
          "Unit": "g         "
        },
        {
          "DisplayOrder": 5,
          "Document": null,
          "NutritionItemID": 378,
          "NutritionItemName": "Monounsaturated Fat",
          "Predriscriptor": "",
          "Quantity": 1.5,
          "Unit": "g         "
        },
        {
          "DisplayOrder": 6,
          "Document": null,
          "NutritionItemID": 380,
          "NutritionItemName": "Trans Fat",
          "Predriscriptor": "",
          "Quantity": 0,
          "Unit": "g         "
        },
        {
          "DisplayOrder": 7,
          "Document": null,
          "NutritionItemID": 381,
          "NutritionItemName": "Cholesterol",
          "Predriscriptor": "",
          "Quantity": 50,
          "Unit": "mg        "
        },
        {
          "DisplayOrder": 8,
          "Document": null,
          "NutritionItemID": 389,
          "NutritionItemName": "Sodium",
          "Predriscriptor": "",
          "Quantity": 1000,
          "Unit": "mg        "
        },
        {
          "DisplayOrder": 10,
          "Document": null,
          "NutritionItemID": 373,
          "NutritionItemName": "Carbohydrate",
          "Predriscriptor": "",
          "Quantity": 40,
          "Unit": "g         "
        },
        {
          "DisplayOrder": 11,
          "Document": null,
          "NutritionItemID": 374,
          "NutritionItemName": "Dietary fiber",
          "Predriscriptor": "",
          "Quantity": 5,
          "Unit": "g         "
        },
        {
          "DisplayOrder": 12,
          "Document": null,
          "NutritionItemID": 375,
          "NutritionItemName": "Sugars",
          "Predriscriptor": "",
          "Quantity": 7,
          "Unit": "g         "
        },
        {
          "DisplayOrder": 13,
          "Document": null,
          "NutritionItemID": 372,
          "NutritionItemName": "Protein",
          "Predriscriptor": "",
          "Quantity": 21,
          "Unit": "g         "
        },
        {
          "DisplayOrder": 14,
          "Document": null,
          "NutritionItemID": 382,
          "NutritionItemName": "Vitamin A",
          "Predriscriptor": "",
          "Quantity": 150,
          "Unit": "%DV       "
        },
        {
          "DisplayOrder": 15,
          "Document": null,
          "NutritionItemID": 383,
          "NutritionItemName": "Vitamin C",
          "Predriscriptor": "",
          "Quantity": 10,
          "Unit": "%DV       "
        },
        {
          "DisplayOrder": 16,
          "Document": null,
          "NutritionItemID": 386,
          "NutritionItemName": "Calcium",
          "Predriscriptor": "",
          "Quantity": 4,
          "Unit": "%DV       "
        },
        {
          "DisplayOrder": 17,
          "Document": null,
          "NutritionItemID": 387,
          "NutritionItemName": "Iron",
          "Predriscriptor": "",
          "Quantity": 8,
          "Unit": "%DV       "
        }
      ],
      "NutritionServingText": null,
      "PrepStepImage": null,
      "PreparationDescription": "Combine first 4 ingredients in large bowl; sprinkle with cheese.$Mix dressing and salsa.  Add to lettuce mixture; toss to coat.  $Spoon onto tortillas; roll up.  ",
      "PreparationPreText": null,
      "PreparationSteps": [
        {
          "Description": "Combine first 4 ingredients in large bowl; sprinkle with cheese.",
          "PreparationStepImage": {
            "PictureFormats": [],
            "author": null,
            "id": null,
            "imageType": null,
            "mimeType": null,
            "publicationDate": null,
            "status": null,
            "title": null,
            "type": null
          },
          "Sequence": 1
        },
        {
          "Description": "Mix dressing and salsa.  Add to lettuce mixture; toss to coat.  ",
          "PreparationStepImage": {
            "PictureFormats": [],
            "author": null,
            "id": null,
            "imageType": null,
            "mimeType": null,
            "publicationDate": null,
            "status": null,
            "title": null,
            "type": null
          },
          "Sequence": 2
        },
        {
          "Description": "Spoon onto tortillas; roll up.  ",
          "PreparationStepImage": {
            "PictureFormats": [],
            "author": null,
            "id": null,
            "imageType": null,
            "mimeType": null,
            "publicationDate": null,
            "status": null,
            "title": null,
            "type": null
          },
          "Sequence": 3
        }
      ],
      "PreparationTime": 15,
      "Promotion": null,
      "Ratings": {
        "TotalCount": 50,
        "PageCount": 10,
        "PageNo": 1,
        "Rating": [
          {
            "Comment": "delicious. so easy",
            "DisplayName": true,
            "RatingValue": 5,
            "SubmitDate": "/Date(1344477061000-0500)/",
            "UpdatedDate": "/Date(1344477061000-0500)/",
            "UserName": "smmontez"
          },
          {
            "Comment": "easy and good",
            "DisplayName": true,
            "RatingValue": 4,
            "SubmitDate": "/Date(1344023915000-0500)/",
            "UpdatedDate": "/Date(1344023915000-0500)/",
            "UserName": "albertalvinjohnson"
          },
          {
            "Comment": "I added some bacon to it and it was really good",
            "DisplayName": true,
            "RatingValue": 4,
            "SubmitDate": "/Date(1328117756000-0600)/",
            "UpdatedDate": "/Date(1328117756000-0600)/",
            "UserName": "elupo0325"
          },
          {
            "Comment": "",
            "DisplayName": true,
            "RatingValue": 2,
            "SubmitDate": "/Date(1314730229000-0500)/",
            "UpdatedDate": "/Date(1314730229000-0500)/",
            "UserName": "BrittaniSimon"
          },
          {
            "Comment": "I made this last month for my daughter's birthday party at a park (I wanted all \"non-utensil\" foods). This was the biggest hit and I had tons of people ask for the recipe! The only change I made was using bigger tortillas so I could close the ends and cut them in half for a larger # of people. My husband LOVED it and requested it for dinners :). I'm making it again this weekend for my other daughter's party!",
            "DisplayName": true,
            "RatingValue": 5,
            "SubmitDate": "/Date(1313691233000-0500)/",
            "UpdatedDate": "/Date(1313691233000-0500)/",
            "UserName": "medfordmomma"
          },
          {
            "Comment": "Family, esp 5 y.o. enjoyed this meal. It was a nice alternative to a cooked meal in half the time. And there were so many possibilities in terms of veggies. A winner all around.",
            "DisplayName": true,
            "RatingValue": 4,
            "SubmitDate": "/Date(1257382808000-0600)/",
            "UpdatedDate": "/Date(1257382808000-0600)/",
            "UserName": "honeybear512"
          },
          {
            "Comment": "Very good for a warm summer day. ",
            "DisplayName": true,
            "RatingValue": 4,
            "SubmitDate": "/Date(1246933974000-0500)/",
            "UpdatedDate": "/Date(1246933974000-0500)/",
            "UserName": "bushwacked61"
          },
          {
            "Comment": "My whole family loved this!  I couldn't find the Oscar Meyer chicken strips, so I substituted with mesquite chicken that I seasoned from a seasoning packet.  And it made good leftovers for lunch the next day.",
            "DisplayName": true,
            "RatingValue": 5,
            "SubmitDate": "/Date(1241137583000-0500)/",
            "UpdatedDate": "/Date(1241137583000-0500)/",
            "UserName": "Kimz09"
          },
          {
            "Comment": "This was so good! Very easy to put together and eat ;).",
            "DisplayName": true,
            "RatingValue": 4,
            "SubmitDate": "/Date(1232485619000-0600)/",
            "UpdatedDate": "/Date(1232485619000-0600)/",
            "UserName": "raycha2586"
          },
          {
            "Comment": "This is a regular on our dinner menu. We like it better with freshly cooked chicken rather than precooked chicken.",
            "DisplayName": true,
            "RatingValue": 5,
            "SubmitDate": "/Date(1231293416000-0600)/",
            "UpdatedDate": "/Date(1231293416000-0600)/",
            "UserName": "jennij14"
          }
        ]
      },
      "RecipeDisplayFormatId": 0,
      "RecipeId": 64882,
      "RecipeName": "Santa Fe Chicken Salad Wrap",
      "RecipeType": 0,
      "RelatedData": {
        "RelatedBrands": null,
        "RelatedProducts": null,
        "RelatedRecipes": {
          "DefaultTopCount": 5,
          "Recipe": [
            {
              "AverageRating": 4.5,
              "HasVideo": false,
              "IsHealthyLiving": true,
              "NumberOfRatings": 2,
              "PhotoName": "110863.jpg",
              "PhotoUrl": "http://assets.kraftfoods.com/recipe_images/opendeploy/110863.jpg",
              "RecipeId": 110863,
              "RecipeName": "Santa Fe Chicken Salad",
              "SEOName": "santa-fe-chicken-salad-110863",
              "ThumbnailPhoto": null
            },
            {
              "AverageRating": 4,
              "HasVideo": false,
              "IsHealthyLiving": false,
              "NumberOfRatings": 114,
              "PhotoName": "Santa_Fe_Chicken_Fajita_Soup.jpg",
              "PhotoUrl": "http://assets.kraftfoods.com/recipe_images/opendeploy/Santa_Fe_Chicken_Fajita_Soup.jpg",
              "RecipeId": 51234,
              "RecipeName": "Santa Fe Chicken Fajita Soup",
              "SEOName": "santa-fe-chicken-fajita-soup-51234",
              "ThumbnailPhoto": null
            },
            {
              "AverageRating": 4.5,
              "HasVideo": false,
              "IsHealthyLiving": false,
              "NumberOfRatings": 129,
              "PhotoName": "opendeploy/557473_1_1_retail-ea14fde7ccc1d2799794f450963a1098aaa5e60e_306x204.jpg",
              "PhotoUrl": "http://assets.kraftfoods.com/recipe_images/opendeploy/opendeploy/557473_1_1_retail-ea14fde7ccc1d2799794f450963a1098aaa5e60e_306x204.jpg",
              "RecipeId": 121725,
              "RecipeName": "Santa Fe Chicken Casserole",
              "SEOName": "santa-fe-chicken-casserole-121725",
              "ThumbnailPhoto": null
            },
            {
              "AverageRating": 4.7,
              "HasVideo": false,
              "IsHealthyLiving": false,
              "NumberOfRatings": 49,
              "PhotoName": "122512.jpg",
              "PhotoUrl": "http://assets.kraftfoods.com/recipe_images/opendeploy/122512.jpg",
              "RecipeId": 122512,
              "RecipeName": "Santa Fe Chicken Enchilada Stew",
              "SEOName": "santa-fe-chicken-enchilada-stew-122512",
              "ThumbnailPhoto": null
            },
            {
              "AverageRating": 4.1,
              "HasVideo": false,
              "IsHealthyLiving": false,
              "NumberOfRatings": 79,
              "PhotoName": "114523.jpg",
              "PhotoUrl": "http://assets.kraftfoods.com/recipe_images/opendeploy/114523.jpg",
              "RecipeId": 114523,
              "RecipeName": "Santa Fe Chicken Recipe",
              "SEOName": "santa-fe-chicken-recipe-114523",
              "ThumbnailPhoto": null
            }
          ],
          "TotalCount": 2951
        }
      },
      "RiseIngredients": [
        {
          "IngredientCategory": "KRL",
          "IngredientId": 67811,
          "IngredientIndustrySector": "Retail",
          "IngredientType": "Inedible",
          "ProductId": null,
          "RecipeId": 64882
        },
        {
          "IngredientCategory": "KRL",
          "IngredientId": 67995,
          "IngredientIndustrySector": "Retail",
          "IngredientType": "Inedible",
          "ProductId": null,
          "RecipeId": 64882
        },
        {
          "IngredientCategory": "KRL",
          "IngredientId": 68124,
          "IngredientIndustrySector": "Retail",
          "IngredientType": "KHC",
          "ProductId": "00021000643592",
          "RecipeId": 64882
        },
        {
          "IngredientCategory": "KRL",
          "IngredientId": 68165,
          "IngredientIndustrySector": "Retail",
          "IngredientType": "KHC",
          "ProductId": "00021000046959",
          "RecipeId": 64882
        },
        {
          "IngredientCategory": "KRL",
          "IngredientId": 68440,
          "IngredientIndustrySector": "Retail",
          "IngredientType": "KHC",
          "ProductId": "00044700022887",
          "RecipeId": 64882
        },
        {
          "IngredientCategory": "KRL",
          "IngredientId": 68559,
          "IngredientIndustrySector": "Retail",
          "IngredientType": "KHC",
          "ProductId": "00021000054961",
          "RecipeId": 64882
        },
        {
          "IngredientCategory": "KRL",
          "IngredientId": 69044,
          "IngredientIndustrySector": "Retail",
          "IngredientType": "Inedible",
          "ProductId": null,
          "RecipeId": 64882
        },
        {
          "IngredientCategory": "KRL",
          "IngredientId": 69214,
          "IngredientIndustrySector": "Retail",
          "IngredientType": "Inedible",
          "ProductId": null,
          "RecipeId": 64882
        }
      ],
      "RiseTaxonomy": [
        {
          "ParentTaxonomyId": 0,
          "RecipeId": 64882,
          "ResourceName": "Recipe",
          "TaxonomyId": 58,
          "TaxonomyName": "Lunch",
          "TaxonomyTypeId": 1,
          "TaxonomyTypeName": "Day Part"
        },
        {
          "ParentTaxonomyId": 0,
          "RecipeId": 64882,
          "ResourceName": "Recipe",
          "TaxonomyId": 65,
          "TaxonomyName": "Entrées",
          "TaxonomyTypeId": 2,
          "TaxonomyTypeName": "Meal Part"
        },
        {
          "ParentTaxonomyId": 43,
          "RecipeId": 64882,
          "ResourceName": "Recipe",
          "TaxonomyId": 160,
          "TaxonomyName": "Wrapped Sandwiches",
          "TaxonomyTypeId": 3,
          "TaxonomyTypeName": "Dish Type"
        },
        {
          "ParentTaxonomyId": 0,
          "RecipeId": 64882,
          "ResourceName": "Recipe",
          "TaxonomyId": 306,
          "TaxonomyName": "Easter",
          "TaxonomyTypeId": 5,
          "TaxonomyTypeName": "Occasion-Theme"
        },
        {
          "ParentTaxonomyId": 0,
          "RecipeId": 64882,
          "ResourceName": "Recipe",
          "TaxonomyId": 317,
          "TaxonomyName": "Mother's Day",
          "TaxonomyTypeId": 5,
          "TaxonomyTypeName": "Occasion-Theme"
        },
        {
          "ParentTaxonomyId": 0,
          "RecipeId": 64882,
          "ResourceName": "Recipe",
          "TaxonomyId": 337,
          "TaxonomyName": "Spring",
          "TaxonomyTypeId": 6,
          "TaxonomyTypeName": "Season"
        }
      ],
      "Riserecipe": [
        {
          "GRIN": 504752,
          "RecipeId": 64882,
          "RecipeIndustrySector": "Retail",
          "RecipeType": "Internal"
        }
      ],
      "RomanceText": "Travel to New Mexico from your kitchen with Santa Fe Chicken Salad Wrap. Thanks to the tortillas, you can enjoy this Santa Fe Chicken Salad Wrap anywhere.",
      "SEOName": "santa-fe-chicken-salad-wrap-64882",
      "Tips": [
        {
          "RecipeId": 64882,
          "Sequence": 10,
          "TipDescription": "Prepare as directed, substituting 3/4 lb. boneless beef sirloin steak, grilled and cut into strips, for the chicken breast strips.",
          "TipID": 1,
          "TipName": "Santa Fe Grilled Steak Salad Wrap"
        }
      ],
      "TotalTime": 15,
      "TradeMarkInfo": null,
      "Video": [],
      "Yield": "Makes 4 servings."
    }
  ]
}