{
  "Metadata": {
    "PageCount": 1,
    "PageNo": 0,
    "TotalCount": 0
  },
  "Recipes": [
    {
      "AdServingKeywords": "Entree,Easy,Broccoli,Chicken,Meat,Onion,Pasta/Noodles,Peppers,Poultry,Vegetables,Kraft Salad Dressing,Oscar Mayer,All Seasons,Dinner,Lunch,Picnic,Entree Salad,Pasta Salad",
      "AlternateLanguageRecipes": [],
      "Assets": [
        {
          "PictureFormats": [
            {
              "rendition": "140x90",
              "url": "http://assets.kraftfoods.com/recipe_images/opendeploy/51008_MXM_K14844V0_OR1_OH_140x90.jpg"
            },
            {
              "rendition": "290x194",
              "url": "http://assets.kraftfoods.com/recipe_images/opendeploy/51008_MXM_K14844V0_OR1_OH_290x194.jpg"
            },
            {
              "rendition": "300x250",
              "url": "http://assets.kraftfoods.com/recipe_images/opendeploy/51008_MXM_K14844V0_OR1_OH_300x250.jpg"
            },
            {
              "rendition": "600x250",
              "url": "http://assets.kraftfoods.com/recipe_images/opendeploy/51008_MXM_K14844V0_OR1_OH_600x250.jpg"
            },
            {
              "rendition": "640x428",
              "url": "http://assets.kraftfoods.com/recipe_images/opendeploy/51008_MXM_K14844V0_OR1_OH_640x428.jpg"
            },
            {
              "rendition": "960x300",
              "url": "http://assets.kraftfoods.com/recipe_images/opendeploy/51008_MXM_K14844V0_OR1_OH_960x300.jpg"
            }
          ],
          "author": null,
          "id": "5",
          "imageType": "Primary",
          "mimeType": "image/jpeg",
          "publicationDate": null,
          "status": "1",
          "title": "51008_MXM_K14844V0_OR1_OH",
          "type": "image"
        },
        {
          "PictureFormats": [
            {
              "rendition": "300x200",
              "url": "http://assets.kraftfoods.com/recipe_images/Garden-Chicken-Pasta-Salad-14844.jpg"
            }
          ],
          "author": null,
          "id": "0",
          "imageType": "LANDSCAPE",
          "mimeType": null,
          "publicationDate": null,
          "status": "1",
          "title": "Garden-Chicken-Pasta-Salad-14844.jpg",
          "type": "image"
        }
      ],
      "AverageRating": 4.4,
      "BrandId": 1,
      "Branding": null,
      "CSSSkins": null,
      "CarbCounter": null,
      "Categories": [
        {
          "CategoryID": 2,
          "CategoryName": "Poultry Entrees",
          "CategoryRank": 11,
          "SubCategoryID": 383,
          "SubCategoryName": "Salads",
          "SubCategoryRank": 60
        },
        {
          "CategoryID": 9,
          "CategoryName": "Salads/Side Dishes",
          "CategoryRank": 13,
          "SubCategoryID": 171,
          "SubCategoryName": "Main Dish Salads: Chicken",
          "SubCategoryRank": 60
        },
        {
          "CategoryID": 11,
          "CategoryName": "Primary",
          "CategoryRank": 0,
          "SubCategoryID": 97,
          "SubCategoryName": "Entrees",
          "SubCategoryRank": 50
        },
        {
          "CategoryID": 11,
          "CategoryName": "Primary",
          "CategoryRank": 0,
          "SubCategoryID": 98,
          "SubCategoryName": "Salads",
          "SubCategoryRank": 70
        },
        {
          "CategoryID": 752,
          "CategoryName": "Salads",
          "CategoryRank": 6,
          "SubCategoryID": 2534,
          "SubCategoryName": "Main Course",
          "SubCategoryRank": 1
        },
        {
          "CategoryID": 752,
          "CategoryName": "Salads",
          "CategoryRank": 6,
          "SubCategoryID": 2537,
          "SubCategoryName": "Pasta / Rice",
          "SubCategoryRank": 1
        },
        {
          "CategoryID": 752,
          "CategoryName": "Salads",
          "CategoryRank": 6,
          "SubCategoryID": 2538,
          "SubCategoryName": "Potato",
          "SubCategoryRank": 1
        },
        {
          "CategoryID": 756,
          "CategoryName": "Main Meals (Meat / Seafood / Egg)",
          "CategoryRank": 10,
          "SubCategoryID": 2562,
          "SubCategoryName": "Chicken",
          "SubCategoryRank": 1
        }
      ],
      "Classifications": [],
      "ComplimentaryRecipes": null,
      "CookingMethod": null,
      "Copyright": null,
      "Courses": [
        "Main dishes",
        "Salads & sides"
      ],
      "DietExchange": null,
      "DishDetails": [
        {
          "Text": "chicken recipes",
          "Url": "/recipes/dinner/chicken-recipes/main.aspx"
        },
        {
          "Text": "grilled chicken recipes",
          "Url": "/recipes/dinner/chicken-recipes/grilled-chicken/main.aspx"
        },
        {
          "Text": "healthy living chicken recipes",
          "Url": "/recipes/dinner/chicken-recipes/hl/main.aspx"
        },
        {
          "Text": "slow cooker chicken recipes",
          "Url": "/recipes/dinner/chicken-recipes/slow-cooker/main.aspx"
        },
        {
          "Text": "whole chicken recipes",
          "Url": "/recipes/dinner/chicken-recipes/whole-chicken/main.aspx"
        },
        {
          "Text": "chicken breast recipes",
          "Url": "/recipes/dinner/chicken-recipes/chicken-breast/main.aspx"
        },
        {
          "Text": "chicken casseroles",
          "Url": "/recipes/dinner/chicken-recipes/casseroles/main.aspx"
        },
        {
          "Text": "chicken pasta recipes",
          "Url": "/recipes/dinner/chicken-recipes/pasta-dishes/main.aspx"
        },
        {
          "Text": "chicken salad recipes",
          "Url": "/recipes/dinner/chicken-recipes/salads/main.aspx"
        },
        {
          "Text": "chicken stir-fry recipes",
          "Url": "/recipes/dinner/chicken-recipes/stir-fry/main.aspx"
        },
        {
          "Text": "chicken wing recipes",
          "Url": "/recipes/appetizers/chicken-wing-recipes/main.aspx"
        },
        {
          "Text": "baked chicken recipes",
          "Url": "/recipes/dinner/chicken-recipes/baked-chicken/main.aspx"
        },
        {
          "Text": "bbq chicken recipes",
          "Url": "/recipes/holidays-and-entertaining/entertaining/summer/bbq-recipes/bbq-chicken-recipes/main.aspx"
        }
      ],
      "EndDate": "/Date(-62135575200000-0600)/",
      "HasVideo": false,
      "Ingredients": [
        {
          "FullMeasure": null,
          "FullWeight": null,
          "IngredientGridHeaders": null,
          "IngredientID": 68039,
          "IngredientName": "rotini pasta, cooked, rinsed",
          "IngredientStep": 10,
          "LanguageId": 0,
          "PostPreparation": "",
          "PrePreparation": "",
          "QuantityNum": 3,
          "QuantityText": "3",
          "QuantityUnit": "cups",
          "RecipeIngredientID": 181437,
          "TrialMeasure": null,
          "TrialWeight": null
        },
        {
          "FullMeasure": null,
          "FullWeight": null,
          "IngredientGridHeaders": null,
          "IngredientID": 69136,
          "IngredientName": "broccoli florets",
          "IngredientStep": 20,
          "LanguageId": 0,
          "PostPreparation": "",
          "PrePreparation": "",
          "QuantityNum": 2,
          "QuantityText": "2",
          "QuantityUnit": "cups",
          "RecipeIngredientID": 178203,
          "TrialMeasure": null,
          "TrialWeight": null
        },
        {
          "FullMeasure": null,
          "FullWeight": null,
          "IngredientGridHeaders": null,
          "IngredientID": 67960,
          "IngredientName": "<u>each</u> chopped green and  red peppers",
          "IngredientStep": 30,
          "LanguageId": 0,
          "PostPreparation": "",
          "PrePreparation": "",
          "QuantityNum": 0.5,
          "QuantityText": "1/2",
          "QuantityUnit": "cup",
          "RecipeIngredientID": 178873,
          "TrialMeasure": null,
          "TrialWeight": null
        },
        {
          "FullMeasure": null,
          "FullWeight": null,
          "IngredientGridHeaders": null,
          "IngredientID": 68776,
          "IngredientName": "slivered onions",
          "IngredientStep": 40,
          "LanguageId": 0,
          "PostPreparation": "",
          "PrePreparation": "",
          "QuantityNum": 0.5,
          "QuantityText": "1/2",
          "QuantityUnit": "cup",
          "RecipeIngredientID": 177902,
          "TrialMeasure": null,
          "TrialWeight": null
        },
        {
          "FullMeasure": null,
          "FullWeight": null,
          "IngredientGridHeaders": null,
          "IngredientID": 68440,
          "IngredientName": "(6 oz.) OSCAR MAYER CARVING BOARD Flame Grilled Chicken Breast Strips ",
          "IngredientStep": 50,
          "LanguageId": 0,
          "PostPreparation": "",
          "PrePreparation": "",
          "QuantityNum": 1,
          "QuantityText": "1",
          "QuantityUnit": "pkg.",
          "RecipeIngredientID": 180418,
          "TrialMeasure": null,
          "TrialWeight": null
        },
        {
          "FullMeasure": null,
          "FullWeight": null,
          "IngredientGridHeaders": null,
          "IngredientID": 69620,
          "IngredientName": "KRAFT Three Cheese Ranch Dressing ",
          "IngredientStep": 60,
          "LanguageId": 0,
          "PostPreparation": "",
          "PrePreparation": "",
          "QuantityNum": 1,
          "QuantityText": "1",
          "QuantityUnit": "cup",
          "RecipeIngredientID": 176321,
          "TrialMeasure": null,
          "TrialWeight": null
        }
      ],
      "IsHealthyLiving": false,
      "KRLId": "518191",
      "KeyIngredients": [],
      "Keywords": "Entree,Easy,Cooking for a Crowd,All Seasons,Picnic,Entree Salad,Pasta,Pasta Salad",
      "LanguageId": 1,
      "LifeStyles": [],
      "NumberOfIngredients": 6,
      "NumberOfRatings": 28,
      "NumberOfRatingsWithComments": "23",
      "NumberOfServings": "8 servings",
      "NumberOfTrialServings": null,
      "NutritionBonus": null,
      "NutritionExchangeItemId": 0,
      "NutritionGridItems": null,
      "NutritionItems": [
        {
          "DisplayOrder": 1,
          "Document": null,
          "NutritionItemID": 371,
          "NutritionItemName": "Calories",
          "Predriscriptor": "",
          "Quantity": 270,
          "Unit": "          "
        },
        {
          "DisplayOrder": 2,
          "Document": null,
          "NutritionItemID": 376,
          "NutritionItemName": "Total fat",
          "Predriscriptor": "",
          "Quantity": 13,
          "Unit": "g         "
        },
        {
          "DisplayOrder": 3,
          "Document": null,
          "NutritionItemID": 377,
          "NutritionItemName": "Saturated fat",
          "Predriscriptor": "",
          "Quantity": 2.5,
          "Unit": "g         "
        },
        {
          "DisplayOrder": 4,
          "Document": null,
          "NutritionItemID": 379,
          "NutritionItemName": "Polyunsaturated Fat",
          "Predriscriptor": "",
          "Quantity": 0,
          "Unit": "g         "
        },
        {
          "DisplayOrder": 5,
          "Document": null,
          "NutritionItemID": 378,
          "NutritionItemName": "Monounsaturated Fat",
          "Predriscriptor": "",
          "Quantity": 0,
          "Unit": "g         "
        },
        {
          "DisplayOrder": 6,
          "Document": null,
          "NutritionItemID": 380,
          "NutritionItemName": "Trans Fat",
          "Predriscriptor": "",
          "Quantity": 0,
          "Unit": "g         "
        },
        {
          "DisplayOrder": 7,
          "Document": null,
          "NutritionItemID": 381,
          "NutritionItemName": "Cholesterol",
          "Predriscriptor": "",
          "Quantity": 20,
          "Unit": "mg        "
        },
        {
          "DisplayOrder": 8,
          "Document": null,
          "NutritionItemID": 389,
          "NutritionItemName": "Sodium",
          "Predriscriptor": "",
          "Quantity": 430,
          "Unit": "mg        "
        },
        {
          "DisplayOrder": 10,
          "Document": null,
          "NutritionItemID": 373,
          "NutritionItemName": "Carbohydrate",
          "Predriscriptor": "",
          "Quantity": 28,
          "Unit": "g         "
        },
        {
          "DisplayOrder": 11,
          "Document": null,
          "NutritionItemID": 374,
          "NutritionItemName": "Dietary fiber",
          "Predriscriptor": "",
          "Quantity": 2,
          "Unit": "g         "
        },
        {
          "DisplayOrder": 12,
          "Document": null,
          "NutritionItemID": 375,
          "NutritionItemName": "Sugars",
          "Predriscriptor": "",
          "Quantity": 4,
          "Unit": "g         "
        },
        {
          "DisplayOrder": 13,
          "Document": null,
          "NutritionItemID": 372,
          "NutritionItemName": "Protein",
          "Predriscriptor": "",
          "Quantity": 11,
          "Unit": "g         "
        },
        {
          "DisplayOrder": 14,
          "Document": null,
          "NutritionItemID": 382,
          "NutritionItemName": "Vitamin A",
          "Predriscriptor": "",
          "Quantity": 25,
          "Unit": "%DV       "
        },
        {
          "DisplayOrder": 15,
          "Document": null,
          "NutritionItemID": 383,
          "NutritionItemName": "Vitamin C",
          "Predriscriptor": "",
          "Quantity": 45,
          "Unit": "%DV       "
        },
        {
          "DisplayOrder": 16,
          "Document": null,
          "NutritionItemID": 386,
          "NutritionItemName": "Calcium",
          "Predriscriptor": "",
          "Quantity": 4,
          "Unit": "%DV       "
        },
        {
          "DisplayOrder": 17,
          "Document": null,
          "NutritionItemID": 387,
          "NutritionItemName": "Iron",
          "Predriscriptor": "",
          "Quantity": 8,
          "Unit": "%DV       "
        }
      ],
      "NutritionServingText": null,
      "PrepStepImage": null,
      "PreparationDescription": "Combine pasta, vegetables and chicken in large bowl.  $Add dressing; mix lightly.   ",
      "PreparationPreText": "",
      "PreparationSteps": [
        {
          "Description": "Combine pasta, vegetables and chicken in large bowl.  ",
          "PreparationStepImage": {
            "PictureFormats": [],
            "author": null,
            "id": null,
            "imageType": null,
            "mimeType": null,
            "publicationDate": null,
            "status": null,
            "title": null,
            "type": null
          },
          "Sequence": 1
        },
        {
          "Description": "Add dressing; mix lightly.   ",
          "PreparationStepImage": {
            "PictureFormats": [],
            "author": null,
            "id": null,
            "imageType": null,
            "mimeType": null,
            "publicationDate": null,
            "status": null,
            "title": null,
            "type": null
          },
          "Sequence": 2
        }
      ],
      "PreparationTime": 15,
      "Promotion": null,
      "Ratings": {
        "TotalCount": 28,
        "PageCount": 10,
        "PageNo": 1,
        "Rating": [
          {
            "Comment": "Fabulous and easy!",
            "DisplayName": true,
            "RatingValue": 5,
            "SubmitDate": "/Date(1309662937000-0500)/",
            "UpdatedDate": "/Date(1309662937000-0500)/",
            "UserName": "kendog01"
          },
          {
            "Comment": "I made a double batch of this without onions and with bacon bits.  It was really good.  I couldn't find regular Three Cheese and ended up with lite, but I don't think anyone noticed.  Very tasty.",
            "DisplayName": true,
            "RatingValue": 4,
            "SubmitDate": "/Date(1282862317000-0500)/",
            "UpdatedDate": "/Date(1282862317000-0500)/",
            "UserName": "frances_clements"
          },
          {
            "Comment": "Always a crowd pleaser.  Add xtra cheddar cheese, chicken, and BACON!  Also would like to try this with small shrimp instead of chicken and bacon.",
            "DisplayName": false,
            "RatingValue": 5,
            "SubmitDate": "/Date(1258930228000-0600)/",
            "UpdatedDate": "/Date(1258930344000-0600)/",
            "UserName": "dougo81"
          },
          {
            "Comment": "Love this recipe!  We've been making it at our house for years!  I use red onions.  I also add some Kraft Cheese Crumbles instead of shredded cheese.  It's soooo good!",
            "DisplayName": true,
            "RatingValue": 5,
            "SubmitDate": "/Date(1214174744000-0500)/",
            "UpdatedDate": "/Date(1214174744000-0500)/",
            "UserName": "L075847"
          },
          {
            "Comment": "All of us loved this salad compared to the other \"traditional\" salads. I did alter the recipe a bit: I used fresh cut-up boneless, skinless chicken breasts- I cooked them, added chicken seasoning, salt and some black and red pepper. I also added some cooked, steamed broccoli and of course, Ranch. I will be making this again- that's for sure.",
            "DisplayName": true,
            "RatingValue": 4,
            "SubmitDate": "/Date(1121003801000-0500)/",
            "UpdatedDate": "/Date(1121003801000-0500)/",
            "UserName": "ahmedreem"
          },
          {
            "Comment": "I love this recipe, everytime I need to make a pasta salad, I make this.  It is sooo good and everyone always loves it.",
            "DisplayName": true,
            "RatingValue": 5,
            "SubmitDate": "/Date(1083943487000-0500)/",
            "UpdatedDate": "/Date(1083943487000-0500)/",
            "UserName": "nickie0622"
          },
          {
            "Comment": "Loved this recipe.  I made it for my Bunco group.  Does anyone have a suggestion for a soup to go with it or something to put with it?  We have a supper club with Bunco",
            "DisplayName": true,
            "RatingValue": 5,
            "SubmitDate": "/Date(1081725835000-0500)/",
            "UpdatedDate": "/Date(1081725835000-0500)/",
            "UserName": "Julanne1"
          },
          {
            "Comment": "great recipe! my husband and my 2 year old both LOVE it (which is no small feat)! even better the next day!",
            "DisplayName": true,
            "RatingValue": 5,
            "SubmitDate": "/Date(1074981225000-0600)/",
            "UpdatedDate": "/Date(1074981225000-0600)/",
            "UserName": "darcymae"
          },
          {
            "Comment": "Very fast and easy. I make this all the time. Using pre-chopped or canned veggies and cooking pasta in the microwave, this can go together in under 20 min. I usually substitute other type of veg (like snow peas, carrots, califlower, peas, lima beans, etc.) since I don't like the bell peppers and onions. ",
            "DisplayName": false,
            "RatingValue": 5,
            "SubmitDate": "/Date(1065731119000-0500)/",
            "UpdatedDate": "/Date(1065731119000-0500)/",
            "UserName": "C383436"
          },
          {
            "Comment": "Great Salad!! I have made this salad on several occasions. It has disappeared in little or no time. I have substituted the rotini pasta with penne pasta. Turns out GREAT!!!!",
            "DisplayName": false,
            "RatingValue": 5,
            "SubmitDate": "/Date(1061378785000-0500)/",
            "UpdatedDate": "/Date(1061378785000-0500)/",
            "UserName": "Theodora2"
          }
        ]
      },
      "RecipeDisplayFormatId": 0,
      "RecipeId": 51008,
      "RecipeName": "Cold Chicken Pasta Salad",
      "RecipeType": 0,
      "RelatedData": {
        "RelatedBrands": null,
        "RelatedProducts": null,
        "RelatedRecipes": {
          "DefaultTopCount": 5,
          "Recipe": [
            {
              "AverageRating": 4.5,
              "HasVideo": false,
              "IsHealthyLiving": false,
              "NumberOfRatings": 2,
              "PhotoName": "179760_MXM_66108v0E_WP.jpg",
              "PhotoUrl": "http://assets.kraftfoods.com/recipe_images/opendeploy/179760_MXM_66108v0E_WP.jpg",
              "RecipeId": 179760,
              "RecipeName": "Greek Chicken Tortellini Salad",
              "SEOName": "greek-chicken-tortellini-salad-179760",
              "ThumbnailPhoto": null
            },
            {
              "AverageRating": 4,
              "HasVideo": false,
              "IsHealthyLiving": false,
              "NumberOfRatings": 1,
              "PhotoName": "182791.jpg",
              "PhotoUrl": "http://assets.kraftfoods.com/recipe_images/opendeploy/182791.jpg",
              "RecipeId": 182791,
              "RecipeName": "Easy Chopped Chicken Salad",
              "SEOName": "easy-chopped-chicken-salad-182791",
              "ThumbnailPhoto": null
            },
            {
              "AverageRating": 4.3,
              "HasVideo": false,
              "IsHealthyLiving": true,
              "NumberOfRatings": 4,
              "PhotoName": "177465.jpg",
              "PhotoUrl": "http://assets.kraftfoods.com/recipe_images/opendeploy/177465.jpg",
              "RecipeId": 177465,
              "RecipeName": "Summer Veggie Pasta Salad",
              "SEOName": "summer-veggie-pasta-salad-177465",
              "ThumbnailPhoto": null
            },
            {
              "AverageRating": 4.3,
              "HasVideo": false,
              "IsHealthyLiving": true,
              "NumberOfRatings": 32,
              "PhotoName": "53489.jpg",
              "PhotoUrl": "http://assets.kraftfoods.com/recipe_images/opendeploy/53489.jpg",
              "RecipeId": 53489,
              "RecipeName": "Simple Pasta Salad",
              "SEOName": "simple-pasta-salad-53489",
              "ThumbnailPhoto": null
            },
            {
              "AverageRating": 4.3,
              "HasVideo": false,
              "IsHealthyLiving": false,
              "NumberOfRatings": 6,
              "PhotoName": "opendeploy/50641-c313dfef6e12685c6f9edd096e05748b0d18bb52_306x204.jpg",
              "PhotoUrl": "http://assets.kraftfoods.com/recipe_images/opendeploy/opendeploy/50641-c313dfef6e12685c6f9edd096e05748b0d18bb52_306x204.jpg",
              "RecipeId": 50641,
              "RecipeName": "Cheesy Pizza Pasta Salad",
              "SEOName": "cheesy-pizza-pasta-salad-50641",
              "ThumbnailPhoto": null
            }
          ],
          "TotalCount": 3336
        }
      },
      "RiseIngredients": [
        {
          "IngredientCategory": "KRL",
          "IngredientId": 67960,
          "IngredientIndustrySector": "Retail",
          "IngredientType": "Inedible",
          "ProductId": null,
          "RecipeId": 51008
        },
        {
          "IngredientCategory": "KRL",
          "IngredientId": 68039,
          "IngredientIndustrySector": "Retail",
          "IngredientType": "Inedible",
          "ProductId": null,
          "RecipeId": 51008
        },
        {
          "IngredientCategory": "KRL",
          "IngredientId": 68440,
          "IngredientIndustrySector": "Retail",
          "IngredientType": "KHC",
          "ProductId": "00044700022887",
          "RecipeId": 51008
        },
        {
          "IngredientCategory": "KRL",
          "IngredientId": 68776,
          "IngredientIndustrySector": "Retail",
          "IngredientType": "Inedible",
          "ProductId": null,
          "RecipeId": 51008
        },
        {
          "IngredientCategory": "KRL",
          "IngredientId": 69136,
          "IngredientIndustrySector": "Retail",
          "IngredientType": "Inedible",
          "ProductId": null,
          "RecipeId": 51008
        },
        {
          "IngredientCategory": "KRL",
          "IngredientId": 69620,
          "IngredientIndustrySector": "Retail",
          "IngredientType": "KHC",
          "ProductId": "00021000775194",
          "RecipeId": 51008
        }
      ],
      "RiseTaxonomy": [
        {
          "ParentTaxonomyId": 51,
          "RecipeId": 51008,
          "ResourceName": "Recipe",
          "TaxonomyId": 243,
          "TaxonomyName": "Seafood, Salads",
          "TaxonomyTypeId": 3,
          "TaxonomyTypeName": "Dish Type"
        },
        {
          "ParentTaxonomyId": 0,
          "RecipeId": 51008,
          "ResourceName": "Recipe",
          "TaxonomyId": 302,
          "TaxonomyName": "BBQ/Grilling",
          "TaxonomyTypeId": 5,
          "TaxonomyTypeName": "Occasion-Theme"
        },
        {
          "ParentTaxonomyId": 0,
          "RecipeId": 51008,
          "ResourceName": "Recipe",
          "TaxonomyId": 338,
          "TaxonomyName": "Summer",
          "TaxonomyTypeId": 6,
          "TaxonomyTypeName": "Season"
        }
      ],
      "Riserecipe": [
        {
          "GRIN": 518191,
          "RecipeId": 51008,
          "RecipeIndustrySector": "Retail",
          "RecipeType": "Internal"
        }
      ],
      "RomanceText": "Try preparing our Cold Chicken Pasta Salad for your next picnic or potluck. The cheesy ranch dressing in our Cold Chicken Pasta Salad is always a hit.",
      "SEOName": "cold-chicken-pasta-salad-51008",
      "Tips": [
        {
          "RecipeId": 51008,
          "Sequence": 10,
          "TipDescription": "Stir in 1 cup KRAFT Shredded Cheddar Cheese just before serving.",
          "TipID": 1,
          "TipName": "Special Extra"
        },
        {
          "RecipeId": 51008,
          "Sequence": 20,
          "TipDescription": "This is a great salad to take on a springtime picnic, or to bring to a gathering of family or friends.  If serving a large group, it can easily be doubled.",
          "TipID": 2,
          "TipName": "Take Along"
        },
        {
          "RecipeId": 51008,
          "Sequence": 30,
          "TipDescription": "Prepare using KRAFT Lite Three Cheese Ranch Dressing.",
          "TipID": 3,
          "TipName": "Substitute"
        },
        {
          "RecipeId": 51008,
          "Sequence": 40,
          "TipDescription": "This colorful salad can be prepared ahead of time. Refrigerate up to 2 days before serving.",
          "TipID": 4,
          "TipName": "Make Ahead"
        }
      ],
      "TotalTime": 195,
      "TradeMarkInfo": null,
      "Video": [],
      "Yield": "8 servings"
    }
  ]
}