{
  "Metadata": {
    "PageCount": 1,
    "PageNo": 0,
    "TotalCount": 0
  },
  "Recipes": [
    {
      "AdServingKeywords": "Beef,Cheese,Garlic,Ground Beef,Meat,Onion,Vegetables,All Seasons",
      "AlternateLanguageRecipes": [],
      "Assets": [
        {
          "PictureFormats": [
            {
              "rendition": "640x428",
              "url": "http://assets.kraftfoods.com/recipe_images/opendeploy/182337_640x428.jpg"
            },
            {
              "rendition": "300x250",
              "url": "http://assets.kraftfoods.com/recipe_images/opendeploy/182337_300x250.jpg"
            },
            {
              "rendition": "290x194",
              "url": "http://assets.kraftfoods.com/recipe_images/opendeploy/182337_290x194.jpg"
            }
          ],
          "author": null,
          "id": "2",
          "imageType": "Primary",
          "mimeType": "image/jpeg",
          "publicationDate": null,
          "status": "1",
          "title": "182337",
          "type": "image"
        }
      ],
      "AverageRating": 0,
      "BrandId": 1,
      "Branding": {
        "IngredientElevation": "",
        "PromoAltText": "Recipe and Photo by Reynolds®",
        "PromoImage": "",
        "PromoLink": "",
        "SponsorshipAltText": "Recipe and Photo by Reynolds®",
        "SponsorshipLink": "https://bs.serving-sys.com/serving/adServer.bs?cn=trd&mc=click&pli=24804358&PluID=0&ord=%%CACHEBUSTER%%",
        "SponsorshipLogo": "http://www.kraftrecipes.com/-/media/images/kr/imagerepository/jan17/RKLogo2017-135x40.jpg",
        "UpperRightImage": ""
      },
      "CSSSkins": [
        {
          "brand": "Reynolds-R192-2018",
          "fileName": "",
          "id": "1"
        }
      ],
      "CarbCounter": null,
      "Categories": [],
      "Classifications": [],
      "ComplimentaryRecipes": null,
      "CookingMethod": null,
      "Copyright": null,
      "Courses": [],
      "DietExchange": null,
      "DishDetails": [
        {
          "Text": "ground beef recipes",
          "Url": "/recipes/dinner/ground-beef-recipes/main.aspx"
        },
        {
          "Text": "top 10 beef recipes",
          "Url": "/recipes/dinner/top-10/beef-recipes/main.aspx"
        },
        {
          "Text": "1 bag 5 dinners",
          "Url": "/recipes/dinner/1Bag5Dinners/1bag5dinnerschickenbeef.aspx"
        }
      ],
      "EndDate": "/Date(-62135575200000-0600)/",
      "HasVideo": false,
      "Ingredients": [
        {
          "FullMeasure": null,
          "FullWeight": null,
          "IngredientGridHeaders": null,
          "IngredientID": 8666,
          "IngredientName": "Reynolds Wrap® Non-Stick Aluminum Foil",
          "IngredientStep": 10,
          "LanguageId": 0,
          "PostPreparation": "",
          "PrePreparation": "",
          "QuantityNum": 0,
          "QuantityText": "",
          "QuantityUnit": "",
          "RecipeIngredientID": 5369662,
          "TrialMeasure": null,
          "TrialWeight": null
        },
        {
          "FullMeasure": "8 slices",
          "FullWeight": "",
          "IngredientGridHeaders": null,
          "IngredientID": 26274,
          "IngredientName": "cheese",
          "IngredientStep": 20,
          "LanguageId": 0,
          "PostPreparation": "",
          "PrePreparation": "deli style sliced chipotle cheddar ",
          "QuantityNum": 7,
          "QuantityText": "8",
          "QuantityUnit": "slices",
          "RecipeIngredientID": 5369663,
          "TrialMeasure": "",
          "TrialWeight": ""
        },
        {
          "FullMeasure": "2",
          "FullWeight": "",
          "IngredientGridHeaders": null,
          "IngredientID": 1212,
          "IngredientName": "ground beef",
          "IngredientStep": 30,
          "LanguageId": 0,
          "PostPreparation": "",
          "PrePreparation": "pounds lean",
          "QuantityNum": 2,
          "QuantityText": "2",
          "QuantityUnit": "",
          "RecipeIngredientID": 5369658,
          "TrialMeasure": "",
          "TrialWeight": ""
        },
        {
          "FullMeasure": "2 cup",
          "FullWeight": "",
          "IngredientGridHeaders": null,
          "IngredientID": 4479,
          "IngredientName": "salsa",
          "IngredientStep": 40,
          "LanguageId": 0,
          "PostPreparation": ", divided",
          "PrePreparation": "medium",
          "QuantityNum": 2,
          "QuantityText": "2",
          "QuantityUnit": "cup",
          "RecipeIngredientID": 5369664,
          "TrialMeasure": "",
          "TrialWeight": ""
        },
        {
          "FullMeasure": "1 cup",
          "FullWeight": "",
          "IngredientGridHeaders": null,
          "IngredientID": 3454,
          "IngredientName": "tortilla chips",
          "IngredientStep": 50,
          "LanguageId": 0,
          "PostPreparation": ", divided",
          "PrePreparation": "finely crushed ",
          "QuantityNum": 1,
          "QuantityText": "1",
          "QuantityUnit": "cup",
          "RecipeIngredientID": 5369665,
          "TrialMeasure": "",
          "TrialWeight": ""
        },
        {
          "FullMeasure": "1 cup",
          "FullWeight": "",
          "IngredientGridHeaders": null,
          "IngredientID": 7023,
          "IngredientName": "green onions",
          "IngredientStep": 60,
          "LanguageId": 0,
          "PostPreparation": ", divided",
          "PrePreparation": "chopped",
          "QuantityNum": 1,
          "QuantityText": "1",
          "QuantityUnit": "cup",
          "RecipeIngredientID": 5369666,
          "TrialMeasure": "",
          "TrialWeight": ""
        },
        {
          "FullMeasure": "1",
          "FullWeight": "",
          "IngredientGridHeaders": null,
          "IngredientID": 1179,
          "IngredientName": "garlic salt",
          "IngredientStep": 70,
          "LanguageId": 0,
          "PostPreparation": "",
          "PrePreparation": "tablespoon",
          "QuantityNum": 1,
          "QuantityText": "1",
          "QuantityUnit": "",
          "RecipeIngredientID": 5369659,
          "TrialMeasure": "",
          "TrialWeight": ""
        },
        {
          "FullMeasure": "1",
          "FullWeight": "",
          "IngredientGridHeaders": null,
          "IngredientID": 902,
          "IngredientName": "chili powder",
          "IngredientStep": 80,
          "LanguageId": 0,
          "PostPreparation": "",
          "PrePreparation": "tablespoon",
          "QuantityNum": 1,
          "QuantityText": "1",
          "QuantityUnit": "",
          "RecipeIngredientID": 5369660,
          "TrialMeasure": "",
          "TrialWeight": ""
        },
        {
          "FullMeasure": "8",
          "FullWeight": "",
          "IngredientGridHeaders": null,
          "IngredientID": 1241,
          "IngredientName": "hamburger bun",
          "IngredientStep": 90,
          "LanguageId": 0,
          "PostPreparation": "s",
          "PrePreparation": "",
          "QuantityNum": 7,
          "QuantityText": "8",
          "QuantityUnit": "",
          "RecipeIngredientID": 5369661,
          "TrialMeasure": "",
          "TrialWeight": ""
        }
      ],
      "IsHealthyLiving": false,
      "KRLId": "576032",
      "KeyIngredients": [
        "Beef",
        "Bread",
        "Garlic",
        "Meat",
        "Onion",
        "Vegetables"
      ],
      "Keywords": "beef,cheese,chili powder,garlic salt,ground beef,hamburger meat,hamburger buns,meat,salsa,scallions,tortilla chips,green onions,beef-ground,buns,All Seasons",
      "LanguageId": 1,
      "LifeStyles": [],
      "NumberOfIngredients": 9,
      "NumberOfRatings": 0,
      "NumberOfRatingsWithComments": "0",
      "NumberOfServings": "8 servings. ",
      "NumberOfTrialServings": null,
      "NutritionBonus": null,
      "NutritionExchangeItemId": 0,
      "NutritionGridItems": null,
      "NutritionItems": [],
      "NutritionServingText": null,
      "PrepStepImage": null,
      "PreparationDescription": "Step 1:\r\nPREHEAT grill to medium-high heat. Make drainage holes in a sheet of Reynolds Wrap Non-Stick Foil with a grilling fork; set aside.$Step 2:\r\nCOMBINE ground beef, 1 cup salsa, 1/2 cup tortilla chips, 1/2 cup green onions, garlic salt and chili powder in large bowl until well blended. Shape beef mixture into 8 burgers, 4 inches in diameter and 1/2-inch thick.$Step 3:\r\nPLACE foil sheet on grill grate with non-stick (dull) side facing up. Immediately place burgers on foil.$Step 4:\r\nGRILL burgers uncovered, 5 minutes each side or until no longer pink in center. Grill or lightly toast hamburger buns. Top burgers with 1 slice cheese before removing from grill; let melt. Place burgers on buns. Top with remaining salsa, tortilla chips and green onions.\r\n",
      "PreparationPreText": "",
      "PreparationSteps": [
        {
          "Description": "Step 1:\r\nPREHEAT grill to medium-high heat. Make drainage holes in a sheet of Reynolds Wrap Non-Stick Foil with a grilling fork; set aside.",
          "PreparationStepImage": {
            "PictureFormats": [],
            "author": null,
            "id": null,
            "imageType": null,
            "mimeType": null,
            "publicationDate": null,
            "status": null,
            "title": null,
            "type": null
          },
          "Sequence": 1
        },
        {
          "Description": "Step 2:\r\nCOMBINE ground beef, 1 cup salsa, 1/2 cup tortilla chips, 1/2 cup green onions, garlic salt and chili powder in large bowl until well blended. Shape beef mixture into 8 burgers, 4 inches in diameter and 1/2-inch thick.",
          "PreparationStepImage": {
            "PictureFormats": [],
            "author": null,
            "id": null,
            "imageType": null,
            "mimeType": null,
            "publicationDate": null,
            "status": null,
            "title": null,
            "type": null
          },
          "Sequence": 2
        },
        {
          "Description": "Step 3:\r\nPLACE foil sheet on grill grate with non-stick (dull) side facing up. Immediately place burgers on foil.",
          "PreparationStepImage": {
            "PictureFormats": [],
            "author": null,
            "id": null,
            "imageType": null,
            "mimeType": null,
            "publicationDate": null,
            "status": null,
            "title": null,
            "type": null
          },
          "Sequence": 3
        },
        {
          "Description": "Step 4:\r\nGRILL burgers uncovered, 5 minutes each side or until no longer pink in center. Grill or lightly toast hamburger buns. Top burgers with 1 slice cheese before removing from grill; let melt. Place burgers on buns. Top with remaining salsa, tortilla chips and green onions.\r\n",
          "PreparationStepImage": {
            "PictureFormats": [],
            "author": null,
            "id": null,
            "imageType": null,
            "mimeType": null,
            "publicationDate": null,
            "status": null,
            "title": null,
            "type": null
          },
          "Sequence": 4
        }
      ],
      "PreparationTime": 1,
      "Promotion": null,
      "Ratings": {
        "TotalCount": 0,
        "PageCount": 10,
        "PageNo": 1,
        "Rating": []
      },
      "RecipeDisplayFormatId": 5,
      "RecipeId": 182337,
      "RecipeName": "Zesty Chipotle Cheddar Burgers",
      "RecipeType": 0,
      "RelatedData": {
        "RelatedBrands": null,
        "RelatedProducts": null,
        "RelatedRecipes": {
          "DefaultTopCount": 5,
          "Recipe": [
            {
              "AverageRating": 4.6,
              "HasVideo": false,
              "IsHealthyLiving": false,
              "NumberOfRatings": 5,
              "PhotoName": "rec_r1_52422v1ec.jpg",
              "PhotoUrl": "http://assets.kraftfoods.com/recipe_images/opendeploy/rec_r1_52422v1ec.jpg",
              "RecipeId": 95299,
              "RecipeName": "Sizzlin' Chipotle Cheddar Burger",
              "SEOName": "sizzlin-chipotle-cheddar-burger-95299",
              "ThumbnailPhoto": null
            },
            {
              "AverageRating": 5,
              "HasVideo": false,
              "IsHealthyLiving": false,
              "NumberOfRatings": 1,
              "PhotoName": "Gourmet-Chipotle-Burgers-63001.jpg",
              "PhotoUrl": "http://assets.kraftfoods.com/recipe_images/opendeploy/Gourmet-Chipotle-Burgers-63001.jpg",
              "RecipeId": 143961,
              "RecipeName": "Gourmet Chipotle Burgers",
              "SEOName": "gourmet-chipotle-burgers-143961",
              "ThumbnailPhoto": null
            },
            {
              "AverageRating": 4.5,
              "HasVideo": false,
              "IsHealthyLiving": false,
              "NumberOfRatings": 2,
              "PhotoName": "113552.jpg",
              "PhotoUrl": "http://assets.kraftfoods.com/recipe_images/opendeploy/113552.jpg",
              "RecipeId": 113552,
              "RecipeName": "Grilled Orange Chipotle Pork Fajitas",
              "SEOName": "grilled-orange-chipotle-pork-fajitas-113552",
              "ThumbnailPhoto": null
            },
            {
              "AverageRating": 4.7,
              "HasVideo": false,
              "IsHealthyLiving": false,
              "NumberOfRatings": 3,
              "PhotoName": "BBQ_Burgers_Jibarito_Style.jpg",
              "PhotoUrl": "http://assets.kraftfoods.com/recipe_images/opendeploy/BBQ_Burgers_Jibarito_Style.jpg",
              "RecipeId": 110585,
              "RecipeName": "BBQ Burgers \"Jibarito Style\"",
              "SEOName": "bbq-burgers-jibarito-style-110585",
              "ThumbnailPhoto": null
            },
            {
              "AverageRating": 4.5,
              "HasVideo": false,
              "IsHealthyLiving": false,
              "NumberOfRatings": 2,
              "PhotoName": "118513.jpg",
              "PhotoUrl": "http://assets.kraftfoods.com/recipe_images/opendeploy/118513.jpg",
              "RecipeId": 118513,
              "RecipeName": "Mini Cheeseburgers with Chipotle Mayo",
              "SEOName": "mini-cheeseburgers-chipotle-mayo-118513",
              "ThumbnailPhoto": null
            }
          ],
          "TotalCount": 1368
        }
      },
      "RiseIngredients": [],
      "RiseTaxonomy": [],
      "Riserecipe": [
        {
          "GRIN": 576032,
          "RecipeId": 182337,
          "RecipeIndustrySector": "Retail",
          "RecipeType": "Internal"
        }
      ],
      "RomanceText": "It's not just the chipotle-cheddar slices that give these burgers their zesty appeal. Salsa and crushed tortilla chips help!",
      "SEOName": "zesty-chipotle-cheddar-burgers-182337",
      "Tips": [
        {
          "RecipeId": 182337,
          "Sequence": 10,
          "TipDescription": "Making Meal Magic is simple. Reynolds products help you to make your meals easier and faster. Learn how to cook your best with Reynolds Kitchens.",
          "TipID": 1,
          "TipName": "Reynolds Kitchen Tips"
        }
      ],
      "TotalTime": 1,
      "TradeMarkInfo": "Reynolds® is a registered trademark of Reynolds Consumer Products LLC",
      "Video": [],
      "Yield": "8 servings. "
    }
  ]
}