{
  "Metadata": {
    "PageCount": 1,
    "PageNo": 0,
    "TotalCount": 0
  },
  "Recipes": [
    {
      "AdServingKeywords": "Entree,Beef,Meat,All Seasons,Dinner,A.1.,Spicy",
      "AlternateLanguageRecipes": [],
      "Assets": [
        {
          "PictureFormats": [
            {
              "rendition": "300x200",
              "url": "http://assets.kraftfoods.com/recipe_images/3-Star_Hot_Pepper_Roulades.jpg"
            }
          ],
          "author": null,
          "id": "0",
          "imageType": "LANDSCAPE",
          "mimeType": null,
          "publicationDate": null,
          "status": "1",
          "title": "3-Star_Hot_Pepper_Roulades.jpg",
          "type": "image"
        }
      ],
      "AverageRating": 3.8,
      "BrandId": 60,
      "Branding": null,
      "CSSSkins": null,
      "CarbCounter": null,
      "Categories": [
        {
          "CategoryID": 7,
          "CategoryName": "Pork/Beef Entrees",
          "CategoryRank": 10,
          "SubCategoryID": 408,
          "SubCategoryName": "Beef: Grilled/Broiled",
          "SubCategoryRank": 20
        },
        {
          "CategoryID": 11,
          "CategoryName": "Primary",
          "CategoryRank": 0,
          "SubCategoryID": 97,
          "SubCategoryName": "Entrees",
          "SubCategoryRank": 50
        }
      ],
      "Classifications": [],
      "ComplimentaryRecipes": null,
      "CookingMethod": null,
      "Copyright": null,
      "Courses": [
        "Main dishes"
      ],
      "DietExchange": null,
      "DishDetails": [
        {
          "Text": "ground beef recipes",
          "Url": "/recipes/dinner/ground-beef-recipes/main.aspx"
        },
        {
          "Text": "top 10 beef recipes",
          "Url": "/recipes/dinner/top-10/beef-recipes/main.aspx"
        },
        {
          "Text": "1 bag 5 dinners",
          "Url": "/recipes/dinner/1Bag5Dinners/1bag5dinnerschickenbeef.aspx"
        }
      ],
      "EndDate": "/Date(-62135575200000-0600)/",
      "HasVideo": false,
      "Ingredients": [
        {
          "FullMeasure": null,
          "FullWeight": null,
          "IngredientGridHeaders": null,
          "IngredientID": 5597,
          "IngredientName": "beef top round steak",
          "IngredientStep": 10,
          "LanguageId": 0,
          "PostPreparation": " (1 lb.), 1/2 inch thick",
          "PrePreparation": "",
          "QuantityNum": 1,
          "QuantityText": "1",
          "QuantityUnit": "",
          "RecipeIngredientID": 26956,
          "TrialMeasure": null,
          "TrialWeight": null
        },
        {
          "FullMeasure": null,
          "FullWeight": null,
          "IngredientGridHeaders": null,
          "IngredientID": 5407,
          "IngredientName": "A.1. Original Sauce",
          "IngredientStep": 20,
          "LanguageId": 0,
          "PostPreparation": "",
          "PrePreparation": "",
          "QuantityNum": 0,
          "QuantityText": "1/3  ",
          "QuantityUnit": "cup",
          "RecipeIngredientID": 26957,
          "TrialMeasure": null,
          "TrialWeight": null
        },
        {
          "FullMeasure": null,
          "FullWeight": null,
          "IngredientGridHeaders": null,
          "IngredientID": 1213,
          "IngredientName": "ground black pepper",
          "IngredientStep": 30,
          "LanguageId": 0,
          "PostPreparation": "",
          "PrePreparation": "coarsely",
          "QuantityNum": 0,
          "QuantityText": "1/2  ",
          "QuantityUnit": "tsp.",
          "RecipeIngredientID": 26958,
          "TrialMeasure": null,
          "TrialWeight": null
        },
        {
          "FullMeasure": null,
          "FullWeight": null,
          "IngredientGridHeaders": null,
          "IngredientID": 1227,
          "IngredientName": "ground red pepper",
          "IngredientStep": 40,
          "LanguageId": 0,
          "PostPreparation": "",
          "PrePreparation": "",
          "QuantityNum": 0,
          "QuantityText": "1/4  ",
          "QuantityUnit": "tsp.",
          "RecipeIngredientID": 26959,
          "TrialMeasure": null,
          "TrialWeight": null
        },
        {
          "FullMeasure": null,
          "FullWeight": null,
          "IngredientGridHeaders": null,
          "IngredientID": 1232,
          "IngredientName": "ground white pepper",
          "IngredientStep": 50,
          "LanguageId": 0,
          "PostPreparation": "",
          "PrePreparation": "",
          "QuantityNum": 0,
          "QuantityText": "1/4  ",
          "QuantityUnit": "tsp.",
          "RecipeIngredientID": 26960,
          "TrialMeasure": null,
          "TrialWeight": null
        }
      ],
      "IsHealthyLiving": false,
      "KRLId": "507519",
      "KeyIngredients": [
        "Beef",
        "Meat"
      ],
      "Keywords": "beef,meat,steak,A.1. Sauces,round steak,steak sauce,cayenne pepper,beef-steak,A1 Sauces,Entree,Dinner,All Seasons,Spicy",
      "LanguageId": 1,
      "LifeStyles": [],
      "NumberOfIngredients": 5,
      "NumberOfRatings": 4,
      "NumberOfRatingsWithComments": "1",
      "NumberOfServings": "4 servings",
      "NumberOfTrialServings": null,
      "NutritionBonus": null,
      "NutritionExchangeItemId": 0,
      "NutritionGridItems": null,
      "NutritionItems": [
        {
          "DisplayOrder": 1,
          "Document": null,
          "NutritionItemID": 3,
          "NutritionItemName": "Calories",
          "Predriscriptor": "",
          "Quantity": 140,
          "Unit": "          "
        },
        {
          "DisplayOrder": 2,
          "Document": "fat_cholesterol.html",
          "NutritionItemID": 4,
          "NutritionItemName": "Total fat",
          "Predriscriptor": "",
          "Quantity": 3,
          "Unit": "g         "
        },
        {
          "DisplayOrder": 3,
          "Document": "fat_cholesterol.html",
          "NutritionItemID": 9,
          "NutritionItemName": "Saturated fat",
          "Predriscriptor": "",
          "Quantity": 1,
          "Unit": "g         "
        },
        {
          "DisplayOrder": 7,
          "Document": "fat_cholesterol.html",
          "NutritionItemID": 2,
          "NutritionItemName": "Cholesterol",
          "Predriscriptor": "",
          "Quantity": 55,
          "Unit": "mg        "
        },
        {
          "DisplayOrder": 8,
          "Document": "sodium.html",
          "NutritionItemID": 8,
          "NutritionItemName": "Sodium",
          "Predriscriptor": "",
          "Quantity": 410,
          "Unit": "mg        "
        },
        {
          "DisplayOrder": 10,
          "Document": "carbs_sugars_fiber.html",
          "NutritionItemID": 1,
          "NutritionItemName": "Carbohydrate",
          "Predriscriptor": "",
          "Quantity": 4,
          "Unit": "g         "
        },
        {
          "DisplayOrder": 11,
          "Document": "carbs_sugars_fiber.html",
          "NutritionItemID": 7,
          "NutritionItemName": "Dietary fiber",
          "Predriscriptor": "",
          "Quantity": 0,
          "Unit": "g         "
        },
        {
          "DisplayOrder": 12,
          "Document": "carbs_sugars_fiber.html",
          "NutritionItemID": 5,
          "NutritionItemName": "Sugars",
          "Predriscriptor": "",
          "Quantity": 3,
          "Unit": "g         "
        },
        {
          "DisplayOrder": 13,
          "Document": null,
          "NutritionItemID": 6,
          "NutritionItemName": "Protein",
          "Predriscriptor": "",
          "Quantity": 21,
          "Unit": "g         "
        },
        {
          "DisplayOrder": 14,
          "Document": null,
          "NutritionItemID": 10,
          "NutritionItemName": "Vitamin A",
          "Predriscriptor": "",
          "Quantity": 0,
          "Unit": "%DV       "
        },
        {
          "DisplayOrder": 15,
          "Document": null,
          "NutritionItemID": 11,
          "NutritionItemName": "Vitamin C",
          "Predriscriptor": "",
          "Quantity": 0,
          "Unit": "%DV       "
        },
        {
          "DisplayOrder": 16,
          "Document": "dairy_and_calcium.html",
          "NutritionItemID": 12,
          "NutritionItemName": "Calcium",
          "Predriscriptor": "",
          "Quantity": 0,
          "Unit": "%DV       "
        },
        {
          "DisplayOrder": 17,
          "Document": null,
          "NutritionItemID": 13,
          "NutritionItemName": "Iron",
          "Predriscriptor": "",
          "Quantity": 10,
          "Unit": "%DV       "
        }
      ],
      "NutritionServingText": null,
      "PrepStepImage": null,
      "PreparationDescription": "Preheat grill to medium heat.  Pound steak to 1/4-inch thickness.  Spread with 2 Tbsp. of the steak sauce; sprinkle evenly with peppers.  Roll up steak from one of the short sides; cut crosswise into 8 slices.$Thread 2 steak rolls onto each of 4 skewers.$Grill 8 to 10 min. or until cooked to medium doneness (160°F), turning and brushing occasionally with the remaining steak sauce.  ",
      "PreparationPreText": null,
      "PreparationSteps": [
        {
          "Description": "Preheat grill to medium heat.  Pound steak to 1/4-inch thickness.  Spread with 2 Tbsp. of the steak sauce; sprinkle evenly with peppers.  Roll up steak from one of the short sides; cut crosswise into 8 slices.",
          "PreparationStepImage": {
            "PictureFormats": [],
            "author": null,
            "id": null,
            "imageType": null,
            "mimeType": null,
            "publicationDate": null,
            "status": null,
            "title": null,
            "type": null
          },
          "Sequence": 1
        },
        {
          "Description": "Thread 2 steak rolls onto each of 4 skewers.",
          "PreparationStepImage": {
            "PictureFormats": [],
            "author": null,
            "id": null,
            "imageType": null,
            "mimeType": null,
            "publicationDate": null,
            "status": null,
            "title": null,
            "type": null
          },
          "Sequence": 2
        },
        {
          "Description": "Grill 8 to 10 min. or until cooked to medium doneness (160°F), turning and brushing occasionally with the remaining steak sauce.  ",
          "PreparationStepImage": {
            "PictureFormats": [],
            "author": null,
            "id": null,
            "imageType": null,
            "mimeType": null,
            "publicationDate": null,
            "status": null,
            "title": null,
            "type": null
          },
          "Sequence": 3
        }
      ],
      "PreparationTime": 20,
      "Promotion": null,
      "Ratings": {
        "TotalCount": 4,
        "PageCount": 10,
        "PageNo": 1,
        "Rating": [
          {
            "Comment": "",
            "DisplayName": true,
            "RatingValue": 2,
            "SubmitDate": "/Date(1186711694000-0500)/",
            "UpdatedDate": "/Date(1186711694000-0500)/",
            "UserName": "rcplv1"
          },
          {
            "Comment": "This is a great fast, easy, and inexpensive recipe. My husband and I have varying levels of tolerance for spicy food, but this recipe struck the balance, and we were all satisfied, even our pre-adolescent son! I plan to double this recipe the next time, it was such a hit!",
            "DisplayName": false,
            "RatingValue": 5,
            "SubmitDate": "/Date(1053530067000-0500)/",
            "UpdatedDate": "/Date(1053530067000-0500)/",
            "UserName": "agamamama"
          },
          {
            "Comment": "",
            "DisplayName": false,
            "RatingValue": 3,
            "SubmitDate": "/Date(1051059672000-0500)/",
            "UpdatedDate": "/Date(1051059672000-0500)/",
            "UserName": "hollimk"
          },
          {
            "Comment": "",
            "DisplayName": true,
            "RatingValue": 5,
            "SubmitDate": "/Date(1022010226000-0500)/",
            "UpdatedDate": "/Date(1022010226000-0500)/",
            "UserName": "angeleyes1971"
          }
        ]
      },
      "RecipeDisplayFormatId": 5,
      "RecipeId": 54365,
      "RecipeName": "3-Star Hot Pepper Roulades",
      "RecipeType": 0,
      "RelatedData": {
        "RelatedBrands": null,
        "RelatedProducts": null,
        "RelatedRecipes": {
          "DefaultTopCount": 5,
          "Recipe": [
            {
              "AverageRating": 4.3,
              "HasVideo": false,
              "IsHealthyLiving": false,
              "NumberOfRatings": 4,
              "PhotoName": "Burgundy_Beef_Roulade.jpg",
              "PhotoUrl": "http://assets.kraftfoods.com/recipe_images/opendeploy/Burgundy_Beef_Roulade.jpg",
              "RecipeId": 53868,
              "RecipeName": "Burgundy Beef Roulade",
              "SEOName": "burgundy-beef-roulade-53868",
              "ThumbnailPhoto": null
            },
            {
              "AverageRating": 4.3,
              "HasVideo": false,
              "IsHealthyLiving": true,
              "NumberOfRatings": 44,
              "PhotoName": "Cucumber_Roulades.jpg",
              "PhotoUrl": "http://assets.kraftfoods.com/recipe_images/opendeploy/Cucumber_Roulades.jpg",
              "RecipeId": 107513,
              "RecipeName": "Cucumber-Salmon Roulade Bites",
              "SEOName": "cucumber-salmon-roulade-bites-107513",
              "ThumbnailPhoto": null
            },
            {
              "AverageRating": 5,
              "HasVideo": false,
              "IsHealthyLiving": false,
              "NumberOfRatings": 4,
              "PhotoName": "Holiday_Churros.jpg",
              "PhotoUrl": "http://assets.kraftfoods.com/recipe_images/opendeploy/Holiday_Churros.jpg",
              "RecipeId": 107907,
              "RecipeName": "Holiday Churros",
              "SEOName": "holiday-churros-107907",
              "ThumbnailPhoto": null
            },
            {
              "AverageRating": 4,
              "HasVideo": false,
              "IsHealthyLiving": false,
              "NumberOfRatings": 6,
              "PhotoName": "Layered-Basil-Red-Pepper-Spread-52739.jpg",
              "PhotoUrl": "http://assets.kraftfoods.com/recipe_images/opendeploy/Layered-Basil-Red-Pepper-Spread-52739.jpg",
              "RecipeId": 104775,
              "RecipeName": "Layered Basil-Roasted Red Pepper Spread",
              "SEOName": "layered-basil-roasted-red-pepper-spread-104775",
              "ThumbnailPhoto": null
            },
            {
              "AverageRating": 4,
              "HasVideo": false,
              "IsHealthyLiving": false,
              "NumberOfRatings": 3,
              "PhotoName": "145645.jpg",
              "PhotoUrl": "http://assets.kraftfoods.com/recipe_images/opendeploy/145645.jpg",
              "RecipeId": 145645,
              "RecipeName": "Homemade Churros with Dipping Sauce",
              "SEOName": "homemade-churros-dipping-sauce-145645",
              "ThumbnailPhoto": null
            }
          ],
          "TotalCount": 4095
        }
      },
      "RiseIngredients": [],
      "RiseTaxonomy": [],
      "Riserecipe": [],
      "RomanceText": "Steak is pounded thin, topped with steak sauce and three kinds of ground pepper, rolled up, sliced, skewered and grilled for a spicy entree.",
      "SEOName": "3-star-hot-pepper-roulades-54365",
      "Tips": [
        {
          "RecipeId": 54365,
          "Sequence": 10,
          "TipDescription": "Preheat broiler.  Assemble skewers as directed.  Place on rack of broiler pan.  Broil 8 to 10 min. or until cooked to medium doneness (160°F), turning and brushing occasionally with the remaining steak sauce.",
          "TipID": 1,
          "TipName": "Use Your Broiler"
        }
      ],
      "TotalTime": 30,
      "TradeMarkInfo": null,
      "Video": [],
      "Yield": "Makes 4 servings."
    }
  ]
}