{
  "Metadata": {
    "PageCount": 1,
    "PageNo": 0,
    "TotalCount": 0
  },
  "Recipes": [
    {
      "AdServingKeywords": "Dessert,Banana,Berries,Chocolate,Cream Cheese,Dairy,Fruit,Nuts,Pineapple,Strawberry,Bakers,Cool Whip,Jell-O,Philadelphia,Planters",
      "AlternateLanguageRecipes": [],
      "Assets": [],
      "AverageRating": 0,
      "BrandId": 1,
      "Branding": null,
      "CSSSkins": [],
      "CarbCounter": null,
      "Categories": [
        {
          "CategoryID": 3,
          "CategoryName": "Cookies/Candy/Other Desserts",
          "CategoryRank": 6,
          "SubCategoryID": 366,
          "SubCategoryName": "Mousse/Trifles",
          "SubCategoryRank": 90
        },
        {
          "CategoryID": 11,
          "CategoryName": "Primary",
          "CategoryRank": 0,
          "SubCategoryID": 103,
          "SubCategoryName": "Desserts",
          "SubCategoryRank": 40
        },
        {
          "CategoryID": 759,
          "CategoryName": "Desserts",
          "CategoryRank": 13,
          "SubCategoryID": 2577,
          "SubCategoryName": "Cold / Gelatine",
          "SubCategoryRank": 1
        }
      ],
      "Classifications": [],
      "ComplimentaryRecipes": null,
      "CookingMethod": null,
      "Copyright": null,
      "Courses": [
        "Desserts"
      ],
      "DietExchange": null,
      "DishDetails": [
        {
          "Text": "desserts",
          "Url": "/recipes/dessert/main.aspx"
        },
        {
          "Text": "fruity desserts",
          "Url": "/recipes/dessert/fruitydesserts.aspx"
        },
        {
          "Text": "gelatin desserts",
          "Url": "/recipes/dessert/gelatindesserts.aspx"
        },
        {
          "Text": "layered desserts",
          "Url": "/recipes/dessert/layereddesserts.aspx"
        },
        {
          "Text": "brownie recipes",
          "Url": "/recipes/dessert/brownie-recipes/main.aspx"
        },
        {
          "Text": "budget desserts",
          "Url": "/recipes/budget/budget-desserts.aspx"
        },
        {
          "Text": "no bake desserts",
          "Url": "/recipes/dessert/nobakedesserts.aspx"
        },
        {
          "Text": "pumpkin recipes",
          "Url": "/recipes/dessert/pumpkin-recipes.aspx"
        },
        {
          "Text": "chocolate cake recipes",
          "Url": "/recipes/dessert/chocolate-cake-recipes/main.aspx"
        },
        {
          "Text": "cheesecake recipes",
          "Url": "/recipes/dessert/cheesecake-center/cheesecake-recipes/main.aspx"
        },
        {
          "Text": "chocolate lovers recipes",
          "Url": "/recipes/dessert/chocolate-center/chocolateloversrecipes.aspx"
        },
        {
          "Text": "classic desserts",
          "Url": "/recipes/dessert/classicdesserts.aspx"
        },
        {
          "Text": "cookie ball recipes",
          "Url": "/recipes/dessert/cookie-ball-recipes/main.aspx"
        },
        {
          "Text": "cookie recipes",
          "Url": "/recipes/dessert/cookie-recipes/main.aspx"
        },
        {
          "Text": "cupcake recipes",
          "Url": "/recipes/dessert/cupcake-recipes/main.aspx"
        },
        {
          "Text": "healthy living desserts",
          "Url": "/healthy-living-ideas/diabetes-center/recipes/dessert-recipes.aspx"
        }
      ],
      "EndDate": "/Date(-62135575200000-0600)/",
      "HasVideo": false,
      "Ingredients": [
        {
          "FullMeasure": "1 pkg.",
          "FullWeight": "",
          "IngredientGridHeaders": null,
          "IngredientID": 628,
          "IngredientName": "PHILADELPHIA Cream Cheese",
          "IngredientStep": 10,
          "LanguageId": 0,
          "PostPreparation": ", softened, divided",
          "PrePreparation": "(8 oz.)",
          "QuantityNum": 1,
          "QuantityText": "1",
          "QuantityUnit": "pkg.",
          "RecipeIngredientID": 6446835,
          "TrialMeasure": "",
          "TrialWeight": ""
        },
        {
          "FullMeasure": "2-1/2 cups",
          "FullWeight": "",
          "IngredientGridHeaders": null,
          "IngredientID": 1345,
          "IngredientName": "milk",
          "IngredientStep": 20,
          "LanguageId": 0,
          "PostPreparation": ", divided",
          "PrePreparation": "",
          "QuantityNum": 2,
          "QuantityText": "2-1/2",
          "QuantityUnit": "cups",
          "RecipeIngredientID": 6446828,
          "TrialMeasure": "",
          "TrialWeight": ""
        },
        {
          "FullMeasure": "1 pkg.",
          "FullWeight": "",
          "IngredientGridHeaders": null,
          "IngredientID": 344,
          "IngredientName": "JELL-O Chocolate Flavor Instant Pudding",
          "IngredientStep": 30,
          "LanguageId": 0,
          "PostPreparation": "",
          "PrePreparation": "(3.9 oz.)",
          "QuantityNum": 1,
          "QuantityText": "1",
          "QuantityUnit": "pkg.",
          "RecipeIngredientID": 6446836,
          "TrialMeasure": "",
          "TrialWeight": ""
        },
        {
          "FullMeasure": "2-1/2 cups",
          "FullWeight": "",
          "IngredientGridHeaders": null,
          "IngredientID": 140,
          "IngredientName": "COOL WHIP Whipped Topping",
          "IngredientStep": 40,
          "LanguageId": 0,
          "PostPreparation": ", divided",
          "PrePreparation": "thawed",
          "QuantityNum": 2,
          "QuantityText": "2-1/2",
          "QuantityUnit": "cups",
          "RecipeIngredientID": 6446827,
          "TrialMeasure": "",
          "TrialWeight": ""
        },
        {
          "FullMeasure": "1 pkg.",
          "FullWeight": "",
          "IngredientGridHeaders": null,
          "IngredientID": 66,
          "IngredientName": "BAKER'S Semi-Sweet Chocolate",
          "IngredientStep": 50,
          "LanguageId": 0,
          "PostPreparation": ", melted, cooled and divided",
          "PrePreparation": "(4 oz.)",
          "QuantityNum": 1,
          "QuantityText": "1",
          "QuantityUnit": "pkg.",
          "RecipeIngredientID": 6446837,
          "TrialMeasure": "",
          "TrialWeight": ""
        },
        {
          "FullMeasure": "1 can",
          "FullWeight": "",
          "IngredientGridHeaders": null,
          "IngredientID": 3262,
          "IngredientName": "pineapple tidbits",
          "IngredientStep": 60,
          "LanguageId": 0,
          "PostPreparation": ", drained, juice reserved and divided",
          "PrePreparation": "(8 oz.)",
          "QuantityNum": 1,
          "QuantityText": "1",
          "QuantityUnit": "can",
          "RecipeIngredientID": 6446830,
          "TrialMeasure": "",
          "TrialWeight": ""
        },
        {
          "FullMeasure": "1 pkg.",
          "FullWeight": "",
          "IngredientGridHeaders": null,
          "IngredientID": 285,
          "IngredientName": "JELL-O Vanilla Flavor Instant Pudding",
          "IngredientStep": 70,
          "LanguageId": 0,
          "PostPreparation": "",
          "PrePreparation": "(3.4 oz.)",
          "QuantityNum": 1,
          "QuantityText": "1",
          "QuantityUnit": "pkg.",
          "RecipeIngredientID": 6446834,
          "TrialMeasure": "",
          "TrialWeight": ""
        },
        {
          "FullMeasure": "30",
          "FullWeight": "",
          "IngredientGridHeaders": null,
          "IngredientID": 1736,
          "IngredientName": "vanilla wafers",
          "IngredientStep": 80,
          "LanguageId": 0,
          "PostPreparation": "",
          "PrePreparation": "",
          "QuantityNum": 30,
          "QuantityText": "30",
          "QuantityUnit": "",
          "RecipeIngredientID": 6446832,
          "TrialMeasure": "",
          "TrialWeight": ""
        },
        {
          "FullMeasure": "4",
          "FullWeight": "",
          "IngredientGridHeaders": null,
          "IngredientID": 8755,
          "IngredientName": "banana",
          "IngredientStep": 90,
          "LanguageId": 0,
          "PostPreparation": "s, divided",
          "PrePreparation": "",
          "QuantityNum": 4,
          "QuantityText": "4",
          "QuantityUnit": "",
          "RecipeIngredientID": 6446833,
          "TrialMeasure": "",
          "TrialWeight": ""
        },
        {
          "FullMeasure": "2 cups",
          "FullWeight": "",
          "IngredientGridHeaders": null,
          "IngredientID": 1659,
          "IngredientName": "strawberries",
          "IngredientStep": 100,
          "LanguageId": 0,
          "PostPreparation": ", quartered",
          "PrePreparation": "fresh",
          "QuantityNum": 2,
          "QuantityText": "2",
          "QuantityUnit": "cups",
          "RecipeIngredientID": 6446829,
          "TrialMeasure": "",
          "TrialWeight": ""
        },
        {
          "FullMeasure": "1 Tbsp.",
          "FullWeight": "",
          "IngredientGridHeaders": null,
          "IngredientID": 5528,
          "IngredientName": "PLANTERS Pecans",
          "IngredientStep": 110,
          "LanguageId": 0,
          "PostPreparation": "",
          "PrePreparation": "chopped",
          "QuantityNum": 1,
          "QuantityText": "1",
          "QuantityUnit": "Tbsp.",
          "RecipeIngredientID": 6446831,
          "TrialMeasure": "",
          "TrialWeight": ""
        }
      ],
      "IsHealthyLiving": false,
      "KRLId": "563092",
      "KeyIngredients": [
        "Banana",
        "Berries",
        "Chocolate",
        "Cream Cheese",
        "Dairy",
        "Fruit",
        "Nuts",
        "Pineapple",
        "Strawberry"
      ],
      "Keywords": "nuts,pecans,PHILADELPHIA Cream Cheese,pineapple,baking chocolate,bananas,berries,cheese,chocolate,chocolate pudding mix,cookies,COOL WHIP,cream cheese,JELL-O Pudding Mix,milk,strawberries,vanilla pudding mix,vanilla wafers,whipped topping,pudding mix-instant,BAKER'S Semi-Sweet Chocolate,semi-sweet chocolate,PLANTERS Pecans,chocolate-semi-sweet,Planters,Dessert",
      "LanguageId": 1,
      "LifeStyles": [],
      "NumberOfIngredients": 11,
      "NumberOfRatings": 0,
      "NumberOfRatingsWithComments": "0",
      "NumberOfServings": "16 servings",
      "NumberOfTrialServings": "",
      "NutritionBonus": null,
      "NutritionExchangeItemId": 0,
      "NutritionGridItems": null,
      "NutritionItems": [
        {
          "DisplayOrder": 1,
          "Document": null,
          "NutritionItemID": 3,
          "NutritionItemName": "Calories",
          "Predriscriptor": "",
          "Quantity": 260,
          "Unit": "          "
        },
        {
          "DisplayOrder": 2,
          "Document": "fat_cholesterol.html",
          "NutritionItemID": 4,
          "NutritionItemName": "Total fat",
          "Predriscriptor": "",
          "Quantity": 12,
          "Unit": "g         "
        },
        {
          "DisplayOrder": 3,
          "Document": "fat_cholesterol.html",
          "NutritionItemID": 9,
          "NutritionItemName": "Saturated fat",
          "Predriscriptor": "",
          "Quantity": 7,
          "Unit": "g         "
        },
        {
          "DisplayOrder": 7,
          "Document": "fat_cholesterol.html",
          "NutritionItemID": 2,
          "NutritionItemName": "Cholesterol",
          "Predriscriptor": "",
          "Quantity": 25,
          "Unit": "mg        "
        },
        {
          "DisplayOrder": 8,
          "Document": "sodium.html",
          "NutritionItemID": 8,
          "NutritionItemName": "Sodium",
          "Predriscriptor": "",
          "Quantity": 290,
          "Unit": "mg        "
        },
        {
          "DisplayOrder": 10,
          "Document": "carbs_sugars_fiber.html",
          "NutritionItemID": 1,
          "NutritionItemName": "Carbohydrate",
          "Predriscriptor": "",
          "Quantity": 37,
          "Unit": "g         "
        },
        {
          "DisplayOrder": 11,
          "Document": "carbs_sugars_fiber.html",
          "NutritionItemID": 7,
          "NutritionItemName": "Dietary fiber",
          "Predriscriptor": "",
          "Quantity": 2,
          "Unit": "g         "
        },
        {
          "DisplayOrder": 12,
          "Document": "carbs_sugars_fiber.html",
          "NutritionItemID": 5,
          "NutritionItemName": "Sugars",
          "Predriscriptor": "",
          "Quantity": 27,
          "Unit": "g         "
        },
        {
          "DisplayOrder": 13,
          "Document": null,
          "NutritionItemID": 6,
          "NutritionItemName": "Protein",
          "Predriscriptor": "",
          "Quantity": 4,
          "Unit": "g         "
        },
        {
          "DisplayOrder": 14,
          "Document": null,
          "NutritionItemID": 10,
          "NutritionItemName": "Vitamin A",
          "Predriscriptor": "",
          "Quantity": 6,
          "Unit": "%DV       "
        },
        {
          "DisplayOrder": 15,
          "Document": null,
          "NutritionItemID": 11,
          "NutritionItemName": "Vitamin C",
          "Predriscriptor": "",
          "Quantity": 25,
          "Unit": "%DV       "
        },
        {
          "DisplayOrder": 16,
          "Document": "dairy_and_calcium.html",
          "NutritionItemID": 12,
          "NutritionItemName": "Calcium",
          "Predriscriptor": "",
          "Quantity": 8,
          "Unit": "%DV       "
        },
        {
          "DisplayOrder": 17,
          "Document": null,
          "NutritionItemID": 13,
          "NutritionItemName": "Iron",
          "Predriscriptor": "",
          "Quantity": 4,
          "Unit": "%DV       "
        }
      ],
      "NutritionServingText": " ",
      "PrepStepImage": null,
      "PreparationDescription": "Beat half the cream cheese in large bowl with mixer until creamy.  Gradually beat in 1-1/2 cups milk.  Add dry chocolate pudding mix; beat 2 min.  Add 1 cup COOL WHIP and half the melted chocolate; beat on low speed just until blended. Spoon into 2-1/2-qt. bowl.$Reserve 1/4 cup pineapple tidbits.  Beat remaining cream cheese in separate bowl with mixer on medium speed until creamy.  Gradually beat in remaining milk.  Add dry vanilla pudding mix; beat 2 min.  Add reserved pineapple juice and 1 cup of the remaining COOL WHIP; beat on low speed just until blended. Stir in remaining pineapple tidbits.$Arrange wafers over chocolate pudding layer. Reserve 1/2 banana for garnish.  Cut each of the remaining bananas crosswise, then lengthwise in half; arrange over wafers. Top with layers of vanilla pudding mixture, strawberries and reserved pineapple tidbits.  Drizzle with remaining melted chocolate. Top with remaining COOL WHIP; sprinkle with nuts.  Refrigerate 1 hour. $Cut reserved banana half lengthwise in half; insert into top of dessert just before serving.  ",
      "PreparationPreText": "",
      "PreparationSteps": [
        {
          "Description": "Beat half the cream cheese in large bowl with mixer until creamy.  Gradually beat in 1-1/2 cups milk.  Add dry chocolate pudding mix; beat 2 min.  Add 1 cup COOL WHIP and half the melted chocolate; beat on low speed just until blended. Spoon into 2-1/2-qt. bowl.",
          "PreparationStepImage": {
            "PictureFormats": [],
            "author": null,
            "id": null,
            "imageType": null,
            "mimeType": null,
            "publicationDate": null,
            "status": null,
            "title": null,
            "type": null
          },
          "Sequence": 1
        },
        {
          "Description": "Reserve 1/4 cup pineapple tidbits.  Beat remaining cream cheese in separate bowl with mixer on medium speed until creamy.  Gradually beat in remaining milk.  Add dry vanilla pudding mix; beat 2 min.  Add reserved pineapple juice and 1 cup of the remaining COOL WHIP; beat on low speed just until blended. Stir in remaining pineapple tidbits.",
          "PreparationStepImage": {
            "PictureFormats": [],
            "author": null,
            "id": null,
            "imageType": null,
            "mimeType": null,
            "publicationDate": null,
            "status": null,
            "title": null,
            "type": null
          },
          "Sequence": 2
        },
        {
          "Description": "Arrange wafers over chocolate pudding layer. Reserve 1/2 banana for garnish.  Cut each of the remaining bananas crosswise, then lengthwise in half; arrange over wafers. Top with layers of vanilla pudding mixture, strawberries and reserved pineapple tidbits.  Drizzle with remaining melted chocolate. Top with remaining COOL WHIP; sprinkle with nuts.  Refrigerate 1 hour. ",
          "PreparationStepImage": {
            "PictureFormats": [],
            "author": null,
            "id": null,
            "imageType": null,
            "mimeType": null,
            "publicationDate": null,
            "status": null,
            "title": null,
            "type": null
          },
          "Sequence": 3
        },
        {
          "Description": "Cut reserved banana half lengthwise in half; insert into top of dessert just before serving.  ",
          "PreparationStepImage": {
            "PictureFormats": [],
            "author": null,
            "id": null,
            "imageType": null,
            "mimeType": null,
            "publicationDate": null,
            "status": null,
            "title": null,
            "type": null
          },
          "Sequence": 4
        }
      ],
      "PreparationTime": 20,
      "Promotion": null,
      "Ratings": {
        "TotalCount": 0,
        "PageCount": 10,
        "PageNo": 1,
        "Rating": []
      },
      "RecipeDisplayFormatId": 5,
      "RecipeId": 199417,
      "RecipeName": "Big Banana Split Bowl",
      "RecipeType": 0,
      "RelatedData": {
        "RelatedBrands": null,
        "RelatedProducts": null,
        "RelatedRecipes": {
          "DefaultTopCount": 5,
          "Recipe": [
            {
              "AverageRating": 4.8,
              "HasVideo": false,
              "IsHealthyLiving": false,
              "NumberOfRatings": 58,
              "PhotoName": "109526.jpg",
              "PhotoUrl": "http://assets.kraftfoods.com/recipe_images/opendeploy/109526.jpg",
              "RecipeId": 109526,
              "RecipeName": "Banana Split Pie",
              "SEOName": "banana-split-pie-109526",
              "ThumbnailPhoto": null
            },
            {
              "AverageRating": 4.6,
              "HasVideo": false,
              "IsHealthyLiving": false,
              "NumberOfRatings": 9,
              "PhotoName": "89963.jpg",
              "PhotoUrl": "http://assets.kraftfoods.com/recipe_images/opendeploy/89963.jpg",
              "RecipeId": 89963,
              "RecipeName": "Pudding-Banana Split",
              "SEOName": "pudding-banana-split-89963",
              "ThumbnailPhoto": null
            },
            {
              "AverageRating": 4.2,
              "HasVideo": false,
              "IsHealthyLiving": false,
              "NumberOfRatings": 5,
              "PhotoName": "opendeploy/501573_1_1_retail-b9c85ba9be7267a2096ddf354e826809d1a52e7c_306x204.jpg",
              "PhotoUrl": "http://assets.kraftfoods.com/recipe_images/opendeploy/opendeploy/501573_1_1_retail-b9c85ba9be7267a2096ddf354e826809d1a52e7c_306x204.jpg",
              "RecipeId": 51672,
              "RecipeName": "Banana Split Dessert",
              "SEOName": "banana-split-dessert-51672",
              "ThumbnailPhoto": null
            },
            {
              "AverageRating": 4.7,
              "HasVideo": false,
              "IsHealthyLiving": false,
              "NumberOfRatings": 56,
              "PhotoName": "52724.jpg",
              "PhotoUrl": "http://assets.kraftfoods.com/recipe_images/opendeploy/52724.jpg",
              "RecipeId": 52724,
              "RecipeName": "Banana Split-Cheesecake Squares",
              "SEOName": "banana-split-cheesecake-squares-52724",
              "ThumbnailPhoto": null
            },
            {
              "AverageRating": 4.8,
              "HasVideo": false,
              "IsHealthyLiving": false,
              "NumberOfRatings": 25,
              "PhotoName": "Chocolate-Banana-Split-Dessert-59425.jpg",
              "PhotoUrl": "http://assets.kraftfoods.com/recipe_images/opendeploy/Chocolate-Banana-Split-Dessert-59425.jpg",
              "RecipeId": 124705,
              "RecipeName": "Chocolate-Banana Split Dessert",
              "SEOName": "chocolate-banana-split-dessert-124705",
              "ThumbnailPhoto": null
            }
          ],
          "TotalCount": 3610
        }
      },
      "RiseIngredients": [],
      "RiseTaxonomy": [],
      "Riserecipe": [
        {
          "GRIN": 563092,
          "RecipeId": 199417,
          "RecipeIndustrySector": "Retail",
          "RecipeType": "Internal"
        }
      ],
      "RomanceText": "Get the party started with this Big Banana Split Bowl! This banana split bowl has all the fixings for the sundae with enough to feed a crowd!",
      "SEOName": "big-banana-split-bowl-199417",
      "Tips": [
        {
          "RecipeId": 199417,
          "Sequence": 10,
          "TipDescription": "Save 60 calories and 4g of fat, including 2g of sat fat, per serving by preparing with PHILADELPHIA Neufchatel Cheese, fat-free milk, 1 pkg. (1.4 oz.) JELL-O Chocolate Flavor Sugar Free Fat Free Instant Pudding, COOL WHIP LITE Whipped Topping, 1 pkg. (1 oz.) JELL-O Vanilla Flavor Sugar Free Fat Free Instant Pudding and reduced-fat vanilla wafers.",
          "TipID": 1,
          "TipName": "Variation  "
        },
        {
          "RecipeId": 199417,
          "Sequence": 20,
          "TipDescription": "Toss bananas with orange juice or juice from canned pineapple. Or, dip fruit into 1 qt. cold water mixed with 3 Tbsp. lemon juice; pat dry with paper towels before using as directed. ",
          "TipID": 3,
          "TipName": "How to Minimize Browning in Cut-Up Bananas"
        },
        {
          "RecipeId": 199417,
          "Sequence": 30,
          "TipDescription": "This luscious dessert can be refrigerated up to 4 hours before serving. ",
          "TipID": 2,
          "TipName": "Note"
        },
        {
          "RecipeId": 199417,
          "Sequence": 50,
          "TipDescription": "Use 1 pkg. (3.4 oz.) JELL-O SIMPLY GOOD Vanilla Bean Flavor Pudding.",
          "TipID": 5768,
          "TipName": "Substitute"
        },
        {
          "RecipeId": 199417,
          "Sequence": 50,
          "TipDescription": "Use 1 pkg. (3.9 oz.) JELL-O SIMPLY GOOD Chocolate Flavor Pudding.",
          "TipID": 5769,
          "TipName": "Substitute"
        },
        {
          "RecipeId": 199417,
          "Sequence": 50,
          "TipDescription": "Use 1 pkg. (3.4 oz.) JELL-O SIMPLY GOOD Vanilla Bean Flavor Pudding.",
          "TipID": 5768,
          "TipName": "Best Apples for Baking and Cooking"
        },
        {
          "RecipeId": 199417,
          "Sequence": 50,
          "TipDescription": "Use 1 pkg. (3.9 oz.) JELL-O SIMPLY GOOD Chocolate Flavor Pudding.",
          "TipID": 5769,
          "TipName": "Best Apples for Snacking and Salads"
        }
      ],
      "TotalTime": 80,
      "TradeMarkInfo": null,
      "Video": [],
      "Yield": "16 servings"
    }
  ]
}