{
  "Metadata": {
    "PageCount": 1,
    "PageNo": 0,
    "TotalCount": 0
  },
  "Recipes": [
    {
      "AdServingKeywords": "Cheese,Ham,Meat,Poultry,Swiss,Turkey,Vegetables,TopChef-Dec14,Claussen,Grey Poupon,Kraft Cheese,Oscar Mayer",
      "AlternateLanguageRecipes": [],
      "Assets": [
        {
          "PictureFormats": [
            {
              "rendition": "300x200",
              "url": "http://assets.kraftfoods.com/recipe_images/171984_BRA_66843v0E_WP.jpg"
            }
          ],
          "author": null,
          "id": "0",
          "imageType": "LANDSCAPE",
          "mimeType": null,
          "publicationDate": null,
          "status": "1",
          "title": "171984_BRA_66843v0E_WP.jpg",
          "type": "image"
        }
      ],
      "AverageRating": 0,
      "BrandId": 1,
      "Branding": {
        "IngredientElevation": "",
        "PromoAltText": "",
        "PromoImage": "",
        "PromoLink": "",
        "SponsorshipAltText": "Top Chef",
        "SponsorshipLink": "http://www.bravotv.com/top-chef",
        "SponsorshipLogo": "/-/media/images/kr/tagging/Top-Chef-logo-112114.jpg",
        "UpperRightImage": ""
      },
      "CSSSkins": [
        {
          "brand": "TopChef-Dec14",
          "fileName": "",
          "id": "1"
        }
      ],
      "CarbCounter": null,
      "Categories": [],
      "Classifications": [],
      "ComplimentaryRecipes": null,
      "CookingMethod": null,
      "Copyright": null,
      "Courses": [],
      "DietExchange": null,
      "DishDetails": [],
      "EndDate": "/Date(-62135575200000-0600)/",
      "HasVideo": false,
      "Ingredients": [
        {
          "FullMeasure": "1 each",
          "FullWeight": "",
          "IngredientGridHeaders": null,
          "IngredientID": 26321,
          "IngredientName": "roll",
          "IngredientStep": 10,
          "LanguageId": 0,
          "PostPreparation": " (Hawaiian roll or similar)",
          "PrePreparation": "sweet",
          "QuantityNum": 1,
          "QuantityText": "1",
          "QuantityUnit": "each",
          "RecipeIngredientID": 5160090,
          "TrialMeasure": "",
          "TrialWeight": ""
        },
        {
          "FullMeasure": "1/2 tsp.",
          "FullWeight": "",
          "IngredientGridHeaders": null,
          "IngredientID": 214,
          "IngredientName": "GREY POUPON Dijon Mustard",
          "IngredientStep": 20,
          "LanguageId": 0,
          "PostPreparation": "",
          "PrePreparation": "",
          "QuantityNum": 0,
          "QuantityText": "1/2",
          "QuantityUnit": "tsp.",
          "RecipeIngredientID": 5160092,
          "TrialMeasure": "",
          "TrialWeight": ""
        },
        {
          "FullMeasure": "2",
          "FullWeight": "",
          "IngredientGridHeaders": null,
          "IngredientID": 122,
          "IngredientName": "CLAUSSEN Kosher Dill Sandwich Slices",
          "IngredientStep": 30,
          "LanguageId": 0,
          "PostPreparation": "",
          "PrePreparation": "",
          "QuantityNum": 2,
          "QuantityText": "2",
          "QuantityUnit": "",
          "RecipeIngredientID": 5160095,
          "TrialMeasure": "",
          "TrialWeight": ""
        },
        {
          "FullMeasure": "1.5 oz.",
          "FullWeight": "",
          "IngredientGridHeaders": null,
          "IngredientID": 5646,
          "IngredientName": "turkey",
          "IngredientStep": 40,
          "LanguageId": 0,
          "PostPreparation": " (dark and white mix preferred)",
          "PrePreparation": "leftover pulled ",
          "QuantityNum": 0,
          "QuantityText": "1.5",
          "QuantityUnit": "oz.",
          "RecipeIngredientID": 5160097,
          "TrialMeasure": "",
          "TrialWeight": ""
        },
        {
          "FullMeasure": "1",
          "FullWeight": "",
          "IngredientGridHeaders": null,
          "IngredientID": 5443,
          "IngredientName": "coriander",
          "IngredientStep": 50,
          "LanguageId": 0,
          "PostPreparation": ", ¼ tsp. cumin, ½ tsp. garlic powder, ¼ tsp. Cuban oregano, ¼ tsp. black pepper, 1 tsp. orange peel)",
          "PrePreparation": "pinch adobo Cubano (mix together: 1 tsp. ",
          "QuantityNum": 1,
          "QuantityText": "1",
          "QuantityUnit": "",
          "RecipeIngredientID": 5160094,
          "TrialMeasure": "",
          "TrialWeight": ""
        },
        {
          "FullMeasure": "1",
          "FullWeight": "",
          "IngredientGridHeaders": null,
          "IngredientID": 8410,
          "IngredientName": "KRAFT Extra Thin Swiss Cheese Slice",
          "IngredientStep": 60,
          "LanguageId": 0,
          "PostPreparation": "",
          "PrePreparation": "",
          "QuantityNum": 1,
          "QuantityText": "1",
          "QuantityUnit": "",
          "RecipeIngredientID": 5160096,
          "TrialMeasure": "",
          "TrialWeight": ""
        },
        {
          "FullMeasure": "1.5 oz.",
          "FullWeight": "",
          "IngredientGridHeaders": null,
          "IngredientID": 24250,
          "IngredientName": "OSCAR MAYER Natural Applewood Smoked Ham",
          "IngredientStep": 70,
          "LanguageId": 0,
          "PostPreparation": "",
          "PrePreparation": "",
          "QuantityNum": 0,
          "QuantityText": "1.5",
          "QuantityUnit": "oz.",
          "RecipeIngredientID": 5160098,
          "TrialMeasure": "",
          "TrialWeight": ""
        },
        {
          "FullMeasure": "1 tsp.",
          "FullWeight": "",
          "IngredientGridHeaders": null,
          "IngredientID": 5691,
          "IngredientName": "jelly",
          "IngredientStep": 80,
          "LanguageId": 0,
          "PostPreparation": "",
          "PrePreparation": "cranberry",
          "QuantityNum": 1,
          "QuantityText": "1",
          "QuantityUnit": "tsp.",
          "RecipeIngredientID": 5160093,
          "TrialMeasure": "",
          "TrialWeight": ""
        },
        {
          "FullMeasure": "1 Tbsp.",
          "FullWeight": "",
          "IngredientGridHeaders": null,
          "IngredientID": 863,
          "IngredientName": "butter",
          "IngredientStep": 90,
          "LanguageId": 0,
          "PostPreparation": "",
          "PrePreparation": "salted",
          "QuantityNum": 1,
          "QuantityText": "1",
          "QuantityUnit": "Tbsp.",
          "RecipeIngredientID": 5160091,
          "TrialMeasure": "",
          "TrialWeight": ""
        }
      ],
      "IsHealthyLiving": false,
      "KRLId": "574477",
      "KeyIngredients": [
        "Cheese",
        "Meat",
        "Poultry",
        "Turkey",
        "Vegetables"
      ],
      "Keywords": "mustard,OSCAR MAYER,OSCAR MAYER Ham,pickles,rolls,cheese,CLAUSSEN Pickles,ham,jelly,KRAFT Swiss Cheese,meat,swiss cheese,turkey,butter,dijon mustard,GREY POUPON Mustard,cheese slices,coriander,KRAFT Cheese,OSCAR MAYER Selects",
      "LanguageId": 1,
      "LifeStyles": [],
      "NumberOfIngredients": 9,
      "NumberOfRatings": 0,
      "NumberOfRatingsWithComments": "0",
      "NumberOfServings": "1 mini sandwich ",
      "NumberOfTrialServings": null,
      "NutritionBonus": null,
      "NutritionExchangeItemId": 0,
      "NutritionGridItems": null,
      "NutritionItems": [],
      "NutritionServingText": null,
      "PrepStepImage": null,
      "PreparationDescription": "Season the turkey meat with the Cuban adobo (1tsp/per pound) and warm up in the microwave using a covered dish for 1 minute on a medium setting.$Slice roll in half and build the sandwich from the bottom up, first spread Dijon, place the slice of pickles, top with the hot adobo turkey, then cheese, top with the ham slices the finish with spreading the top of the roll with cranberry jelly.$Toast the rolls in a Panini press or using a cast iron pan at medium temperature.$Serve with strong sweet espresso or your favorite beverage, Salud!",
      "PreparationPreText": "",
      "PreparationSteps": [
        {
          "Description": "Season the turkey meat with the Cuban adobo (1tsp/per pound) and warm up in the microwave using a covered dish for 1 minute on a medium setting.",
          "PreparationStepImage": {
            "PictureFormats": [],
            "author": null,
            "id": null,
            "imageType": null,
            "mimeType": null,
            "publicationDate": null,
            "status": null,
            "title": null,
            "type": null
          },
          "Sequence": 1
        },
        {
          "Description": "Slice roll in half and build the sandwich from the bottom up, first spread Dijon, place the slice of pickles, top with the hot adobo turkey, then cheese, top with the ham slices the finish with spreading the top of the roll with cranberry jelly.",
          "PreparationStepImage": {
            "PictureFormats": [],
            "author": null,
            "id": null,
            "imageType": null,
            "mimeType": null,
            "publicationDate": null,
            "status": null,
            "title": null,
            "type": null
          },
          "Sequence": 2
        },
        {
          "Description": "Toast the rolls in a Panini press or using a cast iron pan at medium temperature.",
          "PreparationStepImage": {
            "PictureFormats": [],
            "author": null,
            "id": null,
            "imageType": null,
            "mimeType": null,
            "publicationDate": null,
            "status": null,
            "title": null,
            "type": null
          },
          "Sequence": 3
        },
        {
          "Description": "Serve with strong sweet espresso or your favorite beverage, Salud!",
          "PreparationStepImage": {
            "PictureFormats": [],
            "author": null,
            "id": null,
            "imageType": null,
            "mimeType": null,
            "publicationDate": null,
            "status": null,
            "title": null,
            "type": null
          },
          "Sequence": 4
        }
      ],
      "PreparationTime": 10,
      "Promotion": null,
      "Ratings": {
        "TotalCount": 0,
        "PageCount": 10,
        "PageNo": 1,
        "Rating": []
      },
      "RecipeDisplayFormatId": 5,
      "RecipeId": 171984,
      "RecipeName": "Thanksgiving After Party Mini Media Noche Sandwich",
      "RecipeType": 0,
      "RelatedData": {
        "RelatedBrands": null,
        "RelatedProducts": null,
        "RelatedRecipes": {
          "DefaultTopCount": 5,
          "Recipe": [
            {
              "AverageRating": 4.4,
              "HasVideo": false,
              "IsHealthyLiving": true,
              "NumberOfRatings": 88,
              "PhotoName": "69028.jpg",
              "PhotoUrl": "http://assets.kraftfoods.com/recipe_images/opendeploy/69028.jpg",
              "RecipeId": 69028,
              "RecipeName": "Cheesy Hot Crab and Red Pepper Spread",
              "SEOName": "cheesy-hot-crab-red-pepper-spread-69028",
              "ThumbnailPhoto": null
            },
            {
              "AverageRating": 4.6,
              "HasVideo": false,
              "IsHealthyLiving": false,
              "NumberOfRatings": 16,
              "PhotoName": "Crunchy_Turkey_Sandwich_Melts.jpg",
              "PhotoUrl": "http://assets.kraftfoods.com/recipe_images/opendeploy/Crunchy_Turkey_Sandwich_Melts.jpg",
              "RecipeId": 52568,
              "RecipeName": "Crunchy Turkey Sandwich Melts",
              "SEOName": "crunchy-turkey-sandwich-melts-52568",
              "ThumbnailPhoto": null
            },
            {
              "AverageRating": 4.3,
              "HasVideo": false,
              "IsHealthyLiving": false,
              "NumberOfRatings": 3,
              "PhotoName": "52442.jpg",
              "PhotoUrl": "http://assets.kraftfoods.com/recipe_images/opendeploy/52442.jpg",
              "RecipeId": 52442,
              "RecipeName": "Cordon Bleu Sandwiches",
              "SEOName": "cordon-bleu-sandwiches-52442",
              "ThumbnailPhoto": null
            },
            {
              "AverageRating": 4.2,
              "HasVideo": false,
              "IsHealthyLiving": false,
              "NumberOfRatings": 51,
              "PhotoName": "50559.jpg",
              "PhotoUrl": "http://assets.kraftfoods.com/recipe_images/opendeploy/50559.jpg",
              "RecipeId": 50559,
              "RecipeName": "Pinwheel Mini Sandwiches",
              "SEOName": "pinwheel-mini-sandwiches-50559",
              "ThumbnailPhoto": null
            },
            {
              "AverageRating": 4.3,
              "HasVideo": false,
              "IsHealthyLiving": false,
              "NumberOfRatings": 43,
              "PhotoName": "60278.jpg",
              "PhotoUrl": "http://assets.kraftfoods.com/recipe_images/opendeploy/60278.jpg",
              "RecipeId": 60278,
              "RecipeName": "Mini Pigs in a Blanket with Cheese",
              "SEOName": "mini-pigs-in-a-blanket-cheese-60278",
              "ThumbnailPhoto": null
            }
          ],
          "TotalCount": 1976
        }
      },
      "RiseIngredients": [],
      "RiseTaxonomy": [],
      "Riserecipe": [
        {
          "GRIN": 574477,
          "RecipeId": 171984,
          "RecipeIndustrySector": "Retail",
          "RecipeType": "Internal"
        }
      ],
      "RomanceText": "Put a Cubano-style twist on your day-after-Thanksgiving turkey sandwich with a mix of dark and white meat and a custom-blended spice mix.",
      "SEOName": "thanksgiving-after-party-mini-media-noche-sandwich-171984",
      "Tips": [
        {
          "RecipeId": 171984,
          "Sequence": 10,
          "TipDescription": "Be sure to tune into TOP CHEF on Wednesdays 10/9c only on BRAVO.",
          "TipID": 1,
          "TipName": null
        }
      ],
      "TotalTime": 10,
      "TradeMarkInfo": "Bravo is a division of NBCUniversal.",
      "Video": [],
      "Yield": "1 mini sandwich "
    }
  ]
}