{
  "Metadata": {
    "PageCount": 1,
    "PageNo": 0,
    "TotalCount": 0
  },
  "Recipes": [
    {
      "AdServingKeywords": "Dessert,Chocolate,Easy,Jewish,All Seasons,Chanukah,Christmas,Cocktail party,Gift Giving,Candy,Cookie Balls,Bakers,Cool Whip,Kid-Friendly,Kids Can Cook",
      "AlternateLanguageRecipes": [],
      "Assets": [
        {
          "PictureFormats": [
            {
              "rendition": "290x194",
              "url": "http://assets.kraftfoods.com/recipe_images/opendeploy/505393_1_1_retail-da2d33d8c44504b3b17dd87a9701cdd911e9d69b_291x194.jpg"
            },
            {
              "rendition": "306x204",
              "url": "http://assets.kraftfoods.com/recipe_images/opendeploy/505393_1_1_retail-da2d33d8c44504b3b17dd87a9701cdd911e9d69b_306x204.jpg"
            },
            {
              "rendition": "640x428",
              "url": "http://assets.kraftfoods.com/recipe_images/opendeploy/505393_1_1_retail-da2d33d8c44504b3b17dd87a9701cdd911e9d69b_642x428.jpg"
            }
          ],
          "author": "Kraft",
          "id": "2",
          "imageType": "Primary",
          "mimeType": "image/jpeg",
          "publicationDate": null,
          "status": "1",
          "title": "505393_1_1_retail-da2d33d8c44504b3b17dd87a9701cdd911e9d69b",
          "type": "image"
        }
      ],
      "AverageRating": 4.4,
      "BrandId": 1,
      "Branding": null,
      "CSSSkins": null,
      "CarbCounter": null,
      "Categories": [
        {
          "CategoryID": 3,
          "CategoryName": "Cookies/Candy/Other Desserts",
          "CategoryRank": 6,
          "SubCategoryID": 45,
          "SubCategoryName": "Bark/Fudge/Truffles",
          "SubCategoryRank": 20
        },
        {
          "CategoryID": 11,
          "CategoryName": "Primary",
          "CategoryRank": 0,
          "SubCategoryID": 103,
          "SubCategoryName": "Desserts",
          "SubCategoryRank": 40
        },
        {
          "CategoryID": 761,
          "CategoryName": "Cakes, Muffins & Sweet Treats",
          "CategoryRank": 15,
          "SubCategoryID": 2589,
          "SubCategoryName": "Slices - No Bake",
          "SubCategoryRank": 1
        },
        {
          "CategoryID": 761,
          "CategoryName": "Cakes, Muffins & Sweet Treats",
          "CategoryRank": 15,
          "SubCategoryID": 2590,
          "SubCategoryName": "Other Sweet Treats",
          "SubCategoryRank": 1
        }
      ],
      "Classifications": [],
      "ComplimentaryRecipes": [
        {
          "AverageRating": 0,
          "HasVideo": false,
          "IsHealthyLiving": false,
          "NumberOfRatings": 0,
          "PhotoName": null,
          "PhotoUrl": null,
          "RecipeId": 107753,
          "RecipeName": null,
          "SEOName": "amazing-peanut-butter-chocolate-molten-cake-107753",
          "ThumbnailPhoto": "107753.jpg"
        }
      ],
      "CookingMethod": null,
      "Copyright": null,
      "Courses": [
        "Desserts"
      ],
      "DietExchange": null,
      "DishDetails": [
        {
          "Text": "desserts",
          "Url": "/recipes/dessert/main.aspx"
        },
        {
          "Text": "fruity desserts",
          "Url": "/recipes/dessert/fruitydesserts.aspx"
        },
        {
          "Text": "gelatin desserts",
          "Url": "/recipes/dessert/gelatindesserts.aspx"
        },
        {
          "Text": "layered desserts",
          "Url": "/recipes/dessert/layereddesserts.aspx"
        },
        {
          "Text": "brownie recipes",
          "Url": "/recipes/dessert/brownie-recipes/main.aspx"
        },
        {
          "Text": "budget desserts",
          "Url": "/recipes/budget/budget-desserts.aspx"
        },
        {
          "Text": "no bake desserts",
          "Url": "/recipes/dessert/nobakedesserts.aspx"
        },
        {
          "Text": "pumpkin recipes",
          "Url": "/recipes/dessert/pumpkin-recipes.aspx"
        },
        {
          "Text": "chocolate cake recipes",
          "Url": "/recipes/dessert/chocolate-cake-recipes/main.aspx"
        },
        {
          "Text": "cheesecake recipes",
          "Url": "/recipes/dessert/cheesecake-center/cheesecake-recipes/main.aspx"
        },
        {
          "Text": "chocolate lovers recipes",
          "Url": "/recipes/dessert/chocolate-center/chocolateloversrecipes.aspx"
        },
        {
          "Text": "classic desserts",
          "Url": "/recipes/dessert/classicdesserts.aspx"
        },
        {
          "Text": "cookie ball recipes",
          "Url": "/recipes/dessert/cookie-ball-recipes/main.aspx"
        },
        {
          "Text": "cookie recipes",
          "Url": "/recipes/dessert/cookie-recipes/main.aspx"
        },
        {
          "Text": "cupcake recipes",
          "Url": "/recipes/dessert/cupcake-recipes/main.aspx"
        },
        {
          "Text": "healthy living desserts",
          "Url": "/healthy-living-ideas/diabetes-center/recipes/dessert-recipes.aspx"
        },
        {
          "Text": "cookie ball recipes",
          "Url": "/recipes/dessert/cookie-ball-recipes/main.aspx"
        }
      ],
      "EndDate": "/Date(-62135575200000-0600)/",
      "HasVideo": false,
      "Ingredients": [
        {
          "FullMeasure": "2 pkg.",
          "FullWeight": "",
          "IngredientGridHeaders": null,
          "IngredientID": 66,
          "IngredientName": "BAKER'S Semi-Sweet Chocolate",
          "IngredientStep": 10,
          "LanguageId": 0,
          "PostPreparation": ", broken into pieces",
          "PrePreparation": "(4 oz. each)",
          "QuantityNum": 2,
          "QuantityText": "2",
          "QuantityUnit": "pkg.",
          "RecipeIngredientID": 5411721,
          "TrialMeasure": "",
          "TrialWeight": ""
        },
        {
          "FullMeasure": "1/2 cup",
          "FullWeight": "",
          "IngredientGridHeaders": null,
          "IngredientID": 23281,
          "IngredientName": "creamy peanut butter",
          "IngredientStep": 20,
          "LanguageId": 0,
          "PostPreparation": "",
          "PrePreparation": "",
          "QuantityNum": 0,
          "QuantityText": "1/2",
          "QuantityUnit": "cup",
          "RecipeIngredientID": 5411719,
          "TrialMeasure": "",
          "TrialWeight": ""
        },
        {
          "FullMeasure": "1 tub",
          "FullWeight": "",
          "IngredientGridHeaders": null,
          "IngredientID": 140,
          "IngredientName": "COOL WHIP Whipped Topping",
          "IngredientStep": 30,
          "LanguageId": 0,
          "PostPreparation": ", thawed",
          "PrePreparation": "(8 oz.)",
          "QuantityNum": 1,
          "QuantityText": "1",
          "QuantityUnit": "tub",
          "RecipeIngredientID": 5411720,
          "TrialMeasure": "",
          "TrialWeight": ""
        },
        {
          "FullMeasure": "1/4 cup",
          "FullWeight": "",
          "IngredientGridHeaders": null,
          "IngredientID": 1452,
          "IngredientName": "powdered sugar",
          "IngredientStep": 40,
          "LanguageId": 0,
          "PostPreparation": "",
          "PrePreparation": "",
          "QuantityNum": 0,
          "QuantityText": "1/4",
          "QuantityUnit": "cup",
          "RecipeIngredientID": 5411718,
          "TrialMeasure": "",
          "TrialWeight": ""
        }
      ],
      "IsHealthyLiving": false,
      "KRLId": "505393",
      "KeyIngredients": [
        "Chocolate"
      ],
      "Keywords": "peanut butter,powdered sugar,baking chocolate,chocolate,COOL WHIP,whipped topping,BAKER'S Semi-Sweet Chocolate,semi-sweet chocolate,chocolate-semi-sweet,PLANTERS Peanut Butter,Dessert,Easy,Jewish,Candy,Cookie Balls,All Seasons,Chanukah,Christmas,Cocktail party,Gift Giving,Kid-Friendly,Kids Can Cook",
      "LanguageId": 1,
      "LifeStyles": [],
      "NumberOfIngredients": 4,
      "NumberOfRatings": 198,
      "NumberOfRatingsWithComments": "174",
      "NumberOfServings": "Makes 6 doz. or 18 servings.",
      "NumberOfTrialServings": null,
      "NutritionBonus": null,
      "NutritionExchangeItemId": 0,
      "NutritionGridItems": null,
      "NutritionItems": [
        {
          "DisplayOrder": 1,
          "Document": null,
          "NutritionItemID": 3,
          "NutritionItemName": "Calories",
          "Predriscriptor": "",
          "Quantity": 150,
          "Unit": "          "
        },
        {
          "DisplayOrder": 2,
          "Document": "fat_cholesterol.html",
          "NutritionItemID": 4,
          "NutritionItemName": "Total fat",
          "Predriscriptor": "",
          "Quantity": 10,
          "Unit": "g         "
        },
        {
          "DisplayOrder": 3,
          "Document": "fat_cholesterol.html",
          "NutritionItemID": 9,
          "NutritionItemName": "Saturated fat",
          "Predriscriptor": "",
          "Quantity": 5,
          "Unit": "g         "
        },
        {
          "DisplayOrder": 7,
          "Document": "fat_cholesterol.html",
          "NutritionItemID": 2,
          "NutritionItemName": "Cholesterol",
          "Predriscriptor": "",
          "Quantity": 0,
          "Unit": "mg        "
        },
        {
          "DisplayOrder": 8,
          "Document": "sodium.html",
          "NutritionItemID": 8,
          "NutritionItemName": "Sodium",
          "Predriscriptor": "",
          "Quantity": 35,
          "Unit": "mg        "
        },
        {
          "DisplayOrder": 10,
          "Document": "carbs_sugars_fiber.html",
          "NutritionItemID": 1,
          "NutritionItemName": "Carbohydrate",
          "Predriscriptor": "",
          "Quantity": 15,
          "Unit": "g         "
        },
        {
          "DisplayOrder": 11,
          "Document": "carbs_sugars_fiber.html",
          "NutritionItemID": 7,
          "NutritionItemName": "Dietary fiber",
          "Predriscriptor": "",
          "Quantity": 2,
          "Unit": "g         "
        },
        {
          "DisplayOrder": 12,
          "Document": "carbs_sugars_fiber.html",
          "NutritionItemID": 5,
          "NutritionItemName": "Sugars",
          "Predriscriptor": "",
          "Quantity": 11,
          "Unit": "g         "
        },
        {
          "DisplayOrder": 13,
          "Document": null,
          "NutritionItemID": 6,
          "NutritionItemName": "Protein",
          "Predriscriptor": "",
          "Quantity": 2,
          "Unit": "g         "
        },
        {
          "DisplayOrder": 14,
          "Document": null,
          "NutritionItemID": 10,
          "NutritionItemName": "Vitamin A",
          "Predriscriptor": "",
          "Quantity": 0,
          "Unit": "%DV       "
        },
        {
          "DisplayOrder": 15,
          "Document": null,
          "NutritionItemID": 11,
          "NutritionItemName": "Vitamin C",
          "Predriscriptor": "",
          "Quantity": 0,
          "Unit": "%DV       "
        },
        {
          "DisplayOrder": 16,
          "Document": "dairy_and_calcium.html",
          "NutritionItemID": 12,
          "NutritionItemName": "Calcium",
          "Predriscriptor": "",
          "Quantity": 0,
          "Unit": "%DV       "
        },
        {
          "DisplayOrder": 17,
          "Document": null,
          "NutritionItemID": 13,
          "NutritionItemName": "Iron",
          "Predriscriptor": "",
          "Quantity": 4,
          "Unit": "%DV       "
        }
      ],
      "NutritionServingText": "",
      "PrepStepImage": null,
      "PreparationDescription": "Microwave chocolate in large microwaveable bowl on HIGH 2 min. or until chocolate is almost melted, stirring after 1 min.  Stir until chocolate is completely melted.$Stir in peanut butter until well blended. Cool to room temperature.  Gently stir in COOL WHIP.  Refrigerate 1 hour.$Scoop peanut butter mixture with melon baller or teaspoon, then shape into 1-inch balls.  Roll in sugar.  Store in tightly covered container in refrigerator.",
      "PreparationPreText": "",
      "PreparationSteps": [
        {
          "Description": "Microwave chocolate in large microwaveable bowl on HIGH 2 min. or until chocolate is almost melted, stirring after 1 min.  Stir until chocolate is completely melted.",
          "PreparationStepImage": {
            "PictureFormats": [],
            "author": null,
            "id": null,
            "imageType": null,
            "mimeType": null,
            "publicationDate": null,
            "status": null,
            "title": null,
            "type": null
          },
          "Sequence": 1
        },
        {
          "Description": "Stir in peanut butter until well blended. Cool to room temperature.  Gently stir in COOL WHIP.  Refrigerate 1 hour.",
          "PreparationStepImage": {
            "PictureFormats": [],
            "author": null,
            "id": null,
            "imageType": null,
            "mimeType": null,
            "publicationDate": null,
            "status": null,
            "title": null,
            "type": null
          },
          "Sequence": 2
        },
        {
          "Description": "Scoop peanut butter mixture with melon baller or teaspoon, then shape into 1-inch balls.  Roll in sugar.  Store in tightly covered container in refrigerator.",
          "PreparationStepImage": {
            "PictureFormats": [],
            "author": null,
            "id": null,
            "imageType": null,
            "mimeType": null,
            "publicationDate": null,
            "status": null,
            "title": null,
            "type": null
          },
          "Sequence": 3
        }
      ],
      "PreparationTime": 20,
      "Promotion": null,
      "Ratings": {
        "TotalCount": 198,
        "PageCount": 10,
        "PageNo": 1,
        "Rating": [
          {
            "Comment": "So easy and so delish!!  It didn't take nearly as long as I thought it would to roll the truffles.  I used my small-sized cookie scoop so that made things quicker.  They were a big (chocolatey and peanut buttery) hit!",
            "DisplayName": false,
            "RatingValue": 5,
            "SubmitDate": "/Date(1297195453000-0600)/",
            "UpdatedDate": "/Date(1297195453000-0600)/",
            "UserName": "angelbruck"
          },
          {
            "Comment": "These were easy and a lot of fun to make. Great for gifts. Yum! ",
            "DisplayName": true,
            "RatingValue": 4,
            "SubmitDate": "/Date(1292534744000-0600)/",
            "UpdatedDate": "/Date(1292534744000-0600)/",
            "UserName": "misslissa512"
          },
          {
            "Comment": "I have made these many times, and always to great reviews. A few people have said they taste better than any commercially prepared product!",
            "DisplayName": true,
            "RatingValue": 5,
            "SubmitDate": "/Date(1291758434000-0600)/",
            "UpdatedDate": "/Date(1291758434000-0600)/",
            "UserName": "Mysteryhome"
          },
          {
            "Comment": "This recipe is terrific.  The only thing I do different is I make them into squares and I freeze the mixture before serving.  It holds better otherwise it is too soft.  This is my third year making them for the holidays and enjoyed by all in my family.",
            "DisplayName": true,
            "RatingValue": 5,
            "SubmitDate": "/Date(1290206525000-0600)/",
            "UpdatedDate": "/Date(1290206525000-0600)/",
            "UserName": "joannd73"
          },
          {
            "Comment": "Make these all the time and everyone loves them! These are especially nice for holiday gifts as they look extravagant.   I am asked for the recipe every time I make them.",
            "DisplayName": true,
            "RatingValue": 5,
            "SubmitDate": "/Date(1071687938000-0600)/",
            "UpdatedDate": "/Date(1288989014000-0500)/",
            "UserName": "KIKINELSN"
          },
          {
            "Comment": "I make a double batch of these truffles every year at Christmas and everyone loves them.  I've tried other truffle recipes, and this one is the best tasting and economical to make.  I have an easier, less messy way of making them.  I wear latex gloves, the medical disposable ones found in drugstores.  Then I use a teaspoon to scoop out the chocolate mixture, and roll the chocolate mixture in the palms of my hands to make perfectly round balls.  I make all of the balls from the mixture first, and then I roll them in the toppings. I have three bowls set up with chopped nuts, coconut, and Christmas sprinkles.  I do a portion of them in each of the toppings, one topping at a time.  This really cuts down on the mess.  Your gloved hands have chocolate on them, but you can wash your gloved hands, or pull off the gloves, and your hands stay clean!  These are really worth the effort.  I've also made them at Valentine's Day with red and white sprinkles and put them in boxes as gifts.  Try them, ",
            "DisplayName": true,
            "RatingValue": 5,
            "SubmitDate": "/Date(1262382354000-0600)/",
            "UpdatedDate": "/Date(1262394990000-0600)/",
            "UserName": "Spitzy135"
          },
          {
            "Comment": "These were good, but extremely messy to make. The instructions to use a melon baller or teaspoon to shape into 1-in balls is a joke. I had to roll with my hands and it made it very, very messy.\r\n\r\nThey tasted good, but I won't be making them again.",
            "DisplayName": true,
            "RatingValue": 3,
            "SubmitDate": "/Date(1260246441000-0600)/",
            "UpdatedDate": "/Date(1260246441000-0600)/",
            "UserName": "dianecole71"
          },
          {
            "Comment": "I have made these truffles for many occasions. They always get rave reviews!",
            "DisplayName": true,
            "RatingValue": 5,
            "SubmitDate": "/Date(1255360749000-0500)/",
            "UpdatedDate": "/Date(1255360749000-0500)/",
            "UserName": "nicci10"
          },
          {
            "Comment": "",
            "DisplayName": true,
            "RatingValue": 5,
            "SubmitDate": "/Date(1254163858000-0500)/",
            "UpdatedDate": "/Date(1254163858000-0500)/",
            "UserName": "syjoung77"
          },
          {
            "Comment": "Yum!  I am rarely in the kitchen, but I made these tonight, and my hubby thought they were fabulous - I will be making these in the future.  Very good for chocolate lovers. :-)",
            "DisplayName": true,
            "RatingValue": 4,
            "SubmitDate": "/Date(1252885014000-0500)/",
            "UpdatedDate": "/Date(1252885014000-0500)/",
            "UserName": "MKR1010"
          }
        ]
      },
      "RecipeDisplayFormatId": 5,
      "RecipeId": 55254,
      "RecipeName": "Chocolate-Peanut Butter Truffles",
      "RecipeType": 0,
      "RelatedData": {
        "RelatedBrands": null,
        "RelatedProducts": null,
        "RelatedRecipes": {
          "DefaultTopCount": 5,
          "Recipe": [
            {
              "AverageRating": 4.5,
              "HasVideo": false,
              "IsHealthyLiving": false,
              "NumberOfRatings": 4,
              "PhotoName": "137444.jpg",
              "PhotoUrl": "http://assets.kraftfoods.com/recipe_images/opendeploy/137444.jpg",
              "RecipeId": 137444,
              "RecipeName": "Chocolate-Peanut Butter Swirled Bark",
              "SEOName": "chocolate-peanut-butter-swirled-bark-137444",
              "ThumbnailPhoto": null
            },
            {
              "AverageRating": 4.6,
              "HasVideo": false,
              "IsHealthyLiving": false,
              "NumberOfRatings": 10,
              "PhotoName": "opendeploy/ 120741-8749d9fbefaa070bece61a59b20f677445e0963e_306x204.jpg",
              "PhotoUrl": "http://assets.kraftfoods.com/recipe_images/opendeploy/opendeploy/ 120741-8749d9fbefaa070bece61a59b20f677445e0963e_306x204.jpg",
              "RecipeId": 120741,
              "RecipeName": "Layered Chocolate-Peanut Butter Fudge",
              "SEOName": "layered-chocolate-peanut-butter-fudge-120741",
              "ThumbnailPhoto": null
            },
            {
              "AverageRating": 4.1,
              "HasVideo": false,
              "IsHealthyLiving": false,
              "NumberOfRatings": 18,
              "PhotoName": "90792.jpg",
              "PhotoUrl": "http://assets.kraftfoods.com/recipe_images/opendeploy/90792.jpg",
              "RecipeId": 90792,
              "RecipeName": "MR. PEANUT'S Double Fantasy Fudge",
              "SEOName": "mr-peanuts-double-fantasy-fudge-90792",
              "ThumbnailPhoto": null
            },
            {
              "AverageRating": 4.7,
              "HasVideo": false,
              "IsHealthyLiving": false,
              "NumberOfRatings": 75,
              "PhotoName": "107889.jpg",
              "PhotoUrl": "http://assets.kraftfoods.com/recipe_images/opendeploy/107889.jpg",
              "RecipeId": 107889,
              "RecipeName": "Marbled-Chocolate Treats",
              "SEOName": "marbled-chocolate-treats-107889",
              "ThumbnailPhoto": null
            },
            {
              "AverageRating": 4.1,
              "HasVideo": false,
              "IsHealthyLiving": false,
              "NumberOfRatings": 14,
              "PhotoName": "121580.jpg",
              "PhotoUrl": "http://assets.kraftfoods.com/recipe_images/opendeploy/121580.jpg",
              "RecipeId": 121580,
              "RecipeName": "Double-Peanut Butter Balls",
              "SEOName": "double-peanut-butter-balls-121580",
              "ThumbnailPhoto": null
            }
          ],
          "TotalCount": 2290
        }
      },
      "RiseIngredients": [],
      "RiseTaxonomy": [],
      "Riserecipe": [
        {
          "GRIN": 505393,
          "RecipeId": 55254,
          "RecipeIndustrySector": "Retail",
          "RecipeType": "Internal"
        }
      ],
      "RomanceText": "Sure, you have to wait for them to firm up in the fridge, but these meltingly delicious Chocolate-Peanut Butter Truffles are surprisingly quick to make.",
      "SEOName": "chocolate-peanut-butter-truffles-55254",
      "Tips": [
        {
          "RecipeId": 55254,
          "Sequence": 10,
          "TipDescription": "These sweet treats have built-in portion control and can be enjoyed on occasion.",
          "TipID": 5,
          "TipName": "Size Wise"
        },
        {
          "RecipeId": 55254,
          "Sequence": 20,
          "TipDescription": "Instead of rolling these easy-to-make truffles in the powdered sugar, coat them with one or more of the following coatings: unsweetened cocoa powder, chopped PLANTERS COCKTAIL Peanuts, multi-colored sprinkles or BAKER'S ANGEL FLAKE Coconut. Wrap and give as gifts or serve at your next special occasion. \r\n",
          "TipID": 3,
          "TipName": "Variation  "
        },
        {
          "RecipeId": 55254,
          "Sequence": 30,
          "TipDescription": "Line 8-inch square pan with foil, with ends of foil extending over sides.  Prepare truffle mixture as directed.  Spread into pan.  Refrigerate 1 hour.  Use foil handles to remove truffle mixture from pan; cut into 1-inch squares.  Press squares in suggested coatings, turning to evenly coat all sides of each square.  Makes 16 servings, 4 squares each.",
          "TipID": 2,
          "TipName": "Easy Truffle Squares"
        }
      ],
      "TotalTime": 80,
      "TradeMarkInfo": null,
      "Video": [],
      "Yield": "Makes 6 doz. or 18 servings."
    }
  ]
}