{
  "Metadata": {
    "PageCount": 1,
    "PageNo": 0,
    "TotalCount": 0
  },
  "Recipes": [
    {
      "AdServingKeywords": "Cheddar,Cheese,All Seasons,Kraft Cheese",
      "AlternateLanguageRecipes": [],
      "Assets": [
        {
          "PictureFormats": [
            {
              "rendition": "290x194",
              "url": "http://assets.kraftfoods.com/recipe_images/opendeploy/64310_290x194.jpg"
            },
            {
              "rendition": "640x428",
              "url": "http://assets.kraftfoods.com/recipe_images/opendeploy/64310_640x428.jpg"
            },
            {
              "rendition": "600x250",
              "url": "http://assets.kraftfoods.com/recipe_images/opendeploy/64310_600x250.jpg"
            }
          ],
          "author": "BulKUpload",
          "id": "2",
          "imageType": "Primary",
          "mimeType": "image/jpeg",
          "publicationDate": null,
          "status": "1",
          "title": "64310",
          "type": "image"
        },
        {
          "PictureFormats": [
            {
              "rendition": "140x90",
              "url": "http://assets.kraftfoods.com/recipe_images/opendeploy/112452_MXM_K44603V13EC_OR1_CR_140x90.jpg"
            },
            {
              "rendition": "300x250",
              "url": "http://assets.kraftfoods.com/recipe_images/opendeploy/112452_MXM_K44603V13EC_OR1_CR_300x250.jpg"
            },
            {
              "rendition": "960x300",
              "url": "http://assets.kraftfoods.com/recipe_images/opendeploy/112452_MXM_K44603V13EC_OR1_CR_960x300.jpg"
            }
          ],
          "author": null,
          "id": "2",
          "imageType": "Primary",
          "mimeType": "image/jpeg",
          "publicationDate": null,
          "status": "1",
          "title": "112452_MXM_K44603V13EC_OR1_CR",
          "type": "image"
        },
        {
          "PictureFormats": [
            {
              "rendition": "300x200",
              "url": "http://assets.kraftfoods.com/recipe_images/64310.jpg"
            }
          ],
          "author": "BulKUpload",
          "id": "0",
          "imageType": "LANDSCAPE",
          "mimeType": "image/jpeg",
          "publicationDate": null,
          "status": "1",
          "title": "64310.jpg",
          "type": "image"
        }
      ],
      "AverageRating": 5,
      "BrandId": 1,
      "Branding": null,
      "CSSSkins": null,
      "CarbCounter": null,
      "Categories": [],
      "Classifications": [],
      "ComplimentaryRecipes": [
        {
          "AverageRating": 0,
          "HasVideo": false,
          "IsHealthyLiving": false,
          "NumberOfRatings": 0,
          "PhotoName": null,
          "PhotoUrl": null,
          "RecipeId": 160477,
          "RecipeName": null,
          "SEOName": "cheesy-hot-dog-casserole-160477",
          "ThumbnailPhoto": ""
        }
      ],
      "CookingMethod": null,
      "Copyright": null,
      "Courses": [],
      "DietExchange": null,
      "DishDetails": [],
      "EndDate": "/Date(-62135575200000-0600)/",
      "HasVideo": false,
      "Ingredients": [
        {
          "FullMeasure": null,
          "FullWeight": null,
          "IngredientGridHeaders": null,
          "IngredientID": 68750,
          "IngredientName": "KRAFT Cheddar Cheese",
          "IngredientStep": 10,
          "LanguageId": 0,
          "PostPreparation": "",
          "PrePreparation": "",
          "QuantityNum": 4,
          "QuantityText": "4",
          "QuantityUnit": "oz.",
          "RecipeIngredientID": 18499,
          "TrialMeasure": null,
          "TrialWeight": null
        },
        {
          "FullMeasure": null,
          "FullWeight": null,
          "IngredientGridHeaders": null,
          "IngredientID": 68271,
          "IngredientName": "RITZ Crackers ",
          "IngredientStep": 20,
          "LanguageId": 0,
          "PostPreparation": "",
          "PrePreparation": "",
          "QuantityNum": 8,
          "QuantityText": "8",
          "QuantityUnit": "",
          "RecipeIngredientID": 17533,
          "TrialMeasure": null,
          "TrialWeight": null
        }
      ],
      "IsHealthyLiving": false,
      "KRLId": "547434",
      "KeyIngredients": [],
      "Keywords": "All Seasons",
      "LanguageId": 1,
      "LifeStyles": [],
      "NumberOfIngredients": 2,
      "NumberOfRatings": 5,
      "NumberOfRatingsWithComments": "5",
      "NumberOfServings": "Makes 2 serving,  4 topped crackers.",
      "NumberOfTrialServings": null,
      "NutritionBonus": null,
      "NutritionExchangeItemId": 0,
      "NutritionGridItems": null,
      "NutritionItems": [
        {
          "DisplayOrder": 0,
          "Document": null,
          "NutritionItemID": 380,
          "NutritionItemName": "Trans Fat",
          "Predriscriptor": "",
          "Quantity": 0,
          "Unit": "g         "
        },
        {
          "DisplayOrder": 0,
          "Document": null,
          "NutritionItemID": 388,
          "NutritionItemName": "Potassium",
          "Predriscriptor": "",
          "Quantity": 2,
          "Unit": "%DV       "
        },
        {
          "DisplayOrder": 10,
          "Document": null,
          "NutritionItemID": 371,
          "NutritionItemName": "Calories",
          "Predriscriptor": "",
          "Quantity": 310,
          "Unit": "          "
        },
        {
          "DisplayOrder": 20,
          "Document": null,
          "NutritionItemID": 376,
          "NutritionItemName": "Total fat",
          "Predriscriptor": "",
          "Quantity": 24,
          "Unit": "g         "
        },
        {
          "DisplayOrder": 30,
          "Document": null,
          "NutritionItemID": 377,
          "NutritionItemName": "Saturated fat",
          "Predriscriptor": "",
          "Quantity": 13,
          "Unit": "g         "
        },
        {
          "DisplayOrder": 50,
          "Document": null,
          "NutritionItemID": 378,
          "NutritionItemName": "Monounsaturated Fat",
          "Predriscriptor": "",
          "Quantity": 1,
          "Unit": "g         "
        },
        {
          "DisplayOrder": 60,
          "Document": null,
          "NutritionItemID": 381,
          "NutritionItemName": "Cholesterol",
          "Predriscriptor": "",
          "Quantity": 60,
          "Unit": "mg        "
        },
        {
          "DisplayOrder": 70,
          "Document": null,
          "NutritionItemID": 389,
          "NutritionItemName": "Sodium",
          "Predriscriptor": "",
          "Quantity": 430,
          "Unit": "mg        "
        },
        {
          "DisplayOrder": 80,
          "Document": null,
          "NutritionItemID": 373,
          "NutritionItemName": "Carbohydrate",
          "Predriscriptor": "",
          "Quantity": 8,
          "Unit": "g         "
        },
        {
          "DisplayOrder": 90,
          "Document": null,
          "NutritionItemID": 374,
          "NutritionItemName": "Dietary fiber",
          "Predriscriptor": "",
          "Quantity": 0,
          "Unit": "g         "
        },
        {
          "DisplayOrder": 100,
          "Document": null,
          "NutritionItemID": 375,
          "NutritionItemName": "Sugars",
          "Predriscriptor": "",
          "Quantity": 0.8,
          "Unit": "g         "
        },
        {
          "DisplayOrder": 110,
          "Document": null,
          "NutritionItemID": 372,
          "NutritionItemName": "Protein",
          "Predriscriptor": "",
          "Quantity": 13,
          "Unit": "g         "
        },
        {
          "DisplayOrder": 120,
          "Document": null,
          "NutritionItemID": 382,
          "NutritionItemName": "Vitamin A",
          "Predriscriptor": "",
          "Quantity": 0,
          "Unit": "%DV       "
        },
        {
          "DisplayOrder": 130,
          "Document": null,
          "NutritionItemID": 383,
          "NutritionItemName": "Vitamin C",
          "Predriscriptor": "",
          "Quantity": 0,
          "Unit": "%DV       "
        },
        {
          "DisplayOrder": 140,
          "Document": null,
          "NutritionItemID": 386,
          "NutritionItemName": "Calcium",
          "Predriscriptor": "",
          "Quantity": 2,
          "Unit": "%DV       "
        },
        {
          "DisplayOrder": 150,
          "Document": null,
          "NutritionItemID": 387,
          "NutritionItemName": "Iron",
          "Predriscriptor": "",
          "Quantity": 2,
          "Unit": "%DV       "
        }
      ],
      "NutritionServingText": null,
      "PrepStepImage": null,
      "PreparationDescription": "Cut cheese into 2 slices.  $Top crackers with cheese. ",
      "PreparationPreText": null,
      "PreparationSteps": [
        {
          "Description": "Cut cheese into 2 slices.  ",
          "PreparationStepImage": {
            "PictureFormats": [],
            "author": null,
            "id": null,
            "imageType": null,
            "mimeType": null,
            "publicationDate": null,
            "status": null,
            "title": null,
            "type": null
          },
          "Sequence": 1
        },
        {
          "Description": "Top crackers with cheese. ",
          "PreparationStepImage": {
            "PictureFormats": [],
            "author": null,
            "id": null,
            "imageType": null,
            "mimeType": null,
            "publicationDate": null,
            "status": null,
            "title": null,
            "type": null
          },
          "Sequence": 2
        }
      ],
      "PreparationTime": 5,
      "Promotion": null,
      "Ratings": {
        "TotalCount": 5,
        "PageCount": 10,
        "PageNo": 1,
        "Rating": [
          {
            "Comment": "I should get credit for this recipe, because I made it about 57 years ago (at age 9). How do I collect my royalties??? (I also didn't want the other comedienne's reviewing this to up-stage me!)",
            "DisplayName": true,
            "RatingValue": 5,
            "SubmitDate": "/Date(1407944776000-0500)/",
            "UpdatedDate": "/Date(1407944776000-0500)/",
            "UserName": "scootersandi"
          },
          {
            "Comment": "wow absolutly delicious i have never had such a delicious snack in my life this was kinda hard to make but with alot of effort and time there was a peice of art just awaiting my tongue to fill it with delight thank you kraft for a delicious recipe ",
            "DisplayName": true,
            "RatingValue": 5,
            "SubmitDate": "/Date(1262487389000-0600)/",
            "UpdatedDate": "/Date(1262487389000-0600)/",
            "UserName": "matykada"
          },
          {
            "Comment": "I love this recipe but I think that 3 on a plate is more artistic. And for a dramatic touch I added a dab of Grey Poupon.",
            "DisplayName": true,
            "RatingValue": 5,
            "SubmitDate": "/Date(1232647666000-0600)/",
            "UpdatedDate": "/Date(1232647666000-0600)/",
            "UserName": "lolria"
          },
          {
            "Comment": "cheese and crackers are the best!!!!!!!!!!!! nothing is better and easier. my favorite snack since i was a kid. still is and always will be!!!",
            "DisplayName": true,
            "RatingValue": 5,
            "SubmitDate": "/Date(1102133537000-0600)/",
            "UpdatedDate": "/Date(1102133537000-0600)/",
            "UserName": "princess1987_04"
          },
          {
            "Comment": "this is a very challenging recipe but the outcome is WELL WORTH the hard work!",
            "DisplayName": true,
            "RatingValue": 5,
            "SubmitDate": "/Date(1080260160000-0500)/",
            "UpdatedDate": "/Date(1080260160000-0500)/",
            "UserName": "FlamingoQueen"
          }
        ]
      },
      "RecipeDisplayFormatId": 0,
      "RecipeId": 64310,
      "RecipeName": "RITZ Crackers & Cheddar Cheese Bites",
      "RecipeType": 0,
      "RelatedData": {
        "RelatedBrands": null,
        "RelatedProducts": null,
        "RelatedRecipes": {
          "DefaultTopCount": 5,
          "Recipe": [
            {
              "AverageRating": 5,
              "HasVideo": false,
              "IsHealthyLiving": false,
              "NumberOfRatings": 1,
              "PhotoName": "French-Dip-Bites-42846.jpg",
              "PhotoUrl": "http://assets.kraftfoods.com/recipe_images/opendeploy/French-Dip-Bites-42846.jpg",
              "RecipeId": 60950,
              "RecipeName": "\"French Dip\" Bites",
              "SEOName": "french-dip-bites-60950",
              "ThumbnailPhoto": null
            },
            {
              "AverageRating": 4.4,
              "HasVideo": false,
              "IsHealthyLiving": false,
              "NumberOfRatings": 10,
              "PhotoName": "114537.jpg",
              "PhotoUrl": "http://assets.kraftfoods.com/recipe_images/opendeploy/114537.jpg",
              "RecipeId": 114537,
              "RecipeName": "Bacon-Wrapped Chicken Bites",
              "SEOName": "bacon-wrapped-chicken-bites-114537",
              "ThumbnailPhoto": null
            },
            {
              "AverageRating": 5,
              "HasVideo": false,
              "IsHealthyLiving": false,
              "NumberOfRatings": 1,
              "PhotoName": "111120.jpg",
              "PhotoUrl": "http://assets.kraftfoods.com/recipe_images/opendeploy/111120.jpg",
              "RecipeId": 111120,
              "RecipeName": "Mini Cheeseburger Bites",
              "SEOName": "mini-cheeseburger-bites-111120",
              "ThumbnailPhoto": null
            },
            {
              "AverageRating": 4.3,
              "HasVideo": false,
              "IsHealthyLiving": false,
              "NumberOfRatings": 58,
              "PhotoName": "121732.jpg",
              "PhotoUrl": "http://assets.kraftfoods.com/recipe_images/opendeploy/121732.jpg",
              "RecipeId": 121732,
              "RecipeName": "Chicken Broccoli Casserole",
              "SEOName": "chicken-broccoli-casserole-121732",
              "ThumbnailPhoto": null
            },
            {
              "AverageRating": 4.3,
              "HasVideo": false,
              "IsHealthyLiving": true,
              "NumberOfRatings": 3,
              "PhotoName": "118892.jpg",
              "PhotoUrl": "http://assets.kraftfoods.com/recipe_images/opendeploy/118892.jpg",
              "RecipeId": 118892,
              "RecipeName": "Quick Pork Mole Stew",
              "SEOName": "quick-pork-mole-stew-118892",
              "ThumbnailPhoto": null
            }
          ],
          "TotalCount": 4349
        }
      },
      "RiseIngredients": [
        {
          "IngredientCategory": "KRL",
          "IngredientId": 68271,
          "IngredientIndustrySector": "Retail",
          "IngredientType": "Inedible",
          "ProductId": null,
          "RecipeId": 64310
        },
        {
          "IngredientCategory": "KRL",
          "IngredientId": 68750,
          "IngredientIndustrySector": "Retail",
          "IngredientType": "KHC",
          "ProductId": "00021000001927",
          "RecipeId": 64310
        }
      ],
      "RiseTaxonomy": [
        {
          "ParentTaxonomyId": 0,
          "RecipeId": 64310,
          "ResourceName": "Recipe",
          "TaxonomyId": 60,
          "TaxonomyName": "Appetizers",
          "TaxonomyTypeId": 2,
          "TaxonomyTypeName": "Meal Part"
        },
        {
          "ParentTaxonomyId": 47,
          "RecipeId": 64310,
          "ResourceName": "Recipe",
          "TaxonomyId": 181,
          "TaxonomyName": "Crackers with toppings",
          "TaxonomyTypeId": 3,
          "TaxonomyTypeName": "Dish Type"
        }
      ],
      "Riserecipe": [
        {
          "GRIN": 547434,
          "RecipeId": 64310,
          "RecipeIndustrySector": "Retail",
          "RecipeType": "Internal"
        }
      ],
      "RomanceText": "Come back to a classic with RITZ Crackers & Cheddar Cheese Bites. RITZ Crackers & Cheddar Cheese Bites are simple, elegant  and sure to hit the right spot.",
      "SEOName": "ritz-crackers-cheddar-cheese-bites-64310",
      "Tips": [
        {
          "RecipeId": 64310,
          "Sequence": 10,
          "TipDescription": "Prepare as directed, using KRAFT Colby & Monterey Jack Cheese or any variety of KRAFT 2% Reduced Fat Cheese.",
          "TipID": 1,
          "TipName": "Substitute"
        }
      ],
      "TotalTime": 5,
      "TradeMarkInfo": null,
      "Video": [],
      "Yield": "Makes 2 serving,  4 topped crackers."
    }
  ]
}