{
  "Metadata": {
    "PageCount": 1,
    "PageNo": 0,
    "TotalCount": 0
  },
  "Recipes": [
    {
      "AdServingKeywords": "Cheese,Jalapeno,Parmesan,Peppers,Potato,Vegetables,Side Dish,All Seasons,Kraft Grated Cheese,Kraft Salad Dressing,Spicy",
      "AlternateLanguageRecipes": [],
      "Assets": [
        {
          "PictureFormats": [
            {
              "rendition": "290x194",
              "url": "http://assets.kraftfoods.com/recipe_images/opendeploy/171308_290x194.jpg"
            },
            {
              "rendition": "640x428",
              "url": "http://assets.kraftfoods.com/recipe_images/opendeploy/171308_640x428.jpg"
            },
            {
              "rendition": "600x250",
              "url": "http://assets.kraftfoods.com/recipe_images/opendeploy/171308_600x250.jpg"
            }
          ],
          "author": "BulKUpload",
          "id": "2",
          "imageType": "Primary",
          "mimeType": "image/jpeg",
          "publicationDate": null,
          "status": "1",
          "title": "171308",
          "type": "image"
        },
        {
          "PictureFormats": [
            {
              "rendition": "140x90",
              "url": "http://assets.kraftfoods.com/recipe_images/opendeploy/171307_SF_66218v0E_V1_140x90.jpg"
            },
            {
              "rendition": "290x194",
              "url": "http://assets.kraftfoods.com/recipe_images/opendeploy/171307_SF_66218v0E_V1_290x194.jpg"
            },
            {
              "rendition": "300x250",
              "url": "http://assets.kraftfoods.com/recipe_images/opendeploy/171307_SF_66218v0E_V1_300x250.jpg"
            },
            {
              "rendition": "600x250",
              "url": "http://assets.kraftfoods.com/recipe_images/opendeploy/171307_SF_66218v0E_V1_600x250.jpg"
            },
            {
              "rendition": "640x428",
              "url": "http://assets.kraftfoods.com/recipe_images/opendeploy/171307_SF_66218v0E_V1_640x428.jpg"
            },
            {
              "rendition": "960x300",
              "url": "http://assets.kraftfoods.com/recipe_images/opendeploy/171307_SF_66218v0E_V1_960x300.jpg"
            }
          ],
          "author": null,
          "id": "5",
          "imageType": "Alternate",
          "mimeType": "image/jpeg",
          "publicationDate": null,
          "status": "1",
          "title": "171307_SF_66218v0E_V1",
          "type": "image"
        },
        {
          "PictureFormats": [
            {
              "rendition": "300x200",
              "url": "http://assets.kraftfoods.com/recipe_images/171308.jpg"
            }
          ],
          "author": "BulKUpload",
          "id": "0",
          "imageType": "LANDSCAPE",
          "mimeType": "image/jpeg",
          "publicationDate": null,
          "status": "1",
          "title": "171308.jpg",
          "type": "image"
        }
      ],
      "AverageRating": 0,
      "BrandId": 1,
      "Branding": null,
      "CSSSkins": null,
      "CarbCounter": null,
      "Categories": [
        {
          "CategoryID": 9,
          "CategoryName": "Salads/Side Dishes",
          "CategoryRank": 13,
          "SubCategoryID": 429,
          "SubCategoryName": "Potato Side Dishes",
          "SubCategoryRank": 120
        },
        {
          "CategoryID": 11,
          "CategoryName": "Primary",
          "CategoryRank": 0,
          "SubCategoryID": 99,
          "SubCategoryName": "Side Dishes",
          "SubCategoryRank": 90
        },
        {
          "CategoryID": 757,
          "CategoryName": "Vegetables & Vegetarian Meals",
          "CategoryRank": 11,
          "SubCategoryID": 2571,
          "SubCategoryName": "Side / Other",
          "SubCategoryRank": 1
        }
      ],
      "Classifications": [],
      "ComplimentaryRecipes": null,
      "CookingMethod": null,
      "Copyright": null,
      "Courses": [
        "Salads & sides"
      ],
      "DietExchange": null,
      "DishDetails": [],
      "EndDate": "/Date(-62135575200000-0600)/",
      "HasVideo": false,
      "Ingredients": [
        {
          "FullMeasure": "2 lb.",
          "FullWeight": "",
          "IngredientGridHeaders": null,
          "IngredientID": 2091,
          "IngredientName": "red potatoes",
          "IngredientStep": 10,
          "LanguageId": 0,
          "PostPreparation": " (about 10), cooked, cooled",
          "PrePreparation": " small",
          "QuantityNum": 2,
          "QuantityText": "2",
          "QuantityUnit": "lb.",
          "RecipeIngredientID": 5031871,
          "TrialMeasure": "",
          "TrialWeight": ""
        },
        {
          "FullMeasure": "1/2 cup",
          "FullWeight": "",
          "IngredientGridHeaders": null,
          "IngredientID": 499,
          "IngredientName": "KRAFT Zesty Italian Dressing",
          "IngredientStep": 20,
          "LanguageId": 0,
          "PostPreparation": ", divided",
          "PrePreparation": "",
          "QuantityNum": 0,
          "QuantityText": "1/2",
          "QuantityUnit": "cup",
          "RecipeIngredientID": 5031869,
          "TrialMeasure": "",
          "TrialWeight": ""
        },
        {
          "FullMeasure": "1/4 cup",
          "FullWeight": "",
          "IngredientGridHeaders": null,
          "IngredientID": 20854,
          "IngredientName": "fresh basil leaves",
          "IngredientStep": 30,
          "LanguageId": 0,
          "PostPreparation": "",
          "PrePreparation": "tightly packed",
          "QuantityNum": 0,
          "QuantityText": "1/4",
          "QuantityUnit": "cup",
          "RecipeIngredientID": 5031870,
          "TrialMeasure": "",
          "TrialWeight": ""
        },
        {
          "FullMeasure": "2 Tbsp.",
          "FullWeight": "",
          "IngredientGridHeaders": null,
          "IngredientID": 397,
          "IngredientName": "KRAFT Grated Parmesan Cheese",
          "IngredientStep": 40,
          "LanguageId": 0,
          "PostPreparation": "",
          "PrePreparation": "",
          "QuantityNum": 2,
          "QuantityText": "2",
          "QuantityUnit": "Tbsp.",
          "RecipeIngredientID": 5031868,
          "TrialMeasure": "",
          "TrialWeight": ""
        },
        {
          "FullMeasure": "1",
          "FullWeight": "",
          "IngredientGridHeaders": null,
          "IngredientID": 3590,
          "IngredientName": "jalapeño pepper",
          "IngredientStep": 50,
          "LanguageId": 0,
          "PostPreparation": ", seeded",
          "PrePreparation": "",
          "QuantityNum": 1,
          "QuantityText": "1",
          "QuantityUnit": "",
          "RecipeIngredientID": 5031872,
          "TrialMeasure": "",
          "TrialWeight": ""
        }
      ],
      "IsHealthyLiving": false,
      "KRLId": "573843",
      "KeyIngredients": [
        "Cheese",
        "Jalapeno",
        "Parmesan",
        "Peppers",
        "Potato",
        "Vegetables"
      ],
      "Keywords": "parmesan cheese,peppers,potatoes,basil,cheese,dressing,herbs,hot peppers,italian dressing,jalapeno peppers,KRAFT Dressing,KRAFT Parmesan Cheese,salad dressing,chile peppers,Side Dish,All Seasons,Spicy",
      "LanguageId": 1,
      "LifeStyles": [],
      "NumberOfIngredients": 5,
      "NumberOfRatings": 0,
      "NumberOfRatingsWithComments": "0",
      "NumberOfServings": "8 servings, 1/2 cup each ",
      "NumberOfTrialServings": null,
      "NutritionBonus": null,
      "NutritionExchangeItemId": 0,
      "NutritionGridItems": null,
      "NutritionItems": [
        {
          "DisplayOrder": 1,
          "Document": null,
          "NutritionItemID": 3,
          "NutritionItemName": "Calories",
          "Predriscriptor": "",
          "Quantity": 120,
          "Unit": "          "
        },
        {
          "DisplayOrder": 2,
          "Document": "fat_cholesterol.html",
          "NutritionItemID": 4,
          "NutritionItemName": "Total fat",
          "Predriscriptor": "",
          "Quantity": 3.5,
          "Unit": "g         "
        },
        {
          "DisplayOrder": 3,
          "Document": "fat_cholesterol.html",
          "NutritionItemID": 9,
          "NutritionItemName": "Saturated fat",
          "Predriscriptor": "",
          "Quantity": 0.5,
          "Unit": "g         "
        },
        {
          "DisplayOrder": 7,
          "Document": "fat_cholesterol.html",
          "NutritionItemID": 2,
          "NutritionItemName": "Cholesterol",
          "Predriscriptor": "",
          "Quantity": 0,
          "Unit": "mg        "
        },
        {
          "DisplayOrder": 8,
          "Document": "sodium.html",
          "NutritionItemID": 8,
          "NutritionItemName": "Sodium",
          "Predriscriptor": "",
          "Quantity": 200,
          "Unit": "mg        "
        },
        {
          "DisplayOrder": 10,
          "Document": "carbs_sugars_fiber.html",
          "NutritionItemID": 1,
          "NutritionItemName": "Carbohydrate",
          "Predriscriptor": "",
          "Quantity": 20,
          "Unit": "g         "
        },
        {
          "DisplayOrder": 11,
          "Document": "carbs_sugars_fiber.html",
          "NutritionItemID": 7,
          "NutritionItemName": "Dietary fiber",
          "Predriscriptor": "",
          "Quantity": 2,
          "Unit": "g         "
        },
        {
          "DisplayOrder": 12,
          "Document": "carbs_sugars_fiber.html",
          "NutritionItemID": 5,
          "NutritionItemName": "Sugars",
          "Predriscriptor": "",
          "Quantity": 2,
          "Unit": "g         "
        },
        {
          "DisplayOrder": 13,
          "Document": null,
          "NutritionItemID": 6,
          "NutritionItemName": "Protein",
          "Predriscriptor": "",
          "Quantity": 3,
          "Unit": "g         "
        },
        {
          "DisplayOrder": 14,
          "Document": null,
          "NutritionItemID": 10,
          "NutritionItemName": "Vitamin A",
          "Predriscriptor": "",
          "Quantity": 4,
          "Unit": "%DV       "
        },
        {
          "DisplayOrder": 15,
          "Document": null,
          "NutritionItemID": 11,
          "NutritionItemName": "Vitamin C",
          "Predriscriptor": "",
          "Quantity": 15,
          "Unit": "%DV       "
        },
        {
          "DisplayOrder": 16,
          "Document": "dairy_and_calcium.html",
          "NutritionItemID": 12,
          "NutritionItemName": "Calcium",
          "Predriscriptor": "",
          "Quantity": 4,
          "Unit": "%DV       "
        },
        {
          "DisplayOrder": 17,
          "Document": null,
          "NutritionItemID": 13,
          "NutritionItemName": "Iron",
          "Predriscriptor": "",
          "Quantity": 6,
          "Unit": "%DV       "
        }
      ],
      "NutritionServingText": " ",
      "PrepStepImage": null,
      "PreparationDescription": "Quarter potatoes; place in large bowl.  Add 2 Tbsp. dressing; toss to evenly coat. Place potatoes on grill grate; grill  5 to 7 min. or until heated through, turning occasionally.  Transfer from grill to serving bowl. $Blend remaining ingredients in blender until smooth.  Add to warm potatoes; mix lightly. ",
      "PreparationPreText": "Heat grill to medium-high heat.",
      "PreparationSteps": [
        {
          "Description": "Quarter potatoes; place in large bowl.  Add 2 Tbsp. dressing; toss to evenly coat. Place potatoes on grill grate; grill  5 to 7 min. or until heated through, turning occasionally.  Transfer from grill to serving bowl. ",
          "PreparationStepImage": {
            "PictureFormats": [],
            "author": null,
            "id": null,
            "imageType": null,
            "mimeType": null,
            "publicationDate": null,
            "status": null,
            "title": null,
            "type": null
          },
          "Sequence": 1
        },
        {
          "Description": "Blend remaining ingredients in blender until smooth.  Add to warm potatoes; mix lightly. ",
          "PreparationStepImage": {
            "PictureFormats": [],
            "author": null,
            "id": null,
            "imageType": null,
            "mimeType": null,
            "publicationDate": null,
            "status": null,
            "title": null,
            "type": null
          },
          "Sequence": 2
        }
      ],
      "PreparationTime": 30,
      "Promotion": null,
      "Ratings": {
        "TotalCount": 0,
        "PageCount": 10,
        "PageNo": 1,
        "Rating": []
      },
      "RecipeDisplayFormatId": 5,
      "RecipeId": 171308,
      "RecipeName": "Grilled Potatoes with Jalapeño Pesto",
      "RecipeType": 0,
      "RelatedData": {
        "RelatedBrands": null,
        "RelatedProducts": null,
        "RelatedRecipes": {
          "DefaultTopCount": 5,
          "Recipe": [
            {
              "AverageRating": 4,
              "HasVideo": false,
              "IsHealthyLiving": false,
              "NumberOfRatings": 1,
              "PhotoName": "Roasted-Tomato-Pepper-Soup-59154.jpg",
              "PhotoUrl": "http://assets.kraftfoods.com/recipe_images/opendeploy/Roasted-Tomato-Pepper-Soup-59154.jpg",
              "RecipeId": 120155,
              "RecipeName": "Roasted Tomato & Pepper Soup with Pesto Cream Cheese",
              "SEOName": "roasted-tomato-pepper-soup-pesto-cream-cheese-120155",
              "ThumbnailPhoto": null
            },
            {
              "AverageRating": 4,
              "HasVideo": false,
              "IsHealthyLiving": false,
              "NumberOfRatings": 3,
              "PhotoName": "Grilled-Salmon-Creamy-Pesto-Sauce-45913B.jpg",
              "PhotoUrl": "http://assets.kraftfoods.com/recipe_images/opendeploy/Grilled-Salmon-Creamy-Pesto-Sauce-45913B.jpg",
              "RecipeId": 116141,
              "RecipeName": "Grilled Pesto Salmon",
              "SEOName": "grilled-pesto-salmon-116141",
              "ThumbnailPhoto": null
            },
            {
              "AverageRating": 4.4,
              "HasVideo": false,
              "IsHealthyLiving": false,
              "NumberOfRatings": 7,
              "PhotoName": "Summer_Mixed_Vegetable_And_Beef_Kabobs.jpg",
              "PhotoUrl": "http://assets.kraftfoods.com/recipe_images/opendeploy/Summer_Mixed_Vegetable_And_Beef_Kabobs.jpg",
              "RecipeId": 56279,
              "RecipeName": "Summer Mixed Vegetable and Beef Kabobs",
              "SEOName": "summer-mixed-vegetable-beef-kabobs-56279",
              "ThumbnailPhoto": null
            },
            {
              "AverageRating": 4.7,
              "HasVideo": false,
              "IsHealthyLiving": true,
              "NumberOfRatings": 3,
              "PhotoName": "136700.jpg",
              "PhotoUrl": "http://assets.kraftfoods.com/recipe_images/opendeploy/136700.jpg",
              "RecipeId": 136700,
              "RecipeName": "Pesto Chicken Skewers",
              "SEOName": "pesto-chicken-skewers-136700",
              "ThumbnailPhoto": null
            },
            {
              "AverageRating": 4.8,
              "HasVideo": false,
              "IsHealthyLiving": false,
              "NumberOfRatings": 6,
              "PhotoName": "114211.jpg",
              "PhotoUrl": "http://assets.kraftfoods.com/recipe_images/opendeploy/114211.jpg",
              "RecipeId": 114211,
              "RecipeName": "Chicken Pesto Manifesto",
              "SEOName": "chicken-pesto-manifesto-114211",
              "ThumbnailPhoto": null
            }
          ],
          "TotalCount": 1347
        }
      },
      "RiseIngredients": [],
      "RiseTaxonomy": [],
      "Riserecipe": [
        {
          "GRIN": 573843,
          "RecipeId": 171308,
          "RecipeIndustrySector": "Retail",
          "RecipeType": "Internal"
        }
      ],
      "RomanceText": "Combine fresh basil leaves and a jalapeño pepper with dressing and Parm for the pesto. Then drizzle it over warm grilled potatoes for a terrific side dish.",
      "SEOName": "grilled-potatoes-jalapeno-pesto-171308",
      "Tips": [
        {
          "RecipeId": 171308,
          "Sequence": 10,
          "TipDescription": "For added heat, do not remove the jalapeño pepper seeds; add to blender along with the peppers and remaining dressing ingredients. Or, substitute 2 serrano peppers for the jalapeño pepper. ",
          "TipID": 2,
          "TipName": "Special Extra"
        }
      ],
      "TotalTime": 60,
      "TradeMarkInfo": null,
      "Video": [],
      "Yield": "8 servings, 1/2 cup each "
    }
  ]
}