{
  "Metadata": {
    "PageCount": 1,
    "PageNo": 0,
    "TotalCount": 0
  },
  "Recipes": [
    {
      "AdServingKeywords": "Dessert,Chocolate,Cream Cheese,Dairy,Easy,All Seasons,Pies and Tarts,Refrigerated Dessert,Cool Whip,Jell-O,Philadelphia,Creamy",
      "AlternateLanguageRecipes": [],
      "Assets": [
        {
          "PictureFormats": [
            {
              "rendition": "300x200",
              "url": "http://assets.kraftfoods.com/recipe_images/OREO_Ribbon_Pie.jpg"
            }
          ],
          "author": null,
          "id": "0",
          "imageType": "DEFAULT",
          "mimeType": null,
          "publicationDate": null,
          "status": "1",
          "title": "OREO_Ribbon_Pie.jpg",
          "type": "image"
        }
      ],
      "AverageRating": 4.6,
      "BrandId": 60,
      "Branding": null,
      "CSSSkins": null,
      "CarbCounter": null,
      "Categories": [
        {
          "CategoryID": 4,
          "CategoryName": "Cakes/Pies/Cheesecakes",
          "CategoryRank": 5,
          "SubCategoryID": 14,
          "SubCategoryName": "Pies: Pudding",
          "SubCategoryRank": 140
        },
        {
          "CategoryID": 11,
          "CategoryName": "Primary",
          "CategoryRank": 0,
          "SubCategoryID": 103,
          "SubCategoryName": "Desserts",
          "SubCategoryRank": 40
        },
        {
          "CategoryID": 759,
          "CategoryName": "Desserts",
          "CategoryRank": 13,
          "SubCategoryID": 2581,
          "SubCategoryName": "Pastry",
          "SubCategoryRank": 1
        },
        {
          "CategoryID": 765,
          "CategoryName": "Pies & Pastries",
          "CategoryRank": 19,
          "SubCategoryID": 2611,
          "SubCategoryName": "Sweet",
          "SubCategoryRank": 1
        },
        {
          "CategoryID": 1759,
          "CategoryName": "Philly Desserts",
          "CategoryRank": 0,
          "SubCategoryID": 16840,
          "SubCategoryName": "Brick Cream Cheese",
          "SubCategoryRank": 0
        },
        {
          "CategoryID": 1759,
          "CategoryName": "Philly Desserts",
          "CategoryRank": 0,
          "SubCategoryID": 16843,
          "SubCategoryName": "Use for All",
          "SubCategoryRank": 0
        }
      ],
      "Classifications": [],
      "ComplimentaryRecipes": null,
      "CookingMethod": null,
      "Copyright": null,
      "Courses": [
        "Desserts"
      ],
      "DietExchange": null,
      "DishDetails": [
        {
          "Text": "desserts",
          "Url": "/recipes/dessert/main.aspx"
        },
        {
          "Text": "fruity desserts",
          "Url": "/recipes/dessert/fruitydesserts.aspx"
        },
        {
          "Text": "gelatin desserts",
          "Url": "/recipes/dessert/gelatindesserts.aspx"
        },
        {
          "Text": "layered desserts",
          "Url": "/recipes/dessert/layereddesserts.aspx"
        },
        {
          "Text": "brownie recipes",
          "Url": "/recipes/dessert/brownie-recipes/main.aspx"
        },
        {
          "Text": "budget desserts",
          "Url": "/recipes/budget/budget-desserts.aspx"
        },
        {
          "Text": "no bake desserts",
          "Url": "/recipes/dessert/nobakedesserts.aspx"
        },
        {
          "Text": "pumpkin recipes",
          "Url": "/recipes/dessert/pumpkin-recipes.aspx"
        },
        {
          "Text": "chocolate cake recipes",
          "Url": "/recipes/dessert/chocolate-cake-recipes/main.aspx"
        },
        {
          "Text": "cheesecake recipes",
          "Url": "/recipes/dessert/cheesecake-center/cheesecake-recipes/main.aspx"
        },
        {
          "Text": "chocolate lovers recipes",
          "Url": "/recipes/dessert/chocolate-center/chocolateloversrecipes.aspx"
        },
        {
          "Text": "classic desserts",
          "Url": "/recipes/dessert/classicdesserts.aspx"
        },
        {
          "Text": "cookie ball recipes",
          "Url": "/recipes/dessert/cookie-ball-recipes/main.aspx"
        },
        {
          "Text": "cookie recipes",
          "Url": "/recipes/dessert/cookie-recipes/main.aspx"
        },
        {
          "Text": "cupcake recipes",
          "Url": "/recipes/dessert/cupcake-recipes/main.aspx"
        },
        {
          "Text": "healthy living desserts",
          "Url": "/healthy-living-ideas/diabetes-center/recipes/dessert-recipes.aspx"
        },
        {
          "Text": "pumpkin pie recipes",
          "Url": "/recipes/holidays-and-entertaining/holidays/Thanksgiving/pumpkin-pie-recipes.aspx"
        },
        {
          "Text": "pie recipes",
          "Url": "/recipes/dessert/pie-recipes/main.aspx"
        }
      ],
      "EndDate": "/Date(-62135575200000-0600)/",
      "HasVideo": false,
      "Ingredients": [
        {
          "FullMeasure": "20",
          "FullWeight": "",
          "IngredientGridHeaders": null,
          "IngredientID": 920,
          "IngredientName": "OREO Cookies",
          "IngredientStep": 10,
          "LanguageId": 0,
          "PostPreparation": ", finely crushed",
          "PrePreparation": "",
          "QuantityNum": 20,
          "QuantityText": "20",
          "QuantityUnit": "",
          "RecipeIngredientID": 6441599,
          "TrialMeasure": "",
          "TrialWeight": ""
        },
        {
          "FullMeasure": "1/4   cup",
          "FullWeight": "",
          "IngredientGridHeaders": null,
          "IngredientID": 1327,
          "IngredientName": "margarine or butter",
          "IngredientStep": 20,
          "LanguageId": 0,
          "PostPreparation": ", melted",
          "PrePreparation": "(1/2 stick)",
          "QuantityNum": 0,
          "QuantityText": "1/4  ",
          "QuantityUnit": "cup",
          "RecipeIngredientID": 6441595,
          "TrialMeasure": "",
          "TrialWeight": ""
        },
        {
          "FullMeasure": "1 pkg.",
          "FullWeight": "",
          "IngredientGridHeaders": null,
          "IngredientID": 628,
          "IngredientName": "PHILADELPHIA Cream Cheese",
          "IngredientStep": 30,
          "LanguageId": 0,
          "PostPreparation": ", softened",
          "PrePreparation": "(8 oz.)",
          "QuantityNum": 1,
          "QuantityText": "1",
          "QuantityUnit": "pkg.",
          "RecipeIngredientID": 6441600,
          "TrialMeasure": "",
          "TrialWeight": ""
        },
        {
          "FullMeasure": "1/4   cup",
          "FullWeight": "",
          "IngredientGridHeaders": null,
          "IngredientID": 1845,
          "IngredientName": "sugar",
          "IngredientStep": 40,
          "LanguageId": 0,
          "PostPreparation": "",
          "PrePreparation": "",
          "QuantityNum": 0,
          "QuantityText": "1/4  ",
          "QuantityUnit": "cup",
          "RecipeIngredientID": 6441597,
          "TrialMeasure": "",
          "TrialWeight": ""
        },
        {
          "FullMeasure": "1-2/3 cups",
          "FullWeight": "",
          "IngredientGridHeaders": null,
          "IngredientID": 1345,
          "IngredientName": "milk",
          "IngredientStep": 50,
          "LanguageId": 0,
          "PostPreparation": "",
          "PrePreparation": "",
          "QuantityNum": 1,
          "QuantityText": "1-2/3",
          "QuantityUnit": "cups",
          "RecipeIngredientID": 6441594,
          "TrialMeasure": "",
          "TrialWeight": ""
        },
        {
          "FullMeasure": "1 pkg.",
          "FullWeight": "",
          "IngredientGridHeaders": null,
          "IngredientID": 344,
          "IngredientName": "JELL-O Chocolate Flavor Instant Pudding",
          "IngredientStep": 60,
          "LanguageId": 0,
          "PostPreparation": "",
          "PrePreparation": "(4-serving size)",
          "QuantityNum": 1,
          "QuantityText": "1",
          "QuantityUnit": "pkg.",
          "RecipeIngredientID": 6441601,
          "TrialMeasure": "",
          "TrialWeight": ""
        },
        {
          "FullMeasure": "1/2   cup",
          "FullWeight": "",
          "IngredientGridHeaders": null,
          "IngredientID": 3679,
          "IngredientName": "chocolate syrup",
          "IngredientStep": 70,
          "LanguageId": 0,
          "PostPreparation": "",
          "PrePreparation": "",
          "QuantityNum": 0,
          "QuantityText": "1/2  ",
          "QuantityUnit": "cup",
          "RecipeIngredientID": 6441598,
          "TrialMeasure": "",
          "TrialWeight": ""
        },
        {
          "FullMeasure": "1 cup",
          "FullWeight": "",
          "IngredientGridHeaders": null,
          "IngredientID": 140,
          "IngredientName": "COOL WHIP Whipped Topping",
          "IngredientStep": 80,
          "LanguageId": 0,
          "PostPreparation": "",
          "PrePreparation": "thawed",
          "QuantityNum": 1,
          "QuantityText": "1",
          "QuantityUnit": "cup",
          "RecipeIngredientID": 6441596,
          "TrialMeasure": "",
          "TrialWeight": ""
        }
      ],
      "IsHealthyLiving": false,
      "KRLId": "507523",
      "KeyIngredients": [
        "Chocolate",
        "Cream Cheese",
        "Dairy"
      ],
      "Keywords": "PHILADELPHIA Cream Cheese,cheese,chocolate pudding mix,chocolate topping,cookies,COOL WHIP,cream cheese,dessert toppings,ice cream topping,JELL-O Pudding Mix,KRAFT Dessert Topping,milk,sandwich cookies,sugar,whipped topping,pudding mix-instant,butter,margarine,OREO Cookies,oreos,Easy,All Seasons,Pies and Tarts,Refrigerated Dessert,Creamy",
      "LanguageId": 1,
      "LifeStyles": [],
      "NumberOfIngredients": 8,
      "NumberOfRatings": 12,
      "NumberOfRatingsWithComments": "10",
      "NumberOfServings": "10 servings",
      "NumberOfTrialServings": "",
      "NutritionBonus": null,
      "NutritionExchangeItemId": 0,
      "NutritionGridItems": null,
      "NutritionItems": [
        {
          "DisplayOrder": 1,
          "Document": null,
          "NutritionItemID": 3,
          "NutritionItemName": "Calories",
          "Predriscriptor": "",
          "Quantity": 380,
          "Unit": "          "
        },
        {
          "DisplayOrder": 2,
          "Document": "fat_cholesterol.html",
          "NutritionItemID": 4,
          "NutritionItemName": "Total fat",
          "Predriscriptor": "",
          "Quantity": 21,
          "Unit": "g         "
        },
        {
          "DisplayOrder": 3,
          "Document": "fat_cholesterol.html",
          "NutritionItemID": 9,
          "NutritionItemName": "Saturated fat",
          "Predriscriptor": "",
          "Quantity": 9,
          "Unit": "g         "
        },
        {
          "DisplayOrder": 7,
          "Document": "fat_cholesterol.html",
          "NutritionItemID": 2,
          "NutritionItemName": "Cholesterol",
          "Predriscriptor": "",
          "Quantity": 25,
          "Unit": "mg        "
        },
        {
          "DisplayOrder": 8,
          "Document": "sodium.html",
          "NutritionItemID": 8,
          "NutritionItemName": "Sodium",
          "Predriscriptor": "",
          "Quantity": 510,
          "Unit": "mg        "
        },
        {
          "DisplayOrder": 10,
          "Document": "carbs_sugars_fiber.html",
          "NutritionItemID": 1,
          "NutritionItemName": "Carbohydrate",
          "Predriscriptor": "",
          "Quantity": 45,
          "Unit": "g         "
        },
        {
          "DisplayOrder": 11,
          "Document": "carbs_sugars_fiber.html",
          "NutritionItemID": 7,
          "NutritionItemName": "Dietary fiber",
          "Predriscriptor": "",
          "Quantity": 1,
          "Unit": "g         "
        },
        {
          "DisplayOrder": 12,
          "Document": "carbs_sugars_fiber.html",
          "NutritionItemID": 5,
          "NutritionItemName": "Sugars",
          "Predriscriptor": "",
          "Quantity": 31,
          "Unit": "g         "
        },
        {
          "DisplayOrder": 13,
          "Document": null,
          "NutritionItemID": 6,
          "NutritionItemName": "Protein",
          "Predriscriptor": "",
          "Quantity": 5,
          "Unit": "g         "
        },
        {
          "DisplayOrder": 14,
          "Document": null,
          "NutritionItemID": 10,
          "NutritionItemName": "Vitamin A",
          "Predriscriptor": "",
          "Quantity": 10,
          "Unit": "%DV       "
        },
        {
          "DisplayOrder": 15,
          "Document": null,
          "NutritionItemID": 11,
          "NutritionItemName": "Vitamin C",
          "Predriscriptor": "",
          "Quantity": 0,
          "Unit": "%DV       "
        },
        {
          "DisplayOrder": 16,
          "Document": "dairy_and_calcium.html",
          "NutritionItemID": 12,
          "NutritionItemName": "Calcium",
          "Predriscriptor": "",
          "Quantity": 8,
          "Unit": "%DV       "
        },
        {
          "DisplayOrder": 17,
          "Document": null,
          "NutritionItemID": 13,
          "NutritionItemName": "Iron",
          "Predriscriptor": "",
          "Quantity": 8,
          "Unit": "%DV       "
        }
      ],
      "NutritionServingText": null,
      "PrepStepImage": null,
      "PreparationDescription": "Mix cookie crumbs and margarine; press firmly onto bottom and up side of 9-inch pie plate.  Set aside.$Beat cream cheese and sugar with electric mixer on high speed until well blended.  Spread onto bottom of crust; set aside.$Pour milk into medium bowl.  Add dry pudding mix.  Beat with wire whisk 2 minutes or until well blended.  Spread over cream cheese layer.  Refrigerate 2 hours or until firm.  Spread chocolate topping evenly over pie just before serving.  Top with whipped topping.  Store leftover pie in refrigerator.  ",
      "PreparationPreText": null,
      "PreparationSteps": [
        {
          "Description": "Mix cookie crumbs and margarine; press firmly onto bottom and up side of 9-inch pie plate.  Set aside.",
          "PreparationStepImage": {
            "PictureFormats": [],
            "author": null,
            "id": null,
            "imageType": null,
            "mimeType": null,
            "publicationDate": null,
            "status": null,
            "title": null,
            "type": null
          },
          "Sequence": 1
        },
        {
          "Description": "Beat cream cheese and sugar with electric mixer on high speed until well blended.  Spread onto bottom of crust; set aside.",
          "PreparationStepImage": {
            "PictureFormats": [],
            "author": null,
            "id": null,
            "imageType": null,
            "mimeType": null,
            "publicationDate": null,
            "status": null,
            "title": null,
            "type": null
          },
          "Sequence": 2
        },
        {
          "Description": "Pour milk into medium bowl.  Add dry pudding mix.  Beat with wire whisk 2 minutes or until well blended.  Spread over cream cheese layer.  Refrigerate 2 hours or until firm.  Spread chocolate topping evenly over pie just before serving.  Top with whipped topping.  Store leftover pie in refrigerator.  ",
          "PreparationStepImage": {
            "PictureFormats": [],
            "author": null,
            "id": null,
            "imageType": null,
            "mimeType": null,
            "publicationDate": null,
            "status": null,
            "title": null,
            "type": null
          },
          "Sequence": 3
        }
      ],
      "PreparationTime": 30,
      "Promotion": null,
      "Ratings": {
        "TotalCount": 12,
        "PageCount": 10,
        "PageNo": 1,
        "Rating": [
          {
            "Comment": "",
            "DisplayName": true,
            "RatingValue": 4,
            "SubmitDate": "/Date(1273472819000-0500)/",
            "UpdatedDate": "/Date(1273472901000-0500)/",
            "UserName": "lopdahl"
          },
          {
            "Comment": "",
            "DisplayName": false,
            "RatingValue": 5,
            "SubmitDate": "/Date(1238613272000-0500)/",
            "UpdatedDate": "/Date(1238613272000-0500)/",
            "UserName": "hellokitty27100"
          },
          {
            "Comment": "I used a the pre-made oreo pie crust, chocolate fudge pudding, and skipped the chocolate sauce. Turned out great, my family loved it!",
            "DisplayName": false,
            "RatingValue": 5,
            "SubmitDate": "/Date(1212463308000-0500)/",
            "UpdatedDate": "/Date(1212463308000-0500)/",
            "UserName": "missielenz"
          },
          {
            "Comment": "This was good, rich, and very chocolatey, but it came out looking nothing like the picture. It was too soft to be sliced like a pie. Everyone liked it okay, but I don't think anyone will be requesting it again.",
            "DisplayName": true,
            "RatingValue": 3,
            "SubmitDate": "/Date(1182740995000-0500)/",
            "UpdatedDate": "/Date(1182740995000-0500)/",
            "UserName": "luckytiff415"
          },
          {
            "Comment": "This is great with banana cream pudding also.",
            "DisplayName": true,
            "RatingValue": 4,
            "SubmitDate": "/Date(1164315432000-0600)/",
            "UpdatedDate": "/Date(1164315432000-0600)/",
            "UserName": "adithor"
          },
          {
            "Comment": "I made this for our bunco group.  EVERYONE loved it!",
            "DisplayName": true,
            "RatingValue": 5,
            "SubmitDate": "/Date(1116857325000-0500)/",
            "UpdatedDate": "/Date(1116857325000-0500)/",
            "UserName": "lulu52287"
          },
          {
            "Comment": "This recipe was very easy, and very sinful.  I made for holidays and everyone loved it!  Recommend for any special or not-so-special occasion",
            "DisplayName": true,
            "RatingValue": 5,
            "SubmitDate": "/Date(1070230503000-0600)/",
            "UpdatedDate": "/Date(1110668901000-0600)/",
            "UserName": "mommyof2cutekidz"
          },
          {
            "Comment": "Can't believe how easy and delicious this pie is!! Made it for Father's Day and it was a big hit. Am making again for Labor Day and I'm sure it will go super fast again. So easy to make, refrigerate, then enjoy!! A definite recommend to everyone!",
            "DisplayName": false,
            "RatingValue": 5,
            "SubmitDate": "/Date(1062081163000-0500)/",
            "UpdatedDate": "/Date(1062081163000-0500)/",
            "UserName": "MOMMYTOHARLEY"
          },
          {
            "Comment": "Great everybody love it...",
            "DisplayName": false,
            "RatingValue": 5,
            "SubmitDate": "/Date(1043208231000-0600)/",
            "UpdatedDate": "/Date(1043208231000-0600)/",
            "UserName": "giovanna nicoletti"
          },
          {
            "Comment": "This was fabulous. So easy to make and so delicious. My family just loved this recipe. I will definetly make it again and again and again.",
            "DisplayName": false,
            "RatingValue": 5,
            "SubmitDate": "/Date(1041981951000-0600)/",
            "UpdatedDate": "/Date(1041981951000-0600)/",
            "UserName": "satsmom"
          }
        ]
      },
      "RecipeDisplayFormatId": 5,
      "RecipeId": 53854,
      "RecipeName": "OREO® Ribbon Pie",
      "RecipeType": 0,
      "RelatedData": {
        "RelatedBrands": null,
        "RelatedProducts": null,
        "RelatedRecipes": {
          "DefaultTopCount": 5,
          "Recipe": [
            {
              "AverageRating": 4,
              "HasVideo": false,
              "IsHealthyLiving": false,
              "NumberOfRatings": 4,
              "PhotoName": "Peach_Melba_Ribbon_Pie.jpg",
              "PhotoUrl": "http://assets.kraftfoods.com/recipe_images/opendeploy/Peach_Melba_Ribbon_Pie.jpg",
              "RecipeId": 54731,
              "RecipeName": "Peach Melba Ribbon Pie",
              "SEOName": "peach-melba-ribbon-pie-54731",
              "ThumbnailPhoto": null
            },
            {
              "AverageRating": 4.6,
              "HasVideo": false,
              "IsHealthyLiving": false,
              "NumberOfRatings": 71,
              "PhotoName": "51231.jpg",
              "PhotoUrl": "http://assets.kraftfoods.com/recipe_images/opendeploy/51231.jpg",
              "RecipeId": 51231,
              "RecipeName": "Chocolate Ribbon Pie",
              "SEOName": "chocolate-ribbon-pie-51231",
              "ThumbnailPhoto": null
            },
            {
              "AverageRating": 4.7,
              "HasVideo": false,
              "IsHealthyLiving": false,
              "NumberOfRatings": 30,
              "PhotoName": "98313.jpg",
              "PhotoUrl": "http://assets.kraftfoods.com/recipe_images/opendeploy/98313.jpg",
              "RecipeId": 98313,
              "RecipeName": "Ribbon Bar Cheesecake",
              "SEOName": "ribbon-bar-cheesecake-98313",
              "ThumbnailPhoto": null
            },
            {
              "AverageRating": 5,
              "HasVideo": false,
              "IsHealthyLiving": false,
              "NumberOfRatings": 2,
              "PhotoName": "Ribbon-Cake-62816.jpg",
              "PhotoUrl": "http://assets.kraftfoods.com/recipe_images/opendeploy/Ribbon-Cake-62816.jpg",
              "RecipeId": 143453,
              "RecipeName": "Layered Ribbon Cake",
              "SEOName": "layered-ribbon-cake-143453",
              "ThumbnailPhoto": null
            },
            {
              "AverageRating": 5,
              "HasVideo": false,
              "IsHealthyLiving": false,
              "NumberOfRatings": 3,
              "PhotoName": "112630.jpg",
              "PhotoUrl": "http://assets.kraftfoods.com/recipe_images/opendeploy/112630.jpg",
              "RecipeId": 112630,
              "RecipeName": "A Colorful Bunch of Balloons",
              "SEOName": "a-colorful-bunch-of-balloons-112630",
              "ThumbnailPhoto": null
            }
          ],
          "TotalCount": 1450
        }
      },
      "RiseIngredients": [],
      "RiseTaxonomy": [],
      "Riserecipe": [],
      "RomanceText": "A chocolate sandwich cookie crust is filled with layers of sweetened cream cheese and chocolate pudding for a delectable no-bake pie.",
      "SEOName": "oreo-ribbon-pie-53854",
      "Tips": [
        {
          "RecipeId": 53854,
          "Sequence": 10,
          "TipDescription": "Looking for a special treat?  One serving of this pie goes a long way on chocolate flavor.",
          "TipID": 3,
          "TipName": "Size Wise"
        },
        {
          "RecipeId": 53854,
          "Sequence": 20,
          "TipDescription": "Prepare as directed, using OREO Cookies ‘N Crème Flavor Instant Pudding.",
          "TipID": 2,
          "TipName": "Substitute"
        }
      ],
      "TotalTime": 150,
      "TradeMarkInfo": null,
      "Video": [],
      "Yield": "Makes 10 servings."
    }
  ]
}