{
  "Metadata": {
    "PageCount": 1,
    "PageNo": 0,
    "TotalCount": 0
  },
  "Recipes": [
    {
      "AdServingKeywords": "Broccoli,Cream Cheese,Olive,Onion,Peppers,Tomato,Vegetables,Appetizer,Pizza,All Seasons,Kraft Mayo,Philadelphia",
      "AlternateLanguageRecipes": [],
      "Assets": [],
      "AverageRating": 0,
      "BrandId": 1,
      "Branding": null,
      "CSSSkins": null,
      "CarbCounter": null,
      "Categories": [
        {
          "CategoryID": 6,
          "CategoryName": "Appetizers/Snacks",
          "CategoryRank": 1,
          "SubCategoryID": 24,
          "SubCategoryName": "Other Cold Appetizers",
          "SubCategoryRank": 80
        },
        {
          "CategoryID": 11,
          "CategoryName": "Primary",
          "CategoryRank": 0,
          "SubCategoryID": 96,
          "SubCategoryName": "Appetizers & Snacks",
          "SubCategoryRank": 10
        },
        {
          "CategoryID": 748,
          "CategoryName": "Finger Food, Dips & Appetisers",
          "CategoryRank": 2,
          "SubCategoryID": 2524,
          "SubCategoryName": "Cold",
          "SubCategoryRank": 1
        }
      ],
      "Classifications": [],
      "ComplimentaryRecipes": null,
      "CookingMethod": null,
      "Copyright": null,
      "Courses": [
        "Appetizers"
      ],
      "DietExchange": null,
      "DishDetails": [
        {
          "Text": "appetizers",
          "Url": "/recipes/appetizers/main.aspx"
        },
        {
          "Text": "cold appetizers",
          "Url": "/recipes/appetizers/coldappetizers.aspx"
        },
        {
          "Text": "cheese plates",
          "Url": "/recipes/appetizers/entertainingcheeseplates.aspx"
        },
        {
          "Text": "hot appetizers",
          "Url": "/recipes/appetizers/hotappetizers.aspx"
        },
        {
          "Text": "quick appetizers",
          "Url": "/recipes/appetizers/quick.aspx"
        },
        {
          "Text": "salsa recipes",
          "Url": "/recipes/appetizers/salsa-recipes/main.aspx"
        },
        {
          "Text": "seafood appetizers",
          "Url": "/recipes/dinner/seafood/appetizers/main.aspx"
        },
        {
          "Text": "dip recipes",
          "Url": "/recipes/appetizers/dip-recipes/main.aspx"
        }
      ],
      "EndDate": "/Date(-62135575200000-0600)/",
      "HasVideo": false,
      "Ingredients": [
        {
          "FullMeasure": "2 cans",
          "FullWeight": "",
          "IngredientGridHeaders": null,
          "IngredientID": 1798,
          "IngredientName": "refrigerated crescent dinner rolls",
          "IngredientStep": 10,
          "LanguageId": 0,
          "PostPreparation": "",
          "PrePreparation": "(8 oz. each)",
          "QuantityNum": 2,
          "QuantityText": "2",
          "QuantityUnit": "cans",
          "RecipeIngredientID": 3844451,
          "TrialMeasure": "",
          "TrialWeight": ""
        },
        {
          "FullMeasure": "1 pkg.",
          "FullWeight": "",
          "IngredientGridHeaders": null,
          "IngredientID": 628,
          "IngredientName": "PHILADELPHIA Cream Cheese",
          "IngredientStep": 20,
          "LanguageId": 0,
          "PostPreparation": ", softened",
          "PrePreparation": "(8 oz.)",
          "QuantityNum": 1,
          "QuantityText": "1",
          "QuantityUnit": "pkg.",
          "RecipeIngredientID": 3844453,
          "TrialMeasure": "",
          "TrialWeight": ""
        },
        {
          "FullMeasure": "1/2 cup",
          "FullWeight": "",
          "IngredientGridHeaders": null,
          "IngredientID": 20463,
          "IngredientName": "KRAFT Mayo Garlic & Herb Naturally Flavored Reduced Fat Mayonnaise",
          "IngredientStep": 30,
          "LanguageId": 0,
          "PostPreparation": "",
          "PrePreparation": "",
          "QuantityNum": 0,
          "QuantityText": "1/2",
          "QuantityUnit": "cup",
          "RecipeIngredientID": 3844458,
          "TrialMeasure": "",
          "TrialWeight": ""
        },
        {
          "FullMeasure": "1 tsp.",
          "FullWeight": "",
          "IngredientGridHeaders": null,
          "IngredientID": 1036,
          "IngredientName": "dill weed",
          "IngredientStep": 40,
          "LanguageId": 0,
          "PostPreparation": "",
          "PrePreparation": "",
          "QuantityNum": 1,
          "QuantityText": "1",
          "QuantityUnit": "tsp.",
          "RecipeIngredientID": 3844455,
          "TrialMeasure": "",
          "TrialWeight": ""
        },
        {
          "FullMeasure": "1 cup",
          "FullWeight": "",
          "IngredientGridHeaders": null,
          "IngredientID": 853,
          "IngredientName": "broccoli",
          "IngredientStep": 50,
          "LanguageId": 0,
          "PostPreparation": "",
          "PrePreparation": "chopped fresh",
          "QuantityNum": 1,
          "QuantityText": "1",
          "QuantityUnit": "cup",
          "RecipeIngredientID": 3844452,
          "TrialMeasure": "",
          "TrialWeight": ""
        },
        {
          "FullMeasure": "1 cup",
          "FullWeight": "",
          "IngredientGridHeaders": null,
          "IngredientID": 1206,
          "IngredientName": "green pepper",
          "IngredientStep": 60,
          "LanguageId": 0,
          "PostPreparation": "s",
          "PrePreparation": "chopped",
          "QuantityNum": 1,
          "QuantityText": "1",
          "QuantityUnit": "cup",
          "RecipeIngredientID": 3844450,
          "TrialMeasure": "",
          "TrialWeight": ""
        },
        {
          "FullMeasure": "1 cup",
          "FullWeight": "",
          "IngredientGridHeaders": null,
          "IngredientID": 19903,
          "IngredientName": "grape tomato",
          "IngredientStep": 70,
          "LanguageId": 0,
          "PostPreparation": "es",
          "PrePreparation": "quartered",
          "QuantityNum": 1,
          "QuantityText": "1",
          "QuantityUnit": "cup",
          "RecipeIngredientID": 3844457,
          "TrialMeasure": "",
          "TrialWeight": ""
        },
        {
          "FullMeasure": "1/2 cup",
          "FullWeight": "",
          "IngredientGridHeaders": null,
          "IngredientID": 12735,
          "IngredientName": "pitted black olives",
          "IngredientStep": 80,
          "LanguageId": 0,
          "PostPreparation": "",
          "PrePreparation": "sliced",
          "QuantityNum": 0,
          "QuantityText": "1/2",
          "QuantityUnit": "cup",
          "RecipeIngredientID": 3844456,
          "TrialMeasure": "",
          "TrialWeight": ""
        },
        {
          "FullMeasure": "1/4 cup",
          "FullWeight": "",
          "IngredientGridHeaders": null,
          "IngredientID": 1370,
          "IngredientName": "onion",
          "IngredientStep": 90,
          "LanguageId": 0,
          "PostPreparation": "s",
          "PrePreparation": "chopped",
          "QuantityNum": 0,
          "QuantityText": "1/4",
          "QuantityUnit": "cup",
          "RecipeIngredientID": 3844454,
          "TrialMeasure": "",
          "TrialWeight": ""
        }
      ],
      "IsHealthyLiving": false,
      "KRLId": "503056",
      "KeyIngredients": [
        "Bread",
        "Broccoli",
        "Cream Cheese",
        "Fruit",
        "Olive",
        "Onion",
        "Peppers",
        "Tomato",
        "Vegetables"
      ],
      "Keywords": "olives,onions,peppers,PHILADELPHIA Cream Cheese,broccoli,cheese,cream cheese,crescent rolls-refrigerated,dill,green peppers,KRAFT Mayo Light,mayonnaise,tomatoes,vegetables,mayo type light dressing,bell peppers,grape tomatoes,KRAFT SANDWICH SHOP,Appetizer,All Seasons,Pizza",
      "LanguageId": 1,
      "LifeStyles": [],
      "NumberOfIngredients": 9,
      "NumberOfRatings": 0,
      "NumberOfRatingsWithComments": "0",
      "NumberOfServings": "32 servings",
      "NumberOfTrialServings": "",
      "NutritionBonus": null,
      "NutritionExchangeItemId": 0,
      "NutritionGridItems": null,
      "NutritionItems": [
        {
          "DisplayOrder": 1,
          "Document": null,
          "NutritionItemID": 3,
          "NutritionItemName": "Calories",
          "Predriscriptor": "",
          "Quantity": 100,
          "Unit": "          "
        },
        {
          "DisplayOrder": 2,
          "Document": "fat_cholesterol.html",
          "NutritionItemID": 4,
          "NutritionItemName": "Total fat",
          "Predriscriptor": "",
          "Quantity": 7,
          "Unit": "g         "
        },
        {
          "DisplayOrder": 3,
          "Document": "fat_cholesterol.html",
          "NutritionItemID": 9,
          "NutritionItemName": "Saturated fat",
          "Predriscriptor": "",
          "Quantity": 2.5,
          "Unit": "g         "
        },
        {
          "DisplayOrder": 7,
          "Document": "fat_cholesterol.html",
          "NutritionItemID": 2,
          "NutritionItemName": "Cholesterol",
          "Predriscriptor": "",
          "Quantity": 10,
          "Unit": "mg        "
        },
        {
          "DisplayOrder": 8,
          "Document": "sodium.html",
          "NutritionItemID": 8,
          "NutritionItemName": "Sodium",
          "Predriscriptor": "",
          "Quantity": 180,
          "Unit": "mg        "
        },
        {
          "DisplayOrder": 10,
          "Document": "carbs_sugars_fiber.html",
          "NutritionItemID": 1,
          "NutritionItemName": "Carbohydrate",
          "Predriscriptor": "",
          "Quantity": 7,
          "Unit": "g         "
        },
        {
          "DisplayOrder": 11,
          "Document": "carbs_sugars_fiber.html",
          "NutritionItemID": 7,
          "NutritionItemName": "Dietary fiber",
          "Predriscriptor": "",
          "Quantity": 0,
          "Unit": "g         "
        },
        {
          "DisplayOrder": 12,
          "Document": "carbs_sugars_fiber.html",
          "NutritionItemID": 5,
          "NutritionItemName": "Sugars",
          "Predriscriptor": "",
          "Quantity": 2,
          "Unit": "g         "
        },
        {
          "DisplayOrder": 13,
          "Document": null,
          "NutritionItemID": 6,
          "NutritionItemName": "Protein",
          "Predriscriptor": "",
          "Quantity": 2,
          "Unit": "g         "
        },
        {
          "DisplayOrder": 14,
          "Document": null,
          "NutritionItemID": 10,
          "NutritionItemName": "Vitamin A",
          "Predriscriptor": "",
          "Quantity": 4,
          "Unit": "%DV       "
        },
        {
          "DisplayOrder": 15,
          "Document": null,
          "NutritionItemID": 11,
          "NutritionItemName": "Vitamin C",
          "Predriscriptor": "",
          "Quantity": 6,
          "Unit": "%DV       "
        },
        {
          "DisplayOrder": 16,
          "Document": "dairy_and_calcium.html",
          "NutritionItemID": 12,
          "NutritionItemName": "Calcium",
          "Predriscriptor": "",
          "Quantity": 0,
          "Unit": "%DV       "
        },
        {
          "DisplayOrder": 17,
          "Document": null,
          "NutritionItemID": 13,
          "NutritionItemName": "Iron",
          "Predriscriptor": "",
          "Quantity": 2,
          "Unit": "%DV       "
        }
      ],
      "NutritionServingText": " ",
      "PrepStepImage": null,
      "PreparationDescription": "Unroll each can of dough into 2 rectangles. Press onto bottom and up sides of 15x10x1-inch pan, firmly pressing seams and perforations together to seal.  \r\n  \r\n$Bake 11 to 12 min. or until golden brown; cool.$Mix cream cheese, mayo and dill until blended; spread onto crust. Top with remaining ingredients. Refrigerate 2 hours.  \r\n",
      "PreparationPreText": "Heat oven to 375°F.",
      "PreparationSteps": [
        {
          "Description": "Unroll each can of dough into 2 rectangles. Press onto bottom and up sides of 15x10x1-inch pan, firmly pressing seams and perforations together to seal.  \r\n  \r\n",
          "PreparationStepImage": {
            "PictureFormats": [],
            "author": null,
            "id": null,
            "imageType": null,
            "mimeType": null,
            "publicationDate": null,
            "status": null,
            "title": null,
            "type": null
          },
          "Sequence": 1
        },
        {
          "Description": "Bake 11 to 12 min. or until golden brown; cool.",
          "PreparationStepImage": {
            "PictureFormats": [],
            "author": null,
            "id": null,
            "imageType": null,
            "mimeType": null,
            "publicationDate": null,
            "status": null,
            "title": null,
            "type": null
          },
          "Sequence": 2
        },
        {
          "Description": "Mix cream cheese, mayo and dill until blended; spread onto crust. Top with remaining ingredients. Refrigerate 2 hours.  \r\n",
          "PreparationStepImage": {
            "PictureFormats": [],
            "author": null,
            "id": null,
            "imageType": null,
            "mimeType": null,
            "publicationDate": null,
            "status": null,
            "title": null,
            "type": null
          },
          "Sequence": 3
        }
      ],
      "PreparationTime": 20,
      "Promotion": null,
      "Ratings": {
        "TotalCount": 0,
        "PageCount": 10,
        "PageNo": 1,
        "Rating": []
      },
      "RecipeDisplayFormatId": 5,
      "RecipeId": 156919,
      "RecipeName": "Farmers' Market Pizza Appetizers",
      "RecipeType": 0,
      "RelatedData": {
        "RelatedBrands": null,
        "RelatedProducts": null,
        "RelatedRecipes": {
          "DefaultTopCount": 5,
          "Recipe": [
            {
              "AverageRating": 4.5,
              "HasVideo": false,
              "IsHealthyLiving": true,
              "NumberOfRatings": 12,
              "PhotoName": "Farmers-Market-Spaghetti-61883.jpg",
              "PhotoUrl": "http://assets.kraftfoods.com/recipe_images/opendeploy/Farmers-Market-Spaghetti-61883.jpg",
              "RecipeId": 130438,
              "RecipeName": "Farmers' Market Spaghetti Recipe",
              "SEOName": "farmers-market-spaghetti-recipe-130438",
              "ThumbnailPhoto": null
            },
            {
              "AverageRating": 4.7,
              "HasVideo": false,
              "IsHealthyLiving": true,
              "NumberOfRatings": 26,
              "PhotoName": "126231.jpg",
              "PhotoUrl": "http://assets.kraftfoods.com/recipe_images/opendeploy/126231.jpg",
              "RecipeId": 126231,
              "RecipeName": "Farmers Market Corn Toss",
              "SEOName": "farmers-market-corn-toss-126231",
              "ThumbnailPhoto": null
            },
            {
              "AverageRating": 4.4,
              "HasVideo": false,
              "IsHealthyLiving": true,
              "NumberOfRatings": 38,
              "PhotoName": "135654.jpg",
              "PhotoUrl": "http://assets.kraftfoods.com/recipe_images/opendeploy/135654.jpg",
              "RecipeId": 135654,
              "RecipeName": "Farmers' Market Chicken Skillet",
              "SEOName": "farmers-market-chicken-skillet-135654",
              "ThumbnailPhoto": null
            },
            {
              "AverageRating": 4.4,
              "HasVideo": true,
              "IsHealthyLiving": true,
              "NumberOfRatings": 170,
              "PhotoName": "110588.jpg",
              "PhotoUrl": "http://assets.kraftfoods.com/recipe_images/opendeploy/110588.jpg",
              "RecipeId": 110588,
              "RecipeName": "Farmers' Market Squash Sauté",
              "SEOName": "farmers-market-squash-saute-110588",
              "ThumbnailPhoto": null
            },
            {
              "AverageRating": 4.7,
              "HasVideo": false,
              "IsHealthyLiving": true,
              "NumberOfRatings": 3,
              "PhotoName": "Farmers_Market_Chicken_Salad.jpg",
              "PhotoUrl": "http://assets.kraftfoods.com/recipe_images/opendeploy/Farmers_Market_Chicken_Salad.jpg",
              "RecipeId": 94424,
              "RecipeName": "Farmers' Market Chicken Salad",
              "SEOName": "farmers-market-chicken-salad-94424",
              "ThumbnailPhoto": null
            }
          ],
          "TotalCount": 1369
        }
      },
      "RiseIngredients": [],
      "RiseTaxonomy": [],
      "Riserecipe": [
        {
          "GRIN": 503056,
          "RecipeId": 156919,
          "RecipeIndustrySector": "Retail",
          "RecipeType": "Internal"
        }
      ],
      "RomanceText": "Topped with a creamy blend of farmers' market veggies, these pizza appetizers will please the vegetarians in the crowd—and the non-vegetarians, too!",
      "SEOName": "farmers-market-pizza-appetizers-156919",
      "Tips": [
        {
          "RecipeId": 156919,
          "Sequence": 10,
          "TipDescription": "Can't decide what to eat at a social occasion? Try previewing your choices and decide which you’d like to try instead of taking some of each.",
          "TipID": 2,
          "TipName": "Size-Wise"
        },
        {
          "RecipeId": 156919,
          "Sequence": 20,
          "TipDescription": "Substitute chopped cucumbers, shredded carrot and/or red bell peppers for any of the chopped vegetables.",
          "TipID": 1,
          "TipName": "Substitute"
        }
      ],
      "TotalTime": 155,
      "TradeMarkInfo": null,
      "Video": [],
      "Yield": "32 servings"
    }
  ]
}