{
  "Metadata": {
    "PageCount": 1,
    "PageNo": 0,
    "TotalCount": 0
  },
  "Recipes": [
    {
      "AdServingKeywords": "Cheese,Colby,Fruit,Lettuce,Mango,Meat,Monterey Jack,Poultry,Tomato,Turkey,Vegetables,Southwest,All Seasons,Kraft Cheese,Kraft Deli Fresh,Miracle Whip,Oscar Mayer,Taco Bell®,Spicy",
      "AlternateLanguageRecipes": [],
      "Assets": [
        {
          "PictureFormats": [
            {
              "rendition": "290x194",
              "url": "http://assets.kraftfoods.com/recipe_images/opendeploy/92094_290x194.jpg"
            },
            {
              "rendition": "640x428",
              "url": "http://assets.kraftfoods.com/recipe_images/opendeploy/92094_640x428.jpg"
            },
            {
              "rendition": "600x250",
              "url": "http://assets.kraftfoods.com/recipe_images/opendeploy/92094_600x250.jpg"
            }
          ],
          "author": "BulKUpload",
          "id": "2",
          "imageType": "Primary",
          "mimeType": "image/jpeg",
          "publicationDate": null,
          "status": "1",
          "title": "92094",
          "type": "image"
        },
        {
          "PictureFormats": [
            {
              "rendition": "140x90",
              "url": "http://assets.kraftfoods.com/recipe_images/opendeploy/92094_MXM_K47763V0_OR1_FO_140x90.jpg"
            },
            {
              "rendition": "300x250",
              "url": "http://assets.kraftfoods.com/recipe_images/opendeploy/92094_MXM_K47763V0_OR1_FO_300x250.jpg"
            },
            {
              "rendition": "960x300",
              "url": "http://assets.kraftfoods.com/recipe_images/opendeploy/92094_MXM_K47763V0_OR1_FO_960x300.jpg"
            }
          ],
          "author": null,
          "id": "2",
          "imageType": "Primary",
          "mimeType": "image/jpeg",
          "publicationDate": null,
          "status": "1",
          "title": "92094_MXM_K47763V0_OR1_FO",
          "type": "image"
        },
        {
          "PictureFormats": [
            {
              "rendition": "300x200",
              "url": "http://assets.kraftfoods.com/recipe_images/92094.jpg"
            }
          ],
          "author": "BulKUpload",
          "id": "0",
          "imageType": "LANDSCAPE",
          "mimeType": "image/jpeg",
          "publicationDate": null,
          "status": "1",
          "title": "92094.jpg",
          "type": "image"
        }
      ],
      "AverageRating": 3.3,
      "BrandId": 1,
      "Branding": null,
      "CSSSkins": null,
      "CarbCounter": null,
      "Categories": [],
      "Classifications": [],
      "ComplimentaryRecipes": null,
      "CookingMethod": null,
      "Copyright": null,
      "Courses": [],
      "DietExchange": null,
      "DishDetails": [],
      "EndDate": "/Date(-62135575200000-0600)/",
      "HasVideo": false,
      "Ingredients": [
        {
          "FullMeasure": "2 Tbsp.",
          "FullWeight": "",
          "IngredientGridHeaders": null,
          "IngredientID": 1826,
          "IngredientName": "TACO BELL® Thick & Chunky Salsa",
          "IngredientStep": 10,
          "LanguageId": 0,
          "PostPreparation": "",
          "PrePreparation": "",
          "QuantityNum": 2,
          "QuantityText": "2",
          "QuantityUnit": "Tbsp.",
          "RecipeIngredientID": 1941624,
          "TrialMeasure": "",
          "TrialWeight": ""
        },
        {
          "FullMeasure": "1 Tbsp.",
          "FullWeight": "",
          "IngredientGridHeaders": null,
          "IngredientID": 555,
          "IngredientName": "MIRACLE WHIP Dressing",
          "IngredientStep": 20,
          "LanguageId": 0,
          "PostPreparation": "",
          "PrePreparation": "",
          "QuantityNum": 1,
          "QuantityText": "1",
          "QuantityUnit": "Tbsp.",
          "RecipeIngredientID": 1941627,
          "TrialMeasure": "",
          "TrialWeight": ""
        },
        {
          "FullMeasure": "6 slices",
          "FullWeight": "",
          "IngredientGridHeaders": null,
          "IngredientID": 9214,
          "IngredientName": "OSCAR MAYER Deli Fresh Oven Roasted Turkey Breast",
          "IngredientStep": 30,
          "LanguageId": 0,
          "PostPreparation": "",
          "PrePreparation": "",
          "QuantityNum": 6,
          "QuantityText": "6",
          "QuantityUnit": "slices",
          "RecipeIngredientID": 1941630,
          "TrialMeasure": "",
          "TrialWeight": ""
        },
        {
          "FullMeasure": "3",
          "FullWeight": "",
          "IngredientGridHeaders": null,
          "IngredientID": 1850,
          "IngredientName": "lettuce leaves",
          "IngredientStep": 40,
          "LanguageId": 0,
          "PostPreparation": "",
          "PrePreparation": "",
          "QuantityNum": 3,
          "QuantityText": "3",
          "QuantityUnit": "",
          "RecipeIngredientID": 1941625,
          "TrialMeasure": "",
          "TrialWeight": ""
        },
        {
          "FullMeasure": "1",
          "FullWeight": "",
          "IngredientGridHeaders": null,
          "IngredientID": 1702,
          "IngredientName": "tomato",
          "IngredientStep": 50,
          "LanguageId": 0,
          "PostPreparation": ", sliced",
          "PrePreparation": "small",
          "QuantityNum": 1,
          "QuantityText": "1",
          "QuantityUnit": "",
          "RecipeIngredientID": 1941628,
          "TrialMeasure": "",
          "TrialWeight": ""
        },
        {
          "FullMeasure": "1",
          "FullWeight": "",
          "IngredientGridHeaders": null,
          "IngredientID": 8946,
          "IngredientName": "KRAFT Big Slice Colby Jack Cheese Slice",
          "IngredientStep": 60,
          "LanguageId": 0,
          "PostPreparation": "",
          "PrePreparation": "",
          "QuantityNum": 1,
          "QuantityText": "1",
          "QuantityUnit": "",
          "RecipeIngredientID": 1941629,
          "TrialMeasure": "",
          "TrialWeight": ""
        },
        {
          "FullMeasure": "5 slices",
          "FullWeight": "",
          "IngredientGridHeaders": null,
          "IngredientID": 2109,
          "IngredientName": "mango",
          "IngredientStep": 70,
          "LanguageId": 0,
          "PostPreparation": "",
          "PrePreparation": "",
          "QuantityNum": 5,
          "QuantityText": "5",
          "QuantityUnit": "slices",
          "RecipeIngredientID": 1941623,
          "TrialMeasure": "",
          "TrialWeight": ""
        },
        {
          "FullMeasure": "1",
          "FullWeight": "",
          "IngredientGridHeaders": null,
          "IngredientID": 1082,
          "IngredientName": "flour tortilla",
          "IngredientStep": 80,
          "LanguageId": 0,
          "PostPreparation": " (6 inch)",
          "PrePreparation": "",
          "QuantityNum": 1,
          "QuantityText": "1",
          "QuantityUnit": "",
          "RecipeIngredientID": 1941626,
          "TrialMeasure": "",
          "TrialWeight": ""
        }
      ],
      "IsHealthyLiving": false,
      "KRLId": "553121",
      "KeyIngredients": [
        "Cheese",
        "Fruit",
        "Lettuce",
        "Mango",
        "Meat",
        "Poultry",
        "Tomato",
        "Turkey",
        "Vegetables"
      ],
      "Keywords": "OSCAR MAYER,OSCAR MAYER Turkey,cheese,colby cheese,lettuce,mangoes,meat,MIRACLE WHIP Dressing,salsa,tomatoes,tortillas,turkey,turkey breast,TACO BELL Salsa,mayo type dressing,cheese slices,TACO BELL,TACO BELL Tortillas,turkey lunch meat,KRAFT Deli Fresh Cheese,KRAFT Cheese,BIG SLICE,Deli Fresh,Southwest,All Seasons,Spicy",
      "LanguageId": 1,
      "LifeStyles": [],
      "NumberOfIngredients": 8,
      "NumberOfRatings": 3,
      "NumberOfRatingsWithComments": "3",
      "NumberOfServings": "1 serving.",
      "NumberOfTrialServings": null,
      "NutritionBonus": null,
      "NutritionExchangeItemId": 0,
      "NutritionGridItems": null,
      "NutritionItems": [
        {
          "DisplayOrder": 1,
          "Document": null,
          "NutritionItemID": 3,
          "NutritionItemName": "Calories",
          "Predriscriptor": "",
          "Quantity": 380,
          "Unit": "          "
        },
        {
          "DisplayOrder": 2,
          "Document": "fat_cholesterol.html",
          "NutritionItemID": 4,
          "NutritionItemName": "Total fat",
          "Predriscriptor": "",
          "Quantity": 14,
          "Unit": "g         "
        },
        {
          "DisplayOrder": 3,
          "Document": "fat_cholesterol.html",
          "NutritionItemID": 9,
          "NutritionItemName": "Saturated fat",
          "Predriscriptor": "",
          "Quantity": 6,
          "Unit": "g         "
        },
        {
          "DisplayOrder": 7,
          "Document": "fat_cholesterol.html",
          "NutritionItemID": 2,
          "NutritionItemName": "Cholesterol",
          "Predriscriptor": "",
          "Quantity": 45,
          "Unit": "mg        "
        },
        {
          "DisplayOrder": 8,
          "Document": "sodium.html",
          "NutritionItemID": 8,
          "NutritionItemName": "Sodium",
          "Predriscriptor": "",
          "Quantity": 1290,
          "Unit": "mg        "
        },
        {
          "DisplayOrder": 10,
          "Document": "carbs_sugars_fiber.html",
          "NutritionItemID": 1,
          "NutritionItemName": "Carbohydrate",
          "Predriscriptor": "",
          "Quantity": 47,
          "Unit": "g         "
        },
        {
          "DisplayOrder": 11,
          "Document": "carbs_sugars_fiber.html",
          "NutritionItemID": 7,
          "NutritionItemName": "Dietary fiber",
          "Predriscriptor": "",
          "Quantity": 4,
          "Unit": "g         "
        },
        {
          "DisplayOrder": 12,
          "Document": "carbs_sugars_fiber.html",
          "NutritionItemID": 5,
          "NutritionItemName": "Sugars",
          "Predriscriptor": "",
          "Quantity": 21,
          "Unit": "g         "
        },
        {
          "DisplayOrder": 13,
          "Document": null,
          "NutritionItemID": 6,
          "NutritionItemName": "Protein",
          "Predriscriptor": "",
          "Quantity": 18,
          "Unit": "g         "
        },
        {
          "DisplayOrder": 14,
          "Document": null,
          "NutritionItemID": 10,
          "NutritionItemName": "Vitamin A",
          "Predriscriptor": "",
          "Quantity": 80,
          "Unit": "%DV       "
        },
        {
          "DisplayOrder": 15,
          "Document": null,
          "NutritionItemID": 11,
          "NutritionItemName": "Vitamin C",
          "Predriscriptor": "",
          "Quantity": 80,
          "Unit": "%DV       "
        },
        {
          "DisplayOrder": 16,
          "Document": "dairy_and_calcium.html",
          "NutritionItemID": 12,
          "NutritionItemName": "Calcium",
          "Predriscriptor": "",
          "Quantity": 20,
          "Unit": "%DV       "
        },
        {
          "DisplayOrder": 17,
          "Document": null,
          "NutritionItemID": 13,
          "NutritionItemName": "Iron",
          "Predriscriptor": "",
          "Quantity": 10,
          "Unit": "%DV       "
        }
      ],
      "NutritionServingText": null,
      "PrepStepImage": null,
      "PreparationDescription": "Mix salsa and dressing in small bowl.$Arrange turkey, lettuce, tomatoes, cheese, mango and tortilla on plate.  $Drizzle with salsa mixture or use as a dipping sauce.",
      "PreparationPreText": "",
      "PreparationSteps": [
        {
          "Description": "Mix salsa and dressing in small bowl.",
          "PreparationStepImage": {
            "PictureFormats": [],
            "author": null,
            "id": null,
            "imageType": null,
            "mimeType": null,
            "publicationDate": null,
            "status": null,
            "title": null,
            "type": null
          },
          "Sequence": 1
        },
        {
          "Description": "Arrange turkey, lettuce, tomatoes, cheese, mango and tortilla on plate.  ",
          "PreparationStepImage": {
            "PictureFormats": [],
            "author": null,
            "id": null,
            "imageType": null,
            "mimeType": null,
            "publicationDate": null,
            "status": null,
            "title": null,
            "type": null
          },
          "Sequence": 2
        },
        {
          "Description": "Drizzle with salsa mixture or use as a dipping sauce.",
          "PreparationStepImage": {
            "PictureFormats": [],
            "author": null,
            "id": null,
            "imageType": null,
            "mimeType": null,
            "publicationDate": null,
            "status": null,
            "title": null,
            "type": null
          },
          "Sequence": 3
        }
      ],
      "PreparationTime": 5,
      "Promotion": null,
      "Ratings": {
        "TotalCount": 3,
        "PageCount": 10,
        "PageNo": 1,
        "Rating": [
          {
            "Comment": "A great tasty idea for a light lunch. Even if you shouldn't need a recipe for this, it's great to go through Food & Family and find ideas like this in case you get in a rut.",
            "DisplayName": true,
            "RatingValue": 5,
            "SubmitDate": "/Date(1153321152000-0500)/",
            "UpdatedDate": "/Date(1153321152000-0500)/",
            "UserName": "suzmuffin"
          },
          {
            "Comment": "GRAET IDEA FOR A FAST  HEALTHY LUNCH",
            "DisplayName": true,
            "RatingValue": 4,
            "SubmitDate": "/Date(1152134571000-0500)/",
            "UpdatedDate": "/Date(1152135015000-0500)/",
            "UserName": "yeya011"
          },
          {
            "Comment": "sorry kraft but who needs a recipe for this?",
            "DisplayName": false,
            "RatingValue": 1,
            "SubmitDate": "/Date(1151092105000-0500)/",
            "UpdatedDate": "/Date(1151092105000-0500)/",
            "UserName": "ashbash78"
          }
        ]
      },
      "RecipeDisplayFormatId": 5,
      "RecipeId": 92094,
      "RecipeName": "Southwest Turkey Cold Plate",
      "RecipeType": 0,
      "RelatedData": {
        "RelatedBrands": null,
        "RelatedProducts": null,
        "RelatedRecipes": {
          "DefaultTopCount": 5,
          "Recipe": [
            {
              "AverageRating": 4,
              "HasVideo": false,
              "IsHealthyLiving": false,
              "NumberOfRatings": 2,
              "PhotoName": "Open-Faced_Southwest_Turkey_Sandwich.jpg",
              "PhotoUrl": "http://assets.kraftfoods.com/recipe_images/opendeploy/Open-Faced_Southwest_Turkey_Sandwich.jpg",
              "RecipeId": 62728,
              "RecipeName": "Open-Face Southwest Turkey Sandwich",
              "SEOName": "open-face-southwest-turkey-sandwich-62728",
              "ThumbnailPhoto": null
            },
            {
              "AverageRating": 5,
              "HasVideo": false,
              "IsHealthyLiving": false,
              "NumberOfRatings": 1,
              "PhotoName": "118203.jpg",
              "PhotoUrl": "http://assets.kraftfoods.com/recipe_images/opendeploy/118203.jpg",
              "RecipeId": 118203,
              "RecipeName": "Santa Fe Turkey Sandwich",
              "SEOName": "santa-fe-turkey-sandwich-118203",
              "ThumbnailPhoto": null
            },
            {
              "AverageRating": 4.2,
              "HasVideo": false,
              "IsHealthyLiving": false,
              "NumberOfRatings": 16,
              "PhotoName": "Southwestern_Club_Wrap.jpg",
              "PhotoUrl": "http://assets.kraftfoods.com/recipe_images/opendeploy/Southwestern_Club_Wrap.jpg",
              "RecipeId": 56071,
              "RecipeName": "Southwestern Club Wrap",
              "SEOName": "southwestern-club-wrap-56071",
              "ThumbnailPhoto": null
            },
            {
              "AverageRating": 4,
              "HasVideo": false,
              "IsHealthyLiving": false,
              "NumberOfRatings": 4,
              "PhotoName": "Quick-N-Easy-Deli-Plate-55346US.jpg",
              "PhotoUrl": "http://assets.kraftfoods.com/recipe_images/opendeploy/Quick-N-Easy-Deli-Plate-55346US.jpg",
              "RecipeId": 111675,
              "RecipeName": "Quick 'N Easy Deli Plate",
              "SEOName": "quick-n-easy-deli-plate-111675",
              "ThumbnailPhoto": null
            },
            {
              "AverageRating": 5,
              "HasVideo": false,
              "IsHealthyLiving": true,
              "NumberOfRatings": 1,
              "PhotoName": "122854.jpg",
              "PhotoUrl": "http://assets.kraftfoods.com/recipe_images/opendeploy/122854.jpg",
              "RecipeId": 122854,
              "RecipeName": "Easy Southwest Turkey Chowder",
              "SEOName": "easy-southwest-turkey-chowder-122854",
              "ThumbnailPhoto": null
            }
          ],
          "TotalCount": 1980
        }
      },
      "RiseIngredients": [],
      "RiseTaxonomy": [],
      "Riserecipe": [
        {
          "GRIN": 553121,
          "RecipeId": 92094,
          "RecipeIndustrySector": "Retail",
          "RecipeType": "Internal"
        }
      ],
      "RomanceText": "This delicious sampling of tangy, Tex Mex is a satisfying lunch you won’t believe you pulled together in a matter of minutes!",
      "SEOName": "southwest-turkey-cold-plate-92094",
      "Tips": [
        {
          "RecipeId": 92094,
          "Sequence": 10,
          "TipDescription": "Substitute 1/4 cup baby spinach and 1/4 red pepper, sliced for lettuce and tomato.",
          "TipID": 2,
          "TipName": "Substitute"
        }
      ],
      "TotalTime": 5,
      "TradeMarkInfo": "TACO BELL® and Logo are trademarks owned and licensed by Taco Bell Corp.",
      "Video": [],
      "Yield": "Makes 1 serving."
    }
  ]
}