{
  "Metadata": {
    "PageCount": 1,
    "PageNo": 0,
    "TotalCount": 0
  },
  "Recipes": [
    {
      "AdServingKeywords": "Cream Cheese,Fruit,Jalapeno,Mango,Peppers,Vegetables,All Seasons,Kraft Salad Dressing,Philadelphia",
      "AlternateLanguageRecipes": [
        {
          "LanguageId": "2",
          "RecipeId": "183877",
          "SiteId": "1"
        },
        {
          "LanguageId": "2",
          "RecipeId": "183877",
          "SiteId": "90"
        }
      ],
      "Assets": [
        {
          "PictureFormats": [
            {
              "rendition": "640x428",
              "url": "http://assets.kraftfoods.com/recipe_images/opendeploy/183876_640x428.jpg"
            }
          ],
          "author": null,
          "id": "0",
          "imageType": "Primary",
          "mimeType": "image/jpeg",
          "publicationDate": null,
          "status": "1",
          "title": "183876",
          "type": "image"
        }
      ],
      "AverageRating": 0,
      "BrandId": 1,
      "Branding": null,
      "CSSSkins": null,
      "CarbCounter": null,
      "Categories": [],
      "Classifications": [],
      "ComplimentaryRecipes": null,
      "CookingMethod": null,
      "Copyright": null,
      "Courses": [],
      "DietExchange": null,
      "DishDetails": [],
      "EndDate": "/Date(-62135575200000-0600)/",
      "HasVideo": false,
      "Ingredients": [
        {
          "FullMeasure": "1 can",
          "FullWeight": "",
          "IngredientGridHeaders": null,
          "IngredientID": 2109,
          "IngredientName": "mango",
          "IngredientStep": 10,
          "LanguageId": 0,
          "PostPreparation": " (15 oz.) in light syrup, not drained",
          "PrePreparation": "of diced",
          "QuantityNum": 1,
          "QuantityText": "1",
          "QuantityUnit": "can",
          "RecipeIngredientID": 5217614,
          "TrialMeasure": "",
          "TrialWeight": ""
        },
        {
          "FullMeasure": "2 small",
          "FullWeight": "",
          "IngredientGridHeaders": null,
          "IngredientID": 3590,
          "IngredientName": "jalapeño pepper",
          "IngredientStep": 20,
          "LanguageId": 0,
          "PostPreparation": "s, seeded and cut into rings",
          "PrePreparation": "",
          "QuantityNum": 2,
          "QuantityText": "2",
          "QuantityUnit": "small",
          "RecipeIngredientID": 5217612,
          "TrialMeasure": "",
          "TrialWeight": ""
        },
        {
          "FullMeasure": "1",
          "FullWeight": "",
          "IngredientGridHeaders": null,
          "IngredientID": 1523,
          "IngredientName": "red pepper",
          "IngredientStep": 30,
          "LanguageId": 0,
          "PostPreparation": "",
          "PrePreparation": "",
          "QuantityNum": 1,
          "QuantityText": "1",
          "QuantityUnit": "",
          "RecipeIngredientID": 5217610,
          "TrialMeasure": "",
          "TrialWeight": ""
        },
        {
          "FullMeasure": "2 tablespoons",
          "FullWeight": "",
          "IngredientGridHeaders": null,
          "IngredientID": 25051,
          "IngredientName": "KRAFT Mango Chipotle Vinaigrette Dressing",
          "IngredientStep": 40,
          "LanguageId": 0,
          "PostPreparation": "",
          "PrePreparation": "of",
          "QuantityNum": 2,
          "QuantityText": "2",
          "QuantityUnit": "tablespoons",
          "RecipeIngredientID": 5217613,
          "TrialMeasure": "",
          "TrialWeight": ""
        },
        {
          "FullMeasure": "1 pkg.",
          "FullWeight": "",
          "IngredientGridHeaders": null,
          "IngredientID": 628,
          "IngredientName": "PHILADELPHIA Cream Cheese",
          "IngredientStep": 50,
          "LanguageId": 0,
          "PostPreparation": "",
          "PrePreparation": "(8 oz.)",
          "QuantityNum": 1,
          "QuantityText": "1",
          "QuantityUnit": "pkg.",
          "RecipeIngredientID": 5217611,
          "TrialMeasure": "",
          "TrialWeight": ""
        }
      ],
      "IsHealthyLiving": false,
      "KRLId": "576296",
      "KeyIngredients": [
        "Cream Cheese",
        "Fruit",
        "Jalapeno",
        "Mango",
        "Peppers",
        "Vegetables"
      ],
      "Keywords": "peppers,PHILADELPHIA Cream Cheese,red peppers,cheese,cream cheese,dressing,hot peppers,jalapeno peppers,mangoes,salad dressing,vinaigrette dressing,chile peppers,bell peppers,mango chipotle vinaigrette,All Seasons",
      "LanguageId": 1,
      "LifeStyles": [],
      "NumberOfIngredients": 5,
      "NumberOfRatings": 0,
      "NumberOfRatingsWithComments": "0",
      "NumberOfServings": "12 servings",
      "NumberOfTrialServings": null,
      "NutritionBonus": null,
      "NutritionExchangeItemId": 0,
      "NutritionGridItems": null,
      "NutritionItems": [],
      "NutritionServingText": null,
      "PrepStepImage": null,
      "PreparationDescription": "Combine mango and peppers in a large non-stick skillet. Bring to a boil over medium-high heat. Reduce heat to medium and gently boil 7 to 10 minutes or until most of liquid is evaporated and turn into a heavy syrup; remove from heat. Let it cold down and mix carefully with the dressing. $Place cream cheese on serving plate; top with mango mixture. Serve with assorted crackers. ",
      "PreparationPreText": "",
      "PreparationSteps": [
        {
          "Description": "Combine mango and peppers in a large non-stick skillet. Bring to a boil over medium-high heat. Reduce heat to medium and gently boil 7 to 10 minutes or until most of liquid is evaporated and turn into a heavy syrup; remove from heat. Let it cold down and mix carefully with the dressing. ",
          "PreparationStepImage": {
            "PictureFormats": [],
            "author": null,
            "id": null,
            "imageType": null,
            "mimeType": null,
            "publicationDate": null,
            "status": null,
            "title": null,
            "type": null
          },
          "Sequence": 1
        },
        {
          "Description": "Place cream cheese on serving plate; top with mango mixture. Serve with assorted crackers. ",
          "PreparationStepImage": {
            "PictureFormats": [],
            "author": null,
            "id": null,
            "imageType": null,
            "mimeType": null,
            "publicationDate": null,
            "status": null,
            "title": null,
            "type": null
          },
          "Sequence": 2
        }
      ],
      "PreparationTime": 5,
      "Promotion": null,
      "Ratings": {
        "TotalCount": 0,
        "PageCount": 10,
        "PageNo": 1,
        "Rating": []
      },
      "RecipeDisplayFormatId": 5,
      "RecipeId": 183876,
      "RecipeName": "Delicious Cream Cheese with Mango and Jalapeño Salsa",
      "RecipeType": 0,
      "RelatedData": {
        "RelatedBrands": null,
        "RelatedProducts": null,
        "RelatedRecipes": {
          "DefaultTopCount": 5,
          "Recipe": [
            {
              "AverageRating": 4.5,
              "HasVideo": false,
              "IsHealthyLiving": false,
              "NumberOfRatings": 25,
              "PhotoName": "128185.jpg",
              "PhotoUrl": "http://assets.kraftfoods.com/recipe_images/opendeploy/128185.jpg",
              "RecipeId": 128185,
              "RecipeName": "Make-Ahead Creamy Jalapeño-Stuffed Chicken",
              "SEOName": "make-ahead-creamy-jalapeno-stuffed-chicken-128185",
              "ThumbnailPhoto": null
            },
            {
              "AverageRating": 5,
              "HasVideo": false,
              "IsHealthyLiving": false,
              "NumberOfRatings": 1,
              "PhotoName": "Grilled_Tomato_Salsa_Appetizers.jpg",
              "PhotoUrl": "http://assets.kraftfoods.com/recipe_images/opendeploy/Grilled_Tomato_Salsa_Appetizers.jpg",
              "RecipeId": 75259,
              "RecipeName": "Grilled Tomato Salsa Appetizers",
              "SEOName": "grilled-tomato-salsa-appetizers-75259",
              "ThumbnailPhoto": null
            },
            {
              "AverageRating": 4.4,
              "HasVideo": false,
              "IsHealthyLiving": false,
              "NumberOfRatings": 38,
              "PhotoName": "Mexican_Pizza_Dip.jpg",
              "PhotoUrl": "http://assets.kraftfoods.com/recipe_images/opendeploy/Mexican_Pizza_Dip.jpg",
              "RecipeId": 60921,
              "RecipeName": "Mexican Pizza Dip",
              "SEOName": "mexican-pizza-dip-60921",
              "ThumbnailPhoto": null
            },
            {
              "AverageRating": 4.4,
              "HasVideo": false,
              "IsHealthyLiving": false,
              "NumberOfRatings": 7,
              "PhotoName": "Seven-Point_Spread.jpg",
              "PhotoUrl": "http://assets.kraftfoods.com/recipe_images/opendeploy/Seven-Point_Spread.jpg",
              "RecipeId": 106881,
              "RecipeName": "Seven-Point Spread",
              "SEOName": "seven-point-spread-106881",
              "ThumbnailPhoto": null
            },
            {
              "AverageRating": 4.3,
              "HasVideo": false,
              "IsHealthyLiving": false,
              "NumberOfRatings": 4,
              "PhotoName": "Salsa-Chicken-Wrap-Pineapple-Pico-Gallo-57913.jpg",
              "PhotoUrl": "http://assets.kraftfoods.com/recipe_images/opendeploy/Salsa-Chicken-Wrap-Pineapple-Pico-Gallo-57913.jpg",
              "RecipeId": 115940,
              "RecipeName": "Salsa Chicken Wrap with Pineapple Pico de Gallo",
              "SEOName": "salsa-chicken-wrap-pineapple-pico-de-gallo-115940",
              "ThumbnailPhoto": null
            }
          ],
          "TotalCount": 4906
        }
      },
      "RiseIngredients": [],
      "RiseTaxonomy": [],
      "Riserecipe": [
        {
          "GRIN": 576296,
          "RecipeId": 183876,
          "RecipeIndustrySector": "Retail",
          "RecipeType": "Internal"
        }
      ],
      "RomanceText": "Want something quick and delicious for the appetizer table? Gussy up a bar of cream cheese with a sweet-spicy mango-jalapeño salsa.",
      "SEOName": "delicious-cream-cheese-mango-jalapeno-salsa-183876",
      "Tips": [],
      "TotalTime": 20,
      "TradeMarkInfo": null,
      "Video": [],
      "Yield": "12 servings"
    }
  ]
}