{
  "Metadata": {
    "PageCount": 1,
    "PageNo": 0,
    "TotalCount": 0
  },
  "Recipes": [
    {
      "AdServingKeywords": "Chocolate,Dairy,Dessert,Easy,All Seasons,Thanksgiving,Refrigerated Dessert,Bakers,Cool Whip,Jell-O,Creamy",
      "AlternateLanguageRecipes": [],
      "Assets": [
        {
          "PictureFormats": [
            {
              "rendition": "290x194",
              "url": "http://assets.kraftfoods.com/recipe_images/opendeploy/109732_290x194.jpg"
            },
            {
              "rendition": "640x428",
              "url": "http://assets.kraftfoods.com/recipe_images/opendeploy/109732_640x428.jpg"
            },
            {
              "rendition": "600x250",
              "url": "http://assets.kraftfoods.com/recipe_images/opendeploy/109732_600x250.jpg"
            }
          ],
          "author": "BulKUpload",
          "id": "2",
          "imageType": "Primary",
          "mimeType": "image/jpeg",
          "publicationDate": null,
          "status": "1",
          "title": "109732",
          "type": "image"
        },
        {
          "PictureFormats": [
            {
              "rendition": "140x90",
              "url": "http://assets.kraftfoods.com/recipe_images/opendeploy/51693_SGS_K350V0_OR1_FO_140x90.jpg"
            },
            {
              "rendition": "300x250",
              "url": "http://assets.kraftfoods.com/recipe_images/opendeploy/51693_SGS_K350V0_OR1_FO_300x250.jpg"
            },
            {
              "rendition": "960x300",
              "url": "http://assets.kraftfoods.com/recipe_images/opendeploy/51693_SGS_K350V0_OR1_FO_960x300.jpg"
            }
          ],
          "author": null,
          "id": "2",
          "imageType": "Primary",
          "mimeType": "image/jpeg",
          "publicationDate": null,
          "status": "1",
          "title": "51693_SGS_K350V0_OR1_FO",
          "type": "image"
        },
        {
          "PictureFormats": [
            {
              "rendition": "300x200",
              "url": "http://assets.kraftfoods.com/recipe_images/109732.jpg"
            }
          ],
          "author": "BulKUpload",
          "id": "0",
          "imageType": "LANDSCAPE",
          "mimeType": "image/jpeg",
          "publicationDate": null,
          "status": "1",
          "title": "109732.jpg",
          "type": "image"
        }
      ],
      "AverageRating": 4.5,
      "BrandId": 1,
      "Branding": null,
      "CSSSkins": null,
      "CarbCounter": null,
      "Categories": [
        {
          "CategoryID": 3,
          "CategoryName": "Cookies/Candy/Other Desserts",
          "CategoryRank": 6,
          "SubCategoryID": 368,
          "SubCategoryName": "Other Refrigerated Desserts",
          "SubCategoryRank": 150
        },
        {
          "CategoryID": 11,
          "CategoryName": "Primary",
          "CategoryRank": 0,
          "SubCategoryID": 103,
          "SubCategoryName": "Desserts",
          "SubCategoryRank": 40
        },
        {
          "CategoryID": 759,
          "CategoryName": "Desserts",
          "CategoryRank": 13,
          "SubCategoryID": 2577,
          "SubCategoryName": "Cold / Gelatine",
          "SubCategoryRank": 1
        },
        {
          "CategoryID": 760,
          "CategoryName": "Cheesecakes",
          "CategoryRank": 14,
          "SubCategoryID": 2583,
          "SubCategoryName": "Chilled",
          "SubCategoryRank": 1
        }
      ],
      "Classifications": [],
      "ComplimentaryRecipes": [
        {
          "AverageRating": 0,
          "HasVideo": false,
          "IsHealthyLiving": false,
          "NumberOfRatings": 0,
          "PhotoName": null,
          "PhotoUrl": null,
          "RecipeId": 53120,
          "RecipeName": null,
          "SEOName": "smothered-pork-chops-53120",
          "ThumbnailPhoto": "opendeploy/509220_1_1_retail-6fc4af3a693ecc3655411b4778d3c87d3e6cb48a_306x204.jpg"
        }
      ],
      "CookingMethod": null,
      "Copyright": null,
      "Courses": [
        "Desserts"
      ],
      "DietExchange": null,
      "DishDetails": [
        {
          "Text": "desserts",
          "Url": "/recipes/dessert/main.aspx"
        },
        {
          "Text": "fruity desserts",
          "Url": "/recipes/dessert/fruitydesserts.aspx"
        },
        {
          "Text": "gelatin desserts",
          "Url": "/recipes/dessert/gelatindesserts.aspx"
        },
        {
          "Text": "layered desserts",
          "Url": "/recipes/dessert/layereddesserts.aspx"
        },
        {
          "Text": "brownie recipes",
          "Url": "/recipes/dessert/brownie-recipes/main.aspx"
        },
        {
          "Text": "budget desserts",
          "Url": "/recipes/budget/budget-desserts.aspx"
        },
        {
          "Text": "no bake desserts",
          "Url": "/recipes/dessert/nobakedesserts.aspx"
        },
        {
          "Text": "pumpkin recipes",
          "Url": "/recipes/dessert/pumpkin-recipes.aspx"
        },
        {
          "Text": "chocolate cake recipes",
          "Url": "/recipes/dessert/chocolate-cake-recipes/main.aspx"
        },
        {
          "Text": "cheesecake recipes",
          "Url": "/recipes/dessert/cheesecake-center/cheesecake-recipes/main.aspx"
        },
        {
          "Text": "chocolate lovers recipes",
          "Url": "/recipes/dessert/chocolate-center/chocolateloversrecipes.aspx"
        },
        {
          "Text": "classic desserts",
          "Url": "/recipes/dessert/classicdesserts.aspx"
        },
        {
          "Text": "cookie ball recipes",
          "Url": "/recipes/dessert/cookie-ball-recipes/main.aspx"
        },
        {
          "Text": "cookie recipes",
          "Url": "/recipes/dessert/cookie-recipes/main.aspx"
        },
        {
          "Text": "cupcake recipes",
          "Url": "/recipes/dessert/cupcake-recipes/main.aspx"
        },
        {
          "Text": "healthy living desserts",
          "Url": "/healthy-living-ideas/diabetes-center/recipes/dessert-recipes.aspx"
        }
      ],
      "EndDate": "/Date(-62135575200000-0600)/",
      "HasVideo": false,
      "Ingredients": [
        {
          "FullMeasure": "1 pkg.",
          "FullWeight": "",
          "IngredientGridHeaders": null,
          "IngredientID": 285,
          "IngredientName": "JELL-O Vanilla Flavor Instant Pudding",
          "IngredientStep": 10,
          "LanguageId": 0,
          "PostPreparation": "",
          "PrePreparation": "(3.4 oz.)",
          "QuantityNum": 1,
          "QuantityText": "1",
          "QuantityUnit": "pkg.",
          "RecipeIngredientID": 6488640,
          "TrialMeasure": "",
          "TrialWeight": ""
        },
        {
          "FullMeasure": "1-3/4 cups",
          "FullWeight": "",
          "IngredientGridHeaders": null,
          "IngredientID": 1345,
          "IngredientName": "milk",
          "IngredientStep": 20,
          "LanguageId": 0,
          "PostPreparation": "",
          "PrePreparation": "cold",
          "QuantityNum": 1,
          "QuantityText": "1-3/4",
          "QuantityUnit": "cups",
          "RecipeIngredientID": 6488638,
          "TrialMeasure": "",
          "TrialWeight": ""
        },
        {
          "FullMeasure": "1/4 cup",
          "FullWeight": "",
          "IngredientGridHeaders": null,
          "IngredientID": 23281,
          "IngredientName": "creamy peanut butter",
          "IngredientStep": 30,
          "LanguageId": 0,
          "PostPreparation": "",
          "PrePreparation": "",
          "QuantityNum": 0,
          "QuantityText": "1/4",
          "QuantityUnit": "cup",
          "RecipeIngredientID": 6488635,
          "TrialMeasure": "",
          "TrialWeight": ""
        },
        {
          "FullMeasure": "1 tub",
          "FullWeight": "",
          "IngredientGridHeaders": null,
          "IngredientID": 140,
          "IngredientName": "COOL WHIP Whipped Topping",
          "IngredientStep": 40,
          "LanguageId": 0,
          "PostPreparation": ", thawed",
          "PrePreparation": "(8 oz.)",
          "QuantityNum": 1,
          "QuantityText": "1",
          "QuantityUnit": "tub",
          "RecipeIngredientID": 6488639,
          "TrialMeasure": "",
          "TrialWeight": ""
        },
        {
          "FullMeasure": "24",
          "FullWeight": "",
          "IngredientGridHeaders": null,
          "IngredientID": 5471,
          "IngredientName": "graham crackers",
          "IngredientStep": 50,
          "LanguageId": 0,
          "PostPreparation": "",
          "PrePreparation": "",
          "QuantityNum": 24,
          "QuantityText": "24",
          "QuantityUnit": "",
          "RecipeIngredientID": 6488637,
          "TrialMeasure": "",
          "TrialWeight": ""
        },
        {
          "FullMeasure": "1-1/2 pkg.",
          "FullWeight": "",
          "IngredientGridHeaders": null,
          "IngredientID": 66,
          "IngredientName": "BAKER'S Semi-Sweet Chocolate",
          "IngredientStep": 60,
          "LanguageId": 0,
          "PostPreparation": " (6 oz.), broken into pieces",
          "PrePreparation": "(4 oz. each)",
          "QuantityNum": 1,
          "QuantityText": "1-1/2",
          "QuantityUnit": "pkg.",
          "RecipeIngredientID": 6488641,
          "TrialMeasure": "",
          "TrialWeight": ""
        },
        {
          "FullMeasure": "3 Tbsp.",
          "FullWeight": "",
          "IngredientGridHeaders": null,
          "IngredientID": 863,
          "IngredientName": "butter",
          "IngredientStep": 70,
          "LanguageId": 0,
          "PostPreparation": "",
          "PrePreparation": "",
          "QuantityNum": 3,
          "QuantityText": "3",
          "QuantityUnit": "Tbsp.",
          "RecipeIngredientID": 6488636,
          "TrialMeasure": "",
          "TrialWeight": ""
        }
      ],
      "IsHealthyLiving": false,
      "KRLId": "500757",
      "KeyIngredients": [
        "Chocolate",
        "Dairy"
      ],
      "Keywords": "peanut butter,baking chocolate,chocolate,COOL WHIP,graham crackers,JELL-O Pudding Mix,milk,vanilla pudding mix,whipped topping,pudding mix-instant,BAKER'S Semi-Sweet Chocolate,butter,semi-sweet chocolate,chocolate-semi-sweet,Dessert,Easy,All Seasons,Thanksgiving,Refrigerated Dessert,Creamy",
      "LanguageId": 1,
      "LifeStyles": [],
      "NumberOfIngredients": 7,
      "NumberOfRatings": 146,
      "NumberOfRatingsWithComments": "127",
      "NumberOfServings": "24 servings",
      "NumberOfTrialServings": "",
      "NutritionBonus": null,
      "NutritionExchangeItemId": 0,
      "NutritionGridItems": null,
      "NutritionItems": [
        {
          "DisplayOrder": 1,
          "Document": null,
          "NutritionItemID": 3,
          "NutritionItemName": "Calories",
          "Predriscriptor": "",
          "Quantity": 180,
          "Unit": "          "
        },
        {
          "DisplayOrder": 2,
          "Document": "fat_cholesterol.html",
          "NutritionItemID": 4,
          "NutritionItemName": "Total fat",
          "Predriscriptor": "",
          "Quantity": 9,
          "Unit": "g         "
        },
        {
          "DisplayOrder": 3,
          "Document": "fat_cholesterol.html",
          "NutritionItemID": 9,
          "NutritionItemName": "Saturated fat",
          "Predriscriptor": "",
          "Quantity": 4.5,
          "Unit": "g         "
        },
        {
          "DisplayOrder": 7,
          "Document": "fat_cholesterol.html",
          "NutritionItemID": 2,
          "NutritionItemName": "Cholesterol",
          "Predriscriptor": "",
          "Quantity": 5,
          "Unit": "mg        "
        },
        {
          "DisplayOrder": 8,
          "Document": "sodium.html",
          "NutritionItemID": 8,
          "NutritionItemName": "Sodium",
          "Predriscriptor": "",
          "Quantity": 170,
          "Unit": "mg        "
        },
        {
          "DisplayOrder": 10,
          "Document": "carbs_sugars_fiber.html",
          "NutritionItemID": 1,
          "NutritionItemName": "Carbohydrate",
          "Predriscriptor": "",
          "Quantity": 24,
          "Unit": "g         "
        },
        {
          "DisplayOrder": 11,
          "Document": "carbs_sugars_fiber.html",
          "NutritionItemID": 7,
          "NutritionItemName": "Dietary fiber",
          "Predriscriptor": "",
          "Quantity": 1,
          "Unit": "g         "
        },
        {
          "DisplayOrder": 12,
          "Document": "carbs_sugars_fiber.html",
          "NutritionItemID": 5,
          "NutritionItemName": "Sugars",
          "Predriscriptor": "",
          "Quantity": 13,
          "Unit": "g         "
        },
        {
          "DisplayOrder": 13,
          "Document": null,
          "NutritionItemID": 6,
          "NutritionItemName": "Protein",
          "Predriscriptor": "",
          "Quantity": 3,
          "Unit": "g         "
        },
        {
          "DisplayOrder": 14,
          "Document": null,
          "NutritionItemID": 10,
          "NutritionItemName": "Vitamin A",
          "Predriscriptor": "",
          "Quantity": 0,
          "Unit": "%DV       "
        },
        {
          "DisplayOrder": 15,
          "Document": null,
          "NutritionItemID": 11,
          "NutritionItemName": "Vitamin C",
          "Predriscriptor": "",
          "Quantity": 0,
          "Unit": "%DV       "
        },
        {
          "DisplayOrder": 16,
          "Document": "dairy_and_calcium.html",
          "NutritionItemID": 12,
          "NutritionItemName": "Calcium",
          "Predriscriptor": "",
          "Quantity": 4,
          "Unit": "%DV       "
        },
        {
          "DisplayOrder": 17,
          "Document": null,
          "NutritionItemID": 13,
          "NutritionItemName": "Iron",
          "Predriscriptor": "",
          "Quantity": 4,
          "Unit": "%DV       "
        }
      ],
      "NutritionServingText": " ",
      "PrepStepImage": null,
      "PreparationDescription": "Beat pudding mix and milk in large bowl with whisk 2 min.  Add peanut butter; mix well.  Stir in COOL WHIP.  Layer 1/3 of the grahams and half of the pudding mixture in 13x9-inch dish, breaking grahams as necessary to fit.  Repeat layers.  Top with remaining grahams.$Microwave chocolate and butter in microwaveable bowl on HIGH 2 min. or until butter is melted, stirring after 1 min.  Stir until chocolate is completely melted and mixture is well blended.   Spread over grahams.$Refrigerate 8 hours. ",
      "PreparationPreText": "",
      "PreparationSteps": [
        {
          "Description": "Beat pudding mix and milk in large bowl with whisk 2 min.  Add peanut butter; mix well.  Stir in COOL WHIP.  Layer 1/3 of the grahams and half of the pudding mixture in 13x9-inch dish, breaking grahams as necessary to fit.  Repeat layers.  Top with remaining grahams.",
          "PreparationStepImage": {
            "PictureFormats": [],
            "author": null,
            "id": null,
            "imageType": null,
            "mimeType": null,
            "publicationDate": null,
            "status": null,
            "title": null,
            "type": null
          },
          "Sequence": 1
        },
        {
          "Description": "Microwave chocolate and butter in microwaveable bowl on HIGH 2 min. or until butter is melted, stirring after 1 min.  Stir until chocolate is completely melted and mixture is well blended.   Spread over grahams.",
          "PreparationStepImage": {
            "PictureFormats": [],
            "author": null,
            "id": null,
            "imageType": null,
            "mimeType": null,
            "publicationDate": null,
            "status": null,
            "title": null,
            "type": null
          },
          "Sequence": 2
        },
        {
          "Description": "Refrigerate 8 hours. ",
          "PreparationStepImage": {
            "PictureFormats": [],
            "author": null,
            "id": null,
            "imageType": null,
            "mimeType": null,
            "publicationDate": null,
            "status": null,
            "title": null,
            "type": null
          },
          "Sequence": 3
        }
      ],
      "PreparationTime": 30,
      "Promotion": null,
      "Ratings": {
        "TotalCount": 146,
        "PageCount": 10,
        "PageNo": 1,
        "Rating": [
          {
            "Comment": "I do not recommend using butter for the chocolate. It got so thick and chunky that I couldn't spread it on to the crumbs.",
            "DisplayName": true,
            "RatingValue": 1,
            "SubmitDate": "/Date(1425412393000-0600)/",
            "UpdatedDate": "/Date(1425412393000-0600)/",
            "UserName": "Mirinka"
          },
          {
            "Comment": "",
            "DisplayName": true,
            "RatingValue": 5,
            "SubmitDate": "/Date(1419563985000-0600)/",
            "UpdatedDate": "/Date(1419563985000-0600)/",
            "UserName": "lkt5050"
          },
          {
            "Comment": "This is even better the second day! I made it for our new neighborsand a new moms!  Everyone loved it.  I used canned frosting for the top.  I melted it in the microwave first. ",
            "DisplayName": true,
            "RatingValue": 5,
            "SubmitDate": "/Date(1372365474000-0500)/",
            "UpdatedDate": "/Date(1372365474000-0500)/",
            "UserName": "sokollzeta"
          },
          {
            "Comment": "The chocolate topping was awful.  Way too thick and chalky.  I would suggest buying or making your chocolate icing.  Otherwise this was very good!!",
            "DisplayName": true,
            "RatingValue": 4,
            "SubmitDate": "/Date(1371584616000-0500)/",
            "UpdatedDate": "/Date(1371584616000-0500)/",
            "UserName": "katiejim1"
          },
          {
            "Comment": "Sugar free pudding and Cool Whip make this a dessert my diabetic husband can enjoy.",
            "DisplayName": false,
            "RatingValue": 5,
            "SubmitDate": "/Date(1355344472000-0600)/",
            "UpdatedDate": "/Date(1355344472000-0600)/",
            "UserName": "Karen1231233"
          },
          {
            "Comment": "Good lord, I love this dessert. It is easy, and delicious. I have made it many times, and it is always a big hit. Great for potlucks too since it is easy to transport in a foil pan, and leave the pan :)",
            "DisplayName": true,
            "RatingValue": 5,
            "SubmitDate": "/Date(1315736785000-0500)/",
            "UpdatedDate": "/Date(1355275962000-0600)/",
            "UserName": "hansena2206"
          },
          {
            "Comment": "love this recipe I rate it a-10 at tops. ",
            "DisplayName": false,
            "RatingValue": 5,
            "SubmitDate": "/Date(1351167889000-0500)/",
            "UpdatedDate": "/Date(1351167889000-0500)/",
            "UserName": "vkspencer01"
          },
          {
            "Comment": "Love this!  Equally good (but different) with the pb omitted.  Make sure to refrigerate for at least 8 hours so that the graham crackers can soften.  They're supposed to be soft!  I always top mine with a can of chocolate frosting.  Either stir a couple of tablespoons of milk into it, or warm in the microwave to make it easier to top the dessert with.  Don't skip this one!",
            "DisplayName": true,
            "RatingValue": 5,
            "SubmitDate": "/Date(1342905969000-0500)/",
            "UpdatedDate": "/Date(1342905969000-0500)/",
            "UserName": "renhoward"
          },
          {
            "Comment": "I reviewed this recipe back in 2008  - still a favorite, but it's better with the Kraft frosting recipe for \"best ever chocolate cake\", which is just chocolate squares melted in the microwave with a tub of Cool Whip.  It's delicious and doesn't harden like the chocolate and butter. Also, the graham crackers are meant to soften - it's an eclair recipe! Better after refrigerated a day.",
            "DisplayName": true,
            "RatingValue": 5,
            "SubmitDate": "/Date(1209413410000-0500)/",
            "UpdatedDate": "/Date(1341949441000-0500)/",
            "UserName": "roscoe21"
          },
          {
            "Comment": "Definitely a delicious combination.  The filling could easily be eating on its own.  The chocolate was a bit hard for my taste, so I may try to make some of the suggested adjustments the next time I make this.  Cutting is much easier when you rinse the knife in hot water between each cut.",
            "DisplayName": true,
            "RatingValue": 4,
            "SubmitDate": "/Date(1340815812000-0500)/",
            "UpdatedDate": "/Date(1340815812000-0500)/",
            "UserName": "snjones520"
          }
        ]
      },
      "RecipeDisplayFormatId": 5,
      "RecipeId": 109732,
      "RecipeName": "Easy Peanut Butter & Chocolate Éclair Dessert",
      "RecipeType": 0,
      "RelatedData": {
        "RelatedBrands": null,
        "RelatedProducts": null,
        "RelatedRecipes": {
          "DefaultTopCount": 5,
          "Recipe": [
            {
              "AverageRating": 4.5,
              "HasVideo": false,
              "IsHealthyLiving": false,
              "NumberOfRatings": 55,
              "PhotoName": "51693.jpg",
              "PhotoUrl": "http://assets.kraftfoods.com/recipe_images/opendeploy/51693.jpg",
              "RecipeId": 51693,
              "RecipeName": "Easy Chocolate Éclair Squares",
              "SEOName": "easy-chocolate-eclair-squares-51693",
              "ThumbnailPhoto": null
            },
            {
              "AverageRating": 4.7,
              "HasVideo": false,
              "IsHealthyLiving": false,
              "NumberOfRatings": 3,
              "PhotoName": "154945.jpg",
              "PhotoUrl": "http://assets.kraftfoods.com/recipe_images/opendeploy/154945.jpg",
              "RecipeId": 154945,
              "RecipeName": "Easy Peanut Butter Cookie Fudge Pie",
              "SEOName": "easy-peanut-butter-cookie-fudge-pie-154945",
              "ThumbnailPhoto": null
            },
            {
              "AverageRating": 4,
              "HasVideo": false,
              "IsHealthyLiving": false,
              "NumberOfRatings": 122,
              "PhotoName": "75578.jpg",
              "PhotoUrl": "http://assets.kraftfoods.com/recipe_images/opendeploy/75578.jpg",
              "RecipeId": 75578,
              "RecipeName": "Easy Chocolate-Dipped Peanut Butter Cookies",
              "SEOName": "easy-chocolate-dipped-peanut-butter-cookies-75578",
              "ThumbnailPhoto": null
            },
            {
              "AverageRating": 5,
              "HasVideo": false,
              "IsHealthyLiving": false,
              "NumberOfRatings": 4,
              "PhotoName": "155126.jpg",
              "PhotoUrl": "http://assets.kraftfoods.com/recipe_images/opendeploy/155126.jpg",
              "RecipeId": 155126,
              "RecipeName": "Easy Peanut Butter-Chocolate Chip Pie",
              "SEOName": "easy-peanut-butter-chocolate-chip-pie-155126",
              "ThumbnailPhoto": null
            },
            {
              "AverageRating": 4.7,
              "HasVideo": false,
              "IsHealthyLiving": false,
              "NumberOfRatings": 7,
              "PhotoName": "111040.jpg",
              "PhotoUrl": "http://assets.kraftfoods.com/recipe_images/opendeploy/111040.jpg",
              "RecipeId": 111040,
              "RecipeName": "Strawberry Éclair Dessert",
              "SEOName": "strawberry-eclair-dessert-111040",
              "ThumbnailPhoto": null
            }
          ],
          "TotalCount": 5760
        }
      },
      "RiseIngredients": [],
      "RiseTaxonomy": [],
      "Riserecipe": [
        {
          "GRIN": 500757,
          "RecipeId": 109732,
          "RecipeIndustrySector": "Retail",
          "RecipeType": "Internal"
        }
      ],
      "RomanceText": "Discover a delicious peanut butter-chocolate éclair dessert made with graham crackers. This Easy Peanut Butter-Chocolate Éclair Dessert is a unique dish.",
      "SEOName": "easy-peanut-butter-chocolate-eclair-dessert-109732",
      "Tips": [
        {
          "RecipeId": 109732,
          "Sequence": 10,
          "TipDescription": "To easily cut the dessert for serving, use a sharp knife and dip the knife blade in hot water after each cut to warm and clean the blade. ",
          "TipID": 4,
          "TipName": "How to Easily Cut Dessert into Serving Pieces"
        },
        {
          "RecipeId": 109732,
          "Sequence": 20,
          "TipDescription": "Prepare using 1 pkg. (1 oz.) JELL-O Vanilla Flavor Sugar Free Fat Free Instant Pudding, fat-free milk, reduced-fat creamy peanut butter and COOL WHIP LITE Whipped Topping.",
          "TipID": 3,
          "TipName": "Variation  "
        },
        {
          "RecipeId": 109732,
          "Sequence": 30,
          "TipDescription": "Prepare as directed, omitting the peanut butter.",
          "TipID": 2,
          "TipName": "Easy Chocolate Éclair Dessert"
        },
        {
          "RecipeId": 109732,
          "Sequence": 50,
          "TipDescription": "Use 1 pkg. (3.4 oz.) JELL-O SIMPLY GOOD Vanilla Bean Flavor Pudding.",
          "TipID": 5768,
          "TipName": "Substitute"
        },
        {
          "RecipeId": 109732,
          "Sequence": 50,
          "TipDescription": "Use 1 pkg. (3.4 oz.) JELL-O SIMPLY GOOD Vanilla Bean Flavor Pudding.",
          "TipID": 5768,
          "TipName": "Best Apples for Baking and Cooking"
        }
      ],
      "TotalTime": 510,
      "TradeMarkInfo": null,
      "Video": [],
      "Yield": "24 servings"
    }
  ]
}