{
  "Metadata": {
    "PageCount": 1,
    "PageNo": 0,
    "TotalCount": 0
  },
  "Recipes": [
    {
      "AdServingKeywords": "Slow cooker ,Easy,Alcohol,Beer,Cheddar,Cheese,Lettuce,Meat,Onion,Sausage,Vegetables,Vinegar,Worcestershire Sauce,Heinz Vinegar,Lea and Perrins,All Seasons",
      "AlternateLanguageRecipes": [],
      "Assets": [
        {
          "PictureFormats": [
            {
              "rendition": "300x200",
              "url": "http://assets.kraftfoods.com/recipe_images/56-Easy-Beer-Bratwurst.jpg"
            }
          ],
          "author": null,
          "id": "0",
          "imageType": "LANDSCAPE",
          "mimeType": null,
          "publicationDate": null,
          "status": "1",
          "title": "56-Easy-Beer-Bratwurst.jpg",
          "type": "image"
        }
      ],
      "AverageRating": 0,
      "BrandId": 1,
      "Branding": {
        "IngredientElevation": "",
        "PromoAltText": "Recipe and Photo by Reynolds®",
        "PromoImage": "",
        "PromoLink": "",
        "SponsorshipAltText": "Recipe and Photo by Reynolds®",
        "SponsorshipLink": "https://bs.serving-sys.com/serving/adServer.bs?cn=trd&mc=click&pli=24804358&PluID=0&ord=%%CACHEBUSTER%%",
        "SponsorshipLogo": "http://www.kraftrecipes.com/-/media/images/kr/imagerepository/jan17/RKLogo2017-135x40.jpg",
        "UpperRightImage": ""
      },
      "CSSSkins": [
        {
          "brand": "Reynolds-R192-2018",
          "fileName": "",
          "id": "1"
        }
      ],
      "CarbCounter": null,
      "Categories": [],
      "Classifications": [],
      "ComplimentaryRecipes": null,
      "CookingMethod": null,
      "Copyright": null,
      "Courses": [],
      "DietExchange": null,
      "DishDetails": [
        {
          "Text": "slow cooker recipes",
          "Url": "/recipes/dinner/Planning/slow-cooker.aspx"
        },
        {
          "Text": "chicken slow cooker recipes",
          "Url": "/recipes/dinner/chicken-recipes/slow-cooker/main.aspx"
        }
      ],
      "EndDate": "/Date(-62135575200000-0600)/",
      "HasVideo": false,
      "Ingredients": [
        {
          "FullMeasure": null,
          "FullWeight": null,
          "IngredientGridHeaders": null,
          "IngredientID": 29525,
          "IngredientName": "Reynolds® Slow Cooker Liner",
          "IngredientStep": 10,
          "LanguageId": 0,
          "PostPreparation": "",
          "PrePreparation": "",
          "QuantityNum": 0,
          "QuantityText": "",
          "QuantityUnit": "",
          "RecipeIngredientID": 5639678,
          "TrialMeasure": null,
          "TrialWeight": null
        },
        {
          "FullMeasure": "1",
          "FullWeight": "",
          "IngredientGridHeaders": null,
          "IngredientID": 3114,
          "IngredientName": "beer",
          "IngredientStep": 20,
          "LanguageId": 0,
          "PostPreparation": "",
          "PrePreparation": "(12 fluid ounce) bottle dark German",
          "QuantityNum": 1,
          "QuantityText": "1",
          "QuantityUnit": "",
          "RecipeIngredientID": 5639672,
          "TrialMeasure": "",
          "TrialWeight": ""
        },
        {
          "FullMeasure": "1 cup",
          "FullWeight": "",
          "IngredientGridHeaders": null,
          "IngredientID": 1370,
          "IngredientName": "onion",
          "IngredientStep": 30,
          "LanguageId": 0,
          "PostPreparation": "s",
          "PrePreparation": "thinly sliced",
          "QuantityNum": 1,
          "QuantityText": "1",
          "QuantityUnit": "cup",
          "RecipeIngredientID": 5639671,
          "TrialMeasure": "",
          "TrialWeight": ""
        },
        {
          "FullMeasure": "1",
          "FullWeight": "",
          "IngredientGridHeaders": null,
          "IngredientID": 18356,
          "IngredientName": "maple syrup",
          "IngredientStep": 40,
          "LanguageId": 0,
          "PostPreparation": "",
          "PrePreparation": "tablespoon",
          "QuantityNum": 1,
          "QuantityText": "1",
          "QuantityUnit": "",
          "RecipeIngredientID": 5639676,
          "TrialMeasure": "",
          "TrialWeight": ""
        },
        {
          "FullMeasure": "1",
          "FullWeight": "",
          "IngredientGridHeaders": null,
          "IngredientID": 1754,
          "IngredientName": "HEINZ Distilled White Vinegar",
          "IngredientStep": 50,
          "LanguageId": 0,
          "PostPreparation": "",
          "PrePreparation": "tablespoon",
          "QuantityNum": 1,
          "QuantityText": "1",
          "QuantityUnit": "",
          "RecipeIngredientID": 5639673,
          "TrialMeasure": "",
          "TrialWeight": ""
        },
        {
          "FullMeasure": "1/2",
          "FullWeight": "",
          "IngredientGridHeaders": null,
          "IngredientID": 4392,
          "IngredientName": "caraway seed",
          "IngredientStep": 60,
          "LanguageId": 0,
          "PostPreparation": "s",
          "PrePreparation": "teaspoon",
          "QuantityNum": 0,
          "QuantityText": "1/2",
          "QuantityUnit": "",
          "RecipeIngredientID": 5639668,
          "TrialMeasure": "",
          "TrialWeight": ""
        },
        {
          "FullMeasure": "1/2",
          "FullWeight": "",
          "IngredientGridHeaders": null,
          "IngredientID": 2835,
          "IngredientName": "thyme",
          "IngredientStep": 70,
          "LanguageId": 0,
          "PostPreparation": ", crushed",
          "PrePreparation": "teaspoon dried",
          "QuantityNum": 0,
          "QuantityText": "1/2",
          "QuantityUnit": "",
          "RecipeIngredientID": 5639674,
          "TrialMeasure": "",
          "TrialWeight": ""
        },
        {
          "FullMeasure": "1/2",
          "FullWeight": "",
          "IngredientGridHeaders": null,
          "IngredientID": 762,
          "IngredientName": "LEA & PERRINS Worcestershire Sauce",
          "IngredientStep": 80,
          "LanguageId": 0,
          "PostPreparation": "",
          "PrePreparation": "teaspoon",
          "QuantityNum": 0,
          "QuantityText": "1/2",
          "QuantityUnit": "",
          "RecipeIngredientID": 5639670,
          "TrialMeasure": "",
          "TrialWeight": ""
        },
        {
          "FullMeasure": "6",
          "FullWeight": "",
          "IngredientGridHeaders": null,
          "IngredientID": 12508,
          "IngredientName": "bratwurst",
          "IngredientStep": 90,
          "LanguageId": 0,
          "PostPreparation": " links",
          "PrePreparation": "uncooked",
          "QuantityNum": 6,
          "QuantityText": "6",
          "QuantityUnit": "",
          "RecipeIngredientID": 5639675,
          "TrialMeasure": "",
          "TrialWeight": ""
        },
        {
          "FullMeasure": "6",
          "FullWeight": "",
          "IngredientGridHeaders": null,
          "IngredientID": 26276,
          "IngredientName": "bun",
          "IngredientStep": 100,
          "LanguageId": 0,
          "PostPreparation": "s, split and toasted",
          "PrePreparation": "hoagie ",
          "QuantityNum": 6,
          "QuantityText": "6",
          "QuantityUnit": "",
          "RecipeIngredientID": 5639677,
          "TrialMeasure": "",
          "TrialWeight": ""
        },
        {
          "FullMeasure": "1-1/2 cups",
          "FullWeight": "",
          "IngredientGridHeaders": null,
          "IngredientID": 4480,
          "IngredientName": "shredded cheddar cheese",
          "IngredientStep": 110,
          "LanguageId": 0,
          "PostPreparation": "",
          "PrePreparation": "",
          "QuantityNum": 1,
          "QuantityText": "1-1/2",
          "QuantityUnit": "cups",
          "RecipeIngredientID": 5639669,
          "TrialMeasure": "",
          "TrialWeight": ""
        },
        {
          "FullMeasure": "1-1/2 cups",
          "FullWeight": "",
          "IngredientGridHeaders": null,
          "IngredientID": 1297,
          "IngredientName": "lettuce",
          "IngredientStep": 120,
          "LanguageId": 0,
          "PostPreparation": " (optional)",
          "PrePreparation": "shredded",
          "QuantityNum": 1,
          "QuantityText": "1-1/2",
          "QuantityUnit": "cups",
          "RecipeIngredientID": 5639667,
          "TrialMeasure": "",
          "TrialWeight": ""
        }
      ],
      "IsHealthyLiving": false,
      "KRLId": "575229",
      "KeyIngredients": [
        "Alcohol",
        "Beer",
        "Cheddar",
        "Cheese",
        "Lettuce",
        "Meat",
        "Onion",
        "Sausage",
        "Vegetables"
      ],
      "Keywords": "onions,caraway seed,cheddar cheese,cheese,lettuce,maple syrup,sausage,vinegar,worcestershire sauce,beer,thyme,buns,bratwurst,alcohol,Slow cooker ,Easy,All Seasons",
      "LanguageId": 1,
      "LifeStyles": [],
      "NumberOfIngredients": 12,
      "NumberOfRatings": 0,
      "NumberOfRatingsWithComments": "0",
      "NumberOfServings": "Original recipe makes 6 servings",
      "NumberOfTrialServings": null,
      "NutritionBonus": null,
      "NutritionExchangeItemId": 0,
      "NutritionGridItems": null,
      "NutritionItems": [],
      "NutritionServingText": null,
      "PrepStepImage": null,
      "PreparationDescription": "Line a 5- to 6-quart slow cooker with a Reynolds® Slow Cooker Liner.$Add beer, onions, maple syrup, vinegar, caraway seeds, thyme, and Worcestershire sauce to the prepared slow cooker. Stir gently with a rubber spatula to combine. Place bratwurst on top of the mixture in cooker.$Cover and cook for 4 hours on high or for 8 hours on low.\r\n$Serve bratwursts and onions in toasted buns topped with cheese and lettuce, if desired.",
      "PreparationPreText": "",
      "PreparationSteps": [
        {
          "Description": "Line a 5- to 6-quart slow cooker with a Reynolds® Slow Cooker Liner.",
          "PreparationStepImage": {
            "PictureFormats": [],
            "author": null,
            "id": null,
            "imageType": null,
            "mimeType": null,
            "publicationDate": null,
            "status": null,
            "title": null,
            "type": null
          },
          "Sequence": 1
        },
        {
          "Description": "Add beer, onions, maple syrup, vinegar, caraway seeds, thyme, and Worcestershire sauce to the prepared slow cooker. Stir gently with a rubber spatula to combine. Place bratwurst on top of the mixture in cooker.",
          "PreparationStepImage": {
            "PictureFormats": [],
            "author": null,
            "id": null,
            "imageType": null,
            "mimeType": null,
            "publicationDate": null,
            "status": null,
            "title": null,
            "type": null
          },
          "Sequence": 2
        },
        {
          "Description": "Cover and cook for 4 hours on high or for 8 hours on low.\r\n",
          "PreparationStepImage": {
            "PictureFormats": [],
            "author": null,
            "id": null,
            "imageType": null,
            "mimeType": null,
            "publicationDate": null,
            "status": null,
            "title": null,
            "type": null
          },
          "Sequence": 3
        },
        {
          "Description": "Serve bratwursts and onions in toasted buns topped with cheese and lettuce, if desired.",
          "PreparationStepImage": {
            "PictureFormats": [],
            "author": null,
            "id": null,
            "imageType": null,
            "mimeType": null,
            "publicationDate": null,
            "status": null,
            "title": null,
            "type": null
          },
          "Sequence": 4
        }
      ],
      "PreparationTime": 15,
      "Promotion": null,
      "Ratings": {
        "TotalCount": 0,
        "PageCount": 10,
        "PageNo": 1,
        "Rating": []
      },
      "RecipeDisplayFormatId": 5,
      "RecipeId": 177856,
      "RecipeName": "Easy Beer Bratwurst",
      "RecipeType": 0,
      "RelatedData": {
        "RelatedBrands": null,
        "RelatedProducts": null,
        "RelatedRecipes": {
          "DefaultTopCount": 5,
          "Recipe": [
            {
              "AverageRating": 4.3,
              "HasVideo": false,
              "IsHealthyLiving": false,
              "NumberOfRatings": 32,
              "PhotoName": "113702.jpg",
              "PhotoUrl": "http://assets.kraftfoods.com/recipe_images/opendeploy/113702.jpg",
              "RecipeId": 113702,
              "RecipeName": "Bratwurst Wraps",
              "SEOName": "bratwurst-wraps-113702",
              "ThumbnailPhoto": null
            },
            {
              "AverageRating": 5,
              "HasVideo": false,
              "IsHealthyLiving": false,
              "NumberOfRatings": 1,
              "PhotoName": "opendeploy/136563-f9abbe5d9e4fb1a108904b17d1a8c5c3cf986344_306x204.jpg",
              "PhotoUrl": "http://assets.kraftfoods.com/recipe_images/opendeploy/opendeploy/136563-f9abbe5d9e4fb1a108904b17d1a8c5c3cf986344_306x204.jpg",
              "RecipeId": 136563,
              "RecipeName": "The Single Best Grilled Bratwurst Recipe",
              "SEOName": "the-single-best-grilled-bratwurst-recipe-136563",
              "ThumbnailPhoto": null
            },
            {
              "AverageRating": 4,
              "HasVideo": false,
              "IsHealthyLiving": false,
              "NumberOfRatings": 2,
              "PhotoName": "Mixed_Sausage_Grill.jpg",
              "PhotoUrl": "http://assets.kraftfoods.com/recipe_images/opendeploy/Mixed_Sausage_Grill.jpg",
              "RecipeId": 106278,
              "RecipeName": "Mixed Grilled Sausage",
              "SEOName": "mixed-grilled-sausage-106278",
              "ThumbnailPhoto": null
            },
            {
              "AverageRating": 4.4,
              "HasVideo": false,
              "IsHealthyLiving": false,
              "NumberOfRatings": 7,
              "PhotoName": "98344.jpg",
              "PhotoUrl": "http://assets.kraftfoods.com/recipe_images/opendeploy/98344.jpg",
              "RecipeId": 98344,
              "RecipeName": "VELVEETA® Spicy Buffalo Beer Dip",
              "SEOName": "velveeta-spicy-buffalo-beer-dip-98344",
              "ThumbnailPhoto": null
            },
            {
              "AverageRating": 4.5,
              "HasVideo": false,
              "IsHealthyLiving": false,
              "NumberOfRatings": 12,
              "PhotoName": "Chili-Cheddar_Beer_Dip.jpg",
              "PhotoUrl": "http://assets.kraftfoods.com/recipe_images/opendeploy/Chili-Cheddar_Beer_Dip.jpg",
              "RecipeId": 56561,
              "RecipeName": "Chili-Cheddar Beer Dip",
              "SEOName": "chili-cheddar-beer-dip-56561",
              "ThumbnailPhoto": null
            }
          ],
          "TotalCount": 4237
        }
      },
      "RiseIngredients": [],
      "RiseTaxonomy": [],
      "Riserecipe": [
        {
          "GRIN": 575229,
          "RecipeId": 177856,
          "RecipeIndustrySector": "Retail",
          "RecipeType": "Internal"
        }
      ],
      "RomanceText": "These rich, savory brats are the perfect treat for your next backyard cookout or tailgate.",
      "SEOName": "easy-beer-bratwurst-177856",
      "Tips": [
        {
          "RecipeId": 177856,
          "Sequence": 10,
          "TipDescription": "Beer and brats are perfect for any sports party! Cook these savory beer brats in a slow cooker liner for juicy flavors everyone will cheer for. ",
          "TipID": 1,
          "TipName": "Reynolds Kitchens Tip"
        }
      ],
      "TotalTime": 255,
      "TradeMarkInfo": "Reynolds® is a registered trademark of Reynolds Consumer Products LLC",
      "Video": [],
      "Yield": "Original recipe makes 6 servings"
    }
  ]
}