{
  "Metadata": {
    "PageCount": 1,
    "PageNo": 0,
    "TotalCount": 0
  },
  "Recipes": [
    {
      "AdServingKeywords": "Aluminum Foil,Baked,Dessert,Intermediate,Chocolate,Dairy,Nuts,Oats,Bakers,Kraft Caramels,Planters,All Seasons,Potluck,Bar Cookies",
      "AlternateLanguageRecipes": [
        {
          "LanguageId": "2",
          "RecipeId": "205571",
          "SiteId": "1"
        },
        {
          "LanguageId": "2",
          "RecipeId": "205571",
          "SiteId": "90"
        }
      ],
      "Assets": [
        {
          "PictureFormats": [
            {
              "rendition": "290x194",
              "url": "http://assets.kraftfoods.com/recipe_images/opendeploy/121339_290x194.jpg"
            },
            {
              "rendition": "640x428",
              "url": "http://assets.kraftfoods.com/recipe_images/opendeploy/121339_640x428.jpg"
            },
            {
              "rendition": "600x250",
              "url": "http://assets.kraftfoods.com/recipe_images/opendeploy/121339_600x250.jpg"
            }
          ],
          "author": "BulKUpload",
          "id": "2",
          "imageType": "Primary",
          "mimeType": "image/jpeg",
          "publicationDate": null,
          "status": "1",
          "title": "121339",
          "type": "image"
        },
        {
          "PictureFormats": [
            {
              "rendition": "140x90",
              "url": "http://assets.kraftfoods.com/recipe_images/opendeploy/121339_MXM_K59254V0_OR1_CR_140x90.jpg"
            },
            {
              "rendition": "300x250",
              "url": "http://assets.kraftfoods.com/recipe_images/opendeploy/121339_MXM_K59254V0_OR1_CR_300x250.jpg"
            },
            {
              "rendition": "960x300",
              "url": "http://assets.kraftfoods.com/recipe_images/opendeploy/121339_MXM_K59254V0_OR1_CR_960x300.jpg"
            }
          ],
          "author": null,
          "id": "2",
          "imageType": "Primary",
          "mimeType": "image/jpeg",
          "publicationDate": null,
          "status": "1",
          "title": "121339_MXM_K59254V0_OR1_CR",
          "type": "image"
        },
        {
          "PictureFormats": [
            {
              "rendition": "300x200",
              "url": "http://assets.kraftfoods.com/recipe_images/121339.jpg"
            }
          ],
          "author": "BulKUpload",
          "id": "0",
          "imageType": "LANDSCAPE",
          "mimeType": "image/jpeg",
          "publicationDate": null,
          "status": "1",
          "title": "121339.jpg",
          "type": "image"
        }
      ],
      "AverageRating": 4.7,
      "BrandId": 1,
      "Branding": null,
      "CSSSkins": null,
      "CarbCounter": null,
      "Categories": [
        {
          "CategoryID": 3,
          "CategoryName": "Cookies/Candy/Other Desserts",
          "CategoryRank": 6,
          "SubCategoryID": 362,
          "SubCategoryName": "Bar Cookies",
          "SubCategoryRank": 110
        },
        {
          "CategoryID": 11,
          "CategoryName": "Primary",
          "CategoryRank": 0,
          "SubCategoryID": 103,
          "SubCategoryName": "Desserts",
          "SubCategoryRank": 40
        },
        {
          "CategoryID": 761,
          "CategoryName": "Cakes, Muffins & Sweet Treats",
          "CategoryRank": 15,
          "SubCategoryID": 2585,
          "SubCategoryName": "Sweet",
          "SubCategoryRank": 1
        },
        {
          "CategoryID": 761,
          "CategoryName": "Cakes, Muffins & Sweet Treats",
          "CategoryRank": 15,
          "SubCategoryID": 2587,
          "SubCategoryName": "Biscuits & Scones",
          "SubCategoryRank": 1
        },
        {
          "CategoryID": 761,
          "CategoryName": "Cakes, Muffins & Sweet Treats",
          "CategoryRank": 15,
          "SubCategoryID": 2588,
          "SubCategoryName": "Slices - Baked",
          "SubCategoryRank": 1
        },
        {
          "CategoryID": 761,
          "CategoryName": "Cakes, Muffins & Sweet Treats",
          "CategoryRank": 15,
          "SubCategoryID": 2589,
          "SubCategoryName": "Slices - No Bake",
          "SubCategoryRank": 1
        }
      ],
      "Classifications": [],
      "ComplimentaryRecipes": [
        {
          "AverageRating": 0,
          "HasVideo": false,
          "IsHealthyLiving": false,
          "NumberOfRatings": 0,
          "PhotoName": null,
          "PhotoUrl": null,
          "RecipeId": 114887,
          "RecipeName": null,
          "SEOName": "our-softest-sugar-cookies-114887",
          "ThumbnailPhoto": "114887.jpg"
        }
      ],
      "CookingMethod": null,
      "Copyright": null,
      "Courses": [
        "Desserts"
      ],
      "DietExchange": null,
      "DishDetails": [
        {
          "Text": "desserts",
          "Url": "/recipes/dessert/main.aspx"
        },
        {
          "Text": "fruity desserts",
          "Url": "/recipes/dessert/fruitydesserts.aspx"
        },
        {
          "Text": "gelatin desserts",
          "Url": "/recipes/dessert/gelatindesserts.aspx"
        },
        {
          "Text": "layered desserts",
          "Url": "/recipes/dessert/layereddesserts.aspx"
        },
        {
          "Text": "brownie recipes",
          "Url": "/recipes/dessert/brownie-recipes/main.aspx"
        },
        {
          "Text": "budget desserts",
          "Url": "/recipes/budget/budget-desserts.aspx"
        },
        {
          "Text": "no bake desserts",
          "Url": "/recipes/dessert/nobakedesserts.aspx"
        },
        {
          "Text": "pumpkin recipes",
          "Url": "/recipes/dessert/pumpkin-recipes.aspx"
        },
        {
          "Text": "chocolate cake recipes",
          "Url": "/recipes/dessert/chocolate-cake-recipes/main.aspx"
        },
        {
          "Text": "cheesecake recipes",
          "Url": "/recipes/dessert/cheesecake-center/cheesecake-recipes/main.aspx"
        },
        {
          "Text": "chocolate lovers recipes",
          "Url": "/recipes/dessert/chocolate-center/chocolateloversrecipes.aspx"
        },
        {
          "Text": "classic desserts",
          "Url": "/recipes/dessert/classicdesserts.aspx"
        },
        {
          "Text": "cookie ball recipes",
          "Url": "/recipes/dessert/cookie-ball-recipes/main.aspx"
        },
        {
          "Text": "cookie recipes",
          "Url": "/recipes/dessert/cookie-recipes/main.aspx"
        },
        {
          "Text": "cupcake recipes",
          "Url": "/recipes/dessert/cupcake-recipes/main.aspx"
        },
        {
          "Text": "healthy living desserts",
          "Url": "/healthy-living-ideas/diabetes-center/recipes/dessert-recipes.aspx"
        }
      ],
      "EndDate": "/Date(-62135575200000-0600)/",
      "HasVideo": false,
      "Ingredients": [
        {
          "FullMeasure": "1 pkg.",
          "FullWeight": "",
          "IngredientGridHeaders": null,
          "IngredientID": 5735,
          "IngredientName": "KRAFT Caramels",
          "IngredientStep": 10,
          "LanguageId": 0,
          "PostPreparation": "",
          "PrePreparation": "(11 oz.)",
          "QuantityNum": 1,
          "QuantityText": "1",
          "QuantityUnit": "pkg.",
          "RecipeIngredientID": 6523080,
          "TrialMeasure": "",
          "TrialWeight": ""
        },
        {
          "FullMeasure": "1/4 cup",
          "FullWeight": "",
          "IngredientGridHeaders": null,
          "IngredientID": 1345,
          "IngredientName": "milk",
          "IngredientStep": 20,
          "LanguageId": 0,
          "PostPreparation": "",
          "PrePreparation": "",
          "QuantityNum": 0,
          "QuantityText": "1/4",
          "QuantityUnit": "cup",
          "RecipeIngredientID": 6523088,
          "TrialMeasure": "",
          "TrialWeight": ""
        },
        {
          "FullMeasure": "2 cups",
          "FullWeight": "",
          "IngredientGridHeaders": null,
          "IngredientID": 1080,
          "IngredientName": "flour",
          "IngredientStep": 30,
          "LanguageId": 0,
          "PostPreparation": "",
          "PrePreparation": "",
          "QuantityNum": 2,
          "QuantityText": "2",
          "QuantityUnit": "cups",
          "RecipeIngredientID": 6523086,
          "TrialMeasure": "",
          "TrialWeight": ""
        },
        {
          "FullMeasure": "2 cups",
          "FullWeight": "",
          "IngredientGridHeaders": null,
          "IngredientID": 1367,
          "IngredientName": "old-fashioned or quick-cooking oats",
          "IngredientStep": 40,
          "LanguageId": 0,
          "PostPreparation": "",
          "PrePreparation": "",
          "QuantityNum": 2,
          "QuantityText": "2",
          "QuantityUnit": "cups",
          "RecipeIngredientID": 6523084,
          "TrialMeasure": "",
          "TrialWeight": ""
        },
        {
          "FullMeasure": "1-1/2 cups",
          "FullWeight": "",
          "IngredientGridHeaders": null,
          "IngredientID": 859,
          "IngredientName": "brown sugar",
          "IngredientStep": 50,
          "LanguageId": 0,
          "PostPreparation": "",
          "PrePreparation": "packed",
          "QuantityNum": 1,
          "QuantityText": "1-1/2",
          "QuantityUnit": "cups",
          "RecipeIngredientID": 6523085,
          "TrialMeasure": "",
          "TrialWeight": ""
        },
        {
          "FullMeasure": "1 tsp.",
          "FullWeight": "",
          "IngredientGridHeaders": null,
          "IngredientID": 808,
          "IngredientName": "baking soda",
          "IngredientStep": 60,
          "LanguageId": 0,
          "PostPreparation": "",
          "PrePreparation": "",
          "QuantityNum": 1,
          "QuantityText": "1",
          "QuantityUnit": "tsp.",
          "RecipeIngredientID": 6523083,
          "TrialMeasure": "",
          "TrialWeight": ""
        },
        {
          "FullMeasure": "1/2 tsp.",
          "FullWeight": "",
          "IngredientGridHeaders": null,
          "IngredientID": 1585,
          "IngredientName": "salt",
          "IngredientStep": 70,
          "LanguageId": 0,
          "PostPreparation": "",
          "PrePreparation": "",
          "QuantityNum": 0,
          "QuantityText": "1/2",
          "QuantityUnit": "tsp.",
          "RecipeIngredientID": 6523082,
          "TrialMeasure": "",
          "TrialWeight": ""
        },
        {
          "FullMeasure": "1  cup",
          "FullWeight": "",
          "IngredientGridHeaders": null,
          "IngredientID": 863,
          "IngredientName": "butter",
          "IngredientStep": 80,
          "LanguageId": 0,
          "PostPreparation": ", cut up",
          "PrePreparation": "cold",
          "QuantityNum": 1,
          "QuantityText": "1 ",
          "QuantityUnit": "cup",
          "RecipeIngredientID": 6523087,
          "TrialMeasure": "",
          "TrialWeight": ""
        },
        {
          "FullMeasure": "2 pkg.",
          "FullWeight": "",
          "IngredientGridHeaders": null,
          "IngredientID": 66,
          "IngredientName": "BAKER'S Semi-Sweet Chocolate",
          "IngredientStep": 90,
          "LanguageId": 0,
          "PostPreparation": ", broken into pieces, melted",
          "PrePreparation": "(4 oz. each)",
          "QuantityNum": 2,
          "QuantityText": "2",
          "QuantityUnit": "pkg.",
          "RecipeIngredientID": 6523081,
          "TrialMeasure": "",
          "TrialWeight": ""
        },
        {
          "FullMeasure": "1 cup",
          "FullWeight": "",
          "IngredientGridHeaders": null,
          "IngredientID": 1741,
          "IngredientName": "PLANTERS Walnuts",
          "IngredientStep": 100,
          "LanguageId": 0,
          "PostPreparation": "",
          "PrePreparation": "chopped",
          "QuantityNum": 1,
          "QuantityText": "1",
          "QuantityUnit": "cup",
          "RecipeIngredientID": 6523089,
          "TrialMeasure": "",
          "TrialWeight": ""
        }
      ],
      "IsHealthyLiving": false,
      "KRLId": "565340",
      "KeyIngredients": [
        "Candy",
        "Chocolate",
        "Dairy",
        "Nuts",
        "Oats"
      ],
      "Keywords": "nuts,oats,baking chocolate,baking soda,brown sugar,chocolate,milk,walnuts,BAKER'S Semi-Sweet Chocolate,butter,flour,semi-sweet chocolate,PLANTERS Walnuts,chocolate-semi-sweet,KRAFT Caramels,caramels,salt,Planters,Aluminum Foil,Baked,Dessert,Intermediate,All Seasons,Potluck,Bar Cookies",
      "LanguageId": 1,
      "LifeStyles": [],
      "NumberOfIngredients": 10,
      "NumberOfRatings": 3,
      "NumberOfRatingsWithComments": "0",
      "NumberOfServings": "36 servings",
      "NumberOfTrialServings": "",
      "NutritionBonus": null,
      "NutritionExchangeItemId": 0,
      "NutritionGridItems": null,
      "NutritionItems": [
        {
          "DisplayOrder": 1,
          "Document": null,
          "NutritionItemID": 3,
          "NutritionItemName": "Calories",
          "Predriscriptor": "",
          "Quantity": 210,
          "Unit": "          "
        },
        {
          "DisplayOrder": 2,
          "Document": "fat_cholesterol.html",
          "NutritionItemID": 4,
          "NutritionItemName": "Total fat",
          "Predriscriptor": "",
          "Quantity": 10,
          "Unit": "g         "
        },
        {
          "DisplayOrder": 3,
          "Document": "fat_cholesterol.html",
          "NutritionItemID": 9,
          "NutritionItemName": "Saturated fat",
          "Predriscriptor": "",
          "Quantity": 5,
          "Unit": "g         "
        },
        {
          "DisplayOrder": 7,
          "Document": "fat_cholesterol.html",
          "NutritionItemID": 2,
          "NutritionItemName": "Cholesterol",
          "Predriscriptor": "",
          "Quantity": 15,
          "Unit": "mg        "
        },
        {
          "DisplayOrder": 8,
          "Document": "sodium.html",
          "NutritionItemID": 8,
          "NutritionItemName": "Sodium",
          "Predriscriptor": "",
          "Quantity": 140,
          "Unit": "mg        "
        },
        {
          "DisplayOrder": 10,
          "Document": "carbs_sugars_fiber.html",
          "NutritionItemID": 1,
          "NutritionItemName": "Carbohydrate",
          "Predriscriptor": "",
          "Quantity": 28,
          "Unit": "g         "
        },
        {
          "DisplayOrder": 11,
          "Document": "carbs_sugars_fiber.html",
          "NutritionItemID": 7,
          "NutritionItemName": "Dietary fiber",
          "Predriscriptor": "",
          "Quantity": 1,
          "Unit": "g         "
        },
        {
          "DisplayOrder": 12,
          "Document": "carbs_sugars_fiber.html",
          "NutritionItemID": 5,
          "NutritionItemName": "Sugars",
          "Predriscriptor": "",
          "Quantity": 18,
          "Unit": "g         "
        },
        {
          "DisplayOrder": 13,
          "Document": null,
          "NutritionItemID": 6,
          "NutritionItemName": "Protein",
          "Predriscriptor": "",
          "Quantity": 3,
          "Unit": "g         "
        },
        {
          "DisplayOrder": 14,
          "Document": null,
          "NutritionItemID": 10,
          "NutritionItemName": "Vitamin A",
          "Predriscriptor": "",
          "Quantity": 4,
          "Unit": "%DV       "
        },
        {
          "DisplayOrder": 15,
          "Document": null,
          "NutritionItemID": 11,
          "NutritionItemName": "Vitamin C",
          "Predriscriptor": "",
          "Quantity": 0,
          "Unit": "%DV       "
        },
        {
          "DisplayOrder": 16,
          "Document": "dairy_and_calcium.html",
          "NutritionItemID": 12,
          "NutritionItemName": "Calcium",
          "Predriscriptor": "",
          "Quantity": 4,
          "Unit": "%DV       "
        },
        {
          "DisplayOrder": 17,
          "Document": null,
          "NutritionItemID": 13,
          "NutritionItemName": "Iron",
          "Predriscriptor": "",
          "Quantity": 6,
          "Unit": "%DV       "
        }
      ],
      "NutritionServingText": " ",
      "PrepStepImage": null,
      "PreparationDescription": "Line 13x9-inch pan with foil, with ends of foil extending over sides.  Cook caramels and milk in saucepan on low heat 10 to 15 min. or until sauce is smooth, stirring frequently. Remove from heat.$Mix next 5 ingredients in large bowl. Cut in butter with pastry blender or 2 knives until mixture resembles coarse crumbs; press 3 cups onto bottom of prepared pan.  Bake 10 min.  Spread chocolate over crust; top with nuts, caramel sauce and remaining crumb mixture.$Bake 25 min. or until golden brown. Cool completely.  Use foil handles to lift dessert from pan before cutting into bars.  Refrigerate 3 hours or until chilled.",
      "PreparationPreText": "Heat oven to 350ºF.",
      "PreparationSteps": [
        {
          "Description": "Line 13x9-inch pan with foil, with ends of foil extending over sides.  Cook caramels and milk in saucepan on low heat 10 to 15 min. or until sauce is smooth, stirring frequently. Remove from heat.",
          "PreparationStepImage": {
            "PictureFormats": [],
            "author": null,
            "id": null,
            "imageType": null,
            "mimeType": null,
            "publicationDate": null,
            "status": null,
            "title": null,
            "type": null
          },
          "Sequence": 1
        },
        {
          "Description": "Mix next 5 ingredients in large bowl. Cut in butter with pastry blender or 2 knives until mixture resembles coarse crumbs; press 3 cups onto bottom of prepared pan.  Bake 10 min.  Spread chocolate over crust; top with nuts, caramel sauce and remaining crumb mixture.",
          "PreparationStepImage": {
            "PictureFormats": [],
            "author": null,
            "id": null,
            "imageType": null,
            "mimeType": null,
            "publicationDate": null,
            "status": null,
            "title": null,
            "type": null
          },
          "Sequence": 2
        },
        {
          "Description": "Bake 25 min. or until golden brown. Cool completely.  Use foil handles to lift dessert from pan before cutting into bars.  Refrigerate 3 hours or until chilled.",
          "PreparationStepImage": {
            "PictureFormats": [],
            "author": null,
            "id": null,
            "imageType": null,
            "mimeType": null,
            "publicationDate": null,
            "status": null,
            "title": null,
            "type": null
          },
          "Sequence": 3
        }
      ],
      "PreparationTime": 20,
      "Promotion": null,
      "Ratings": {
        "TotalCount": 3,
        "PageCount": 10,
        "PageNo": 1,
        "Rating": [
          {
            "Comment": "",
            "DisplayName": true,
            "RatingValue": 5,
            "SubmitDate": "/Date(1394171880000-0600)/",
            "UpdatedDate": "/Date(1394171880000-0600)/",
            "UserName": "pjacal"
          },
          {
            "Comment": "",
            "DisplayName": true,
            "RatingValue": 4,
            "SubmitDate": "/Date(1342273093000-0500)/",
            "UpdatedDate": "/Date(1342273093000-0500)/",
            "UserName": "myles_40"
          },
          {
            "Comment": "",
            "DisplayName": true,
            "RatingValue": 5,
            "SubmitDate": "/Date(1314323571000-0500)/",
            "UpdatedDate": "/Date(1314323571000-0500)/",
            "UserName": "pooktails"
          }
        ]
      },
      "RecipeDisplayFormatId": 5,
      "RecipeId": 121339,
      "RecipeName": "Oatmeal Carmelitas",
      "RecipeType": 0,
      "RelatedData": {
        "RelatedBrands": null,
        "RelatedProducts": null,
        "RelatedRecipes": {
          "DefaultTopCount": 5,
          "Recipe": [
            {
              "AverageRating": 4,
              "HasVideo": false,
              "IsHealthyLiving": false,
              "NumberOfRatings": 14,
              "PhotoName": "70014-Chocolate-Peanut-Butter-Oatmeal-Bread-43426.jpg",
              "PhotoUrl": "http://assets.kraftfoods.com/recipe_images/opendeploy/70014-Chocolate-Peanut-Butter-Oatmeal-Bread-43426.jpg",
              "RecipeId": 70014,
              "RecipeName": "Chocolate Peanut Butter Oatmeal Cookies Sweetened with SPLENDA®",
              "SEOName": "chocolate-peanut-butter-oatmeal-cookies-sweetened-splenda-70014",
              "ThumbnailPhoto": null
            },
            {
              "AverageRating": 4.5,
              "HasVideo": false,
              "IsHealthyLiving": false,
              "NumberOfRatings": 212,
              "PhotoName": "62843.jpg",
              "PhotoUrl": "http://assets.kraftfoods.com/recipe_images/opendeploy/62843.jpg",
              "RecipeId": 62843,
              "RecipeName": "Peanut Butter-Chocolate Oatmeal Cookies",
              "SEOName": "peanut-butter-chocolate-oatmeal-cookies-62843",
              "ThumbnailPhoto": null
            },
            {
              "AverageRating": 4.1,
              "HasVideo": false,
              "IsHealthyLiving": false,
              "NumberOfRatings": 25,
              "PhotoName": "Super_Chunk_Oatmeal_Cookie_Mix.jpg",
              "PhotoUrl": "http://assets.kraftfoods.com/recipe_images/opendeploy/Super_Chunk_Oatmeal_Cookie_Mix.jpg",
              "RecipeId": 55690,
              "RecipeName": "Mix for Oatmeal Cookies",
              "SEOName": "mix-for-oatmeal-cookies-55690",
              "ThumbnailPhoto": null
            },
            {
              "AverageRating": 4,
              "HasVideo": false,
              "IsHealthyLiving": false,
              "NumberOfRatings": 12,
              "PhotoName": "55883-Chocolate-Bliss-Oatmeal-Raisin-Cookies-4323.jpg",
              "PhotoUrl": "http://assets.kraftfoods.com/recipe_images/opendeploy/55883-Chocolate-Bliss-Oatmeal-Raisin-Cookies-4323.jpg",
              "RecipeId": 55883,
              "RecipeName": "Chocolate Bliss Oatmeal Raisin Cookies",
              "SEOName": "chocolate-bliss-oatmeal-raisin-cookies-55883",
              "ThumbnailPhoto": null
            },
            {
              "AverageRating": 4.3,
              "HasVideo": false,
              "IsHealthyLiving": false,
              "NumberOfRatings": 3,
              "PhotoName": "179742_MXM_66083v1E_WP.jpg",
              "PhotoUrl": "http://assets.kraftfoods.com/recipe_images/opendeploy/179742_MXM_66083v1E_WP.jpg",
              "RecipeId": 179742,
              "RecipeName": "Cherry Oatmeal Bars Recipe",
              "SEOName": "cherry-oatmeal-bars-recipe-179742",
              "ThumbnailPhoto": null
            }
          ],
          "TotalCount": 13
        }
      },
      "RiseIngredients": [],
      "RiseTaxonomy": [],
      "Riserecipe": [
        {
          "GRIN": 565340,
          "RecipeId": 121339,
          "RecipeIndustrySector": "Retail",
          "RecipeType": "Internal"
        }
      ],
      "RomanceText": "Don't tell your mom, but we think we've found oatmeal squares that are actually more scrumptious than hers. These are made with caramel.",
      "SEOName": "oatmeal-carmelitas-121339",
      "Tips": [
        {
          "RecipeId": 121339,
          "Sequence": 10,
          "TipDescription": "Use 1 bag (11 oz.) KRAFT Caramel Bits. ",
          "TipID": 1,
          "TipName": "Substitute"
        }
      ],
      "TotalTime": 235,
      "TradeMarkInfo": null,
      "Video": [],
      "Yield": "36 servings"
    }
  ]
}