{
  "Metadata": {
    "PageCount": 1,
    "PageNo": 0,
    "TotalCount": 0
  },
  "Recipes": [
    {
      "AdServingKeywords": "Baked,Entree,Easy,Celery,Cheddar,Cheese,Dairy,Fish,Onion,Pasta/Noodles,Peas,Seafood,Tuna,Vegetables,Kraft Cheese,Kraft Macaroni and Cheese,Kraft Shredded Cheese,All Seasons,Dinner,Cheesy,Casserole",
      "AlternateLanguageRecipes": [],
      "Assets": [
        {
          "PictureFormats": [
            {
              "rendition": "640x428",
              "url": "http://assets.kraftfoods.com/recipe_images/opendeploy/62319_640x428.jpg"
            }
          ],
          "author": null,
          "id": "0",
          "imageType": "Primary",
          "mimeType": "image/jpeg",
          "publicationDate": null,
          "status": "1",
          "title": "62319",
          "type": "image"
        },
        {
          "PictureFormats": [
            {
              "rendition": "300x200",
              "url": "http://assets.kraftfoods.com/recipe_images/Deluxe_Cheesy_Tuna_Mac.jpg"
            }
          ],
          "author": null,
          "id": "0",
          "imageType": "DEFAULT",
          "mimeType": null,
          "publicationDate": null,
          "status": "1",
          "title": "Deluxe_Cheesy_Tuna_Mac.jpg",
          "type": "image"
        }
      ],
      "AverageRating": 4.3,
      "BrandId": 1,
      "Branding": null,
      "CSSSkins": null,
      "CarbCounter": null,
      "Categories": [
        {
          "CategoryID": 8,
          "CategoryName": "Seafood/Meatless Entrees",
          "CategoryRank": 12,
          "SubCategoryID": 403,
          "SubCategoryName": "Seafood: Tuna",
          "SubCategoryRank": 100
        },
        {
          "CategoryID": 11,
          "CategoryName": "Primary",
          "CategoryRank": 0,
          "SubCategoryID": 97,
          "SubCategoryName": "Entrees",
          "SubCategoryRank": 50
        },
        {
          "CategoryID": 756,
          "CategoryName": "Main Meals (Meat / Seafood / Egg)",
          "CategoryRank": 10,
          "SubCategoryID": 2561,
          "SubCategoryName": "Fish",
          "SubCategoryRank": 1
        }
      ],
      "Classifications": [],
      "ComplimentaryRecipes": null,
      "CookingMethod": null,
      "Copyright": null,
      "Courses": [
        "Main dishes"
      ],
      "DietExchange": null,
      "DishDetails": [
        {
          "Text": "casseroles",
          "Url": "/recipes/dinner/casserole-recipes/main.aspx"
        },
        {
          "Text": "chicken casseroles",
          "Url": "/recipes/dinner/chicken-recipes/casseroles/main.aspx"
        },
        {
          "Text": "seafood casseroles",
          "Url": "/recipes/dinner/seafood/casseroles/main.aspx"
        },
        {
          "Text": "macaroni and cheese recipes",
          "Url": "/recipes/dinner/macaroni-and-cheese-recipes.aspx"
        }
      ],
      "EndDate": "/Date(-62135575200000-0600)/",
      "HasVideo": false,
      "Ingredients": [
        {
          "FullMeasure": null,
          "FullWeight": null,
          "IngredientGridHeaders": null,
          "IngredientID": 68983,
          "IngredientName": "(14 oz.) KRAFT Deluxe Macaroni & Cheese Dinner",
          "IngredientStep": 10,
          "LanguageId": 0,
          "PostPreparation": "",
          "PrePreparation": "",
          "QuantityNum": 1,
          "QuantityText": "1",
          "QuantityUnit": "pkg.",
          "RecipeIngredientID": 272203,
          "TrialMeasure": null,
          "TrialWeight": null
        },
        {
          "FullMeasure": null,
          "FullWeight": null,
          "IngredientGridHeaders": null,
          "IngredientID": 69059,
          "IngredientName": "frozen peas, thawed",
          "IngredientStep": 20,
          "LanguageId": 0,
          "PostPreparation": "",
          "PrePreparation": "",
          "QuantityNum": 1,
          "QuantityText": "1",
          "QuantityUnit": "cup",
          "RecipeIngredientID": 274169,
          "TrialMeasure": null,
          "TrialWeight": null
        },
        {
          "FullMeasure": null,
          "FullWeight": null,
          "IngredientGridHeaders": null,
          "IngredientID": 68776,
          "IngredientName": "chopped onion",
          "IngredientStep": 30,
          "LanguageId": 0,
          "PostPreparation": "",
          "PrePreparation": "",
          "QuantityNum": 0.5,
          "QuantityText": "1/2",
          "QuantityUnit": "cup",
          "RecipeIngredientID": 274403,
          "TrialMeasure": null,
          "TrialWeight": null
        },
        {
          "FullMeasure": null,
          "FullWeight": null,
          "IngredientGridHeaders": null,
          "IngredientID": 68354,
          "IngredientName": "chopped celery",
          "IngredientStep": 40,
          "LanguageId": 0,
          "PostPreparation": "",
          "PrePreparation": "",
          "QuantityNum": 0.5,
          "QuantityText": "1/2",
          "QuantityUnit": "cup",
          "RecipeIngredientID": 273366,
          "TrialMeasure": null,
          "TrialWeight": null
        },
        {
          "FullMeasure": null,
          "FullWeight": null,
          "IngredientGridHeaders": null,
          "IngredientID": 67943,
          "IngredientName": "(6 oz.) tuna, drained, flaked",
          "IngredientStep": 50,
          "LanguageId": 0,
          "PostPreparation": "",
          "PrePreparation": "",
          "QuantityNum": 1,
          "QuantityText": "1",
          "QuantityUnit": "can",
          "RecipeIngredientID": 272467,
          "TrialMeasure": null,
          "TrialWeight": null
        },
        {
          "FullMeasure": null,
          "FullWeight": null,
          "IngredientGridHeaders": null,
          "IngredientID": 68096,
          "IngredientName": "milk",
          "IngredientStep": 60,
          "LanguageId": 0,
          "PostPreparation": "",
          "PrePreparation": "",
          "QuantityNum": 1,
          "QuantityText": "1",
          "QuantityUnit": "cup",
          "RecipeIngredientID": 277328,
          "TrialMeasure": null,
          "TrialWeight": null
        },
        {
          "FullMeasure": null,
          "FullWeight": null,
          "IngredientGridHeaders": null,
          "IngredientID": 69188,
          "IngredientName": "KRAFT Shredded Mild Cheddar Cheese",
          "IngredientStep": 70,
          "LanguageId": 0,
          "PostPreparation": "",
          "PrePreparation": "",
          "QuantityNum": 1,
          "QuantityText": "1",
          "QuantityUnit": "cup",
          "RecipeIngredientID": 272878,
          "TrialMeasure": null,
          "TrialWeight": null
        },
        {
          "FullMeasure": null,
          "FullWeight": null,
          "IngredientGridHeaders": null,
          "IngredientID": 68271,
          "IngredientName": "crushed RITZ Crackers",
          "IngredientStep": 80,
          "LanguageId": 0,
          "PostPreparation": "",
          "PrePreparation": "",
          "QuantityNum": 0.5,
          "QuantityText": "1/2",
          "QuantityUnit": "cup",
          "RecipeIngredientID": 276221,
          "TrialMeasure": null,
          "TrialWeight": null
        },
        {
          "FullMeasure": null,
          "FullWeight": null,
          "IngredientGridHeaders": null,
          "IngredientID": 68319,
          "IngredientName": "butter or margarine, melted",
          "IngredientStep": 90,
          "LanguageId": 0,
          "PostPreparation": "",
          "PrePreparation": "",
          "QuantityNum": 1,
          "QuantityText": "1",
          "QuantityUnit": "Tbsp.",
          "RecipeIngredientID": 275382,
          "TrialMeasure": null,
          "TrialWeight": null
        }
      ],
      "IsHealthyLiving": false,
      "KRLId": "542690",
      "KeyIngredients": [],
      "Keywords": "Entree,Baked,Easy,Casserole,Macaroni and Cheese,Dinner,All Seasons,Cheesy",
      "LanguageId": 1,
      "LifeStyles": [],
      "NumberOfIngredients": 9,
      "NumberOfRatings": 35,
      "NumberOfRatingsWithComments": "30",
      "NumberOfServings": " Makes 6 servings.",
      "NumberOfTrialServings": null,
      "NutritionBonus": null,
      "NutritionExchangeItemId": 0,
      "NutritionGridItems": null,
      "NutritionItems": [
        {
          "DisplayOrder": 0,
          "Document": null,
          "NutritionItemID": 384,
          "NutritionItemName": "Vitamin D",
          "Predriscriptor": "",
          "Quantity": 2,
          "Unit": "%DV       "
        },
        {
          "DisplayOrder": 0,
          "Document": null,
          "NutritionItemID": 385,
          "NutritionItemName": "Vitamin E",
          "Predriscriptor": "",
          "Quantity": 0,
          "Unit": "%DV       "
        },
        {
          "DisplayOrder": 0,
          "Document": null,
          "NutritionItemID": 388,
          "NutritionItemName": "Potassium",
          "Predriscriptor": "",
          "Quantity": 6,
          "Unit": "%DV       "
        },
        {
          "DisplayOrder": 0,
          "Document": null,
          "NutritionItemID": 390,
          "NutritionItemName": "Added Sugars",
          "Predriscriptor": "",
          "Quantity": 0,
          "Unit": "g         "
        },
        {
          "DisplayOrder": 1,
          "Document": null,
          "NutritionItemID": 371,
          "NutritionItemName": "Calories",
          "Predriscriptor": "",
          "Quantity": 410,
          "Unit": "          "
        },
        {
          "DisplayOrder": 2,
          "Document": null,
          "NutritionItemID": 376,
          "NutritionItemName": "Total fat",
          "Predriscriptor": "",
          "Quantity": 18,
          "Unit": "g         "
        },
        {
          "DisplayOrder": 3,
          "Document": null,
          "NutritionItemID": 377,
          "NutritionItemName": "Saturated fat",
          "Predriscriptor": "",
          "Quantity": 8,
          "Unit": "g         "
        },
        {
          "DisplayOrder": 4,
          "Document": null,
          "NutritionItemID": 379,
          "NutritionItemName": "Polyunsaturated Fat",
          "Predriscriptor": "",
          "Quantity": 0,
          "Unit": "g         "
        },
        {
          "DisplayOrder": 5,
          "Document": null,
          "NutritionItemID": 378,
          "NutritionItemName": "Monounsaturated Fat",
          "Predriscriptor": "",
          "Quantity": 0.5,
          "Unit": "g         "
        },
        {
          "DisplayOrder": 6,
          "Document": null,
          "NutritionItemID": 380,
          "NutritionItemName": "Trans Fat",
          "Predriscriptor": "",
          "Quantity": 0,
          "Unit": "g         "
        },
        {
          "DisplayOrder": 7,
          "Document": null,
          "NutritionItemID": 381,
          "NutritionItemName": "Cholesterol",
          "Predriscriptor": "",
          "Quantity": 45,
          "Unit": "mg        "
        },
        {
          "DisplayOrder": 8,
          "Document": null,
          "NutritionItemID": 389,
          "NutritionItemName": "Sodium",
          "Predriscriptor": "",
          "Quantity": 930,
          "Unit": "mg        "
        },
        {
          "DisplayOrder": 10,
          "Document": null,
          "NutritionItemID": 373,
          "NutritionItemName": "Carbohydrate",
          "Predriscriptor": "",
          "Quantity": 41,
          "Unit": "g         "
        },
        {
          "DisplayOrder": 11,
          "Document": null,
          "NutritionItemID": 374,
          "NutritionItemName": "Dietary fiber",
          "Predriscriptor": "",
          "Quantity": 3,
          "Unit": "g         "
        },
        {
          "DisplayOrder": 12,
          "Document": null,
          "NutritionItemID": 375,
          "NutritionItemName": "Sugars",
          "Predriscriptor": "",
          "Quantity": 7,
          "Unit": "g         "
        },
        {
          "DisplayOrder": 13,
          "Document": null,
          "NutritionItemID": 372,
          "NutritionItemName": "Protein",
          "Predriscriptor": "",
          "Quantity": 22,
          "Unit": "g         "
        },
        {
          "DisplayOrder": 14,
          "Document": null,
          "NutritionItemID": 382,
          "NutritionItemName": "Vitamin A",
          "Predriscriptor": "",
          "Quantity": 25,
          "Unit": "%DV       "
        },
        {
          "DisplayOrder": 15,
          "Document": null,
          "NutritionItemID": 383,
          "NutritionItemName": "Vitamin C",
          "Predriscriptor": "",
          "Quantity": 4,
          "Unit": "%DV       "
        },
        {
          "DisplayOrder": 16,
          "Document": null,
          "NutritionItemID": 386,
          "NutritionItemName": "Calcium",
          "Predriscriptor": "",
          "Quantity": 15,
          "Unit": "%DV       "
        },
        {
          "DisplayOrder": 17,
          "Document": null,
          "NutritionItemID": 387,
          "NutritionItemName": "Iron",
          "Predriscriptor": "",
          "Quantity": 4,
          "Unit": "%DV       "
        }
      ],
      "NutritionServingText": null,
      "PrepStepImage": null,
      "PreparationDescription": "Preheat oven to 375°F.  Prepare Dinner as directed on package.  Add vegetables, tuna, milk and cheddar cheese; mix well.$Spoon into greased 1-1/2-quart casserole dish.  Toss cracker crumbs with butter; sprinkle over casserole.$Bake 20 minutes or until heated through.",
      "PreparationPreText": null,
      "PreparationSteps": [
        {
          "Description": "Preheat oven to 375°F.  Prepare Dinner as directed on package.  Add vegetables, tuna, milk and cheddar cheese; mix well.",
          "PreparationStepImage": {
            "PictureFormats": [],
            "author": null,
            "id": null,
            "imageType": null,
            "mimeType": null,
            "publicationDate": null,
            "status": null,
            "title": null,
            "type": null
          },
          "Sequence": 1
        },
        {
          "Description": "Spoon into greased 1-1/2-quart casserole dish.  Toss cracker crumbs with butter; sprinkle over casserole.",
          "PreparationStepImage": {
            "PictureFormats": [],
            "author": null,
            "id": null,
            "imageType": null,
            "mimeType": null,
            "publicationDate": null,
            "status": null,
            "title": null,
            "type": null
          },
          "Sequence": 2
        },
        {
          "Description": "Bake 20 minutes or until heated through.",
          "PreparationStepImage": {
            "PictureFormats": [],
            "author": null,
            "id": null,
            "imageType": null,
            "mimeType": null,
            "publicationDate": null,
            "status": null,
            "title": null,
            "type": null
          },
          "Sequence": 3
        }
      ],
      "PreparationTime": 15,
      "Promotion": null,
      "Ratings": {
        "TotalCount": 35,
        "PageCount": 10,
        "PageNo": 1,
        "Rating": [
          {
            "Comment": "",
            "DisplayName": true,
            "RatingValue": 5,
            "SubmitDate": "/Date(1333756398000-0500)/",
            "UpdatedDate": "/Date(1333756398000-0500)/",
            "UserName": "PRichey02"
          },
          {
            "Comment": "My husband is very very picky and he went back for seconds....not one of my favorite tuna casserole dishes.....the celery and onion were crunchy kinda different! I will make it again since he likes it however he did pick the celery out (lol) the crackers gave it a sweet taste!",
            "DisplayName": true,
            "RatingValue": 3,
            "SubmitDate": "/Date(1329571842000-0600)/",
            "UpdatedDate": "/Date(1329571842000-0600)/",
            "UserName": "countryfixins"
          },
          {
            "Comment": "Yummy!!  Very easy to make, the celery gave it a nice crunch.  I used a 12 oz. can of tuna and Velveeta whole grain Rotini and Chese.  I did not have frozen peas so I folded in a can of sweet peas after adding all the other ingredients...worked out just fine!  Not a big fan of tuna but this was delicious!!",
            "DisplayName": true,
            "RatingValue": 4,
            "SubmitDate": "/Date(1327358717000-0600)/",
            "UpdatedDate": "/Date(1327358717000-0600)/",
            "UserName": "joekat0294"
          },
          {
            "Comment": "This is a keeper!",
            "DisplayName": false,
            "RatingValue": 5,
            "SubmitDate": "/Date(1302748830000-0500)/",
            "UpdatedDate": "/Date(1302748830000-0500)/",
            "UserName": "kdsaunders"
          },
          {
            "Comment": "Delicious and easy!!  Every one of my kids loved it!",
            "DisplayName": true,
            "RatingValue": 5,
            "SubmitDate": "/Date(1243904886000-0500)/",
            "UpdatedDate": "/Date(1289096788000-0500)/",
            "UserName": "fairprincess1980"
          },
          {
            "Comment": "This was an easy and delicious meal.  I worried that the celery and onions needed to be sauteed first, but I put them in chopped and raw. I added 2 cans of tuna (instead of one).  I used crushed Corn Flakes without any butter. I baked at 350 for 30 minutes.  Excellent!  The celery and onions were a bit crunchy, but very good.  My husband suggested that I should make this on a regular basis.  He wants to take the leftovers for lunch the next day.",
            "DisplayName": true,
            "RatingValue": 5,
            "SubmitDate": "/Date(1287606527000-0500)/",
            "UpdatedDate": "/Date(1287606527000-0500)/",
            "UserName": "kladderru"
          },
          {
            "Comment": "Very good & easy recipe. Kids & hubby loved it. Will for sure make this one again.  Only thing I did different was top with crushed plain potato chips last 10 minitues.  Did not have Ritz crackers. ",
            "DisplayName": true,
            "RatingValue": 5,
            "SubmitDate": "/Date(1270528026000-0500)/",
            "UpdatedDate": "/Date(1270528026000-0500)/",
            "UserName": "araefinn01"
          },
          {
            "Comment": "",
            "DisplayName": true,
            "RatingValue": 4,
            "SubmitDate": "/Date(1252111376000-0500)/",
            "UpdatedDate": "/Date(1252111376000-0500)/",
            "UserName": "mom72"
          },
          {
            "Comment": "This was really good!  I think it could use 2 cans of tuna.  Also next time I'll make it lower in fat with the 2% mac n cheese and cheddar and low fat ritz, but it was very delicious!! I'll make this again!",
            "DisplayName": true,
            "RatingValue": 5,
            "SubmitDate": "/Date(1227223112000-0600)/",
            "UpdatedDate": "/Date(1227223112000-0600)/",
            "UserName": "AmandaLeaThomas"
          },
          {
            "Comment": "It was quick and easy to make.  It tasted really good.",
            "DisplayName": true,
            "RatingValue": 3,
            "SubmitDate": "/Date(1216090991000-0500)/",
            "UpdatedDate": "/Date(1216090991000-0500)/",
            "UserName": "DuckyDes1"
          }
        ]
      },
      "RecipeDisplayFormatId": 0,
      "RecipeId": 62319,
      "RecipeName": "Deluxe Tuna Mac and Cheese Casserole",
      "RecipeType": 0,
      "RelatedData": {
        "RelatedBrands": null,
        "RelatedProducts": null,
        "RelatedRecipes": {
          "DefaultTopCount": 5,
          "Recipe": [
            {
              "AverageRating": 4.2,
              "HasVideo": false,
              "IsHealthyLiving": false,
              "NumberOfRatings": 14,
              "PhotoName": "57278.jpg",
              "PhotoUrl": "http://assets.kraftfoods.com/recipe_images/opendeploy/57278.jpg",
              "RecipeId": 57278,
              "RecipeName": "Cheesy Tuna Mac",
              "SEOName": "cheesy-tuna-mac-57278",
              "ThumbnailPhoto": null
            },
            {
              "AverageRating": 4,
              "HasVideo": false,
              "IsHealthyLiving": false,
              "NumberOfRatings": 86,
              "PhotoName": "63713.jpg",
              "PhotoUrl": "http://assets.kraftfoods.com/recipe_images/opendeploy/63713.jpg",
              "RecipeId": 63713,
              "RecipeName": "Mac and Cheese Casserole with Ham",
              "SEOName": "mac-cheese-casserole-ham-63713",
              "ThumbnailPhoto": null
            },
            {
              "AverageRating": 4.2,
              "HasVideo": false,
              "IsHealthyLiving": false,
              "NumberOfRatings": 21,
              "PhotoName": "Easy_Mac_N_Cheese_with_Bacon_and_Peas.jpg",
              "PhotoUrl": "http://assets.kraftfoods.com/recipe_images/opendeploy/Easy_Mac_N_Cheese_with_Bacon_and_Peas.jpg",
              "RecipeId": 50150,
              "RecipeName": "Easy Mac 'N Cheese with Bacon and Peas",
              "SEOName": "easy-mac-n-cheese-bacon-peas-50150",
              "ThumbnailPhoto": null
            },
            {
              "AverageRating": 4.8,
              "HasVideo": false,
              "IsHealthyLiving": false,
              "NumberOfRatings": 8,
              "PhotoName": "106856.jpg",
              "PhotoUrl": "http://assets.kraftfoods.com/recipe_images/opendeploy/106856.jpg",
              "RecipeId": 106856,
              "RecipeName": "Chante's Real Cheddar Harmony Mac & Cheese",
              "SEOName": "chantes-real-cheddar-harmony-mac-cheese-106856",
              "ThumbnailPhoto": null
            },
            {
              "AverageRating": 4.1,
              "HasVideo": false,
              "IsHealthyLiving": false,
              "NumberOfRatings": 50,
              "PhotoName": "Salsa_Mac_n_Cheese.jpg",
              "PhotoUrl": "http://assets.kraftfoods.com/recipe_images/opendeploy/Salsa_Mac_n_Cheese.jpg",
              "RecipeId": 90596,
              "RecipeName": "Salsa Mac & Cheese",
              "SEOName": "salsa-mac-cheese-90596",
              "ThumbnailPhoto": null
            }
          ],
          "TotalCount": 4167
        }
      },
      "RiseIngredients": [
        {
          "IngredientCategory": "KRL",
          "IngredientId": 67943,
          "IngredientIndustrySector": "Retail",
          "IngredientType": "Inedible",
          "ProductId": null,
          "RecipeId": 62319
        },
        {
          "IngredientCategory": "KRL",
          "IngredientId": 68096,
          "IngredientIndustrySector": "Retail",
          "IngredientType": "Inedible",
          "ProductId": null,
          "RecipeId": 62319
        },
        {
          "IngredientCategory": "KRL",
          "IngredientId": 68271,
          "IngredientIndustrySector": "Retail",
          "IngredientType": "Inedible",
          "ProductId": null,
          "RecipeId": 62319
        },
        {
          "IngredientCategory": "KRL",
          "IngredientId": 68319,
          "IngredientIndustrySector": "Retail",
          "IngredientType": "Inedible",
          "ProductId": null,
          "RecipeId": 62319
        },
        {
          "IngredientCategory": "KRL",
          "IngredientId": 68354,
          "IngredientIndustrySector": "Retail",
          "IngredientType": "Inedible",
          "ProductId": null,
          "RecipeId": 62319
        },
        {
          "IngredientCategory": "KRL",
          "IngredientId": 68776,
          "IngredientIndustrySector": "Retail",
          "IngredientType": "Inedible",
          "ProductId": null,
          "RecipeId": 62319
        },
        {
          "IngredientCategory": "KRL",
          "IngredientId": 68983,
          "IngredientIndustrySector": "Retail",
          "IngredientType": "KHC",
          "ProductId": "00021000658862",
          "RecipeId": 62319
        },
        {
          "IngredientCategory": "KRL",
          "IngredientId": 69059,
          "IngredientIndustrySector": "Retail",
          "IngredientType": "Inedible",
          "ProductId": null,
          "RecipeId": 62319
        },
        {
          "IngredientCategory": "KRL",
          "IngredientId": 69188,
          "IngredientIndustrySector": "Retail",
          "IngredientType": "KHC",
          "ProductId": "00021000053704",
          "RecipeId": 62319
        }
      ],
      "RiseTaxonomy": [
        {
          "ParentTaxonomyId": 53,
          "RecipeId": 62319,
          "ResourceName": "Recipe",
          "TaxonomyId": 9,
          "TaxonomyName": "Macaroni & Cheese",
          "TaxonomyTypeId": 3,
          "TaxonomyTypeName": "Dish Type"
        },
        {
          "ParentTaxonomyId": 0,
          "RecipeId": 62319,
          "ResourceName": "Recipe",
          "TaxonomyId": 65,
          "TaxonomyName": "Entrées",
          "TaxonomyTypeId": 2,
          "TaxonomyTypeName": "Meal Part"
        },
        {
          "ParentTaxonomyId": 0,
          "RecipeId": 62319,
          "ResourceName": "Recipe",
          "TaxonomyId": 336,
          "TaxonomyName": "Fall",
          "TaxonomyTypeId": 6,
          "TaxonomyTypeName": "Season"
        },
        {
          "ParentTaxonomyId": 0,
          "RecipeId": 62319,
          "ResourceName": "Recipe",
          "TaxonomyId": 339,
          "TaxonomyName": "Winter",
          "TaxonomyTypeId": 6,
          "TaxonomyTypeName": "Season"
        }
      ],
      "Riserecipe": [
        {
          "GRIN": 542690,
          "RecipeId": 62319,
          "RecipeIndustrySector": "Retail",
          "RecipeType": "Internal"
        }
      ],
      "RomanceText": "Give tuna mac and cheese casserole deluxe flavor with a crushed cracker-butter topping. Bake this Deluxe Tuna Mac and Cheese Casserole until delicious.",
      "SEOName": "deluxe-tuna-mac-cheese-casserole-62319",
      "Tips": [
        {
          "RecipeId": 62319,
          "Sequence": 10,
          "TipDescription": "Serve with a mixed green salad tossed with your favorite KRAFT Light Dressing.",
          "TipID": 1,
          "TipName": "Serving Suggestion"
        },
        {
          "RecipeId": 62319,
          "Sequence": 20,
          "TipDescription": "Substitute 1 can (6 oz.) boneless skinless salmon for the tuna.",
          "TipID": 2,
          "TipName": "Substitute"
        }
      ],
      "TotalTime": 35,
      "TradeMarkInfo": null,
      "Video": [],
      "Yield": " Makes 6 servings."
    }
  ]
}