{
  "Metadata": {
    "PageCount": 1,
    "PageNo": 0,
    "TotalCount": 0
  },
  "Recipes": [
    {
      "AdServingKeywords": "Entree,Fruit,Nuts,Onion,Oranges,Peanuts,Rice,Seafood,Shellfish,Shrimp,Vegetables,Dinner,All Seasons,Planters",
      "AlternateLanguageRecipes": [],
      "Assets": [
        {
          "PictureFormats": [
            {
              "rendition": "300x200",
              "url": "http://assets.kraftfoods.com/recipe_images/Shanghai_Shrimp.jpg"
            }
          ],
          "author": null,
          "id": "0",
          "imageType": "LANDSCAPE",
          "mimeType": null,
          "publicationDate": null,
          "status": "1",
          "title": "Shanghai_Shrimp.jpg",
          "type": "image"
        }
      ],
      "AverageRating": 3.2,
      "BrandId": 60,
      "Branding": null,
      "CSSSkins": null,
      "CarbCounter": null,
      "Categories": [
        {
          "CategoryID": 8,
          "CategoryName": "Seafood/Meatless Entrees",
          "CategoryRank": 12,
          "SubCategoryID": 398,
          "SubCategoryName": "Seafood: Shellfish",
          "SubCategoryRank": 90
        },
        {
          "CategoryID": 11,
          "CategoryName": "Primary",
          "CategoryRank": 0,
          "SubCategoryID": 97,
          "SubCategoryName": "Entrees",
          "SubCategoryRank": 50
        },
        {
          "CategoryID": 756,
          "CategoryName": "Main Meals (Meat / Seafood / Egg)",
          "CategoryRank": 10,
          "SubCategoryID": 2560,
          "SubCategoryName": "Seafood",
          "SubCategoryRank": 1
        }
      ],
      "Classifications": [],
      "ComplimentaryRecipes": [
        {
          "AverageRating": 0,
          "HasVideo": false,
          "IsHealthyLiving": false,
          "NumberOfRatings": 0,
          "PhotoName": null,
          "PhotoUrl": null,
          "RecipeId": 57362,
          "RecipeName": null,
          "SEOName": "fluffy-orange-cake-57362",
          "ThumbnailPhoto": "57362.jpg"
        }
      ],
      "CookingMethod": null,
      "Copyright": null,
      "Courses": [
        "Main dishes"
      ],
      "DietExchange": null,
      "DishDetails": [],
      "EndDate": "/Date(-62135575200000-0600)/",
      "HasVideo": false,
      "Ingredients": [
        {
          "FullMeasure": "4",
          "FullWeight": "",
          "IngredientGridHeaders": null,
          "IngredientID": 1823,
          "IngredientName": "green onion",
          "IngredientStep": 10,
          "LanguageId": 0,
          "PostPreparation": "s, cut into 1-inch pieces",
          "PrePreparation": "",
          "QuantityNum": 4,
          "QuantityText": "4",
          "QuantityUnit": "",
          "RecipeIngredientID": 5367519,
          "TrialMeasure": "",
          "TrialWeight": ""
        },
        {
          "FullMeasure": "1 tsp.",
          "FullWeight": "",
          "IngredientGridHeaders": null,
          "IngredientID": 3620,
          "IngredientName": "gingerroot",
          "IngredientStep": 20,
          "LanguageId": 0,
          "PostPreparation": "",
          "PrePreparation": "minced peeled",
          "QuantityNum": 1,
          "QuantityText": "1",
          "QuantityUnit": "tsp.",
          "RecipeIngredientID": 5367526,
          "TrialMeasure": "",
          "TrialWeight": ""
        },
        {
          "FullMeasure": "2 Tbsp.",
          "FullWeight": "",
          "IngredientGridHeaders": null,
          "IngredientID": 5527,
          "IngredientName": "PLANTERS Peanut Oil",
          "IngredientStep": 30,
          "LanguageId": 0,
          "PostPreparation": "",
          "PrePreparation": "",
          "QuantityNum": 2,
          "QuantityText": "2",
          "QuantityUnit": "Tbsp.",
          "RecipeIngredientID": 5367521,
          "TrialMeasure": "",
          "TrialWeight": ""
        },
        {
          "FullMeasure": "1 lb.",
          "FullWeight": "",
          "IngredientGridHeaders": null,
          "IngredientID": 2160,
          "IngredientName": "shrimp",
          "IngredientStep": 40,
          "LanguageId": 0,
          "PostPreparation": ", peeled, deveined",
          "PrePreparation": "large",
          "QuantityNum": 1,
          "QuantityText": "1",
          "QuantityUnit": "lb.",
          "RecipeIngredientID": 5367523,
          "TrialMeasure": "",
          "TrialWeight": ""
        },
        {
          "FullMeasure": "1 cup",
          "FullWeight": "",
          "IngredientGridHeaders": null,
          "IngredientID": 899,
          "IngredientName": "chicken broth",
          "IngredientStep": 50,
          "LanguageId": 0,
          "PostPreparation": "",
          "PrePreparation": "",
          "QuantityNum": 1,
          "QuantityText": "1",
          "QuantityUnit": "cup",
          "RecipeIngredientID": 5367522,
          "TrialMeasure": "",
          "TrialWeight": ""
        },
        {
          "FullMeasure": "1 Tbsp.",
          "FullWeight": "",
          "IngredientGridHeaders": null,
          "IngredientID": 999,
          "IngredientName": "cornstarch",
          "IngredientStep": 60,
          "LanguageId": 0,
          "PostPreparation": "",
          "PrePreparation": "",
          "QuantityNum": 1,
          "QuantityText": "1",
          "QuantityUnit": "Tbsp.",
          "RecipeIngredientID": 5367520,
          "TrialMeasure": "",
          "TrialWeight": ""
        },
        {
          "FullMeasure": "1 can",
          "FullWeight": "",
          "IngredientGridHeaders": null,
          "IngredientID": 3554,
          "IngredientName": "mandarin oranges",
          "IngredientStep": 70,
          "LanguageId": 0,
          "PostPreparation": ", undrained",
          "PrePreparation": "(11 oz.)",
          "QuantityNum": 1,
          "QuantityText": "1",
          "QuantityUnit": "can",
          "RecipeIngredientID": 5367524,
          "TrialMeasure": "",
          "TrialWeight": ""
        },
        {
          "FullMeasure": "1 can",
          "FullWeight": "",
          "IngredientGridHeaders": null,
          "IngredientID": 1743,
          "IngredientName": "water chestnuts",
          "IngredientStep": 80,
          "LanguageId": 0,
          "PostPreparation": ", undrained",
          "PrePreparation": "(8 oz.) sliced",
          "QuantityNum": 1,
          "QuantityText": "1",
          "QuantityUnit": "can",
          "RecipeIngredientID": 5367525,
          "TrialMeasure": "",
          "TrialWeight": ""
        },
        {
          "FullMeasure": "4-1/2 cups",
          "FullWeight": "",
          "IngredientGridHeaders": null,
          "IngredientID": 1562,
          "IngredientName": "rice",
          "IngredientStep": 90,
          "LanguageId": 0,
          "PostPreparation": "",
          "PrePreparation": "hot cooked",
          "QuantityNum": 4,
          "QuantityText": "4-1/2",
          "QuantityUnit": "cups",
          "RecipeIngredientID": 5367518,
          "TrialMeasure": "",
          "TrialWeight": ""
        }
      ],
      "IsHealthyLiving": false,
      "KRLId": "507376",
      "KeyIngredients": [
        "Fruit",
        "Onion",
        "Oranges",
        "Rice",
        "Seafood",
        "Shellfish",
        "Shrimp",
        "Vegetables"
      ],
      "Keywords": "oil,onions,oranges,rice,chicken broth or bouillon,ginger root,scallions,seafood,shrimp,water chestnuts,mandarin oranges,green onions,shellfish,PLANTERS Peanut Oil,peanut oil,cornstarch,Planters,Entree,Dinner,All Seasons",
      "LanguageId": 1,
      "LifeStyles": [],
      "NumberOfIngredients": 9,
      "NumberOfRatings": 12,
      "NumberOfRatingsWithComments": "7",
      "NumberOfServings": "6 servings",
      "NumberOfTrialServings": null,
      "NutritionBonus": null,
      "NutritionExchangeItemId": 0,
      "NutritionGridItems": null,
      "NutritionItems": [
        {
          "DisplayOrder": 1,
          "Document": null,
          "NutritionItemID": 3,
          "NutritionItemName": "Calories",
          "Predriscriptor": "",
          "Quantity": 330,
          "Unit": "          "
        },
        {
          "DisplayOrder": 2,
          "Document": "fat_cholesterol.html",
          "NutritionItemID": 4,
          "NutritionItemName": "Total fat",
          "Predriscriptor": "",
          "Quantity": 6,
          "Unit": "g         "
        },
        {
          "DisplayOrder": 3,
          "Document": "fat_cholesterol.html",
          "NutritionItemID": 9,
          "NutritionItemName": "Saturated fat",
          "Predriscriptor": "",
          "Quantity": 1,
          "Unit": "g         "
        },
        {
          "DisplayOrder": 7,
          "Document": "fat_cholesterol.html",
          "NutritionItemID": 2,
          "NutritionItemName": "Cholesterol",
          "Predriscriptor": "",
          "Quantity": 145,
          "Unit": "mg        "
        },
        {
          "DisplayOrder": 8,
          "Document": "sodium.html",
          "NutritionItemID": 8,
          "NutritionItemName": "Sodium",
          "Predriscriptor": "",
          "Quantity": 310,
          "Unit": "mg        "
        },
        {
          "DisplayOrder": 10,
          "Document": "carbs_sugars_fiber.html",
          "NutritionItemID": 1,
          "NutritionItemName": "Carbohydrate",
          "Predriscriptor": "",
          "Quantity": 48,
          "Unit": "g         "
        },
        {
          "DisplayOrder": 11,
          "Document": "carbs_sugars_fiber.html",
          "NutritionItemID": 7,
          "NutritionItemName": "Dietary fiber",
          "Predriscriptor": "",
          "Quantity": 2,
          "Unit": "g         "
        },
        {
          "DisplayOrder": 12,
          "Document": "carbs_sugars_fiber.html",
          "NutritionItemID": 5,
          "NutritionItemName": "Sugars",
          "Predriscriptor": "",
          "Quantity": 4,
          "Unit": "g         "
        },
        {
          "DisplayOrder": 13,
          "Document": null,
          "NutritionItemID": 6,
          "NutritionItemName": "Protein",
          "Predriscriptor": "",
          "Quantity": 21,
          "Unit": "g         "
        },
        {
          "DisplayOrder": 14,
          "Document": null,
          "NutritionItemID": 10,
          "NutritionItemName": "Vitamin A",
          "Predriscriptor": "",
          "Quantity": 15,
          "Unit": "%DV       "
        },
        {
          "DisplayOrder": 15,
          "Document": null,
          "NutritionItemID": 11,
          "NutritionItemName": "Vitamin C",
          "Predriscriptor": "",
          "Quantity": 35,
          "Unit": "%DV       "
        },
        {
          "DisplayOrder": 16,
          "Document": "dairy_and_calcium.html",
          "NutritionItemID": 12,
          "NutritionItemName": "Calcium",
          "Predriscriptor": "",
          "Quantity": 6,
          "Unit": "%DV       "
        },
        {
          "DisplayOrder": 17,
          "Document": null,
          "NutritionItemID": 13,
          "NutritionItemName": "Iron",
          "Predriscriptor": "",
          "Quantity": 30,
          "Unit": "%DV       "
        }
      ],
      "NutritionServingText": null,
      "PrepStepImage": null,
      "PreparationDescription": "Cook and stir green onions and ginger in hot oil in large skillet on medium-high heat 3 min.  Add shrimp; cook 3 to 4 min. or until shrimp turn  pink.$Stir chicken broth into cornstarch.  Add to shrimp mixture along with the oranges and water chestnuts; mix well.  Reduce heat to medium-low; cover.  Simmer until slightly thickened and heated through, stirring frequently.$Serve over the rice.",
      "PreparationPreText": null,
      "PreparationSteps": [
        {
          "Description": "Cook and stir green onions and ginger in hot oil in large skillet on medium-high heat 3 min.  Add shrimp; cook 3 to 4 min. or until shrimp turn  pink.",
          "PreparationStepImage": {
            "PictureFormats": [],
            "author": null,
            "id": null,
            "imageType": null,
            "mimeType": null,
            "publicationDate": null,
            "status": null,
            "title": null,
            "type": null
          },
          "Sequence": 1
        },
        {
          "Description": "Stir chicken broth into cornstarch.  Add to shrimp mixture along with the oranges and water chestnuts; mix well.  Reduce heat to medium-low; cover.  Simmer until slightly thickened and heated through, stirring frequently.",
          "PreparationStepImage": {
            "PictureFormats": [],
            "author": null,
            "id": null,
            "imageType": null,
            "mimeType": null,
            "publicationDate": null,
            "status": null,
            "title": null,
            "type": null
          },
          "Sequence": 2
        },
        {
          "Description": "Serve over the rice.",
          "PreparationStepImage": {
            "PictureFormats": [],
            "author": null,
            "id": null,
            "imageType": null,
            "mimeType": null,
            "publicationDate": null,
            "status": null,
            "title": null,
            "type": null
          },
          "Sequence": 3
        }
      ],
      "PreparationTime": 15,
      "Promotion": null,
      "Ratings": {
        "TotalCount": 12,
        "PageCount": 10,
        "PageNo": 1,
        "Rating": [
          {
            "Comment": "I think it looks great but was to bland. I think it needs some flavor help. I also added some swiss chard and soy sauce with extra ginger. I think that some red pepp ers flakes would add the punch it needs. Also need time I will add the oranges at the very last just to heat them up because they fall apart to fast. ",
            "DisplayName": true,
            "RatingValue": 3,
            "SubmitDate": "/Date(1242795718000-0500)/",
            "UpdatedDate": "/Date(1242795718000-0500)/",
            "UserName": "marypolander"
          },
          {
            "Comment": "The sauce for this recipe was very bland.  I tried adding extra ginger as well as some soy sauce, honey, and red pepper flakes to punch it up, but it was too little to late.  The mandarin oranges disintegrated with the extra cooking time, so if you're trying this recipe, be sure to add them right before serving.",
            "DisplayName": false,
            "RatingValue": 2,
            "SubmitDate": "/Date(1171054924000-0600)/",
            "UpdatedDate": "/Date(1171054924000-0600)/",
            "UserName": "lefeverce"
          },
          {
            "Comment": "Too much liquid.  I added bamboo shoots, carrots, and peppers, but there was too much broth and not enough flavor.  Excellent texture and blending of nutrients across the meal.  I might try more ginger and more asian spices.",
            "DisplayName": true,
            "RatingValue": 3,
            "SubmitDate": "/Date(1169252032000-0600)/",
            "UpdatedDate": "/Date(1169252032000-0600)/",
            "UserName": "mistressphyllis"
          },
          {
            "Comment": "Sounds interesting. I would have to delete the mandarin oranges, but the rest is okay.",
            "DisplayName": false,
            "RatingValue": 3,
            "SubmitDate": "/Date(1035491968000-0500)/",
            "UpdatedDate": "/Date(1035491968000-0500)/",
            "UserName": "Tookrafty"
          },
          {
            "Comment": "",
            "DisplayName": false,
            "RatingValue": 4,
            "SubmitDate": "/Date(1034899115000-0500)/",
            "UpdatedDate": "/Date(1034899115000-0500)/",
            "UserName": "regib93"
          },
          {
            "Comment": "",
            "DisplayName": false,
            "RatingValue": 3,
            "SubmitDate": "/Date(1034524420000-0500)/",
            "UpdatedDate": "/Date(1034524420000-0500)/",
            "UserName": "carolann365"
          },
          {
            "Comment": "I will make this soon@",
            "DisplayName": false,
            "RatingValue": 4,
            "SubmitDate": "/Date(1034163560000-0500)/",
            "UpdatedDate": "/Date(1034163560000-0500)/",
            "UserName": "cjtrains"
          },
          {
            "Comment": "",
            "DisplayName": false,
            "RatingValue": 3,
            "SubmitDate": "/Date(1034021067000-0500)/",
            "UpdatedDate": "/Date(1034021067000-0500)/",
            "UserName": "craignakamura"
          },
          {
            "Comment": "Sounds easy and good. I will try this!",
            "DisplayName": false,
            "RatingValue": 4,
            "SubmitDate": "/Date(1033862744000-0500)/",
            "UpdatedDate": "/Date(1033862744000-0500)/",
            "UserName": "roylynn"
          },
          {
            "Comment": "",
            "DisplayName": false,
            "RatingValue": 4,
            "SubmitDate": "/Date(1033519525000-0500)/",
            "UpdatedDate": "/Date(1033519525000-0500)/",
            "UserName": "tinkerbell5676"
          }
        ]
      },
      "RecipeDisplayFormatId": 5,
      "RecipeId": 54570,
      "RecipeName": "Shanghai Shrimp",
      "RecipeType": 0,
      "RelatedData": {
        "RelatedBrands": null,
        "RelatedProducts": null,
        "RelatedRecipes": {
          "DefaultTopCount": 5,
          "Recipe": [
            {
              "AverageRating": 5,
              "HasVideo": false,
              "IsHealthyLiving": true,
              "NumberOfRatings": 5,
              "PhotoName": "124719.jpg",
              "PhotoUrl": "http://assets.kraftfoods.com/recipe_images/opendeploy/124719.jpg",
              "RecipeId": 124719,
              "RecipeName": "Dilled Shrimp Salad",
              "SEOName": "dilled-shrimp-salad-124719",
              "ThumbnailPhoto": null
            },
            {
              "AverageRating": 4.2,
              "HasVideo": false,
              "IsHealthyLiving": false,
              "NumberOfRatings": 13,
              "PhotoName": "118674.jpg",
              "PhotoUrl": "http://assets.kraftfoods.com/recipe_images/opendeploy/118674.jpg",
              "RecipeId": 118674,
              "RecipeName": "Creamy Lemon-Shrimp Pasta",
              "SEOName": "creamy-lemon-shrimp-pasta-118674",
              "ThumbnailPhoto": null
            },
            {
              "AverageRating": 4.3,
              "HasVideo": false,
              "IsHealthyLiving": true,
              "NumberOfRatings": 69,
              "PhotoName": "Gingered_Shrimp_with_Cashews.jpg",
              "PhotoUrl": "http://assets.kraftfoods.com/recipe_images/opendeploy/Gingered_Shrimp_with_Cashews.jpg",
              "RecipeId": 54525,
              "RecipeName": "Chinese Shrimp Recipe",
              "SEOName": "chinese-shrimp-recipe-54525",
              "ThumbnailPhoto": null
            },
            {
              "AverageRating": 4.4,
              "HasVideo": false,
              "IsHealthyLiving": true,
              "NumberOfRatings": 17,
              "PhotoName": "Shore_Region_Shrimp_Kabobs.jpg",
              "PhotoUrl": "http://assets.kraftfoods.com/recipe_images/opendeploy/Shore_Region_Shrimp_Kabobs.jpg",
              "RecipeId": 53582,
              "RecipeName": "Shore Region Grilled Shrimp Skewers",
              "SEOName": "shore-region-grilled-shrimp-skewers-53582",
              "ThumbnailPhoto": null
            },
            {
              "AverageRating": 4,
              "HasVideo": false,
              "IsHealthyLiving": false,
              "NumberOfRatings": 1,
              "PhotoName": "187834.jpg",
              "PhotoUrl": "http://assets.kraftfoods.com/recipe_images/opendeploy/187834.jpg",
              "RecipeId": 187834,
              "RecipeName": "BBQ Shrimp and Grits",
              "SEOName": "bbq-shrimp-grits-187834",
              "ThumbnailPhoto": null
            }
          ],
          "TotalCount": 165
        }
      },
      "RiseIngredients": [],
      "RiseTaxonomy": [],
      "Riserecipe": [],
      "RomanceText": "Serve up this Shanghai Shrimp and your family will wonder when you found time to take a Chinese cooking class.",
      "SEOName": "shanghai-shrimp-54570",
      "Tips": [
        {
          "RecipeId": 54570,
          "Sequence": 10,
          "TipDescription": "Prepare as directed, substituting 1 lb. boneless skinless chicken breasts, cut into 2-inch strips, for the shrimp. ",
          "TipID": 1,
          "TipName": "Shanghai Chicken"
        }
      ],
      "TotalTime": 25,
      "TradeMarkInfo": null,
      "Video": [],
      "Yield": "Makes 6 servings."
    }
  ]
}