{
  "Metadata": {
    "PageCount": 1,
    "PageNo": 0,
    "TotalCount": 0
  },
  "Recipes": [
    {
      "AdServingKeywords": "Cheese,Cream Cheese,Dairy,Eggs,Garlic,Onion,Parmesan,Sour Cream,Spinach,Vegetables,Side Dish,All Seasons,Breakstones,Knudsen,Kraft Grated Cheese,Philadelphia",
      "AlternateLanguageRecipes": [],
      "Assets": [],
      "AverageRating": 0,
      "BrandId": 1,
      "Branding": null,
      "CSSSkins": null,
      "CarbCounter": null,
      "Categories": [
        {
          "CategoryID": 9,
          "CategoryName": "Salads/Side Dishes",
          "CategoryRank": 13,
          "SubCategoryID": 39,
          "SubCategoryName": "Vegetables Side Dishes",
          "SubCategoryRank": 200
        },
        {
          "CategoryID": 11,
          "CategoryName": "Primary",
          "CategoryRank": 0,
          "SubCategoryID": 99,
          "SubCategoryName": "Side Dishes",
          "SubCategoryRank": 90
        },
        {
          "CategoryID": 757,
          "CategoryName": "Vegetables & Vegetarian Meals",
          "CategoryRank": 11,
          "SubCategoryID": 2569,
          "SubCategoryName": "Entrée",
          "SubCategoryRank": 1
        },
        {
          "CategoryID": 757,
          "CategoryName": "Vegetables & Vegetarian Meals",
          "CategoryRank": 11,
          "SubCategoryID": 2571,
          "SubCategoryName": "Side / Other",
          "SubCategoryRank": 1
        }
      ],
      "Classifications": [],
      "ComplimentaryRecipes": null,
      "CookingMethod": null,
      "Copyright": null,
      "Courses": [
        "Main dishes",
        "Salads & sides"
      ],
      "DietExchange": null,
      "DishDetails": [],
      "EndDate": "/Date(-62135575200000-0600)/",
      "HasVideo": false,
      "Ingredients": [
        {
          "FullMeasure": "1 Tbsp.",
          "FullWeight": "",
          "IngredientGridHeaders": null,
          "IngredientID": 863,
          "IngredientName": "butter",
          "IngredientStep": 10,
          "LanguageId": 0,
          "PostPreparation": "",
          "PrePreparation": "",
          "QuantityNum": 1,
          "QuantityText": "1",
          "QuantityUnit": "Tbsp.",
          "RecipeIngredientID": 5247720,
          "TrialMeasure": "",
          "TrialWeight": ""
        },
        {
          "FullMeasure": "1 small",
          "FullWeight": "",
          "IngredientGridHeaders": null,
          "IngredientID": 1370,
          "IngredientName": "onion",
          "IngredientStep": 20,
          "LanguageId": 0,
          "PostPreparation": ", chopped",
          "PrePreparation": " ",
          "QuantityNum": 1,
          "QuantityText": "1",
          "QuantityUnit": "small",
          "RecipeIngredientID": 5247714,
          "TrialMeasure": "",
          "TrialWeight": ""
        },
        {
          "FullMeasure": "2 pkg.",
          "FullWeight": "",
          "IngredientGridHeaders": null,
          "IngredientID": 1136,
          "IngredientName": "frozen chopped spinach",
          "IngredientStep": 30,
          "LanguageId": 0,
          "PostPreparation": ", thawed, well drained",
          "PrePreparation": "(10 oz. each)",
          "QuantityNum": 2,
          "QuantityText": "2",
          "QuantityUnit": "pkg.",
          "RecipeIngredientID": 5247712,
          "TrialMeasure": "",
          "TrialWeight": ""
        },
        {
          "FullMeasure": "1/2 tsp.",
          "FullWeight": "",
          "IngredientGridHeaders": null,
          "IngredientID": 1177,
          "IngredientName": "garlic powder",
          "IngredientStep": 40,
          "LanguageId": 0,
          "PostPreparation": "",
          "PrePreparation": "",
          "QuantityNum": 0,
          "QuantityText": "1/2",
          "QuantityUnit": "tsp.",
          "RecipeIngredientID": 5247719,
          "TrialMeasure": "",
          "TrialWeight": ""
        },
        {
          "FullMeasure": "1/4 tsp.",
          "FullWeight": "",
          "IngredientGridHeaders": null,
          "IngredientID": 1388,
          "IngredientName": "paprika",
          "IngredientStep": 50,
          "LanguageId": 0,
          "PostPreparation": "",
          "PrePreparation": "",
          "QuantityNum": 0,
          "QuantityText": "1/4",
          "QuantityUnit": "tsp.",
          "RecipeIngredientID": 5247717,
          "TrialMeasure": "",
          "TrialWeight": ""
        },
        {
          "FullMeasure": "1/8 tsp.",
          "FullWeight": "",
          "IngredientGridHeaders": null,
          "IngredientID": 1213,
          "IngredientName": "ground black pepper",
          "IngredientStep": 60,
          "LanguageId": 0,
          "PostPreparation": "",
          "PrePreparation": "",
          "QuantityNum": 0,
          "QuantityText": "1/8",
          "QuantityUnit": "tsp.",
          "RecipeIngredientID": 5247718,
          "TrialMeasure": "",
          "TrialWeight": ""
        },
        {
          "FullMeasure": "1 pkg.",
          "FullWeight": "",
          "IngredientGridHeaders": null,
          "IngredientID": 19889,
          "IngredientName": "PHILADELPHIA Neufchatel Cheese",
          "IngredientStep": 70,
          "LanguageId": 0,
          "PostPreparation": ", softened",
          "PrePreparation": "(8 oz.)",
          "QuantityNum": 1,
          "QuantityText": "1",
          "QuantityUnit": "pkg.",
          "RecipeIngredientID": 5247713,
          "TrialMeasure": "",
          "TrialWeight": ""
        },
        {
          "FullMeasure": "1 container",
          "FullWeight": "",
          "IngredientGridHeaders": null,
          "IngredientID": 3305,
          "IngredientName": "BREAKSTONE'S Reduced Fat or KNUDSEN Light Sour Cream",
          "IngredientStep": 80,
          "LanguageId": 0,
          "PostPreparation": "",
          "PrePreparation": "(8 oz.)",
          "QuantityNum": 1,
          "QuantityText": "1",
          "QuantityUnit": "container",
          "RecipeIngredientID": 5247715,
          "TrialMeasure": "",
          "TrialWeight": ""
        },
        {
          "FullMeasure": "3",
          "FullWeight": "",
          "IngredientGridHeaders": null,
          "IngredientID": 1060,
          "IngredientName": "egg",
          "IngredientStep": 90,
          "LanguageId": 0,
          "PostPreparation": "s",
          "PrePreparation": "",
          "QuantityNum": 3,
          "QuantityText": "3",
          "QuantityUnit": "",
          "RecipeIngredientID": 5247716,
          "TrialMeasure": "",
          "TrialWeight": ""
        },
        {
          "FullMeasure": "2 Tbsp.",
          "FullWeight": "",
          "IngredientGridHeaders": null,
          "IngredientID": 397,
          "IngredientName": "KRAFT Grated Parmesan Cheese",
          "IngredientStep": 100,
          "LanguageId": 0,
          "PostPreparation": "",
          "PrePreparation": "",
          "QuantityNum": 2,
          "QuantityText": "2",
          "QuantityUnit": "Tbsp.",
          "RecipeIngredientID": 5247721,
          "TrialMeasure": "",
          "TrialWeight": ""
        }
      ],
      "IsHealthyLiving": false,
      "KRLId": "504571",
      "KeyIngredients": [
        "Cheese",
        "Cream Cheese",
        "Dairy",
        "Eggs",
        "Garlic",
        "Onion",
        "Parmesan",
        "Spinach",
        "Vegetables"
      ],
      "Keywords": "onions,paprika,parmesan cheese,PHILADELPHIA Cream Cheese,BREAKSTONE'S Sour Cream,cheese,cream cheese,eggs,KNUDSEN Sour Cream,KRAFT Parmesan Cheese,spinach,butter,PHILADELPHIA Reduced Fat,garlic powder,sour cream-reduced fat,cream cheese-reduced fat,Neufchatel cheese,PHILADELPHIA Neufchatel Cheese,Side Dish,All Seasons",
      "LanguageId": 1,
      "LifeStyles": [],
      "NumberOfIngredients": 10,
      "NumberOfRatings": 0,
      "NumberOfRatingsWithComments": "0",
      "NumberOfServings": "8 servings",
      "NumberOfTrialServings": "",
      "NutritionBonus": null,
      "NutritionExchangeItemId": 0,
      "NutritionGridItems": null,
      "NutritionItems": [
        {
          "DisplayOrder": 1,
          "Document": null,
          "NutritionItemID": 3,
          "NutritionItemName": "Calories",
          "Predriscriptor": "",
          "Quantity": 180,
          "Unit": "          "
        },
        {
          "DisplayOrder": 2,
          "Document": "fat_cholesterol.html",
          "NutritionItemID": 4,
          "NutritionItemName": "Total fat",
          "Predriscriptor": "",
          "Quantity": 13,
          "Unit": "g         "
        },
        {
          "DisplayOrder": 3,
          "Document": "fat_cholesterol.html",
          "NutritionItemID": 9,
          "NutritionItemName": "Saturated fat",
          "Predriscriptor": "",
          "Quantity": 8,
          "Unit": "g         "
        },
        {
          "DisplayOrder": 7,
          "Document": "fat_cholesterol.html",
          "NutritionItemID": 2,
          "NutritionItemName": "Cholesterol",
          "Predriscriptor": "",
          "Quantity": 105,
          "Unit": "mg        "
        },
        {
          "DisplayOrder": 8,
          "Document": "sodium.html",
          "NutritionItemID": 8,
          "NutritionItemName": "Sodium",
          "Predriscriptor": "",
          "Quantity": 260,
          "Unit": "mg        "
        },
        {
          "DisplayOrder": 10,
          "Document": "carbs_sugars_fiber.html",
          "NutritionItemID": 1,
          "NutritionItemName": "Carbohydrate",
          "Predriscriptor": "",
          "Quantity": 7,
          "Unit": "g         "
        },
        {
          "DisplayOrder": 11,
          "Document": "carbs_sugars_fiber.html",
          "NutritionItemID": 7,
          "NutritionItemName": "Dietary fiber",
          "Predriscriptor": "",
          "Quantity": 2,
          "Unit": "g         "
        },
        {
          "DisplayOrder": 12,
          "Document": "carbs_sugars_fiber.html",
          "NutritionItemID": 5,
          "NutritionItemName": "Sugars",
          "Predriscriptor": "",
          "Quantity": 3,
          "Unit": "g         "
        },
        {
          "DisplayOrder": 13,
          "Document": null,
          "NutritionItemID": 6,
          "NutritionItemName": "Protein",
          "Predriscriptor": "",
          "Quantity": 10,
          "Unit": "g         "
        },
        {
          "DisplayOrder": 14,
          "Document": null,
          "NutritionItemID": 10,
          "NutritionItemName": "Vitamin A",
          "Predriscriptor": "",
          "Quantity": 180,
          "Unit": "%DV       "
        },
        {
          "DisplayOrder": 15,
          "Document": null,
          "NutritionItemID": 11,
          "NutritionItemName": "Vitamin C",
          "Predriscriptor": "",
          "Quantity": 4,
          "Unit": "%DV       "
        },
        {
          "DisplayOrder": 16,
          "Document": "dairy_and_calcium.html",
          "NutritionItemID": 12,
          "NutritionItemName": "Calcium",
          "Predriscriptor": "",
          "Quantity": 20,
          "Unit": "%DV       "
        },
        {
          "DisplayOrder": 17,
          "Document": null,
          "NutritionItemID": 13,
          "NutritionItemName": "Iron",
          "Predriscriptor": "",
          "Quantity": 10,
          "Unit": "%DV       "
        }
      ],
      "NutritionServingText": " ",
      "PrepStepImage": null,
      "PreparationDescription": "Melt butter in medium skillet on medium heat.  Add onions; cook and stir 5 min. or until crisp-tender.  Remove from heat; stir in spinach and seasonings.$Beat Neufchatel, sour cream and eggs  in large bowl with mixer until blended.  Add spinach mixture; mix well.   $Spoon into 9-inch square pan sprayed with cooking spray; cover.$Bake 30 min.  Sprinkle with Parmesan; bake, uncovered, 15 min. or until heated through.",
      "PreparationPreText": "Heat oven to 325°F.",
      "PreparationSteps": [
        {
          "Description": "Melt butter in medium skillet on medium heat.  Add onions; cook and stir 5 min. or until crisp-tender.  Remove from heat; stir in spinach and seasonings.",
          "PreparationStepImage": {
            "PictureFormats": [],
            "author": null,
            "id": null,
            "imageType": null,
            "mimeType": null,
            "publicationDate": null,
            "status": null,
            "title": null,
            "type": null
          },
          "Sequence": 1
        },
        {
          "Description": "Beat Neufchatel, sour cream and eggs  in large bowl with mixer until blended.  Add spinach mixture; mix well.   ",
          "PreparationStepImage": {
            "PictureFormats": [],
            "author": null,
            "id": null,
            "imageType": null,
            "mimeType": null,
            "publicationDate": null,
            "status": null,
            "title": null,
            "type": null
          },
          "Sequence": 2
        },
        {
          "Description": "Spoon into 9-inch square pan sprayed with cooking spray; cover.",
          "PreparationStepImage": {
            "PictureFormats": [],
            "author": null,
            "id": null,
            "imageType": null,
            "mimeType": null,
            "publicationDate": null,
            "status": null,
            "title": null,
            "type": null
          },
          "Sequence": 3
        },
        {
          "Description": "Bake 30 min.  Sprinkle with Parmesan; bake, uncovered, 15 min. or until heated through.",
          "PreparationStepImage": {
            "PictureFormats": [],
            "author": null,
            "id": null,
            "imageType": null,
            "mimeType": null,
            "publicationDate": null,
            "status": null,
            "title": null,
            "type": null
          },
          "Sequence": 4
        }
      ],
      "PreparationTime": 20,
      "Promotion": null,
      "Ratings": {
        "TotalCount": 0,
        "PageCount": 10,
        "PageNo": 1,
        "Rating": []
      },
      "RecipeDisplayFormatId": 5,
      "RecipeId": 186211,
      "RecipeName": "Parmesan & Spinach Bake",
      "RecipeType": 0,
      "RelatedData": {
        "RelatedBrands": null,
        "RelatedProducts": null,
        "RelatedRecipes": {
          "DefaultTopCount": 5,
          "Recipe": [
            {
              "AverageRating": 4.7,
              "HasVideo": false,
              "IsHealthyLiving": true,
              "NumberOfRatings": 11,
              "PhotoName": "137594.jpg",
              "PhotoUrl": "http://assets.kraftfoods.com/recipe_images/opendeploy/137594.jpg",
              "RecipeId": 137594,
              "RecipeName": "Italian Parmesan Chicken with Tuscan Spinach Salad",
              "SEOName": "italian-parmesan-chicken-tuscan-spinach-salad-137594",
              "ThumbnailPhoto": null
            },
            {
              "AverageRating": 4.8,
              "HasVideo": true,
              "IsHealthyLiving": false,
              "NumberOfRatings": 6,
              "PhotoName": "120188.jpg",
              "PhotoUrl": "http://assets.kraftfoods.com/recipe_images/opendeploy/120188.jpg",
              "RecipeId": 120188,
              "RecipeName": "Savory Parmesan Spinach-Artichoke Dip",
              "SEOName": "savory-parmesan-spinach-artichoke-dip-120188",
              "ThumbnailPhoto": null
            },
            {
              "AverageRating": 4,
              "HasVideo": false,
              "IsHealthyLiving": true,
              "NumberOfRatings": 10,
              "PhotoName": "Spinach_Mozzarella_Topper.jpg",
              "PhotoUrl": "http://assets.kraftfoods.com/recipe_images/opendeploy/Spinach_Mozzarella_Topper.jpg",
              "RecipeId": 57420,
              "RecipeName": "Spinach Mozzarella Bites",
              "SEOName": "spinach-mozzarella-bites-57420",
              "ThumbnailPhoto": null
            },
            {
              "AverageRating": 4.7,
              "HasVideo": false,
              "IsHealthyLiving": false,
              "NumberOfRatings": 6,
              "PhotoName": "Pork-Chops-Milanese-Creamed-Spinach-59932.jpg",
              "PhotoUrl": "http://assets.kraftfoods.com/recipe_images/opendeploy/Pork-Chops-Milanese-Creamed-Spinach-59932.jpg",
              "RecipeId": 124723,
              "RecipeName": "Pork Chops Milanese with Creamed Spinach",
              "SEOName": "pork-chops-milanese-creamed-spinach-124723",
              "ThumbnailPhoto": null
            },
            {
              "AverageRating": 4,
              "HasVideo": false,
              "IsHealthyLiving": true,
              "NumberOfRatings": 7,
              "PhotoName": "Smokey_Almond-Spinach_Dip.jpg",
              "PhotoUrl": "http://assets.kraftfoods.com/recipe_images/opendeploy/Smokey_Almond-Spinach_Dip.jpg",
              "RecipeId": 70057,
              "RecipeName": "Smokey Almond-Spinach Dip",
              "SEOName": "smokey-almond-spinach-dip-70057",
              "ThumbnailPhoto": null
            }
          ],
          "TotalCount": 3860
        }
      },
      "RiseIngredients": [],
      "RiseTaxonomy": [],
      "Riserecipe": [
        {
          "GRIN": 504571,
          "RecipeId": 186211,
          "RecipeIndustrySector": "Retail",
          "RecipeType": "Internal"
        }
      ],
      "RomanceText": "This delish spinach bake is a bit like a deep-dish quiche—if that quiche contained both Parmesan and Neufchatel cheeses, plus sour cream for richness.",
      "SEOName": "parmesan-spinach-bake-186211",
      "Tips": [
        {
          "RecipeId": 186211,
          "Sequence": 10,
          "TipDescription": "Serve this versatile cheesy vegetable side along with a side salad your favorite cooked lean meat, fish or poultry.",
          "TipID": 2,
          "TipName": "Size Wise"
        },
        {
          "RecipeId": 186211,
          "Sequence": 20,
          "TipDescription": "To prepare this recipe for Passover, select food products that are kosher for Passover as needed. Consult with your rabbi if you have any questions.",
          "TipID": 4614,
          "TipName": "Passover Celebrations"
        },
        {
          "RecipeId": 186211,
          "Sequence": 30,
          "TipDescription": "Substitute frozen chopped kale for the spinach.",
          "TipID": 1,
          "TipName": "Substitute"
        }
      ],
      "TotalTime": 65,
      "TradeMarkInfo": null,
      "Video": [],
      "Yield": "8 servings"
    }
  ]
}