{
  "Metadata": {
    "PageCount": 1,
    "PageNo": 0,
    "TotalCount": 0
  },
  "Recipes": [
    {
      "AdServingKeywords": "Bacon,Meat,Onion,Vegetables,Appetizer,Baked,Easy,Quick bread,All Seasons,Cocktail party,Cooking for a Crowd,Timesaver,Oscar Mayer",
      "AlternateLanguageRecipes": [],
      "Assets": [
        {
          "PictureFormats": [
            {
              "rendition": "640x428",
              "url": "http://assets.kraftfoods.com/recipe_images/opendeploy/52460_640x428.jpg"
            },
            {
              "rendition": "600x250",
              "url": "http://assets.kraftfoods.com/recipe_images/opendeploy/52460_600x250.jpg"
            },
            {
              "rendition": "290x194",
              "url": "http://assets.kraftfoods.com/recipe_images/opendeploy/52460_290x194.jpg"
            }
          ],
          "author": null,
          "id": "2",
          "imageType": "Primary",
          "mimeType": "image/jpeg",
          "publicationDate": null,
          "status": "1",
          "title": "52460",
          "type": "image"
        },
        {
          "PictureFormats": [
            {
              "rendition": "140x90",
              "url": "http://assets.kraftfoods.com/recipe_images/opendeploy/52460_KRL_K926V0_OR1_OH_140x90.jpg"
            },
            {
              "rendition": "300x250",
              "url": "http://assets.kraftfoods.com/recipe_images/opendeploy/52460_KRL_K926V0_OR1_OH_300x250.jpg"
            },
            {
              "rendition": "960x300",
              "url": "http://assets.kraftfoods.com/recipe_images/opendeploy/52460_KRL_K926V0_OR1_OH_960x300.jpg"
            }
          ],
          "author": null,
          "id": "2",
          "imageType": "Primary",
          "mimeType": "image/jpeg",
          "publicationDate": null,
          "status": "1",
          "title": "52460_KRL_K926V0_OR1_OH",
          "type": "image"
        },
        {
          "PictureFormats": [
            {
              "rendition": "140x90",
              "url": "http://assets.kraftfoods.com/recipe_images/opendeploy/52460_KRL_%20K926%20v0%20_OR1_CR1_140x90.jpg"
            },
            {
              "rendition": "300x250",
              "url": "http://assets.kraftfoods.com/recipe_images/opendeploy/52460_KRL_%20K926%20v0%20_OR1_CR1_300x250.jpg"
            },
            {
              "rendition": "960x300",
              "url": "http://assets.kraftfoods.com/recipe_images/opendeploy/52460_KRL_%20K926%20v0%20_OR1_CR1_960x300.jpg"
            }
          ],
          "author": null,
          "id": "2",
          "imageType": "Primary",
          "mimeType": "image/jpeg",
          "publicationDate": null,
          "status": "1",
          "title": "52460_KRL_ K926 v0 _OR1_CR1",
          "type": "image"
        },
        {
          "PictureFormats": [
            {
              "rendition": "300x200",
              "url": "http://assets.kraftfoods.com/recipe_images/52460.jpg"
            }
          ],
          "author": null,
          "id": "0",
          "imageType": "LANDSCAPE",
          "mimeType": "image/jpeg",
          "publicationDate": null,
          "status": "1",
          "title": "52460.jpg",
          "type": "image"
        }
      ],
      "AverageRating": 4.2,
      "BrandId": 1,
      "Branding": null,
      "CSSSkins": null,
      "CarbCounter": null,
      "Categories": [
        {
          "CategoryID": 6,
          "CategoryName": "Appetizers/Snacks",
          "CategoryRank": 1,
          "SubCategoryID": 23,
          "SubCategoryName": "Other Hot Appetizers",
          "SubCategoryRank": 90
        },
        {
          "CategoryID": 11,
          "CategoryName": "Primary",
          "CategoryRank": 0,
          "SubCategoryID": 96,
          "SubCategoryName": "Appetizers & Snacks",
          "SubCategoryRank": 10
        },
        {
          "CategoryID": 748,
          "CategoryName": "Finger Food, Dips & Appetisers",
          "CategoryRank": 2,
          "SubCategoryID": 2523,
          "SubCategoryName": "Hot",
          "SubCategoryRank": 1
        }
      ],
      "Classifications": [],
      "ComplimentaryRecipes": [
        {
          "AverageRating": 0,
          "HasVideo": false,
          "IsHealthyLiving": false,
          "NumberOfRatings": 0,
          "PhotoName": null,
          "PhotoUrl": null,
          "RecipeId": 55014,
          "RecipeName": null,
          "SEOName": "creamy-ranch-dip-55014",
          "ThumbnailPhoto": "55014.jpg"
        }
      ],
      "CookingMethod": null,
      "Copyright": null,
      "Courses": [
        "Appetizers"
      ],
      "DietExchange": null,
      "DishDetails": [
        {
          "Text": "appetizers",
          "Url": "/recipes/appetizers/main.aspx"
        },
        {
          "Text": "cold appetizers",
          "Url": "/recipes/appetizers/coldappetizers.aspx"
        },
        {
          "Text": "cheese plates",
          "Url": "/recipes/appetizers/entertainingcheeseplates.aspx"
        },
        {
          "Text": "hot appetizers",
          "Url": "/recipes/appetizers/hotappetizers.aspx"
        },
        {
          "Text": "quick appetizers",
          "Url": "/recipes/appetizers/quick.aspx"
        },
        {
          "Text": "salsa recipes",
          "Url": "/recipes/appetizers/salsa-recipes/main.aspx"
        },
        {
          "Text": "seafood appetizers",
          "Url": "/recipes/dinner/seafood/appetizers/main.aspx"
        },
        {
          "Text": "dip recipes",
          "Url": "/recipes/appetizers/dip-recipes/main.aspx"
        }
      ],
      "EndDate": "/Date(-62135575200000-0600)/",
      "HasVideo": false,
      "Ingredients": [
        {
          "FullMeasure": "10 slices",
          "FullWeight": "",
          "IngredientGridHeaders": null,
          "IngredientID": 589,
          "IngredientName": "OSCAR MAYER Center Cut Bacon",
          "IngredientStep": 10,
          "LanguageId": 0,
          "PostPreparation": ", crumbled",
          "PrePreparation": "cooked",
          "QuantityNum": 10,
          "QuantityText": "10",
          "QuantityUnit": "slices",
          "RecipeIngredientID": 6467453,
          "TrialMeasure": "",
          "TrialWeight": ""
        },
        {
          "FullMeasure": "1 small",
          "FullWeight": "",
          "IngredientGridHeaders": null,
          "IngredientID": 1370,
          "IngredientName": "onion",
          "IngredientStep": 20,
          "LanguageId": 0,
          "PostPreparation": ", finely chopped",
          "PrePreparation": "",
          "QuantityNum": 1,
          "QuantityText": "1",
          "QuantityUnit": "small",
          "RecipeIngredientID": 6467454,
          "TrialMeasure": "",
          "TrialWeight": ""
        },
        {
          "FullMeasure": "1/4 cup",
          "FullWeight": "",
          "IngredientGridHeaders": null,
          "IngredientID": 864,
          "IngredientName": "butter or margarine",
          "IngredientStep": 30,
          "LanguageId": 0,
          "PostPreparation": ", softened",
          "PrePreparation": "",
          "QuantityNum": 0,
          "QuantityText": "1/4",
          "QuantityUnit": "cup",
          "RecipeIngredientID": 6467450,
          "TrialMeasure": "",
          "TrialWeight": ""
        },
        {
          "FullMeasure": "2 Tbsp.",
          "FullWeight": "",
          "IngredientGridHeaders": null,
          "IngredientID": 1119,
          "IngredientName": "fresh parsley",
          "IngredientStep": 40,
          "LanguageId": 0,
          "PostPreparation": "",
          "PrePreparation": "chopped",
          "QuantityNum": 2,
          "QuantityText": "2",
          "QuantityUnit": "Tbsp.",
          "RecipeIngredientID": 6467451,
          "TrialMeasure": "",
          "TrialWeight": ""
        },
        {
          "FullMeasure": "2 cans",
          "FullWeight": "",
          "IngredientGridHeaders": null,
          "IngredientID": 1798,
          "IngredientName": "refrigerated crescent dinner rolls",
          "IngredientStep": 50,
          "LanguageId": 0,
          "PostPreparation": "",
          "PrePreparation": "(8 oz. each)",
          "QuantityNum": 2,
          "QuantityText": "2",
          "QuantityUnit": "cans",
          "RecipeIngredientID": 6467452,
          "TrialMeasure": "",
          "TrialWeight": ""
        }
      ],
      "IsHealthyLiving": false,
      "KRLId": "501960",
      "KeyIngredients": [
        "Bacon",
        "Bread",
        "Meat",
        "Onion",
        "Vegetables"
      ],
      "Keywords": "onions,OSCAR MAYER Bacon,pork,bacon,crescent rolls-refrigerated,meat,butter,margarine,parsley,Appetizer,Easy,Baked,All Seasons,Cocktail party,Quick bread,Cooking for a Crowd,Timesaver",
      "LanguageId": 1,
      "LifeStyles": [],
      "NumberOfIngredients": 5,
      "NumberOfRatings": 114,
      "NumberOfRatingsWithComments": "99",
      "NumberOfServings": "32 servings",
      "NumberOfTrialServings": "",
      "NutritionBonus": null,
      "NutritionExchangeItemId": 0,
      "NutritionGridItems": null,
      "NutritionItems": [
        {
          "DisplayOrder": 1,
          "Document": null,
          "NutritionItemID": 3,
          "NutritionItemName": "Calories",
          "Predriscriptor": "",
          "Quantity": 80,
          "Unit": "          "
        },
        {
          "DisplayOrder": 2,
          "Document": "fat_cholesterol.html",
          "NutritionItemID": 4,
          "NutritionItemName": "Total fat",
          "Predriscriptor": "",
          "Quantity": 5,
          "Unit": "g         "
        },
        {
          "DisplayOrder": 3,
          "Document": "fat_cholesterol.html",
          "NutritionItemID": 9,
          "NutritionItemName": "Saturated fat",
          "Predriscriptor": "",
          "Quantity": 2,
          "Unit": "g         "
        },
        {
          "DisplayOrder": 7,
          "Document": "fat_cholesterol.html",
          "NutritionItemID": 2,
          "NutritionItemName": "Cholesterol",
          "Predriscriptor": "",
          "Quantity": 5,
          "Unit": "mg        "
        },
        {
          "DisplayOrder": 8,
          "Document": "sodium.html",
          "NutritionItemID": 8,
          "NutritionItemName": "Sodium",
          "Predriscriptor": "",
          "Quantity": 160,
          "Unit": "mg        "
        },
        {
          "DisplayOrder": 10,
          "Document": "carbs_sugars_fiber.html",
          "NutritionItemID": 1,
          "NutritionItemName": "Carbohydrate",
          "Predriscriptor": "",
          "Quantity": 6,
          "Unit": "g         "
        },
        {
          "DisplayOrder": 11,
          "Document": "carbs_sugars_fiber.html",
          "NutritionItemID": 7,
          "NutritionItemName": "Dietary fiber",
          "Predriscriptor": "",
          "Quantity": 0,
          "Unit": "g         "
        },
        {
          "DisplayOrder": 12,
          "Document": "carbs_sugars_fiber.html",
          "NutritionItemID": 5,
          "NutritionItemName": "Sugars",
          "Predriscriptor": "",
          "Quantity": 1,
          "Unit": "g         "
        },
        {
          "DisplayOrder": 13,
          "Document": null,
          "NutritionItemID": 6,
          "NutritionItemName": "Protein",
          "Predriscriptor": "",
          "Quantity": 2,
          "Unit": "g         "
        },
        {
          "DisplayOrder": 14,
          "Document": null,
          "NutritionItemID": 10,
          "NutritionItemName": "Vitamin A",
          "Predriscriptor": "",
          "Quantity": 0,
          "Unit": "%DV       "
        },
        {
          "DisplayOrder": 15,
          "Document": null,
          "NutritionItemID": 11,
          "NutritionItemName": "Vitamin C",
          "Predriscriptor": "",
          "Quantity": 0,
          "Unit": "%DV       "
        },
        {
          "DisplayOrder": 16,
          "Document": "dairy_and_calcium.html",
          "NutritionItemID": 12,
          "NutritionItemName": "Calcium",
          "Predriscriptor": "",
          "Quantity": 0,
          "Unit": "%DV       "
        },
        {
          "DisplayOrder": 17,
          "Document": null,
          "NutritionItemID": 13,
          "NutritionItemName": "Iron",
          "Predriscriptor": "",
          "Quantity": 2,
          "Unit": "%DV       "
        }
      ],
      "NutritionServingText": " ",
      "PrepStepImage": null,
      "PreparationDescription": "Mix all ingredients except crescent dough.$Unroll dough. Separate dough from each can into 4 rectangles; firmly press perforations together to seal.  Spread dough with bacon mixture; roll up, starting at one short end of each rectangle.  Cut each roll crosswise into 4 slices; place, cut sides up, 4 inches apart on baking sheets.  Flatten slightly.$Bake 15 min. or until golden brown.",
      "PreparationPreText": "Heat oven to 375°F.",
      "PreparationSteps": [
        {
          "Description": "Mix all ingredients except crescent dough.",
          "PreparationStepImage": {
            "PictureFormats": [],
            "author": null,
            "id": null,
            "imageType": null,
            "mimeType": null,
            "publicationDate": null,
            "status": null,
            "title": null,
            "type": null
          },
          "Sequence": 1
        },
        {
          "Description": "Unroll dough. Separate dough from each can into 4 rectangles; firmly press perforations together to seal.  Spread dough with bacon mixture; roll up, starting at one short end of each rectangle.  Cut each roll crosswise into 4 slices; place, cut sides up, 4 inches apart on baking sheets.  Flatten slightly.",
          "PreparationStepImage": {
            "PictureFormats": [],
            "author": null,
            "id": null,
            "imageType": null,
            "mimeType": null,
            "publicationDate": null,
            "status": null,
            "title": null,
            "type": null
          },
          "Sequence": 2
        },
        {
          "Description": "Bake 15 min. or until golden brown.",
          "PreparationStepImage": {
            "PictureFormats": [],
            "author": null,
            "id": null,
            "imageType": null,
            "mimeType": null,
            "publicationDate": null,
            "status": null,
            "title": null,
            "type": null
          },
          "Sequence": 3
        }
      ],
      "PreparationTime": 10,
      "Promotion": null,
      "Ratings": {
        "TotalCount": 114,
        "PageCount": 10,
        "PageNo": 1,
        "Rating": [
          {
            "Comment": "Made this recipe December 29, 2011 for a family get together.  Doubled the recipe and it sure makes a lot.  I actually got 5 crescent dinner roll tubes from doubling this.  Supper easy but it did take about 2 hours to bake it all.  Love this recipe and would make it again!",
            "DisplayName": false,
            "RatingValue": 5,
            "SubmitDate": "/Date(1325214242000-0600)/",
            "UpdatedDate": "/Date(1325214242000-0600)/",
            "UserName": "DaleJoy"
          },
          {
            "Comment": "These were so good!  I made them a second time and I added fresh chopped spinach in with the onions and sprinkled about 4 T. of parmesan on top before I rolled them.  Great recipe!!",
            "DisplayName": true,
            "RatingValue": 5,
            "SubmitDate": "/Date(1322007649000-0600)/",
            "UpdatedDate": "/Date(1322007649000-0600)/",
            "UserName": "u2debb"
          },
          {
            "Comment": "This recipe is awesome and my guest loved it.",
            "DisplayName": false,
            "RatingValue": 5,
            "SubmitDate": "/Date(1282097011000-0500)/",
            "UpdatedDate": "/Date(1282097011000-0500)/",
            "UserName": "bobandlilg"
          },
          {
            "Comment": "Super easy!! Made it for a breakfast pot luck at work....it was gone in a FLASH! This is an easy recipe to make large quantities...I will definitely double next time!",
            "DisplayName": true,
            "RatingValue": 4,
            "SubmitDate": "/Date(1281186634000-0500)/",
            "UpdatedDate": "/Date(1281186634000-0500)/",
            "UserName": "mzlonniebell"
          },
          {
            "Comment": "",
            "DisplayName": true,
            "RatingValue": 4,
            "SubmitDate": "/Date(1271032956000-0500)/",
            "UpdatedDate": "/Date(1271032956000-0500)/",
            "UserName": "pegandmike"
          },
          {
            "Comment": "",
            "DisplayName": true,
            "RatingValue": 5,
            "SubmitDate": "/Date(1270430720000-0500)/",
            "UpdatedDate": "/Date(1270430720000-0500)/",
            "UserName": "leo217"
          },
          {
            "Comment": "Easy to prepare and absolutely delicious!  Made them for New Year's and they were a big hit!",
            "DisplayName": false,
            "RatingValue": 4,
            "SubmitDate": "/Date(1264720040000-0600)/",
            "UpdatedDate": "/Date(1264720040000-0600)/",
            "UserName": "jjdma"
          },
          {
            "Comment": "Next time, I will add more bacon.  DON'T buy the crescent rolls that are \"butter-flavored\".  I did, and they were too buttery.\r\n\r\nThe whole family loved them - even the kids!",
            "DisplayName": true,
            "RatingValue": 4,
            "SubmitDate": "/Date(1263224644000-0600)/",
            "UpdatedDate": "/Date(1263224644000-0600)/",
            "UserName": "rmcclimond"
          },
          {
            "Comment": "Can you make these ahead?\r\n\r\nDany",
            "DisplayName": true,
            "RatingValue": 4,
            "SubmitDate": "/Date(1258910132000-0600)/",
            "UpdatedDate": "/Date(1258910132000-0600)/",
            "UserName": "amande18"
          },
          {
            "Comment": "Very easy to make. My family loved it!",
            "DisplayName": true,
            "RatingValue": 5,
            "SubmitDate": "/Date(1258505626000-0600)/",
            "UpdatedDate": "/Date(1258505626000-0600)/",
            "UserName": "SMT82"
          }
        ]
      },
      "RecipeDisplayFormatId": 5,
      "RecipeId": 52460,
      "RecipeName": "Bacon-Onion Pinwheels",
      "RecipeType": 0,
      "RelatedData": {
        "RelatedBrands": null,
        "RelatedProducts": null,
        "RelatedRecipes": {
          "DefaultTopCount": 5,
          "Recipe": [
            {
              "AverageRating": 4.3,
              "HasVideo": false,
              "IsHealthyLiving": false,
              "NumberOfRatings": 3,
              "PhotoName": "106762.jpg",
              "PhotoUrl": "http://assets.kraftfoods.com/recipe_images/opendeploy/106762.jpg",
              "RecipeId": 106762,
              "RecipeName": "Bacon & Cheese Pinwheels",
              "SEOName": "bacon-cheese-pinwheels-106762",
              "ThumbnailPhoto": null
            },
            {
              "AverageRating": 4.2,
              "HasVideo": false,
              "IsHealthyLiving": false,
              "NumberOfRatings": 34,
              "PhotoName": "52635.jpg",
              "PhotoUrl": "http://assets.kraftfoods.com/recipe_images/opendeploy/52635.jpg",
              "RecipeId": 52635,
              "RecipeName": "Bacon Pinwheels",
              "SEOName": "bacon-pinwheels-52635",
              "ThumbnailPhoto": null
            },
            {
              "AverageRating": 4.2,
              "HasVideo": false,
              "IsHealthyLiving": true,
              "NumberOfRatings": 44,
              "PhotoName": "Carrot-Pinwheels-42085.jpg",
              "PhotoUrl": "http://assets.kraftfoods.com/recipe_images/opendeploy/Carrot-Pinwheels-42085.jpg",
              "RecipeId": 56993,
              "RecipeName": "Carrot Pinwheels",
              "SEOName": "carrot-pinwheels-56993",
              "ThumbnailPhoto": null
            },
            {
              "AverageRating": 4,
              "HasVideo": false,
              "IsHealthyLiving": false,
              "NumberOfRatings": 30,
              "PhotoName": "52114.jpg",
              "PhotoUrl": "http://assets.kraftfoods.com/recipe_images/opendeploy/52114.jpg",
              "RecipeId": 52114,
              "RecipeName": "Black Bean Pinwheels",
              "SEOName": "black-bean-pinwheels-52114",
              "ThumbnailPhoto": null
            },
            {
              "AverageRating": 4.5,
              "HasVideo": false,
              "IsHealthyLiving": false,
              "NumberOfRatings": 13,
              "PhotoName": "128113.jpg",
              "PhotoUrl": "http://assets.kraftfoods.com/recipe_images/opendeploy/128113.jpg",
              "RecipeId": 128113,
              "RecipeName": "Pimento-Cheese Pinwheels",
              "SEOName": "pimento-cheese-pinwheels-128113",
              "ThumbnailPhoto": null
            }
          ],
          "TotalCount": 2286
        }
      },
      "RiseIngredients": [],
      "RiseTaxonomy": [],
      "Riserecipe": [
        {
          "GRIN": 501960,
          "RecipeId": 52460,
          "RecipeIndustrySector": "Retail",
          "RecipeType": "Internal"
        }
      ],
      "RomanceText": "Try our Bacon-Onion Pinwheels that are guaranteed to please. Bacon-Onion Pinwheels contain delicious bacon crumbled and rolled into a flaky crescent roll.",
      "SEOName": "bacon-onion-pinwheels-52460",
      "Tips": [
        {
          "RecipeId": 52460,
          "Sequence": 10,
          "TipDescription": "Prepare using OSCAR MAYER Turkey Bacon.",
          "TipID": 1,
          "TipName": "Substitute"
        },
        {
          "RecipeId": 52460,
          "Sequence": 20,
          "TipDescription": "Always check the sell-by and expiration dates when purchasing groceries. The sell-by date is the last date on which the product should be purchased, whereas the expiration date is the last date on which the product should be consumed.",
          "TipID": 2,
          "TipName": "Shopping Tip for Groceries"
        }
      ],
      "TotalTime": 25,
      "TradeMarkInfo": null,
      "Video": [],
      "Yield": "32 servings"
    }
  ]
}