{
  "Metadata": {
    "PageCount": 1,
    "PageNo": 0,
    "TotalCount": 0
  },
  "Recipes": [
    {
      "AdServingKeywords": "Aluminum Foil,Side Dish,Cheese,Feta,Onion,Peppers,Tomato,Vegetables,Zucchini,Athenos,All Seasons",
      "AlternateLanguageRecipes": [],
      "Assets": [
        {
          "PictureFormats": [
            {
              "rendition": "300x200",
              "url": "http://assets.kraftfoods.com/recipe_images/Mixed_Vegetable_Grill_with_Feta.jpg"
            }
          ],
          "author": null,
          "id": "0",
          "imageType": "DEFAULT",
          "mimeType": null,
          "publicationDate": null,
          "status": "1",
          "title": "Mixed_Vegetable_Grill_with_Feta.jpg",
          "type": "image"
        }
      ],
      "AverageRating": 4.1,
      "BrandId": 54,
      "Branding": null,
      "CSSSkins": null,
      "CarbCounter": null,
      "Categories": [
        {
          "CategoryID": 9,
          "CategoryName": "Salads/Side Dishes",
          "CategoryRank": 13,
          "SubCategoryID": 39,
          "SubCategoryName": "Vegetables Side Dishes",
          "SubCategoryRank": 200
        },
        {
          "CategoryID": 11,
          "CategoryName": "Primary",
          "CategoryRank": 0,
          "SubCategoryID": 99,
          "SubCategoryName": "Side Dishes",
          "SubCategoryRank": 90
        },
        {
          "CategoryID": 757,
          "CategoryName": "Vegetables & Vegetarian Meals",
          "CategoryRank": 11,
          "SubCategoryID": 2569,
          "SubCategoryName": "Entrée",
          "SubCategoryRank": 1
        },
        {
          "CategoryID": 757,
          "CategoryName": "Vegetables & Vegetarian Meals",
          "CategoryRank": 11,
          "SubCategoryID": 2571,
          "SubCategoryName": "Side / Other",
          "SubCategoryRank": 1
        }
      ],
      "Classifications": [
        {
          "ClassficationId": 13,
          "ClassificationName": "Good source of vitamin A or C"
        },
        {
          "ClassficationId": 14,
          "ClassificationName": "Generally Nutritious"
        }
      ],
      "ComplimentaryRecipes": null,
      "CookingMethod": null,
      "Copyright": null,
      "Courses": [
        "Main dishes",
        "Salads & sides"
      ],
      "DietExchange": "1 Vegetable,1-1/2 Fat",
      "DishDetails": [],
      "EndDate": "/Date(-62135575200000-0600)/",
      "HasVideo": false,
      "Ingredients": [
        {
          "FullMeasure": "2 cups",
          "FullWeight": "",
          "IngredientGridHeaders": null,
          "IngredientID": 1779,
          "IngredientName": "zucchini",
          "IngredientStep": 10,
          "LanguageId": 0,
          "PostPreparation": " slices",
          "PrePreparation": "(1/2-inch-thick)",
          "QuantityNum": 2,
          "QuantityText": "2",
          "QuantityUnit": "cups",
          "RecipeIngredientID": 5324888,
          "TrialMeasure": "",
          "TrialWeight": ""
        },
        {
          "FullMeasure": "1 pkg.",
          "FullWeight": "",
          "IngredientGridHeaders": null,
          "IngredientID": 19,
          "IngredientName": "ATHENOS Traditional Crumbled Feta Cheese",
          "IngredientStep": 20,
          "LanguageId": 0,
          "PostPreparation": "",
          "PrePreparation": "(4 oz.)",
          "QuantityNum": 1,
          "QuantityText": "1",
          "QuantityUnit": "pkg.",
          "RecipeIngredientID": 5324884,
          "TrialMeasure": "",
          "TrialWeight": ""
        },
        {
          "FullMeasure": "1 cup",
          "FullWeight": "",
          "IngredientGridHeaders": null,
          "IngredientID": 1206,
          "IngredientName": "green pepper",
          "IngredientStep": 30,
          "LanguageId": 0,
          "PostPreparation": " strips",
          "PrePreparation": "(1/2-inch-thick)",
          "QuantityNum": 1,
          "QuantityText": "1",
          "QuantityUnit": "cup",
          "RecipeIngredientID": 5324885,
          "TrialMeasure": "",
          "TrialWeight": ""
        },
        {
          "FullMeasure": "1 cup",
          "FullWeight": "",
          "IngredientGridHeaders": null,
          "IngredientID": 1702,
          "IngredientName": "tomato",
          "IngredientStep": 40,
          "LanguageId": 0,
          "PostPreparation": " wedges",
          "PrePreparation": "",
          "QuantityNum": 1,
          "QuantityText": "1",
          "QuantityUnit": "cup",
          "RecipeIngredientID": 5324887,
          "TrialMeasure": "",
          "TrialWeight": ""
        },
        {
          "FullMeasure": "1/2 cup",
          "FullWeight": "",
          "IngredientGridHeaders": null,
          "IngredientID": 1372,
          "IngredientName": "onion rings",
          "IngredientStep": 50,
          "LanguageId": 0,
          "PostPreparation": "",
          "PrePreparation": "(1/4-inch-thick)",
          "QuantityNum": 0,
          "QuantityText": "1/2",
          "QuantityUnit": "cup",
          "RecipeIngredientID": 5324886,
          "TrialMeasure": "",
          "TrialWeight": ""
        },
        {
          "FullMeasure": "1 Tbsp.",
          "FullWeight": "",
          "IngredientGridHeaders": null,
          "IngredientID": 1118,
          "IngredientName": "fresh oregano",
          "IngredientStep": 60,
          "LanguageId": 0,
          "PostPreparation": ", crushed",
          "PrePreparation": "chopped",
          "QuantityNum": 1,
          "QuantityText": "1",
          "QuantityUnit": "Tbsp.",
          "RecipeIngredientID": 5324889,
          "TrialMeasure": "",
          "TrialWeight": ""
        },
        {
          "FullMeasure": "1 Tbsp.",
          "FullWeight": "",
          "IngredientGridHeaders": null,
          "IngredientID": 1369,
          "IngredientName": "olive oil",
          "IngredientStep": 70,
          "LanguageId": 0,
          "PostPreparation": "",
          "PrePreparation": "",
          "QuantityNum": 1,
          "QuantityText": "1",
          "QuantityUnit": "Tbsp.",
          "RecipeIngredientID": 5324890,
          "TrialMeasure": "",
          "TrialWeight": ""
        }
      ],
      "IsHealthyLiving": true,
      "KRLId": "505847",
      "KeyIngredients": [
        "Cheese",
        "Fruit",
        "Onion",
        "Peppers",
        "Tomato",
        "Vegetables",
        "Zucchini"
      ],
      "Keywords": "oil,olive oil,onions,oregano,peppers,ATHENOS Feta Cheese,cheese,feta cheese,green peppers,squash,tomatoes,zucchini,bell peppers,Aluminum Foil,Side Dish,All Seasons",
      "LanguageId": 1,
      "LifeStyles": [
        "Good source of vitamin A or C",
        "Generally Nutritious"
      ],
      "NumberOfIngredients": 7,
      "NumberOfRatings": 11,
      "NumberOfRatingsWithComments": "10",
      "NumberOfServings": "6 servings",
      "NumberOfTrialServings": null,
      "NutritionBonus": "Fire up the grill!  This tasty vegetable mix includes green peppers, a good source of vitamin C.",
      "NutritionExchangeItemId": 1,
      "NutritionGridItems": null,
      "NutritionItems": [
        {
          "DisplayOrder": 1,
          "Document": null,
          "NutritionItemID": 3,
          "NutritionItemName": "Calories",
          "Predriscriptor": "",
          "Quantity": 90,
          "Unit": "          "
        },
        {
          "DisplayOrder": 2,
          "Document": "fat_cholesterol.html",
          "NutritionItemID": 4,
          "NutritionItemName": "Total fat",
          "Predriscriptor": "",
          "Quantity": 7,
          "Unit": "g         "
        },
        {
          "DisplayOrder": 3,
          "Document": "fat_cholesterol.html",
          "NutritionItemID": 9,
          "NutritionItemName": "Saturated fat",
          "Predriscriptor": "",
          "Quantity": 3,
          "Unit": "g         "
        },
        {
          "DisplayOrder": 7,
          "Document": "fat_cholesterol.html",
          "NutritionItemID": 2,
          "NutritionItemName": "Cholesterol",
          "Predriscriptor": "",
          "Quantity": 15,
          "Unit": "mg        "
        },
        {
          "DisplayOrder": 8,
          "Document": "sodium.html",
          "NutritionItemID": 8,
          "NutritionItemName": "Sodium",
          "Predriscriptor": "",
          "Quantity": 130,
          "Unit": "mg        "
        },
        {
          "DisplayOrder": 10,
          "Document": "carbs_sugars_fiber.html",
          "NutritionItemID": 1,
          "NutritionItemName": "Carbohydrate",
          "Predriscriptor": "",
          "Quantity": 4,
          "Unit": "g         "
        },
        {
          "DisplayOrder": 11,
          "Document": "carbs_sugars_fiber.html",
          "NutritionItemID": 7,
          "NutritionItemName": "Dietary fiber",
          "Predriscriptor": "",
          "Quantity": 1,
          "Unit": "g         "
        },
        {
          "DisplayOrder": 12,
          "Document": "carbs_sugars_fiber.html",
          "NutritionItemID": 5,
          "NutritionItemName": "Sugars",
          "Predriscriptor": "",
          "Quantity": 1,
          "Unit": "g         "
        },
        {
          "DisplayOrder": 13,
          "Document": null,
          "NutritionItemID": 6,
          "NutritionItemName": "Protein",
          "Predriscriptor": "",
          "Quantity": 4,
          "Unit": "g         "
        },
        {
          "DisplayOrder": 14,
          "Document": null,
          "NutritionItemID": 10,
          "NutritionItemName": "Vitamin A",
          "Predriscriptor": "",
          "Quantity": 15,
          "Unit": "%DV       "
        },
        {
          "DisplayOrder": 15,
          "Document": null,
          "NutritionItemID": 11,
          "NutritionItemName": "Vitamin C",
          "Predriscriptor": "",
          "Quantity": 50,
          "Unit": "%DV       "
        },
        {
          "DisplayOrder": 16,
          "Document": "dairy_and_calcium.html",
          "NutritionItemID": 12,
          "NutritionItemName": "Calcium",
          "Predriscriptor": "",
          "Quantity": 6,
          "Unit": "%DV       "
        },
        {
          "DisplayOrder": 17,
          "Document": null,
          "NutritionItemID": 13,
          "NutritionItemName": "Iron",
          "Predriscriptor": "",
          "Quantity": 4,
          "Unit": "%DV       "
        }
      ],
      "NutritionServingText": null,
      "PrepStepImage": null,
      "PreparationDescription": "Mix all ingredients.$Wrap mixture in double thickness of foil.  Place on grill over medium coals.$Grill 10 minutes.  Turn packet over.  Grill 8 minutes or until vegetables are tender.",
      "PreparationPreText": null,
      "PreparationSteps": [
        {
          "Description": "Mix all ingredients.",
          "PreparationStepImage": {
            "PictureFormats": [],
            "author": null,
            "id": null,
            "imageType": null,
            "mimeType": null,
            "publicationDate": null,
            "status": null,
            "title": null,
            "type": null
          },
          "Sequence": 1
        },
        {
          "Description": "Wrap mixture in double thickness of foil.  Place on grill over medium coals.",
          "PreparationStepImage": {
            "PictureFormats": [],
            "author": null,
            "id": null,
            "imageType": null,
            "mimeType": null,
            "publicationDate": null,
            "status": null,
            "title": null,
            "type": null
          },
          "Sequence": 2
        },
        {
          "Description": "Grill 10 minutes.  Turn packet over.  Grill 8 minutes or until vegetables are tender.",
          "PreparationStepImage": {
            "PictureFormats": [],
            "author": null,
            "id": null,
            "imageType": null,
            "mimeType": null,
            "publicationDate": null,
            "status": null,
            "title": null,
            "type": null
          },
          "Sequence": 3
        }
      ],
      "PreparationTime": 15,
      "Promotion": null,
      "Ratings": {
        "TotalCount": 11,
        "PageCount": 10,
        "PageNo": 1,
        "Rating": [
          {
            "Comment": "Very tasty! I added extra feta and that made it very good. The cheese melts a bit and looks as good as it tastes.",
            "DisplayName": false,
            "RatingValue": 4,
            "SubmitDate": "/Date(1248323521000-0500)/",
            "UpdatedDate": "/Date(1248323521000-0500)/",
            "UserName": "iset10"
          },
          {
            "Comment": "I don't like green pepper so I used red pepper instead and added some minced garlic and pepper.  It was fabulous.  Even my 3yo and 5yo ate it up.",
            "DisplayName": false,
            "RatingValue": 5,
            "SubmitDate": "/Date(1242698555000-0500)/",
            "UpdatedDate": "/Date(1242698555000-0500)/",
            "UserName": "kalashepherd"
          },
          {
            "Comment": "i liked it. i added garlic powder and italian seasoning just to give it a kick. very good. kraft keep em coming.",
            "DisplayName": true,
            "RatingValue": 4,
            "SubmitDate": "/Date(1237580738000-0500)/",
            "UpdatedDate": "/Date(1237580738000-0500)/",
            "UserName": "leahmu"
          },
          {
            "Comment": "A great way to bring a little variety to the dinner table.",
            "DisplayName": true,
            "RatingValue": 3,
            "SubmitDate": "/Date(1229799838000-0600)/",
            "UpdatedDate": "/Date(1229799838000-0600)/",
            "UserName": "sharpeipup"
          },
          {
            "Comment": "I added a little balsamic vinegar (maybe 2 tablespoons)and it really added to the flavor and color.  I used fat free feta to cut some calories, and it tasted great! ",
            "DisplayName": false,
            "RatingValue": 5,
            "SubmitDate": "/Date(1213726910000-0500)/",
            "UpdatedDate": "/Date(1213726910000-0500)/",
            "UserName": "katierozar"
          },
          {
            "Comment": "We loved this!!!",
            "DisplayName": true,
            "RatingValue": 5,
            "SubmitDate": "/Date(1213502455000-0500)/",
            "UpdatedDate": "/Date(1213502455000-0500)/",
            "UserName": "NikkiS03"
          },
          {
            "Comment": "",
            "DisplayName": false,
            "RatingValue": 4,
            "SubmitDate": "/Date(1211805476000-0500)/",
            "UpdatedDate": "/Date(1211805476000-0500)/",
            "UserName": "Janice8272"
          },
          {
            "Comment": "Everything turned out mushy in the end.  Perhaps I grilled it for too long.  The flavor combonation of the oils, feta and oregano was tastey and I may use it to make a cold cucumber, tomato and onion salad.",
            "DisplayName": true,
            "RatingValue": 2,
            "SubmitDate": "/Date(1154005501000-0500)/",
            "UpdatedDate": "/Date(1154005501000-0500)/",
            "UserName": "AmberRedHead"
          },
          {
            "Comment": "It was great!",
            "DisplayName": true,
            "RatingValue": 5,
            "SubmitDate": "/Date(1077070947000-0600)/",
            "UpdatedDate": "/Date(1077070947000-0600)/",
            "UserName": "cynthiapurple"
          },
          {
            "Comment": "If you like Feta Cheese, you'll love this recipe! Personally, it was a bit too much Feta for my taste. Next time, I will try it with half as much Feta and some fresh garlic.",
            "DisplayName": false,
            "RatingValue": 3,
            "SubmitDate": "/Date(1062464973000-0500)/",
            "UpdatedDate": "/Date(1062464973000-0500)/",
            "UserName": "deb2001"
          }
        ]
      },
      "RecipeDisplayFormatId": 5,
      "RecipeId": 52156,
      "RecipeName": "Mixed Vegetable Grill with Feta",
      "RecipeType": 0,
      "RelatedData": {
        "RelatedBrands": null,
        "RelatedProducts": null,
        "RelatedRecipes": {
          "DefaultTopCount": 5,
          "Recipe": [
            {
              "AverageRating": 4.5,
              "HasVideo": false,
              "IsHealthyLiving": true,
              "NumberOfRatings": 2,
              "PhotoName": "123963.jpg",
              "PhotoUrl": "http://assets.kraftfoods.com/recipe_images/opendeploy/123963.jpg",
              "RecipeId": 123963,
              "RecipeName": "Grilled Stuffed Portobello Mushrooms",
              "SEOName": "grilled-stuffed-portobello-mushrooms-123963",
              "ThumbnailPhoto": null
            },
            {
              "AverageRating": 4.8,
              "HasVideo": false,
              "IsHealthyLiving": false,
              "NumberOfRatings": 5,
              "PhotoName": "Vegetable_Lover's_Burger.jpg",
              "PhotoUrl": "http://assets.kraftfoods.com/recipe_images/opendeploy/Vegetable_Lover's_Burger.jpg",
              "RecipeId": 60628,
              "RecipeName": "Vegetable Lover's Burger",
              "SEOName": "vegetable-lovers-burger-60628",
              "ThumbnailPhoto": null
            },
            {
              "AverageRating": 4.6,
              "HasVideo": false,
              "IsHealthyLiving": false,
              "NumberOfRatings": 33,
              "PhotoName": "Feta_Spinach_Dip.jpg",
              "PhotoUrl": "http://assets.kraftfoods.com/recipe_images/opendeploy/Feta_Spinach_Dip.jpg",
              "RecipeId": 55663,
              "RecipeName": "Feta-Spinach Dip",
              "SEOName": "feta-spinach-dip-55663",
              "ThumbnailPhoto": null
            },
            {
              "AverageRating": 4,
              "HasVideo": false,
              "IsHealthyLiving": false,
              "NumberOfRatings": 2,
              "PhotoName": "171645.jpg",
              "PhotoUrl": "http://assets.kraftfoods.com/recipe_images/opendeploy/171645.jpg",
              "RecipeId": 171645,
              "RecipeName": "Grilled Zucchini Roll-Ups",
              "SEOName": "grilled-zucchini-roll-ups-171645",
              "ThumbnailPhoto": null
            },
            {
              "AverageRating": 4.9,
              "HasVideo": false,
              "IsHealthyLiving": false,
              "NumberOfRatings": 8,
              "PhotoName": "52346.jpg",
              "PhotoUrl": "http://assets.kraftfoods.com/recipe_images/opendeploy/52346.jpg",
              "RecipeId": 52346,
              "RecipeName": "Fresh ATHENOS® Salsa",
              "SEOName": "fresh-athenos-salsa-52346",
              "ThumbnailPhoto": null
            }
          ],
          "TotalCount": 5784
        }
      },
      "RiseIngredients": [],
      "RiseTaxonomy": [],
      "Riserecipe": [],
      "RomanceText": "Toss this good-for-you veggie side on the grill with your entrée, and in no time you'll be chowing down on cheese-topped peppers, zucchini and onions.",
      "SEOName": "mixed-vegetable-grill-feta-52156",
      "Tips": [
        {
          "RecipeId": 52156,
          "Sequence": 10,
          "TipDescription": "Omit oregano.  Substitute ATHENOS Crumbled Feta Cheese with Garlic & Herb for Traditional Crumbled Feta Cheese.",
          "TipID": 1,
          "TipName": "Substitute"
        },
        {
          "RecipeId": 52156,
          "Sequence": 20,
          "TipDescription": "Cook and stir zucchini, pepper and onion in oil in large non-stick skillet on medium-high heat until vegetables are tender.  Stir in tomato; cook 1 minute.  Stir in feta cheese.  Serve immediately.  Makes 6 servings.",
          "TipID": 2,
          "TipName": "Use Your Stove"
        }
      ],
      "TotalTime": 33,
      "TradeMarkInfo": null,
      "Video": [],
      "Yield": "Makes 6 servings."
    }
  ]
}