{
  "Metadata": {
    "PageCount": 1,
    "PageNo": 0,
    "TotalCount": 0
  },
  "Recipes": [
    {
      "AdServingKeywords": "Beans / Legumes,Carrot,Jalapeno,Onion,Peppers,Vegetables,Side Dish,Nutrition and Well-Being,All Seasons,Kraft Salad Dressing",
      "AlternateLanguageRecipes": [
        {
          "LanguageId": "2",
          "RecipeId": "70233",
          "SiteId": "90"
        }
      ],
      "Assets": [
        {
          "PictureFormats": [
            {
              "rendition": "300x200",
              "url": "http://assets.kraftfoods.com/recipe_images/Cilantro_Pepper_Bean_Salad.jpg"
            }
          ],
          "author": null,
          "id": "0",
          "imageType": "LANDSCAPE",
          "mimeType": null,
          "publicationDate": null,
          "status": "1",
          "title": "Cilantro_Pepper_Bean_Salad.jpg",
          "type": "image"
        }
      ],
      "AverageRating": 4,
      "BrandId": 90,
      "Branding": null,
      "CSSSkins": null,
      "CarbCounter": "1",
      "Categories": [
        {
          "CategoryID": 9,
          "CategoryName": "Salads/Side Dishes",
          "CategoryRank": 13,
          "SubCategoryID": 436,
          "SubCategoryName": "Vegetable Salads",
          "SubCategoryRank": 190
        },
        {
          "CategoryID": 11,
          "CategoryName": "Primary",
          "CategoryRank": 0,
          "SubCategoryID": 98,
          "SubCategoryName": "Salads",
          "SubCategoryRank": 70
        },
        {
          "CategoryID": 752,
          "CategoryName": "Salads",
          "CategoryRank": 6,
          "SubCategoryID": 2535,
          "SubCategoryName": "Side",
          "SubCategoryRank": 1
        },
        {
          "CategoryID": 752,
          "CategoryName": "Salads",
          "CategoryRank": 6,
          "SubCategoryID": 2536,
          "SubCategoryName": "Vegetarian",
          "SubCategoryRank": 1
        },
        {
          "CategoryID": 814,
          "CategoryName": "Latin",
          "CategoryRank": 8,
          "SubCategoryID": 3142,
          "SubCategoryName": "Salad/Side Dishes",
          "SubCategoryRank": 110
        }
      ],
      "Classifications": [
        {
          "ClassficationId": 8,
          "ClassificationName": "Good source of fiber"
        },
        {
          "ClassficationId": 13,
          "ClassificationName": "Good source of vitamin A or C"
        },
        {
          "ClassficationId": 14,
          "ClassificationName": "Generally Nutritious"
        },
        {
          "ClassficationId": 119,
          "ClassificationName": "Diabetes Center"
        },
        {
          "ClassficationId": 119,
          "ClassificationName": "Diabetes Center"
        }
      ],
      "ComplimentaryRecipes": [
        {
          "AverageRating": 0,
          "HasVideo": false,
          "IsHealthyLiving": false,
          "NumberOfRatings": 0,
          "PhotoName": null,
          "PhotoUrl": null,
          "RecipeId": 118793,
          "RecipeName": null,
          "SEOName": "grilled-chicken-wrap-recipe-118793",
          "ThumbnailPhoto": "118793.jpg"
        }
      ],
      "CookingMethod": null,
      "Copyright": null,
      "Courses": [
        "Salads & sides"
      ],
      "DietExchange": "1-1/2 Starch,1 Fat",
      "DishDetails": [],
      "EndDate": "/Date(-62135575200000-0600)/",
      "HasVideo": false,
      "Ingredients": [
        {
          "FullMeasure": "3 cups",
          "FullWeight": "",
          "IngredientGridHeaders": null,
          "IngredientID": 1423,
          "IngredientName": "pinto beans",
          "IngredientStep": 10,
          "LanguageId": 0,
          "PostPreparation": "",
          "PrePreparation": "cooked rinsed dry",
          "QuantityNum": 3,
          "QuantityText": "3",
          "QuantityUnit": "cups",
          "RecipeIngredientID": 5015893,
          "TrialMeasure": "",
          "TrialWeight": ""
        },
        {
          "FullMeasure": "1 cup",
          "FullWeight": "",
          "IngredientGridHeaders": null,
          "IngredientID": 1265,
          "IngredientName": "jicama",
          "IngredientStep": 20,
          "LanguageId": 0,
          "PostPreparation": "",
          "PrePreparation": "chopped peeled ",
          "QuantityNum": 1,
          "QuantityText": "1",
          "QuantityUnit": "cup",
          "RecipeIngredientID": 5015896,
          "TrialMeasure": "",
          "TrialWeight": ""
        },
        {
          "FullMeasure": "1/2 cup",
          "FullWeight": "",
          "IngredientGridHeaders": null,
          "IngredientID": 1370,
          "IngredientName": "onion",
          "IngredientStep": 30,
          "LanguageId": 0,
          "PostPreparation": "s",
          "PrePreparation": "finely chopped",
          "QuantityNum": 0,
          "QuantityText": "1/2",
          "QuantityUnit": "cup",
          "RecipeIngredientID": 5015899,
          "TrialMeasure": "",
          "TrialWeight": ""
        },
        {
          "FullMeasure": "1/4 cup",
          "FullWeight": "",
          "IngredientGridHeaders": null,
          "IngredientID": 6104,
          "IngredientName": "jalapeño peppers",
          "IngredientStep": 40,
          "LanguageId": 0,
          "PostPreparation": "",
          "PrePreparation": "chopped seeded",
          "QuantityNum": 0,
          "QuantityText": "1/4",
          "QuantityUnit": "cup",
          "RecipeIngredientID": 5015898,
          "TrialMeasure": "",
          "TrialWeight": ""
        },
        {
          "FullMeasure": "1 cup",
          "FullWeight": "",
          "IngredientGridHeaders": null,
          "IngredientID": 883,
          "IngredientName": "carrot",
          "IngredientStep": 50,
          "LanguageId": 0,
          "PostPreparation": "s, divided",
          "PrePreparation": "shredded",
          "QuantityNum": 1,
          "QuantityText": "1",
          "QuantityUnit": "cup",
          "RecipeIngredientID": 5015895,
          "TrialMeasure": "",
          "TrialWeight": ""
        },
        {
          "FullMeasure": "1/4  cup",
          "FullWeight": "",
          "IngredientGridHeaders": null,
          "IngredientID": 21089,
          "IngredientName": "fresh cilantro",
          "IngredientStep": 60,
          "LanguageId": 0,
          "PostPreparation": ", divided",
          "PrePreparation": "chopped",
          "QuantityNum": 0,
          "QuantityText": "1/4 ",
          "QuantityUnit": "cup",
          "RecipeIngredientID": 5015900,
          "TrialMeasure": "",
          "TrialWeight": ""
        },
        {
          "FullMeasure": "1/2 cup",
          "FullWeight": "",
          "IngredientGridHeaders": null,
          "IngredientID": 477,
          "IngredientName": "KRAFT Peppercorn Ranch Dressing",
          "IngredientStep": 70,
          "LanguageId": 0,
          "PostPreparation": "",
          "PrePreparation": "",
          "QuantityNum": 0,
          "QuantityText": "1/2",
          "QuantityUnit": "cup",
          "RecipeIngredientID": 5015897,
          "TrialMeasure": "",
          "TrialWeight": ""
        },
        {
          "FullMeasure": "1/4 tsp.",
          "FullWeight": "",
          "IngredientGridHeaders": null,
          "IngredientID": 1213,
          "IngredientName": "ground black pepper",
          "IngredientStep": 80,
          "LanguageId": 0,
          "PostPreparation": "",
          "PrePreparation": "",
          "QuantityNum": 0,
          "QuantityText": "1/4",
          "QuantityUnit": "tsp.",
          "RecipeIngredientID": 5015894,
          "TrialMeasure": "",
          "TrialWeight": ""
        }
      ],
      "IsHealthyLiving": true,
      "KRLId": "545327",
      "KeyIngredients": [
        "Beans / Legumes",
        "Carrot",
        "Jalapeno",
        "Onion",
        "Peppers",
        "Vegetables"
      ],
      "Keywords": "onions,peppers,pinto beans,ranch dressing,beans,carrots,cilantro,dressing,herbs,hot peppers,jalapeno peppers,jicama,KRAFT Dressing,salad dressing,chile peppers,Side Dish,Nutrition and Well-Being,All Seasons",
      "LanguageId": 1,
      "LifeStyles": [
        "Good source of fiber",
        "Good source of vitamin A or C",
        "Generally Nutritious",
        "Diabetes Center"
      ],
      "NumberOfIngredients": 8,
      "NumberOfRatings": 1,
      "NumberOfRatingsWithComments": "1",
      "NumberOfServings": "8 servings",
      "NumberOfTrialServings": "",
      "NutritionBonus": "This flavorful salad can help you and your family eat right.  In addition to the beans being a good source of fiber, the carrots are also an excellent source of vitamin A.",
      "NutritionExchangeItemId": 1,
      "NutritionGridItems": null,
      "NutritionItems": [
        {
          "DisplayOrder": 1,
          "Document": null,
          "NutritionItemID": 3,
          "NutritionItemName": "Calories",
          "Predriscriptor": "",
          "Quantity": 170,
          "Unit": "          "
        },
        {
          "DisplayOrder": 2,
          "Document": "fat_cholesterol.html",
          "NutritionItemID": 4,
          "NutritionItemName": "Total fat",
          "Predriscriptor": "",
          "Quantity": 6,
          "Unit": "g         "
        },
        {
          "DisplayOrder": 3,
          "Document": "fat_cholesterol.html",
          "NutritionItemID": 9,
          "NutritionItemName": "Saturated fat",
          "Predriscriptor": "",
          "Quantity": 1,
          "Unit": "g         "
        },
        {
          "DisplayOrder": 7,
          "Document": "fat_cholesterol.html",
          "NutritionItemID": 2,
          "NutritionItemName": "Cholesterol",
          "Predriscriptor": "",
          "Quantity": 0,
          "Unit": "mg        "
        },
        {
          "DisplayOrder": 8,
          "Document": "sodium.html",
          "NutritionItemID": 8,
          "NutritionItemName": "Sodium",
          "Predriscriptor": "",
          "Quantity": 150,
          "Unit": "mg        "
        },
        {
          "DisplayOrder": 10,
          "Document": "carbs_sugars_fiber.html",
          "NutritionItemID": 1,
          "NutritionItemName": "Carbohydrate",
          "Predriscriptor": "",
          "Quantity": 21,
          "Unit": "g         "
        },
        {
          "DisplayOrder": 11,
          "Document": "carbs_sugars_fiber.html",
          "NutritionItemID": 7,
          "NutritionItemName": "Dietary fiber",
          "Predriscriptor": "",
          "Quantity": 7,
          "Unit": "g         "
        },
        {
          "DisplayOrder": 12,
          "Document": "carbs_sugars_fiber.html",
          "NutritionItemID": 5,
          "NutritionItemName": "Sugars",
          "Predriscriptor": "",
          "Quantity": 3,
          "Unit": "g         "
        },
        {
          "DisplayOrder": 13,
          "Document": null,
          "NutritionItemID": 6,
          "NutritionItemName": "Protein",
          "Predriscriptor": "",
          "Quantity": 6,
          "Unit": "g         "
        },
        {
          "DisplayOrder": 14,
          "Document": null,
          "NutritionItemID": 10,
          "NutritionItemName": "Vitamin A",
          "Predriscriptor": "",
          "Quantity": 50,
          "Unit": "%DV       "
        },
        {
          "DisplayOrder": 15,
          "Document": null,
          "NutritionItemID": 11,
          "NutritionItemName": "Vitamin C",
          "Predriscriptor": "",
          "Quantity": 15,
          "Unit": "%DV       "
        },
        {
          "DisplayOrder": 16,
          "Document": "dairy_and_calcium.html",
          "NutritionItemID": 12,
          "NutritionItemName": "Calcium",
          "Predriscriptor": "",
          "Quantity": 4,
          "Unit": "%DV       "
        },
        {
          "DisplayOrder": 17,
          "Document": null,
          "NutritionItemID": 13,
          "NutritionItemName": "Iron",
          "Predriscriptor": "",
          "Quantity": 8,
          "Unit": "%DV       "
        }
      ],
      "NutritionServingText": " ",
      "PrepStepImage": null,
      "PreparationDescription": "Combine beans, jicama, onions, jalapeño peppers, and half <u>each</u> of the carrots and cilantro in large bowl.  Add dressing and black pepper; mix lightly.  $Top with remaining carrots and cilantro. $Refrigerate several hours or until chilled. ",
      "PreparationPreText": "",
      "PreparationSteps": [
        {
          "Description": "Combine beans, jicama, onions, jalapeño peppers, and half <u>each</u> of the carrots and cilantro in large bowl.  Add dressing and black pepper; mix lightly.  ",
          "PreparationStepImage": {
            "PictureFormats": [],
            "author": null,
            "id": null,
            "imageType": null,
            "mimeType": null,
            "publicationDate": null,
            "status": null,
            "title": null,
            "type": null
          },
          "Sequence": 1
        },
        {
          "Description": "Top with remaining carrots and cilantro. ",
          "PreparationStepImage": {
            "PictureFormats": [],
            "author": null,
            "id": null,
            "imageType": null,
            "mimeType": null,
            "publicationDate": null,
            "status": null,
            "title": null,
            "type": null
          },
          "Sequence": 2
        },
        {
          "Description": "Refrigerate several hours or until chilled. ",
          "PreparationStepImage": {
            "PictureFormats": [],
            "author": null,
            "id": null,
            "imageType": null,
            "mimeType": null,
            "publicationDate": null,
            "status": null,
            "title": null,
            "type": null
          },
          "Sequence": 3
        }
      ],
      "PreparationTime": 15,
      "Promotion": null,
      "Ratings": {
        "TotalCount": 1,
        "PageCount": 10,
        "PageNo": 1,
        "Rating": [
          {
            "Comment": "es la primera vez que entro a comidakraftl y me acavo de inscribir espero hacer esta receta porque me parece que es muybuena espero hace muchas de ellas ya que la mayoria me parecen buenisimas y mas que nada busco recetas bajas en grasa ya que para la proxima semana empiezo a comer pura comidaque me alimente es lo que me propuse este ano para mantenerme bien alimentada y tener una mejor salud gracias a comidakraft. betty",
            "DisplayName": true,
            "RatingValue": 4,
            "SubmitDate": "/Date(1106333504000-0600)/",
            "UpdatedDate": "/Date(1106333504000-0600)/",
            "UserName": "Beatriz Del Rio"
          }
        ]
      },
      "RecipeDisplayFormatId": 5,
      "RecipeId": 70232,
      "RecipeName": "Cilantro Pepper Bean Salad",
      "RecipeType": 0,
      "RelatedData": {
        "RelatedBrands": null,
        "RelatedProducts": null,
        "RelatedRecipes": {
          "DefaultTopCount": 5,
          "Recipe": [
            {
              "AverageRating": 4.3,
              "HasVideo": false,
              "IsHealthyLiving": true,
              "NumberOfRatings": 14,
              "PhotoName": "Cuban_Bean_Salad.jpg",
              "PhotoUrl": "http://assets.kraftfoods.com/recipe_images/opendeploy/Cuban_Bean_Salad.jpg",
              "RecipeId": 52289,
              "RecipeName": "Cuban Bean Salad",
              "SEOName": "cuban-bean-salad-52289",
              "ThumbnailPhoto": null
            },
            {
              "AverageRating": 4.5,
              "HasVideo": false,
              "IsHealthyLiving": true,
              "NumberOfRatings": 32,
              "PhotoName": "Southwestern_Ranch_Salad.jpg",
              "PhotoUrl": "http://assets.kraftfoods.com/recipe_images/opendeploy/Southwestern_Ranch_Salad.jpg",
              "RecipeId": 73977,
              "RecipeName": "Southwestern Ranch Salad",
              "SEOName": "southwestern-ranch-salad-73977",
              "ThumbnailPhoto": null
            },
            {
              "AverageRating": 4.8,
              "HasVideo": false,
              "IsHealthyLiving": true,
              "NumberOfRatings": 4,
              "PhotoName": "132535.jpg",
              "PhotoUrl": "http://assets.kraftfoods.com/recipe_images/opendeploy/132535.jpg",
              "RecipeId": 132535,
              "RecipeName": "Butterflied Chicken Breast and Beans Salad",
              "SEOName": "butterflied-chicken-breast-beans-salad-132535",
              "ThumbnailPhoto": null
            },
            {
              "AverageRating": 4.3,
              "HasVideo": false,
              "IsHealthyLiving": true,
              "NumberOfRatings": 20,
              "PhotoName": "53136.jpg",
              "PhotoUrl": "http://assets.kraftfoods.com/recipe_images/opendeploy/53136.jpg",
              "RecipeId": 53136,
              "RecipeName": "Mexicali Cheddar Bean Salad",
              "SEOName": "mexicali-cheddar-bean-salad-53136",
              "ThumbnailPhoto": null
            },
            {
              "AverageRating": 4.5,
              "HasVideo": false,
              "IsHealthyLiving": true,
              "NumberOfRatings": 44,
              "PhotoName": "opendeploy/500476_1_1_retail-4041c02c4dfd57a724eb189a11032c96c25f1b09_306x204.jpg",
              "PhotoUrl": "http://assets.kraftfoods.com/recipe_images/opendeploy/opendeploy/500476_1_1_retail-4041c02c4dfd57a724eb189a11032c96c25f1b09_306x204.jpg",
              "RecipeId": 53127,
              "RecipeName": "Black Bean & Mango Chicken Salad",
              "SEOName": "black-bean-mango-chicken-salad-53127",
              "ThumbnailPhoto": null
            }
          ],
          "TotalCount": 3250
        }
      },
      "RiseIngredients": [],
      "RiseTaxonomy": [],
      "Riserecipe": [
        {
          "GRIN": 545327,
          "RecipeId": 70232,
          "RecipeIndustrySector": "Retail",
          "RecipeType": "Internal"
        }
      ],
      "RomanceText": "Tossed with fresh cilantro, this bean salad is a celebration of all kinds of peppers: jalapeño, black pepper and ranch dressing with a peppercorn kick.",
      "SEOName": "cilantro-pepper-bean-salad-70232",
      "Tips": [
        {
          "RecipeId": 70232,
          "Sequence": 10,
          "TipDescription": "Serve on a bed of sliced tomatoes.",
          "TipID": 3,
          "TipName": "Special Extra"
        },
        {
          "RecipeId": 70232,
          "Sequence": 20,
          "TipDescription": "Substitute 2 rinsed (15-oz.) cans pinto beans for the cooked dry pinto beans. ",
          "TipID": 2,
          "TipName": "Make it Easy"
        },
        {
          "RecipeId": 70232,
          "Sequence": 50,
          "TipDescription": "Prepare using great Northern beans.",
          "TipID": 1,
          "TipName": "Substitute"
        }
      ],
      "TotalTime": 195,
      "TradeMarkInfo": null,
      "Video": [],
      "Yield": "8 servings"
    }
  ]
}