{
  "Metadata": {
    "PageCount": 1,
    "PageNo": 0,
    "TotalCount": 0
  },
  "Recipes": [
    {
      "AdServingKeywords": "Berries,Dairy,Fruit,Dessert,Easy,Nutrition and Well-Being,All Seasons,Pudding,Creamy,Cool Whip,Jell-O,Cooking for a Crowd",
      "AlternateLanguageRecipes": [],
      "Assets": [
        {
          "PictureFormats": [
            {
              "rendition": "290x194",
              "url": "http://assets.kraftfoods.com/recipe_images/opendeploy/75180_290x194.jpg"
            },
            {
              "rendition": "640x428",
              "url": "http://assets.kraftfoods.com/recipe_images/opendeploy/75180_640x428.jpg"
            },
            {
              "rendition": "600x250",
              "url": "http://assets.kraftfoods.com/recipe_images/opendeploy/75180_600x250.jpg"
            }
          ],
          "author": "BulKUpload",
          "id": "2",
          "imageType": "Primary",
          "mimeType": "image/jpeg",
          "publicationDate": null,
          "status": "1",
          "title": "75180",
          "type": "image"
        },
        {
          "PictureFormats": [
            {
              "rendition": "140x90",
              "url": "http://assets.kraftfoods.com/recipe_images/opendeploy/75180_KRL_K46568V0_OR1_FO_140x90.jpg"
            },
            {
              "rendition": "300x250",
              "url": "http://assets.kraftfoods.com/recipe_images/opendeploy/75180_KRL_K46568V0_OR1_FO_300x250.jpg"
            },
            {
              "rendition": "960x300",
              "url": "http://assets.kraftfoods.com/recipe_images/opendeploy/75180_KRL_K46568V0_OR1_FO_960x300.jpg"
            }
          ],
          "author": null,
          "id": "2",
          "imageType": "Primary",
          "mimeType": "image/jpeg",
          "publicationDate": null,
          "status": "1",
          "title": "75180_KRL_K46568V0_OR1_FO",
          "type": "image"
        },
        {
          "PictureFormats": [
            {
              "rendition": "300x200",
              "url": "http://assets.kraftfoods.com/recipe_images/75180.jpg"
            }
          ],
          "author": "BulKUpload",
          "id": "0",
          "imageType": "LANDSCAPE",
          "mimeType": "image/jpeg",
          "publicationDate": null,
          "status": "1",
          "title": "75180.jpg",
          "type": "image"
        }
      ],
      "AverageRating": 4.3,
      "BrandId": 1,
      "Branding": null,
      "CSSSkins": null,
      "CarbCounter": "",
      "Categories": [
        {
          "CategoryID": 3,
          "CategoryName": "Cookies/Candy/Other Desserts",
          "CategoryRank": 6,
          "SubCategoryID": 369,
          "SubCategoryName": "Parfaits",
          "SubCategoryRank": 160
        },
        {
          "CategoryID": 11,
          "CategoryName": "Primary",
          "CategoryRank": 0,
          "SubCategoryID": 103,
          "SubCategoryName": "Desserts",
          "SubCategoryRank": 40
        },
        {
          "CategoryID": 759,
          "CategoryName": "Desserts",
          "CategoryRank": 13,
          "SubCategoryID": 2577,
          "SubCategoryName": "Cold / Gelatine",
          "SubCategoryRank": 1
        }
      ],
      "Classifications": [
        {
          "ClassficationId": 13,
          "ClassificationName": "Good source of vitamin A or C"
        },
        {
          "ClassficationId": 14,
          "ClassificationName": "Generally Nutritious"
        }
      ],
      "ComplimentaryRecipes": [
        {
          "AverageRating": 0,
          "HasVideo": false,
          "IsHealthyLiving": false,
          "NumberOfRatings": 0,
          "PhotoName": null,
          "PhotoUrl": null,
          "RecipeId": 69184,
          "RecipeName": null,
          "SEOName": "vanilla-latte-69184",
          "ThumbnailPhoto": "69184.jpg"
        }
      ],
      "CookingMethod": null,
      "Copyright": null,
      "Courses": [
        "Desserts"
      ],
      "DietExchange": "2 Starch,1/2 Fat",
      "DishDetails": [
        {
          "Text": "desserts",
          "Url": "/recipes/dessert/main.aspx"
        },
        {
          "Text": "fruity desserts",
          "Url": "/recipes/dessert/fruitydesserts.aspx"
        },
        {
          "Text": "gelatin desserts",
          "Url": "/recipes/dessert/gelatindesserts.aspx"
        },
        {
          "Text": "layered desserts",
          "Url": "/recipes/dessert/layereddesserts.aspx"
        },
        {
          "Text": "brownie recipes",
          "Url": "/recipes/dessert/brownie-recipes/main.aspx"
        },
        {
          "Text": "budget desserts",
          "Url": "/recipes/budget/budget-desserts.aspx"
        },
        {
          "Text": "no bake desserts",
          "Url": "/recipes/dessert/nobakedesserts.aspx"
        },
        {
          "Text": "pumpkin recipes",
          "Url": "/recipes/dessert/pumpkin-recipes.aspx"
        },
        {
          "Text": "chocolate cake recipes",
          "Url": "/recipes/dessert/chocolate-cake-recipes/main.aspx"
        },
        {
          "Text": "cheesecake recipes",
          "Url": "/recipes/dessert/cheesecake-center/cheesecake-recipes/main.aspx"
        },
        {
          "Text": "chocolate lovers recipes",
          "Url": "/recipes/dessert/chocolate-center/chocolateloversrecipes.aspx"
        },
        {
          "Text": "classic desserts",
          "Url": "/recipes/dessert/classicdesserts.aspx"
        },
        {
          "Text": "cookie ball recipes",
          "Url": "/recipes/dessert/cookie-ball-recipes/main.aspx"
        },
        {
          "Text": "cookie recipes",
          "Url": "/recipes/dessert/cookie-recipes/main.aspx"
        },
        {
          "Text": "cupcake recipes",
          "Url": "/recipes/dessert/cupcake-recipes/main.aspx"
        },
        {
          "Text": "healthy living desserts",
          "Url": "/healthy-living-ideas/diabetes-center/recipes/dessert-recipes.aspx"
        }
      ],
      "EndDate": "/Date(-62135575200000-0600)/",
      "HasVideo": false,
      "Ingredients": [
        {
          "FullMeasure": "1 pkg.",
          "FullWeight": "",
          "IngredientGridHeaders": null,
          "IngredientID": 344,
          "IngredientName": "JELL-O Chocolate Flavor Instant Pudding",
          "IngredientStep": 10,
          "LanguageId": 0,
          "PostPreparation": "",
          "PrePreparation": "(3.9 oz.)",
          "QuantityNum": 1,
          "QuantityText": "1",
          "QuantityUnit": "pkg.",
          "RecipeIngredientID": 6444529,
          "TrialMeasure": "",
          "TrialWeight": ""
        },
        {
          "FullMeasure": "1-1/2 cups",
          "FullWeight": "",
          "IngredientGridHeaders": null,
          "IngredientID": 1345,
          "IngredientName": "milk",
          "IngredientStep": 20,
          "LanguageId": 0,
          "PostPreparation": "",
          "PrePreparation": "cold",
          "QuantityNum": 1,
          "QuantityText": "1-1/2",
          "QuantityUnit": "cups",
          "RecipeIngredientID": 6444531,
          "TrialMeasure": "",
          "TrialWeight": ""
        },
        {
          "FullMeasure": "1 cup",
          "FullWeight": "",
          "IngredientGridHeaders": null,
          "IngredientID": 140,
          "IngredientName": "COOL WHIP Whipped Topping",
          "IngredientStep": 30,
          "LanguageId": 0,
          "PostPreparation": ", divided",
          "PrePreparation": "thawed",
          "QuantityNum": 1,
          "QuantityText": "1",
          "QuantityUnit": "cup",
          "RecipeIngredientID": 6444530,
          "TrialMeasure": "",
          "TrialWeight": ""
        },
        {
          "FullMeasure": "2 cups",
          "FullWeight": "",
          "IngredientGridHeaders": null,
          "IngredientID": 7907,
          "IngredientName": "berries",
          "IngredientStep": 40,
          "LanguageId": 0,
          "PostPreparation": " (blueberries, raspberries, sliced strawberries)",
          "PrePreparation": "mixed fresh",
          "QuantityNum": 2,
          "QuantityText": "2",
          "QuantityUnit": "cups",
          "RecipeIngredientID": 6444532,
          "TrialMeasure": "",
          "TrialWeight": ""
        },
        {
          "FullMeasure": "32",
          "FullWeight": "",
          "IngredientGridHeaders": null,
          "IngredientID": 1736,
          "IngredientName": "vanilla wafers",
          "IngredientStep": 50,
          "LanguageId": 0,
          "PostPreparation": ", divided",
          "PrePreparation": "",
          "QuantityNum": 32,
          "QuantityText": "32",
          "QuantityUnit": "",
          "RecipeIngredientID": 6444528,
          "TrialMeasure": "",
          "TrialWeight": ""
        }
      ],
      "IsHealthyLiving": true,
      "KRLId": "550980",
      "KeyIngredients": [
        "Berries",
        "Dairy",
        "Fruit"
      ],
      "Keywords": "berries,blackberries,blueberries,chocolate pudding mix,cookies,COOL WHIP,JELL-O Pudding Mix,milk,strawberries,vanilla wafers,whipped topping,pudding mix-instant,NILLA Wafers,Dessert,Easy,Nutrition and Well-Being,All Seasons,Cooking for a Crowd,Creamy",
      "LanguageId": 1,
      "LifeStyles": [
        "Good source of vitamin A or C",
        "Generally Nutritious"
      ],
      "NumberOfIngredients": 5,
      "NumberOfRatings": 13,
      "NumberOfRatingsWithComments": "9",
      "NumberOfServings": "8 servings",
      "NumberOfTrialServings": "",
      "NutritionBonus": "Not only are the berries rich in vitamin C, but they also team up with the chocolate pudding for a winning flavor combination.",
      "NutritionExchangeItemId": 2,
      "NutritionGridItems": null,
      "NutritionItems": [
        {
          "DisplayOrder": 1,
          "Document": null,
          "NutritionItemID": 3,
          "NutritionItemName": "Calories",
          "Predriscriptor": "",
          "Quantity": 180,
          "Unit": "          "
        },
        {
          "DisplayOrder": 2,
          "Document": "fat_cholesterol.html",
          "NutritionItemID": 4,
          "NutritionItemName": "Total fat",
          "Predriscriptor": "",
          "Quantity": 6,
          "Unit": "g         "
        },
        {
          "DisplayOrder": 3,
          "Document": "fat_cholesterol.html",
          "NutritionItemID": 9,
          "NutritionItemName": "Saturated fat",
          "Predriscriptor": "",
          "Quantity": 3,
          "Unit": "g         "
        },
        {
          "DisplayOrder": 7,
          "Document": "fat_cholesterol.html",
          "NutritionItemID": 2,
          "NutritionItemName": "Cholesterol",
          "Predriscriptor": "",
          "Quantity": 5,
          "Unit": "mg        "
        },
        {
          "DisplayOrder": 8,
          "Document": "sodium.html",
          "NutritionItemID": 8,
          "NutritionItemName": "Sodium",
          "Predriscriptor": "",
          "Quantity": 290,
          "Unit": "mg        "
        },
        {
          "DisplayOrder": 10,
          "Document": "carbs_sugars_fiber.html",
          "NutritionItemID": 1,
          "NutritionItemName": "Carbohydrate",
          "Predriscriptor": "",
          "Quantity": 32,
          "Unit": "g         "
        },
        {
          "DisplayOrder": 11,
          "Document": "carbs_sugars_fiber.html",
          "NutritionItemID": 7,
          "NutritionItemName": "Dietary fiber",
          "Predriscriptor": "",
          "Quantity": 2,
          "Unit": "g         "
        },
        {
          "DisplayOrder": 12,
          "Document": "carbs_sugars_fiber.html",
          "NutritionItemID": 5,
          "NutritionItemName": "Sugars",
          "Predriscriptor": "",
          "Quantity": 20,
          "Unit": "g         "
        },
        {
          "DisplayOrder": 13,
          "Document": null,
          "NutritionItemID": 6,
          "NutritionItemName": "Protein",
          "Predriscriptor": "",
          "Quantity": 3,
          "Unit": "g         "
        },
        {
          "DisplayOrder": 14,
          "Document": null,
          "NutritionItemID": 10,
          "NutritionItemName": "Vitamin A",
          "Predriscriptor": "",
          "Quantity": 2,
          "Unit": "%DV       "
        },
        {
          "DisplayOrder": 15,
          "Document": null,
          "NutritionItemID": 11,
          "NutritionItemName": "Vitamin C",
          "Predriscriptor": "",
          "Quantity": 20,
          "Unit": "%DV       "
        },
        {
          "DisplayOrder": 16,
          "Document": "dairy_and_calcium.html",
          "NutritionItemID": 12,
          "NutritionItemName": "Calcium",
          "Predriscriptor": "",
          "Quantity": 8,
          "Unit": "%DV       "
        },
        {
          "DisplayOrder": 17,
          "Document": null,
          "NutritionItemID": 13,
          "NutritionItemName": "Iron",
          "Predriscriptor": "",
          "Quantity": 4,
          "Unit": "%DV       "
        }
      ],
      "NutritionServingText": "",
      "PrepStepImage": null,
      "PreparationDescription": "Beat pudding mix and milk in medium bowl with whisk 2 min. Stir in 1/2 cup COOL WHIP.  $Spoon half the berries into 8 parfait glasses.  Stand 3 wafers around inside edge of each glass.  Spoon half the pudding evenly over berries in glasses; cover with layers of remaining berries and pudding. $Refrigerate 1 hour.  Top with remaining COOL WHIP and wafers just before serving.  ",
      "PreparationPreText": "",
      "PreparationSteps": [
        {
          "Description": "Beat pudding mix and milk in medium bowl with whisk 2 min. Stir in 1/2 cup COOL WHIP.  ",
          "PreparationStepImage": {
            "PictureFormats": [],
            "author": null,
            "id": null,
            "imageType": null,
            "mimeType": null,
            "publicationDate": null,
            "status": null,
            "title": null,
            "type": null
          },
          "Sequence": 1
        },
        {
          "Description": "Spoon half the berries into 8 parfait glasses.  Stand 3 wafers around inside edge of each glass.  Spoon half the pudding evenly over berries in glasses; cover with layers of remaining berries and pudding. ",
          "PreparationStepImage": {
            "PictureFormats": [],
            "author": null,
            "id": null,
            "imageType": null,
            "mimeType": null,
            "publicationDate": null,
            "status": null,
            "title": null,
            "type": null
          },
          "Sequence": 2
        },
        {
          "Description": "Refrigerate 1 hour.  Top with remaining COOL WHIP and wafers just before serving.  ",
          "PreparationStepImage": {
            "PictureFormats": [],
            "author": null,
            "id": null,
            "imageType": null,
            "mimeType": null,
            "publicationDate": null,
            "status": null,
            "title": null,
            "type": null
          },
          "Sequence": 3
        }
      ],
      "PreparationTime": 15,
      "Promotion": null,
      "Ratings": {
        "TotalCount": 13,
        "PageCount": 10,
        "PageNo": 1,
        "Rating": [
          {
            "Comment": "",
            "DisplayName": true,
            "RatingValue": 4,
            "SubmitDate": "/Date(1251085847000-0500)/",
            "UpdatedDate": "/Date(1251085847000-0500)/",
            "UserName": "Schmachel"
          },
          {
            "Comment": "Using skim milk and the sugar free pudding mixes means even those watching their weight can enjoy this without guilty feelings.",
            "DisplayName": true,
            "RatingValue": 5,
            "SubmitDate": "/Date(1148414592000-0500)/",
            "UpdatedDate": "/Date(1148414592000-0500)/",
            "UserName": "dquinlan1"
          },
          {
            "Comment": "Very easy and very delicious.  Whole family enjoyed it.  I made it several times, always got raves.",
            "DisplayName": true,
            "RatingValue": 5,
            "SubmitDate": "/Date(1144161425000-0500)/",
            "UpdatedDate": "/Date(1144161425000-0500)/",
            "UserName": "SusanS35"
          },
          {
            "Comment": "great! very easy. the hardest part is to wait for it!!!",
            "DisplayName": false,
            "RatingValue": 5,
            "SubmitDate": "/Date(1123284197000-0500)/",
            "UpdatedDate": "/Date(1123284197000-0500)/",
            "UserName": "emily5004"
          },
          {
            "Comment": "",
            "DisplayName": false,
            "RatingValue": 2,
            "SubmitDate": "/Date(1122755569000-0500)/",
            "UpdatedDate": "/Date(1122755569000-0500)/",
            "UserName": "lehkelly"
          },
          {
            "Comment": "quick, easy and tast great",
            "DisplayName": false,
            "RatingValue": 4,
            "SubmitDate": "/Date(1118511239000-0500)/",
            "UpdatedDate": "/Date(1118511239000-0500)/",
            "UserName": "tommyrobbins"
          },
          {
            "Comment": "This recipe was easy to make; it took no time at all.  It was very delicious and everyone enjoyed it.",
            "DisplayName": true,
            "RatingValue": 4,
            "SubmitDate": "/Date(1117650404000-0500)/",
            "UpdatedDate": "/Date(1117650404000-0500)/",
            "UserName": "abbyhaynes"
          },
          {
            "Comment": "I may not have made it yet, but I sure will after I go shopping. I love the way it looks And sounds. I'm a HUGE fan of fruits and chocolate. ",
            "DisplayName": true,
            "RatingValue": 4,
            "SubmitDate": "/Date(1117298354000-0500)/",
            "UpdatedDate": "/Date(1117298354000-0500)/",
            "UserName": "Cowgirl In The Kitchen"
          },
          {
            "Comment": "I will make this recipe for the Memorial day weekend.",
            "DisplayName": true,
            "RatingValue": 5,
            "SubmitDate": "/Date(1117129667000-0500)/",
            "UpdatedDate": "/Date(1117129667000-0500)/",
            "UserName": "sreetapa73"
          },
          {
            "Comment": "",
            "DisplayName": true,
            "RatingValue": 4,
            "SubmitDate": "/Date(1116262693000-0500)/",
            "UpdatedDate": "/Date(1116262693000-0500)/",
            "UserName": "silbo75"
          }
        ]
      },
      "RecipeDisplayFormatId": 5,
      "RecipeId": 75180,
      "RecipeName": "Chocolate-Berry Parfaits",
      "RecipeType": 0,
      "RelatedData": {
        "RelatedBrands": null,
        "RelatedProducts": null,
        "RelatedRecipes": {
          "DefaultTopCount": 5,
          "Recipe": [
            {
              "AverageRating": 4,
              "HasVideo": false,
              "IsHealthyLiving": false,
              "NumberOfRatings": 6,
              "PhotoName": "Creamy_Mocha_Berry_Parfait.jpg",
              "PhotoUrl": "http://assets.kraftfoods.com/recipe_images/opendeploy/Creamy_Mocha_Berry_Parfait.jpg",
              "RecipeId": 90520,
              "RecipeName": "Creamy Mocha Berry Parfait",
              "SEOName": "creamy-mocha-berry-parfait-90520",
              "ThumbnailPhoto": null
            },
            {
              "AverageRating": 4.3,
              "HasVideo": false,
              "IsHealthyLiving": true,
              "NumberOfRatings": 42,
              "PhotoName": "107304.jpg",
              "PhotoUrl": "http://assets.kraftfoods.com/recipe_images/opendeploy/107304.jpg",
              "RecipeId": 107304,
              "RecipeName": "Chocolate, Strawberry & Cookie Parfaits",
              "SEOName": "chocolate-strawberry-cookie-parfaits-107304",
              "ThumbnailPhoto": null
            },
            {
              "AverageRating": 5,
              "HasVideo": false,
              "IsHealthyLiving": true,
              "NumberOfRatings": 1,
              "PhotoName": "Sweetheart-Parfaits-for-Two-59869.jpg",
              "PhotoUrl": "http://assets.kraftfoods.com/recipe_images/opendeploy/Sweetheart-Parfaits-for-Two-59869.jpg",
              "RecipeId": 122159,
              "RecipeName": "Chocolate-Strawberry Parfait for Two",
              "SEOName": "chocolate-strawberry-parfait-for-two-122159",
              "ThumbnailPhoto": null
            },
            {
              "AverageRating": 4.2,
              "HasVideo": false,
              "IsHealthyLiving": true,
              "NumberOfRatings": 42,
              "PhotoName": "95087.jpg",
              "PhotoUrl": "http://assets.kraftfoods.com/recipe_images/opendeploy/95087.jpg",
              "RecipeId": 95087,
              "RecipeName": "Chocolate-Berry Pudding",
              "SEOName": "chocolate-berry-pudding-95087",
              "ThumbnailPhoto": null
            },
            {
              "AverageRating": 4,
              "HasVideo": false,
              "IsHealthyLiving": false,
              "NumberOfRatings": 2,
              "PhotoName": "57631.jpg",
              "PhotoUrl": "http://assets.kraftfoods.com/recipe_images/opendeploy/57631.jpg",
              "RecipeId": 57631,
              "RecipeName": "Chocolate-Berry Dessert Cups",
              "SEOName": "chocolate-berry-dessert-cups-57631",
              "ThumbnailPhoto": null
            }
          ],
          "TotalCount": 1554
        }
      },
      "RiseIngredients": [],
      "RiseTaxonomy": [],
      "Riserecipe": [
        {
          "GRIN": 550980,
          "RecipeId": 75180,
          "RecipeIndustrySector": "Retail",
          "RecipeType": "Internal"
        }
      ],
      "RomanceText": "Everyone likes a parfait. But layers of pudding, <b>Nilla</b> Wafers and fresh berries that can be part of a smart eating plan? Well, that's just par-fect.",
      "SEOName": "chocolate-berry-parfaits-75180",
      "Tips": [
        {
          "RecipeId": 75180,
          "Sequence": 10,
          "TipDescription": "Prepare using your favorite flavor of JELL-O Instant Pudding.",
          "TipID": 2,
          "TipName": "Substitute"
        },
        {
          "RecipeId": 75180,
          "Sequence": 50,
          "TipDescription": "Use 1 pkg. (3.9 oz.) JELL-O SIMPLY GOOD Chocolate Flavor Pudding.",
          "TipID": 5769,
          "TipName": "Substitute"
        },
        {
          "RecipeId": 75180,
          "Sequence": 50,
          "TipDescription": "Use 1 pkg. (3.9 oz.) JELL-O SIMPLY GOOD Chocolate Flavor Pudding.",
          "TipID": 5769,
          "TipName": "Best Apples for Snacking and Salads"
        }
      ],
      "TotalTime": 75,
      "TradeMarkInfo": null,
      "Video": [],
      "Yield": "Makes 8 servings. "
    }
  ]
}