{
  "Metadata": {
    "PageCount": 1,
    "PageNo": 0,
    "TotalCount": 0
  },
  "Recipes": [
    {
      "AdServingKeywords": "Cheese,Chicken,Dairy,Lettuce,Meat,Poultry,Sour Cream,Tomato,Vegetables,Entree,Easy,Mexican,Dinner,Lunch,All Seasons,Breakstones,Knudsen,Kraft Cheese,Kraft Shredded Cheese,Oscar Mayer,Taco Bell®,Quick and Easy,Cheesy,Spicy",
      "AlternateLanguageRecipes": [],
      "Assets": [
        {
          "PictureFormats": [
            {
              "rendition": "290x194",
              "url": "http://assets.kraftfoods.com/recipe_images/opendeploy/118930_290x194.jpg"
            },
            {
              "rendition": "640x428",
              "url": "http://assets.kraftfoods.com/recipe_images/opendeploy/118930_640x428.jpg"
            },
            {
              "rendition": "600x250",
              "url": "http://assets.kraftfoods.com/recipe_images/opendeploy/118930_600x250.jpg"
            }
          ],
          "author": "BulKUpload",
          "id": "2",
          "imageType": "Primary",
          "mimeType": "image/jpeg",
          "publicationDate": null,
          "status": "1",
          "title": "118930",
          "type": "image"
        },
        {
          "PictureFormats": [
            {
              "rendition": "140x90",
              "url": "http://assets.kraftfoods.com/recipe_images/opendeploy/118930_KRL_K46588V3_OR1_OH_140x90.jpg"
            },
            {
              "rendition": "300x250",
              "url": "http://assets.kraftfoods.com/recipe_images/opendeploy/118930_KRL_K46588V3_OR1_OH_300x250.jpg"
            },
            {
              "rendition": "960x300",
              "url": "http://assets.kraftfoods.com/recipe_images/opendeploy/118930_KRL_K46588V3_OR1_OH_960x300.jpg"
            }
          ],
          "author": null,
          "id": "2",
          "imageType": "Primary",
          "mimeType": "image/jpeg",
          "publicationDate": null,
          "status": "1",
          "title": "118930_KRL_K46588V3_OR1_OH",
          "type": "image"
        },
        {
          "PictureFormats": [
            {
              "rendition": "300x200",
              "url": "http://assets.kraftfoods.com/recipe_images/118930.jpg"
            }
          ],
          "author": "BulKUpload",
          "id": "0",
          "imageType": "LANDSCAPE",
          "mimeType": "image/jpeg",
          "publicationDate": null,
          "status": "1",
          "title": "118930.jpg",
          "type": "image"
        }
      ],
      "AverageRating": 3,
      "BrandId": 1,
      "Branding": null,
      "CSSSkins": null,
      "CarbCounter": null,
      "Categories": [
        {
          "CategoryID": 2,
          "CategoryName": "Poultry Entrees",
          "CategoryRank": 11,
          "SubCategoryID": 381,
          "SubCategoryName": "Enchiladas/Fajitas/Tacos",
          "SubCategoryRank": 30
        },
        {
          "CategoryID": 11,
          "CategoryName": "Primary",
          "CategoryRank": 0,
          "SubCategoryID": 97,
          "SubCategoryName": "Entrees",
          "SubCategoryRank": 50
        },
        {
          "CategoryID": 755,
          "CategoryName": "International Flavours",
          "CategoryRank": 9,
          "SubCategoryID": 2557,
          "SubCategoryName": "Asian",
          "SubCategoryRank": 1
        },
        {
          "CategoryID": 756,
          "CategoryName": "Main Meals (Meat / Seafood / Egg)",
          "CategoryRank": 10,
          "SubCategoryID": 2562,
          "SubCategoryName": "Chicken",
          "SubCategoryRank": 1
        }
      ],
      "Classifications": [],
      "ComplimentaryRecipes": [
        {
          "AverageRating": 0,
          "HasVideo": false,
          "IsHealthyLiving": false,
          "NumberOfRatings": 0,
          "PhotoName": null,
          "PhotoUrl": null,
          "RecipeId": 62479,
          "RecipeName": null,
          "SEOName": "jell-o-any-night-parfait-62479",
          "ThumbnailPhoto": "JELL-O_Any-Night_Parfait.jpg"
        }
      ],
      "CookingMethod": null,
      "Copyright": null,
      "Courses": [
        "Main dishes"
      ],
      "DietExchange": null,
      "DishDetails": [
        {
          "Text": "chicken recipes",
          "Url": "/recipes/dinner/chicken-recipes/main.aspx"
        },
        {
          "Text": "grilled chicken recipes",
          "Url": "/recipes/dinner/chicken-recipes/grilled-chicken/main.aspx"
        },
        {
          "Text": "healthy living chicken recipes",
          "Url": "/recipes/dinner/chicken-recipes/hl/main.aspx"
        },
        {
          "Text": "slow cooker chicken recipes",
          "Url": "/recipes/dinner/chicken-recipes/slow-cooker/main.aspx"
        },
        {
          "Text": "whole chicken recipes",
          "Url": "/recipes/dinner/chicken-recipes/whole-chicken/main.aspx"
        },
        {
          "Text": "chicken breast recipes",
          "Url": "/recipes/dinner/chicken-recipes/chicken-breast/main.aspx"
        },
        {
          "Text": "chicken casseroles",
          "Url": "/recipes/dinner/chicken-recipes/casseroles/main.aspx"
        },
        {
          "Text": "chicken pasta recipes",
          "Url": "/recipes/dinner/chicken-recipes/pasta-dishes/main.aspx"
        },
        {
          "Text": "chicken salad recipes",
          "Url": "/recipes/dinner/chicken-recipes/salads/main.aspx"
        },
        {
          "Text": "chicken stir-fry recipes",
          "Url": "/recipes/dinner/chicken-recipes/stir-fry/main.aspx"
        },
        {
          "Text": "chicken wing recipes",
          "Url": "/recipes/appetizers/chicken-wing-recipes/main.aspx"
        },
        {
          "Text": "baked chicken recipes",
          "Url": "/recipes/dinner/chicken-recipes/baked-chicken/main.aspx"
        },
        {
          "Text": "bbq chicken recipes",
          "Url": "/recipes/holidays-and-entertaining/entertaining/summer/bbq-recipes/bbq-chicken-recipes/main.aspx"
        }
      ],
      "EndDate": "/Date(-62135575200000-0600)/",
      "HasVideo": false,
      "Ingredients": [
        {
          "FullMeasure": "1 pkg.",
          "FullWeight": "",
          "IngredientGridHeaders": null,
          "IngredientID": 9542,
          "IngredientName": "OSCAR MAYER CARVING BOARD Flame Grilled Chicken Breast Strips",
          "IngredientStep": 10,
          "LanguageId": 0,
          "PostPreparation": "",
          "PrePreparation": "(6 oz.)",
          "QuantityNum": 1,
          "QuantityText": "1",
          "QuantityUnit": "pkg.",
          "RecipeIngredientID": 5279329,
          "TrialMeasure": "",
          "TrialWeight": ""
        },
        {
          "FullMeasure": "4",
          "FullWeight": "",
          "IngredientGridHeaders": null,
          "IngredientID": 19948,
          "IngredientName": "flour tortillas",
          "IngredientStep": 20,
          "LanguageId": 0,
          "PostPreparation": " (10 inch)",
          "PrePreparation": "",
          "QuantityNum": 4,
          "QuantityText": "4",
          "QuantityUnit": "",
          "RecipeIngredientID": 5279331,
          "TrialMeasure": "",
          "TrialWeight": ""
        },
        {
          "FullMeasure": "1/4 cup",
          "FullWeight": "",
          "IngredientGridHeaders": null,
          "IngredientID": 1826,
          "IngredientName": "TACO BELL® Thick & Chunky Salsa",
          "IngredientStep": 30,
          "LanguageId": 0,
          "PostPreparation": "",
          "PrePreparation": "",
          "QuantityNum": 0,
          "QuantityText": "1/4",
          "QuantityUnit": "cup",
          "RecipeIngredientID": 5279327,
          "TrialMeasure": "",
          "TrialWeight": ""
        },
        {
          "FullMeasure": "1/4 cup",
          "FullWeight": "",
          "IngredientGridHeaders": null,
          "IngredientID": 88,
          "IngredientName": "BREAKSTONE'S or KNUDSEN Sour Cream",
          "IngredientStep": 40,
          "LanguageId": 0,
          "PostPreparation": "",
          "PrePreparation": "",
          "QuantityNum": 0,
          "QuantityText": "1/4",
          "QuantityUnit": "cup",
          "RecipeIngredientID": 5279325,
          "TrialMeasure": "",
          "TrialWeight": ""
        },
        {
          "FullMeasure": "3/4 cup",
          "FullWeight": "",
          "IngredientGridHeaders": null,
          "IngredientID": 3466,
          "IngredientName": "KRAFT Mexican Style Finely Shredded Four Cheese",
          "IngredientStep": 50,
          "LanguageId": 0,
          "PostPreparation": "",
          "PrePreparation": "",
          "QuantityNum": 0,
          "QuantityText": "3/4",
          "QuantityUnit": "cup",
          "RecipeIngredientID": 5279328,
          "TrialMeasure": "",
          "TrialWeight": ""
        },
        {
          "FullMeasure": "1 cup",
          "FullWeight": "",
          "IngredientGridHeaders": null,
          "IngredientID": 1297,
          "IngredientName": "lettuce",
          "IngredientStep": 60,
          "LanguageId": 0,
          "PostPreparation": "",
          "PrePreparation": "shredded",
          "QuantityNum": 1,
          "QuantityText": "1",
          "QuantityUnit": "cup",
          "RecipeIngredientID": 5279326,
          "TrialMeasure": "",
          "TrialWeight": ""
        },
        {
          "FullMeasure": "1",
          "FullWeight": "",
          "IngredientGridHeaders": null,
          "IngredientID": 1702,
          "IngredientName": "tomato",
          "IngredientStep": 70,
          "LanguageId": 0,
          "PostPreparation": ", chopped",
          "PrePreparation": "",
          "QuantityNum": 1,
          "QuantityText": "1",
          "QuantityUnit": "",
          "RecipeIngredientID": 5279330,
          "TrialMeasure": "",
          "TrialWeight": ""
        }
      ],
      "IsHealthyLiving": false,
      "KRLId": "551020",
      "KeyIngredients": [
        "Cheese",
        "Chicken",
        "Dairy",
        "Fruit",
        "Lettuce",
        "Meat",
        "Poultry",
        "Tomato",
        "Vegetables"
      ],
      "Keywords": "OSCAR MAYER,BREAKSTONE'S Sour Cream,cheese,chicken,KNUDSEN Sour Cream,KRAFT Mexican Cheese Shreds,lettuce,mexican-style cheese,salsa,sour cream,tomatoes,tortillas,chicken breast strips,TACO BELL Salsa,TACO BELL,OSCAR MAYER Chicken Breast Strips,OSCAR MAYER CARVING BOARD,Entree,Easy,Dinner,Lunch,All Seasons,Cheesy,Spicy,Quick and Easy",
      "LanguageId": 1,
      "LifeStyles": [],
      "NumberOfIngredients": 7,
      "NumberOfRatings": 1,
      "NumberOfRatingsWithComments": "0",
      "NumberOfServings": "4 servings",
      "NumberOfTrialServings": "",
      "NutritionBonus": null,
      "NutritionExchangeItemId": 0,
      "NutritionGridItems": null,
      "NutritionItems": [
        {
          "DisplayOrder": 1,
          "Document": null,
          "NutritionItemID": 3,
          "NutritionItemName": "Calories",
          "Predriscriptor": "",
          "Quantity": 390,
          "Unit": "          "
        },
        {
          "DisplayOrder": 2,
          "Document": "fat_cholesterol.html",
          "NutritionItemID": 4,
          "NutritionItemName": "Total fat",
          "Predriscriptor": "",
          "Quantity": 15,
          "Unit": "g         "
        },
        {
          "DisplayOrder": 3,
          "Document": "fat_cholesterol.html",
          "NutritionItemID": 9,
          "NutritionItemName": "Saturated fat",
          "Predriscriptor": "",
          "Quantity": 7,
          "Unit": "g         "
        },
        {
          "DisplayOrder": 7,
          "Document": "fat_cholesterol.html",
          "NutritionItemID": 2,
          "NutritionItemName": "Cholesterol",
          "Predriscriptor": "",
          "Quantity": 60,
          "Unit": "mg        "
        },
        {
          "DisplayOrder": 8,
          "Document": "sodium.html",
          "NutritionItemID": 8,
          "NutritionItemName": "Sodium",
          "Predriscriptor": "",
          "Quantity": 1050,
          "Unit": "mg        "
        },
        {
          "DisplayOrder": 10,
          "Document": "carbs_sugars_fiber.html",
          "NutritionItemID": 1,
          "NutritionItemName": "Carbohydrate",
          "Predriscriptor": "",
          "Quantity": 41,
          "Unit": "g         "
        },
        {
          "DisplayOrder": 11,
          "Document": "carbs_sugars_fiber.html",
          "NutritionItemID": 7,
          "NutritionItemName": "Dietary fiber",
          "Predriscriptor": "",
          "Quantity": 3,
          "Unit": "g         "
        },
        {
          "DisplayOrder": 12,
          "Document": "carbs_sugars_fiber.html",
          "NutritionItemID": 5,
          "NutritionItemName": "Sugars",
          "Predriscriptor": "",
          "Quantity": 3,
          "Unit": "g         "
        },
        {
          "DisplayOrder": 13,
          "Document": null,
          "NutritionItemID": 6,
          "NutritionItemName": "Protein",
          "Predriscriptor": "",
          "Quantity": 23,
          "Unit": "g         "
        },
        {
          "DisplayOrder": 14,
          "Document": null,
          "NutritionItemID": 10,
          "NutritionItemName": "Vitamin A",
          "Predriscriptor": "",
          "Quantity": 15,
          "Unit": "%DV       "
        },
        {
          "DisplayOrder": 15,
          "Document": null,
          "NutritionItemID": 11,
          "NutritionItemName": "Vitamin C",
          "Predriscriptor": "",
          "Quantity": 8,
          "Unit": "%DV       "
        },
        {
          "DisplayOrder": 16,
          "Document": "dairy_and_calcium.html",
          "NutritionItemID": 12,
          "NutritionItemName": "Calcium",
          "Predriscriptor": "",
          "Quantity": 25,
          "Unit": "%DV       "
        },
        {
          "DisplayOrder": 17,
          "Document": null,
          "NutritionItemID": 13,
          "NutritionItemName": "Iron",
          "Predriscriptor": "",
          "Quantity": 15,
          "Unit": "%DV       "
        }
      ],
      "NutritionServingText": "",
      "PrepStepImage": null,
      "PreparationDescription": "Spread chicken strips onto microwaveable plate; cover with waxed paper. Microwave on HIGH 30 sec. or until warmed.  $Sprinkle down centers of tortillas; top with remaining ingredients.   $Fold in opposite sides of each tortilla, then roll up burrito-style. ",
      "PreparationPreText": "",
      "PreparationSteps": [
        {
          "Description": "Spread chicken strips onto microwaveable plate; cover with waxed paper. Microwave on HIGH 30 sec. or until warmed.  ",
          "PreparationStepImage": {
            "PictureFormats": [],
            "author": null,
            "id": null,
            "imageType": null,
            "mimeType": null,
            "publicationDate": null,
            "status": null,
            "title": null,
            "type": null
          },
          "Sequence": 1
        },
        {
          "Description": "Sprinkle down centers of tortillas; top with remaining ingredients.   ",
          "PreparationStepImage": {
            "PictureFormats": [],
            "author": null,
            "id": null,
            "imageType": null,
            "mimeType": null,
            "publicationDate": null,
            "status": null,
            "title": null,
            "type": null
          },
          "Sequence": 2
        },
        {
          "Description": "Fold in opposite sides of each tortilla, then roll up burrito-style. ",
          "PreparationStepImage": {
            "PictureFormats": [],
            "author": null,
            "id": null,
            "imageType": null,
            "mimeType": null,
            "publicationDate": null,
            "status": null,
            "title": null,
            "type": null
          },
          "Sequence": 3
        }
      ],
      "PreparationTime": 10,
      "Promotion": null,
      "Ratings": {
        "TotalCount": 1,
        "PageCount": 10,
        "PageNo": 1,
        "Rating": [
          {
            "Comment": "",
            "DisplayName": true,
            "RatingValue": 3,
            "SubmitDate": "/Date(1287512383000-0500)/",
            "UpdatedDate": "/Date(1287512422000-0500)/",
            "UserName": "Trista3"
          }
        ]
      },
      "RecipeDisplayFormatId": 5,
      "RecipeId": 118930,
      "RecipeName": "Cheesy Chicken Burritos",
      "RecipeType": 0,
      "RelatedData": {
        "RelatedBrands": null,
        "RelatedProducts": null,
        "RelatedRecipes": {
          "DefaultTopCount": 5,
          "Recipe": [
            {
              "AverageRating": 4,
              "HasVideo": false,
              "IsHealthyLiving": false,
              "NumberOfRatings": 49,
              "PhotoName": "109602.jpg",
              "PhotoUrl": "http://assets.kraftfoods.com/recipe_images/opendeploy/109602.jpg",
              "RecipeId": 109602,
              "RecipeName": "Cheesy Chicken Roll-ups",
              "SEOName": "cheesy-chicken-roll-ups-109602",
              "ThumbnailPhoto": null
            },
            {
              "AverageRating": 5,
              "HasVideo": false,
              "IsHealthyLiving": true,
              "NumberOfRatings": 2,
              "PhotoName": "Cheesy-Burrito-Scramble-45934.jpg",
              "PhotoUrl": "http://assets.kraftfoods.com/recipe_images/opendeploy/Cheesy-Burrito-Scramble-45934.jpg",
              "RecipeId": 126868,
              "RecipeName": "Cheesy Burrito Scramble to Go",
              "SEOName": "cheesy-burrito-scramble-go-126868",
              "ThumbnailPhoto": null
            },
            {
              "AverageRating": 4.4,
              "HasVideo": false,
              "IsHealthyLiving": true,
              "NumberOfRatings": 22,
              "PhotoName": "109214.jpg",
              "PhotoUrl": "http://assets.kraftfoods.com/recipe_images/opendeploy/109214.jpg",
              "RecipeId": 109214,
              "RecipeName": "Cheesy Turkey & Rice Burrito",
              "SEOName": "cheesy-turkey-rice-burrito-109214",
              "ThumbnailPhoto": null
            },
            {
              "AverageRating": 4.2,
              "HasVideo": true,
              "IsHealthyLiving": true,
              "NumberOfRatings": 129,
              "PhotoName": "107771.jpg",
              "PhotoUrl": "http://assets.kraftfoods.com/recipe_images/opendeploy/107771.jpg",
              "RecipeId": 107771,
              "RecipeName": "Cheesy Beef Burritos",
              "SEOName": "cheesy-beef-burritos-107771",
              "ThumbnailPhoto": null
            },
            {
              "AverageRating": 4.8,
              "HasVideo": false,
              "IsHealthyLiving": true,
              "NumberOfRatings": 4,
              "PhotoName": "123729.jpg",
              "PhotoUrl": "http://assets.kraftfoods.com/recipe_images/opendeploy/123729.jpg",
              "RecipeId": 123729,
              "RecipeName": "Greek-Style Burritos",
              "SEOName": "greek-style-burritos-123729",
              "ThumbnailPhoto": null
            }
          ],
          "TotalCount": 1522
        }
      },
      "RiseIngredients": [],
      "RiseTaxonomy": [],
      "Riserecipe": [
        {
          "GRIN": 551020,
          "RecipeId": 118930,
          "RecipeIndustrySector": "Retail",
          "RecipeType": "Internal"
        }
      ],
      "RomanceText": "Burritos are so fun because of the many different ingredients you can combine. This recipe fills soft tortillas with chicken, salsa, cheese and veggies.",
      "SEOName": "cheesy-chicken-burritos-118930",
      "Tips": [
        {
          "RecipeId": 118930,
          "Sequence": 10,
          "TipDescription": "Serve with a side of rice and beans to round out the meal.",
          "TipID": 3,
          "TipName": "Serving Suggestion"
        }
      ],
      "TotalTime": 10,
      "TradeMarkInfo": "TACO BELL® and Logo are trademarks owned and licensed by Taco Bell Corp.",
      "Video": [],
      "Yield": "Makes 4 servings."
    }
  ]
}