{
  "Metadata": {
    "PageCount": 1,
    "PageNo": 0,
    "TotalCount": 0
  },
  "Recipes": [
    {
      "AdServingKeywords": "Dessert,Dairy,Easy,Pies and Tarts,All Seasons,Potluck,Cool Whip,Jell-O,Kid-Friendly,Kids Can Cook,Creamy",
      "AlternateLanguageRecipes": [],
      "Assets": [],
      "AverageRating": 4.2,
      "BrandId": 1,
      "Branding": null,
      "CSSSkins": null,
      "CarbCounter": null,
      "Categories": [
        {
          "CategoryID": 4,
          "CategoryName": "Cakes/Pies/Cheesecakes",
          "CategoryRank": 5,
          "SubCategoryID": 354,
          "SubCategoryName": "Pies: Frozen",
          "SubCategoryRank": 110
        },
        {
          "CategoryID": 11,
          "CategoryName": "Primary",
          "CategoryRank": 0,
          "SubCategoryID": 103,
          "SubCategoryName": "Desserts",
          "SubCategoryRank": 40
        },
        {
          "CategoryID": 759,
          "CategoryName": "Desserts",
          "CategoryRank": 13,
          "SubCategoryID": 2578,
          "SubCategoryName": "Frozen",
          "SubCategoryRank": 1
        },
        {
          "CategoryID": 759,
          "CategoryName": "Desserts",
          "CategoryRank": 13,
          "SubCategoryID": 2581,
          "SubCategoryName": "Pastry",
          "SubCategoryRank": 1
        }
      ],
      "Classifications": [],
      "ComplimentaryRecipes": null,
      "CookingMethod": null,
      "Copyright": null,
      "Courses": [
        "Desserts"
      ],
      "DietExchange": null,
      "DishDetails": [
        {
          "Text": "desserts",
          "Url": "/recipes/dessert/main.aspx"
        },
        {
          "Text": "fruity desserts",
          "Url": "/recipes/dessert/fruitydesserts.aspx"
        },
        {
          "Text": "gelatin desserts",
          "Url": "/recipes/dessert/gelatindesserts.aspx"
        },
        {
          "Text": "layered desserts",
          "Url": "/recipes/dessert/layereddesserts.aspx"
        },
        {
          "Text": "brownie recipes",
          "Url": "/recipes/dessert/brownie-recipes/main.aspx"
        },
        {
          "Text": "budget desserts",
          "Url": "/recipes/budget/budget-desserts.aspx"
        },
        {
          "Text": "no bake desserts",
          "Url": "/recipes/dessert/nobakedesserts.aspx"
        },
        {
          "Text": "pumpkin recipes",
          "Url": "/recipes/dessert/pumpkin-recipes.aspx"
        },
        {
          "Text": "chocolate cake recipes",
          "Url": "/recipes/dessert/chocolate-cake-recipes/main.aspx"
        },
        {
          "Text": "cheesecake recipes",
          "Url": "/recipes/dessert/cheesecake-center/cheesecake-recipes/main.aspx"
        },
        {
          "Text": "chocolate lovers recipes",
          "Url": "/recipes/dessert/chocolate-center/chocolateloversrecipes.aspx"
        },
        {
          "Text": "classic desserts",
          "Url": "/recipes/dessert/classicdesserts.aspx"
        },
        {
          "Text": "cookie ball recipes",
          "Url": "/recipes/dessert/cookie-ball-recipes/main.aspx"
        },
        {
          "Text": "cookie recipes",
          "Url": "/recipes/dessert/cookie-recipes/main.aspx"
        },
        {
          "Text": "cupcake recipes",
          "Url": "/recipes/dessert/cupcake-recipes/main.aspx"
        },
        {
          "Text": "healthy living desserts",
          "Url": "/healthy-living-ideas/diabetes-center/recipes/dessert-recipes.aspx"
        },
        {
          "Text": "pumpkin pie recipes",
          "Url": "/recipes/holidays-and-entertaining/holidays/Thanksgiving/pumpkin-pie-recipes.aspx"
        },
        {
          "Text": "pie recipes",
          "Url": "/recipes/dessert/pie-recipes/main.aspx"
        }
      ],
      "EndDate": "/Date(-62135575200000-0600)/",
      "HasVideo": false,
      "Ingredients": [
        {
          "FullMeasure": "1-1/2 cups",
          "FullWeight": "",
          "IngredientGridHeaders": null,
          "IngredientID": 1345,
          "IngredientName": "milk",
          "IngredientStep": 10,
          "LanguageId": 0,
          "PostPreparation": "",
          "PrePreparation": "cold",
          "QuantityNum": 1,
          "QuantityText": "1-1/2",
          "QuantityUnit": "cups",
          "RecipeIngredientID": 6439911,
          "TrialMeasure": "",
          "TrialWeight": ""
        },
        {
          "FullMeasure": "1 pkg.",
          "FullWeight": "",
          "IngredientGridHeaders": null,
          "IngredientID": 285,
          "IngredientName": "JELL-O Vanilla Flavor Instant Pudding",
          "IngredientStep": 20,
          "LanguageId": 0,
          "PostPreparation": "",
          "PrePreparation": "(4-serving size)",
          "QuantityNum": 1,
          "QuantityText": "1",
          "QuantityUnit": "pkg.",
          "RecipeIngredientID": 6439913,
          "TrialMeasure": "",
          "TrialWeight": ""
        },
        {
          "FullMeasure": "2 cups",
          "FullWeight": "",
          "IngredientGridHeaders": null,
          "IngredientID": 140,
          "IngredientName": "COOL WHIP Whipped Topping",
          "IngredientStep": 30,
          "LanguageId": 0,
          "PostPreparation": "",
          "PrePreparation": "thawed",
          "QuantityNum": 2,
          "QuantityText": "2",
          "QuantityUnit": "cups",
          "RecipeIngredientID": 6439910,
          "TrialMeasure": "",
          "TrialWeight": ""
        },
        {
          "FullMeasure": "1 cup",
          "FullWeight": "",
          "IngredientGridHeaders": null,
          "IngredientID": 920,
          "IngredientName": "OREO Cookies",
          "IngredientStep": 40,
          "LanguageId": 0,
          "PostPreparation": " (about 7 cookies)",
          "PrePreparation": "chopped",
          "QuantityNum": 1,
          "QuantityText": "1",
          "QuantityUnit": "cup",
          "RecipeIngredientID": 6439914,
          "TrialMeasure": "",
          "TrialWeight": ""
        },
        {
          "FullMeasure": "1",
          "FullWeight": "",
          "IngredientGridHeaders": null,
          "IngredientID": 5509,
          "IngredientName": "OREO Pie Crust",
          "IngredientStep": 50,
          "LanguageId": 0,
          "PostPreparation": " (6 oz.)",
          "PrePreparation": "",
          "QuantityNum": 1,
          "QuantityText": "1",
          "QuantityUnit": "",
          "RecipeIngredientID": 6439912,
          "TrialMeasure": "",
          "TrialWeight": ""
        }
      ],
      "IsHealthyLiving": false,
      "KRLId": "500876",
      "KeyIngredients": [
        "Dairy"
      ],
      "Keywords": "cookies,COOL WHIP,JELL-O Pudding Mix,milk,sandwich cookies,vanilla pudding mix,whipped topping,pudding mix-instant,pie crust-graham/cookie crumb,OREO Cookies,OREO Pie Crust,oreos,Dessert,Easy,Pies and Tarts,All Seasons,Potluck,Creamy,Kid-Friendly,Kids Can Cook",
      "LanguageId": 1,
      "LifeStyles": [],
      "NumberOfIngredients": 5,
      "NumberOfRatings": 5,
      "NumberOfRatingsWithComments": "5",
      "NumberOfServings": "8 servings",
      "NumberOfTrialServings": null,
      "NutritionBonus": null,
      "NutritionExchangeItemId": 0,
      "NutritionGridItems": null,
      "NutritionItems": [
        {
          "DisplayOrder": 1,
          "Document": null,
          "NutritionItemID": 3,
          "NutritionItemName": "Calories",
          "Predriscriptor": "",
          "Quantity": 270,
          "Unit": "          "
        },
        {
          "DisplayOrder": 2,
          "Document": "fat_cholesterol.html",
          "NutritionItemID": 4,
          "NutritionItemName": "Total fat",
          "Predriscriptor": "",
          "Quantity": 11,
          "Unit": "g         "
        },
        {
          "DisplayOrder": 3,
          "Document": "fat_cholesterol.html",
          "NutritionItemID": 9,
          "NutritionItemName": "Saturated fat",
          "Predriscriptor": "",
          "Quantity": 5,
          "Unit": "g         "
        },
        {
          "DisplayOrder": 7,
          "Document": "fat_cholesterol.html",
          "NutritionItemID": 2,
          "NutritionItemName": "Cholesterol",
          "Predriscriptor": "Less than",
          "Quantity": 5,
          "Unit": "mg        "
        },
        {
          "DisplayOrder": 8,
          "Document": "sodium.html",
          "NutritionItemID": 8,
          "NutritionItemName": "Sodium",
          "Predriscriptor": "",
          "Quantity": 390,
          "Unit": "mg        "
        },
        {
          "DisplayOrder": 10,
          "Document": "carbs_sugars_fiber.html",
          "NutritionItemID": 1,
          "NutritionItemName": "Carbohydrate",
          "Predriscriptor": "",
          "Quantity": 40,
          "Unit": "g         "
        },
        {
          "DisplayOrder": 11,
          "Document": "carbs_sugars_fiber.html",
          "NutritionItemID": 7,
          "NutritionItemName": "Dietary fiber",
          "Predriscriptor": "",
          "Quantity": 1,
          "Unit": "g         "
        },
        {
          "DisplayOrder": 12,
          "Document": "carbs_sugars_fiber.html",
          "NutritionItemID": 5,
          "NutritionItemName": "Sugars",
          "Predriscriptor": "",
          "Quantity": 25,
          "Unit": "g         "
        },
        {
          "DisplayOrder": 13,
          "Document": null,
          "NutritionItemID": 6,
          "NutritionItemName": "Protein",
          "Predriscriptor": "",
          "Quantity": 3,
          "Unit": "g         "
        },
        {
          "DisplayOrder": 14,
          "Document": null,
          "NutritionItemID": 10,
          "NutritionItemName": "Vitamin A",
          "Predriscriptor": "",
          "Quantity": 2,
          "Unit": "%DV       "
        },
        {
          "DisplayOrder": 15,
          "Document": null,
          "NutritionItemID": 11,
          "NutritionItemName": "Vitamin C",
          "Predriscriptor": "",
          "Quantity": 0,
          "Unit": "%DV       "
        },
        {
          "DisplayOrder": 16,
          "Document": "dairy_and_calcium.html",
          "NutritionItemID": 12,
          "NutritionItemName": "Calcium",
          "Predriscriptor": "",
          "Quantity": 6,
          "Unit": "%DV       "
        },
        {
          "DisplayOrder": 17,
          "Document": null,
          "NutritionItemID": 13,
          "NutritionItemName": "Iron",
          "Predriscriptor": "",
          "Quantity": 10,
          "Unit": "%DV       "
        }
      ],
      "NutritionServingText": null,
      "PrepStepImage": null,
      "PreparationDescription": "Pour milk into large bowl.  Add dry pudding mix.  Beat with wire whisk 2 min. or until well blended.  Let stand 5 min.  Gently stir in whipped topping and chopped cookies.  $Spoon into crust.$Freeze 6 hours or until firm.  Remove from freezer about 15 min. before serving to soften slightly.  Store leftovers in freezer.",
      "PreparationPreText": null,
      "PreparationSteps": [
        {
          "Description": "Pour milk into large bowl.  Add dry pudding mix.  Beat with wire whisk 2 min. or until well blended.  Let stand 5 min.  Gently stir in whipped topping and chopped cookies.  ",
          "PreparationStepImage": {
            "PictureFormats": [],
            "author": null,
            "id": null,
            "imageType": null,
            "mimeType": null,
            "publicationDate": null,
            "status": null,
            "title": null,
            "type": null
          },
          "Sequence": 1
        },
        {
          "Description": "Spoon into crust.",
          "PreparationStepImage": {
            "PictureFormats": [],
            "author": null,
            "id": null,
            "imageType": null,
            "mimeType": null,
            "publicationDate": null,
            "status": null,
            "title": null,
            "type": null
          },
          "Sequence": 2
        },
        {
          "Description": "Freeze 6 hours or until firm.  Remove from freezer about 15 min. before serving to soften slightly.  Store leftovers in freezer.",
          "PreparationStepImage": {
            "PictureFormats": [],
            "author": null,
            "id": null,
            "imageType": null,
            "mimeType": null,
            "publicationDate": null,
            "status": null,
            "title": null,
            "type": null
          },
          "Sequence": 3
        }
      ],
      "PreparationTime": 15,
      "Promotion": null,
      "Ratings": {
        "TotalCount": 5,
        "PageCount": 10,
        "PageNo": 1,
        "Rating": [
          {
            "Comment": "i think that i would have preferred a refrigerated version",
            "DisplayName": true,
            "RatingValue": 2,
            "SubmitDate": "/Date(1218131361000-0500)/",
            "UpdatedDate": "/Date(1218131361000-0500)/",
            "UserName": "rattlerms"
          },
          {
            "Comment": "everyone loved this dessert. would be likely to make this agian\r\n ",
            "DisplayName": true,
            "RatingValue": 5,
            "SubmitDate": "/Date(1131993215000-0600)/",
            "UpdatedDate": "/Date(1131993215000-0600)/",
            "UserName": "bluang3lbby"
          },
          {
            "Comment": "Everyone in my family loves it. I make it for all of our family gatherings.",
            "DisplayName": false,
            "RatingValue": 5,
            "SubmitDate": "/Date(1068735760000-0600)/",
            "UpdatedDate": "/Date(1068735760000-0600)/",
            "UserName": "imspoiledmore"
          },
          {
            "Comment": "Very easy to make, can be low fat/reduced calories, and tastes great!",
            "DisplayName": false,
            "RatingValue": 5,
            "SubmitDate": "/Date(1033599477000-0500)/",
            "UpdatedDate": "/Date(1033599477000-0500)/",
            "UserName": "lbober"
          },
          {
            "Comment": "very good. kids love this very much.",
            "DisplayName": false,
            "RatingValue": 4,
            "SubmitDate": "/Date(1021584972000-0500)/",
            "UpdatedDate": "/Date(1021584972000-0500)/",
            "UserName": "moniahunt"
          }
        ]
      },
      "RecipeDisplayFormatId": 5,
      "RecipeId": 54219,
      "RecipeName": "Cookies and Cream Pie",
      "RecipeType": 0,
      "RelatedData": {
        "RelatedBrands": null,
        "RelatedProducts": null,
        "RelatedRecipes": {
          "DefaultTopCount": 5,
          "Recipe": [
            {
              "AverageRating": 4.9,
              "HasVideo": false,
              "IsHealthyLiving": false,
              "NumberOfRatings": 9,
              "PhotoName": "NUTTER_BUTTER_Chocolate_Cream_Pie.jpg",
              "PhotoUrl": "http://assets.kraftfoods.com/recipe_images/opendeploy/NUTTER_BUTTER_Chocolate_Cream_Pie.jpg",
              "RecipeId": 56347,
              "RecipeName": "Chocolate-Marshmallow Cream Pie",
              "SEOName": "chocolate-marshmallow-cream-pie-56347",
              "ThumbnailPhoto": null
            },
            {
              "AverageRating": 4,
              "HasVideo": false,
              "IsHealthyLiving": false,
              "NumberOfRatings": 2,
              "PhotoName": "191115.jpg",
              "PhotoUrl": "http://assets.kraftfoods.com/recipe_images/opendeploy/191115.jpg",
              "RecipeId": 191115,
              "RecipeName": "Toasted Coconut Cream Pie",
              "SEOName": "toasted-coconut-cream-pie-191115",
              "ThumbnailPhoto": null
            },
            {
              "AverageRating": 4,
              "HasVideo": false,
              "IsHealthyLiving": false,
              "NumberOfRatings": 1,
              "PhotoName": "Oreo-Birthday-Ice-Cream-Pie-61790.jpg",
              "PhotoUrl": "http://assets.kraftfoods.com/recipe_images/opendeploy/Oreo-Birthday-Ice-Cream-Pie-61790.jpg",
              "RecipeId": 130650,
              "RecipeName": "OREO Birthday Ice Cream Pie",
              "SEOName": "oreo-birthday-ice-cream-pie-130650",
              "ThumbnailPhoto": null
            },
            {
              "AverageRating": 4.5,
              "HasVideo": false,
              "IsHealthyLiving": false,
              "NumberOfRatings": 8,
              "PhotoName": "126854.jpg",
              "PhotoUrl": "http://assets.kraftfoods.com/recipe_images/opendeploy/126854.jpg",
              "RecipeId": 126854,
              "RecipeName": "OREO Banana Cream Pie",
              "SEOName": "oreo-banana-cream-pie-126854",
              "ThumbnailPhoto": null
            },
            {
              "AverageRating": 4.1,
              "HasVideo": false,
              "IsHealthyLiving": false,
              "NumberOfRatings": 17,
              "PhotoName": "Tropical_Coconut_Cream_Pie_in_Coconut_Cookie_Crust.jpg",
              "PhotoUrl": "http://assets.kraftfoods.com/recipe_images/opendeploy/Tropical_Coconut_Cream_Pie_in_Coconut_Cookie_Crust.jpg",
              "RecipeId": 56266,
              "RecipeName": "Tropical Coconut Cream Pie in Coconut Cookie Crust",
              "SEOName": "tropical-coconut-cream-pie-in-coconut-cookie-crust-56266",
              "ThumbnailPhoto": null
            }
          ],
          "TotalCount": 3856
        }
      },
      "RiseIngredients": [],
      "RiseTaxonomy": [],
      "Riserecipe": [
        {
          "GRIN": 500876,
          "RecipeId": 54219,
          "RecipeIndustrySector": "Retail",
          "RecipeType": "Internal"
        }
      ],
      "RomanceText": "The beloved cookies and cream team is at it again, this time in a luscious pie that can be ready to pop in the fridge in just 15 minutes.",
      "SEOName": "cookies-cream-pie-54219",
      "Tips": [
        {
          "RecipeId": 54219,
          "Sequence": 10,
          "TipDescription": "Serve this cool dessert for special family get-togethers.",
          "TipID": 5,
          "TipName": "Size Wise"
        },
        {
          "RecipeId": 54219,
          "Sequence": 20,
          "TipDescription": "Prepare as directed, substituting 1 cup chopped chocolate-covered English toffee bars (about 6 bars) for the chopped cookies, using a ready-to-use graham cracker crumb crust and spreading 1/3 cup butterscotch topping onto bottom of crust before filling with the pudding mixture.  ",
          "TipID": 2,
          "TipName": "Toffee Bar Crunch Pie"
        },
        {
          "RecipeId": 54219,
          "Sequence": 40,
          "TipDescription": "Prepare as directed, reducing milk to 3/4 cup, adding 3/4 cup pureed strawberries along with the milk and omitting the chopped cookies.  Line crust with banana slices before filling with the pudding mixture.  Garnish with additional whipped topping just before serving.",
          "TipID": 4,
          "TipName": "Strawberry Banana Split"
        },
        {
          "RecipeId": 54219,
          "Sequence": 50,
          "TipDescription": "Use 1 pkg. (3.4 oz.) JELL-O SIMPLY GOOD Vanilla Bean Flavor Pudding.",
          "TipID": 5768,
          "TipName": "Substitute"
        },
        {
          "RecipeId": 54219,
          "Sequence": 50,
          "TipDescription": "Use 1 pkg. (3.4 oz.) JELL-O SIMPLY GOOD Vanilla Bean Flavor Pudding.",
          "TipID": 5768,
          "TipName": "Best Apples for Baking and Cooking"
        }
      ],
      "TotalTime": 375,
      "TradeMarkInfo": null,
      "Video": [],
      "Yield": "Makes 8 servings."
    }
  ]
}