{
  "Metadata": {
    "PageCount": 1,
    "PageNo": 0,
    "TotalCount": 0
  },
  "Recipes": [
    {
      "AdServingKeywords": "Aluminum Foil,Baked,Appetizer,Cereal,Cheese,Chicken,Dairy,Eggs,Garlic,Meat,Parmesan,Poultry,Sour Cream,Breakstones,Grey Poupon,Knudsen,Kraft Cheese,Kraft Shredded Cheese,All Seasons,Crispy,Chicken Wings",
      "AlternateLanguageRecipes": [],
      "Assets": [],
      "AverageRating": 0,
      "BrandId": 1,
      "Branding": null,
      "CSSSkins": null,
      "CarbCounter": null,
      "Categories": [
        {
          "CategoryID": 6,
          "CategoryName": "Appetizers/Snacks",
          "CategoryRank": 1,
          "SubCategoryID": 444,
          "SubCategoryName": "Meatballs/Wieners/Wings",
          "SubCategoryRank": 60
        },
        {
          "CategoryID": 11,
          "CategoryName": "Primary",
          "CategoryRank": 0,
          "SubCategoryID": 96,
          "SubCategoryName": "Appetizers & Snacks",
          "SubCategoryRank": 10
        },
        {
          "CategoryID": 748,
          "CategoryName": "Finger Food, Dips & Appetisers",
          "CategoryRank": 2,
          "SubCategoryID": 2523,
          "SubCategoryName": "Hot",
          "SubCategoryRank": 1
        }
      ],
      "Classifications": [],
      "ComplimentaryRecipes": null,
      "CookingMethod": null,
      "Copyright": null,
      "Courses": [
        "Appetizers"
      ],
      "DietExchange": null,
      "DishDetails": [
        {
          "Text": "appetizers",
          "Url": "/recipes/appetizers/main.aspx"
        },
        {
          "Text": "cold appetizers",
          "Url": "/recipes/appetizers/coldappetizers.aspx"
        },
        {
          "Text": "cheese plates",
          "Url": "/recipes/appetizers/entertainingcheeseplates.aspx"
        },
        {
          "Text": "hot appetizers",
          "Url": "/recipes/appetizers/hotappetizers.aspx"
        },
        {
          "Text": "quick appetizers",
          "Url": "/recipes/appetizers/quick.aspx"
        },
        {
          "Text": "salsa recipes",
          "Url": "/recipes/appetizers/salsa-recipes/main.aspx"
        },
        {
          "Text": "seafood appetizers",
          "Url": "/recipes/dinner/seafood/appetizers/main.aspx"
        },
        {
          "Text": "dip recipes",
          "Url": "/recipes/appetizers/dip-recipes/main.aspx"
        },
        {
          "Text": "chicken recipes",
          "Url": "/recipes/dinner/chicken-recipes/main.aspx"
        },
        {
          "Text": "grilled chicken recipes",
          "Url": "/recipes/dinner/chicken-recipes/grilled-chicken/main.aspx"
        },
        {
          "Text": "healthy living chicken recipes",
          "Url": "/recipes/dinner/chicken-recipes/hl/main.aspx"
        },
        {
          "Text": "slow cooker chicken recipes",
          "Url": "/recipes/dinner/chicken-recipes/slow-cooker/main.aspx"
        },
        {
          "Text": "whole chicken recipes",
          "Url": "/recipes/dinner/chicken-recipes/whole-chicken/main.aspx"
        },
        {
          "Text": "chicken breast recipes",
          "Url": "/recipes/dinner/chicken-recipes/chicken-breast/main.aspx"
        },
        {
          "Text": "chicken casseroles",
          "Url": "/recipes/dinner/chicken-recipes/casseroles/main.aspx"
        },
        {
          "Text": "chicken pasta recipes",
          "Url": "/recipes/dinner/chicken-recipes/pasta-dishes/main.aspx"
        },
        {
          "Text": "chicken salad recipes",
          "Url": "/recipes/dinner/chicken-recipes/salads/main.aspx"
        },
        {
          "Text": "chicken stir-fry recipes",
          "Url": "/recipes/dinner/chicken-recipes/stir-fry/main.aspx"
        },
        {
          "Text": "chicken wing recipes",
          "Url": "/recipes/appetizers/chicken-wing-recipes/main.aspx"
        },
        {
          "Text": "baked chicken recipes",
          "Url": "/recipes/dinner/chicken-recipes/baked-chicken/main.aspx"
        },
        {
          "Text": "bbq chicken recipes",
          "Url": "/recipes/holidays-and-entertaining/entertaining/summer/bbq-recipes/bbq-chicken-recipes/main.aspx"
        }
      ],
      "EndDate": "/Date(-62135575200000-0600)/",
      "HasVideo": false,
      "Ingredients": [
        {
          "FullMeasure": "1/2 cup",
          "FullWeight": "",
          "IngredientGridHeaders": null,
          "IngredientID": 88,
          "IngredientName": "BREAKSTONE'S or KNUDSEN Sour Cream",
          "IngredientStep": 10,
          "LanguageId": 0,
          "PostPreparation": "",
          "PrePreparation": "",
          "QuantityNum": 0,
          "QuantityText": "1/2",
          "QuantityUnit": "cup",
          "RecipeIngredientID": 6456231,
          "TrialMeasure": "",
          "TrialWeight": ""
        },
        {
          "FullMeasure": "1/4 cup",
          "FullWeight": "",
          "IngredientGridHeaders": null,
          "IngredientID": 267,
          "IngredientName": "GREY POUPON Savory Honey Mustard",
          "IngredientStep": 20,
          "LanguageId": 0,
          "PostPreparation": ", divided",
          "PrePreparation": "",
          "QuantityNum": 0,
          "QuantityText": "1/4",
          "QuantityUnit": "cup",
          "RecipeIngredientID": 6456232,
          "TrialMeasure": "",
          "TrialWeight": ""
        },
        {
          "FullMeasure": "1/3 cup",
          "FullWeight": "",
          "IngredientGridHeaders": null,
          "IngredientID": 1119,
          "IngredientName": "fresh parsley",
          "IngredientStep": 30,
          "LanguageId": 0,
          "PostPreparation": "",
          "PrePreparation": "finely chopped",
          "QuantityNum": 0,
          "QuantityText": "1/3",
          "QuantityUnit": "cup",
          "RecipeIngredientID": 6456233,
          "TrialMeasure": "",
          "TrialWeight": ""
        },
        {
          "FullMeasure": "2",
          "FullWeight": "",
          "IngredientGridHeaders": null,
          "IngredientID": 1060,
          "IngredientName": "egg",
          "IngredientStep": 40,
          "LanguageId": 0,
          "PostPreparation": "s",
          "PrePreparation": "",
          "QuantityNum": 2,
          "QuantityText": "2",
          "QuantityUnit": "",
          "RecipeIngredientID": 6456230,
          "TrialMeasure": "",
          "TrialWeight": ""
        },
        {
          "FullMeasure": "1/2 tsp.",
          "FullWeight": "",
          "IngredientGridHeaders": null,
          "IngredientID": 1177,
          "IngredientName": "garlic powder",
          "IngredientStep": 50,
          "LanguageId": 0,
          "PostPreparation": "",
          "PrePreparation": "",
          "QuantityNum": 0,
          "QuantityText": "1/2",
          "QuantityUnit": "tsp.",
          "RecipeIngredientID": 6456235,
          "TrialMeasure": "",
          "TrialWeight": ""
        },
        {
          "FullMeasure": "3  cups",
          "FullWeight": "",
          "IngredientGridHeaders": null,
          "IngredientID": 2828,
          "IngredientName": "corn flakes",
          "IngredientStep": 60,
          "LanguageId": 0,
          "PostPreparation": ", coarsely crushed",
          "PrePreparation": "",
          "QuantityNum": 3,
          "QuantityText": "3 ",
          "QuantityUnit": "cups",
          "RecipeIngredientID": 6456236,
          "TrialMeasure": "",
          "TrialWeight": ""
        },
        {
          "FullMeasure": "1/2 cup",
          "FullWeight": "",
          "IngredientGridHeaders": null,
          "IngredientID": 402,
          "IngredientName": "KRAFT Shredded Parmesan Cheese",
          "IngredientStep": 70,
          "LanguageId": 0,
          "PostPreparation": "",
          "PrePreparation": "",
          "QuantityNum": 0,
          "QuantityText": "1/2",
          "QuantityUnit": "cup",
          "RecipeIngredientID": 6456234,
          "TrialMeasure": "",
          "TrialWeight": ""
        },
        {
          "FullMeasure": "2-1/2 lb.",
          "FullWeight": "",
          "IngredientGridHeaders": null,
          "IngredientID": 2106,
          "IngredientName": "chicken wings",
          "IngredientStep": 80,
          "LanguageId": 0,
          "PostPreparation": ", split at joints, tips removed",
          "PrePreparation": "",
          "QuantityNum": 2,
          "QuantityText": "2-1/2",
          "QuantityUnit": "lb.",
          "RecipeIngredientID": 6456229,
          "TrialMeasure": "",
          "TrialWeight": ""
        }
      ],
      "IsHealthyLiving": false,
      "KRLId": "509990",
      "KeyIngredients": [
        "Cereal",
        "Cheese",
        "Chicken",
        "Dairy",
        "Eggs",
        "Garlic",
        "Meat",
        "Parmesan",
        "Poultry"
      ],
      "Keywords": "mustard,parmesan cheese,BREAKSTONE'S Sour Cream,cereal,cheese,chicken,chicken wings,corn flakes,eggs,KNUDSEN Sour Cream,KRAFT Parmesan Cheese,meat,sour cream,GREY POUPON Mustard,parsley,garlic powder,honey mustard,Aluminum Foil,Baked,Appetizer,All Seasons",
      "LanguageId": 1,
      "LifeStyles": [],
      "NumberOfIngredients": 8,
      "NumberOfRatings": 0,
      "NumberOfRatingsWithComments": "0",
      "NumberOfServings": "15 servings",
      "NumberOfTrialServings": " ",
      "NutritionBonus": null,
      "NutritionExchangeItemId": 0,
      "NutritionGridItems": null,
      "NutritionItems": [
        {
          "DisplayOrder": 1,
          "Document": null,
          "NutritionItemID": 3,
          "NutritionItemName": "Calories",
          "Predriscriptor": "",
          "Quantity": 160,
          "Unit": "          "
        },
        {
          "DisplayOrder": 2,
          "Document": "fat_cholesterol.html",
          "NutritionItemID": 4,
          "NutritionItemName": "Total fat",
          "Predriscriptor": "",
          "Quantity": 10,
          "Unit": "g         "
        },
        {
          "DisplayOrder": 3,
          "Document": "fat_cholesterol.html",
          "NutritionItemID": 9,
          "NutritionItemName": "Saturated fat",
          "Predriscriptor": "",
          "Quantity": 3.5,
          "Unit": "g         "
        },
        {
          "DisplayOrder": 7,
          "Document": "fat_cholesterol.html",
          "NutritionItemID": 2,
          "NutritionItemName": "Cholesterol",
          "Predriscriptor": "",
          "Quantity": 60,
          "Unit": "mg        "
        },
        {
          "DisplayOrder": 8,
          "Document": "sodium.html",
          "NutritionItemID": 8,
          "NutritionItemName": "Sodium",
          "Predriscriptor": "",
          "Quantity": 150,
          "Unit": "mg        "
        },
        {
          "DisplayOrder": 10,
          "Document": "carbs_sugars_fiber.html",
          "NutritionItemID": 1,
          "NutritionItemName": "Carbohydrate",
          "Predriscriptor": "",
          "Quantity": 6,
          "Unit": "g         "
        },
        {
          "DisplayOrder": 11,
          "Document": "carbs_sugars_fiber.html",
          "NutritionItemID": 7,
          "NutritionItemName": "Dietary fiber",
          "Predriscriptor": "",
          "Quantity": 0,
          "Unit": "g         "
        },
        {
          "DisplayOrder": 12,
          "Document": "carbs_sugars_fiber.html",
          "NutritionItemID": 5,
          "NutritionItemName": "Sugars",
          "Predriscriptor": "",
          "Quantity": 1,
          "Unit": "g         "
        },
        {
          "DisplayOrder": 13,
          "Document": null,
          "NutritionItemID": 6,
          "NutritionItemName": "Protein",
          "Predriscriptor": "",
          "Quantity": 12,
          "Unit": "g         "
        },
        {
          "DisplayOrder": 14,
          "Document": null,
          "NutritionItemID": 10,
          "NutritionItemName": "Vitamin A",
          "Predriscriptor": "",
          "Quantity": 8,
          "Unit": "%DV       "
        },
        {
          "DisplayOrder": 15,
          "Document": null,
          "NutritionItemID": 11,
          "NutritionItemName": "Vitamin C",
          "Predriscriptor": "",
          "Quantity": 4,
          "Unit": "%DV       "
        },
        {
          "DisplayOrder": 16,
          "Document": "dairy_and_calcium.html",
          "NutritionItemID": 12,
          "NutritionItemName": "Calcium",
          "Predriscriptor": "",
          "Quantity": 6,
          "Unit": "%DV       "
        },
        {
          "DisplayOrder": 17,
          "Document": null,
          "NutritionItemID": 13,
          "NutritionItemName": "Iron",
          "Predriscriptor": "",
          "Quantity": 10,
          "Unit": "%DV       "
        }
      ],
      "NutritionServingText": " ",
      "PrepStepImage": null,
      "PreparationDescription": "Mix sour cream, 3 Tbsp. mustard and 2 Tbsp. parsley until blended.    Refrigerate until ready to use.$Line shallow pan with foil; spray with cooking spray. Whisk eggs, remaining mustard and garlic powder in shallow dish until blended. Combine cereal crumbs, cheese and remaining parsley in separate shallow dish. Dip wings, 1 at a time, in egg mixture, then in crumb mixture, turning to evenly coat both sides of each wing; place in prepared pan. $Bake 40 min. or until done. Serve with sour cream mixture. ",
      "PreparationPreText": "Heat oven to 400ºF.",
      "PreparationSteps": [
        {
          "Description": "Mix sour cream, 3 Tbsp. mustard and 2 Tbsp. parsley until blended.    Refrigerate until ready to use.",
          "PreparationStepImage": {
            "PictureFormats": [],
            "author": null,
            "id": null,
            "imageType": null,
            "mimeType": null,
            "publicationDate": null,
            "status": null,
            "title": null,
            "type": null
          },
          "Sequence": 1
        },
        {
          "Description": "Line shallow pan with foil; spray with cooking spray. Whisk eggs, remaining mustard and garlic powder in shallow dish until blended. Combine cereal crumbs, cheese and remaining parsley in separate shallow dish. Dip wings, 1 at a time, in egg mixture, then in crumb mixture, turning to evenly coat both sides of each wing; place in prepared pan. ",
          "PreparationStepImage": {
            "PictureFormats": [],
            "author": null,
            "id": null,
            "imageType": null,
            "mimeType": null,
            "publicationDate": null,
            "status": null,
            "title": null,
            "type": null
          },
          "Sequence": 2
        },
        {
          "Description": "Bake 40 min. or until done. Serve with sour cream mixture. ",
          "PreparationStepImage": {
            "PictureFormats": [],
            "author": null,
            "id": null,
            "imageType": null,
            "mimeType": null,
            "publicationDate": null,
            "status": null,
            "title": null,
            "type": null
          },
          "Sequence": 3
        }
      ],
      "PreparationTime": 10,
      "Promotion": null,
      "Ratings": {
        "TotalCount": 0,
        "PageCount": 10,
        "PageNo": 1,
        "Rating": []
      },
      "RecipeDisplayFormatId": 5,
      "RecipeId": 160086,
      "RecipeName": "Baked Chicken Wings",
      "RecipeType": 0,
      "RelatedData": {
        "RelatedBrands": null,
        "RelatedProducts": null,
        "RelatedRecipes": {
          "DefaultTopCount": 5,
          "Recipe": [
            {
              "AverageRating": 4,
              "HasVideo": false,
              "IsHealthyLiving": false,
              "NumberOfRatings": 2,
              "PhotoName": "Crispy-Buffalo-Sub-3899.jpg",
              "PhotoUrl": "http://assets.kraftfoods.com/recipe_images/opendeploy/Crispy-Buffalo-Sub-3899.jpg",
              "RecipeId": 114304,
              "RecipeName": "Crispy Wild Buffalo Sub",
              "SEOName": "crispy-wild-buffalo-sub-114304",
              "ThumbnailPhoto": null
            },
            {
              "AverageRating": 4.3,
              "HasVideo": false,
              "IsHealthyLiving": false,
              "NumberOfRatings": 81,
              "PhotoName": "Crispy_Coconut_Chicken_Fingers.jpg",
              "PhotoUrl": "http://assets.kraftfoods.com/recipe_images/opendeploy/Crispy_Coconut_Chicken_Fingers.jpg",
              "RecipeId": 56164,
              "RecipeName": "Crispy Coconut Chicken Fingers",
              "SEOName": "crispy-coconut-chicken-fingers-56164",
              "ThumbnailPhoto": null
            },
            {
              "AverageRating": 4.4,
              "HasVideo": true,
              "IsHealthyLiving": true,
              "NumberOfRatings": 303,
              "PhotoName": "90604.jpg",
              "PhotoUrl": "http://assets.kraftfoods.com/recipe_images/opendeploy/90604.jpg",
              "RecipeId": 90604,
              "RecipeName": "Simple Southern-Style \"Unfried\" Chicken",
              "SEOName": "simple-southern-style-unfried-chicken-90604",
              "ThumbnailPhoto": null
            },
            {
              "AverageRating": 4.1,
              "HasVideo": false,
              "IsHealthyLiving": false,
              "NumberOfRatings": 70,
              "PhotoName": "104605.jpg",
              "PhotoUrl": "http://assets.kraftfoods.com/recipe_images/opendeploy/104605.jpg",
              "RecipeId": 104605,
              "RecipeName": "Ultimate Sesame Chicken Wings",
              "SEOName": "ultimate-sesame-chicken-wings-104605",
              "ThumbnailPhoto": null
            },
            {
              "AverageRating": 4.4,
              "HasVideo": false,
              "IsHealthyLiving": false,
              "NumberOfRatings": 166,
              "PhotoName": "opendeploy/548930_1_1_retail-5f1753875d898d69a84657a44c9bbba086394593_306x204.jpg",
              "PhotoUrl": "http://assets.kraftfoods.com/recipe_images/opendeploy/opendeploy/548930_1_1_retail-5f1753875d898d69a84657a44c9bbba086394593_306x204.jpg",
              "RecipeId": 66298,
              "RecipeName": "Pineapple Chicken Wings",
              "SEOName": "pineapple-chicken-wings-66298",
              "ThumbnailPhoto": null
            }
          ],
          "TotalCount": 4588
        }
      },
      "RiseIngredients": [],
      "RiseTaxonomy": [],
      "Riserecipe": [
        {
          "GRIN": 509990,
          "RecipeId": 160086,
          "RecipeIndustrySector": "Retail",
          "RecipeType": "Internal"
        }
      ],
      "RomanceText": "Find out how crushed corn flakes are the secret to these crispy Baked Chicken Wings. Dip these Baked Chicken Wings in a honey-mustard sour cream sauce.",
      "SEOName": "baked-chicken-wings-160086",
      "Tips": [
        {
          "RecipeId": 160086,
          "Sequence": 10,
          "TipDescription": "Whisk eggs and remaining mustard in shallow dish as directed. Place the corn flakes, cheese and remaining parsley in resealable plastic bag. Squeeze bag until cereal is crushed and evenly mixed with the cheese and parsley. Dip wings, 1 at a time, in egg mixture, then add to crumb mixture in bag; close bag, then shake to evenly coat wings with crumb mixture.",
          "TipID": 1,
          "TipName": "How to Easily Coat the Wings"
        }
      ],
      "TotalTime": 50,
      "TradeMarkInfo": null,
      "Video": [],
      "Yield": "15 servings"
    }
  ]
}