{
  "Metadata": {
    "PageCount": 1,
    "PageNo": 0,
    "TotalCount": 0
  },
  "Recipes": [
    {
      "AdServingKeywords": "Carrot,Celery,Onion,Pasta Sauce,Potato,Vegetables,Easy,Top of Stove,Nutrition and Well-Being,Winter,Jewish,Soup,Dinner,Lunch,All Seasons,Chanukah,Passover,Cooking for a Crowd,Classico",
      "AlternateLanguageRecipes": [],
      "Assets": [
        {
          "PictureFormats": [
            {
              "rendition": "290x194",
              "url": "http://assets.kraftfoods.com/recipe_images/opendeploy/525957_1_1_retail-73171bb8e5622b8dbb40099ea0aed1fd0d852d7c_291x194.jpg"
            },
            {
              "rendition": "306x204",
              "url": "http://assets.kraftfoods.com/recipe_images/opendeploy/525957_1_1_retail-73171bb8e5622b8dbb40099ea0aed1fd0d852d7c_306x204.jpg"
            },
            {
              "rendition": "640x428",
              "url": "http://assets.kraftfoods.com/recipe_images/opendeploy/525957_1_1_retail-73171bb8e5622b8dbb40099ea0aed1fd0d852d7c_642x428.jpg"
            }
          ],
          "author": "Kraft",
          "id": "2",
          "imageType": "Primary",
          "mimeType": "image/jpeg",
          "publicationDate": null,
          "status": "1",
          "title": "525957_1_1_retail-73171bb8e5622b8dbb40099ea0aed1fd0d852d7c",
          "type": "image"
        }
      ],
      "AverageRating": 4.1,
      "BrandId": 1,
      "Branding": null,
      "CSSSkins": null,
      "CarbCounter": "1",
      "Categories": [
        {
          "CategoryID": 11,
          "CategoryName": "Primary",
          "CategoryRank": 0,
          "SubCategoryID": 100,
          "SubCategoryName": "Soups",
          "SubCategoryRank": 100
        },
        {
          "CategoryID": 14,
          "CategoryName": "Soup/Sandwiches",
          "CategoryRank": 14,
          "SubCategoryID": 451,
          "SubCategoryName": "Soups",
          "SubCategoryRank": 100
        },
        {
          "CategoryID": 749,
          "CategoryName": "Snacks, Soups & Entrées",
          "CategoryRank": 3,
          "SubCategoryID": 2525,
          "SubCategoryName": "Hot",
          "SubCategoryRank": 1
        },
        {
          "CategoryID": 749,
          "CategoryName": "Snacks, Soups & Entrées",
          "CategoryRank": 3,
          "SubCategoryID": 2527,
          "SubCategoryName": "Vegetarian",
          "SubCategoryRank": 1
        }
      ],
      "Classifications": [
        {
          "ClassficationId": 13,
          "ClassificationName": "Good source of vitamin A or C"
        },
        {
          "ClassficationId": 14,
          "ClassificationName": "Generally Nutritious"
        }
      ],
      "ComplimentaryRecipes": null,
      "CookingMethod": null,
      "Copyright": null,
      "Courses": [
        "Soups/stews"
      ],
      "DietExchange": "1 Starch,1/2 Fat",
      "DishDetails": [],
      "EndDate": "/Date(-62135575200000-0600)/",
      "HasVideo": false,
      "Ingredients": [
        {
          "FullMeasure": null,
          "FullWeight": null,
          "IngredientGridHeaders": null,
          "IngredientID": 67921,
          "IngredientName": "oil",
          "IngredientStep": 10,
          "LanguageId": 0,
          "PostPreparation": "",
          "PrePreparation": "",
          "QuantityNum": 3,
          "QuantityText": "3",
          "QuantityUnit": "Tbsp.",
          "RecipeIngredientID": 209010,
          "TrialMeasure": null,
          "TrialWeight": null
        },
        {
          "FullMeasure": null,
          "FullWeight": null,
          "IngredientGridHeaders": null,
          "IngredientID": 68776,
          "IngredientName": "chopped onions",
          "IngredientStep": 20,
          "LanguageId": 0,
          "PostPreparation": "",
          "PrePreparation": "",
          "QuantityNum": 1.5,
          "QuantityText": "1-1/2",
          "QuantityUnit": "cups",
          "RecipeIngredientID": 209664,
          "TrialMeasure": null,
          "TrialWeight": null
        },
        {
          "FullMeasure": null,
          "FullWeight": null,
          "IngredientGridHeaders": null,
          "IngredientID": 67752,
          "IngredientName": "chopped carrots",
          "IngredientStep": 30,
          "LanguageId": 0,
          "PostPreparation": "",
          "PrePreparation": "",
          "QuantityNum": 1.5,
          "QuantityText": "1-1/2",
          "QuantityUnit": "cups",
          "RecipeIngredientID": 212463,
          "TrialMeasure": null,
          "TrialWeight": null
        },
        {
          "FullMeasure": null,
          "FullWeight": null,
          "IngredientGridHeaders": null,
          "IngredientID": 68354,
          "IngredientName": "chopped celery",
          "IngredientStep": 40,
          "LanguageId": 0,
          "PostPreparation": "",
          "PrePreparation": "",
          "QuantityNum": 1.5,
          "QuantityText": "1-1/2",
          "QuantityUnit": "cups",
          "RecipeIngredientID": 210146,
          "TrialMeasure": null,
          "TrialWeight": null
        },
        {
          "FullMeasure": null,
          "FullWeight": null,
          "IngredientGridHeaders": null,
          "IngredientID": 68975,
          "IngredientName": "cubed unpeeled potatoes",
          "IngredientStep": 50,
          "LanguageId": 0,
          "PostPreparation": "",
          "PrePreparation": "",
          "QuantityNum": 2,
          "QuantityText": "2",
          "QuantityUnit": "cups",
          "RecipeIngredientID": 212335,
          "TrialMeasure": null,
          "TrialWeight": null
        },
        {
          "FullMeasure": null,
          "FullWeight": null,
          "IngredientGridHeaders": null,
          "IngredientID": 67966,
          "IngredientName": "(14-1/2 oz. each) low sodium  beef broth (about 2 quarts)",
          "IngredientStep": 60,
          "LanguageId": 0,
          "PostPreparation": "",
          "PrePreparation": "",
          "QuantityNum": 5,
          "QuantityText": "5",
          "QuantityUnit": "cans",
          "RecipeIngredientID": 213578,
          "TrialMeasure": null,
          "TrialWeight": null
        },
        {
          "FullMeasure": null,
          "FullWeight": null,
          "IngredientGridHeaders": null,
          "IngredientID": 73756,
          "IngredientName": "CLASSICO Traditional Sweet Basil Pasta Sauce",
          "IngredientStep": 70,
          "LanguageId": 0,
          "PostPreparation": "",
          "PrePreparation": "",
          "QuantityNum": 1.5,
          "QuantityText": "1-1/2",
          "QuantityUnit": "cups",
          "RecipeIngredientID": 219368,
          "TrialMeasure": null,
          "TrialWeight": null
        },
        {
          "FullMeasure": null,
          "FullWeight": null,
          "IngredientGridHeaders": null,
          "IngredientID": 67797,
          "IngredientName": "of dried thyme leaves",
          "IngredientStep": 80,
          "LanguageId": 0,
          "PostPreparation": "",
          "PrePreparation": "",
          "QuantityNum": 0,
          "QuantityText": "",
          "QuantityUnit": "dash",
          "RecipeIngredientID": 210145,
          "TrialMeasure": null,
          "TrialWeight": null
        },
        {
          "FullMeasure": null,
          "FullWeight": null,
          "IngredientGridHeaders": null,
          "IngredientID": 67965,
          "IngredientName": "of ground black pepper",
          "IngredientStep": 90,
          "LanguageId": 0,
          "PostPreparation": "",
          "PrePreparation": "",
          "QuantityNum": 0,
          "QuantityText": "",
          "QuantityUnit": "dash",
          "RecipeIngredientID": 213906,
          "TrialMeasure": null,
          "TrialWeight": null
        }
      ],
      "IsHealthyLiving": true,
      "KRLId": "525957",
      "KeyIngredients": [],
      "Keywords": "Easy,Top of Stove,Nutrition and Well-Being,Winter,Jewish,Dinner,Lunch,All Seasons,Chanukah,Passover,Soup,Cooking for a Crowd",
      "LanguageId": 1,
      "LifeStyles": [
        "Good source of vitamin A or C",
        "Generally Nutritious"
      ],
      "NumberOfIngredients": 9,
      "NumberOfRatings": 103,
      "NumberOfRatingsWithComments": "72",
      "NumberOfServings": "Makes 12 servings, 1 cup each.",
      "NumberOfTrialServings": null,
      "NutritionBonus": "Warm up with this hearty soup that's rich in vitamin A, thanks to the carrots.",
      "NutritionExchangeItemId": 1,
      "NutritionGridItems": null,
      "NutritionItems": [
        {
          "DisplayOrder": 0,
          "Document": null,
          "NutritionItemID": 380,
          "NutritionItemName": "Trans Fat",
          "Predriscriptor": "",
          "Quantity": 0,
          "Unit": "g         "
        },
        {
          "DisplayOrder": 0,
          "Document": null,
          "NutritionItemID": 384,
          "NutritionItemName": "Vitamin D",
          "Predriscriptor": "",
          "Quantity": 0,
          "Unit": "%DV       "
        },
        {
          "DisplayOrder": 0,
          "Document": null,
          "NutritionItemID": 385,
          "NutritionItemName": "Vitamin E",
          "Predriscriptor": "",
          "Quantity": 6,
          "Unit": "%DV       "
        },
        {
          "DisplayOrder": 0,
          "Document": null,
          "NutritionItemID": 388,
          "NutritionItemName": "Potassium",
          "Predriscriptor": "",
          "Quantity": 0,
          "Unit": "%DV       "
        },
        {
          "DisplayOrder": 0,
          "Document": null,
          "NutritionItemID": 390,
          "NutritionItemName": "Added Sugars",
          "Predriscriptor": "",
          "Quantity": 0,
          "Unit": "g         "
        },
        {
          "DisplayOrder": 10,
          "Document": null,
          "NutritionItemID": 371,
          "NutritionItemName": "Calories",
          "Predriscriptor": "",
          "Quantity": 90,
          "Unit": "          "
        },
        {
          "DisplayOrder": 20,
          "Document": null,
          "NutritionItemID": 376,
          "NutritionItemName": "Total fat",
          "Predriscriptor": "",
          "Quantity": 4,
          "Unit": "g         "
        },
        {
          "DisplayOrder": 30,
          "Document": null,
          "NutritionItemID": 377,
          "NutritionItemName": "Saturated fat",
          "Predriscriptor": "",
          "Quantity": 0,
          "Unit": "g         "
        },
        {
          "DisplayOrder": 40,
          "Document": null,
          "NutritionItemID": 379,
          "NutritionItemName": "Polyunsaturated Fat",
          "Predriscriptor": "",
          "Quantity": 1,
          "Unit": "g         "
        },
        {
          "DisplayOrder": 50,
          "Document": null,
          "NutritionItemID": 378,
          "NutritionItemName": "Monounsaturated Fat",
          "Predriscriptor": "",
          "Quantity": 2,
          "Unit": "g         "
        },
        {
          "DisplayOrder": 60,
          "Document": null,
          "NutritionItemID": 381,
          "NutritionItemName": "Cholesterol",
          "Predriscriptor": "",
          "Quantity": 0,
          "Unit": "mg        "
        },
        {
          "DisplayOrder": 70,
          "Document": null,
          "NutritionItemID": 389,
          "NutritionItemName": "Sodium",
          "Predriscriptor": "",
          "Quantity": 370,
          "Unit": "mg        "
        },
        {
          "DisplayOrder": 80,
          "Document": null,
          "NutritionItemID": 373,
          "NutritionItemName": "Carbohydrate",
          "Predriscriptor": "",
          "Quantity": 12,
          "Unit": "g         "
        },
        {
          "DisplayOrder": 90,
          "Document": null,
          "NutritionItemID": 374,
          "NutritionItemName": "Dietary fiber",
          "Predriscriptor": "",
          "Quantity": 2,
          "Unit": "g         "
        },
        {
          "DisplayOrder": 100,
          "Document": null,
          "NutritionItemID": 375,
          "NutritionItemName": "Sugars",
          "Predriscriptor": "",
          "Quantity": 4,
          "Unit": "g         "
        },
        {
          "DisplayOrder": 110,
          "Document": null,
          "NutritionItemID": 372,
          "NutritionItemName": "Protein",
          "Predriscriptor": "",
          "Quantity": 3,
          "Unit": "g         "
        },
        {
          "DisplayOrder": 120,
          "Document": null,
          "NutritionItemID": 382,
          "NutritionItemName": "Vitamin A",
          "Predriscriptor": "",
          "Quantity": 110,
          "Unit": "%DV       "
        },
        {
          "DisplayOrder": 130,
          "Document": null,
          "NutritionItemID": 383,
          "NutritionItemName": "Vitamin C",
          "Predriscriptor": "",
          "Quantity": 6,
          "Unit": "%DV       "
        },
        {
          "DisplayOrder": 140,
          "Document": null,
          "NutritionItemID": 386,
          "NutritionItemName": "Calcium",
          "Predriscriptor": "",
          "Quantity": 2,
          "Unit": "%DV       "
        },
        {
          "DisplayOrder": 150,
          "Document": null,
          "NutritionItemID": 387,
          "NutritionItemName": "Iron",
          "Predriscriptor": "",
          "Quantity": 2,
          "Unit": "%DV       "
        }
      ],
      "NutritionServingText": null,
      "PrepStepImage": null,
      "PreparationDescription": "Heat oil in large stock pot.  Add onions, carrots and celery; cook 5 minutes or until crisp-tender, stirring occasionally.  $Add remaining ingredients; stir.   Simmer 30 to 40 minutes or until potatoes are tender, stirring occasionally.  ",
      "PreparationPreText": null,
      "PreparationSteps": [
        {
          "Description": "Heat oil in large stock pot.  Add onions, carrots and celery; cook 5 minutes or until crisp-tender, stirring occasionally.  ",
          "PreparationStepImage": {
            "PictureFormats": [],
            "author": null,
            "id": null,
            "imageType": null,
            "mimeType": null,
            "publicationDate": null,
            "status": null,
            "title": null,
            "type": null
          },
          "Sequence": 1
        },
        {
          "Description": "Add remaining ingredients; stir.   Simmer 30 to 40 minutes or until potatoes are tender, stirring occasionally.  ",
          "PreparationStepImage": {
            "PictureFormats": [],
            "author": null,
            "id": null,
            "imageType": null,
            "mimeType": null,
            "publicationDate": null,
            "status": null,
            "title": null,
            "type": null
          },
          "Sequence": 2
        }
      ],
      "PreparationTime": 20,
      "Promotion": null,
      "Ratings": {
        "TotalCount": 103,
        "PageCount": 10,
        "PageNo": 1,
        "Rating": [
          {
            "Comment": "I will be adding stew meat the next time I make it.  ",
            "DisplayName": true,
            "RatingValue": 3,
            "SubmitDate": "/Date(1315626435000-0500)/",
            "UpdatedDate": "/Date(1315626435000-0500)/",
            "UserName": "shellyk9"
          },
          {
            "Comment": "Delicious~First made with regular beef broth and it was too salty.  Low sodium broth made it just right!  (I added 1 can, rinsed garbanzo) ",
            "DisplayName": true,
            "RatingValue": 5,
            "SubmitDate": "/Date(1302007718000-0500)/",
            "UpdatedDate": "/Date(1302007718000-0500)/",
            "UserName": "adriannevannoy"
          },
          {
            "Comment": "Very Yummy! Instead of using marinara sauce I used a can of diced tomatoes. I also added some red kidney beans too it. I didnt use the thyme leaves and it still came out great! I will definately make this again. :)",
            "DisplayName": true,
            "RatingValue": 5,
            "SubmitDate": "/Date(1274117965000-0500)/",
            "UpdatedDate": "/Date(1274117965000-0500)/",
            "UserName": "Yani0322"
          },
          {
            "Comment": "Yummy! I added 1LB seasoned ground turkey. Great get-over-your-cold medicine!",
            "DisplayName": true,
            "RatingValue": 5,
            "SubmitDate": "/Date(1263256382000-0600)/",
            "UpdatedDate": "/Date(1263256382000-0600)/",
            "UserName": "boobaby"
          },
          {
            "Comment": "",
            "DisplayName": true,
            "RatingValue": 4,
            "SubmitDate": "/Date(1256103741000-0500)/",
            "UpdatedDate": "/Date(1256103741000-0500)/",
            "UserName": "kaari2"
          },
          {
            "Comment": "This soup is excellent healthy and you can avoid salt with this recipe, I loved it.",
            "DisplayName": true,
            "RatingValue": 5,
            "SubmitDate": "/Date(1254262601000-0500)/",
            "UpdatedDate": "/Date(1254262601000-0500)/",
            "UserName": "kmburke12"
          },
          {
            "Comment": "I've made this a couple of times and enjoyed it very much. It lacks a bit of zing and I'm not sure how to accomplish that! I would make it again.",
            "DisplayName": true,
            "RatingValue": 3,
            "SubmitDate": "/Date(1236977553000-0500)/",
            "UpdatedDate": "/Date(1236977553000-0500)/",
            "UserName": "teamomvt"
          },
          {
            "Comment": "",
            "DisplayName": true,
            "RatingValue": 3,
            "SubmitDate": "/Date(1231806162000-0600)/",
            "UpdatedDate": "/Date(1231806162000-0600)/",
            "UserName": "kutterfli"
          },
          {
            "Comment": "DELICIOUS!  So healthy too!",
            "DisplayName": false,
            "RatingValue": 5,
            "SubmitDate": "/Date(1231608750000-0600)/",
            "UpdatedDate": "/Date(1231608750000-0600)/",
            "UserName": "cneff01"
          },
          {
            "Comment": "delicious!  and had leftovers for days!  am going to add some sort of macaroni to it when i make it again tonight.",
            "DisplayName": true,
            "RatingValue": 5,
            "SubmitDate": "/Date(1229617564000-0600)/",
            "UpdatedDate": "/Date(1229617564000-0600)/",
            "UserName": "careyd115"
          }
        ]
      },
      "RecipeDisplayFormatId": 0,
      "RecipeId": 54395,
      "RecipeName": "Hearty Italian Vegetable Soup",
      "RecipeType": 0,
      "RelatedData": {
        "RelatedBrands": null,
        "RelatedProducts": null,
        "RelatedRecipes": {
          "DefaultTopCount": 5,
          "Recipe": [
            {
              "AverageRating": 5,
              "HasVideo": false,
              "IsHealthyLiving": true,
              "NumberOfRatings": 2,
              "PhotoName": "89037.jpg",
              "PhotoUrl": "http://assets.kraftfoods.com/recipe_images/opendeploy/89037.jpg",
              "RecipeId": 89037,
              "RecipeName": "Hearty Vegetable Beef Soup",
              "SEOName": "hearty-vegetable-beef-soup-89037",
              "ThumbnailPhoto": null
            },
            {
              "AverageRating": 4.2,
              "HasVideo": false,
              "IsHealthyLiving": true,
              "NumberOfRatings": 79,
              "PhotoName": "Hearty_Cabbage_Soup.jpg",
              "PhotoUrl": "http://assets.kraftfoods.com/recipe_images/opendeploy/Hearty_Cabbage_Soup.jpg",
              "RecipeId": 92011,
              "RecipeName": "Hearty Cabbage Soup Recipe",
              "SEOName": "hearty-cabbage-soup-recipe-92011",
              "ThumbnailPhoto": null
            },
            {
              "AverageRating": 4.7,
              "HasVideo": false,
              "IsHealthyLiving": true,
              "NumberOfRatings": 254,
              "PhotoName": "rec_r1_46690v1ec.jpg",
              "PhotoUrl": "http://assets.kraftfoods.com/recipe_images/opendeploy/rec_r1_46690v1ec.jpg",
              "RecipeId": 75585,
              "RecipeName": "Hearty Italian Chicken Chowder",
              "SEOName": "hearty-italian-chicken-chowder-75585",
              "ThumbnailPhoto": null
            },
            {
              "AverageRating": 4,
              "HasVideo": false,
              "IsHealthyLiving": true,
              "NumberOfRatings": 6,
              "PhotoName": "90974.jpg",
              "PhotoUrl": "http://assets.kraftfoods.com/recipe_images/opendeploy/90974.jpg",
              "RecipeId": 90974,
              "RecipeName": "Hearty Pot Roast with Parsnips",
              "SEOName": "hearty-pot-roast-parsnips-90974",
              "ThumbnailPhoto": null
            },
            {
              "AverageRating": 4.1,
              "HasVideo": false,
              "IsHealthyLiving": false,
              "NumberOfRatings": 8,
              "PhotoName": "opendeploy/63088-fa6e77a9372e313511085784df7dc8c156ce41c4_306x204.jpg",
              "PhotoUrl": "http://assets.kraftfoods.com/recipe_images/opendeploy/opendeploy/63088-fa6e77a9372e313511085784df7dc8c156ce41c4_306x204.jpg",
              "RecipeId": 63088,
              "RecipeName": "Hearty Hot Hero",
              "SEOName": "hearty-hot-hero-63088",
              "ThumbnailPhoto": null
            }
          ],
          "TotalCount": 2638
        }
      },
      "RiseIngredients": [
        {
          "IngredientCategory": "KRL",
          "IngredientId": 67752,
          "IngredientIndustrySector": "Retail",
          "IngredientType": "Inedible",
          "ProductId": null,
          "RecipeId": 54395
        },
        {
          "IngredientCategory": "KRL",
          "IngredientId": 67797,
          "IngredientIndustrySector": "Retail",
          "IngredientType": "Inedible",
          "ProductId": null,
          "RecipeId": 54395
        },
        {
          "IngredientCategory": "KRL",
          "IngredientId": 67921,
          "IngredientIndustrySector": "Retail",
          "IngredientType": "Inedible",
          "ProductId": null,
          "RecipeId": 54395
        },
        {
          "IngredientCategory": "KRL",
          "IngredientId": 67965,
          "IngredientIndustrySector": "Retail",
          "IngredientType": "Inedible",
          "ProductId": null,
          "RecipeId": 54395
        },
        {
          "IngredientCategory": "KRL",
          "IngredientId": 67966,
          "IngredientIndustrySector": "Retail",
          "IngredientType": "Inedible",
          "ProductId": null,
          "RecipeId": 54395
        },
        {
          "IngredientCategory": "KRL",
          "IngredientId": 68354,
          "IngredientIndustrySector": "Retail",
          "IngredientType": "Inedible",
          "ProductId": null,
          "RecipeId": 54395
        },
        {
          "IngredientCategory": "KRL",
          "IngredientId": 68776,
          "IngredientIndustrySector": "Retail",
          "IngredientType": "Inedible",
          "ProductId": null,
          "RecipeId": 54395
        },
        {
          "IngredientCategory": "KRL",
          "IngredientId": 68975,
          "IngredientIndustrySector": "Retail",
          "IngredientType": "Inedible",
          "ProductId": null,
          "RecipeId": 54395
        },
        {
          "IngredientCategory": "KRL",
          "IngredientId": 73756,
          "IngredientIndustrySector": "Retail",
          "IngredientType": "KHC",
          "ProductId": "00041129077900",
          "RecipeId": 54395
        }
      ],
      "RiseTaxonomy": [
        {
          "ParentTaxonomyId": 0,
          "RecipeId": 54395,
          "ResourceName": "Recipe",
          "TaxonomyId": 65,
          "TaxonomyName": "Entrées",
          "TaxonomyTypeId": 2,
          "TaxonomyTypeName": "Meal Part"
        },
        {
          "ParentTaxonomyId": 45,
          "RecipeId": 54395,
          "ResourceName": "Recipe",
          "TaxonomyId": 174,
          "TaxonomyName": "Soups, Hot",
          "TaxonomyTypeId": 3,
          "TaxonomyTypeName": "Dish Type"
        },
        {
          "ParentTaxonomyId": 0,
          "RecipeId": 54395,
          "ResourceName": "Recipe",
          "TaxonomyId": 310,
          "TaxonomyName": "Hanukkah",
          "TaxonomyTypeId": 5,
          "TaxonomyTypeName": "Occasion-Theme"
        },
        {
          "ParentTaxonomyId": 0,
          "RecipeId": 54395,
          "ResourceName": "Recipe",
          "TaxonomyId": 319,
          "TaxonomyName": "Passover",
          "TaxonomyTypeId": 5,
          "TaxonomyTypeName": "Occasion-Theme"
        },
        {
          "ParentTaxonomyId": 0,
          "RecipeId": 54395,
          "ResourceName": "Recipe",
          "TaxonomyId": 321,
          "TaxonomyName": "Rosh Hashanah",
          "TaxonomyTypeId": 5,
          "TaxonomyTypeName": "Occasion-Theme"
        }
      ],
      "Riserecipe": [
        {
          "GRIN": 525957,
          "RecipeId": 54395,
          "RecipeIndustrySector": "Retail",
          "RecipeType": "Internal"
        }
      ],
      "RomanceText": "Stir up some Hearty Italian Vegetable Soup to warm up anyone's week! This easy-to-make Healthy Living Italian vegetable soup recipe yields 12 servings.",
      "SEOName": "hearty-italian-vegetable-soup-54395",
      "Tips": [
        {
          "RecipeId": 54395,
          "Sequence": 10,
          "TipDescription": "To prepare this recipe for Passover, select food products that are kosher for Passover as needed. Consult with your rabbi if you have any questions.",
          "TipID": 5743,
          "TipName": "Passover Celebrations"
        },
        {
          "RecipeId": 54395,
          "Sequence": 30,
          "TipDescription": "Keep potatoes in a cool, dry, well-ventilated place. Avoid storing with onions because potatoes readily absorb odors. Protect them from moisture and light, which may cause them to turn green. Never refrigerate because cold changes the starch to sugar.",
          "TipID": 1,
          "TipName": "Storage Know-How"
        },
        {
          "RecipeId": 54395,
          "Sequence": 40,
          "TipDescription": "Warm up with this hearty vegetable soup that provides more than 1/2 cup of the recommended 2-1/2 cups of vegetables per day in each serving. ",
          "TipID": 2,
          "TipName": "Nutrition Bonus"
        }
      ],
      "TotalTime": 65,
      "TradeMarkInfo": null,
      "Video": [],
      "Yield": "Makes 12 servings, 1 cup each."
    }
  ]
}