{
  "Metadata": {
    "PageCount": 1,
    "PageNo": 0,
    "TotalCount": 0
  },
  "Recipes": [
    {
      "AdServingKeywords": "Drinks,Alcohol,Lime,All Seasons,Crystal Light",
      "AlternateLanguageRecipes": [],
      "Assets": [],
      "AverageRating": 0,
      "BrandId": 1,
      "Branding": null,
      "CSSSkins": null,
      "CarbCounter": null,
      "Categories": [
        {
          "CategoryID": 5,
          "CategoryName": "Beverages",
          "CategoryRank": 2,
          "SubCategoryID": 21,
          "SubCategoryName": "Other Cold Beverages",
          "SubCategoryRank": 40
        },
        {
          "CategoryID": 11,
          "CategoryName": "Primary",
          "CategoryRank": 0,
          "SubCategoryID": 104,
          "SubCategoryName": "Beverages",
          "SubCategoryRank": 20
        },
        {
          "CategoryID": 747,
          "CategoryName": "Beverages",
          "CategoryRank": 1,
          "SubCategoryID": 2521,
          "SubCategoryName": "Chilled",
          "SubCategoryRank": 1
        },
        {
          "CategoryID": 747,
          "CategoryName": "Beverages",
          "CategoryRank": 1,
          "SubCategoryID": 2522,
          "SubCategoryName": "Mocktails",
          "SubCategoryRank": 1
        }
      ],
      "Classifications": [],
      "ComplimentaryRecipes": [
        {
          "AverageRating": 0,
          "HasVideo": false,
          "IsHealthyLiving": false,
          "NumberOfRatings": 0,
          "PhotoName": null,
          "PhotoUrl": null,
          "RecipeId": 160392,
          "RecipeName": null,
          "SEOName": "grilled-roasted-garlic-potato-salad-160392",
          "ThumbnailPhoto": "grilled-roasted-garlic-potato-salad-64854v0.jpg"
        }
      ],
      "CookingMethod": null,
      "Copyright": null,
      "Courses": [
        "Beverages"
      ],
      "DietExchange": null,
      "DishDetails": [],
      "EndDate": "/Date(-62135575200000-0600)/",
      "HasVideo": false,
      "Ingredients": [
        {
          "FullMeasure": null,
          "FullWeight": null,
          "IngredientGridHeaders": null,
          "IngredientID": 70743,
          "IngredientName": "(0.14 oz.) CRYSTAL LIGHT On The Go Lemonade Flavor Drink Mix",
          "IngredientStep": 10,
          "LanguageId": 0,
          "PostPreparation": "",
          "PrePreparation": "",
          "QuantityNum": 1,
          "QuantityText": "1",
          "QuantityUnit": "pkt.",
          "RecipeIngredientID": 125307,
          "TrialMeasure": null,
          "TrialWeight": null
        },
        {
          "FullMeasure": null,
          "FullWeight": null,
          "IngredientGridHeaders": null,
          "IngredientID": 68779,
          "IngredientName": "mint leaves",
          "IngredientStep": 20,
          "LanguageId": 0,
          "PostPreparation": "",
          "PrePreparation": "",
          "QuantityNum": 6,
          "QuantityText": "6",
          "QuantityUnit": "large",
          "RecipeIngredientID": 125260,
          "TrialMeasure": null,
          "TrialWeight": null
        },
        {
          "FullMeasure": null,
          "FullWeight": null,
          "IngredientGridHeaders": null,
          "IngredientID": 68791,
          "IngredientName": "(8 oz.) water",
          "IngredientStep": 30,
          "LanguageId": 0,
          "PostPreparation": "",
          "PrePreparation": "",
          "QuantityNum": 1,
          "QuantityText": "1",
          "QuantityUnit": "cup",
          "RecipeIngredientID": 122115,
          "TrialMeasure": null,
          "TrialWeight": null
        },
        {
          "FullMeasure": null,
          "FullWeight": null,
          "IngredientGridHeaders": null,
          "IngredientID": 68380,
          "IngredientName": "(4 oz.) club soda",
          "IngredientStep": 40,
          "LanguageId": 0,
          "PostPreparation": "",
          "PrePreparation": "",
          "QuantityNum": 0.5,
          "QuantityText": "1/2",
          "QuantityUnit": "cup",
          "RecipeIngredientID": 124305,
          "TrialMeasure": null,
          "TrialWeight": null
        },
        {
          "FullMeasure": null,
          "FullWeight": null,
          "IngredientGridHeaders": null,
          "IngredientID": 68514,
          "IngredientName": "(2 oz.) white rum",
          "IngredientStep": 50,
          "LanguageId": 0,
          "PostPreparation": "",
          "PrePreparation": "",
          "QuantityNum": 0.25,
          "QuantityText": "1/4",
          "QuantityUnit": "cup",
          "RecipeIngredientID": 132018,
          "TrialMeasure": null,
          "TrialWeight": null
        },
        {
          "FullMeasure": null,
          "FullWeight": null,
          "IngredientGridHeaders": null,
          "IngredientID": 68121,
          "IngredientName": "lime juice",
          "IngredientStep": 60,
          "LanguageId": 0,
          "PostPreparation": "",
          "PrePreparation": "",
          "QuantityNum": 1,
          "QuantityText": "1",
          "QuantityUnit": "Tbsp.",
          "RecipeIngredientID": 127240,
          "TrialMeasure": null,
          "TrialWeight": null
        }
      ],
      "IsHealthyLiving": false,
      "KRLId": "559091",
      "KeyIngredients": [],
      "Keywords": "Drinks,All Seasons",
      "LanguageId": 1,
      "LifeStyles": [],
      "NumberOfIngredients": 6,
      "NumberOfRatings": 0,
      "NumberOfRatingsWithComments": "0",
      "NumberOfServings": "Makes 2 servings.",
      "NumberOfTrialServings": null,
      "NutritionBonus": null,
      "NutritionExchangeItemId": 0,
      "NutritionGridItems": null,
      "NutritionItems": [
        {
          "DisplayOrder": 1,
          "Document": null,
          "NutritionItemID": 371,
          "NutritionItemName": "Calories",
          "Predriscriptor": "",
          "Quantity": 70,
          "Unit": "          "
        },
        {
          "DisplayOrder": 2,
          "Document": null,
          "NutritionItemID": 376,
          "NutritionItemName": "Total fat",
          "Predriscriptor": "",
          "Quantity": 0,
          "Unit": "g         "
        },
        {
          "DisplayOrder": 3,
          "Document": null,
          "NutritionItemID": 377,
          "NutritionItemName": "Saturated fat",
          "Predriscriptor": "",
          "Quantity": 0,
          "Unit": "g         "
        },
        {
          "DisplayOrder": 4,
          "Document": null,
          "NutritionItemID": 379,
          "NutritionItemName": "Polyunsaturated Fat",
          "Predriscriptor": "",
          "Quantity": 0,
          "Unit": "g         "
        },
        {
          "DisplayOrder": 5,
          "Document": null,
          "NutritionItemID": 378,
          "NutritionItemName": "Monounsaturated Fat",
          "Predriscriptor": "",
          "Quantity": 0,
          "Unit": "g         "
        },
        {
          "DisplayOrder": 6,
          "Document": null,
          "NutritionItemID": 380,
          "NutritionItemName": "Trans Fat",
          "Predriscriptor": "",
          "Quantity": 0,
          "Unit": "g         "
        },
        {
          "DisplayOrder": 7,
          "Document": null,
          "NutritionItemID": 381,
          "NutritionItemName": "Cholesterol",
          "Predriscriptor": "",
          "Quantity": 0,
          "Unit": "mg        "
        },
        {
          "DisplayOrder": 8,
          "Document": null,
          "NutritionItemID": 389,
          "NutritionItemName": "Sodium",
          "Predriscriptor": "",
          "Quantity": 55,
          "Unit": "mg        "
        },
        {
          "DisplayOrder": 10,
          "Document": null,
          "NutritionItemID": 373,
          "NutritionItemName": "Carbohydrate",
          "Predriscriptor": "",
          "Quantity": 1,
          "Unit": "g         "
        },
        {
          "DisplayOrder": 11,
          "Document": null,
          "NutritionItemID": 374,
          "NutritionItemName": "Dietary fiber",
          "Predriscriptor": "",
          "Quantity": 0,
          "Unit": "g         "
        },
        {
          "DisplayOrder": 12,
          "Document": null,
          "NutritionItemID": 375,
          "NutritionItemName": "Sugars",
          "Predriscriptor": "",
          "Quantity": 0,
          "Unit": "g         "
        },
        {
          "DisplayOrder": 13,
          "Document": null,
          "NutritionItemID": 372,
          "NutritionItemName": "Protein",
          "Predriscriptor": "",
          "Quantity": 0,
          "Unit": "g         "
        },
        {
          "DisplayOrder": 14,
          "Document": null,
          "NutritionItemID": 382,
          "NutritionItemName": "Vitamin A",
          "Predriscriptor": "",
          "Quantity": 6,
          "Unit": "%DV       "
        },
        {
          "DisplayOrder": 15,
          "Document": null,
          "NutritionItemID": 383,
          "NutritionItemName": "Vitamin C",
          "Predriscriptor": "",
          "Quantity": 0,
          "Unit": "%DV       "
        },
        {
          "DisplayOrder": 16,
          "Document": null,
          "NutritionItemID": 386,
          "NutritionItemName": "Calcium",
          "Predriscriptor": "",
          "Quantity": 0,
          "Unit": "%DV       "
        },
        {
          "DisplayOrder": 17,
          "Document": null,
          "NutritionItemID": 387,
          "NutritionItemName": "Iron",
          "Predriscriptor": "",
          "Quantity": 4,
          "Unit": "%DV       "
        }
      ],
      "NutritionServingText": null,
      "PrepStepImage": null,
      "PreparationDescription": "Place drink mix and mint in shaker; crush mint with back of spoon.  Stir in water until mix is dissolved.$Add all remaining ingredients; shake until well blended. $Serve immediately over ice. ",
      "PreparationPreText": null,
      "PreparationSteps": [
        {
          "Description": "Place drink mix and mint in shaker; crush mint with back of spoon.  Stir in water until mix is dissolved.",
          "PreparationStepImage": {
            "PictureFormats": [],
            "author": null,
            "id": null,
            "imageType": null,
            "mimeType": null,
            "publicationDate": null,
            "status": null,
            "title": null,
            "type": null
          },
          "Sequence": 1
        },
        {
          "Description": "Add all remaining ingredients; shake until well blended. ",
          "PreparationStepImage": {
            "PictureFormats": [],
            "author": null,
            "id": null,
            "imageType": null,
            "mimeType": null,
            "publicationDate": null,
            "status": null,
            "title": null,
            "type": null
          },
          "Sequence": 2
        },
        {
          "Description": "Serve immediately over ice. ",
          "PreparationStepImage": {
            "PictureFormats": [],
            "author": null,
            "id": null,
            "imageType": null,
            "mimeType": null,
            "publicationDate": null,
            "status": null,
            "title": null,
            "type": null
          },
          "Sequence": 3
        }
      ],
      "PreparationTime": 5,
      "Promotion": null,
      "Ratings": {
        "TotalCount": 0,
        "PageCount": 10,
        "PageNo": 1,
        "Rating": []
      },
      "RecipeDisplayFormatId": 0,
      "RecipeId": 110296,
      "RecipeName": "Citrus Mojito",
      "RecipeType": 0,
      "RelatedData": {
        "RelatedBrands": null,
        "RelatedProducts": null,
        "RelatedRecipes": {
          "DefaultTopCount": 5,
          "Recipe": [
            {
              "AverageRating": 4,
              "HasVideo": false,
              "IsHealthyLiving": false,
              "NumberOfRatings": 2,
              "PhotoName": "Mojito_Pie.jpg",
              "PhotoUrl": "http://assets.kraftfoods.com/recipe_images/opendeploy/Mojito_Pie.jpg",
              "RecipeId": 105120,
              "RecipeName": "Mojito Pie",
              "SEOName": "mojito-pie-105120",
              "ThumbnailPhoto": null
            },
            {
              "AverageRating": 5,
              "HasVideo": true,
              "IsHealthyLiving": false,
              "NumberOfRatings": 1,
              "PhotoName": "191215.jpg",
              "PhotoUrl": "http://assets.kraftfoods.com/recipe_images/opendeploy/191215.jpg",
              "RecipeId": 191215,
              "RecipeName": "Mini Mojito Pies",
              "SEOName": "mini-mojito-pies-191215",
              "ThumbnailPhoto": null
            },
            {
              "AverageRating": 4,
              "HasVideo": false,
              "IsHealthyLiving": false,
              "NumberOfRatings": 1,
              "PhotoName": "166348.jpg",
              "PhotoUrl": "http://assets.kraftfoods.com/recipe_images/opendeploy/166348.jpg",
              "RecipeId": 166348,
              "RecipeName": "Sparkling Watermelon-Mojito Punch",
              "SEOName": "sparkling-watermelon-mojito-punch-166348",
              "ThumbnailPhoto": null
            },
            {
              "AverageRating": 5,
              "HasVideo": false,
              "IsHealthyLiving": true,
              "NumberOfRatings": 1,
              "PhotoName": "120125.jpg",
              "PhotoUrl": "http://assets.kraftfoods.com/recipe_images/opendeploy/120125.jpg",
              "RecipeId": 120125,
              "RecipeName": "Easy Mock Mojito",
              "SEOName": "easy-mock-mojito-120125",
              "ThumbnailPhoto": null
            },
            {
              "AverageRating": 4.3,
              "HasVideo": false,
              "IsHealthyLiving": false,
              "NumberOfRatings": 3,
              "PhotoName": "118267.jpg",
              "PhotoUrl": "http://assets.kraftfoods.com/recipe_images/opendeploy/118267.jpg",
              "RecipeId": 118267,
              "RecipeName": "Pineapple Mojito Cake",
              "SEOName": "pineapple-mojito-cake-118267",
              "ThumbnailPhoto": null
            }
          ],
          "TotalCount": 46
        }
      },
      "RiseIngredients": [
        {
          "IngredientCategory": "KRL",
          "IngredientId": 68121,
          "IngredientIndustrySector": "Retail",
          "IngredientType": "Inedible",
          "ProductId": null,
          "RecipeId": 110296
        },
        {
          "IngredientCategory": "KRL",
          "IngredientId": 68380,
          "IngredientIndustrySector": "Retail",
          "IngredientType": "Inedible",
          "ProductId": null,
          "RecipeId": 110296
        },
        {
          "IngredientCategory": "KRL",
          "IngredientId": 68514,
          "IngredientIndustrySector": "Retail",
          "IngredientType": "Inedible",
          "ProductId": null,
          "RecipeId": 110296
        },
        {
          "IngredientCategory": "KRL",
          "IngredientId": 68779,
          "IngredientIndustrySector": "Retail",
          "IngredientType": "Inedible",
          "ProductId": null,
          "RecipeId": 110296
        },
        {
          "IngredientCategory": "KRL",
          "IngredientId": 68791,
          "IngredientIndustrySector": "Retail",
          "IngredientType": "Generic",
          "ProductId": null,
          "RecipeId": 110296
        },
        {
          "IngredientCategory": "KRL",
          "IngredientId": 70743,
          "IngredientIndustrySector": "Retail",
          "IngredientType": "KHC",
          "ProductId": "00043000005170",
          "RecipeId": 110296
        }
      ],
      "RiseTaxonomy": [
        {
          "ParentTaxonomyId": 0,
          "RecipeId": 110296,
          "ResourceName": "Recipe",
          "TaxonomyId": 61,
          "TaxonomyName": "Beverages",
          "TaxonomyTypeId": 2,
          "TaxonomyTypeName": "Meal Part"
        }
      ],
      "Riserecipe": [
        {
          "GRIN": 559091,
          "RecipeId": 110296,
          "RecipeIndustrySector": "Retail",
          "RecipeType": "Internal"
        }
      ],
      "RomanceText": "This easy and quick recipe is perfect for hosting a party. (Pssst: We like serving it on New Year's Eve to toast new beginnings!)",
      "SEOName": "citrus-mojito-110296",
      "Tips": [
        {
          "RecipeId": 110296,
          "Sequence": 10,
          "TipDescription": "\"Muddle\" is the term used for crushing the mint with the drink mix with back of spoon.",
          "TipID": 1,
          "TipName": "Food Facts"
        },
        {
          "RecipeId": 110296,
          "Sequence": 20,
          "TipDescription": "Garnish with additional mint.",
          "TipID": 2,
          "TipName": "Special Extra"
        }
      ],
      "TotalTime": 5,
      "TradeMarkInfo": "Please Drink Responsibly.",
      "Video": [],
      "Yield": "Makes 2 servings."
    }
  ]
}