{
  "Metadata": {
    "PageCount": 1,
    "PageNo": 0,
    "TotalCount": 0
  },
  "Recipes": [
    {
      "AdServingKeywords": "Entree,Alcohol,Bacon,Beef,Carrot,Celery,Garlic,Meat,Onion,Vegetables,Easy,Slow cooker,Nutrition and Well-Being,One Pot,Stew,All Seasons,Dinner,Bulls-Eye,Oscar Mayer,Cooking for a Crowd",
      "AlternateLanguageRecipes": [
        {
          "LanguageId": "2",
          "RecipeId": "207124",
          "SiteId": "1"
        },
        {
          "LanguageId": "2",
          "RecipeId": "207124",
          "SiteId": "90"
        }
      ],
      "Assets": [
        {
          "PictureFormats": [
            {
              "rendition": "140x90",
              "url": "http://assets.kraftfoods.com/recipe_images/opendeploy/169164_MXM_K65102V1_OR1_FO_140x90.jpg"
            },
            {
              "rendition": "290x194",
              "url": "http://assets.kraftfoods.com/recipe_images/opendeploy/169164_MXM_K65102V1_OR1_FO_290x194.jpg"
            },
            {
              "rendition": "300x250",
              "url": "http://assets.kraftfoods.com/recipe_images/opendeploy/169164_MXM_K65102V1_OR1_FO_300x250.jpg"
            },
            {
              "rendition": "600x250",
              "url": "http://assets.kraftfoods.com/recipe_images/opendeploy/169164_MXM_K65102V1_OR1_FO_600x250.jpg"
            },
            {
              "rendition": "640x428",
              "url": "http://assets.kraftfoods.com/recipe_images/opendeploy/169164_MXM_K65102V1_OR1_FO_640x428.jpg"
            },
            {
              "rendition": "960x300",
              "url": "http://assets.kraftfoods.com/recipe_images/opendeploy/169164_MXM_K65102V1_OR1_FO_960x300.jpg"
            }
          ],
          "author": null,
          "id": "5",
          "imageType": "Primary",
          "mimeType": "image/jpeg",
          "publicationDate": null,
          "status": "1",
          "title": "169164_MXM_K65102V1_OR1_FO",
          "type": "image"
        },
        {
          "PictureFormats": [
            {
              "rendition": "300x200",
              "url": "http://assets.kraftfoods.com/recipe_images/169164_MXM_65102v0E_WP.jpg"
            }
          ],
          "author": null,
          "id": "0",
          "imageType": "LANDSCAPE",
          "mimeType": null,
          "publicationDate": null,
          "status": "1",
          "title": "169164_MXM_65102v0E_WP.jpg",
          "type": "image"
        }
      ],
      "AverageRating": 4.3,
      "BrandId": 1,
      "Branding": null,
      "CSSSkins": null,
      "CarbCounter": null,
      "Categories": [
        {
          "CategoryID": 7,
          "CategoryName": "Pork/Beef Entrees",
          "CategoryRank": 10,
          "SubCategoryID": 410,
          "SubCategoryName": "Beef: Stews",
          "SubCategoryRank": 40
        },
        {
          "CategoryID": 11,
          "CategoryName": "Primary",
          "CategoryRank": 0,
          "SubCategoryID": 97,
          "SubCategoryName": "Entrees",
          "SubCategoryRank": 50
        },
        {
          "CategoryID": 756,
          "CategoryName": "Main Meals (Meat / Seafood / Egg)",
          "CategoryRank": 10,
          "SubCategoryID": 2563,
          "SubCategoryName": "Beef",
          "SubCategoryRank": 1
        }
      ],
      "Classifications": [],
      "ComplimentaryRecipes": [
        {
          "AverageRating": 0,
          "HasVideo": false,
          "IsHealthyLiving": false,
          "NumberOfRatings": 0,
          "PhotoName": null,
          "PhotoUrl": null,
          "RecipeId": 53205,
          "RecipeName": null,
          "SEOName": "irish-beef-stew-53205",
          "ThumbnailPhoto": "Irish_Beef_Stew.jpg"
        }
      ],
      "CookingMethod": null,
      "Copyright": null,
      "Courses": [
        "Main dishes"
      ],
      "DietExchange": null,
      "DishDetails": [
        {
          "Text": "ground beef recipes",
          "Url": "/recipes/dinner/ground-beef-recipes/main.aspx"
        },
        {
          "Text": "top 10 beef recipes",
          "Url": "/recipes/dinner/top-10/beef-recipes/main.aspx"
        },
        {
          "Text": "1 bag 5 dinners",
          "Url": "/recipes/dinner/1Bag5Dinners/1bag5dinnerschickenbeef.aspx"
        },
        {
          "Text": "slow cooker recipes",
          "Url": "/recipes/dinner/Planning/slow-cooker.aspx"
        },
        {
          "Text": "chicken slow cooker recipes",
          "Url": "/recipes/dinner/chicken-recipes/slow-cooker/main.aspx"
        }
      ],
      "EndDate": "/Date(-62135575200000-0600)/",
      "HasVideo": false,
      "Ingredients": [
        {
          "FullMeasure": "8 slices",
          "FullWeight": "",
          "IngredientGridHeaders": null,
          "IngredientID": 578,
          "IngredientName": "OSCAR MAYER Bacon",
          "IngredientStep": 10,
          "LanguageId": 0,
          "PostPreparation": ", cut into 1-inch pieces",
          "PrePreparation": "",
          "QuantityNum": 7,
          "QuantityText": "8",
          "QuantityUnit": "slices",
          "RecipeIngredientID": 6344594,
          "TrialMeasure": "",
          "TrialWeight": ""
        },
        {
          "FullMeasure": "1",
          "FullWeight": "",
          "IngredientGridHeaders": null,
          "IngredientID": 8671,
          "IngredientName": "boneless beef chuck eye roast",
          "IngredientStep": 20,
          "LanguageId": 0,
          "PostPreparation": " (2 lb.), trimmed, cut into 2-inch pieces",
          "PrePreparation": "",
          "QuantityNum": 1,
          "QuantityText": "1",
          "QuantityUnit": "",
          "RecipeIngredientID": 6344593,
          "TrialMeasure": "",
          "TrialWeight": ""
        },
        {
          "FullMeasure": "1/3 cup",
          "FullWeight": "",
          "IngredientGridHeaders": null,
          "IngredientID": 1080,
          "IngredientName": "flour",
          "IngredientStep": 30,
          "LanguageId": 0,
          "PostPreparation": "",
          "PrePreparation": "",
          "QuantityNum": 0,
          "QuantityText": "1/3",
          "QuantityUnit": "cup",
          "RecipeIngredientID": 6344601,
          "TrialMeasure": "",
          "TrialWeight": ""
        },
        {
          "FullMeasure": "1/2 cup",
          "FullWeight": "",
          "IngredientGridHeaders": null,
          "IngredientID": 5916,
          "IngredientName": "red wine",
          "IngredientStep": 40,
          "LanguageId": 0,
          "PostPreparation": "",
          "PrePreparation": "dry",
          "QuantityNum": 0,
          "QuantityText": "1/2",
          "QuantityUnit": "cup",
          "RecipeIngredientID": 6344599,
          "TrialMeasure": "",
          "TrialWeight": ""
        },
        {
          "FullMeasure": "1 lb.",
          "FullWeight": "",
          "IngredientGridHeaders": null,
          "IngredientID": 21501,
          "IngredientName": "baby carrot",
          "IngredientStep": 50,
          "LanguageId": 0,
          "PostPreparation": "s and quartered fresh mushrooms",
          "PrePreparation": "<u>each</u>",
          "QuantityNum": 1,
          "QuantityText": "1",
          "QuantityUnit": "lb.",
          "RecipeIngredientID": 6344592,
          "TrialMeasure": "",
          "TrialWeight": ""
        },
        {
          "FullMeasure": "1 pkg.",
          "FullWeight": "",
          "IngredientGridHeaders": null,
          "IngredientID": 20604,
          "IngredientName": "pearl onion",
          "IngredientStep": 60,
          "LanguageId": 0,
          "PostPreparation": "s, peeled",
          "PrePreparation": "(10 oz.)",
          "QuantityNum": 1,
          "QuantityText": "1",
          "QuantityUnit": "pkg.",
          "RecipeIngredientID": 6344596,
          "TrialMeasure": "",
          "TrialWeight": ""
        },
        {
          "FullMeasure": "4 stalks",
          "FullWeight": "",
          "IngredientGridHeaders": null,
          "IngredientID": 889,
          "IngredientName": "celery",
          "IngredientStep": 70,
          "LanguageId": 0,
          "PostPreparation": ", chopped",
          "PrePreparation": "",
          "QuantityNum": 4,
          "QuantityText": "4",
          "QuantityUnit": "stalks",
          "RecipeIngredientID": 6344598,
          "TrialMeasure": "",
          "TrialWeight": ""
        },
        {
          "FullMeasure": "2 cloves",
          "FullWeight": "",
          "IngredientGridHeaders": null,
          "IngredientID": 1175,
          "IngredientName": "garlic",
          "IngredientStep": 80,
          "LanguageId": 0,
          "PostPreparation": ", minced",
          "PrePreparation": "",
          "QuantityNum": 2,
          "QuantityText": "2",
          "QuantityUnit": "cloves",
          "RecipeIngredientID": 6344595,
          "TrialMeasure": "",
          "TrialWeight": ""
        },
        {
          "FullMeasure": "1/2 cup",
          "FullWeight": "",
          "IngredientGridHeaders": null,
          "IngredientID": 19936,
          "IngredientName": "fat-free reduced-sodium beef broth",
          "IngredientStep": 90,
          "LanguageId": 0,
          "PostPreparation": "",
          "PrePreparation": "",
          "QuantityNum": 0,
          "QuantityText": "1/2",
          "QuantityUnit": "cup",
          "RecipeIngredientID": 6344602,
          "TrialMeasure": "",
          "TrialWeight": ""
        },
        {
          "FullMeasure": "1/4 cup",
          "FullWeight": "",
          "IngredientGridHeaders": null,
          "IngredientID": 103,
          "IngredientName": "BULL'S-EYE Original Barbecue Sauce",
          "IngredientStep": 100,
          "LanguageId": 0,
          "PostPreparation": " and KRAFT Lite Balsamic Vinaigrette Dressing",
          "PrePreparation": "<u>each</u>",
          "QuantityNum": 0,
          "QuantityText": "1/4",
          "QuantityUnit": "cup",
          "RecipeIngredientID": 6344600,
          "TrialMeasure": "",
          "TrialWeight": ""
        },
        {
          "FullMeasure": "1/4 cup",
          "FullWeight": "",
          "IngredientGridHeaders": null,
          "IngredientID": 1119,
          "IngredientName": "fresh parsley",
          "IngredientStep": 110,
          "LanguageId": 0,
          "PostPreparation": "",
          "PrePreparation": "chopped",
          "QuantityNum": 0,
          "QuantityText": "1/4",
          "QuantityUnit": "cup",
          "RecipeIngredientID": 6344597,
          "TrialMeasure": "",
          "TrialWeight": ""
        }
      ],
      "IsHealthyLiving": false,
      "KRLId": "572612",
      "KeyIngredients": [
        "Alcohol",
        "Bacon",
        "Beef",
        "Carrot",
        "Celery",
        "Garlic",
        "Meat",
        "Onion",
        "Vegetables",
        "Wine"
      ],
      "Keywords": "onions,OSCAR MAYER Bacon,pork,roast beef,bacon,barbecue sauce,beef,carrots,celery,meat,vegetables,BULL'S EYE Barbecue Sauce,flour,wine,garlic,soup-canned,parsley,bbq sauce,beef-roast,broth,alcohol,Entree,Slow cooker,Easy,Nutrition and Well-Being,One Pot,Stew,All Seasons,Dinner,Cooking for a Crowd",
      "LanguageId": 1,
      "LifeStyles": [],
      "NumberOfIngredients": 11,
      "NumberOfRatings": 4,
      "NumberOfRatingsWithComments": "2",
      "NumberOfServings": "12 servings, 1 cup each",
      "NumberOfTrialServings": "",
      "NutritionBonus": null,
      "NutritionExchangeItemId": 0,
      "NutritionGridItems": null,
      "NutritionItems": [
        {
          "DisplayOrder": 1,
          "Document": null,
          "NutritionItemID": 3,
          "NutritionItemName": "Calories",
          "Predriscriptor": "",
          "Quantity": 220,
          "Unit": "          "
        },
        {
          "DisplayOrder": 2,
          "Document": "fat_cholesterol.html",
          "NutritionItemID": 4,
          "NutritionItemName": "Total fat",
          "Predriscriptor": "",
          "Quantity": 9,
          "Unit": "g         "
        },
        {
          "DisplayOrder": 3,
          "Document": "fat_cholesterol.html",
          "NutritionItemID": 9,
          "NutritionItemName": "Saturated fat",
          "Predriscriptor": "",
          "Quantity": 3,
          "Unit": "g         "
        },
        {
          "DisplayOrder": 7,
          "Document": "fat_cholesterol.html",
          "NutritionItemID": 2,
          "NutritionItemName": "Cholesterol",
          "Predriscriptor": "",
          "Quantity": 55,
          "Unit": "mg        "
        },
        {
          "DisplayOrder": 8,
          "Document": "sodium.html",
          "NutritionItemID": 8,
          "NutritionItemName": "Sodium",
          "Predriscriptor": "",
          "Quantity": 300,
          "Unit": "mg        "
        },
        {
          "DisplayOrder": 10,
          "Document": "carbs_sugars_fiber.html",
          "NutritionItemID": 1,
          "NutritionItemName": "Carbohydrate",
          "Predriscriptor": "",
          "Quantity": 13,
          "Unit": "g         "
        },
        {
          "DisplayOrder": 11,
          "Document": "carbs_sugars_fiber.html",
          "NutritionItemID": 7,
          "NutritionItemName": "Dietary fiber",
          "Predriscriptor": "",
          "Quantity": 2,
          "Unit": "g         "
        },
        {
          "DisplayOrder": 12,
          "Document": "carbs_sugars_fiber.html",
          "NutritionItemID": 5,
          "NutritionItemName": "Sugars",
          "Predriscriptor": "",
          "Quantity": 7,
          "Unit": "g         "
        },
        {
          "DisplayOrder": 13,
          "Document": null,
          "NutritionItemID": 6,
          "NutritionItemName": "Protein",
          "Predriscriptor": "",
          "Quantity": 20,
          "Unit": "g         "
        },
        {
          "DisplayOrder": 14,
          "Document": null,
          "NutritionItemID": 10,
          "NutritionItemName": "Vitamin A",
          "Predriscriptor": "",
          "Quantity": 110,
          "Unit": "%DV       "
        },
        {
          "DisplayOrder": 15,
          "Document": null,
          "NutritionItemID": 11,
          "NutritionItemName": "Vitamin C",
          "Predriscriptor": "",
          "Quantity": 4,
          "Unit": "%DV       "
        },
        {
          "DisplayOrder": 16,
          "Document": "dairy_and_calcium.html",
          "NutritionItemID": 12,
          "NutritionItemName": "Calcium",
          "Predriscriptor": "",
          "Quantity": 4,
          "Unit": "%DV       "
        },
        {
          "DisplayOrder": 17,
          "Document": null,
          "NutritionItemID": 13,
          "NutritionItemName": "Iron",
          "Predriscriptor": "",
          "Quantity": 15,
          "Unit": "%DV       "
        }
      ],
      "NutritionServingText": " ",
      "PrepStepImage": null,
      "PreparationDescription": "Cook and stir bacon in large skillet on medium heat until crisp. Remove bacon from skillet with slotted spoon; drain on paper towels. Discard all but 2 Tbsp. drippings from skillet.$Toss beef pieces with flour.  Add to drippings in skillet; cook 6 min. or until evenly browned, stirring occasionally. Spoon into slow cooker sprayed with cooking spray.$Add wine to skillet; bring to boil, stirring constantly to scrape browned bits from bottom of skillet. Cook and stir 2 min.; pour over beef.  Add vegetables and garlic.$Whisk broth, barbecue sauce and dressing until blended; pour over ingredients in slow cooker.  Cover with lid; cook on LOW 8 to 9 hours (or on HIGH 4 to 5 hours).$Stir in parsley and bacon before serving.",
      "PreparationPreText": "",
      "PreparationSteps": [
        {
          "Description": "Cook and stir bacon in large skillet on medium heat until crisp. Remove bacon from skillet with slotted spoon; drain on paper towels. Discard all but 2 Tbsp. drippings from skillet.",
          "PreparationStepImage": {
            "PictureFormats": [],
            "author": null,
            "id": null,
            "imageType": null,
            "mimeType": null,
            "publicationDate": null,
            "status": null,
            "title": null,
            "type": null
          },
          "Sequence": 1
        },
        {
          "Description": "Toss beef pieces with flour.  Add to drippings in skillet; cook 6 min. or until evenly browned, stirring occasionally. Spoon into slow cooker sprayed with cooking spray.",
          "PreparationStepImage": {
            "PictureFormats": [],
            "author": null,
            "id": null,
            "imageType": null,
            "mimeType": null,
            "publicationDate": null,
            "status": null,
            "title": null,
            "type": null
          },
          "Sequence": 2
        },
        {
          "Description": "Add wine to skillet; bring to boil, stirring constantly to scrape browned bits from bottom of skillet. Cook and stir 2 min.; pour over beef.  Add vegetables and garlic.",
          "PreparationStepImage": {
            "PictureFormats": [],
            "author": null,
            "id": null,
            "imageType": null,
            "mimeType": null,
            "publicationDate": null,
            "status": null,
            "title": null,
            "type": null
          },
          "Sequence": 3
        },
        {
          "Description": "Whisk broth, barbecue sauce and dressing until blended; pour over ingredients in slow cooker.  Cover with lid; cook on LOW 8 to 9 hours (or on HIGH 4 to 5 hours).",
          "PreparationStepImage": {
            "PictureFormats": [],
            "author": null,
            "id": null,
            "imageType": null,
            "mimeType": null,
            "publicationDate": null,
            "status": null,
            "title": null,
            "type": null
          },
          "Sequence": 4
        },
        {
          "Description": "Stir in parsley and bacon before serving.",
          "PreparationStepImage": {
            "PictureFormats": [],
            "author": null,
            "id": null,
            "imageType": null,
            "mimeType": null,
            "publicationDate": null,
            "status": null,
            "title": null,
            "type": null
          },
          "Sequence": 5
        }
      ],
      "PreparationTime": 30,
      "Promotion": null,
      "Ratings": {
        "TotalCount": 4,
        "PageCount": 10,
        "PageNo": 1,
        "Rating": [
          {
            "Comment": "I finally got this recipe going in the crock pot.  I hope it turns out fantastic because the prep time was 3 times longer than the recipe states.  I also want to know what happens with the bacon? Are you supposed to put it in the stew? Is it just for the drippings and you do nothing with the bacon?  ",
            "DisplayName": true,
            "RatingValue": 3,
            "SubmitDate": "/Date(1421598539000-0600)/",
            "UpdatedDate": "/Date(1421598539000-0600)/",
            "UserName": "mthtchrsrbttr"
          },
          {
            "Comment": "Without a doubt the best beef stew recipe I have ever made.  Very flavorful.  I added small pieces of potatoes.",
            "DisplayName": false,
            "RatingValue": 5,
            "SubmitDate": "/Date(1420501710000-0600)/",
            "UpdatedDate": "/Date(1420501710000-0600)/",
            "UserName": "kame5"
          }
        ]
      },
      "RecipeDisplayFormatId": 5,
      "RecipeId": 169164,
      "RecipeName": "Slow-Cooker Classic Beef Stew",
      "RecipeType": 0,
      "RelatedData": {
        "RelatedBrands": null,
        "RelatedProducts": null,
        "RelatedRecipes": {
          "DefaultTopCount": 5,
          "Recipe": [
            {
              "AverageRating": 4.1,
              "HasVideo": false,
              "IsHealthyLiving": true,
              "NumberOfRatings": 8,
              "PhotoName": "166333.jpg",
              "PhotoUrl": "http://assets.kraftfoods.com/recipe_images/opendeploy/166333.jpg",
              "RecipeId": 166333,
              "RecipeName": "Slow-Cooker Beef Stew",
              "SEOName": "slow-cooker-beef-stew-166333",
              "ThumbnailPhoto": null
            },
            {
              "AverageRating": 5,
              "HasVideo": false,
              "IsHealthyLiving": true,
              "NumberOfRatings": 1,
              "PhotoName": "171609_SF_4439v5E_WP.jpg",
              "PhotoUrl": "http://assets.kraftfoods.com/recipe_images/opendeploy/171609_SF_4439v5E_WP.jpg",
              "RecipeId": 171609,
              "RecipeName": "BBQ Beef Stew",
              "SEOName": "bbq-beef-stew-171609",
              "ThumbnailPhoto": null
            },
            {
              "AverageRating": 4,
              "HasVideo": false,
              "IsHealthyLiving": true,
              "NumberOfRatings": 2,
              "PhotoName": "144945.jpg",
              "PhotoUrl": "http://assets.kraftfoods.com/recipe_images/opendeploy/144945.jpg",
              "RecipeId": 144945,
              "RecipeName": "Slow-Cooker Provençale Beef Stew",
              "SEOName": "slow-cooker-provencale-beef-stew-144945",
              "ThumbnailPhoto": null
            },
            {
              "AverageRating": 4.9,
              "HasVideo": false,
              "IsHealthyLiving": false,
              "NumberOfRatings": 53,
              "PhotoName": "144311.jpg",
              "PhotoUrl": "http://assets.kraftfoods.com/recipe_images/opendeploy/144311.jpg",
              "RecipeId": 144311,
              "RecipeName": "Slow-Cooker Cowboy Stew",
              "SEOName": "slow-cooker-cowboy-stew-144311",
              "ThumbnailPhoto": null
            },
            {
              "AverageRating": 4.7,
              "HasVideo": false,
              "IsHealthyLiving": false,
              "NumberOfRatings": 10,
              "PhotoName": "127764.jpg",
              "PhotoUrl": "http://assets.kraftfoods.com/recipe_images/opendeploy/127764.jpg",
              "RecipeId": 127764,
              "RecipeName": "Slow-Cooked Pork Stew with Dumplings",
              "SEOName": "slow-cooked-pork-stew-dumplings-127764",
              "ThumbnailPhoto": null
            }
          ],
          "TotalCount": 1504
        }
      },
      "RiseIngredients": [],
      "RiseTaxonomy": [],
      "Riserecipe": [
        {
          "GRIN": 572612,
          "RecipeId": 169164,
          "RecipeIndustrySector": "Retail",
          "RecipeType": "Internal"
        }
      ],
      "RomanceText": "Using bacon drippings to brown the beef in the skillet gives this classic slow-cooker stew just one of its many layers of deliciousness.",
      "SEOName": "slow-cooker-classic-beef-stew-169164",
      "Tips": [
        {
          "RecipeId": 169164,
          "Sequence": 10,
          "TipDescription": "Omit wine.  Increase beef broth to 1 cup, using 1/2 cup to deglaze the skillet, and remaining to mix with the barbecue sauce and dressing as directed.",
          "TipID": 5,
          "TipName": "Variation  "
        },
        {
          "RecipeId": 169164,
          "Sequence": 20,
          "TipDescription": "For easy cleanup, line slow cooker with plastic liner bag before filling with ingredients and cooking as directed.",
          "TipID": 5735,
          "TipName": "Special Extra"
        },
        {
          "RecipeId": 169164,
          "Sequence": 40,
          "TipDescription": "Prepare using KRAFT Original Barbecue Sauce.",
          "TipID": 3,
          "TipName": "Substitute"
        },
        {
          "RecipeId": 169164,
          "Sequence": 50,
          "TipDescription": "Add 1/2 tsp. dried thyme leaves to slow cooker along with the vegetables. ",
          "TipID": 1,
          "TipName": "Special Extra"
        }
      ],
      "TotalTime": 510,
      "TradeMarkInfo": "Please use alcohol responsibly.",
      "Video": [],
      "Yield": "12 servings, 1 cup each"
    }
  ]
}