{
  "Metadata": {
    "PageCount": 1,
    "PageNo": 0,
    "TotalCount": 0
  },
  "Recipes": [
    {
      "AdServingKeywords": "Apple,Cream Cheese,Dairy,Eggs,Fruit,Raisins,All Seasons,Kraft Caramels,Philadelphia",
      "AlternateLanguageRecipes": [],
      "Assets": [
        {
          "PictureFormats": [
            {
              "rendition": "640x428",
              "url": "http://assets.kraftfoods.com/recipe_images/opendeploy/186198_640x428.jpg"
            },
            {
              "rendition": "600x250",
              "url": "http://assets.kraftfoods.com/recipe_images/opendeploy/186198_600x250.jpg"
            },
            {
              "rendition": "290x194",
              "url": "http://assets.kraftfoods.com/recipe_images/opendeploy/186198_290x194.jpg"
            }
          ],
          "author": null,
          "id": "2",
          "imageType": "Primary",
          "mimeType": "image/jpeg",
          "publicationDate": null,
          "status": "1",
          "title": "186198",
          "type": "image"
        },
        {
          "PictureFormats": [
            {
              "rendition": "300x200",
              "url": "http://assets.kraftfoods.com/recipe_images/186198.jpg"
            }
          ],
          "author": null,
          "id": "0",
          "imageType": "LANDSCAPE",
          "mimeType": "image/jpeg",
          "publicationDate": null,
          "status": "1",
          "title": "186198.jpg",
          "type": "image"
        }
      ],
      "AverageRating": 0,
      "BrandId": 1,
      "Branding": null,
      "CSSSkins": null,
      "CarbCounter": null,
      "Categories": [],
      "Classifications": [],
      "ComplimentaryRecipes": null,
      "CookingMethod": null,
      "Copyright": null,
      "Courses": [],
      "DietExchange": null,
      "DishDetails": [],
      "EndDate": "/Date(-62135575200000-0600)/",
      "HasVideo": false,
      "Ingredients": [
        {
          "FullMeasure": null,
          "FullWeight": null,
          "IngredientGridHeaders": null,
          "IngredientID": 68436,
          "IngredientName": "ready-to-use refrigerated pie crust (1/2 of 14.1-oz. pkg.)",
          "IngredientStep": 10,
          "LanguageId": 0,
          "PostPreparation": "",
          "PrePreparation": "",
          "QuantityNum": 1,
          "QuantityText": "1",
          "QuantityUnit": "",
          "RecipeIngredientID": 334044,
          "TrialMeasure": null,
          "TrialWeight": null
        },
        {
          "FullMeasure": null,
          "FullWeight": null,
          "IngredientGridHeaders": null,
          "IngredientID": 68324,
          "IngredientName": "(1/2 of 8-oz. pkg.)  PHILADELPHIA Cream Cheese",
          "IngredientStep": 20,
          "LanguageId": 0,
          "PostPreparation": "",
          "PrePreparation": "",
          "QuantityNum": 4,
          "QuantityText": "4",
          "QuantityUnit": "oz.",
          "RecipeIngredientID": 329046,
          "TrialMeasure": null,
          "TrialWeight": null
        },
        {
          "FullMeasure": null,
          "FullWeight": null,
          "IngredientGridHeaders": null,
          "IngredientID": 68636,
          "IngredientName": "vanilla",
          "IngredientStep": 30,
          "LanguageId": 0,
          "PostPreparation": "",
          "PrePreparation": "",
          "QuantityNum": 0.5,
          "QuantityText": "1/2",
          "QuantityUnit": "tsp.",
          "RecipeIngredientID": 324138,
          "TrialMeasure": null,
          "TrialWeight": null
        },
        {
          "FullMeasure": null,
          "FullWeight": null,
          "IngredientGridHeaders": null,
          "IngredientID": 68174,
          "IngredientName": "sugar",
          "IngredientStep": 40,
          "LanguageId": 0,
          "PostPreparation": "",
          "PrePreparation": "",
          "QuantityNum": 1,
          "QuantityText": "1",
          "QuantityUnit": "Tbsp.",
          "RecipeIngredientID": 328024,
          "TrialMeasure": null,
          "TrialWeight": null
        },
        {
          "FullMeasure": null,
          "FullWeight": null,
          "IngredientGridHeaders": null,
          "IngredientID": 67773,
          "IngredientName": "(21 oz.) apple pie filling",
          "IngredientStep": 50,
          "LanguageId": 0,
          "PostPreparation": "",
          "PrePreparation": "",
          "QuantityNum": 1,
          "QuantityText": "1",
          "QuantityUnit": "can",
          "RecipeIngredientID": 327022,
          "TrialMeasure": null,
          "TrialWeight": null
        },
        {
          "FullMeasure": null,
          "FullWeight": null,
          "IngredientGridHeaders": null,
          "IngredientID": 69084,
          "IngredientName": "raisins",
          "IngredientStep": 60,
          "LanguageId": 0,
          "PostPreparation": "",
          "PrePreparation": "",
          "QuantityNum": 0.33,
          "QuantityText": "1/3",
          "QuantityUnit": "cup",
          "RecipeIngredientID": 325029,
          "TrialMeasure": null,
          "TrialWeight": null
        },
        {
          "FullMeasure": null,
          "FullWeight": null,
          "IngredientGridHeaders": null,
          "IngredientID": 68791,
          "IngredientName": "water",
          "IngredientStep": 70,
          "LanguageId": 0,
          "PostPreparation": "",
          "PrePreparation": "",
          "QuantityNum": 1,
          "QuantityText": "1",
          "QuantityUnit": "Tbsp.",
          "RecipeIngredientID": 322274,
          "TrialMeasure": null,
          "TrialWeight": null
        },
        {
          "FullMeasure": null,
          "FullWeight": null,
          "IngredientGridHeaders": null,
          "IngredientID": 68794,
          "IngredientName": "egg",
          "IngredientStep": 80,
          "LanguageId": 0,
          "PostPreparation": "",
          "PrePreparation": "",
          "QuantityNum": 1,
          "QuantityText": "1",
          "QuantityUnit": "",
          "RecipeIngredientID": 322287,
          "TrialMeasure": null,
          "TrialWeight": null
        },
        {
          "FullMeasure": null,
          "FullWeight": null,
          "IngredientGridHeaders": null,
          "IngredientID": 72526,
          "IngredientName": "coarse sugar",
          "IngredientStep": 90,
          "LanguageId": 0,
          "PostPreparation": "",
          "PrePreparation": "",
          "QuantityNum": 2,
          "QuantityText": "2",
          "QuantityUnit": "Tbsp.",
          "RecipeIngredientID": 323507,
          "TrialMeasure": null,
          "TrialWeight": null
        },
        {
          "FullMeasure": null,
          "FullWeight": null,
          "IngredientGridHeaders": null,
          "IngredientID": 68401,
          "IngredientName": "KRAFT Caramels",
          "IngredientStep": 100,
          "LanguageId": 0,
          "PostPreparation": "",
          "PrePreparation": "",
          "QuantityNum": 8,
          "QuantityText": "8",
          "QuantityUnit": "",
          "RecipeIngredientID": 326438,
          "TrialMeasure": null,
          "TrialWeight": null
        },
        {
          "FullMeasure": null,
          "FullWeight": null,
          "IngredientGridHeaders": null,
          "IngredientID": 68096,
          "IngredientName": "milk",
          "IngredientStep": 110,
          "LanguageId": 0,
          "PostPreparation": "",
          "PrePreparation": "",
          "QuantityNum": 2,
          "QuantityText": "2",
          "QuantityUnit": "tsp.",
          "RecipeIngredientID": 326814,
          "TrialMeasure": null,
          "TrialWeight": null
        }
      ],
      "IsHealthyLiving": false,
      "KRLId": "576683",
      "KeyIngredients": [],
      "Keywords": "All Seasons",
      "LanguageId": 1,
      "LifeStyles": [],
      "NumberOfIngredients": 11,
      "NumberOfRatings": 0,
      "NumberOfRatingsWithComments": "0",
      "NumberOfServings": null,
      "NumberOfTrialServings": null,
      "NutritionBonus": null,
      "NutritionExchangeItemId": 0,
      "NutritionGridItems": null,
      "NutritionItems": [],
      "NutritionServingText": null,
      "PrepStepImage": null,
      "PreparationDescription": "Heat oven to 400ºF.$Unroll pie crust onto parchment-covered baking sheet.$Beat cream cheese, vanilla and sugar in medium bowl.  Spread in center of crust, leaving about 3 inches on all sides.$Stir raisins into pie filling. $Spoon filling onto center of crust; fold edge of pastry over fruit mixture. (Fruit in center will remain uncovered.) $Beat egg and water with fork until blended; brush onto crust. (Discard any remaining egg wash.) Sprinkle crust with coarse sugar.$Bake 30 to 35 min. or until crust is golden brown. Cool completely.\nBefore serving, melt caramels and milk in microwave and drizzle over each slice of pie. Refrigerate any leftovers.\n",
      "PreparationPreText": "",
      "PreparationSteps": [
        {
          "Description": "Heat oven to 400ºF.",
          "PreparationStepImage": {
            "PictureFormats": [],
            "author": null,
            "id": null,
            "imageType": null,
            "mimeType": null,
            "publicationDate": null,
            "status": null,
            "title": null,
            "type": null
          },
          "Sequence": 1
        },
        {
          "Description": "Unroll pie crust onto parchment-covered baking sheet.",
          "PreparationStepImage": {
            "PictureFormats": [],
            "author": null,
            "id": null,
            "imageType": null,
            "mimeType": null,
            "publicationDate": null,
            "status": null,
            "title": null,
            "type": null
          },
          "Sequence": 2
        },
        {
          "Description": "Beat cream cheese, vanilla and sugar in medium bowl.  Spread in center of crust, leaving about 3 inches on all sides.",
          "PreparationStepImage": {
            "PictureFormats": [],
            "author": null,
            "id": null,
            "imageType": null,
            "mimeType": null,
            "publicationDate": null,
            "status": null,
            "title": null,
            "type": null
          },
          "Sequence": 3
        },
        {
          "Description": "Stir raisins into pie filling. ",
          "PreparationStepImage": {
            "PictureFormats": [],
            "author": null,
            "id": null,
            "imageType": null,
            "mimeType": null,
            "publicationDate": null,
            "status": null,
            "title": null,
            "type": null
          },
          "Sequence": 4
        },
        {
          "Description": "Spoon filling onto center of crust; fold edge of pastry over fruit mixture. (Fruit in center will remain uncovered.) ",
          "PreparationStepImage": {
            "PictureFormats": [],
            "author": null,
            "id": null,
            "imageType": null,
            "mimeType": null,
            "publicationDate": null,
            "status": null,
            "title": null,
            "type": null
          },
          "Sequence": 5
        },
        {
          "Description": "Beat egg and water with fork until blended; brush onto crust. (Discard any remaining egg wash.) Sprinkle crust with coarse sugar.",
          "PreparationStepImage": {
            "PictureFormats": [],
            "author": null,
            "id": null,
            "imageType": null,
            "mimeType": null,
            "publicationDate": null,
            "status": null,
            "title": null,
            "type": null
          },
          "Sequence": 6
        },
        {
          "Description": "Bake 30 to 35 min. or until crust is golden brown. Cool completely.\nBefore serving, melt caramels and milk in microwave and drizzle over each slice of pie. Refrigerate any leftovers.\n",
          "PreparationStepImage": {
            "PictureFormats": [],
            "author": null,
            "id": null,
            "imageType": null,
            "mimeType": null,
            "publicationDate": null,
            "status": null,
            "title": null,
            "type": null
          },
          "Sequence": 7
        }
      ],
      "PreparationTime": 15,
      "Promotion": {
        "IngredientElevation": "",
        "PromoAltText": "Recipe and photo by Emilie Pianfetti, Baby Loving Mama",
        "PromoImage": "",
        "PromoLink": "",
        "SponsorshipAltText": "",
        "SponsorshipLink": "",
        "SponsorshipLogo": "",
        "UpperRightImage": ""
      },
      "Ratings": {
        "TotalCount": 0,
        "PageCount": 10,
        "PageNo": 1,
        "Rating": []
      },
      "RecipeDisplayFormatId": 0,
      "RecipeId": 186198,
      "RecipeName": "Easy Rustic Apple Raisin Pie with Caramel Drizzle",
      "RecipeType": 0,
      "RelatedData": {
        "RelatedBrands": null,
        "RelatedProducts": null,
        "RelatedRecipes": {
          "DefaultTopCount": 5,
          "Recipe": [
            {
              "AverageRating": 4.4,
              "HasVideo": false,
              "IsHealthyLiving": false,
              "NumberOfRatings": 14,
              "PhotoName": "Philadelphia-3-Step-Caramel-Apple-Cheesecake-1468.jpg",
              "PhotoUrl": "http://assets.kraftfoods.com/recipe_images/opendeploy/Philadelphia-3-Step-Caramel-Apple-Cheesecake-1468.jpg",
              "RecipeId": 51359,
              "RecipeName": "PHILADELPHIA® 3-STEP® Caramel Apple Cheesecake",
              "SEOName": "philadelphia-3-step-caramel-apple-cheesecake-51359",
              "ThumbnailPhoto": null
            },
            {
              "AverageRating": 4.2,
              "HasVideo": false,
              "IsHealthyLiving": false,
              "NumberOfRatings": 18,
              "PhotoName": "",
              "PhotoUrl": "",
              "RecipeId": 63569,
              "RecipeName": "Caramel Apple Sundae Pie",
              "SEOName": "caramel-apple-sundae-pie-63569",
              "ThumbnailPhoto": null
            },
            {
              "AverageRating": 5,
              "HasVideo": false,
              "IsHealthyLiving": false,
              "NumberOfRatings": 2,
              "PhotoName": "ApplePie.jpg",
              "PhotoUrl": "http://assets.kraftfoods.com/recipe_images/opendeploy/ApplePie.jpg",
              "RecipeId": 120242,
              "RecipeName": "Paula Deen's Deep-Fried Caramel Apple Pies",
              "SEOName": "paula-deens-deep-fried-caramel-apple-pies-120242",
              "ThumbnailPhoto": null
            },
            {
              "AverageRating": 4.9,
              "HasVideo": false,
              "IsHealthyLiving": false,
              "NumberOfRatings": 7,
              "PhotoName": "127774.jpg",
              "PhotoUrl": "http://assets.kraftfoods.com/recipe_images/opendeploy/127774.jpg",
              "RecipeId": 127774,
              "RecipeName": "Caramel-Apple Cheesecake",
              "SEOName": "caramel-apple-cheesecake-127774",
              "ThumbnailPhoto": null
            },
            {
              "AverageRating": 4.5,
              "HasVideo": false,
              "IsHealthyLiving": false,
              "NumberOfRatings": 693,
              "PhotoName": "75559.jpg",
              "PhotoUrl": "http://assets.kraftfoods.com/recipe_images/opendeploy/75559.jpg",
              "RecipeId": 75559,
              "RecipeName": "Moist Caramel Apple Cake",
              "SEOName": "moist-caramel-apple-cake-75559",
              "ThumbnailPhoto": null
            }
          ],
          "TotalCount": 5255
        }
      },
      "RiseIngredients": [
        {
          "IngredientCategory": "KRL",
          "IngredientId": 67773,
          "IngredientIndustrySector": "Retail",
          "IngredientType": "Inedible",
          "ProductId": null,
          "RecipeId": 186198
        },
        {
          "IngredientCategory": "KRL",
          "IngredientId": 68096,
          "IngredientIndustrySector": "Retail",
          "IngredientType": "Inedible",
          "ProductId": null,
          "RecipeId": 186198
        },
        {
          "IngredientCategory": "KRL",
          "IngredientId": 68174,
          "IngredientIndustrySector": "Retail",
          "IngredientType": "Inedible",
          "ProductId": null,
          "RecipeId": 186198
        },
        {
          "IngredientCategory": "KRL",
          "IngredientId": 68324,
          "IngredientIndustrySector": "Retail",
          "IngredientType": "KHC",
          "ProductId": "00068100897210",
          "RecipeId": 186198
        },
        {
          "IngredientCategory": "KRL",
          "IngredientId": 68401,
          "IngredientIndustrySector": "Retail",
          "IngredientType": "KHC",
          "ProductId": "00070346000095",
          "RecipeId": 186198
        },
        {
          "IngredientCategory": "KRL",
          "IngredientId": 68436,
          "IngredientIndustrySector": "Retail",
          "IngredientType": "Inedible",
          "ProductId": null,
          "RecipeId": 186198
        },
        {
          "IngredientCategory": "KRL",
          "IngredientId": 68636,
          "IngredientIndustrySector": "Retail",
          "IngredientType": "Inedible",
          "ProductId": null,
          "RecipeId": 186198
        },
        {
          "IngredientCategory": "KRL",
          "IngredientId": 68791,
          "IngredientIndustrySector": "Retail",
          "IngredientType": "Generic",
          "ProductId": null,
          "RecipeId": 186198
        },
        {
          "IngredientCategory": "KRL",
          "IngredientId": 68794,
          "IngredientIndustrySector": "Retail",
          "IngredientType": "Inedible",
          "ProductId": null,
          "RecipeId": 186198
        },
        {
          "IngredientCategory": "KRL",
          "IngredientId": 69084,
          "IngredientIndustrySector": "Retail",
          "IngredientType": "Inedible",
          "ProductId": null,
          "RecipeId": 186198
        },
        {
          "IngredientCategory": "KRL",
          "IngredientId": 72526,
          "IngredientIndustrySector": "Retail",
          "IngredientType": "Inedible",
          "ProductId": null,
          "RecipeId": 186198
        }
      ],
      "RiseTaxonomy": [],
      "Riserecipe": [
        {
          "GRIN": 576683,
          "RecipeId": 186198,
          "RecipeIndustrySector": "Retail",
          "RecipeType": "Internal"
        }
      ],
      "RomanceText": "No, it's not your mom's apple pie. But this caramel-drizzled apple-raisin pie has a rustic charm all its own.",
      "SEOName": "easy-rustic-apple-raisin-pie-caramel-drizzle-186198",
      "Tips": [
        {
          "RecipeId": 186198,
          "Sequence": 10,
          "TipDescription": "This pie can be served cold or warm.",
          "TipID": 1,
          "TipName": "Serving Suggestion"
        },
        {
          "RecipeId": 186198,
          "Sequence": 20,
          "TipDescription": "Try adding some vanilla ice cream or COOL WHIP Whipped Topping to the top of your pie for an added touch!",
          "TipID": 2,
          "TipName": "Serving Suggestion"
        },
        {
          "RecipeId": 186198,
          "Sequence": 30,
          "TipDescription": "Cover edge of pie crust with strip of foil for the last 15 min. of the baking time to prevent it from browning too much.",
          "TipID": 5759,
          "TipName": "Foil Tip Pie"
        },
        {
          "RecipeId": 186198,
          "Sequence": 40,
          "TipDescription": "Don't like raisins? Omit them or substitute dried cranberries or PLANTERS Pecans or Walnuts.",
          "TipID": 3,
          "TipName": "Substitute"
        }
      ],
      "TotalTime": 50,
      "TradeMarkInfo": null,
      "Video": [],
      "Yield": null
    }
  ]
}