{
  "Metadata": {
    "PageCount": 1,
    "PageNo": 0,
    "TotalCount": 0
  },
  "Recipes": [
    {
      "AdServingKeywords": "Bacon,Cheddar,Cheese,Cream Cheese,Frozen Potatoes,Meat,Onion,Vegetables,Entree,Baked,Top of Stove,Intermediate,Breakfast/Brunch,Bread,Cracker Barrel,Kraft Cheese,Ore-Ida,Oscar Mayer,Philadelphia,Comfort Food,Cooking for a Crowd",
      "AlternateLanguageRecipes": [
        {
          "LanguageId": "2",
          "RecipeId": "204548",
          "SiteId": "1"
        },
        {
          "LanguageId": "2",
          "RecipeId": "204548",
          "SiteId": "90"
        }
      ],
      "Assets": [
        {
          "PictureFormats": [
            {
              "rendition": "290x194",
              "url": "http://assets.kraftfoods.com/recipe_images/opendeploy/204547-958ffd5a1822d7ce3e5785167386f49f303b00ea_291x194.jpg"
            },
            {
              "rendition": "306x204",
              "url": "http://assets.kraftfoods.com/recipe_images/opendeploy/204547-958ffd5a1822d7ce3e5785167386f49f303b00ea_306x204.jpg"
            },
            {
              "rendition": "640x428",
              "url": "http://assets.kraftfoods.com/recipe_images/opendeploy/204547-958ffd5a1822d7ce3e5785167386f49f303b00ea_642x428.jpg"
            }
          ],
          "author": "Kraft",
          "id": "2",
          "imageType": "Primary",
          "mimeType": "image/jpeg",
          "publicationDate": null,
          "status": "1",
          "title": "204547-958ffd5a1822d7ce3e5785167386f49f303b00ea",
          "type": "image"
        }
      ],
      "AverageRating": 0,
      "BrandId": 1,
      "Branding": null,
      "CSSSkins": null,
      "CarbCounter": null,
      "Categories": [
        {
          "CategoryID": 1,
          "CategoryName": "Breakfast/Brunch",
          "CategoryRank": 4,
          "SubCategoryID": 137,
          "SubCategoryName": "Sandwiches/Breakfast Bars",
          "SubCategoryRank": 60
        },
        {
          "CategoryID": 11,
          "CategoryName": "Primary",
          "CategoryRank": 0,
          "SubCategoryID": 97,
          "SubCategoryName": "Entrees",
          "SubCategoryRank": 50
        },
        {
          "CategoryID": 750,
          "CategoryName": "Breakfast, Brunch & Lunch",
          "CategoryRank": 4,
          "SubCategoryID": 2529,
          "SubCategoryName": "Savoury",
          "SubCategoryRank": 1
        },
        {
          "CategoryID": 751,
          "CategoryName": "Breads, Sandwiches, Wraps & Burgers",
          "CategoryRank": 5,
          "SubCategoryID": 2531,
          "SubCategoryName": "Fresh",
          "SubCategoryRank": 1
        },
        {
          "CategoryID": 751,
          "CategoryName": "Breads, Sandwiches, Wraps & Burgers",
          "CategoryRank": 5,
          "SubCategoryID": 2532,
          "SubCategoryName": "Toasted / Grilled / Cooked",
          "SubCategoryRank": 1
        },
        {
          "CategoryID": 751,
          "CategoryName": "Breads, Sandwiches, Wraps & Burgers",
          "CategoryRank": 5,
          "SubCategoryID": 2533,
          "SubCategoryName": "Specialty",
          "SubCategoryRank": 1
        },
        {
          "CategoryID": 1762,
          "CategoryName": "Philly Breakfast & Brunch",
          "CategoryRank": 0,
          "SubCategoryID": 16854,
          "SubCategoryName": "Brick Cream Cheese",
          "SubCategoryRank": 0
        },
        {
          "CategoryID": 1762,
          "CategoryName": "Philly Breakfast & Brunch",
          "CategoryRank": 0,
          "SubCategoryID": 16859,
          "SubCategoryName": "Use for All",
          "SubCategoryRank": 0
        }
      ],
      "Classifications": [],
      "ComplimentaryRecipes": null,
      "CookingMethod": null,
      "Copyright": null,
      "Courses": [
        "Breakfast/brunch"
      ],
      "DietExchange": null,
      "DishDetails": [
        {
          "Text": "breakfast and brunch",
          "Url": "/recipes/breakfast-and-brunch/main.aspx"
        },
        {
          "Text": "kid friendly breakfasts",
          "Url": "/recipes/kid-friendly/getgoingbreakfasts.aspx"
        },
        {
          "Text": "kraft kitchen favorites",
          "Url": "/recipes/breakfast-and-brunch/kke-favorites.aspx"
        },
        {
          "Text": "pancake recipes",
          "Url": "/recipes/breakfast-and-brunch/pancake-recipes/main.aspx"
        },
        {
          "Text": "all about eggs",
          "Url": "/recipes/breakfast-and-brunch/all-about-eggs.aspx"
        },
        {
          "Text": "banana bread recipes",
          "Url": "/recipes/breakfast-and-brunch/banana-bread/main.aspx"
        },
        {
          "Text": "healthy living breakfast recipes",
          "Url": "/healthy-living-ideas/diabetes-center/recipes/breakfast-recipes.aspx"
        },
        {
          "Text": "breakfast sandwiches",
          "Url": "/recipes/sandwich-recipes/breakfast-sandwiches.aspx"
        }
      ],
      "EndDate": "/Date(-62135575200000-0600)/",
      "HasVideo": false,
      "Ingredients": [
        {
          "FullMeasure": "2-1/2 cups",
          "FullWeight": "",
          "IngredientGridHeaders": null,
          "IngredientID": 23820,
          "IngredientName": "ORE-IDA Potatoes O’Brien",
          "IngredientStep": 10,
          "LanguageId": 0,
          "PostPreparation": "",
          "PrePreparation": "",
          "QuantityNum": 2,
          "QuantityText": "2-1/2",
          "QuantityUnit": "cups",
          "RecipeIngredientID": 6204476,
          "TrialMeasure": "",
          "TrialWeight": ""
        },
        {
          "FullMeasure": "6 slices",
          "FullWeight": "",
          "IngredientGridHeaders": null,
          "IngredientID": 578,
          "IngredientName": "OSCAR MAYER Bacon",
          "IngredientStep": 20,
          "LanguageId": 0,
          "PostPreparation": ", cut into 1/2-inch pieces",
          "PrePreparation": "",
          "QuantityNum": 6,
          "QuantityText": "6",
          "QuantityUnit": "slices",
          "RecipeIngredientID": 6204474,
          "TrialMeasure": "",
          "TrialWeight": ""
        },
        {
          "FullMeasure": "2",
          "FullWeight": "",
          "IngredientGridHeaders": null,
          "IngredientID": 7023,
          "IngredientName": "green onions",
          "IngredientStep": 30,
          "LanguageId": 0,
          "PostPreparation": ", sliced",
          "PrePreparation": "",
          "QuantityNum": 2,
          "QuantityText": "2",
          "QuantityUnit": "",
          "RecipeIngredientID": 6204475,
          "TrialMeasure": "",
          "TrialWeight": ""
        },
        {
          "FullMeasure": "2 oz.",
          "FullWeight": "",
          "IngredientGridHeaders": null,
          "IngredientID": 628,
          "IngredientName": "PHILADELPHIA Cream Cheese",
          "IngredientStep": 40,
          "LanguageId": 0,
          "PostPreparation": ", cubed",
          "PrePreparation": "(1/4 of 8-oz. pkg.)",
          "QuantityNum": 2,
          "QuantityText": "2",
          "QuantityUnit": "oz.",
          "RecipeIngredientID": 6204472,
          "TrialMeasure": "",
          "TrialWeight": ""
        },
        {
          "FullMeasure": "1 can",
          "FullWeight": "",
          "IngredientGridHeaders": null,
          "IngredientID": 20631,
          "IngredientName": "refrigerated thin pizza crust",
          "IngredientStep": 50,
          "LanguageId": 0,
          "PostPreparation": "",
          "PrePreparation": "(11 oz.)",
          "QuantityNum": 1,
          "QuantityText": "1",
          "QuantityUnit": "can",
          "RecipeIngredientID": 6204477,
          "TrialMeasure": "",
          "TrialWeight": ""
        },
        {
          "FullMeasure": "4 oz.",
          "FullWeight": "",
          "IngredientGridHeaders": null,
          "IngredientID": 9413,
          "IngredientName": "CRACKER BARREL Vermont Sharp-White Cheddar Cheese",
          "IngredientStep": 60,
          "LanguageId": 0,
          "PostPreparation": ", shredded",
          "PrePreparation": "(1/2 of 8-oz. pkg.)",
          "QuantityNum": 4,
          "QuantityText": "4",
          "QuantityUnit": "oz.",
          "RecipeIngredientID": 6204473,
          "TrialMeasure": "",
          "TrialWeight": ""
        }
      ],
      "IsHealthyLiving": false,
      "KRLId": "577528",
      "KeyIngredients": [
        "Bacon",
        "Cheddar",
        "Cheese",
        "Cream Cheese",
        "Meat",
        "Onion",
        "Vegetables"
      ],
      "Keywords": "OSCAR MAYER Bacon,PHILADELPHIA Cream Cheese,pizza crust,pork,potatoes,bacon,cheddar cheese,cheese,CRACKER BARREL Cheese,cream cheese,hash browns,meat,scallions,green onions,Entree,Baked,Top of Stove,Intermediate,Breakfast/Brunch,Bread,Comfort Food,Cooking for a Crowd",
      "LanguageId": 1,
      "LifeStyles": [],
      "NumberOfIngredients": 6,
      "NumberOfRatings": 0,
      "NumberOfRatingsWithComments": "0",
      "NumberOfServings": "10 servings",
      "NumberOfTrialServings": "",
      "NutritionBonus": null,
      "NutritionExchangeItemId": 0,
      "NutritionGridItems": null,
      "NutritionItems": [
        {
          "DisplayOrder": 1,
          "Document": null,
          "NutritionItemID": 3,
          "NutritionItemName": "Calories",
          "Predriscriptor": "",
          "Quantity": 240,
          "Unit": "          "
        },
        {
          "DisplayOrder": 2,
          "Document": "fat_cholesterol.html",
          "NutritionItemID": 4,
          "NutritionItemName": "Total fat",
          "Predriscriptor": "",
          "Quantity": 15,
          "Unit": "g         "
        },
        {
          "DisplayOrder": 3,
          "Document": "fat_cholesterol.html",
          "NutritionItemID": 9,
          "NutritionItemName": "Saturated fat",
          "Predriscriptor": "",
          "Quantity": 7,
          "Unit": "g         "
        },
        {
          "DisplayOrder": 7,
          "Document": "fat_cholesterol.html",
          "NutritionItemID": 2,
          "NutritionItemName": "Cholesterol",
          "Predriscriptor": "",
          "Quantity": 30,
          "Unit": "mg        "
        },
        {
          "DisplayOrder": 8,
          "Document": "sodium.html",
          "NutritionItemID": 8,
          "NutritionItemName": "Sodium",
          "Predriscriptor": "",
          "Quantity": 450,
          "Unit": "mg        "
        },
        {
          "DisplayOrder": 10,
          "Document": "carbs_sugars_fiber.html",
          "NutritionItemID": 1,
          "NutritionItemName": "Carbohydrate",
          "Predriscriptor": "",
          "Quantity": 20,
          "Unit": "g         "
        },
        {
          "DisplayOrder": 11,
          "Document": "carbs_sugars_fiber.html",
          "NutritionItemID": 7,
          "NutritionItemName": "Dietary fiber",
          "Predriscriptor": "",
          "Quantity": 1,
          "Unit": "g         "
        },
        {
          "DisplayOrder": 12,
          "Document": "carbs_sugars_fiber.html",
          "NutritionItemID": 5,
          "NutritionItemName": "Sugars",
          "Predriscriptor": "",
          "Quantity": 3,
          "Unit": "g         "
        },
        {
          "DisplayOrder": 13,
          "Document": null,
          "NutritionItemID": 6,
          "NutritionItemName": "Protein",
          "Predriscriptor": "",
          "Quantity": 8,
          "Unit": "g         "
        },
        {
          "DisplayOrder": 14,
          "Document": null,
          "NutritionItemID": 10,
          "NutritionItemName": "Vitamin A",
          "Predriscriptor": "",
          "Quantity": 4,
          "Unit": "%DV       "
        },
        {
          "DisplayOrder": 15,
          "Document": null,
          "NutritionItemID": 11,
          "NutritionItemName": "Vitamin C",
          "Predriscriptor": "",
          "Quantity": 0,
          "Unit": "%DV       "
        },
        {
          "DisplayOrder": 16,
          "Document": "dairy_and_calcium.html",
          "NutritionItemID": 12,
          "NutritionItemName": "Calcium",
          "Predriscriptor": "",
          "Quantity": 8,
          "Unit": "%DV       "
        },
        {
          "DisplayOrder": 17,
          "Document": null,
          "NutritionItemID": 13,
          "NutritionItemName": "Iron",
          "Predriscriptor": "",
          "Quantity": 6,
          "Unit": "%DV       "
        }
      ],
      "NutritionServingText": " ",
      "PrepStepImage": null,
      "PreparationDescription": "Cook potatoes, bacon and onions in large nonstick skillet on medium-high heat 15 to 18 min. or until potatoes are tender and bacon is crisp, stirring occasionally.  Remove from heat; stir in cream cheese.$Unroll pizza dough onto cutting board; press into 15x11-inch rectangle. Top with potato mixture, leaving 1/4-inch-wide border around all sides. Sprinkle with cheddar. Starting at one long end, roll up dough; press ends and seams together to seal.  $Wrap dough, seam side down, into coil on center of rimmed baking sheet sprayed with cooking spray, tucking end under coil to secure.  $Bake 15 to 18 min. or until top and bottom of bread are golden brown. Cut into wedges to serve. ",
      "PreparationPreText": "Heat oven to 400ºF.",
      "PreparationSteps": [
        {
          "Description": "Cook potatoes, bacon and onions in large nonstick skillet on medium-high heat 15 to 18 min. or until potatoes are tender and bacon is crisp, stirring occasionally.  Remove from heat; stir in cream cheese.",
          "PreparationStepImage": {
            "PictureFormats": [],
            "author": null,
            "id": null,
            "imageType": null,
            "mimeType": null,
            "publicationDate": null,
            "status": null,
            "title": null,
            "type": null
          },
          "Sequence": 1
        },
        {
          "Description": "Unroll pizza dough onto cutting board; press into 15x11-inch rectangle. Top with potato mixture, leaving 1/4-inch-wide border around all sides. Sprinkle with cheddar. Starting at one long end, roll up dough; press ends and seams together to seal.  ",
          "PreparationStepImage": {
            "PictureFormats": [],
            "author": null,
            "id": null,
            "imageType": null,
            "mimeType": null,
            "publicationDate": null,
            "status": null,
            "title": null,
            "type": null
          },
          "Sequence": 2
        },
        {
          "Description": "Wrap dough, seam side down, into coil on center of rimmed baking sheet sprayed with cooking spray, tucking end under coil to secure.  ",
          "PreparationStepImage": {
            "PictureFormats": [],
            "author": null,
            "id": null,
            "imageType": null,
            "mimeType": null,
            "publicationDate": null,
            "status": null,
            "title": null,
            "type": null
          },
          "Sequence": 3
        },
        {
          "Description": "Bake 15 to 18 min. or until top and bottom of bread are golden brown. Cut into wedges to serve. ",
          "PreparationStepImage": {
            "PictureFormats": [],
            "author": null,
            "id": null,
            "imageType": null,
            "mimeType": null,
            "publicationDate": null,
            "status": null,
            "title": null,
            "type": null
          },
          "Sequence": 4
        }
      ],
      "PreparationTime": 35,
      "Promotion": null,
      "Ratings": {
        "TotalCount": 0,
        "PageCount": 10,
        "PageNo": 1,
        "Rating": []
      },
      "RecipeDisplayFormatId": 5,
      "RecipeId": 204547,
      "RecipeName": "Loaded Potato Stuffed Bread",
      "RecipeType": 0,
      "RelatedData": {
        "RelatedBrands": null,
        "RelatedProducts": null,
        "RelatedRecipes": {
          "DefaultTopCount": 5,
          "Recipe": [
            {
              "AverageRating": 4.3,
              "HasVideo": false,
              "IsHealthyLiving": false,
              "NumberOfRatings": 4,
              "PhotoName": "154360.jpg",
              "PhotoUrl": "http://assets.kraftfoods.com/recipe_images/opendeploy/154360.jpg",
              "RecipeId": 154360,
              "RecipeName": "Slow-Cooker Loaded Cheesy Potatoes",
              "SEOName": "slow-cooker-loaded-cheesy-potatoes-154360",
              "ThumbnailPhoto": null
            },
            {
              "AverageRating": 4.8,
              "HasVideo": false,
              "IsHealthyLiving": false,
              "NumberOfRatings": 4,
              "PhotoName": "creamy-bacon-cheddar-loaded-baked-potato-salad-recipe-165240.jpg",
              "PhotoUrl": "http://assets.kraftfoods.com/recipe_images/opendeploy/creamy-bacon-cheddar-loaded-baked-potato-salad-recipe-165240.jpg",
              "RecipeId": 165240,
              "RecipeName": "Creamy Loaded Baked Potato Salad",
              "SEOName": "creamy-loaded-baked-potato-salad-165240",
              "ThumbnailPhoto": null
            },
            {
              "AverageRating": 4.3,
              "HasVideo": false,
              "IsHealthyLiving": false,
              "NumberOfRatings": 4,
              "PhotoName": "155074.jpg",
              "PhotoUrl": "http://assets.kraftfoods.com/recipe_images/opendeploy/155074.jpg",
              "RecipeId": 155074,
              "RecipeName": "Pork Chops with Fully Loaded Smashed Potatoes",
              "SEOName": "pork-chops-fully-loaded-smashed-potatoes-155074",
              "ThumbnailPhoto": null
            },
            {
              "AverageRating": 4.1,
              "HasVideo": true,
              "IsHealthyLiving": false,
              "NumberOfRatings": 31,
              "PhotoName": "Slow-Cooker-Loaded-Baked-Potato-Soup-2414.jpg",
              "PhotoUrl": "http://assets.kraftfoods.com/recipe_images/opendeploy/Slow-Cooker-Loaded-Baked-Potato-Soup-2414.jpg",
              "RecipeId": 138341,
              "RecipeName": "Slow-Cooker Loaded Baked Potato Soup",
              "SEOName": "slow-cooker-loaded-baked-potato-soup-138341",
              "ThumbnailPhoto": null
            },
            {
              "AverageRating": 4.6,
              "HasVideo": false,
              "IsHealthyLiving": false,
              "NumberOfRatings": 10,
              "PhotoName": "opendeploy/569257_1_1_retail-a2bc0bb076749a8bc348c7041dabb81e1d8f7e8a_306x204.jpg",
              "PhotoUrl": "http://assets.kraftfoods.com/recipe_images/opendeploy/opendeploy/569257_1_1_retail-a2bc0bb076749a8bc348c7041dabb81e1d8f7e8a_306x204.jpg",
              "RecipeId": 143362,
              "RecipeName": "Fully Loaded Scalloped Potatoes",
              "SEOName": "fully-loaded-scalloped-potatoes-143362",
              "ThumbnailPhoto": null
            }
          ],
          "TotalCount": 1360
        }
      },
      "RiseIngredients": [],
      "RiseTaxonomy": [],
      "Riserecipe": [
        {
          "GRIN": 577528,
          "RecipeId": 204547,
          "RecipeIndustrySector": "Retail",
          "RecipeType": "Internal"
        }
      ],
      "RomanceText": "Make a hearty dish for family and friends with this Loaded Potato Stuffed Bread. Fill pizza dough with bacon, potatoes and cheese in this tasty recipe.",
      "SEOName": "loaded-potato-stuffed-bread-204547",
      "Tips": [
        {
          "RecipeId": 204547,
          "Sequence": 10,
          "TipDescription": "Prepare using PHILADELPHIA Neufchatel Cheese, and substituting 1/4 cup OSCAR MAYER Turkey Bacon Bits for the 6 slices crumbled cooked bacon.",
          "TipID": 2,
          "TipName": "Variation  "
        },
        {
          "RecipeId": 204547,
          "Sequence": 20,
          "TipDescription": "Substitute 1/4 cup chopped fresh chives for the green onions.",
          "TipID": 1,
          "TipName": "Substitute"
        }
      ],
      "TotalTime": 43,
      "TradeMarkInfo": null,
      "Video": [],
      "Yield": "10 servings"
    }
  ]
}