{
  "Metadata": {
    "PageCount": 1,
    "PageNo": 0,
    "TotalCount": 0
  },
  "Recipes": [
    {
      "AdServingKeywords": "Cream Cheese,Garlic,Easy,Baked,Nutrition and Well-Being,Jewish,All Seasons,Chanukah,Bread,Dinner,Philadelphia,Kid-Friendly",
      "AlternateLanguageRecipes": [],
      "Assets": [
        {
          "PictureFormats": [
            {
              "rendition": "140x90",
              "url": "http://assets.kraftfoods.com/recipe_images/opendeploy/53254_SGS_K2751V0_OR1_H_140x90.jpg"
            },
            {
              "rendition": "290x194",
              "url": "http://assets.kraftfoods.com/recipe_images/opendeploy/53254_SGS_K2751V0_OR1_H_290x194.jpg"
            },
            {
              "rendition": "300x250",
              "url": "http://assets.kraftfoods.com/recipe_images/opendeploy/53254_SGS_K2751V0_OR1_H_300x250.jpg"
            },
            {
              "rendition": "600x250",
              "url": "http://assets.kraftfoods.com/recipe_images/opendeploy/53254_SGS_K2751V0_OR1_H_600x250.jpg"
            },
            {
              "rendition": "640x428",
              "url": "http://assets.kraftfoods.com/recipe_images/opendeploy/53254_SGS_K2751V0_OR1_H_640x428.jpg"
            },
            {
              "rendition": "960x300",
              "url": "http://assets.kraftfoods.com/recipe_images/opendeploy/53254_SGS_K2751V0_OR1_H_960x300.jpg"
            }
          ],
          "author": null,
          "id": "5",
          "imageType": "Primary",
          "mimeType": "image/jpeg",
          "publicationDate": null,
          "status": "1",
          "title": "53254_SGS_K2751V0_OR1_H",
          "type": "image"
        },
        {
          "PictureFormats": [
            {
              "rendition": "300x200",
              "url": "http://assets.kraftfoods.com/recipe_images/Garlic_Breadsticks.jpg"
            }
          ],
          "author": null,
          "id": "0",
          "imageType": "LANDSCAPE",
          "mimeType": null,
          "publicationDate": null,
          "status": "1",
          "title": "Garlic_Breadsticks.jpg",
          "type": "image"
        }
      ],
      "AverageRating": 3.9,
      "BrandId": 1,
      "Branding": null,
      "CSSSkins": null,
      "CarbCounter": "1",
      "Categories": [
        {
          "CategoryID": 10,
          "CategoryName": "Breads",
          "CategoryRank": 3,
          "SubCategoryID": 439,
          "SubCategoryName": "Breadsticks",
          "SubCategoryRank": 20
        },
        {
          "CategoryID": 11,
          "CategoryName": "Primary",
          "CategoryRank": 0,
          "SubCategoryID": 101,
          "SubCategoryName": "Breads and Muffins",
          "SubCategoryRank": 30
        },
        {
          "CategoryID": 751,
          "CategoryName": "Breads, Sandwiches, Wraps & Burgers",
          "CategoryRank": 5,
          "SubCategoryID": 2531,
          "SubCategoryName": "Fresh",
          "SubCategoryRank": 1
        },
        {
          "CategoryID": 751,
          "CategoryName": "Breads, Sandwiches, Wraps & Burgers",
          "CategoryRank": 5,
          "SubCategoryID": 2533,
          "SubCategoryName": "Specialty",
          "SubCategoryRank": 1
        }
      ],
      "Classifications": [
        {
          "ClassficationId": 9,
          "ClassificationName": "Low fat"
        },
        {
          "ClassficationId": 14,
          "ClassificationName": "Generally Nutritious"
        },
        {
          "ClassficationId": 119,
          "ClassificationName": "Diabetes Center"
        }
      ],
      "ComplimentaryRecipes": [
        {
          "AverageRating": 0,
          "HasVideo": false,
          "IsHealthyLiving": false,
          "NumberOfRatings": 0,
          "PhotoName": null,
          "PhotoUrl": null,
          "RecipeId": 56546,
          "RecipeName": null,
          "SEOName": "honey-mustard-ginger-grilled-chicken-56546",
          "ThumbnailPhoto": "HoneyMustard_Ginger_Grilled_Chicken.jpg"
        }
      ],
      "CookingMethod": null,
      "Copyright": null,
      "Courses": [
        "Breads"
      ],
      "DietExchange": "1 Starch,1/2 Fat",
      "DishDetails": [],
      "EndDate": "/Date(-62135575200000-0600)/",
      "HasVideo": false,
      "Ingredients": [
        {
          "FullMeasure": "1/2 cup",
          "FullWeight": "",
          "IngredientGridHeaders": null,
          "IngredientID": 19888,
          "IngredientName": "PHILADELPHIA 1/3 Less Fat than Cream Cheese",
          "IngredientStep": 10,
          "LanguageId": 0,
          "PostPreparation": "",
          "PrePreparation": "(1/2 of 8-oz. tub)",
          "QuantityNum": 0,
          "QuantityText": "1/2",
          "QuantityUnit": "cup",
          "RecipeIngredientID": 5333247,
          "TrialMeasure": "",
          "TrialWeight": ""
        },
        {
          "FullMeasure": "1 tsp.",
          "FullWeight": "",
          "IngredientGridHeaders": null,
          "IngredientID": 1177,
          "IngredientName": "garlic powder",
          "IngredientStep": 20,
          "LanguageId": 0,
          "PostPreparation": "",
          "PrePreparation": "",
          "QuantityNum": 1,
          "QuantityText": "1",
          "QuantityUnit": "tsp.",
          "RecipeIngredientID": 5333246,
          "TrialMeasure": "",
          "TrialWeight": ""
        },
        {
          "FullMeasure": "1 can",
          "FullWeight": "",
          "IngredientGridHeaders": null,
          "IngredientID": 1561,
          "IngredientName": "refrigerated soft breadsticks",
          "IngredientStep": 30,
          "LanguageId": 0,
          "PostPreparation": "",
          "PrePreparation": "(11 oz.)",
          "QuantityNum": 1,
          "QuantityText": "1",
          "QuantityUnit": "can",
          "RecipeIngredientID": 5333248,
          "TrialMeasure": "",
          "TrialWeight": ""
        }
      ],
      "IsHealthyLiving": true,
      "KRLId": "506630",
      "KeyIngredients": [
        "Bread",
        "Cream Cheese",
        "Garlic"
      ],
      "Keywords": "PHILADELPHIA Cream Cheese,breadsticks,cream cheese,breadstick dough-refrigerated,PHILADELPHIA Reduced Fat,garlic powder,cream cheese-reduced fat,PHILADELPHIA Cream Cheese Spre,Baked,Easy,Nutrition and Well-Being,Jewish,All Seasons,Chanukah,Dinner,Kid-Friendly",
      "LanguageId": 1,
      "LifeStyles": [
        "Low fat",
        "Generally Nutritious",
        "Diabetes Center"
      ],
      "NumberOfIngredients": 3,
      "NumberOfRatings": 127,
      "NumberOfRatingsWithComments": "89",
      "NumberOfServings": "12 servings",
      "NumberOfTrialServings": "",
      "NutritionBonus": "Help your friends and family eat right with these flavorful breadsticks.",
      "NutritionExchangeItemId": 2,
      "NutritionGridItems": null,
      "NutritionItems": [
        {
          "DisplayOrder": 1,
          "Document": null,
          "NutritionItemID": 3,
          "NutritionItemName": "Calories",
          "Predriscriptor": "",
          "Quantity": 90,
          "Unit": "          "
        },
        {
          "DisplayOrder": 2,
          "Document": "fat_cholesterol.html",
          "NutritionItemID": 4,
          "NutritionItemName": "Total fat",
          "Predriscriptor": "",
          "Quantity": 3,
          "Unit": "g         "
        },
        {
          "DisplayOrder": 3,
          "Document": "fat_cholesterol.html",
          "NutritionItemID": 9,
          "NutritionItemName": "Saturated fat",
          "Predriscriptor": "",
          "Quantity": 1.5,
          "Unit": "g         "
        },
        {
          "DisplayOrder": 7,
          "Document": "fat_cholesterol.html",
          "NutritionItemID": 2,
          "NutritionItemName": "Cholesterol",
          "Predriscriptor": "",
          "Quantity": 5,
          "Unit": "mg        "
        },
        {
          "DisplayOrder": 8,
          "Document": "sodium.html",
          "NutritionItemID": 8,
          "NutritionItemName": "Sodium",
          "Predriscriptor": "",
          "Quantity": 230,
          "Unit": "mg        "
        },
        {
          "DisplayOrder": 10,
          "Document": "carbs_sugars_fiber.html",
          "NutritionItemID": 1,
          "NutritionItemName": "Carbohydrate",
          "Predriscriptor": "",
          "Quantity": 13,
          "Unit": "g         "
        },
        {
          "DisplayOrder": 11,
          "Document": "carbs_sugars_fiber.html",
          "NutritionItemID": 7,
          "NutritionItemName": "Dietary fiber",
          "Predriscriptor": "",
          "Quantity": 0,
          "Unit": "g         "
        },
        {
          "DisplayOrder": 12,
          "Document": "carbs_sugars_fiber.html",
          "NutritionItemID": 5,
          "NutritionItemName": "Sugars",
          "Predriscriptor": "",
          "Quantity": 2,
          "Unit": "g         "
        },
        {
          "DisplayOrder": 13,
          "Document": null,
          "NutritionItemID": 6,
          "NutritionItemName": "Protein",
          "Predriscriptor": "",
          "Quantity": 3,
          "Unit": "g         "
        },
        {
          "DisplayOrder": 14,
          "Document": null,
          "NutritionItemID": 10,
          "NutritionItemName": "Vitamin A",
          "Predriscriptor": "",
          "Quantity": 2,
          "Unit": "%DV       "
        },
        {
          "DisplayOrder": 15,
          "Document": null,
          "NutritionItemID": 11,
          "NutritionItemName": "Vitamin C",
          "Predriscriptor": "",
          "Quantity": 0,
          "Unit": "%DV       "
        },
        {
          "DisplayOrder": 16,
          "Document": "dairy_and_calcium.html",
          "NutritionItemID": 12,
          "NutritionItemName": "Calcium",
          "Predriscriptor": "",
          "Quantity": 0,
          "Unit": "%DV       "
        },
        {
          "DisplayOrder": 17,
          "Document": null,
          "NutritionItemID": 13,
          "NutritionItemName": "Iron",
          "Predriscriptor": "",
          "Quantity": 4,
          "Unit": "%DV       "
        }
      ],
      "NutritionServingText": " ",
      "PrepStepImage": null,
      "PreparationDescription": "Mix cream cheese and garlic powder until blended.$Unroll breadstick dough into 12 pieces; spread with cream cheese mixture.  Fold each piece lengthwise in half, then twist slightly.  Place on baking sheet. $Bake 15 min. or until golden brown.  Serve warm. ",
      "PreparationPreText": "Heat oven to 350°F.",
      "PreparationSteps": [
        {
          "Description": "Mix cream cheese and garlic powder until blended.",
          "PreparationStepImage": {
            "PictureFormats": [],
            "author": null,
            "id": null,
            "imageType": null,
            "mimeType": null,
            "publicationDate": null,
            "status": null,
            "title": null,
            "type": null
          },
          "Sequence": 1
        },
        {
          "Description": "Unroll breadstick dough into 12 pieces; spread with cream cheese mixture.  Fold each piece lengthwise in half, then twist slightly.  Place on baking sheet. ",
          "PreparationStepImage": {
            "PictureFormats": [],
            "author": null,
            "id": null,
            "imageType": null,
            "mimeType": null,
            "publicationDate": null,
            "status": null,
            "title": null,
            "type": null
          },
          "Sequence": 2
        },
        {
          "Description": "Bake 15 min. or until golden brown.  Serve warm. ",
          "PreparationStepImage": {
            "PictureFormats": [],
            "author": null,
            "id": null,
            "imageType": null,
            "mimeType": null,
            "publicationDate": null,
            "status": null,
            "title": null,
            "type": null
          },
          "Sequence": 3
        }
      ],
      "PreparationTime": 10,
      "Promotion": null,
      "Ratings": {
        "TotalCount": 127,
        "PageCount": 10,
        "PageNo": 1,
        "Rating": [
          {
            "Comment": "Easy and very delicious! They were a little tough though. I didn't like that, but my grandma did. I'd make them again :)",
            "DisplayName": true,
            "RatingValue": 4,
            "SubmitDate": "/Date(1321765315000-0600)/",
            "UpdatedDate": "/Date(1321765315000-0600)/",
            "UserName": "lil_spunk"
          },
          {
            "Comment": "",
            "DisplayName": true,
            "RatingValue": 4,
            "SubmitDate": "/Date(1304257141000-0500)/",
            "UpdatedDate": "/Date(1304257141000-0500)/",
            "UserName": "ashgiacomo"
          },
          {
            "Comment": "Very Good! Soften cream cheese to room temp. for easier mixing and speading.",
            "DisplayName": true,
            "RatingValue": 4,
            "SubmitDate": "/Date(1301006348000-0500)/",
            "UpdatedDate": "/Date(1301006348000-0500)/",
            "UserName": "medic2177"
          },
          {
            "Comment": "This was way easy to make and everyone loved it.",
            "DisplayName": false,
            "RatingValue": 5,
            "SubmitDate": "/Date(1299854632000-0600)/",
            "UpdatedDate": "/Date(1299854632000-0600)/",
            "UserName": "urtnsis"
          },
          {
            "Comment": "",
            "DisplayName": true,
            "RatingValue": 5,
            "SubmitDate": "/Date(1298045235000-0600)/",
            "UpdatedDate": "/Date(1298045235000-0600)/",
            "UserName": "MelissaLaird01"
          },
          {
            "Comment": "Easy to make and very good. I used pizza dough since there isn't breadstick dough here. I'll definitely make these again, they would go great with pasta, salads, or soup.",
            "DisplayName": true,
            "RatingValue": 4,
            "SubmitDate": "/Date(1287734881000-0500)/",
            "UpdatedDate": "/Date(1287734881000-0500)/",
            "UserName": "richa521"
          },
          {
            "Comment": "They needed more flavor. I won't be using Pillsbury refrigerated breadsticks anymore.... it has a weird taste! ",
            "DisplayName": true,
            "RatingValue": 3,
            "SubmitDate": "/Date(1285530834000-0500)/",
            "UpdatedDate": "/Date(1285530834000-0500)/",
            "UserName": "tenderlove"
          },
          {
            "Comment": "These were good. I didnt use as much cream cheese as it calls for and my family loved it,I used garlic powder and garlic salt. ",
            "DisplayName": true,
            "RatingValue": 4,
            "SubmitDate": "/Date(1285269867000-0500)/",
            "UpdatedDate": "/Date(1285269867000-0500)/",
            "UserName": "natashajoyce"
          },
          {
            "Comment": "",
            "DisplayName": true,
            "RatingValue": 4,
            "SubmitDate": "/Date(1272426311000-0500)/",
            "UpdatedDate": "/Date(1272426331000-0500)/",
            "UserName": "andrea_beseke"
          },
          {
            "Comment": "I was very disappointed in the taste, and consistency",
            "DisplayName": false,
            "RatingValue": 1,
            "SubmitDate": "/Date(1262819262000-0600)/",
            "UpdatedDate": "/Date(1262819262000-0600)/",
            "UserName": "supergranny66"
          }
        ]
      },
      "RecipeDisplayFormatId": 5,
      "RecipeId": 53254,
      "RecipeName": "Garlic Breadsticks",
      "RecipeType": 0,
      "RelatedData": {
        "RelatedBrands": null,
        "RelatedProducts": null,
        "RelatedRecipes": {
          "DefaultTopCount": 5,
          "Recipe": [
            {
              "AverageRating": 4.3,
              "HasVideo": false,
              "IsHealthyLiving": false,
              "NumberOfRatings": 83,
              "PhotoName": "opendeploy/501898_1_1_retail-5ebc95913140dcf9164e3ea590b5056744e230b4_306x204.jpg",
              "PhotoUrl": "http://assets.kraftfoods.com/recipe_images/opendeploy/opendeploy/501898_1_1_retail-5ebc95913140dcf9164e3ea590b5056744e230b4_306x204.jpg",
              "RecipeId": 50108,
              "RecipeName": "KRAFT Parmesan Breadsticks",
              "SEOName": "kraft-parmesan-breadsticks-50108",
              "ThumbnailPhoto": null
            },
            {
              "AverageRating": 4.3,
              "HasVideo": false,
              "IsHealthyLiving": false,
              "NumberOfRatings": 6,
              "PhotoName": "127538.jpg",
              "PhotoUrl": "http://assets.kraftfoods.com/recipe_images/opendeploy/127538.jpg",
              "RecipeId": 127538,
              "RecipeName": "Cheesy Bones",
              "SEOName": "cheesy-bones-127538",
              "ThumbnailPhoto": null
            },
            {
              "AverageRating": 4.1,
              "HasVideo": false,
              "IsHealthyLiving": false,
              "NumberOfRatings": 21,
              "PhotoName": "Heart_Breadsticks.jpg",
              "PhotoUrl": "http://assets.kraftfoods.com/recipe_images/opendeploy/Heart_Breadsticks.jpg",
              "RecipeId": 55718,
              "RecipeName": "Heart Breadsticks",
              "SEOName": "heart-breadsticks-55718",
              "ThumbnailPhoto": null
            },
            {
              "AverageRating": 4.5,
              "HasVideo": false,
              "IsHealthyLiving": false,
              "NumberOfRatings": 8,
              "PhotoName": "Parmesan_Breadstick_Candy_Canes.jpg",
              "PhotoUrl": "http://assets.kraftfoods.com/recipe_images/opendeploy/Parmesan_Breadstick_Candy_Canes.jpg",
              "RecipeId": 52178,
              "RecipeName": "Parmesan Breadstick \"Candy Canes\"",
              "SEOName": "parmesan-breadstick-candy-canes-52178",
              "ThumbnailPhoto": null
            },
            {
              "AverageRating": 4,
              "HasVideo": false,
              "IsHealthyLiving": false,
              "NumberOfRatings": 45,
              "PhotoName": "54511.jpg",
              "PhotoUrl": "http://assets.kraftfoods.com/recipe_images/opendeploy/54511.jpg",
              "RecipeId": 54511,
              "RecipeName": "Peppered-Bacon Twists",
              "SEOName": "peppered-bacon-twists-54511",
              "ThumbnailPhoto": null
            }
          ],
          "TotalCount": 946
        }
      },
      "RiseIngredients": [],
      "RiseTaxonomy": [],
      "Riserecipe": [
        {
          "GRIN": 506630,
          "RecipeId": 53254,
          "RecipeIndustrySector": "Retail",
          "RecipeType": "Internal"
        }
      ],
      "RomanceText": "Get out the refrigerated soft breadsticks to make this good and garlicky Healthy Living version with reduced-fat cream cheese.",
      "SEOName": "garlic-breadsticks-53254",
      "Tips": [
        {
          "RecipeId": 53254,
          "Sequence": 10,
          "TipDescription": "Cover baking sheet with foil before using as directed.    ",
          "TipID": 1,
          "TipName": "Easy Cleanup"
        },
        {
          "RecipeId": 53254,
          "Sequence": 20,
          "TipDescription": "Store any leftover breadsticks in airtight container in refrigerator.  When ready to serve, place on baking sheet.  Bake in 350°F oven 5 min. or just until warmed.  ",
          "TipID": 2,
          "TipName": "How to Store"
        },
        {
          "RecipeId": 53254,
          "Sequence": 30,
          "TipDescription": "For appetizer pieces, cut each breadstick into quarters; spread with cream cheese mixture, then twist slightly.  Place on baking sheet and bake as directed.  ",
          "TipID": 4,
          "TipName": "Variation"
        }
      ],
      "TotalTime": 25,
      "TradeMarkInfo": null,
      "Video": [],
      "Yield": "12 servings"
    }
  ]
}