{
  "Metadata": {
    "PageCount": 1,
    "PageNo": 0,
    "TotalCount": 0
  },
  "Recipes": [
    {
      "AdServingKeywords": "Cream Cheese,Dairy,Fruit,Nuts,Oranges,Yogurt,Easy,Nutrition and Well-Being,All Seasons,Creamy,Philadelphia,Planters,Cooking for One or Two,Quick and Easy",
      "AlternateLanguageRecipes": [],
      "Assets": [
        {
          "PictureFormats": [
            {
              "rendition": "300x200",
              "url": "http://assets.kraftfoods.com/recipe_images/Fruit_and_Honey_Cream_Dessert.jpg"
            }
          ],
          "author": null,
          "id": "0",
          "imageType": "LANDSCAPE",
          "mimeType": null,
          "publicationDate": null,
          "status": "1",
          "title": "Fruit_and_Honey_Cream_Dessert.jpg",
          "type": "image"
        }
      ],
      "AverageRating": 4.5,
      "BrandId": 1,
      "Branding": null,
      "CSSSkins": null,
      "CarbCounter": "2",
      "Categories": [],
      "Classifications": [
        {
          "ClassficationId": 9,
          "ClassificationName": "Low fat"
        },
        {
          "ClassficationId": 13,
          "ClassificationName": "Good source of vitamin A or C"
        },
        {
          "ClassficationId": 14,
          "ClassificationName": "Generally Nutritious"
        },
        {
          "ClassficationId": 22,
          "ClassificationName": "Low sodium"
        },
        {
          "ClassficationId": 119,
          "ClassificationName": "Diabetes Center"
        }
      ],
      "ComplimentaryRecipes": null,
      "CookingMethod": null,
      "Copyright": null,
      "Courses": [],
      "DietExchange": "1 Starch,1 Fruit",
      "DishDetails": [],
      "EndDate": "/Date(-62135575200000-0600)/",
      "HasVideo": false,
      "Ingredients": [
        {
          "FullMeasure": "2",
          "FullWeight": "",
          "IngredientGridHeaders": null,
          "IngredientID": 3949,
          "IngredientName": "navel orange",
          "IngredientStep": 10,
          "LanguageId": 0,
          "PostPreparation": "s, peeled, sliced",
          "PrePreparation": "",
          "QuantityNum": 2,
          "QuantityText": "2",
          "QuantityUnit": "",
          "RecipeIngredientID": 4656335,
          "TrialMeasure": "",
          "TrialWeight": ""
        },
        {
          "FullMeasure": "1 Tbsp.",
          "FullWeight": "",
          "IngredientGridHeaders": null,
          "IngredientID": 1248,
          "IngredientName": "honey",
          "IngredientStep": 20,
          "LanguageId": 0,
          "PostPreparation": ", divided",
          "PrePreparation": "",
          "QuantityNum": 1,
          "QuantityText": "1",
          "QuantityUnit": "Tbsp.",
          "RecipeIngredientID": 4656333,
          "TrialMeasure": "",
          "TrialWeight": ""
        },
        {
          "FullMeasure": "2 Tbsp.",
          "FullWeight": "",
          "IngredientGridHeaders": null,
          "IngredientID": 19888,
          "IngredientName": "PHILADELPHIA 1/3 Less Fat than Cream Cheese",
          "IngredientStep": 30,
          "LanguageId": 0,
          "PostPreparation": "",
          "PrePreparation": "",
          "QuantityNum": 2,
          "QuantityText": "2",
          "QuantityUnit": "Tbsp.",
          "RecipeIngredientID": 4656336,
          "TrialMeasure": "",
          "TrialWeight": ""
        },
        {
          "FullMeasure": "2 Tbsp.",
          "FullWeight": "",
          "IngredientGridHeaders": null,
          "IngredientID": 5247,
          "IngredientName": "vanilla low-fat yogurt",
          "IngredientStep": 40,
          "LanguageId": 0,
          "PostPreparation": "",
          "PrePreparation": "",
          "QuantityNum": 2,
          "QuantityText": "2",
          "QuantityUnit": "Tbsp.",
          "RecipeIngredientID": 4656334,
          "TrialMeasure": "",
          "TrialWeight": ""
        },
        {
          "FullMeasure": "1 tsp.",
          "FullWeight": "",
          "IngredientGridHeaders": null,
          "IngredientID": 5743,
          "IngredientName": "PLANTERS Pecan Pieces",
          "IngredientStep": 50,
          "LanguageId": 0,
          "PostPreparation": "",
          "PrePreparation": "",
          "QuantityNum": 1,
          "QuantityText": "1",
          "QuantityUnit": "tsp.",
          "RecipeIngredientID": 4656332,
          "TrialMeasure": "",
          "TrialWeight": ""
        }
      ],
      "IsHealthyLiving": true,
      "KRLId": "549440",
      "KeyIngredients": [
        "Cream Cheese",
        "Fruit",
        "Oranges",
        "Yogurt"
      ],
      "Keywords": "nuts,oranges,pecans,PHILADELPHIA Cream Cheese,cream cheese,honey,yogurt,PLANTERS Pecans,PHILADELPHIA Reduced Fat,cream cheese-reduced fat,PHILADELPHIA Cream Cheese Spre,Planters,Easy,Nutrition and Well-Being,All Seasons,Creamy,Cooking for One or Two,Quick and Easy",
      "LanguageId": 1,
      "LifeStyles": [
        "Low fat",
        "Good source of vitamin A or C",
        "Generally Nutritious",
        "Low sodium",
        "Diabetes Center"
      ],
      "NumberOfIngredients": 5,
      "NumberOfRatings": 10,
      "NumberOfRatingsWithComments": "7",
      "NumberOfServings": "2 servings",
      "NumberOfTrialServings": "",
      "NutritionBonus": "The orange in this creamy dessert is rich in vitamin C.  Plus, you can feel good about serving it to friends and family as it can help you eat right!",
      "NutritionExchangeItemId": 1,
      "NutritionGridItems": null,
      "NutritionItems": [
        {
          "DisplayOrder": 1,
          "Document": null,
          "NutritionItemID": 3,
          "NutritionItemName": "Calories",
          "Predriscriptor": "",
          "Quantity": 150,
          "Unit": "          "
        },
        {
          "DisplayOrder": 2,
          "Document": "fat_cholesterol.html",
          "NutritionItemID": 4,
          "NutritionItemName": "Total fat",
          "Predriscriptor": "",
          "Quantity": 4,
          "Unit": "g         "
        },
        {
          "DisplayOrder": 3,
          "Document": "fat_cholesterol.html",
          "NutritionItemID": 9,
          "NutritionItemName": "Saturated fat",
          "Predriscriptor": "",
          "Quantity": 2,
          "Unit": "g         "
        },
        {
          "DisplayOrder": 7,
          "Document": "fat_cholesterol.html",
          "NutritionItemID": 2,
          "NutritionItemName": "Cholesterol",
          "Predriscriptor": "",
          "Quantity": 10,
          "Unit": "mg        "
        },
        {
          "DisplayOrder": 8,
          "Document": "sodium.html",
          "NutritionItemID": 8,
          "NutritionItemName": "Sodium",
          "Predriscriptor": "",
          "Quantity": 80,
          "Unit": "mg        "
        },
        {
          "DisplayOrder": 10,
          "Document": "carbs_sugars_fiber.html",
          "NutritionItemID": 1,
          "NutritionItemName": "Carbohydrate",
          "Predriscriptor": "",
          "Quantity": 27,
          "Unit": "g         "
        },
        {
          "DisplayOrder": 11,
          "Document": "carbs_sugars_fiber.html",
          "NutritionItemID": 7,
          "NutritionItemName": "Dietary fiber",
          "Predriscriptor": "",
          "Quantity": 3,
          "Unit": "g         "
        },
        {
          "DisplayOrder": 12,
          "Document": "carbs_sugars_fiber.html",
          "NutritionItemID": 5,
          "NutritionItemName": "Sugars",
          "Predriscriptor": "",
          "Quantity": 23,
          "Unit": "g         "
        },
        {
          "DisplayOrder": 13,
          "Document": null,
          "NutritionItemID": 6,
          "NutritionItemName": "Protein",
          "Predriscriptor": "",
          "Quantity": 3,
          "Unit": "g         "
        },
        {
          "DisplayOrder": 14,
          "Document": null,
          "NutritionItemID": 10,
          "NutritionItemName": "Vitamin A",
          "Predriscriptor": "",
          "Quantity": 10,
          "Unit": "%DV       "
        },
        {
          "DisplayOrder": 15,
          "Document": null,
          "NutritionItemID": 11,
          "NutritionItemName": "Vitamin C",
          "Predriscriptor": "",
          "Quantity": 120,
          "Unit": "%DV       "
        },
        {
          "DisplayOrder": 16,
          "Document": "dairy_and_calcium.html",
          "NutritionItemID": 12,
          "NutritionItemName": "Calcium",
          "Predriscriptor": "",
          "Quantity": 10,
          "Unit": "%DV       "
        },
        {
          "DisplayOrder": 17,
          "Document": null,
          "NutritionItemID": 13,
          "NutritionItemName": "Iron",
          "Predriscriptor": "",
          "Quantity": 0,
          "Unit": "%DV       "
        }
      ],
      "NutritionServingText": "",
      "PrepStepImage": null,
      "PreparationDescription": "Arrange oranges on 2 small dessert plates; drizzle evenly with 2 tsp. honey.$Mix reduced-fat cream cheese, yogurt and remaining honey; spoon over oranges.  $Top with nuts.",
      "PreparationPreText": "",
      "PreparationSteps": [
        {
          "Description": "Arrange oranges on 2 small dessert plates; drizzle evenly with 2 tsp. honey.",
          "PreparationStepImage": {
            "PictureFormats": [],
            "author": null,
            "id": null,
            "imageType": null,
            "mimeType": null,
            "publicationDate": null,
            "status": null,
            "title": null,
            "type": null
          },
          "Sequence": 1
        },
        {
          "Description": "Mix reduced-fat cream cheese, yogurt and remaining honey; spoon over oranges.  ",
          "PreparationStepImage": {
            "PictureFormats": [],
            "author": null,
            "id": null,
            "imageType": null,
            "mimeType": null,
            "publicationDate": null,
            "status": null,
            "title": null,
            "type": null
          },
          "Sequence": 2
        },
        {
          "Description": "Top with nuts.",
          "PreparationStepImage": {
            "PictureFormats": [],
            "author": null,
            "id": null,
            "imageType": null,
            "mimeType": null,
            "publicationDate": null,
            "status": null,
            "title": null,
            "type": null
          },
          "Sequence": 3
        }
      ],
      "PreparationTime": 5,
      "Promotion": null,
      "Ratings": {
        "TotalCount": 10,
        "PageCount": 10,
        "PageNo": 1,
        "Rating": [
          {
            "Comment": "",
            "DisplayName": true,
            "RatingValue": 1,
            "SubmitDate": "/Date(1291576491000-0600)/",
            "UpdatedDate": "/Date(1291576491000-0600)/",
            "UserName": "sweetmnm"
          },
          {
            "Comment": "I've recently been cutting this recipe in half and making it everyday as a mid-afternoon snack for myself.  It's really, really good and I actually look forward to eating it:)",
            "DisplayName": false,
            "RatingValue": 5,
            "SubmitDate": "/Date(1212441010000-0500)/",
            "UpdatedDate": "/Date(1212441010000-0500)/",
            "UserName": "emilyshubeck"
          },
          {
            "Comment": "Loved this recipe! Didn't make any changes. Very sweet without being too sweet. Loved the honey.",
            "DisplayName": true,
            "RatingValue": 5,
            "SubmitDate": "/Date(1177794281000-0500)/",
            "UpdatedDate": "/Date(1177794281000-0500)/",
            "UserName": "Cindy Byers"
          },
          {
            "Comment": "i used more honey and pecan shavings.",
            "DisplayName": false,
            "RatingValue": 5,
            "SubmitDate": "/Date(1148591509000-0500)/",
            "UpdatedDate": "/Date(1148591509000-0500)/",
            "UserName": "mistythegreat"
          },
          {
            "Comment": "everything work so great together i will make it again! ",
            "DisplayName": true,
            "RatingValue": 5,
            "SubmitDate": "/Date(1138402075000-0600)/",
            "UpdatedDate": "/Date(1138402075000-0600)/",
            "UserName": "jazmin9603"
          },
          {
            "Comment": "I did this with fresh ripe pears.  It tasted so decadent!  My family loved it, and I will try it with other fresh fruit as well.  Good enough to serve to company!",
            "DisplayName": true,
            "RatingValue": 5,
            "SubmitDate": "/Date(1127003227000-0500)/",
            "UpdatedDate": "/Date(1127003227000-0500)/",
            "UserName": "jwillis1"
          },
          {
            "Comment": "I make this with peaches when they are in season and it is divine!  As said in the previous comment, it cures your sweet tooth while still being healthy!  ",
            "DisplayName": true,
            "RatingValue": 4,
            "SubmitDate": "/Date(1126652546000-0500)/",
            "UpdatedDate": "/Date(1126652546000-0500)/",
            "UserName": "jenbug82"
          },
          {
            "Comment": "It was a great dish.... It cured my sweet tooth...It was a perfect healthy snack with a little sweet... I loved it...",
            "DisplayName": true,
            "RatingValue": 5,
            "SubmitDate": "/Date(1126326615000-0500)/",
            "UpdatedDate": "/Date(1126326615000-0500)/",
            "UserName": "Jesussigning"
          }
        ]
      },
      "RecipeDisplayFormatId": 5,
      "RecipeId": 75642,
      "RecipeName": "Fruit and Honey Cream Dessert",
      "RecipeType": 0,
      "RelatedData": {
        "RelatedBrands": null,
        "RelatedProducts": null,
        "RelatedRecipes": {
          "DefaultTopCount": 5,
          "Recipe": [
            {
              "AverageRating": 5,
              "HasVideo": false,
              "IsHealthyLiving": false,
              "NumberOfRatings": 2,
              "PhotoName": "Honey-Nut-Fruit-Empanadas-44527.jpg",
              "PhotoUrl": "http://assets.kraftfoods.com/recipe_images/opendeploy/Honey-Nut-Fruit-Empanadas-44527.jpg",
              "RecipeId": 65894,
              "RecipeName": "Honey Nut and Fruit Empanadas",
              "SEOName": "honey-nut-fruit-empanadas-65894",
              "ThumbnailPhoto": null
            },
            {
              "AverageRating": 4.2,
              "HasVideo": false,
              "IsHealthyLiving": false,
              "NumberOfRatings": 34,
              "PhotoName": "Frosty_Berry_Blend.jpg",
              "PhotoUrl": "http://assets.kraftfoods.com/recipe_images/opendeploy/Frosty_Berry_Blend.jpg",
              "RecipeId": 64921,
              "RecipeName": "Frosty Berry Blend",
              "SEOName": "frosty-berry-blend-64921",
              "ThumbnailPhoto": null
            },
            {
              "AverageRating": 5,
              "HasVideo": false,
              "IsHealthyLiving": false,
              "NumberOfRatings": 1,
              "PhotoName": "Easy_Sour_Cream_Fruit_Topping.jpg",
              "PhotoUrl": "http://assets.kraftfoods.com/recipe_images/opendeploy/Easy_Sour_Cream_Fruit_Topping.jpg",
              "RecipeId": 54184,
              "RecipeName": "Easy Sour Cream Fruit Topping",
              "SEOName": "easy-sour-cream-fruit-topping-54184",
              "ThumbnailPhoto": null
            },
            {
              "AverageRating": 4.5,
              "HasVideo": false,
              "IsHealthyLiving": false,
              "NumberOfRatings": 13,
              "PhotoName": "51229_MXM_1346v0.jpg",
              "PhotoUrl": "http://assets.kraftfoods.com/recipe_images/opendeploy/51229_MXM_1346v0.jpg",
              "RecipeId": 51229,
              "RecipeName": "PHILADELPHIA® 3-STEP® Pina Colada Cheesecake",
              "SEOName": "philadelphia-3-step-pina-colada-cheesecake-51229",
              "ThumbnailPhoto": null
            },
            {
              "AverageRating": 4.5,
              "HasVideo": false,
              "IsHealthyLiving": true,
              "NumberOfRatings": 8,
              "PhotoName": "113503.jpg",
              "PhotoUrl": "http://assets.kraftfoods.com/recipe_images/opendeploy/113503.jpg",
              "RecipeId": 113503,
              "RecipeName": "Grilled Peaches with Cinnamon Sauce",
              "SEOName": "grilled-peaches-cinnamon-sauce-113503",
              "ThumbnailPhoto": null
            }
          ],
          "TotalCount": 4065
        }
      },
      "RiseIngredients": [],
      "RiseTaxonomy": [],
      "Riserecipe": [
        {
          "GRIN": 549440,
          "RecipeId": 75642,
          "RecipeIndustrySector": "Retail",
          "RecipeType": "Internal"
        }
      ],
      "RomanceText": "A blend of cream cheese, yogurt and honey makes a luscious topping for this fruity dessert for two. Top with pecan pieces and enjoy!",
      "SEOName": "fruit-honey-cream-dessert-75642",
      "Tips": [
        {
          "RecipeId": 75642,
          "Sequence": 10,
          "TipDescription": "Substitute 1-1/4 cups assorted berries or your favorite seasonal fresh fruit for the oranges.  ",
          "TipID": 2,
          "TipName": "Best of Season"
        },
        {
          "RecipeId": 75642,
          "Sequence": 20,
          "TipDescription": "Sauce can be stored in tightly covered container in refrigerator for up to 1 week.",
          "TipID": 1,
          "TipName": "Make Ahead"
        }
      ],
      "TotalTime": 5,
      "TradeMarkInfo": null,
      "Video": [],
      "Yield": "Makes 2 servings."
    }
  ]
}