{
  "Metadata": {
    "PageCount": 1,
    "PageNo": 0,
    "TotalCount": 0
  },
  "Recipes": [
    {
      "AdServingKeywords": "Cheese,Chicken,Garlic,Meat,Onion,Parmesan,Pasta Sauce,Pasta/Noodles,Peppers,Poultry,Vegetables,Entree,Dinner,Classico,Kraft Cheese,Kraft Shredded Cheese",
      "AlternateLanguageRecipes": [],
      "Assets": [],
      "AverageRating": 0,
      "BrandId": 1,
      "Branding": null,
      "CSSSkins": null,
      "CarbCounter": null,
      "Categories": [
        {
          "CategoryID": 11,
          "CategoryName": "Primary",
          "CategoryRank": 0,
          "SubCategoryID": 97,
          "SubCategoryName": "Entrees",
          "SubCategoryRank": 50
        },
        {
          "CategoryID": 15,
          "CategoryName": "Pasta/Pizza Entrees",
          "CategoryRank": 9,
          "SubCategoryID": 385,
          "SubCategoryName": "Pasta: Alfredo",
          "SubCategoryRank": 30
        },
        {
          "CategoryID": 753,
          "CategoryName": "Pizza & Pasta",
          "CategoryRank": 7,
          "SubCategoryID": 2542,
          "SubCategoryName": "Creamy / Cheesy Pasta",
          "SubCategoryRank": 1
        }
      ],
      "Classifications": [],
      "ComplimentaryRecipes": null,
      "CookingMethod": null,
      "Copyright": null,
      "Courses": [
        "Main dishes"
      ],
      "DietExchange": null,
      "DishDetails": [
        {
          "Text": "chicken recipes",
          "Url": "/recipes/dinner/chicken-recipes/main.aspx"
        },
        {
          "Text": "grilled chicken recipes",
          "Url": "/recipes/dinner/chicken-recipes/grilled-chicken/main.aspx"
        },
        {
          "Text": "healthy living chicken recipes",
          "Url": "/recipes/dinner/chicken-recipes/hl/main.aspx"
        },
        {
          "Text": "slow cooker chicken recipes",
          "Url": "/recipes/dinner/chicken-recipes/slow-cooker/main.aspx"
        },
        {
          "Text": "whole chicken recipes",
          "Url": "/recipes/dinner/chicken-recipes/whole-chicken/main.aspx"
        },
        {
          "Text": "chicken breast recipes",
          "Url": "/recipes/dinner/chicken-recipes/chicken-breast/main.aspx"
        },
        {
          "Text": "chicken casseroles",
          "Url": "/recipes/dinner/chicken-recipes/casseroles/main.aspx"
        },
        {
          "Text": "chicken pasta recipes",
          "Url": "/recipes/dinner/chicken-recipes/pasta-dishes/main.aspx"
        },
        {
          "Text": "chicken salad recipes",
          "Url": "/recipes/dinner/chicken-recipes/salads/main.aspx"
        },
        {
          "Text": "chicken stir-fry recipes",
          "Url": "/recipes/dinner/chicken-recipes/stir-fry/main.aspx"
        },
        {
          "Text": "chicken wing recipes",
          "Url": "/recipes/appetizers/chicken-wing-recipes/main.aspx"
        },
        {
          "Text": "baked chicken recipes",
          "Url": "/recipes/dinner/chicken-recipes/baked-chicken/main.aspx"
        },
        {
          "Text": "bbq chicken recipes",
          "Url": "/recipes/holidays-and-entertaining/entertaining/summer/bbq-recipes/bbq-chicken-recipes/main.aspx"
        }
      ],
      "EndDate": "/Date(-62135575200000-0600)/",
      "HasVideo": false,
      "Ingredients": [
        {
          "FullMeasure": "2 Tbsp.",
          "FullWeight": "",
          "IngredientGridHeaders": null,
          "IngredientID": 863,
          "IngredientName": "butter",
          "IngredientStep": 10,
          "LanguageId": 0,
          "PostPreparation": "",
          "PrePreparation": "",
          "QuantityNum": 2,
          "QuantityText": "2",
          "QuantityUnit": "Tbsp.",
          "RecipeIngredientID": 6361632,
          "TrialMeasure": "",
          "TrialWeight": ""
        },
        {
          "FullMeasure": "2 Tbsp.",
          "FullWeight": "",
          "IngredientGridHeaders": null,
          "IngredientID": 4080,
          "IngredientName": "yellow onion",
          "IngredientStep": 20,
          "LanguageId": 0,
          "PostPreparation": "s",
          "PrePreparation": "chopped",
          "QuantityNum": 2,
          "QuantityText": "2",
          "QuantityUnit": "Tbsp.",
          "RecipeIngredientID": 6361634,
          "TrialMeasure": "",
          "TrialWeight": ""
        },
        {
          "FullMeasure": "2 cloves",
          "FullWeight": "",
          "IngredientGridHeaders": null,
          "IngredientID": 1175,
          "IngredientName": "garlic",
          "IngredientStep": 30,
          "LanguageId": 0,
          "PostPreparation": ", minced",
          "PrePreparation": "",
          "QuantityNum": 2,
          "QuantityText": "2",
          "QuantityUnit": "cloves",
          "RecipeIngredientID": 6361631,
          "TrialMeasure": "",
          "TrialWeight": ""
        },
        {
          "FullMeasure": "3/4 cup",
          "FullWeight": "",
          "IngredientGridHeaders": null,
          "IngredientID": 9786,
          "IngredientName": "fat-free reduced-sodium chicken broth",
          "IngredientStep": 40,
          "LanguageId": 0,
          "PostPreparation": "",
          "PrePreparation": "",
          "QuantityNum": 0,
          "QuantityText": "3/4",
          "QuantityUnit": "cup",
          "RecipeIngredientID": 6361639,
          "TrialMeasure": "",
          "TrialWeight": ""
        },
        {
          "FullMeasure": "3/4 cup",
          "FullWeight": "",
          "IngredientGridHeaders": null,
          "IngredientID": 30091,
          "IngredientName": "CLASSICO Creamy Alfredo Pasta Sauce",
          "IngredientStep": 50,
          "LanguageId": 0,
          "PostPreparation": "",
          "PrePreparation": "",
          "QuantityNum": 0,
          "QuantityText": "3/4",
          "QuantityUnit": "cup",
          "RecipeIngredientID": 6361640,
          "TrialMeasure": "",
          "TrialWeight": ""
        },
        {
          "FullMeasure": "1 tsp.",
          "FullWeight": "",
          "IngredientGridHeaders": null,
          "IngredientID": 280,
          "IngredientName": "dried Italian seasoning",
          "IngredientStep": 60,
          "LanguageId": 0,
          "PostPreparation": "",
          "PrePreparation": "",
          "QuantityNum": 1,
          "QuantityText": "1",
          "QuantityUnit": "tsp.",
          "RecipeIngredientID": 6361630,
          "TrialMeasure": "",
          "TrialWeight": ""
        },
        {
          "FullMeasure": "1/2 tsp.",
          "FullWeight": "",
          "IngredientGridHeaders": null,
          "IngredientID": 1213,
          "IngredientName": "ground black pepper",
          "IngredientStep": 70,
          "LanguageId": 0,
          "PostPreparation": ", divided",
          "PrePreparation": "",
          "QuantityNum": 0,
          "QuantityText": "1/2",
          "QuantityUnit": "tsp.",
          "RecipeIngredientID": 6361628,
          "TrialMeasure": "",
          "TrialWeight": ""
        },
        {
          "FullMeasure": "1/4 tsp.",
          "FullWeight": "",
          "IngredientGridHeaders": null,
          "IngredientID": 1538,
          "IngredientName": "crushed red pepper",
          "IngredientStep": 80,
          "LanguageId": 0,
          "PostPreparation": "",
          "PrePreparation": "",
          "QuantityNum": 0,
          "QuantityText": "1/4",
          "QuantityUnit": "tsp.",
          "RecipeIngredientID": 6361629,
          "TrialMeasure": "",
          "TrialWeight": ""
        },
        {
          "FullMeasure": "1/2 lb.",
          "FullWeight": "",
          "IngredientGridHeaders": null,
          "IngredientID": 1992,
          "IngredientName": "linguine",
          "IngredientStep": 90,
          "LanguageId": 0,
          "PostPreparation": ", uncooked",
          "PrePreparation": "",
          "QuantityNum": 0,
          "QuantityText": "1/2",
          "QuantityUnit": "lb.",
          "RecipeIngredientID": 6361637,
          "TrialMeasure": "",
          "TrialWeight": ""
        },
        {
          "FullMeasure": "1 lb.",
          "FullWeight": "",
          "IngredientGridHeaders": null,
          "IngredientID": 27042,
          "IngredientName": "boneless skinless chicken breasts",
          "IngredientStep": 100,
          "LanguageId": 0,
          "PostPreparation": ", cut into thick strips",
          "PrePreparation": "",
          "QuantityNum": 1,
          "QuantityText": "1",
          "QuantityUnit": "lb.",
          "RecipeIngredientID": 6361636,
          "TrialMeasure": "",
          "TrialWeight": ""
        },
        {
          "FullMeasure": "1/4 cup",
          "FullWeight": "",
          "IngredientGridHeaders": null,
          "IngredientID": 1080,
          "IngredientName": "flour",
          "IngredientStep": 110,
          "LanguageId": 0,
          "PostPreparation": "",
          "PrePreparation": "",
          "QuantityNum": 0,
          "QuantityText": "1/4",
          "QuantityUnit": "cup",
          "RecipeIngredientID": 6361638,
          "TrialMeasure": "",
          "TrialWeight": ""
        },
        {
          "FullMeasure": "3 Tbsp.",
          "FullWeight": "",
          "IngredientGridHeaders": null,
          "IngredientID": 1369,
          "IngredientName": "olive oil",
          "IngredientStep": 120,
          "LanguageId": 0,
          "PostPreparation": ", divided",
          "PrePreparation": "",
          "QuantityNum": 3,
          "QuantityText": "3",
          "QuantityUnit": "Tbsp.",
          "RecipeIngredientID": 6361635,
          "TrialMeasure": "",
          "TrialWeight": ""
        },
        {
          "FullMeasure": "1 large",
          "FullWeight": "",
          "IngredientGridHeaders": null,
          "IngredientID": 1529,
          "IngredientName": "red onion",
          "IngredientStep": 130,
          "LanguageId": 0,
          "PostPreparation": ", thinly sliced",
          "PrePreparation": "",
          "QuantityNum": 1,
          "QuantityText": "1",
          "QuantityUnit": "large",
          "RecipeIngredientID": 6361642,
          "TrialMeasure": "",
          "TrialWeight": ""
        },
        {
          "FullMeasure": "1 large",
          "FullWeight": "",
          "IngredientGridHeaders": null,
          "IngredientID": 20727,
          "IngredientName": "red bell pepper",
          "IngredientStep": 140,
          "LanguageId": 0,
          "PostPreparation": ", thinly sliced",
          "PrePreparation": "",
          "QuantityNum": 1,
          "QuantityText": "1",
          "QuantityUnit": "large",
          "RecipeIngredientID": 6361641,
          "TrialMeasure": "",
          "TrialWeight": ""
        },
        {
          "FullMeasure": "2 Tbsp.",
          "FullWeight": "",
          "IngredientGridHeaders": null,
          "IngredientID": 402,
          "IngredientName": "KRAFT Shredded Parmesan Cheese",
          "IngredientStep": 150,
          "LanguageId": 0,
          "PostPreparation": "",
          "PrePreparation": "",
          "QuantityNum": 2,
          "QuantityText": "2",
          "QuantityUnit": "Tbsp.",
          "RecipeIngredientID": 6361633,
          "TrialMeasure": "",
          "TrialWeight": ""
        }
      ],
      "IsHealthyLiving": false,
      "KRLId": "579362",
      "KeyIngredients": [
        "Cheese",
        "Garlic",
        "Onion",
        "Parmesan",
        "Pasta",
        "Peppers",
        "Vegetables"
      ],
      "Keywords": "oil,olive oil,onions,parmesan cheese,pasta,pepper flakes,red pepper flakes,alfredo sauce,cheese,chicken,chicken breasts-boneless,chicken broth or bouillon,italian seasoning,KRAFT Parmesan Cheese,linguine pasta,meat,butter,flour,garlic,chicken breasts,crushed red pepper flakes,bell peppers,broth,Entree,Dinner",
      "LanguageId": 1,
      "LifeStyles": [],
      "NumberOfIngredients": 15,
      "NumberOfRatings": 0,
      "NumberOfRatingsWithComments": "0",
      "NumberOfServings": "4 servings",
      "NumberOfTrialServings": "",
      "NutritionBonus": null,
      "NutritionExchangeItemId": 0,
      "NutritionGridItems": null,
      "NutritionItems": [
        {
          "DisplayOrder": 1,
          "Document": null,
          "NutritionItemID": 3,
          "NutritionItemName": "Calories",
          "Predriscriptor": "",
          "Quantity": 600,
          "Unit": "          "
        },
        {
          "DisplayOrder": 2,
          "Document": "fat_cholesterol.html",
          "NutritionItemID": 4,
          "NutritionItemName": "Total fat",
          "Predriscriptor": "",
          "Quantity": 24,
          "Unit": "g         "
        },
        {
          "DisplayOrder": 3,
          "Document": "fat_cholesterol.html",
          "NutritionItemID": 9,
          "NutritionItemName": "Saturated fat",
          "Predriscriptor": "",
          "Quantity": 9,
          "Unit": "g         "
        },
        {
          "DisplayOrder": 7,
          "Document": "fat_cholesterol.html",
          "NutritionItemID": 2,
          "NutritionItemName": "Cholesterol",
          "Predriscriptor": "",
          "Quantity": 100,
          "Unit": "mg        "
        },
        {
          "DisplayOrder": 8,
          "Document": "sodium.html",
          "NutritionItemID": 8,
          "NutritionItemName": "Sodium",
          "Predriscriptor": "",
          "Quantity": 540,
          "Unit": "mg        "
        },
        {
          "DisplayOrder": 10,
          "Document": "carbs_sugars_fiber.html",
          "NutritionItemID": 1,
          "NutritionItemName": "Carbohydrate",
          "Predriscriptor": "",
          "Quantity": 58,
          "Unit": "g         "
        },
        {
          "DisplayOrder": 11,
          "Document": "carbs_sugars_fiber.html",
          "NutritionItemID": 7,
          "NutritionItemName": "Dietary fiber",
          "Predriscriptor": "",
          "Quantity": 4,
          "Unit": "g         "
        },
        {
          "DisplayOrder": 12,
          "Document": "carbs_sugars_fiber.html",
          "NutritionItemID": 5,
          "NutritionItemName": "Sugars",
          "Predriscriptor": "",
          "Quantity": 7,
          "Unit": "g         "
        },
        {
          "DisplayOrder": 13,
          "Document": null,
          "NutritionItemID": 6,
          "NutritionItemName": "Protein",
          "Predriscriptor": "",
          "Quantity": 37,
          "Unit": "g         "
        },
        {
          "DisplayOrder": 14,
          "Document": null,
          "NutritionItemID": 10,
          "NutritionItemName": "Vitamin A",
          "Predriscriptor": "",
          "Quantity": 35,
          "Unit": "%DV       "
        },
        {
          "DisplayOrder": 15,
          "Document": null,
          "NutritionItemID": 11,
          "NutritionItemName": "Vitamin C",
          "Predriscriptor": "",
          "Quantity": 45,
          "Unit": "%DV       "
        },
        {
          "DisplayOrder": 16,
          "Document": "dairy_and_calcium.html",
          "NutritionItemID": 12,
          "NutritionItemName": "Calcium",
          "Predriscriptor": "",
          "Quantity": 10,
          "Unit": "%DV       "
        },
        {
          "DisplayOrder": 17,
          "Document": null,
          "NutritionItemID": 13,
          "NutritionItemName": "Iron",
          "Predriscriptor": "",
          "Quantity": 20,
          "Unit": "%DV       "
        }
      ],
      "NutritionServingText": " ",
      "PrepStepImage": null,
      "PreparationDescription": "Melt butter in medium saucepan on medium heat.  Add yellow onions and garlic; cook and stir 1 min. or until onions are crisp-tender.  Add chicken broth, pasta sauce, Italian seasoning, 1/4 tsp. black pepper and crushed red pepper. Simmer on low heat 15 min., stirring occasionally.  (Do not boil.)$Meanwhile, cook pasta as directed on package, omitting salt; drain.  Sprinkle chicken with remaining pepper and dust with flour. Heat 1 Tbsp. oil in large nonstick skillet on medium heat.  Add chicken; cook and stir 5 min. or until chicken is done.  Remove from skillet; cover to keep warm.\r\n$Heat remaining oil in same skillet on medium heat.  Add red onions and bell peppers; cook and stir 2 to 4 min. or until softened.  $Toss pasta with half the garlic sauce in large bowl.  Add red onions and bell peppers; mix lightly.  Serve pasta topped with chicken, remaining garlic sauce and cheese.\r\n",
      "PreparationPreText": "",
      "PreparationSteps": [
        {
          "Description": "Melt butter in medium saucepan on medium heat.  Add yellow onions and garlic; cook and stir 1 min. or until onions are crisp-tender.  Add chicken broth, pasta sauce, Italian seasoning, 1/4 tsp. black pepper and crushed red pepper. Simmer on low heat 15 min., stirring occasionally.  (Do not boil.)",
          "PreparationStepImage": {
            "PictureFormats": [],
            "author": null,
            "id": null,
            "imageType": null,
            "mimeType": null,
            "publicationDate": null,
            "status": null,
            "title": null,
            "type": null
          },
          "Sequence": 1
        },
        {
          "Description": "Meanwhile, cook pasta as directed on package, omitting salt; drain.  Sprinkle chicken with remaining pepper and dust with flour. Heat 1 Tbsp. oil in large nonstick skillet on medium heat.  Add chicken; cook and stir 5 min. or until chicken is done.  Remove from skillet; cover to keep warm.\r\n",
          "PreparationStepImage": {
            "PictureFormats": [],
            "author": null,
            "id": null,
            "imageType": null,
            "mimeType": null,
            "publicationDate": null,
            "status": null,
            "title": null,
            "type": null
          },
          "Sequence": 2
        },
        {
          "Description": "Heat remaining oil in same skillet on medium heat.  Add red onions and bell peppers; cook and stir 2 to 4 min. or until softened.  ",
          "PreparationStepImage": {
            "PictureFormats": [],
            "author": null,
            "id": null,
            "imageType": null,
            "mimeType": null,
            "publicationDate": null,
            "status": null,
            "title": null,
            "type": null
          },
          "Sequence": 3
        },
        {
          "Description": "Toss pasta with half the garlic sauce in large bowl.  Add red onions and bell peppers; mix lightly.  Serve pasta topped with chicken, remaining garlic sauce and cheese.\r\n",
          "PreparationStepImage": {
            "PictureFormats": [],
            "author": null,
            "id": null,
            "imageType": null,
            "mimeType": null,
            "publicationDate": null,
            "status": null,
            "title": null,
            "type": null
          },
          "Sequence": 4
        }
      ],
      "PreparationTime": 50,
      "Promotion": null,
      "Ratings": {
        "TotalCount": 0,
        "PageCount": 10,
        "PageNo": 1,
        "Rating": []
      },
      "RecipeDisplayFormatId": 5,
      "RecipeId": 205194,
      "RecipeName": "Chicken Scampi",
      "RecipeType": 0,
      "RelatedData": {
        "RelatedBrands": null,
        "RelatedProducts": null,
        "RelatedRecipes": {
          "DefaultTopCount": 5,
          "Recipe": [
            {
              "AverageRating": 4.4,
              "HasVideo": false,
              "IsHealthyLiving": true,
              "NumberOfRatings": 8,
              "PhotoName": "Shrimp_Scampi_Spread.jpg",
              "PhotoUrl": "http://assets.kraftfoods.com/recipe_images/opendeploy/Shrimp_Scampi_Spread.jpg",
              "RecipeId": 104777,
              "RecipeName": "Healthy Living Shrimp Scampi Spread",
              "SEOName": "healthy-living-shrimp-scampi-spread-104777",
              "ThumbnailPhoto": null
            },
            {
              "AverageRating": 4,
              "HasVideo": false,
              "IsHealthyLiving": false,
              "NumberOfRatings": 83,
              "PhotoName": "Dijon_Shrimp_Scampi.jpg",
              "PhotoUrl": "http://assets.kraftfoods.com/recipe_images/opendeploy/Dijon_Shrimp_Scampi.jpg",
              "RecipeId": 54071,
              "RecipeName": "Dijon Shrimp Scampi",
              "SEOName": "dijon-shrimp-scampi-54071",
              "ThumbnailPhoto": null
            },
            {
              "AverageRating": 4.5,
              "HasVideo": false,
              "IsHealthyLiving": false,
              "NumberOfRatings": 119,
              "PhotoName": "Shrimp_Scampi.jpg",
              "PhotoUrl": "http://assets.kraftfoods.com/recipe_images/opendeploy/Shrimp_Scampi.jpg",
              "RecipeId": 52161,
              "RecipeName": "Shrimp Scampi Recipe",
              "SEOName": "shrimp-scampi-recipe-52161",
              "ThumbnailPhoto": null
            },
            {
              "AverageRating": 5,
              "HasVideo": false,
              "IsHealthyLiving": false,
              "NumberOfRatings": 1,
              "PhotoName": "172002_SF_66530v0E_WP.jpg",
              "PhotoUrl": "http://assets.kraftfoods.com/recipe_images/opendeploy/172002_SF_66530v0E_WP.jpg",
              "RecipeId": 172002,
              "RecipeName": "Spicy Peanut Chicken with Pineapple",
              "SEOName": "spicy-peanut-chicken-pineapple-172002",
              "ThumbnailPhoto": null
            },
            {
              "AverageRating": 4.5,
              "HasVideo": false,
              "IsHealthyLiving": false,
              "NumberOfRatings": 17,
              "PhotoName": "172151.jpg",
              "PhotoUrl": "http://assets.kraftfoods.com/recipe_images/opendeploy/172151.jpg",
              "RecipeId": 172151,
              "RecipeName": "Buffalo Chicken Dip",
              "SEOName": "buffalo-chicken-dip-172151",
              "ThumbnailPhoto": null
            }
          ],
          "TotalCount": 1383
        }
      },
      "RiseIngredients": [],
      "RiseTaxonomy": [],
      "Riserecipe": [
        {
          "GRIN": 579362,
          "RecipeId": 205194,
          "RecipeIndustrySector": "Retail",
          "RecipeType": "Internal"
        }
      ],
      "RomanceText": "Make your family this Chicken Scampi and they'll be surprised they're not at a restaurant! They will ask for this creamy Chicken Scampi dish frequently.",
      "SEOName": "chicken-scampi-205194",
      "Tips": [
        {
          "RecipeId": 205194,
          "Sequence": 10,
          "TipDescription": "Prepare using chicken tenders.",
          "TipID": 1,
          "TipName": "Substitute"
        },
        {
          "RecipeId": 205194,
          "Sequence": 20,
          "TipDescription": "Sprinkle with 2 Tbsp. chopped fresh parsley. ",
          "TipID": 2,
          "TipName": "Special Extra"
        },
        {
          "RecipeId": 205194,
          "Sequence": 30,
          "TipDescription": "Prepare using CLASSICO Light Creamy Alfredo Pasta Sauce.",
          "TipID": 3,
          "TipName": "Substitute"
        }
      ],
      "TotalTime": 50,
      "TradeMarkInfo": null,
      "Video": [],
      "Yield": "4 servings"
    }
  ]
}