{
  "Metadata": {
    "PageCount": 1,
    "PageNo": 0,
    "TotalCount": 0
  },
  "Recipes": [
    {
      "AdServingKeywords": "Chocolate,Cream Cheese,Dairy,Dessert,No Bake,Easy,All Seasons,Pies and Tarts,Cool Whip,Jell-O,Philadelphia,Creamy,Kids Can Cook",
      "AlternateLanguageRecipes": [],
      "Assets": [
        {
          "PictureFormats": [
            {
              "rendition": "290x194",
              "url": "http://assets.kraftfoods.com/recipe_images/opendeploy/51725_290x194.jpg"
            },
            {
              "rendition": "640x428",
              "url": "http://assets.kraftfoods.com/recipe_images/opendeploy/51725_640x428.jpg"
            },
            {
              "rendition": "600x250",
              "url": "http://assets.kraftfoods.com/recipe_images/opendeploy/51725_600x250.jpg"
            }
          ],
          "author": "BulKUpload",
          "id": "2",
          "imageType": "Primary",
          "mimeType": "image/jpeg",
          "publicationDate": null,
          "status": "1",
          "title": "51725",
          "type": "image"
        },
        {
          "PictureFormats": [
            {
              "rendition": "140x90",
              "url": "http://assets.kraftfoods.com/recipe_images/opendeploy/51725_SGS_K2617%20V0_OR1_CR_140x90.jpg"
            },
            {
              "rendition": "300x250",
              "url": "http://assets.kraftfoods.com/recipe_images/opendeploy/51725_SGS_K2617%20V0_OR1_CR_300x250.jpg"
            },
            {
              "rendition": "960x300",
              "url": "http://assets.kraftfoods.com/recipe_images/opendeploy/51725_SGS_K2617%20V0_OR1_CR_960x300.jpg"
            }
          ],
          "author": null,
          "id": "2",
          "imageType": "Primary",
          "mimeType": "image/jpeg",
          "publicationDate": null,
          "status": "1",
          "title": "51725_SGS_K2617 V0_OR1_CR",
          "type": "image"
        },
        {
          "PictureFormats": [
            {
              "rendition": "300x200",
              "url": "http://assets.kraftfoods.com/recipe_images/51725.jpg"
            }
          ],
          "author": "BulKUpload",
          "id": "0",
          "imageType": "LANDSCAPE",
          "mimeType": "image/jpeg",
          "publicationDate": null,
          "status": "1",
          "title": "51725.jpg",
          "type": "image"
        }
      ],
      "AverageRating": 4.4,
      "BrandId": 1,
      "Branding": null,
      "CSSSkins": null,
      "CarbCounter": null,
      "Categories": [
        {
          "CategoryID": 4,
          "CategoryName": "Cakes/Pies/Cheesecakes",
          "CategoryRank": 5,
          "SubCategoryID": 14,
          "SubCategoryName": "Pies: Pudding",
          "SubCategoryRank": 140
        },
        {
          "CategoryID": 11,
          "CategoryName": "Primary",
          "CategoryRank": 0,
          "SubCategoryID": 103,
          "SubCategoryName": "Desserts",
          "SubCategoryRank": 40
        },
        {
          "CategoryID": 759,
          "CategoryName": "Desserts",
          "CategoryRank": 13,
          "SubCategoryID": 2581,
          "SubCategoryName": "Pastry",
          "SubCategoryRank": 1
        },
        {
          "CategoryID": 765,
          "CategoryName": "Pies & Pastries",
          "CategoryRank": 19,
          "SubCategoryID": 2611,
          "SubCategoryName": "Sweet",
          "SubCategoryRank": 1
        },
        {
          "CategoryID": 1759,
          "CategoryName": "Philly Desserts",
          "CategoryRank": 0,
          "SubCategoryID": 16840,
          "SubCategoryName": "Brick Cream Cheese",
          "SubCategoryRank": 0
        },
        {
          "CategoryID": 1759,
          "CategoryName": "Philly Desserts",
          "CategoryRank": 0,
          "SubCategoryID": 16843,
          "SubCategoryName": "Use for All",
          "SubCategoryRank": 0
        }
      ],
      "Classifications": [],
      "ComplimentaryRecipes": [
        {
          "AverageRating": 0,
          "HasVideo": false,
          "IsHealthyLiving": false,
          "NumberOfRatings": 0,
          "PhotoName": null,
          "PhotoUrl": null,
          "RecipeId": 106558,
          "RecipeName": null,
          "SEOName": "easy-chili-dog-106558",
          "ThumbnailPhoto": "106558.jpg"
        }
      ],
      "CookingMethod": null,
      "Copyright": null,
      "Courses": [
        "Desserts"
      ],
      "DietExchange": null,
      "DishDetails": [
        {
          "Text": "desserts",
          "Url": "/recipes/dessert/main.aspx"
        },
        {
          "Text": "fruity desserts",
          "Url": "/recipes/dessert/fruitydesserts.aspx"
        },
        {
          "Text": "gelatin desserts",
          "Url": "/recipes/dessert/gelatindesserts.aspx"
        },
        {
          "Text": "layered desserts",
          "Url": "/recipes/dessert/layereddesserts.aspx"
        },
        {
          "Text": "brownie recipes",
          "Url": "/recipes/dessert/brownie-recipes/main.aspx"
        },
        {
          "Text": "budget desserts",
          "Url": "/recipes/budget/budget-desserts.aspx"
        },
        {
          "Text": "no bake desserts",
          "Url": "/recipes/dessert/nobakedesserts.aspx"
        },
        {
          "Text": "pumpkin recipes",
          "Url": "/recipes/dessert/pumpkin-recipes.aspx"
        },
        {
          "Text": "chocolate cake recipes",
          "Url": "/recipes/dessert/chocolate-cake-recipes/main.aspx"
        },
        {
          "Text": "cheesecake recipes",
          "Url": "/recipes/dessert/cheesecake-center/cheesecake-recipes/main.aspx"
        },
        {
          "Text": "chocolate lovers recipes",
          "Url": "/recipes/dessert/chocolate-center/chocolateloversrecipes.aspx"
        },
        {
          "Text": "classic desserts",
          "Url": "/recipes/dessert/classicdesserts.aspx"
        },
        {
          "Text": "cookie ball recipes",
          "Url": "/recipes/dessert/cookie-ball-recipes/main.aspx"
        },
        {
          "Text": "cookie recipes",
          "Url": "/recipes/dessert/cookie-recipes/main.aspx"
        },
        {
          "Text": "cupcake recipes",
          "Url": "/recipes/dessert/cupcake-recipes/main.aspx"
        },
        {
          "Text": "healthy living desserts",
          "Url": "/healthy-living-ideas/diabetes-center/recipes/dessert-recipes.aspx"
        },
        {
          "Text": "pumpkin pie recipes",
          "Url": "/recipes/holidays-and-entertaining/holidays/Thanksgiving/pumpkin-pie-recipes.aspx"
        },
        {
          "Text": "pie recipes",
          "Url": "/recipes/dessert/pie-recipes/main.aspx"
        }
      ],
      "EndDate": "/Date(-62135575200000-0600)/",
      "HasVideo": false,
      "Ingredients": [
        {
          "FullMeasure": "4 oz.",
          "FullWeight": "",
          "IngredientGridHeaders": null,
          "IngredientID": 628,
          "IngredientName": "PHILADELPHIA Cream Cheese",
          "IngredientStep": 10,
          "LanguageId": 0,
          "PostPreparation": ", softened",
          "PrePreparation": "(1/2 of 8-oz. pkg.)",
          "QuantityNum": 4,
          "QuantityText": "4",
          "QuantityUnit": "oz.",
          "RecipeIngredientID": 6441110,
          "TrialMeasure": "",
          "TrialWeight": ""
        },
        {
          "FullMeasure": "1 Tbsp.",
          "FullWeight": "",
          "IngredientGridHeaders": null,
          "IngredientID": 1345,
          "IngredientName": "milk",
          "IngredientStep": 20,
          "LanguageId": 0,
          "PostPreparation": "",
          "PrePreparation": "cold",
          "QuantityNum": 1,
          "QuantityText": "1",
          "QuantityUnit": "Tbsp.",
          "RecipeIngredientID": 6441109,
          "TrialMeasure": "",
          "TrialWeight": ""
        },
        {
          "FullMeasure": "1 tub",
          "FullWeight": "",
          "IngredientGridHeaders": null,
          "IngredientID": 140,
          "IngredientName": "COOL WHIP Whipped Topping",
          "IngredientStep": 30,
          "LanguageId": 0,
          "PostPreparation": ", thawed, divided",
          "PrePreparation": "(12 oz.)",
          "QuantityNum": 1,
          "QuantityText": "1",
          "QuantityUnit": "tub",
          "RecipeIngredientID": 6441108,
          "TrialMeasure": "",
          "TrialWeight": ""
        },
        {
          "FullMeasure": "1",
          "FullWeight": "",
          "IngredientGridHeaders": null,
          "IngredientID": 9287,
          "IngredientName": "chocolate-coated caramel-peanut nougat bar",
          "IngredientStep": 40,
          "LanguageId": 0,
          "PostPreparation": " (2.07 oz.), finely chopped",
          "PrePreparation": "",
          "QuantityNum": 1,
          "QuantityText": "1",
          "QuantityUnit": "",
          "RecipeIngredientID": 6441107,
          "TrialMeasure": "",
          "TrialWeight": ""
        },
        {
          "FullMeasure": "2 pkg.",
          "FullWeight": "",
          "IngredientGridHeaders": null,
          "IngredientID": 344,
          "IngredientName": "JELL-O Chocolate Flavor Instant Pudding",
          "IngredientStep": 50,
          "LanguageId": 0,
          "PostPreparation": "",
          "PrePreparation": "(3.9 oz. each)",
          "QuantityNum": 2,
          "QuantityText": "2",
          "QuantityUnit": "pkg.",
          "RecipeIngredientID": 6441105,
          "TrialMeasure": "",
          "TrialWeight": ""
        },
        {
          "FullMeasure": "1-1/2 cups",
          "FullWeight": "",
          "IngredientGridHeaders": null,
          "IngredientID": 1345,
          "IngredientName": "milk",
          "IngredientStep": 60,
          "LanguageId": 0,
          "PostPreparation": "",
          "PrePreparation": "cold",
          "QuantityNum": 1,
          "QuantityText": "1-1/2",
          "QuantityUnit": "cups",
          "RecipeIngredientID": 6441111,
          "TrialMeasure": "",
          "TrialWeight": ""
        },
        {
          "FullMeasure": "1",
          "FullWeight": "",
          "IngredientGridHeaders": null,
          "IngredientID": 5509,
          "IngredientName": "OREO Pie Crust",
          "IngredientStep": 70,
          "LanguageId": 0,
          "PostPreparation": " (6 oz.)",
          "PrePreparation": "",
          "QuantityNum": 1,
          "QuantityText": "1",
          "QuantityUnit": "",
          "RecipeIngredientID": 6441106,
          "TrialMeasure": "",
          "TrialWeight": ""
        }
      ],
      "IsHealthyLiving": false,
      "KRLId": "506232",
      "KeyIngredients": [
        "Candy",
        "Chocolate",
        "Cream Cheese",
        "Dairy"
      ],
      "Keywords": "PHILADELPHIA Cream Cheese,cheese,chocolate pudding mix,COOL WHIP,cream cheese,JELL-O Pudding Mix,milk,whipped topping,pudding mix-instant,pie crust-graham/cookie crumb,candy bars,OREO Pie Crust,oreos,Dessert,No Bake,Easy,All Seasons,Pies and Tarts,Kids Can Cook,Creamy",
      "LanguageId": 1,
      "LifeStyles": [],
      "NumberOfIngredients": 7,
      "NumberOfRatings": 39,
      "NumberOfRatingsWithComments": "32",
      "NumberOfServings": "10 servings",
      "NumberOfTrialServings": "",
      "NutritionBonus": null,
      "NutritionExchangeItemId": 0,
      "NutritionGridItems": null,
      "NutritionItems": [
        {
          "DisplayOrder": 1,
          "Document": null,
          "NutritionItemID": 3,
          "NutritionItemName": "Calories",
          "Predriscriptor": "",
          "Quantity": 340,
          "Unit": "          "
        },
        {
          "DisplayOrder": 2,
          "Document": "fat_cholesterol.html",
          "NutritionItemID": 4,
          "NutritionItemName": "Total fat",
          "Predriscriptor": "",
          "Quantity": 17,
          "Unit": "g         "
        },
        {
          "DisplayOrder": 3,
          "Document": "fat_cholesterol.html",
          "NutritionItemID": 9,
          "NutritionItemName": "Saturated fat",
          "Predriscriptor": "",
          "Quantity": 11,
          "Unit": "g         "
        },
        {
          "DisplayOrder": 7,
          "Document": "fat_cholesterol.html",
          "NutritionItemID": 2,
          "NutritionItemName": "Cholesterol",
          "Predriscriptor": "",
          "Quantity": 20,
          "Unit": "mg        "
        },
        {
          "DisplayOrder": 8,
          "Document": "sodium.html",
          "NutritionItemID": 8,
          "NutritionItemName": "Sodium",
          "Predriscriptor": "",
          "Quantity": 510,
          "Unit": "mg        "
        },
        {
          "DisplayOrder": 10,
          "Document": "carbs_sugars_fiber.html",
          "NutritionItemID": 1,
          "NutritionItemName": "Carbohydrate",
          "Predriscriptor": "",
          "Quantity": 46,
          "Unit": "g         "
        },
        {
          "DisplayOrder": 11,
          "Document": "carbs_sugars_fiber.html",
          "NutritionItemID": 7,
          "NutritionItemName": "Dietary fiber",
          "Predriscriptor": "",
          "Quantity": 1,
          "Unit": "g         "
        },
        {
          "DisplayOrder": 12,
          "Document": "carbs_sugars_fiber.html",
          "NutritionItemID": 5,
          "NutritionItemName": "Sugars",
          "Predriscriptor": "",
          "Quantity": 31,
          "Unit": "g         "
        },
        {
          "DisplayOrder": 13,
          "Document": null,
          "NutritionItemID": 6,
          "NutritionItemName": "Protein",
          "Predriscriptor": "",
          "Quantity": 4,
          "Unit": "g         "
        },
        {
          "DisplayOrder": 14,
          "Document": null,
          "NutritionItemID": 10,
          "NutritionItemName": "Vitamin A",
          "Predriscriptor": "",
          "Quantity": 6,
          "Unit": "%DV       "
        },
        {
          "DisplayOrder": 15,
          "Document": null,
          "NutritionItemID": 11,
          "NutritionItemName": "Vitamin C",
          "Predriscriptor": "",
          "Quantity": 0,
          "Unit": "%DV       "
        },
        {
          "DisplayOrder": 16,
          "Document": "dairy_and_calcium.html",
          "NutritionItemID": 12,
          "NutritionItemName": "Calcium",
          "Predriscriptor": "",
          "Quantity": 8,
          "Unit": "%DV       "
        },
        {
          "DisplayOrder": 17,
          "Document": null,
          "NutritionItemID": 13,
          "NutritionItemName": "Iron",
          "Predriscriptor": "",
          "Quantity": 8,
          "Unit": "%DV       "
        }
      ],
      "NutritionServingText": null,
      "PrepStepImage": null,
      "PreparationDescription": "Mix cream cheese and 1 Tbsp. milk in large bowl with whisk until blended.  Stir in 1-1/2 cups COOL WHIP and candy.$Beat pudding mixes and 1-1/2 cups milk in separate large bowl with whisk 2 min. (Pudding will be thick.)  Stir in 2 cups of the remaining COOL WHIP; spread half onto bottom of crust.  Cover with layers of cream cheese mixture and remaining pudding mixture.$Refrigerate 4 hours or until firm.  Garnish with remaining COOL WHIP before serving.  ",
      "PreparationPreText": "",
      "PreparationSteps": [
        {
          "Description": "Mix cream cheese and 1 Tbsp. milk in large bowl with whisk until blended.  Stir in 1-1/2 cups COOL WHIP and candy.",
          "PreparationStepImage": {
            "PictureFormats": [],
            "author": null,
            "id": null,
            "imageType": null,
            "mimeType": null,
            "publicationDate": null,
            "status": null,
            "title": null,
            "type": null
          },
          "Sequence": 1
        },
        {
          "Description": "Beat pudding mixes and 1-1/2 cups milk in separate large bowl with whisk 2 min. (Pudding will be thick.)  Stir in 2 cups of the remaining COOL WHIP; spread half onto bottom of crust.  Cover with layers of cream cheese mixture and remaining pudding mixture.",
          "PreparationStepImage": {
            "PictureFormats": [],
            "author": null,
            "id": null,
            "imageType": null,
            "mimeType": null,
            "publicationDate": null,
            "status": null,
            "title": null,
            "type": null
          },
          "Sequence": 2
        },
        {
          "Description": "Refrigerate 4 hours or until firm.  Garnish with remaining COOL WHIP before serving.  ",
          "PreparationStepImage": {
            "PictureFormats": [],
            "author": null,
            "id": null,
            "imageType": null,
            "mimeType": null,
            "publicationDate": null,
            "status": null,
            "title": null,
            "type": null
          },
          "Sequence": 3
        }
      ],
      "PreparationTime": 20,
      "Promotion": null,
      "Ratings": {
        "TotalCount": 39,
        "PageCount": 10,
        "PageNo": 1,
        "Rating": [
          {
            "Comment": "My entire family love this pie and it's so simple to make.  Extra candy bars don't hurt the taste!!!",
            "DisplayName": false,
            "RatingValue": 5,
            "SubmitDate": "/Date(1389803299000-0600)/",
            "UpdatedDate": "/Date(1410886508000-0500)/",
            "UserName": "dbqbetty"
          },
          {
            "Comment": "I've made this several times, ALWAYS a hit, and always gone in a flash,,lol",
            "DisplayName": true,
            "RatingValue": 5,
            "SubmitDate": "/Date(1401202596000-0500)/",
            "UpdatedDate": "/Date(1401202596000-0500)/",
            "UserName": "necer2010"
          },
          {
            "Comment": "very bland flavor",
            "DisplayName": true,
            "RatingValue": 3,
            "SubmitDate": "/Date(1353895146000-0600)/",
            "UpdatedDate": "/Date(1353895146000-0600)/",
            "UserName": "tturnerez"
          },
          {
            "Comment": "",
            "DisplayName": true,
            "RatingValue": 5,
            "SubmitDate": "/Date(1342747845000-0500)/",
            "UpdatedDate": "/Date(1342747845000-0500)/",
            "UserName": "leannabrtltt"
          },
          {
            "Comment": "The 1st time I rated this pie I gave it 2 stars...tried a piece the next day, was a lil bit firmer and decided it was really worth 3 stars instead. I still am not planning on making this again though, not a favorite of mine.",
            "DisplayName": true,
            "RatingValue": 3,
            "SubmitDate": "/Date(1326485803000-0600)/",
            "UpdatedDate": "/Date(1326579837000-0600)/",
            "UserName": "Kerri1221"
          },
          {
            "Comment": "This was a delicious recipe.  I used 2 candy bars and 2 oreo crusts.  The pie will be thick if you use only 1 oreo crust.  I also used low fat milk and cream cheese and the texture was fine.  ",
            "DisplayName": true,
            "RatingValue": 4,
            "SubmitDate": "/Date(1309660840000-0500)/",
            "UpdatedDate": "/Date(1309660840000-0500)/",
            "UserName": "hamilton_a_l"
          },
          {
            "Comment": "",
            "DisplayName": true,
            "RatingValue": 5,
            "SubmitDate": "/Date(1301689263000-0500)/",
            "UpdatedDate": "/Date(1301689263000-0500)/",
            "UserName": "sjarma1"
          },
          {
            "Comment": "I want to know if anyone made the crust by chopping oreo themselves and how it turned out?",
            "DisplayName": true,
            "RatingValue": 3,
            "SubmitDate": "/Date(1283571628000-0500)/",
            "UpdatedDate": "/Date(1283571628000-0500)/",
            "UserName": "sdsilardi"
          },
          {
            "Comment": "This recipe makes WAY TOO MUCH filling for the pie shell.  It probably could make two pies.  Mine looked nothing like the picture because I tried to cram it all in as one pie, and it turned out super sloppy.  If I wasn't supposed to use all the filling, I wish they had just said so in the recipe!  It did taste good, though.",
            "DisplayName": true,
            "RatingValue": 2,
            "SubmitDate": "/Date(1281225858000-0500)/",
            "UpdatedDate": "/Date(1281225858000-0500)/",
            "UserName": "mistydawn321"
          },
          {
            "Comment": "My attempt didn't turn out anything like the picture. I'm a fairly good cook/baker, but this was a disaster. ",
            "DisplayName": true,
            "RatingValue": 1,
            "SubmitDate": "/Date(1278900081000-0500)/",
            "UpdatedDate": "/Date(1278900081000-0500)/",
            "UserName": "ezboo87"
          }
        ]
      },
      "RecipeDisplayFormatId": 5,
      "RecipeId": 51725,
      "RecipeName": "Candy Bar Pie",
      "RecipeType": 0,
      "RelatedData": {
        "RelatedBrands": null,
        "RelatedProducts": null,
        "RelatedRecipes": {
          "DefaultTopCount": 5,
          "Recipe": [
            {
              "AverageRating": 4.5,
              "HasVideo": false,
              "IsHealthyLiving": false,
              "NumberOfRatings": 20,
              "PhotoName": "Mound-of-Joy-Whipped-Pie-59175.jpg",
              "PhotoUrl": "http://assets.kraftfoods.com/recipe_images/opendeploy/Mound-of-Joy-Whipped-Pie-59175.jpg",
              "RecipeId": 120160,
              "RecipeName": "Mounds of Joy Whipped Pie",
              "SEOName": "mounds-of-joy-whipped-pie-120160",
              "ThumbnailPhoto": null
            },
            {
              "AverageRating": 4.4,
              "HasVideo": false,
              "IsHealthyLiving": false,
              "NumberOfRatings": 18,
              "PhotoName": "54535.jpg",
              "PhotoUrl": "http://assets.kraftfoods.com/recipe_images/opendeploy/54535.jpg",
              "RecipeId": 54535,
              "RecipeName": "Coconut Candy Bar Cake",
              "SEOName": "coconut-candy-bar-cake-54535",
              "ThumbnailPhoto": null
            },
            {
              "AverageRating": 4.4,
              "HasVideo": false,
              "IsHealthyLiving": false,
              "NumberOfRatings": 9,
              "PhotoName": "52808.jpg",
              "PhotoUrl": "http://assets.kraftfoods.com/recipe_images/opendeploy/52808.jpg",
              "RecipeId": 52808,
              "RecipeName": "Candy Bar Cheesecake Squares",
              "SEOName": "candy-bar-cheesecake-squares-52808",
              "ThumbnailPhoto": null
            },
            {
              "AverageRating": 4.6,
              "HasVideo": false,
              "IsHealthyLiving": false,
              "NumberOfRatings": 23,
              "PhotoName": "111065.jpg",
              "PhotoUrl": "http://assets.kraftfoods.com/recipe_images/opendeploy/111065.jpg",
              "RecipeId": 111065,
              "RecipeName": "Fudge-Bottom Candy Crunch Pie",
              "SEOName": "fudge-bottom-candy-crunch-pie-111065",
              "ThumbnailPhoto": null
            },
            {
              "AverageRating": 4.3,
              "HasVideo": true,
              "IsHealthyLiving": false,
              "NumberOfRatings": 87,
              "PhotoName": "55123.jpg",
              "PhotoUrl": "http://assets.kraftfoods.com/recipe_images/opendeploy/55123.jpg",
              "RecipeId": 55123,
              "RecipeName": "Candy Crunch Pudding Pie",
              "SEOName": "candy-crunch-pudding-pie-55123",
              "ThumbnailPhoto": null
            }
          ],
          "TotalCount": 2885
        }
      },
      "RiseIngredients": [],
      "RiseTaxonomy": [],
      "Riserecipe": [
        {
          "GRIN": 506232,
          "RecipeId": 51725,
          "RecipeIndustrySector": "Retail",
          "RecipeType": "Internal"
        }
      ],
      "RomanceText": "Think you've left childhood behind? Not so fast. Just see how hard it is to be patient waiting for your slice of this creamy layered pie with chunks of caramel-peanut nougat.",
      "SEOName": "candy-bar-pie-51725",
      "Tips": [
        {
          "RecipeId": 51725,
          "Sequence": 10,
          "TipDescription": "Save 30 calories and 4g of total fat, including 3g of sat fat, per serving by preparing with PHILADELPHIA Neufchatel Cheese, fat-free milk and COOL WHIP LITE Whipped Topping.",
          "TipID": 2,
          "TipName": "Healthy Living"
        },
        {
          "RecipeId": 51725,
          "Sequence": 20,
          "TipDescription": "Place measured amount of cream cheese in microwaveable bowl.  Microwave on HIGH 10 sec. or just until slightly softened.",
          "TipID": 3,
          "TipName": "How to Soften the Cream Cheese"
        },
        {
          "RecipeId": 51725,
          "Sequence": 50,
          "TipDescription": "Use 1 pkg. (3.9 oz.) JELL-O SIMPLY GOOD Chocolate Flavor Pudding.",
          "TipID": 5769,
          "TipName": "Substitute"
        },
        {
          "RecipeId": 51725,
          "Sequence": 50,
          "TipDescription": "Use 1 pkg. (3.9 oz.) JELL-O SIMPLY GOOD Chocolate Flavor Pudding.",
          "TipID": 5769,
          "TipName": "Best Apples for Snacking and Salads"
        }
      ],
      "TotalTime": 260,
      "TradeMarkInfo": null,
      "Video": [],
      "Yield": "10 servings"
    }
  ]
}