{
  "Metadata": {
    "PageCount": 1,
    "PageNo": 0,
    "TotalCount": 0
  },
  "Recipes": [
    {
      "AdServingKeywords": "Entree,Korean,Beef,Cheese,Chili Sauce,Colby,Corn,Meat,Monterey Jack,Onion,Tomato,Vegetables,Kraft Cheese,Kraft Salad Dressing,Kraft Shredded Cheese,All Seasons,Dinner,Lunch,Spicy",
      "AlternateLanguageRecipes": [
        {
          "LanguageId": "2",
          "RecipeId": "172918",
          "SiteId": "1"
        },
        {
          "LanguageId": "2",
          "RecipeId": "172918",
          "SiteId": "90"
        }
      ],
      "Assets": [
        {
          "PictureFormats": [
            {
              "rendition": "290x194",
              "url": "http://assets.kraftfoods.com/recipe_images/opendeploy/573160_1_1_retail-c2327e4db02aa4b6d8fc6b1df49f613a3055d301_291x194.jpg"
            },
            {
              "rendition": "306x204",
              "url": "http://assets.kraftfoods.com/recipe_images/opendeploy/573160_1_1_retail-c2327e4db02aa4b6d8fc6b1df49f613a3055d301_306x204.jpg"
            },
            {
              "rendition": "640x428",
              "url": "http://assets.kraftfoods.com/recipe_images/opendeploy/573160_1_1_retail-c2327e4db02aa4b6d8fc6b1df49f613a3055d301_642x428.jpg"
            }
          ],
          "author": "Kraft",
          "id": "2",
          "imageType": "Primary",
          "mimeType": "image/jpeg",
          "publicationDate": null,
          "status": "1",
          "title": "573160_1_1_retail-c2327e4db02aa4b6d8fc6b1df49f613a3055d301",
          "type": "image"
        }
      ],
      "AverageRating": 0,
      "BrandId": 1,
      "Branding": null,
      "CSSSkins": null,
      "CarbCounter": null,
      "Categories": [
        {
          "CategoryID": 7,
          "CategoryName": "Pork/Beef Entrees",
          "CategoryRank": 10,
          "SubCategoryID": 453,
          "SubCategoryName": "Enchiladas/Fajitas/Tacos",
          "SubCategoryRank": 60
        },
        {
          "CategoryID": 11,
          "CategoryName": "Primary",
          "CategoryRank": 0,
          "SubCategoryID": 97,
          "SubCategoryName": "Entrees",
          "SubCategoryRank": 50
        },
        {
          "CategoryID": 755,
          "CategoryName": "International Flavours",
          "CategoryRank": 9,
          "SubCategoryID": 2555,
          "SubCategoryName": "Mexican / Spanish",
          "SubCategoryRank": 1
        },
        {
          "CategoryID": 756,
          "CategoryName": "Main Meals (Meat / Seafood / Egg)",
          "CategoryRank": 10,
          "SubCategoryID": 2563,
          "SubCategoryName": "Beef",
          "SubCategoryRank": 1
        },
        {
          "CategoryID": 756,
          "CategoryName": "Main Meals (Meat / Seafood / Egg)",
          "CategoryRank": 10,
          "SubCategoryID": 2564,
          "SubCategoryName": "Pork",
          "SubCategoryRank": 1
        }
      ],
      "Classifications": [],
      "ComplimentaryRecipes": null,
      "CookingMethod": null,
      "Copyright": null,
      "Courses": [
        "Main dishes"
      ],
      "DietExchange": null,
      "DishDetails": [
        {
          "Text": "ground beef recipes",
          "Url": "/recipes/dinner/ground-beef-recipes/main.aspx"
        },
        {
          "Text": "top 10 beef recipes",
          "Url": "/recipes/dinner/top-10/beef-recipes/main.aspx"
        },
        {
          "Text": "1 bag 5 dinners",
          "Url": "/recipes/dinner/1Bag5Dinners/1bag5dinnerschickenbeef.aspx"
        }
      ],
      "EndDate": "/Date(-62135575200000-0600)/",
      "HasVideo": false,
      "Ingredients": [
        {
          "FullMeasure": null,
          "FullWeight": null,
          "IngredientGridHeaders": null,
          "IngredientID": 67950,
          "IngredientName": "boneless beef sirloin steak (1 lb.), 1 inch thick",
          "IngredientStep": 10,
          "LanguageId": 0,
          "PostPreparation": "",
          "PrePreparation": "",
          "QuantityNum": 1,
          "QuantityText": "1",
          "QuantityUnit": "",
          "RecipeIngredientID": 271935,
          "TrialMeasure": null,
          "TrialWeight": null
        },
        {
          "FullMeasure": null,
          "FullWeight": null,
          "IngredientGridHeaders": null,
          "IngredientID": 68573,
          "IngredientName": "red onion, cut into 4 slices",
          "IngredientStep": 20,
          "LanguageId": 0,
          "PostPreparation": "",
          "PrePreparation": "",
          "QuantityNum": 1,
          "QuantityText": "1",
          "QuantityUnit": "small",
          "RecipeIngredientID": 266891,
          "TrialMeasure": null,
          "TrialWeight": null
        },
        {
          "FullMeasure": null,
          "FullWeight": null,
          "IngredientGridHeaders": null,
          "IngredientID": 70629,
          "IngredientName": "KRAFT Asian Toasted Sesame Dressing",
          "IngredientStep": 30,
          "LanguageId": 0,
          "PostPreparation": "",
          "PrePreparation": "",
          "QuantityNum": 0.25,
          "QuantityText": "1/4",
          "QuantityUnit": "cup",
          "RecipeIngredientID": 262019,
          "TrialMeasure": null,
          "TrialWeight": null
        },
        {
          "FullMeasure": null,
          "FullWeight": null,
          "IngredientGridHeaders": null,
          "IngredientID": 71022,
          "IngredientName": "lite soy sauce",
          "IngredientStep": 40,
          "LanguageId": 0,
          "PostPreparation": "",
          "PrePreparation": "",
          "QuantityNum": 1,
          "QuantityText": "1",
          "QuantityUnit": "Tbsp.",
          "RecipeIngredientID": 268019,
          "TrialMeasure": null,
          "TrialWeight": null
        },
        {
          "FullMeasure": null,
          "FullWeight": null,
          "IngredientGridHeaders": null,
          "IngredientID": 71676,
          "IngredientName": "Sriracha sauce (hot chili sauce)",
          "IngredientStep": 50,
          "LanguageId": 0,
          "PostPreparation": "",
          "PrePreparation": "",
          "QuantityNum": 1,
          "QuantityText": "1",
          "QuantityUnit": "Tbsp.",
          "RecipeIngredientID": 269442,
          "TrialMeasure": null,
          "TrialWeight": null
        },
        {
          "FullMeasure": null,
          "FullWeight": null,
          "IngredientGridHeaders": null,
          "IngredientID": 67913,
          "IngredientName": "honey",
          "IngredientStep": 60,
          "LanguageId": 0,
          "PostPreparation": "",
          "PrePreparation": "",
          "QuantityNum": 1,
          "QuantityText": "1",
          "QuantityUnit": "Tbsp.",
          "RecipeIngredientID": 268134,
          "TrialMeasure": null,
          "TrialWeight": null
        },
        {
          "FullMeasure": null,
          "FullWeight": null,
          "IngredientGridHeaders": null,
          "IngredientID": 68041,
          "IngredientName": "corn tortillas (6 inch), warmed",
          "IngredientStep": 70,
          "LanguageId": 0,
          "PostPreparation": "",
          "PrePreparation": "",
          "QuantityNum": 8,
          "QuantityText": "8",
          "QuantityUnit": "",
          "RecipeIngredientID": 262708,
          "TrialMeasure": null,
          "TrialWeight": null
        },
        {
          "FullMeasure": null,
          "FullWeight": null,
          "IngredientGridHeaders": null,
          "IngredientID": 71735,
          "IngredientName": "cherry tomatoes, halved",
          "IngredientStep": 80,
          "LanguageId": 0,
          "PostPreparation": "",
          "PrePreparation": "",
          "QuantityNum": 1,
          "QuantityText": "1",
          "QuantityUnit": "cup",
          "RecipeIngredientID": 261960,
          "TrialMeasure": null,
          "TrialWeight": null
        },
        {
          "FullMeasure": null,
          "FullWeight": null,
          "IngredientGridHeaders": null,
          "IngredientID": 67751,
          "IngredientName": "KRAFT Shredded Colby & Monterey Jack Cheeses",
          "IngredientStep": 90,
          "LanguageId": 0,
          "PostPreparation": "",
          "PrePreparation": "",
          "QuantityNum": 1,
          "QuantityText": "1",
          "QuantityUnit": "cup",
          "RecipeIngredientID": 264468,
          "TrialMeasure": null,
          "TrialWeight": null
        }
      ],
      "IsHealthyLiving": false,
      "KRLId": "573160",
      "KeyIngredients": [],
      "Keywords": "Entree,Korean,Dinner,Lunch,All Seasons,Spicy",
      "LanguageId": 1,
      "LifeStyles": [],
      "NumberOfIngredients": 9,
      "NumberOfRatings": 0,
      "NumberOfRatingsWithComments": "0",
      "NumberOfServings": "4 servings, 2 tacos each",
      "NumberOfTrialServings": null,
      "NutritionBonus": null,
      "NutritionExchangeItemId": 0,
      "NutritionGridItems": null,
      "NutritionItems": [
        {
          "DisplayOrder": 0,
          "Document": null,
          "NutritionItemID": 384,
          "NutritionItemName": "Vitamin D",
          "Predriscriptor": "",
          "Quantity": 0,
          "Unit": "%DV       "
        },
        {
          "DisplayOrder": 0,
          "Document": null,
          "NutritionItemID": 385,
          "NutritionItemName": "Vitamin E",
          "Predriscriptor": "",
          "Quantity": 6,
          "Unit": "%DV       "
        },
        {
          "DisplayOrder": 0,
          "Document": null,
          "NutritionItemID": 388,
          "NutritionItemName": "Potassium",
          "Predriscriptor": "",
          "Quantity": 10,
          "Unit": "%DV       "
        },
        {
          "DisplayOrder": 0,
          "Document": null,
          "NutritionItemID": 390,
          "NutritionItemName": "Added Sugars",
          "Predriscriptor": "",
          "Quantity": 5,
          "Unit": "g         "
        },
        {
          "DisplayOrder": 1,
          "Document": null,
          "NutritionItemID": 371,
          "NutritionItemName": "Calories",
          "Predriscriptor": "",
          "Quantity": 440,
          "Unit": "          "
        },
        {
          "DisplayOrder": 2,
          "Document": null,
          "NutritionItemID": 376,
          "NutritionItemName": "Total fat",
          "Predriscriptor": "",
          "Quantity": 20,
          "Unit": "g         "
        },
        {
          "DisplayOrder": 3,
          "Document": null,
          "NutritionItemID": 377,
          "NutritionItemName": "Saturated fat",
          "Predriscriptor": "",
          "Quantity": 9,
          "Unit": "g         "
        },
        {
          "DisplayOrder": 4,
          "Document": null,
          "NutritionItemID": 379,
          "NutritionItemName": "Polyunsaturated Fat",
          "Predriscriptor": "",
          "Quantity": 1,
          "Unit": "g         "
        },
        {
          "DisplayOrder": 5,
          "Document": null,
          "NutritionItemID": 378,
          "NutritionItemName": "Monounsaturated Fat",
          "Predriscriptor": "",
          "Quantity": 4,
          "Unit": "g         "
        },
        {
          "DisplayOrder": 6,
          "Document": null,
          "NutritionItemID": 380,
          "NutritionItemName": "Trans Fat",
          "Predriscriptor": "",
          "Quantity": 0,
          "Unit": "g         "
        },
        {
          "DisplayOrder": 7,
          "Document": null,
          "NutritionItemID": 381,
          "NutritionItemName": "Cholesterol",
          "Predriscriptor": "",
          "Quantity": 85,
          "Unit": "mg        "
        },
        {
          "DisplayOrder": 8,
          "Document": null,
          "NutritionItemID": 389,
          "NutritionItemName": "Sodium",
          "Predriscriptor": "",
          "Quantity": 480,
          "Unit": "mg        "
        },
        {
          "DisplayOrder": 10,
          "Document": null,
          "NutritionItemID": 373,
          "NutritionItemName": "Carbohydrate",
          "Predriscriptor": "",
          "Quantity": 34,
          "Unit": "g         "
        },
        {
          "DisplayOrder": 11,
          "Document": null,
          "NutritionItemID": 374,
          "NutritionItemName": "Dietary fiber",
          "Predriscriptor": "",
          "Quantity": 5,
          "Unit": "g         "
        },
        {
          "DisplayOrder": 12,
          "Document": null,
          "NutritionItemID": 375,
          "NutritionItemName": "Sugars",
          "Predriscriptor": "",
          "Quantity": 11,
          "Unit": "g         "
        },
        {
          "DisplayOrder": 13,
          "Document": null,
          "NutritionItemID": 372,
          "NutritionItemName": "Protein",
          "Predriscriptor": "",
          "Quantity": 27,
          "Unit": "g         "
        },
        {
          "DisplayOrder": 14,
          "Document": null,
          "NutritionItemID": 382,
          "NutritionItemName": "Vitamin A",
          "Predriscriptor": "",
          "Quantity": 15,
          "Unit": "%DV       "
        },
        {
          "DisplayOrder": 15,
          "Document": null,
          "NutritionItemID": 383,
          "NutritionItemName": "Vitamin C",
          "Predriscriptor": "",
          "Quantity": 10,
          "Unit": "%DV       "
        },
        {
          "DisplayOrder": 16,
          "Document": null,
          "NutritionItemID": 386,
          "NutritionItemName": "Calcium",
          "Predriscriptor": "",
          "Quantity": 15,
          "Unit": "%DV       "
        },
        {
          "DisplayOrder": 17,
          "Document": null,
          "NutritionItemID": 387,
          "NutritionItemName": "Iron",
          "Predriscriptor": "",
          "Quantity": 8,
          "Unit": "%DV       "
        }
      ],
      "NutritionServingText": null,
      "PrepStepImage": null,
      "PreparationDescription": "Place steak and onions in shallow dish.  Mix next 4 ingredients until blended.  Reserve 2 Tbsp. dressing mixture.  Pour remaining over steak and onions; refrigerate 1 hour to marinate, turning after 30 min. $Heat grill to medium-high heat.  Remove steak and onions from marinade; discard marinade.  Grill steak and onions 12 to 14 min. or until steak is medium doneness (160ºF) and onions are tender, turning steak after 7 min. and turning onions occasionally.  Remove steak and onions from grill.$Brush steak with reserved dressing mixture; let stand 5 min. Cut steak across the grain into thin slices; place on tortillas.  Top with onions, tomatoes and cheese. ",
      "PreparationPreText": null,
      "PreparationSteps": [
        {
          "Description": "Place steak and onions in shallow dish.  Mix next 4 ingredients until blended.  Reserve 2 Tbsp. dressing mixture.  Pour remaining over steak and onions; refrigerate 1 hour to marinate, turning after 30 min. ",
          "PreparationStepImage": {
            "PictureFormats": [],
            "author": null,
            "id": null,
            "imageType": null,
            "mimeType": null,
            "publicationDate": null,
            "status": null,
            "title": null,
            "type": null
          },
          "Sequence": 1
        },
        {
          "Description": "Heat grill to medium-high heat.  Remove steak and onions from marinade; discard marinade.  Grill steak and onions 12 to 14 min. or until steak is medium doneness (160ºF) and onions are tender, turning steak after 7 min. and turning onions occasionally.  Remove steak and onions from grill.",
          "PreparationStepImage": {
            "PictureFormats": [],
            "author": null,
            "id": null,
            "imageType": null,
            "mimeType": null,
            "publicationDate": null,
            "status": null,
            "title": null,
            "type": null
          },
          "Sequence": 2
        },
        {
          "Description": "Brush steak with reserved dressing mixture; let stand 5 min. Cut steak across the grain into thin slices; place on tortillas.  Top with onions, tomatoes and cheese. ",
          "PreparationStepImage": {
            "PictureFormats": [],
            "author": null,
            "id": null,
            "imageType": null,
            "mimeType": null,
            "publicationDate": null,
            "status": null,
            "title": null,
            "type": null
          },
          "Sequence": 3
        }
      ],
      "PreparationTime": 25,
      "Promotion": null,
      "Ratings": {
        "TotalCount": 0,
        "PageCount": 10,
        "PageNo": 1,
        "Rating": []
      },
      "RecipeDisplayFormatId": 0,
      "RecipeId": 171894,
      "RecipeName": "Sriracha Beef Tacos",
      "RecipeType": 0,
      "RelatedData": {
        "RelatedBrands": null,
        "RelatedProducts": null,
        "RelatedRecipes": {
          "DefaultTopCount": 5,
          "Recipe": [
            {
              "AverageRating": 5,
              "HasVideo": false,
              "IsHealthyLiving": false,
              "NumberOfRatings": 5,
              "PhotoName": "162258.jpg",
              "PhotoUrl": "http://assets.kraftfoods.com/recipe_images/opendeploy/162258.jpg",
              "RecipeId": 162258,
              "RecipeName": "Chicken 'n Waffle Tacos",
              "SEOName": "chicken-n-waffle-tacos-162258",
              "ThumbnailPhoto": null
            },
            {
              "AverageRating": 4.5,
              "HasVideo": false,
              "IsHealthyLiving": false,
              "NumberOfRatings": 2,
              "PhotoName": "179694.jpg",
              "PhotoUrl": "http://assets.kraftfoods.com/recipe_images/opendeploy/179694.jpg",
              "RecipeId": 179694,
              "RecipeName": "Spicy Habanero Cheese Stuffed Burger",
              "SEOName": "spicy-habanero-cheese-stuffed-burger-179694",
              "ThumbnailPhoto": null
            },
            {
              "AverageRating": 5,
              "HasVideo": false,
              "IsHealthyLiving": false,
              "NumberOfRatings": 1,
              "PhotoName": "163055.jpg",
              "PhotoUrl": "http://assets.kraftfoods.com/recipe_images/opendeploy/163055.jpg",
              "RecipeId": 163055,
              "RecipeName": "MIRACLE WHIP Slaw Burgers",
              "SEOName": "miracle-whip-slaw-burgers-163055",
              "ThumbnailPhoto": null
            },
            {
              "AverageRating": 4.5,
              "HasVideo": false,
              "IsHealthyLiving": false,
              "NumberOfRatings": 2,
              "PhotoName": "182875.jpg",
              "PhotoUrl": "http://assets.kraftfoods.com/recipe_images/opendeploy/182875.jpg",
              "RecipeId": 182875,
              "RecipeName": "Cheesy Macaroni Taco Bake",
              "SEOName": "cheesy-macaroni-taco-bake-182875",
              "ThumbnailPhoto": null
            },
            {
              "AverageRating": 5,
              "HasVideo": false,
              "IsHealthyLiving": false,
              "NumberOfRatings": 2,
              "PhotoName": "143699.jpg",
              "PhotoUrl": "http://assets.kraftfoods.com/recipe_images/opendeploy/143699.jpg",
              "RecipeId": 143699,
              "RecipeName": "Chipotle Cheddar-Beef Enchiladas",
              "SEOName": "chipotle-cheddar-beef-enchiladas-143699",
              "ThumbnailPhoto": null
            }
          ],
          "TotalCount": 1335
        }
      },
      "RiseIngredients": [
        {
          "IngredientCategory": "KRL",
          "IngredientId": 67751,
          "IngredientIndustrySector": "Retail",
          "IngredientType": "KHC",
          "ProductId": "00021000007950",
          "RecipeId": 171894
        },
        {
          "IngredientCategory": "KRL",
          "IngredientId": 67913,
          "IngredientIndustrySector": "Retail",
          "IngredientType": "Inedible",
          "ProductId": null,
          "RecipeId": 171894
        },
        {
          "IngredientCategory": "KRL",
          "IngredientId": 67950,
          "IngredientIndustrySector": "Retail",
          "IngredientType": "Inedible",
          "ProductId": null,
          "RecipeId": 171894
        },
        {
          "IngredientCategory": "KRL",
          "IngredientId": 68041,
          "IngredientIndustrySector": "Retail",
          "IngredientType": "Inedible",
          "ProductId": null,
          "RecipeId": 171894
        },
        {
          "IngredientCategory": "KRL",
          "IngredientId": 68573,
          "IngredientIndustrySector": "Retail",
          "IngredientType": "Inedible",
          "ProductId": null,
          "RecipeId": 171894
        },
        {
          "IngredientCategory": "KRL",
          "IngredientId": 70629,
          "IngredientIndustrySector": "Retail",
          "IngredientType": "KHC",
          "ProductId": "00021000014088",
          "RecipeId": 171894
        },
        {
          "IngredientCategory": "KRL",
          "IngredientId": 71022,
          "IngredientIndustrySector": "Retail",
          "IngredientType": "Inedible",
          "ProductId": null,
          "RecipeId": 171894
        },
        {
          "IngredientCategory": "KRL",
          "IngredientId": 71676,
          "IngredientIndustrySector": "Retail",
          "IngredientType": "KHC",
          "ProductId": null,
          "RecipeId": 171894
        },
        {
          "IngredientCategory": "KRL",
          "IngredientId": 71735,
          "IngredientIndustrySector": "Retail",
          "IngredientType": "Inedible",
          "ProductId": null,
          "RecipeId": 171894
        }
      ],
      "RiseTaxonomy": [
        {
          "ParentTaxonomyId": 0,
          "RecipeId": 171894,
          "ResourceName": "Recipe",
          "TaxonomyId": 65,
          "TaxonomyName": "Entrées",
          "TaxonomyTypeId": 2,
          "TaxonomyTypeName": "Meal Part"
        },
        {
          "ParentTaxonomyId": 52,
          "RecipeId": 171894,
          "ResourceName": "Recipe",
          "TaxonomyId": 249,
          "TaxonomyName": "Beef, Steak with Sauce",
          "TaxonomyTypeId": 3,
          "TaxonomyTypeName": "Dish Type"
        },
        {
          "ParentTaxonomyId": 0,
          "RecipeId": 171894,
          "ResourceName": "Recipe",
          "TaxonomyId": 337,
          "TaxonomyName": "Spring",
          "TaxonomyTypeId": 6,
          "TaxonomyTypeName": "Season"
        }
      ],
      "Riserecipe": [
        {
          "GRIN": 573160,
          "RecipeId": 171894,
          "RecipeIndustrySector": "Retail",
          "RecipeType": "Internal"
        }
      ],
      "RomanceText": "Spice up taco night with these Sriracha Beef Tacos! Sriracha Beef Tacos are a great way to incorporate Sriracha, beef sirloin and more into your evening.",
      "SEOName": "sriracha-beef-tacos-171894",
      "Tips": [
        {
          "RecipeId": 171894,
          "Sequence": 10,
          "TipDescription": "Spice up your mealtime with these easy-to-make tacos. Serve with your favorite fresh fruit to round out the meal.",
          "TipID": 1,
          "TipName": "Serving Suggestion"
        },
        {
          "RecipeId": 171894,
          "Sequence": 20,
          "TipDescription": "While the grilled steak is resting before slicing, warm the tortillas on the grill.",
          "TipID": 2,
          "TipName": "How to Warm the Tortillas"
        },
        {
          "RecipeId": 171894,
          "Sequence": 30,
          "TipDescription": "Prepare using grape tomatoes.",
          "TipID": 3,
          "TipName": "Substitute"
        },
        {
          "RecipeId": 171894,
          "Sequence": 40,
          "TipDescription": "Prepare using flour tortillas.",
          "TipID": 4,
          "TipName": "Substitute"
        },
        {
          "RecipeId": 171894,
          "Sequence": 50,
          "TipDescription": "Garnish each taco with fresh cilantro and a squeeze of fresh lime juice.",
          "TipID": 5,
          "TipName": "Special Extra"
        }
      ],
      "TotalTime": 85,
      "TradeMarkInfo": null,
      "Video": [],
      "Yield": "4 servings, 2 tacos each"
    }
  ]
}