{
  "Metadata": {
    "PageCount": 1,
    "PageNo": 0,
    "TotalCount": 0
  },
  "Recipes": [
    {
      "AdServingKeywords": "Baked,Dessert,Easy,Banana,Coconut,Dairy,Eggs,Fruit,Sour Cream,Bakers,Breakstones,Knudsen,All Seasons,Cake",
      "AlternateLanguageRecipes": [
        {
          "LanguageId": "2",
          "RecipeId": "53938",
          "SiteId": "90"
        }
      ],
      "Assets": [
        {
          "PictureFormats": [
            {
              "rendition": "300x200",
              "url": "http://assets.kraftfoods.com/recipe_images/Banana_Coconut_UpSideDown_Cake.jpg"
            }
          ],
          "author": null,
          "id": "0",
          "imageType": "DEFAULT",
          "mimeType": null,
          "publicationDate": null,
          "status": "1",
          "title": "Banana_Coconut_UpSideDown_Cake.jpg",
          "type": "image"
        }
      ],
      "AverageRating": 4.3,
      "BrandId": 90,
      "Branding": null,
      "CSSSkins": [],
      "CarbCounter": null,
      "Categories": [
        {
          "CategoryID": 4,
          "CategoryName": "Cakes/Pies/Cheesecakes",
          "CategoryRank": 5,
          "SubCategoryID": 12,
          "SubCategoryName": "Cakes: Layer",
          "SubCategoryRank": 10
        },
        {
          "CategoryID": 11,
          "CategoryName": "Primary",
          "CategoryRank": 0,
          "SubCategoryID": 103,
          "SubCategoryName": "Desserts",
          "SubCategoryRank": 40
        },
        {
          "CategoryID": 761,
          "CategoryName": "Cakes, Muffins & Sweet Treats",
          "CategoryRank": 15,
          "SubCategoryID": 2585,
          "SubCategoryName": "Sweet",
          "SubCategoryRank": 1
        }
      ],
      "Classifications": [],
      "ComplimentaryRecipes": [
        {
          "AverageRating": 0,
          "HasVideo": false,
          "IsHealthyLiving": false,
          "NumberOfRatings": 0,
          "PhotoName": null,
          "PhotoUrl": null,
          "RecipeId": 69184,
          "RecipeName": null,
          "SEOName": "vanilla-latte-69184",
          "ThumbnailPhoto": "69184.jpg"
        }
      ],
      "CookingMethod": null,
      "Copyright": null,
      "Courses": [
        "Desserts"
      ],
      "DietExchange": null,
      "DishDetails": [
        {
          "Text": "desserts",
          "Url": "/recipes/dessert/main.aspx"
        },
        {
          "Text": "fruity desserts",
          "Url": "/recipes/dessert/fruitydesserts.aspx"
        },
        {
          "Text": "gelatin desserts",
          "Url": "/recipes/dessert/gelatindesserts.aspx"
        },
        {
          "Text": "layered desserts",
          "Url": "/recipes/dessert/layereddesserts.aspx"
        },
        {
          "Text": "brownie recipes",
          "Url": "/recipes/dessert/brownie-recipes/main.aspx"
        },
        {
          "Text": "budget desserts",
          "Url": "/recipes/budget/budget-desserts.aspx"
        },
        {
          "Text": "no bake desserts",
          "Url": "/recipes/dessert/nobakedesserts.aspx"
        },
        {
          "Text": "pumpkin recipes",
          "Url": "/recipes/dessert/pumpkin-recipes.aspx"
        },
        {
          "Text": "chocolate cake recipes",
          "Url": "/recipes/dessert/chocolate-cake-recipes/main.aspx"
        },
        {
          "Text": "cheesecake recipes",
          "Url": "/recipes/dessert/cheesecake-center/cheesecake-recipes/main.aspx"
        },
        {
          "Text": "chocolate lovers recipes",
          "Url": "/recipes/dessert/chocolate-center/chocolateloversrecipes.aspx"
        },
        {
          "Text": "classic desserts",
          "Url": "/recipes/dessert/classicdesserts.aspx"
        },
        {
          "Text": "cookie ball recipes",
          "Url": "/recipes/dessert/cookie-ball-recipes/main.aspx"
        },
        {
          "Text": "cookie recipes",
          "Url": "/recipes/dessert/cookie-recipes/main.aspx"
        },
        {
          "Text": "cupcake recipes",
          "Url": "/recipes/dessert/cupcake-recipes/main.aspx"
        },
        {
          "Text": "healthy living desserts",
          "Url": "/healthy-living-ideas/diabetes-center/recipes/dessert-recipes.aspx"
        }
      ],
      "EndDate": "/Date(-62135575200000-0600)/",
      "HasVideo": false,
      "Ingredients": [
        {
          "FullMeasure": "1 pkg.",
          "FullWeight": "",
          "IngredientGridHeaders": null,
          "IngredientID": 4114,
          "IngredientName": "cake mix",
          "IngredientStep": 10,
          "LanguageId": 0,
          "PostPreparation": "",
          "PrePreparation": "(2-layer size) yellow",
          "QuantityNum": 1,
          "QuantityText": "1",
          "QuantityUnit": "pkg.",
          "RecipeIngredientID": 5304442,
          "TrialMeasure": "",
          "TrialWeight": ""
        },
        {
          "FullMeasure": "3",
          "FullWeight": "",
          "IngredientGridHeaders": null,
          "IngredientID": 1060,
          "IngredientName": "egg",
          "IngredientStep": 20,
          "LanguageId": 0,
          "PostPreparation": "s",
          "PrePreparation": "",
          "QuantityNum": 3,
          "QuantityText": "3",
          "QuantityUnit": "",
          "RecipeIngredientID": 5304435,
          "TrialMeasure": "",
          "TrialWeight": ""
        },
        {
          "FullMeasure": "1 cup",
          "FullWeight": "",
          "IngredientGridHeaders": null,
          "IngredientID": 88,
          "IngredientName": "BREAKSTONE'S or KNUDSEN Sour Cream",
          "IngredientStep": 30,
          "LanguageId": 0,
          "PostPreparation": "",
          "PrePreparation": "",
          "QuantityNum": 1,
          "QuantityText": "1",
          "QuantityUnit": "cup",
          "RecipeIngredientID": 5304437,
          "TrialMeasure": "",
          "TrialWeight": ""
        },
        {
          "FullMeasure": "1/4 cup",
          "FullWeight": "",
          "IngredientGridHeaders": null,
          "IngredientID": 1366,
          "IngredientName": "oil",
          "IngredientStep": 40,
          "LanguageId": 0,
          "PostPreparation": "",
          "PrePreparation": "",
          "QuantityNum": 0,
          "QuantityText": "1/4",
          "QuantityUnit": "cup",
          "RecipeIngredientID": 5304438,
          "TrialMeasure": "",
          "TrialWeight": ""
        },
        {
          "FullMeasure": "1/2 cup",
          "FullWeight": "",
          "IngredientGridHeaders": null,
          "IngredientID": 863,
          "IngredientName": "butter",
          "IngredientStep": 50,
          "LanguageId": 0,
          "PostPreparation": ", divided",
          "PrePreparation": "(1 stick)",
          "QuantityNum": 0,
          "QuantityText": "1/2",
          "QuantityUnit": "cup",
          "RecipeIngredientID": 5304439,
          "TrialMeasure": "",
          "TrialWeight": ""
        },
        {
          "FullMeasure": "1 cup",
          "FullWeight": "",
          "IngredientGridHeaders": null,
          "IngredientID": 859,
          "IngredientName": "brown sugar",
          "IngredientStep": 60,
          "LanguageId": 0,
          "PostPreparation": ", divided",
          "PrePreparation": "firmly packed",
          "QuantityNum": 1,
          "QuantityText": "1",
          "QuantityUnit": "cup",
          "RecipeIngredientID": 5304441,
          "TrialMeasure": "",
          "TrialWeight": ""
        },
        {
          "FullMeasure": "6",
          "FullWeight": "",
          "IngredientGridHeaders": null,
          "IngredientID": 8755,
          "IngredientName": "banana",
          "IngredientStep": 70,
          "LanguageId": 0,
          "PostPreparation": "s, peeled, cut into 1/4-inch-thick slices",
          "PrePreparation": "medium",
          "QuantityNum": 6,
          "QuantityText": "6",
          "QuantityUnit": "",
          "RecipeIngredientID": 5304436,
          "TrialMeasure": "",
          "TrialWeight": ""
        },
        {
          "FullMeasure": "1 cup",
          "FullWeight": "",
          "IngredientGridHeaders": null,
          "IngredientID": 49,
          "IngredientName": "BAKER'S ANGEL FLAKE Coconut",
          "IngredientStep": 80,
          "LanguageId": 0,
          "PostPreparation": ", divided",
          "PrePreparation": "",
          "QuantityNum": 1,
          "QuantityText": "1",
          "QuantityUnit": "cup",
          "RecipeIngredientID": 5304440,
          "TrialMeasure": "",
          "TrialWeight": ""
        }
      ],
      "IsHealthyLiving": false,
      "KRLId": "525196",
      "KeyIngredients": [
        "Banana",
        "Cake",
        "Coconut",
        "Dairy",
        "Eggs",
        "Fruit"
      ],
      "Keywords": "oil,BAKER'S Coconut,bananas,BREAKSTONE'S Sour Cream,brown sugar,cake mix,coconut,eggs,KNUDSEN Sour Cream,sour cream,butter,Baked,Dessert,Easy,All Seasons",
      "LanguageId": 1,
      "LifeStyles": [],
      "NumberOfIngredients": 8,
      "NumberOfRatings": 8,
      "NumberOfRatingsWithComments": "7",
      "NumberOfServings": "16 servings, 8 servings per cake",
      "NumberOfTrialServings": "",
      "NutritionBonus": null,
      "NutritionExchangeItemId": 0,
      "NutritionGridItems": null,
      "NutritionItems": [
        {
          "DisplayOrder": 1,
          "Document": null,
          "NutritionItemID": 3,
          "NutritionItemName": "Calories",
          "Predriscriptor": "",
          "Quantity": 380,
          "Unit": "          "
        },
        {
          "DisplayOrder": 2,
          "Document": "fat_cholesterol.html",
          "NutritionItemID": 4,
          "NutritionItemName": "Total fat",
          "Predriscriptor": "",
          "Quantity": 18,
          "Unit": "g         "
        },
        {
          "DisplayOrder": 3,
          "Document": "fat_cholesterol.html",
          "NutritionItemID": 9,
          "NutritionItemName": "Saturated fat",
          "Predriscriptor": "",
          "Quantity": 8,
          "Unit": "g         "
        },
        {
          "DisplayOrder": 7,
          "Document": "fat_cholesterol.html",
          "NutritionItemID": 2,
          "NutritionItemName": "Cholesterol",
          "Predriscriptor": "",
          "Quantity": 65,
          "Unit": "mg        "
        },
        {
          "DisplayOrder": 8,
          "Document": "sodium.html",
          "NutritionItemID": 8,
          "NutritionItemName": "Sodium",
          "Predriscriptor": "",
          "Quantity": 310,
          "Unit": "mg        "
        },
        {
          "DisplayOrder": 10,
          "Document": "carbs_sugars_fiber.html",
          "NutritionItemID": 1,
          "NutritionItemName": "Carbohydrate",
          "Predriscriptor": "",
          "Quantity": 51,
          "Unit": "g         "
        },
        {
          "DisplayOrder": 11,
          "Document": "carbs_sugars_fiber.html",
          "NutritionItemID": 7,
          "NutritionItemName": "Dietary fiber",
          "Predriscriptor": "",
          "Quantity": 2,
          "Unit": "g         "
        },
        {
          "DisplayOrder": 12,
          "Document": "carbs_sugars_fiber.html",
          "NutritionItemID": 5,
          "NutritionItemName": "Sugars",
          "Predriscriptor": "",
          "Quantity": 38,
          "Unit": "g         "
        },
        {
          "DisplayOrder": 13,
          "Document": null,
          "NutritionItemID": 6,
          "NutritionItemName": "Protein",
          "Predriscriptor": "",
          "Quantity": 4,
          "Unit": "g         "
        },
        {
          "DisplayOrder": 14,
          "Document": null,
          "NutritionItemID": 10,
          "NutritionItemName": "Vitamin A",
          "Predriscriptor": "",
          "Quantity": 8,
          "Unit": "%DV       "
        },
        {
          "DisplayOrder": 15,
          "Document": null,
          "NutritionItemID": 11,
          "NutritionItemName": "Vitamin C",
          "Predriscriptor": "",
          "Quantity": 6,
          "Unit": "%DV       "
        },
        {
          "DisplayOrder": 16,
          "Document": "dairy_and_calcium.html",
          "NutritionItemID": 12,
          "NutritionItemName": "Calcium",
          "Predriscriptor": "",
          "Quantity": 8,
          "Unit": "%DV       "
        },
        {
          "DisplayOrder": 17,
          "Document": null,
          "NutritionItemID": 13,
          "NutritionItemName": "Iron",
          "Predriscriptor": "",
          "Quantity": 8,
          "Unit": "%DV       "
        }
      ],
      "NutritionServingText": null,
      "PrepStepImage": null,
      "PreparationDescription": "Preheat oven to 350°F.  Beat cake mix, eggs, sour cream, oil and 1/2 cup water in large bowl with electric mixer on low speed just until cake mix is moistened, scraping side of bowl often.  Beat on medium speed 2 minutes. $Melt 4 Tbsp. of the butter in each of 2 (9-inch) round cake pans; sprinkle each with 1/2 cup of the brown sugar.  Arrange banana slices evenly over sugar; sprinkle evenly with coconut.  $Pour batter evenly over ingredients in pans.  $Bake 35 to 40 minutes or until toothpick inserted in centers comes out clean.  Immediately invert onto serving platters.",
      "PreparationPreText": null,
      "PreparationSteps": [
        {
          "Description": "Preheat oven to 350°F.  Beat cake mix, eggs, sour cream, oil and 1/2 cup water in large bowl with electric mixer on low speed just until cake mix is moistened, scraping side of bowl often.  Beat on medium speed 2 minutes. ",
          "PreparationStepImage": {
            "PictureFormats": [],
            "author": null,
            "id": null,
            "imageType": null,
            "mimeType": null,
            "publicationDate": null,
            "status": null,
            "title": null,
            "type": null
          },
          "Sequence": 1
        },
        {
          "Description": "Melt 4 Tbsp. of the butter in each of 2 (9-inch) round cake pans; sprinkle each with 1/2 cup of the brown sugar.  Arrange banana slices evenly over sugar; sprinkle evenly with coconut.  ",
          "PreparationStepImage": {
            "PictureFormats": [],
            "author": null,
            "id": null,
            "imageType": null,
            "mimeType": null,
            "publicationDate": null,
            "status": null,
            "title": null,
            "type": null
          },
          "Sequence": 2
        },
        {
          "Description": "Pour batter evenly over ingredients in pans.  ",
          "PreparationStepImage": {
            "PictureFormats": [],
            "author": null,
            "id": null,
            "imageType": null,
            "mimeType": null,
            "publicationDate": null,
            "status": null,
            "title": null,
            "type": null
          },
          "Sequence": 3
        },
        {
          "Description": "Bake 35 to 40 minutes or until toothpick inserted in centers comes out clean.  Immediately invert onto serving platters.",
          "PreparationStepImage": {
            "PictureFormats": [],
            "author": null,
            "id": null,
            "imageType": null,
            "mimeType": null,
            "publicationDate": null,
            "status": null,
            "title": null,
            "type": null
          },
          "Sequence": 4
        }
      ],
      "PreparationTime": 15,
      "Promotion": null,
      "Ratings": {
        "TotalCount": 8,
        "PageCount": 10,
        "PageNo": 1,
        "Rating": [
          {
            "Comment": "After I started the recipe I realized whoever borrowed my layer pans did not return them.  I made this as a 13x9 cake.  Actually I will do it again.  The topping turned out perfect and it was super easy to serve.  I was concerned because it seemed like a lot of cake, but no problem.  It was GONE by bedtime.  'Just another little piece, Mom.'  I loved it and have made it again several times.  My 98 year old friend suggested eat dessert first.  ",
            "DisplayName": true,
            "RatingValue": 5,
            "SubmitDate": "/Date(1419612307000-0600)/",
            "UpdatedDate": "/Date(1419612307000-0600)/",
            "UserName": "silverkittylady"
          },
          {
            "Comment": "even though we like all these ingredients did not care for this recipe will not make",
            "DisplayName": true,
            "RatingValue": 2,
            "SubmitDate": "/Date(1407723156000-0500)/",
            "UpdatedDate": "/Date(1407723156000-0500)/",
            "UserName": "justmelane"
          },
          {
            "Comment": "I did not have any sour cream, or plain yogurt to substitute for it so I just made the cake mix as directed on the box. The # of eggs was the same and the oil was just increaed to 1/3 cup. Every other step was as directed. It was delicious. I made it for my husband's birthday cake (per his request). Very pleased w/ the results and definately will make again.",
            "DisplayName": true,
            "RatingValue": 5,
            "SubmitDate": "/Date(1397930782000-0500)/",
            "UpdatedDate": "/Date(1397930782000-0500)/",
            "UserName": "liermann"
          },
          {
            "Comment": "I made this cake for Easter Sunday and it was delicious. However, mine wasn't as pretty as the photo because the top turned out darker. I topped each serving with lite cool whip to make it more eye-appealing.I did use Splenda brown sugar and that might have been the problem. Really tasted wonderful, though!",
            "DisplayName": true,
            "RatingValue": 4,
            "SubmitDate": "/Date(1334238865000-0500)/",
            "UpdatedDate": "/Date(1334238865000-0500)/",
            "UserName": "Ddsteffen"
          },
          {
            "Comment": "Delicous",
            "DisplayName": false,
            "RatingValue": 5,
            "SubmitDate": "/Date(1323617467000-0600)/",
            "UpdatedDate": "/Date(1323617467000-0600)/",
            "UserName": "yasmine101381"
          },
          {
            "Comment": "Excellent recipe. Very simple. Even people who do not like coconut asked for more.",
            "DisplayName": true,
            "RatingValue": 4,
            "SubmitDate": "/Date(1271741304000-0500)/",
            "UpdatedDate": "/Date(1271741304000-0500)/",
            "UserName": "tumor96"
          },
          {
            "Comment": "Delicious:)I had bananas that were about to turn brown, I saw this recipe & decided to try it out...Bananas never tasted better...will be making this again... soon!",
            "DisplayName": true,
            "RatingValue": 5,
            "SubmitDate": "/Date(1262392170000-0600)/",
            "UpdatedDate": "/Date(1262392170000-0600)/",
            "UserName": "misslaly"
          },
          {
            "Comment": "",
            "DisplayName": true,
            "RatingValue": 4,
            "SubmitDate": "/Date(1244412980000-0500)/",
            "UpdatedDate": "/Date(1244412980000-0500)/",
            "UserName": "masrls"
          }
        ]
      },
      "RecipeDisplayFormatId": 5,
      "RecipeId": 53937,
      "RecipeName": "Banana Coconut Up-Side-Down Cake",
      "RecipeType": 0,
      "RelatedData": {
        "RelatedBrands": null,
        "RelatedProducts": null,
        "RelatedRecipes": {
          "DefaultTopCount": 5,
          "Recipe": [
            {
              "AverageRating": 4.1,
              "HasVideo": false,
              "IsHealthyLiving": false,
              "NumberOfRatings": 17,
              "PhotoName": "Tropical_Coconut_Cream_Pie_in_Coconut_Cookie_Crust.jpg",
              "PhotoUrl": "http://assets.kraftfoods.com/recipe_images/opendeploy/Tropical_Coconut_Cream_Pie_in_Coconut_Cookie_Crust.jpg",
              "RecipeId": 56266,
              "RecipeName": "Tropical Coconut Cream Pie in Coconut Cookie Crust",
              "SEOName": "tropical-coconut-cream-pie-in-coconut-cookie-crust-56266",
              "ThumbnailPhoto": null
            },
            {
              "AverageRating": 4.1,
              "HasVideo": false,
              "IsHealthyLiving": false,
              "NumberOfRatings": 22,
              "PhotoName": "Diva-Sleepover-Cake-45867.jpg",
              "PhotoUrl": "http://assets.kraftfoods.com/recipe_images/opendeploy/Diva-Sleepover-Cake-45867.jpg",
              "RecipeId": 74934,
              "RecipeName": "Diva Sleepover Cake",
              "SEOName": "diva-sleepover-cake-74934",
              "ThumbnailPhoto": null
            },
            {
              "AverageRating": 4,
              "HasVideo": false,
              "IsHealthyLiving": false,
              "NumberOfRatings": 8,
              "PhotoName": "Pineapple_Coconut_Upside-Down_Layered_Cake.jpg",
              "PhotoUrl": "http://assets.kraftfoods.com/recipe_images/opendeploy/Pineapple_Coconut_Upside-Down_Layered_Cake.jpg",
              "RecipeId": 104717,
              "RecipeName": "Best Pineapple Upside Down Cake",
              "SEOName": "best-pineapple-upside-down-cake-104717",
              "ThumbnailPhoto": null
            },
            {
              "AverageRating": 4.7,
              "HasVideo": false,
              "IsHealthyLiving": false,
              "NumberOfRatings": 505,
              "PhotoName": "57771.jpg",
              "PhotoUrl": "http://assets.kraftfoods.com/recipe_images/opendeploy/57771.jpg",
              "RecipeId": 57771,
              "RecipeName": "Banana-Sour Cream Cake",
              "SEOName": "banana-sour-cream-cake-57771",
              "ThumbnailPhoto": null
            },
            {
              "AverageRating": 5,
              "HasVideo": false,
              "IsHealthyLiving": false,
              "NumberOfRatings": 2,
              "PhotoName": "opendeploy/573326_1_1_retail-71c76b9c8c2dba3b78281f726e4d794fd909b860_306x204.jpg",
              "PhotoUrl": "http://assets.kraftfoods.com/recipe_images/opendeploy/opendeploy/573326_1_1_retail-71c76b9c8c2dba3b78281f726e4d794fd909b860_306x204.jpg",
              "RecipeId": 169492,
              "RecipeName": "Creamy Coconut Cake Roll",
              "SEOName": "creamy-coconut-cake-roll-169492",
              "ThumbnailPhoto": null
            }
          ],
          "TotalCount": 4074
        }
      },
      "RiseIngredients": [],
      "RiseTaxonomy": [],
      "Riserecipe": [
        {
          "GRIN": 525196,
          "RecipeId": 53937,
          "RecipeIndustrySector": "Retail",
          "RecipeType": "Internal"
        }
      ],
      "RomanceText": "Put down the canned pineapple—we have a delish alternative. Yummy flaked coconut and banana slices form the top (or bottom?) of this unforgettable cake.",
      "SEOName": "banana-coconut-up-side-down-cake-53937",
      "Tips": [
        {
          "RecipeId": 53937,
          "Sequence": 10,
          "TipDescription": "An occasional dessert can be a part of a balanced diet, but remember to keep tabs on portions.",
          "TipID": 2,
          "TipName": "Size Wise"
        },
        {
          "RecipeId": 53937,
          "Sequence": 20,
          "TipDescription": "Preheat oven to 350°F.  Thinly spread coconut in shallow baking pan.  Bake 7 to 12 minutes or until lightly browned, stirring occasionally.",
          "TipID": 1,
          "TipName": "How to Toast Coconut"
        }
      ],
      "TotalTime": 55,
      "TradeMarkInfo": null,
      "Video": [],
      "Yield": "Makes 16 servings, 8 servings per cake."
    }
  ]
}