{
  "Metadata": {
    "PageCount": 1,
    "PageNo": 0,
    "TotalCount": 0
  },
  "Recipes": [
    {
      "AdServingKeywords": "Entree,Cucumber,Dairy,Fish,Onion,Sour Cream,Tomato,Vegetables,Dinner,Breakstones,Knudsen,Kraft Mayo",
      "AlternateLanguageRecipes": [],
      "Assets": [],
      "AverageRating": 0,
      "BrandId": 1,
      "Branding": null,
      "CSSSkins": null,
      "CarbCounter": null,
      "Categories": [
        {
          "CategoryID": 8,
          "CategoryName": "Seafood/Meatless Entrees",
          "CategoryRank": 12,
          "SubCategoryID": 34,
          "SubCategoryName": "Seafood: Fillets/Steaks",
          "SubCategoryRank": 70
        },
        {
          "CategoryID": 11,
          "CategoryName": "Primary",
          "CategoryRank": 0,
          "SubCategoryID": 97,
          "SubCategoryName": "Entrees",
          "SubCategoryRank": 50
        },
        {
          "CategoryID": 756,
          "CategoryName": "Main Meals (Meat / Seafood / Egg)",
          "CategoryRank": 10,
          "SubCategoryID": 2560,
          "SubCategoryName": "Seafood",
          "SubCategoryRank": 1
        }
      ],
      "Classifications": [],
      "ComplimentaryRecipes": null,
      "CookingMethod": null,
      "Copyright": null,
      "Courses": [
        "Breads",
        "Main dishes"
      ],
      "DietExchange": null,
      "DishDetails": [],
      "EndDate": "/Date(-62135575200000-0600)/",
      "HasVideo": false,
      "Ingredients": [
        {
          "FullMeasure": "1/4 cup",
          "FullWeight": "",
          "IngredientGridHeaders": null,
          "IngredientID": 1366,
          "IngredientName": "oil",
          "IngredientStep": 10,
          "LanguageId": 0,
          "PostPreparation": "",
          "PrePreparation": "",
          "QuantityNum": 0,
          "QuantityText": "1/4",
          "QuantityUnit": "cup",
          "RecipeIngredientID": 6197766,
          "TrialMeasure": "",
          "TrialWeight": ""
        },
        {
          "FullMeasure": "1 Tbsp.",
          "FullWeight": "",
          "IngredientGridHeaders": null,
          "IngredientID": 3618,
          "IngredientName": "Creole seasoning",
          "IngredientStep": 20,
          "LanguageId": 0,
          "PostPreparation": "",
          "PrePreparation": "",
          "QuantityNum": 1,
          "QuantityText": "1",
          "QuantityUnit": "Tbsp.",
          "RecipeIngredientID": 6197773,
          "TrialMeasure": "",
          "TrialWeight": ""
        },
        {
          "FullMeasure": "1 Tbsp.",
          "FullWeight": "",
          "IngredientGridHeaders": null,
          "IngredientID": 1254,
          "IngredientName": "hot pepper sauce",
          "IngredientStep": 30,
          "LanguageId": 0,
          "PostPreparation": "",
          "PrePreparation": "",
          "QuantityNum": 1,
          "QuantityText": "1",
          "QuantityUnit": "Tbsp.",
          "RecipeIngredientID": 6197771,
          "TrialMeasure": "",
          "TrialWeight": ""
        },
        {
          "FullMeasure": "8",
          "FullWeight": "",
          "IngredientGridHeaders": null,
          "IngredientID": 8779,
          "IngredientName": "tilapia fillets",
          "IngredientStep": 40,
          "LanguageId": 0,
          "PostPreparation": " (2 lb.)",
          "PrePreparation": "",
          "QuantityNum": 7,
          "QuantityText": "8",
          "QuantityUnit": "",
          "RecipeIngredientID": 6197770,
          "TrialMeasure": "",
          "TrialWeight": ""
        },
        {
          "FullMeasure": "1/2 cup",
          "FullWeight": "",
          "IngredientGridHeaders": null,
          "IngredientID": 1702,
          "IngredientName": "tomato",
          "IngredientStep": 50,
          "LanguageId": 0,
          "PostPreparation": "es",
          "PrePreparation": "chopped",
          "QuantityNum": 0,
          "QuantityText": "1/2",
          "QuantityUnit": "cup",
          "RecipeIngredientID": 6197768,
          "TrialMeasure": "",
          "TrialWeight": ""
        },
        {
          "FullMeasure": "1/2 cup",
          "FullWeight": "",
          "IngredientGridHeaders": null,
          "IngredientID": 1021,
          "IngredientName": "cucumber",
          "IngredientStep": 60,
          "LanguageId": 0,
          "PostPreparation": "s",
          "PrePreparation": "chopped",
          "QuantityNum": 0,
          "QuantityText": "1/2",
          "QuantityUnit": "cup",
          "RecipeIngredientID": 6197764,
          "TrialMeasure": "",
          "TrialWeight": ""
        },
        {
          "FullMeasure": "1/4 cup",
          "FullWeight": "",
          "IngredientGridHeaders": null,
          "IngredientID": 1529,
          "IngredientName": "red onion",
          "IngredientStep": 70,
          "LanguageId": 0,
          "PostPreparation": "s",
          "PrePreparation": "finely chopped",
          "QuantityNum": 0,
          "QuantityText": "1/4",
          "QuantityUnit": "cup",
          "RecipeIngredientID": 6197767,
          "TrialMeasure": "",
          "TrialWeight": ""
        },
        {
          "FullMeasure": "2 Tbsp.",
          "FullWeight": "",
          "IngredientGridHeaders": null,
          "IngredientID": 1119,
          "IngredientName": "fresh parsley",
          "IngredientStep": 80,
          "LanguageId": 0,
          "PostPreparation": "",
          "PrePreparation": "chopped",
          "QuantityNum": 2,
          "QuantityText": "2",
          "QuantityUnit": "Tbsp.",
          "RecipeIngredientID": 6197772,
          "TrialMeasure": "",
          "TrialWeight": ""
        },
        {
          "FullMeasure": "1/3 cup",
          "FullWeight": "",
          "IngredientGridHeaders": null,
          "IngredientID": 20394,
          "IngredientName": "KRAFT Mayo Chipotle Flavored Reduced Fat Mayonnaise",
          "IngredientStep": 90,
          "LanguageId": 0,
          "PostPreparation": "",
          "PrePreparation": "",
          "QuantityNum": 0,
          "QuantityText": "1/3",
          "QuantityUnit": "cup",
          "RecipeIngredientID": 6197769,
          "TrialMeasure": "",
          "TrialWeight": ""
        },
        {
          "FullMeasure": "1/4 cup",
          "FullWeight": "",
          "IngredientGridHeaders": null,
          "IngredientID": 88,
          "IngredientName": "BREAKSTONE'S or KNUDSEN Sour Cream",
          "IngredientStep": 100,
          "LanguageId": 0,
          "PostPreparation": "",
          "PrePreparation": "",
          "QuantityNum": 0,
          "QuantityText": "1/4",
          "QuantityUnit": "cup",
          "RecipeIngredientID": 6197765,
          "TrialMeasure": "",
          "TrialWeight": ""
        }
      ],
      "IsHealthyLiving": false,
      "KRLId": "566193",
      "KeyIngredients": [
        "Cucumber",
        "Dairy",
        "Fish",
        "Fruit",
        "Onion",
        "Tomato",
        "Vegetables"
      ],
      "Keywords": "oil,onions,pepper sauce,BREAKSTONE'S Sour Cream,creole seasonings,cucumbers,fish,hot pepper sauce,KNUDSEN Sour Cream,mayonnaise,seafood,sour cream,tomatoes,mayo type light dressing,mayo type dressing,mayonnaise-light,parsley,tilapia,KRAFT SANDWICH SHOP,SANDWICH SHOP,Entree,Dinner",
      "LanguageId": 1,
      "LifeStyles": [],
      "NumberOfIngredients": 10,
      "NumberOfRatings": 0,
      "NumberOfRatingsWithComments": "0",
      "NumberOfServings": "8 servings",
      "NumberOfTrialServings": "",
      "NutritionBonus": null,
      "NutritionExchangeItemId": 0,
      "NutritionGridItems": null,
      "NutritionItems": [
        {
          "DisplayOrder": 1,
          "Document": null,
          "NutritionItemID": 3,
          "NutritionItemName": "Calories",
          "Predriscriptor": "",
          "Quantity": 220,
          "Unit": "          "
        },
        {
          "DisplayOrder": 2,
          "Document": "fat_cholesterol.html",
          "NutritionItemID": 4,
          "NutritionItemName": "Total fat",
          "Predriscriptor": "",
          "Quantity": 13,
          "Unit": "g         "
        },
        {
          "DisplayOrder": 3,
          "Document": "fat_cholesterol.html",
          "NutritionItemID": 9,
          "NutritionItemName": "Saturated fat",
          "Predriscriptor": "",
          "Quantity": 3,
          "Unit": "g         "
        },
        {
          "DisplayOrder": 7,
          "Document": "fat_cholesterol.html",
          "NutritionItemID": 2,
          "NutritionItemName": "Cholesterol",
          "Predriscriptor": "",
          "Quantity": 55,
          "Unit": "mg        "
        },
        {
          "DisplayOrder": 8,
          "Document": "sodium.html",
          "NutritionItemID": 8,
          "NutritionItemName": "Sodium",
          "Predriscriptor": "",
          "Quantity": 370,
          "Unit": "mg        "
        },
        {
          "DisplayOrder": 10,
          "Document": "carbs_sugars_fiber.html",
          "NutritionItemID": 1,
          "NutritionItemName": "Carbohydrate",
          "Predriscriptor": "",
          "Quantity": 3,
          "Unit": "g         "
        },
        {
          "DisplayOrder": 11,
          "Document": "carbs_sugars_fiber.html",
          "NutritionItemID": 7,
          "NutritionItemName": "Dietary fiber",
          "Predriscriptor": "",
          "Quantity": 0,
          "Unit": "g         "
        },
        {
          "DisplayOrder": 12,
          "Document": "carbs_sugars_fiber.html",
          "NutritionItemID": 5,
          "NutritionItemName": "Sugars",
          "Predriscriptor": "",
          "Quantity": 2,
          "Unit": "g         "
        },
        {
          "DisplayOrder": 13,
          "Document": null,
          "NutritionItemID": 6,
          "NutritionItemName": "Protein",
          "Predriscriptor": "",
          "Quantity": 24,
          "Unit": "g         "
        },
        {
          "DisplayOrder": 14,
          "Document": null,
          "NutritionItemID": 10,
          "NutritionItemName": "Vitamin A",
          "Predriscriptor": "",
          "Quantity": 4,
          "Unit": "%DV       "
        },
        {
          "DisplayOrder": 15,
          "Document": null,
          "NutritionItemID": 11,
          "NutritionItemName": "Vitamin C",
          "Predriscriptor": "",
          "Quantity": 6,
          "Unit": "%DV       "
        },
        {
          "DisplayOrder": 16,
          "Document": "dairy_and_calcium.html",
          "NutritionItemID": 12,
          "NutritionItemName": "Calcium",
          "Predriscriptor": "",
          "Quantity": 2,
          "Unit": "%DV       "
        },
        {
          "DisplayOrder": 17,
          "Document": null,
          "NutritionItemID": 13,
          "NutritionItemName": "Iron",
          "Predriscriptor": "",
          "Quantity": 4,
          "Unit": "%DV       "
        }
      ],
      "NutritionServingText": " ",
      "PrepStepImage": null,
      "PreparationDescription": "Mix oil, seasoning and hot sauce; pour over fish in shallow dish.  Turn to evenly coat.  Refrigerate 30 min. to marinate.$Meanwhile, combine tomatoes, cucumbers, onions and parsley in medium bowl.  Mix mayo and sour cream until blended.  Add to vegetable mixture; mix lightly. Refrigerate until ready to serve.$Heat greased grill to medium-high heat.  Remove fish from marinade; discard marinade.  Grill fish 3 min. on each side or until fish flakes easily with fork.  Serve with mayo mixture.",
      "PreparationPreText": "",
      "PreparationSteps": [
        {
          "Description": "Mix oil, seasoning and hot sauce; pour over fish in shallow dish.  Turn to evenly coat.  Refrigerate 30 min. to marinate.",
          "PreparationStepImage": {
            "PictureFormats": [],
            "author": null,
            "id": null,
            "imageType": null,
            "mimeType": null,
            "publicationDate": null,
            "status": null,
            "title": null,
            "type": null
          },
          "Sequence": 1
        },
        {
          "Description": "Meanwhile, combine tomatoes, cucumbers, onions and parsley in medium bowl.  Mix mayo and sour cream until blended.  Add to vegetable mixture; mix lightly. Refrigerate until ready to serve.",
          "PreparationStepImage": {
            "PictureFormats": [],
            "author": null,
            "id": null,
            "imageType": null,
            "mimeType": null,
            "publicationDate": null,
            "status": null,
            "title": null,
            "type": null
          },
          "Sequence": 2
        },
        {
          "Description": "Heat greased grill to medium-high heat.  Remove fish from marinade; discard marinade.  Grill fish 3 min. on each side or until fish flakes easily with fork.  Serve with mayo mixture.",
          "PreparationStepImage": {
            "PictureFormats": [],
            "author": null,
            "id": null,
            "imageType": null,
            "mimeType": null,
            "publicationDate": null,
            "status": null,
            "title": null,
            "type": null
          },
          "Sequence": 3
        }
      ],
      "PreparationTime": 20,
      "Promotion": null,
      "Ratings": {
        "TotalCount": 0,
        "PageCount": 10,
        "PageNo": 1,
        "Rating": []
      },
      "RecipeDisplayFormatId": 5,
      "RecipeId": 201523,
      "RecipeName": "Spicy Grilled Tilapia with Garden Remoulade",
      "RecipeType": 0,
      "RelatedData": {
        "RelatedBrands": null,
        "RelatedProducts": null,
        "RelatedRecipes": {
          "DefaultTopCount": 5,
          "Recipe": [
            {
              "AverageRating": 5,
              "HasVideo": false,
              "IsHealthyLiving": true,
              "NumberOfRatings": 2,
              "PhotoName": "118541.jpg",
              "PhotoUrl": "http://assets.kraftfoods.com/recipe_images/opendeploy/118541.jpg",
              "RecipeId": 118541,
              "RecipeName": "Grilled Tilapia with Chimichurri Mayo",
              "SEOName": "grilled-tilapia-chimichurri-mayo-118541",
              "ThumbnailPhoto": null
            },
            {
              "AverageRating": 5,
              "HasVideo": false,
              "IsHealthyLiving": false,
              "NumberOfRatings": 1,
              "PhotoName": "Grilled-Garden-Sandwich-45446.jpg",
              "PhotoUrl": "http://assets.kraftfoods.com/recipe_images/opendeploy/Grilled-Garden-Sandwich-45446.jpg",
              "RecipeId": 144399,
              "RecipeName": "Grilled Garden Sandwich",
              "SEOName": "grilled-garden-sandwich-144399",
              "ThumbnailPhoto": null
            },
            {
              "AverageRating": 4,
              "HasVideo": false,
              "IsHealthyLiving": false,
              "NumberOfRatings": 3,
              "PhotoName": "Garden-Fresh-Grilled-Cheese-61907.jpg",
              "PhotoUrl": "http://assets.kraftfoods.com/recipe_images/opendeploy/Garden-Fresh-Grilled-Cheese-61907.jpg",
              "RecipeId": 130448,
              "RecipeName": "Garden Fresh Grilled Cheese",
              "SEOName": "garden-fresh-grilled-cheese-130448",
              "ThumbnailPhoto": null
            },
            {
              "AverageRating": 5,
              "HasVideo": false,
              "IsHealthyLiving": true,
              "NumberOfRatings": 9,
              "PhotoName": "124525.jpg",
              "PhotoUrl": "http://assets.kraftfoods.com/recipe_images/opendeploy/124525.jpg",
              "RecipeId": 124525,
              "RecipeName": "Grilled Garden Salad",
              "SEOName": "grilled-garden-salad-124525",
              "ThumbnailPhoto": null
            },
            {
              "AverageRating": 4,
              "HasVideo": false,
              "IsHealthyLiving": false,
              "NumberOfRatings": 2,
              "PhotoName": "Garden-Vegetable-Grill-Sandwich-45446.jpg",
              "PhotoUrl": "http://assets.kraftfoods.com/recipe_images/opendeploy/Garden-Vegetable-Grill-Sandwich-45446.jpg",
              "RecipeId": 111045,
              "RecipeName": "Garden Vegetable Grilled Sandwich",
              "SEOName": "garden-vegetable-grilled-sandwich-111045",
              "ThumbnailPhoto": null
            }
          ],
          "TotalCount": 1035
        }
      },
      "RiseIngredients": [],
      "RiseTaxonomy": [],
      "Riserecipe": [
        {
          "GRIN": 566193,
          "RecipeId": 201523,
          "RecipeIndustrySector": "Retail",
          "RecipeType": "Internal"
        }
      ],
      "RomanceText": "Cook up something Cajun today using our Spicy Grilled Tilapia with Garden Remoulade recipe. Top freshly grilled filets with a spicy, creamy, tasty blend.",
      "SEOName": "spicy-grilled-tilapia-garden-remoulade-201523",
      "Tips": [
        {
          "RecipeId": 201523,
          "Sequence": 10,
          "TipDescription": "Prepare using BREAKSTONE'S Reduced Fat or KNUDSEN Light Sour Cream.",
          "TipID": 1,
          "TipName": "Substitute"
        },
        {
          "RecipeId": 201523,
          "Sequence": 20,
          "TipDescription": "Prepare using catfish fillets.",
          "TipID": 2,
          "TipName": "Substitute"
        }
      ],
      "TotalTime": 50,
      "TradeMarkInfo": null,
      "Video": [],
      "Yield": "8 servings"
    }
  ]
}