{
  "Metadata": {
    "PageCount": 1,
    "PageNo": 0,
    "TotalCount": 0
  },
  "Recipes": [
    {
      "AdServingKeywords": "Entree,Sandwich,Bacon,Beef,Blue Cheese,Cream Cheese,Dairy,Ground Beef,Meat,Onion,Tomato,Vegetables,Grilled,Easy,Summer,Dinner,Lunch,Burger,All Seasons,Fathers Day,Athenos,Oscar Mayer,Philadelphia,Creamy",
      "AlternateLanguageRecipes": [],
      "Assets": [
        {
          "PictureFormats": [
            {
              "rendition": "290x194",
              "url": "http://assets.kraftfoods.com/recipe_images/opendeploy/133633_290x194.jpg"
            },
            {
              "rendition": "600x250",
              "url": "http://assets.kraftfoods.com/recipe_images/opendeploy/133633_600x250.jpg"
            },
            {
              "rendition": "640x428",
              "url": "http://assets.kraftfoods.com/recipe_images/opendeploy/133633_640x428.jpg"
            }
          ],
          "author": "BulKUpload",
          "id": "2",
          "imageType": "Primary",
          "mimeType": "image/jpeg",
          "publicationDate": null,
          "status": "1",
          "title": "133633",
          "type": "image"
        },
        {
          "PictureFormats": [
            {
              "rendition": "140x90",
              "url": "http://assets.kraftfoods.com/recipe_images/opendeploy/133633_KRL_K61648V2_OR1_H_140x90.jpg"
            },
            {
              "rendition": "300x250",
              "url": "http://assets.kraftfoods.com/recipe_images/opendeploy/133633_KRL_K61648V2_OR1_H_300x250.jpg"
            },
            {
              "rendition": "960x300",
              "url": "http://assets.kraftfoods.com/recipe_images/opendeploy/133633_KRL_K61648V2_OR1_H_960x300.jpg"
            }
          ],
          "author": null,
          "id": "2",
          "imageType": "Primary",
          "mimeType": "image/jpeg",
          "publicationDate": null,
          "status": "1",
          "title": "133633_KRL_K61648V2_OR1_H",
          "type": "image"
        },
        {
          "PictureFormats": [
            {
              "rendition": "300x200",
              "url": "http://assets.kraftfoods.com/recipe_images/133633.jpg"
            },
            {
              "rendition": "300x200",
              "url": "http://assets.kraftfoods.com/recipe_images/133633.jpg"
            }
          ],
          "author": "BulKUpload",
          "id": "1",
          "imageType": "LANDSCAPE",
          "mimeType": "image/jpeg",
          "publicationDate": null,
          "status": "1",
          "title": "133633.jpg",
          "type": "image"
        }
      ],
      "AverageRating": 5,
      "BrandId": 1,
      "Branding": null,
      "CSSSkins": null,
      "CarbCounter": null,
      "Categories": [
        {
          "CategoryID": 11,
          "CategoryName": "Primary",
          "CategoryRank": 0,
          "SubCategoryID": 105,
          "SubCategoryName": "Sandwiches",
          "SubCategoryRank": 80
        },
        {
          "CategoryID": 14,
          "CategoryName": "Soup/Sandwiches",
          "CategoryRank": 14,
          "SubCategoryID": 164,
          "SubCategoryName": "Hamburgers",
          "SubCategoryRank": 50
        },
        {
          "CategoryID": 751,
          "CategoryName": "Breads, Sandwiches, Wraps & Burgers",
          "CategoryRank": 5,
          "SubCategoryID": 2532,
          "SubCategoryName": "Toasted / Grilled / Cooked",
          "SubCategoryRank": 1
        },
        {
          "CategoryID": 751,
          "CategoryName": "Breads, Sandwiches, Wraps & Burgers",
          "CategoryRank": 5,
          "SubCategoryID": 2533,
          "SubCategoryName": "Specialty",
          "SubCategoryRank": 1
        },
        {
          "CategoryID": 1764,
          "CategoryName": "Philly Dinner",
          "CategoryRank": 0,
          "SubCategoryID": 16866,
          "SubCategoryName": "Spread Cream Cheese",
          "SubCategoryRank": 0
        },
        {
          "CategoryID": 1764,
          "CategoryName": "Philly Dinner",
          "CategoryRank": 0,
          "SubCategoryID": 16869,
          "SubCategoryName": "Use for All",
          "SubCategoryRank": 0
        }
      ],
      "Classifications": [],
      "ComplimentaryRecipes": null,
      "CookingMethod": null,
      "Copyright": null,
      "Courses": [
        "Sandwiches"
      ],
      "DietExchange": null,
      "DishDetails": [
        {
          "Text": "ground beef recipes",
          "Url": "/recipes/dinner/ground-beef-recipes/main.aspx"
        },
        {
          "Text": "top 10 beef recipes",
          "Url": "/recipes/dinner/top-10/beef-recipes/main.aspx"
        },
        {
          "Text": "1 bag 5 dinners",
          "Url": "/recipes/dinner/1Bag5Dinners/1bag5dinnerschickenbeef.aspx"
        }
      ],
      "EndDate": "/Date(-62135575200000-0600)/",
      "HasVideo": false,
      "Ingredients": [
        {
          "FullMeasure": "1 lb.",
          "FullWeight": "",
          "IngredientGridHeaders": null,
          "IngredientID": 20536,
          "IngredientName": "lean ground beef",
          "IngredientStep": 10,
          "LanguageId": 0,
          "PostPreparation": "",
          "PrePreparation": "",
          "QuantityNum": 1,
          "QuantityText": "1",
          "QuantityUnit": "lb.",
          "RecipeIngredientID": 6478051,
          "TrialMeasure": "",
          "TrialWeight": ""
        },
        {
          "FullMeasure": "1/2 cup",
          "FullWeight": "",
          "IngredientGridHeaders": null,
          "IngredientID": 5913,
          "IngredientName": "PHILADELPHIA Cream Cheese Spread",
          "IngredientStep": 20,
          "LanguageId": 0,
          "PostPreparation": "",
          "PrePreparation": "(1/2 of 8-oz. tub)",
          "QuantityNum": 0,
          "QuantityText": "1/2",
          "QuantityUnit": "cup",
          "RecipeIngredientID": 6478052,
          "TrialMeasure": "",
          "TrialWeight": ""
        },
        {
          "FullMeasure": "2 tsp.",
          "FullWeight": "",
          "IngredientGridHeaders": null,
          "IngredientID": 1345,
          "IngredientName": "milk",
          "IngredientStep": 30,
          "LanguageId": 0,
          "PostPreparation": "",
          "PrePreparation": "",
          "QuantityNum": 2,
          "QuantityText": "2",
          "QuantityUnit": "tsp.",
          "RecipeIngredientID": 6478053,
          "TrialMeasure": "",
          "TrialWeight": ""
        },
        {
          "FullMeasure": "2 Tbsp.",
          "FullWeight": "",
          "IngredientGridHeaders": null,
          "IngredientID": 410,
          "IngredientName": "ATHENOS Crumbled Blue Cheese",
          "IngredientStep": 40,
          "LanguageId": 0,
          "PostPreparation": "",
          "PrePreparation": "",
          "QuantityNum": 2,
          "QuantityText": "2",
          "QuantityUnit": "Tbsp.",
          "RecipeIngredientID": 6478050,
          "TrialMeasure": "",
          "TrialWeight": ""
        },
        {
          "FullMeasure": "4",
          "FullWeight": "",
          "IngredientGridHeaders": null,
          "IngredientID": 3421,
          "IngredientName": "kaiser roll",
          "IngredientStep": 50,
          "LanguageId": 0,
          "PostPreparation": "s, split",
          "PrePreparation": "",
          "QuantityNum": 4,
          "QuantityText": "4",
          "QuantityUnit": "",
          "RecipeIngredientID": 6478048,
          "TrialMeasure": "",
          "TrialWeight": ""
        },
        {
          "FullMeasure": "1",
          "FullWeight": "",
          "IngredientGridHeaders": null,
          "IngredientID": 1702,
          "IngredientName": "tomato",
          "IngredientStep": 60,
          "LanguageId": 0,
          "PostPreparation": ", cut into 4 slices",
          "PrePreparation": "",
          "QuantityNum": 1,
          "QuantityText": "1",
          "QuantityUnit": "",
          "RecipeIngredientID": 6478049,
          "TrialMeasure": "",
          "TrialWeight": ""
        },
        {
          "FullMeasure": "4",
          "FullWeight": "",
          "IngredientGridHeaders": null,
          "IngredientID": 1529,
          "IngredientName": "red onion",
          "IngredientStep": 70,
          "LanguageId": 0,
          "PostPreparation": " slices",
          "PrePreparation": "thin ",
          "QuantityNum": 4,
          "QuantityText": "4",
          "QuantityUnit": "",
          "RecipeIngredientID": 6478047,
          "TrialMeasure": "",
          "TrialWeight": ""
        },
        {
          "FullMeasure": "4 slices",
          "FullWeight": "",
          "IngredientGridHeaders": null,
          "IngredientID": 578,
          "IngredientName": "OSCAR MAYER Bacon",
          "IngredientStep": 80,
          "LanguageId": 0,
          "PostPreparation": ", cooked",
          "PrePreparation": "",
          "QuantityNum": 4,
          "QuantityText": "4",
          "QuantityUnit": "slices",
          "RecipeIngredientID": 6478054,
          "TrialMeasure": "",
          "TrialWeight": ""
        }
      ],
      "IsHealthyLiving": false,
      "KRLId": "568332",
      "KeyIngredients": [
        "Bacon",
        "Beef",
        "Bread",
        "Cheese",
        "Cream Cheese",
        "Dairy",
        "Fruit",
        "Meat",
        "Onion",
        "Tomato",
        "Vegetables"
      ],
      "Keywords": "onions,OSCAR MAYER Bacon,pork,rolls,bacon,beef,blue cheese,cheese,cream cheese,ground beef,hamburger meat,meat,milk,tomatoes,PHILADELPHIA Cream Cheese Spre,Entree,Sandwich,Grilled,Easy,Summer,Dinner,Lunch,All Seasons,Fathers Day,Creamy",
      "LanguageId": 1,
      "LifeStyles": [],
      "NumberOfIngredients": 8,
      "NumberOfRatings": 3,
      "NumberOfRatingsWithComments": "3",
      "NumberOfServings": "4 servings",
      "NumberOfTrialServings": "",
      "NutritionBonus": null,
      "NutritionExchangeItemId": 0,
      "NutritionGridItems": null,
      "NutritionItems": [
        {
          "DisplayOrder": 1,
          "Document": null,
          "NutritionItemID": 3,
          "NutritionItemName": "Calories",
          "Predriscriptor": "",
          "Quantity": 480,
          "Unit": "          "
        },
        {
          "DisplayOrder": 2,
          "Document": "fat_cholesterol.html",
          "NutritionItemID": 4,
          "NutritionItemName": "Total fat",
          "Predriscriptor": "",
          "Quantity": 23,
          "Unit": "g         "
        },
        {
          "DisplayOrder": 3,
          "Document": "fat_cholesterol.html",
          "NutritionItemID": 9,
          "NutritionItemName": "Saturated fat",
          "Predriscriptor": "",
          "Quantity": 10,
          "Unit": "g         "
        },
        {
          "DisplayOrder": 7,
          "Document": "fat_cholesterol.html",
          "NutritionItemID": 2,
          "NutritionItemName": "Cholesterol",
          "Predriscriptor": "",
          "Quantity": 100,
          "Unit": "mg        "
        },
        {
          "DisplayOrder": 8,
          "Document": "sodium.html",
          "NutritionItemID": 8,
          "NutritionItemName": "Sodium",
          "Predriscriptor": "",
          "Quantity": 700,
          "Unit": "mg        "
        },
        {
          "DisplayOrder": 10,
          "Document": "carbs_sugars_fiber.html",
          "NutritionItemID": 1,
          "NutritionItemName": "Carbohydrate",
          "Predriscriptor": "",
          "Quantity": 34,
          "Unit": "g         "
        },
        {
          "DisplayOrder": 11,
          "Document": "carbs_sugars_fiber.html",
          "NutritionItemID": 7,
          "NutritionItemName": "Dietary fiber",
          "Predriscriptor": "",
          "Quantity": 2,
          "Unit": "g         "
        },
        {
          "DisplayOrder": 12,
          "Document": "carbs_sugars_fiber.html",
          "NutritionItemID": 5,
          "NutritionItemName": "Sugars",
          "Predriscriptor": "",
          "Quantity": 2,
          "Unit": "g         "
        },
        {
          "DisplayOrder": 13,
          "Document": null,
          "NutritionItemID": 6,
          "NutritionItemName": "Protein",
          "Predriscriptor": "",
          "Quantity": 32,
          "Unit": "g         "
        },
        {
          "DisplayOrder": 14,
          "Document": null,
          "NutritionItemID": 10,
          "NutritionItemName": "Vitamin A",
          "Predriscriptor": "",
          "Quantity": 15,
          "Unit": "%DV       "
        },
        {
          "DisplayOrder": 15,
          "Document": null,
          "NutritionItemID": 11,
          "NutritionItemName": "Vitamin C",
          "Predriscriptor": "",
          "Quantity": 8,
          "Unit": "%DV       "
        },
        {
          "DisplayOrder": 16,
          "Document": "dairy_and_calcium.html",
          "NutritionItemID": 12,
          "NutritionItemName": "Calcium",
          "Predriscriptor": "",
          "Quantity": 15,
          "Unit": "%DV       "
        },
        {
          "DisplayOrder": 17,
          "Document": null,
          "NutritionItemID": 13,
          "NutritionItemName": "Iron",
          "Predriscriptor": "",
          "Quantity": 25,
          "Unit": "%DV       "
        }
      ],
      "NutritionServingText": " ",
      "PrepStepImage": null,
      "PreparationDescription": "Shape ground beef into 4 (1/2-inch-thick) patties.$Grill 5 to 6 min. on each side or until done (160°F).  Meanwhile, mix cream cheese spread, milk and blue cheese until blended.  $Spread cream cheese mixture onto cut sides of rolls.  Fill with vegetables, burgers and bacon. ",
      "PreparationPreText": "Heat grill to medium heat.",
      "PreparationSteps": [
        {
          "Description": "Shape ground beef into 4 (1/2-inch-thick) patties.",
          "PreparationStepImage": {
            "PictureFormats": [],
            "author": null,
            "id": null,
            "imageType": null,
            "mimeType": null,
            "publicationDate": null,
            "status": null,
            "title": null,
            "type": null
          },
          "Sequence": 1
        },
        {
          "Description": "Grill 5 to 6 min. on each side or until done (160°F).  Meanwhile, mix cream cheese spread, milk and blue cheese until blended.  ",
          "PreparationStepImage": {
            "PictureFormats": [],
            "author": null,
            "id": null,
            "imageType": null,
            "mimeType": null,
            "publicationDate": null,
            "status": null,
            "title": null,
            "type": null
          },
          "Sequence": 2
        },
        {
          "Description": "Spread cream cheese mixture onto cut sides of rolls.  Fill with vegetables, burgers and bacon. ",
          "PreparationStepImage": {
            "PictureFormats": [],
            "author": null,
            "id": null,
            "imageType": null,
            "mimeType": null,
            "publicationDate": null,
            "status": null,
            "title": null,
            "type": null
          },
          "Sequence": 3
        }
      ],
      "PreparationTime": 25,
      "Promotion": null,
      "Ratings": {
        "TotalCount": 3,
        "PageCount": 10,
        "PageNo": 1,
        "Rating": [
          {
            "Comment": "This was delicious and easy to make, my husband and I really enjoyed it. Our toddler even liked the burger, although we substituted ketchup for the blue cheese mixture! I read the reviews ahead of time and added extra bleu cheese since we love the taste of it.",
            "DisplayName": true,
            "RatingValue": 5,
            "SubmitDate": "/Date(1347234258000-0500)/",
            "UpdatedDate": "/Date(1347234258000-0500)/",
            "UserName": "rinayjulien2010"
          },
          {
            "Comment": "Soooo good! We actually added more bleu cheese for a tangier taste.",
            "DisplayName": true,
            "RatingValue": 5,
            "SubmitDate": "/Date(1346438620000-0500)/",
            "UpdatedDate": "/Date(1346438620000-0500)/",
            "UserName": "suiteums"
          },
          {
            "Comment": "My family loves this burger. I served it with regular potato chips and zesty dill pickle spears. The flavor is so intense! Nothing boring about this burger! \r\nIf the spread taste is a little strong for someone, try using less spread on half the bun and mayonnaise on the other half. ",
            "DisplayName": true,
            "RatingValue": 5,
            "SubmitDate": "/Date(1339861695000-0500)/",
            "UpdatedDate": "/Date(1339861695000-0500)/",
            "UserName": "yarberry"
          }
        ]
      },
      "RecipeDisplayFormatId": 5,
      "RecipeId": 133633,
      "RecipeName": "Bacon Blue Cheese Burgers",
      "RecipeType": 0,
      "RelatedData": {
        "RelatedBrands": null,
        "RelatedProducts": null,
        "RelatedRecipes": {
          "DefaultTopCount": 5,
          "Recipe": [
            {
              "AverageRating": 4.7,
              "HasVideo": false,
              "IsHealthyLiving": true,
              "NumberOfRatings": 3,
              "PhotoName": "73986.jpg",
              "PhotoUrl": "http://assets.kraftfoods.com/recipe_images/opendeploy/73986.jpg",
              "RecipeId": 73986,
              "RecipeName": "BOCA Blue Cheese Burger",
              "SEOName": "boca-blue-cheese-burger-73986",
              "ThumbnailPhoto": null
            },
            {
              "AverageRating": 4.8,
              "HasVideo": false,
              "IsHealthyLiving": false,
              "NumberOfRatings": 13,
              "PhotoName": "Blue_Cheese_Burger_with_Grilled_Pineapple.jpg",
              "PhotoUrl": "http://assets.kraftfoods.com/recipe_images/opendeploy/Blue_Cheese_Burger_with_Grilled_Pineapple.jpg",
              "RecipeId": 61863,
              "RecipeName": "Blue Cheese Burgers with Grilled Pineapple",
              "SEOName": "blue-cheese-burgers-grilled-pineapple-61863",
              "ThumbnailPhoto": null
            },
            {
              "AverageRating": 4.5,
              "HasVideo": false,
              "IsHealthyLiving": false,
              "NumberOfRatings": 6,
              "PhotoName": "165370.jpg",
              "PhotoUrl": "http://assets.kraftfoods.com/recipe_images/opendeploy/165370.jpg",
              "RecipeId": 165370,
              "RecipeName": "Buffalo Chicken Burgers",
              "SEOName": "buffalo-chicken-burgers-165370",
              "ThumbnailPhoto": null
            },
            {
              "AverageRating": 5,
              "HasVideo": false,
              "IsHealthyLiving": false,
              "NumberOfRatings": 4,
              "PhotoName": "136315.jpg",
              "PhotoUrl": "http://assets.kraftfoods.com/recipe_images/opendeploy/136315.jpg",
              "RecipeId": 136315,
              "RecipeName": "Wedge Salad with Blue Cheese and Bacon",
              "SEOName": "wedge-salad-blue-cheese-bacon-136315",
              "ThumbnailPhoto": null
            },
            {
              "AverageRating": 4.4,
              "HasVideo": false,
              "IsHealthyLiving": false,
              "NumberOfRatings": 22,
              "PhotoName": "Blue_Cheese_and_Bacon_Dip.jpg",
              "PhotoUrl": "http://assets.kraftfoods.com/recipe_images/opendeploy/Blue_Cheese_and_Bacon_Dip.jpg",
              "RecipeId": 56497,
              "RecipeName": "Blue Cheese and Bacon Dip",
              "SEOName": "blue-cheese-bacon-dip-56497",
              "ThumbnailPhoto": null
            }
          ],
          "TotalCount": 4616
        }
      },
      "RiseIngredients": [],
      "RiseTaxonomy": [],
      "Riserecipe": [
        {
          "GRIN": 568332,
          "RecipeId": 133633,
          "RecipeIndustrySector": "Retail",
          "RecipeType": "Internal"
        }
      ],
      "RomanceText": "Secure your title as Master Burger Maker with our delicious Bacon Blue Cheese Burgers Recipe. There's a secret ingredient in our Bacon Blue Cheese Burgers.",
      "SEOName": "bacon-blue-cheese-burgers-133633",
      "Tips": [
        {
          "RecipeId": 133633,
          "Sequence": 10,
          "TipDescription": "Grill cut sides of rolls before spreading with cream cheese mixture and filling as directed.",
          "TipID": 1,
          "TipName": "Special Extra"
        },
        {
          "RecipeId": 133633,
          "Sequence": 20,
          "TipDescription": "Serve with a piece of fruit.",
          "TipID": 2,
          "TipName": "Serving Suggestion"
        }
      ],
      "TotalTime": 25,
      "TradeMarkInfo": null,
      "Video": [],
      "Yield": "4 servings"
    }
  ]
}