{
  "Metadata": {
    "PageCount": 1,
    "PageNo": 0,
    "TotalCount": 0
  },
  "Recipes": [
    {
      "AdServingKeywords": "Appetizer,Berries,Celery,Cranberry,Cream Cheese,Fruit,Vegetables,Easy,Nutrition and Well-Being,All Seasons,Creamy,Philadelphia,Quick and Easy",
      "AlternateLanguageRecipes": [],
      "Assets": [
        {
          "PictureFormats": [
            {
              "rendition": "300x200",
              "url": "http://assets.kraftfoods.com/recipe_images/Creamy_Cranberry-Stuffed_Celery.jpg"
            }
          ],
          "author": null,
          "id": "0",
          "imageType": "LANDSCAPE",
          "mimeType": null,
          "publicationDate": null,
          "status": "1",
          "title": "Creamy_Cranberry-Stuffed_Celery.jpg",
          "type": "image"
        }
      ],
      "AverageRating": 4.3,
      "BrandId": 1,
      "Branding": null,
      "CSSSkins": null,
      "CarbCounter": "",
      "Categories": [
        {
          "CategoryID": 6,
          "CategoryName": "Appetizers/Snacks",
          "CategoryRank": 1,
          "SubCategoryID": 24,
          "SubCategoryName": "Other Cold Appetizers",
          "SubCategoryRank": 80
        },
        {
          "CategoryID": 11,
          "CategoryName": "Primary",
          "CategoryRank": 0,
          "SubCategoryID": 96,
          "SubCategoryName": "Appetizers & Snacks",
          "SubCategoryRank": 10
        },
        {
          "CategoryID": 748,
          "CategoryName": "Finger Food, Dips & Appetisers",
          "CategoryRank": 2,
          "SubCategoryID": 2524,
          "SubCategoryName": "Cold",
          "SubCategoryRank": 1
        },
        {
          "CategoryID": 1761,
          "CategoryName": "Philly Appetizers",
          "CategoryRank": 0,
          "SubCategoryID": 16849,
          "SubCategoryName": "Spread Cream Cheese",
          "SubCategoryRank": 0
        },
        {
          "CategoryID": 1761,
          "CategoryName": "Philly Appetizers",
          "CategoryRank": 0,
          "SubCategoryID": 16853,
          "SubCategoryName": "Use for All",
          "SubCategoryRank": 0
        },
        {
          "CategoryID": 1767,
          "CategoryName": "Philly Healthy Living",
          "CategoryRank": 0,
          "SubCategoryID": 16882,
          "SubCategoryName": "Spread Cream Cheese",
          "SubCategoryRank": 0
        },
        {
          "CategoryID": 1767,
          "CategoryName": "Philly Healthy Living",
          "CategoryRank": 0,
          "SubCategoryID": 16886,
          "SubCategoryName": "Use for All",
          "SubCategoryRank": 0
        }
      ],
      "Classifications": [
        {
          "ClassficationId": 14,
          "ClassificationName": "Generally Nutritious"
        }
      ],
      "ComplimentaryRecipes": null,
      "CookingMethod": null,
      "Copyright": null,
      "Courses": [
        "Appetizers"
      ],
      "DietExchange": "1 Starch,1 Fat",
      "DishDetails": [
        {
          "Text": "appetizers",
          "Url": "/recipes/appetizers/main.aspx"
        },
        {
          "Text": "cold appetizers",
          "Url": "/recipes/appetizers/coldappetizers.aspx"
        },
        {
          "Text": "cheese plates",
          "Url": "/recipes/appetizers/entertainingcheeseplates.aspx"
        },
        {
          "Text": "hot appetizers",
          "Url": "/recipes/appetizers/hotappetizers.aspx"
        },
        {
          "Text": "quick appetizers",
          "Url": "/recipes/appetizers/quick.aspx"
        },
        {
          "Text": "salsa recipes",
          "Url": "/recipes/appetizers/salsa-recipes/main.aspx"
        },
        {
          "Text": "seafood appetizers",
          "Url": "/recipes/dinner/seafood/appetizers/main.aspx"
        },
        {
          "Text": "dip recipes",
          "Url": "/recipes/appetizers/dip-recipes/main.aspx"
        }
      ],
      "EndDate": "/Date(-62135575200000-0600)/",
      "HasVideo": false,
      "Ingredients": [
        {
          "FullMeasure": "1/2 cup",
          "FullWeight": "",
          "IngredientGridHeaders": null,
          "IngredientID": 19888,
          "IngredientName": "PHILADELPHIA 1/3 Less Fat than Cream Cheese",
          "IngredientStep": 10,
          "LanguageId": 0,
          "PostPreparation": "",
          "PrePreparation": "",
          "QuantityNum": 0,
          "QuantityText": "1/2",
          "QuantityUnit": "cup",
          "RecipeIngredientID": 5182350,
          "TrialMeasure": "",
          "TrialWeight": ""
        },
        {
          "FullMeasure": "1/3 cup",
          "FullWeight": "",
          "IngredientGridHeaders": null,
          "IngredientID": 1045,
          "IngredientName": "dried cranberries",
          "IngredientStep": 20,
          "LanguageId": 0,
          "PostPreparation": "",
          "PrePreparation": "",
          "QuantityNum": 0,
          "QuantityText": "1/3",
          "QuantityUnit": "cup",
          "RecipeIngredientID": 5182352,
          "TrialMeasure": "",
          "TrialWeight": ""
        },
        {
          "FullMeasure": "4 stalks",
          "FullWeight": "",
          "IngredientGridHeaders": null,
          "IngredientID": 889,
          "IngredientName": "celery",
          "IngredientStep": 30,
          "LanguageId": 0,
          "PostPreparation": "",
          "PrePreparation": "",
          "QuantityNum": 4,
          "QuantityText": "4",
          "QuantityUnit": "stalks",
          "RecipeIngredientID": 5182351,
          "TrialMeasure": "",
          "TrialWeight": ""
        }
      ],
      "IsHealthyLiving": true,
      "KRLId": "542859",
      "KeyIngredients": [
        "Berries",
        "Celery",
        "Cranberry",
        "Cream Cheese",
        "Fruit",
        "Vegetables"
      ],
      "Keywords": "PHILADELPHIA Cream Cheese,celery,cream cheese,dried fruit,PHILADELPHIA Reduced Fat,cream cheese-reduced fat,cranberries-dried,PHILADELPHIA Cream Cheese Spre,Appetizer,Easy,Nutrition and Well-Being,All Seasons,Quick and Easy,Creamy",
      "LanguageId": 1,
      "LifeStyles": [
        "Generally Nutritious"
      ],
      "NumberOfIngredients": 3,
      "NumberOfRatings": 38,
      "NumberOfRatingsWithComments": "29",
      "NumberOfServings": "4 servings, 4 pieces each",
      "NumberOfTrialServings": "",
      "NutritionBonus": "These crunchy stuffed celery bites, made with better-for-you ingredients, can be part of your healthful eating plan!  ",
      "NutritionExchangeItemId": 2,
      "NutritionGridItems": null,
      "NutritionItems": [
        {
          "DisplayOrder": 1,
          "Document": null,
          "NutritionItemID": 3,
          "NutritionItemName": "Calories",
          "Predriscriptor": "",
          "Quantity": 110,
          "Unit": "          "
        },
        {
          "DisplayOrder": 2,
          "Document": "fat_cholesterol.html",
          "NutritionItemID": 4,
          "NutritionItemName": "Total fat",
          "Predriscriptor": "",
          "Quantity": 6,
          "Unit": "g         "
        },
        {
          "DisplayOrder": 3,
          "Document": "fat_cholesterol.html",
          "NutritionItemID": 9,
          "NutritionItemName": "Saturated fat",
          "Predriscriptor": "",
          "Quantity": 3.5,
          "Unit": "g         "
        },
        {
          "DisplayOrder": 7,
          "Document": "fat_cholesterol.html",
          "NutritionItemID": 2,
          "NutritionItemName": "Cholesterol",
          "Predriscriptor": "",
          "Quantity": 20,
          "Unit": "mg        "
        },
        {
          "DisplayOrder": 8,
          "Document": "sodium.html",
          "NutritionItemID": 8,
          "NutritionItemName": "Sodium",
          "Predriscriptor": "",
          "Quantity": 170,
          "Unit": "mg        "
        },
        {
          "DisplayOrder": 10,
          "Document": "carbs_sugars_fiber.html",
          "NutritionItemID": 1,
          "NutritionItemName": "Carbohydrate",
          "Predriscriptor": "",
          "Quantity": 11,
          "Unit": "g         "
        },
        {
          "DisplayOrder": 11,
          "Document": "carbs_sugars_fiber.html",
          "NutritionItemID": 7,
          "NutritionItemName": "Dietary fiber",
          "Predriscriptor": "",
          "Quantity": 1,
          "Unit": "g         "
        },
        {
          "DisplayOrder": 12,
          "Document": "carbs_sugars_fiber.html",
          "NutritionItemID": 5,
          "NutritionItemName": "Sugars",
          "Predriscriptor": "",
          "Quantity": 10,
          "Unit": "g         "
        },
        {
          "DisplayOrder": 13,
          "Document": null,
          "NutritionItemID": 6,
          "NutritionItemName": "Protein",
          "Predriscriptor": "",
          "Quantity": 3,
          "Unit": "g         "
        },
        {
          "DisplayOrder": 14,
          "Document": null,
          "NutritionItemID": 10,
          "NutritionItemName": "Vitamin A",
          "Predriscriptor": "",
          "Quantity": 10,
          "Unit": "%DV       "
        },
        {
          "DisplayOrder": 15,
          "Document": null,
          "NutritionItemID": 11,
          "NutritionItemName": "Vitamin C",
          "Predriscriptor": "",
          "Quantity": 2,
          "Unit": "%DV       "
        },
        {
          "DisplayOrder": 16,
          "Document": "dairy_and_calcium.html",
          "NutritionItemID": 12,
          "NutritionItemName": "Calcium",
          "Predriscriptor": "",
          "Quantity": 6,
          "Unit": "%DV       "
        },
        {
          "DisplayOrder": 17,
          "Document": null,
          "NutritionItemID": 13,
          "NutritionItemName": "Iron",
          "Predriscriptor": "",
          "Quantity": 0,
          "Unit": "%DV       "
        }
      ],
      "NutritionServingText": "",
      "PrepStepImage": null,
      "PreparationDescription": "Mix reduced-fat cream cheese and cranberries.$Press into hollow centers of celery.$Cut each stalk crosswise into 4 pieces.",
      "PreparationPreText": "",
      "PreparationSteps": [
        {
          "Description": "Mix reduced-fat cream cheese and cranberries.",
          "PreparationStepImage": {
            "PictureFormats": [],
            "author": null,
            "id": null,
            "imageType": null,
            "mimeType": null,
            "publicationDate": null,
            "status": null,
            "title": null,
            "type": null
          },
          "Sequence": 1
        },
        {
          "Description": "Press into hollow centers of celery.",
          "PreparationStepImage": {
            "PictureFormats": [],
            "author": null,
            "id": null,
            "imageType": null,
            "mimeType": null,
            "publicationDate": null,
            "status": null,
            "title": null,
            "type": null
          },
          "Sequence": 2
        },
        {
          "Description": "Cut each stalk crosswise into 4 pieces.",
          "PreparationStepImage": {
            "PictureFormats": [],
            "author": null,
            "id": null,
            "imageType": null,
            "mimeType": null,
            "publicationDate": null,
            "status": null,
            "title": null,
            "type": null
          },
          "Sequence": 3
        }
      ],
      "PreparationTime": 5,
      "Promotion": null,
      "Ratings": {
        "TotalCount": 38,
        "PageCount": 10,
        "PageNo": 1,
        "Rating": [
          {
            "Comment": "Easy and Excellent!",
            "DisplayName": true,
            "RatingValue": 5,
            "SubmitDate": "/Date(1348858148000-0500)/",
            "UpdatedDate": "/Date(1348858148000-0500)/",
            "UserName": "tandghill"
          },
          {
            "Comment": "",
            "DisplayName": true,
            "RatingValue": 4,
            "SubmitDate": "/Date(1283529455000-0500)/",
            "UpdatedDate": "/Date(1283529455000-0500)/",
            "UserName": "acpalmer"
          },
          {
            "Comment": "so easy to do and so delicious. always have on the table as a snack.",
            "DisplayName": true,
            "RatingValue": 5,
            "SubmitDate": "/Date(1278457140000-0500)/",
            "UpdatedDate": "/Date(1278457140000-0500)/",
            "UserName": "ageless72"
          },
          {
            "Comment": "very good and different will make again\r\n\r\n\r\n",
            "DisplayName": true,
            "RatingValue": 4,
            "SubmitDate": "/Date(1247801499000-0500)/",
            "UpdatedDate": "/Date(1247801499000-0500)/",
            "UserName": "juanita968"
          },
          {
            "Comment": "Great refreshing taste!",
            "DisplayName": true,
            "RatingValue": 4,
            "SubmitDate": "/Date(1247001654000-0500)/",
            "UpdatedDate": "/Date(1247001654000-0500)/",
            "UserName": "kjnpreacherswife"
          },
          {
            "Comment": "Nice, we liked it!!",
            "DisplayName": true,
            "RatingValue": 4,
            "SubmitDate": "/Date(1244765194000-0500)/",
            "UpdatedDate": "/Date(1244765194000-0500)/",
            "UserName": "PacificBeachJunction"
          },
          {
            "Comment": "This is a fun way to eat celery and made a great picnic appetizer.",
            "DisplayName": true,
            "RatingValue": 4,
            "SubmitDate": "/Date(1244481807000-0500)/",
            "UpdatedDate": "/Date(1244481807000-0500)/",
            "UserName": "ajschueler23"
          },
          {
            "Comment": "",
            "DisplayName": true,
            "RatingValue": 5,
            "SubmitDate": "/Date(1242874896000-0500)/",
            "UpdatedDate": "/Date(1242874896000-0500)/",
            "UserName": "hglaze"
          },
          {
            "Comment": "Made this for Thanksgiving SO EASY AND HUGE HIT!! EVERYONE loved it so much, they asked for it again on Christmas to where I had to write down the recipe for everyone!!!",
            "DisplayName": true,
            "RatingValue": 5,
            "SubmitDate": "/Date(1230139848000-0600)/",
            "UpdatedDate": "/Date(1232037629000-0600)/",
            "UserName": "zowie818"
          },
          {
            "Comment": "",
            "DisplayName": true,
            "RatingValue": 5,
            "SubmitDate": "/Date(1230962532000-0600)/",
            "UpdatedDate": "/Date(1230962532000-0600)/",
            "UserName": "ccctennischick"
          }
        ]
      },
      "RecipeDisplayFormatId": 5,
      "RecipeId": 57020,
      "RecipeName": "Creamy Cranberry-Stuffed Celery",
      "RecipeType": 0,
      "RelatedData": {
        "RelatedBrands": null,
        "RelatedProducts": null,
        "RelatedRecipes": {
          "DefaultTopCount": 5,
          "Recipe": [
            {
              "AverageRating": 4.5,
              "HasVideo": false,
              "IsHealthyLiving": false,
              "NumberOfRatings": 50,
              "PhotoName": "Cheesy_Stuffing_Cups.jpg",
              "PhotoUrl": "http://assets.kraftfoods.com/recipe_images/opendeploy/Cheesy_Stuffing_Cups.jpg",
              "RecipeId": 107779,
              "RecipeName": "Cheesy Stuffing Cups",
              "SEOName": "cheesy-stuffing-cups-107779",
              "ThumbnailPhoto": null
            },
            {
              "AverageRating": 4.6,
              "HasVideo": false,
              "IsHealthyLiving": true,
              "NumberOfRatings": 5,
              "PhotoName": "Pork-Chops-Cranberries-Stuffing-55586.jpg",
              "PhotoUrl": "http://assets.kraftfoods.com/recipe_images/opendeploy/Pork-Chops-Cranberries-Stuffing-55586.jpg",
              "RecipeId": 155693,
              "RecipeName": "Pork Chops with Cranberry Sauce & Stuffing",
              "SEOName": "pork-chops-cranberry-sauce-stuffing-155693",
              "ThumbnailPhoto": null
            },
            {
              "AverageRating": 5,
              "HasVideo": false,
              "IsHealthyLiving": false,
              "NumberOfRatings": 3,
              "PhotoName": "Chorizo-and-Cranberry-Stuffing-55929.jpg",
              "PhotoUrl": "http://assets.kraftfoods.com/recipe_images/opendeploy/Chorizo-and-Cranberry-Stuffing-55929.jpg",
              "RecipeId": 111643,
              "RecipeName": "Chorizo and Cranberry Stuffing",
              "SEOName": "chorizo-cranberry-stuffing-111643",
              "ThumbnailPhoto": null
            },
            {
              "AverageRating": 4.4,
              "HasVideo": false,
              "IsHealthyLiving": true,
              "NumberOfRatings": 92,
              "PhotoName": "107309.jpg",
              "PhotoUrl": "http://assets.kraftfoods.com/recipe_images/opendeploy/107309.jpg",
              "RecipeId": 107309,
              "RecipeName": "Pork Medallions with Cranberry Stuffing",
              "SEOName": "pork-medallions-cranberry-stuffing-107309",
              "ThumbnailPhoto": null
            },
            {
              "AverageRating": 4.4,
              "HasVideo": false,
              "IsHealthyLiving": false,
              "NumberOfRatings": 9,
              "PhotoName": "76189.jpg",
              "PhotoUrl": "http://assets.kraftfoods.com/recipe_images/opendeploy/76189.jpg",
              "RecipeId": 76189,
              "RecipeName": "Toasted Walnut and Cranberry Stuffing",
              "SEOName": "toasted-walnut-cranberry-stuffing-76189",
              "ThumbnailPhoto": null
            }
          ],
          "TotalCount": 1153
        }
      },
      "RiseIngredients": [],
      "RiseTaxonomy": [],
      "Riserecipe": [
        {
          "GRIN": 542859,
          "RecipeId": 57020,
          "RecipeIndustrySector": "Retail",
          "RecipeType": "Internal"
        }
      ],
      "RomanceText": "Celery sticks stuffed with blue cheese are a classic. Serve this tasty riff right alongside: celery sticks stuffed with cream cheese and dried cranberries.",
      "SEOName": "creamy-cranberry-stuffed-celery-57020",
      "Tips": [
        {
          "RecipeId": 57020,
          "Sequence": 10,
          "TipDescription": "Substitute raisins or any chopped dried fruit for the cranberries.",
          "TipID": 1,
          "TipName": "Substitute"
        },
        {
          "RecipeId": 57020,
          "Sequence": 20,
          "TipDescription": "Prepare as directed.  Store in refrigerator up to 2 days.  ",
          "TipID": 2,
          "TipName": "Make Ahead"
        }
      ],
      "TotalTime": 5,
      "TradeMarkInfo": null,
      "Video": [],
      "Yield": "Makes 4 servings, 4 pieces each."
    }
  ]
}