{
  "Metadata": {
    "PageCount": 1,
    "PageNo": 0,
    "TotalCount": 0
  },
  "Recipes": [
    {
      "AdServingKeywords": "Chicken,Fruit,Meat,Nuts,Pasta/Noodles,Peanuts,Peppers,Pineapple,Poultry,Spinach,Vegetables,Entree,Asian,Dinner,Lunch,All Seasons,Kraft Salad Dressing,Planters",
      "AlternateLanguageRecipes": [],
      "Assets": [
        {
          "PictureFormats": [
            {
              "rendition": "640x428",
              "url": "http://assets.kraftfoods.com/recipe_images/opendeploy/166933_640x428.jpg"
            },
            {
              "rendition": "290x194",
              "url": "http://assets.kraftfoods.com/recipe_images/opendeploy/166933_290x194.jpg"
            },
            {
              "rendition": "600x250",
              "url": "http://assets.kraftfoods.com/recipe_images/opendeploy/166933_600x250.jpg"
            },
            {
              "rendition": "640x428",
              "url": "http://assets.kraftfoods.com/recipe_images/opendeploy/166933_640x428.jpg"
            }
          ],
          "author": null,
          "id": "3",
          "imageType": "Primary",
          "mimeType": "image/jpeg",
          "publicationDate": null,
          "status": "1",
          "title": "166933",
          "type": "image"
        },
        {
          "PictureFormats": [
            {
              "rendition": "300x200",
              "url": "http://assets.kraftfoods.com/recipe_images/166933.jpg"
            },
            {
              "rendition": "300x200",
              "url": "http://assets.kraftfoods.com/recipe_images/166933_SF_65331v0E_WP.jpg"
            }
          ],
          "author": null,
          "id": "1",
          "imageType": "LANDSCAPE",
          "mimeType": "image/jpeg",
          "publicationDate": null,
          "status": "1",
          "title": "166933_SF_65331v0E_WP.jpg",
          "type": "image"
        }
      ],
      "AverageRating": 5,
      "BrandId": 1,
      "Branding": null,
      "CSSSkins": null,
      "CarbCounter": null,
      "Categories": [
        {
          "CategoryID": 2,
          "CategoryName": "Poultry Entrees",
          "CategoryRank": 11,
          "SubCategoryID": 383,
          "SubCategoryName": "Salads",
          "SubCategoryRank": 60
        },
        {
          "CategoryID": 9,
          "CategoryName": "Salads/Side Dishes",
          "CategoryRank": 13,
          "SubCategoryID": 171,
          "SubCategoryName": "Main Dish Salads: Chicken",
          "SubCategoryRank": 60
        },
        {
          "CategoryID": 11,
          "CategoryName": "Primary",
          "CategoryRank": 0,
          "SubCategoryID": 97,
          "SubCategoryName": "Entrees",
          "SubCategoryRank": 50
        },
        {
          "CategoryID": 11,
          "CategoryName": "Primary",
          "CategoryRank": 0,
          "SubCategoryID": 98,
          "SubCategoryName": "Salads",
          "SubCategoryRank": 70
        },
        {
          "CategoryID": 752,
          "CategoryName": "Salads",
          "CategoryRank": 6,
          "SubCategoryID": 2534,
          "SubCategoryName": "Main Course",
          "SubCategoryRank": 1
        },
        {
          "CategoryID": 752,
          "CategoryName": "Salads",
          "CategoryRank": 6,
          "SubCategoryID": 2537,
          "SubCategoryName": "Pasta / Rice",
          "SubCategoryRank": 1
        },
        {
          "CategoryID": 752,
          "CategoryName": "Salads",
          "CategoryRank": 6,
          "SubCategoryID": 2538,
          "SubCategoryName": "Potato",
          "SubCategoryRank": 1
        },
        {
          "CategoryID": 756,
          "CategoryName": "Main Meals (Meat / Seafood / Egg)",
          "CategoryRank": 10,
          "SubCategoryID": 2562,
          "SubCategoryName": "Chicken",
          "SubCategoryRank": 1
        }
      ],
      "Classifications": [],
      "ComplimentaryRecipes": [
        {
          "AverageRating": 0,
          "HasVideo": false,
          "IsHealthyLiving": false,
          "NumberOfRatings": 0,
          "PhotoName": null,
          "PhotoUrl": null,
          "RecipeId": 132487,
          "RecipeName": null,
          "SEOName": "pineapple-topped-new-york-cheesecake-132487",
          "ThumbnailPhoto": "132487.jpg"
        }
      ],
      "CookingMethod": null,
      "Copyright": null,
      "Courses": [
        "Main dishes",
        "Salads & sides"
      ],
      "DietExchange": null,
      "DishDetails": [
        {
          "Text": "chicken recipes",
          "Url": "/recipes/dinner/chicken-recipes/main.aspx"
        },
        {
          "Text": "grilled chicken recipes",
          "Url": "/recipes/dinner/chicken-recipes/grilled-chicken/main.aspx"
        },
        {
          "Text": "healthy living chicken recipes",
          "Url": "/recipes/dinner/chicken-recipes/hl/main.aspx"
        },
        {
          "Text": "slow cooker chicken recipes",
          "Url": "/recipes/dinner/chicken-recipes/slow-cooker/main.aspx"
        },
        {
          "Text": "whole chicken recipes",
          "Url": "/recipes/dinner/chicken-recipes/whole-chicken/main.aspx"
        },
        {
          "Text": "chicken breast recipes",
          "Url": "/recipes/dinner/chicken-recipes/chicken-breast/main.aspx"
        },
        {
          "Text": "chicken casseroles",
          "Url": "/recipes/dinner/chicken-recipes/casseroles/main.aspx"
        },
        {
          "Text": "chicken pasta recipes",
          "Url": "/recipes/dinner/chicken-recipes/pasta-dishes/main.aspx"
        },
        {
          "Text": "chicken salad recipes",
          "Url": "/recipes/dinner/chicken-recipes/salads/main.aspx"
        },
        {
          "Text": "chicken stir-fry recipes",
          "Url": "/recipes/dinner/chicken-recipes/stir-fry/main.aspx"
        },
        {
          "Text": "chicken wing recipes",
          "Url": "/recipes/appetizers/chicken-wing-recipes/main.aspx"
        },
        {
          "Text": "baked chicken recipes",
          "Url": "/recipes/dinner/chicken-recipes/baked-chicken/main.aspx"
        },
        {
          "Text": "bbq chicken recipes",
          "Url": "/recipes/holidays-and-entertaining/entertaining/summer/bbq-recipes/bbq-chicken-recipes/main.aspx"
        }
      ],
      "EndDate": "/Date(-62135575200000-0600)/",
      "HasVideo": false,
      "Ingredients": [
        {
          "FullMeasure": "1/4 lb.",
          "FullWeight": "",
          "IngredientGridHeaders": null,
          "IngredientID": 1650,
          "IngredientName": "spaghetti",
          "IngredientStep": 10,
          "LanguageId": 0,
          "PostPreparation": ", uncooked",
          "PrePreparation": " ",
          "QuantityNum": 0,
          "QuantityText": "1/4",
          "QuantityUnit": "lb.",
          "RecipeIngredientID": 5029686,
          "TrialMeasure": "",
          "TrialWeight": ""
        },
        {
          "FullMeasure": "2 cups",
          "FullWeight": "",
          "IngredientGridHeaders": null,
          "IngredientID": 5007,
          "IngredientName": "baby spinach leaves",
          "IngredientStep": 20,
          "LanguageId": 0,
          "PostPreparation": "",
          "PrePreparation": "loosely packed",
          "QuantityNum": 2,
          "QuantityText": "2",
          "QuantityUnit": "cups",
          "RecipeIngredientID": 5029687,
          "TrialMeasure": "",
          "TrialWeight": ""
        },
        {
          "FullMeasure": "1/2 lb.",
          "FullWeight": "",
          "IngredientGridHeaders": null,
          "IngredientID": 825,
          "IngredientName": "boneless skinless chicken breast",
          "IngredientStep": 30,
          "LanguageId": 0,
          "PostPreparation": "s, cooked, sliced",
          "PrePreparation": "",
          "QuantityNum": 0,
          "QuantityText": "1/2",
          "QuantityUnit": "lb.",
          "RecipeIngredientID": 5029685,
          "TrialMeasure": "",
          "TrialWeight": ""
        },
        {
          "FullMeasure": "1",
          "FullWeight": "",
          "IngredientGridHeaders": null,
          "IngredientID": 1523,
          "IngredientName": "red pepper",
          "IngredientStep": 40,
          "LanguageId": 0,
          "PostPreparation": ", cut into thin strips",
          "PrePreparation": "",
          "QuantityNum": 1,
          "QuantityText": "1",
          "QuantityUnit": "",
          "RecipeIngredientID": 5029690,
          "TrialMeasure": "",
          "TrialWeight": ""
        },
        {
          "FullMeasure": "1 can",
          "FullWeight": "",
          "IngredientGridHeaders": null,
          "IngredientID": 3262,
          "IngredientName": "pineapple tidbits",
          "IngredientStep": 50,
          "LanguageId": 0,
          "PostPreparation": ", drained",
          "PrePreparation": "(8 oz.)",
          "QuantityNum": 1,
          "QuantityText": "1",
          "QuantityUnit": "can",
          "RecipeIngredientID": 5029684,
          "TrialMeasure": "",
          "TrialWeight": ""
        },
        {
          "FullMeasure": "1/4 cup",
          "FullWeight": "",
          "IngredientGridHeaders": null,
          "IngredientID": 21089,
          "IngredientName": "fresh cilantro",
          "IngredientStep": 60,
          "LanguageId": 0,
          "PostPreparation": "",
          "PrePreparation": "chopped",
          "QuantityNum": 0,
          "QuantityText": "1/4",
          "QuantityUnit": "cup",
          "RecipeIngredientID": 5029689,
          "TrialMeasure": "",
          "TrialWeight": ""
        },
        {
          "FullMeasure": "2 Tbsp.",
          "FullWeight": "",
          "IngredientGridHeaders": null,
          "IngredientID": 5522,
          "IngredientName": "PLANTERS Dry Roasted Peanuts",
          "IngredientStep": 70,
          "LanguageId": 0,
          "PostPreparation": "",
          "PrePreparation": "chopped",
          "QuantityNum": 2,
          "QuantityText": "2",
          "QuantityUnit": "Tbsp.",
          "RecipeIngredientID": 5029682,
          "TrialMeasure": "",
          "TrialWeight": ""
        },
        {
          "FullMeasure": "2 Tbsp.",
          "FullWeight": "",
          "IngredientGridHeaders": null,
          "IngredientID": 7390,
          "IngredientName": "PLANTERS Dry Roasted Sunflower Kernels",
          "IngredientStep": 80,
          "LanguageId": 0,
          "PostPreparation": "",
          "PrePreparation": "",
          "QuantityNum": 2,
          "QuantityText": "2",
          "QuantityUnit": "Tbsp.",
          "RecipeIngredientID": 5029683,
          "TrialMeasure": "",
          "TrialWeight": ""
        },
        {
          "FullMeasure": "1/2 cup",
          "FullWeight": "",
          "IngredientGridHeaders": null,
          "IngredientID": 13883,
          "IngredientName": "KRAFT Asian Toasted Sesame Dressing",
          "IngredientStep": 90,
          "LanguageId": 0,
          "PostPreparation": "",
          "PrePreparation": "",
          "QuantityNum": 0,
          "QuantityText": "1/2",
          "QuantityUnit": "cup",
          "RecipeIngredientID": 5029688,
          "TrialMeasure": "",
          "TrialWeight": ""
        }
      ],
      "IsHealthyLiving": false,
      "KRLId": "572864",
      "KeyIngredients": [
        "Chicken",
        "Fruit",
        "Meat",
        "Nuts",
        "Pasta",
        "Peanuts",
        "Peppers",
        "Pineapple",
        "Poultry",
        "Spinach",
        "Vegetables"
      ],
      "Keywords": "nuts,pasta,peanuts,peppers,pineapple,red peppers,chicken,chicken breasts-boneless,cilantro,dressing,herbs,KRAFT Dressing,meat,salad dressing,spaghetti pasta,spinach,sunflower seeds,PLANTERS Peanuts,PLANTERS Sunflower Kernels,bell peppers,Planters,Entree,Asian,All Seasons",
      "LanguageId": 1,
      "LifeStyles": [],
      "NumberOfIngredients": 9,
      "NumberOfRatings": 2,
      "NumberOfRatingsWithComments": "1",
      "NumberOfServings": "4 servings, 2 cups each",
      "NumberOfTrialServings": "",
      "NutritionBonus": null,
      "NutritionExchangeItemId": 0,
      "NutritionGridItems": null,
      "NutritionItems": [
        {
          "DisplayOrder": 1,
          "Document": null,
          "NutritionItemID": 3,
          "NutritionItemName": "Calories",
          "Predriscriptor": "",
          "Quantity": 350,
          "Unit": "          "
        },
        {
          "DisplayOrder": 2,
          "Document": "fat_cholesterol.html",
          "NutritionItemID": 4,
          "NutritionItemName": "Total fat",
          "Predriscriptor": "",
          "Quantity": 13,
          "Unit": "g         "
        },
        {
          "DisplayOrder": 3,
          "Document": "fat_cholesterol.html",
          "NutritionItemID": 9,
          "NutritionItemName": "Saturated fat",
          "Predriscriptor": "",
          "Quantity": 2,
          "Unit": "g         "
        },
        {
          "DisplayOrder": 7,
          "Document": "fat_cholesterol.html",
          "NutritionItemID": 2,
          "NutritionItemName": "Cholesterol",
          "Predriscriptor": "",
          "Quantity": 35,
          "Unit": "mg        "
        },
        {
          "DisplayOrder": 8,
          "Document": "sodium.html",
          "NutritionItemID": 8,
          "NutritionItemName": "Sodium",
          "Predriscriptor": "",
          "Quantity": 460,
          "Unit": "mg        "
        },
        {
          "DisplayOrder": 10,
          "Document": "carbs_sugars_fiber.html",
          "NutritionItemID": 1,
          "NutritionItemName": "Carbohydrate",
          "Predriscriptor": "",
          "Quantity": 38,
          "Unit": "g         "
        },
        {
          "DisplayOrder": 11,
          "Document": "carbs_sugars_fiber.html",
          "NutritionItemID": 7,
          "NutritionItemName": "Dietary fiber",
          "Predriscriptor": "",
          "Quantity": 4,
          "Unit": "g         "
        },
        {
          "DisplayOrder": 12,
          "Document": "carbs_sugars_fiber.html",
          "NutritionItemID": 5,
          "NutritionItemName": "Sugars",
          "Predriscriptor": "",
          "Quantity": 13,
          "Unit": "g         "
        },
        {
          "DisplayOrder": 13,
          "Document": null,
          "NutritionItemID": 6,
          "NutritionItemName": "Protein",
          "Predriscriptor": "",
          "Quantity": 20,
          "Unit": "g         "
        },
        {
          "DisplayOrder": 14,
          "Document": null,
          "NutritionItemID": 10,
          "NutritionItemName": "Vitamin A",
          "Predriscriptor": "",
          "Quantity": 50,
          "Unit": "%DV       "
        },
        {
          "DisplayOrder": 15,
          "Document": null,
          "NutritionItemID": 11,
          "NutritionItemName": "Vitamin C",
          "Predriscriptor": "",
          "Quantity": 80,
          "Unit": "%DV       "
        },
        {
          "DisplayOrder": 16,
          "Document": "dairy_and_calcium.html",
          "NutritionItemID": 12,
          "NutritionItemName": "Calcium",
          "Predriscriptor": "",
          "Quantity": 6,
          "Unit": "%DV       "
        },
        {
          "DisplayOrder": 17,
          "Document": null,
          "NutritionItemID": 13,
          "NutritionItemName": "Iron",
          "Predriscriptor": "",
          "Quantity": 15,
          "Unit": "%DV       "
        }
      ],
      "NutritionServingText": " ",
      "PrepStepImage": null,
      "PreparationDescription": "Cook spaghetti as directed on package, omitting salt; drain.  Transfer to large bowl; cool slightly.$Combine spaghetti with remaining ingredients except dressing.  $Add dressing; mix lightly.",
      "PreparationPreText": "",
      "PreparationSteps": [
        {
          "Description": "Cook spaghetti as directed on package, omitting salt; drain.  Transfer to large bowl; cool slightly.",
          "PreparationStepImage": {
            "PictureFormats": [],
            "author": null,
            "id": null,
            "imageType": null,
            "mimeType": null,
            "publicationDate": null,
            "status": null,
            "title": null,
            "type": null
          },
          "Sequence": 1
        },
        {
          "Description": "Combine spaghetti with remaining ingredients except dressing.  ",
          "PreparationStepImage": {
            "PictureFormats": [],
            "author": null,
            "id": null,
            "imageType": null,
            "mimeType": null,
            "publicationDate": null,
            "status": null,
            "title": null,
            "type": null
          },
          "Sequence": 2
        },
        {
          "Description": "Add dressing; mix lightly.",
          "PreparationStepImage": {
            "PictureFormats": [],
            "author": null,
            "id": null,
            "imageType": null,
            "mimeType": null,
            "publicationDate": null,
            "status": null,
            "title": null,
            "type": null
          },
          "Sequence": 3
        }
      ],
      "PreparationTime": 30,
      "Promotion": null,
      "Ratings": {
        "TotalCount": 2,
        "PageCount": 10,
        "PageNo": 1,
        "Rating": [
          {
            "Comment": "My family loves this salad. It is full of flavor and gives a variety of of different ways to make it to fit anyone's taste buds!\n",
            "DisplayName": true,
            "RatingValue": 5,
            "SubmitDate": "/Date(1446410502000-0600)/",
            "UpdatedDate": "/Date(1446410502000-0600)/",
            "UserName": "annaroselle"
          },
          {
            "Comment": "",
            "DisplayName": true,
            "RatingValue": 5,
            "SubmitDate": "/Date(1446410389000-0600)/",
            "UpdatedDate": "/Date(1446410389000-0600)/",
            "UserName": "annaroselle"
          }
        ]
      },
      "RecipeDisplayFormatId": 5,
      "RecipeId": 166933,
      "RecipeName": "Asian Sesame Noodle-Chicken Salad",
      "RecipeType": 0,
      "RelatedData": {
        "RelatedBrands": null,
        "RelatedProducts": null,
        "RelatedRecipes": {
          "DefaultTopCount": 5,
          "Recipe": [
            {
              "AverageRating": 4,
              "HasVideo": false,
              "IsHealthyLiving": false,
              "NumberOfRatings": 3,
              "PhotoName": "Crunchy_Asian_Chicken_Salad.jpg",
              "PhotoUrl": "http://assets.kraftfoods.com/recipe_images/opendeploy/Crunchy_Asian_Chicken_Salad.jpg",
              "RecipeId": 106838,
              "RecipeName": "Crunchy Asian Chicken Salad",
              "SEOName": "crunchy-asian-chicken-salad-106838",
              "ThumbnailPhoto": null
            },
            {
              "AverageRating": 5,
              "HasVideo": false,
              "IsHealthyLiving": false,
              "NumberOfRatings": 2,
              "PhotoName": "179790_MXM_66186v0E_WP.jpg",
              "PhotoUrl": "http://assets.kraftfoods.com/recipe_images/opendeploy/179790_MXM_66186v0E_WP.jpg",
              "RecipeId": 179790,
              "RecipeName": "Barbecue Pork Noodle Bowl",
              "SEOName": "barbecue-pork-noodle-bowl-179790",
              "ThumbnailPhoto": null
            },
            {
              "AverageRating": 4.4,
              "HasVideo": false,
              "IsHealthyLiving": true,
              "NumberOfRatings": 8,
              "PhotoName": "104844.jpg",
              "PhotoUrl": "http://assets.kraftfoods.com/recipe_images/opendeploy/104844.jpg",
              "RecipeId": 104844,
              "RecipeName": "Easy Asian Noodle Salad",
              "SEOName": "easy-asian-noodle-salad-104844",
              "ThumbnailPhoto": null
            },
            {
              "AverageRating": 4,
              "HasVideo": false,
              "IsHealthyLiving": true,
              "NumberOfRatings": 1,
              "PhotoName": "114698.jpg",
              "PhotoUrl": "http://assets.kraftfoods.com/recipe_images/opendeploy/114698.jpg",
              "RecipeId": 114698,
              "RecipeName": "Amazing Asian Salad Toss",
              "SEOName": "amazing-asian-salad-toss-114698",
              "ThumbnailPhoto": null
            },
            {
              "AverageRating": 4.4,
              "HasVideo": false,
              "IsHealthyLiving": true,
              "NumberOfRatings": 881,
              "PhotoName": "91434.jpg",
              "PhotoUrl": "http://assets.kraftfoods.com/recipe_images/opendeploy/91434.jpg",
              "RecipeId": 91434,
              "RecipeName": "Beef Noodle Bowl",
              "SEOName": "beef-noodle-bowl-91434",
              "ThumbnailPhoto": null
            }
          ],
          "TotalCount": 2931
        }
      },
      "RiseIngredients": [],
      "RiseTaxonomy": [],
      "Riserecipe": [
        {
          "GRIN": 572864,
          "RecipeId": 166933,
          "RecipeIndustrySector": "Retail",
          "RecipeType": "Internal"
        }
      ],
      "RomanceText": "No need to get a specialty sauce or noodles to make this Asian-style chicken salad. We used toasted sesame dressing and spaghetti—worked like a charm.",
      "SEOName": "asian-sesame-noodle-chicken-salad-166933",
      "Tips": [
        {
          "RecipeId": 166933,
          "Sequence": 10,
          "TipDescription": "Prepare using KRAFT Lite Asian Toasted Sesame Dressing. ",
          "TipID": 1,
          "TipName": "Substitute"
        },
        {
          "RecipeId": 166933,
          "Sequence": 20,
          "TipDescription": "Stir in 2 sliced green onions with the red peppers. ",
          "TipID": 2,
          "TipName": "Special Extra"
        }
      ],
      "TotalTime": 30,
      "TradeMarkInfo": null,
      "Video": [],
      "Yield": "4 servings, 2 cups each"
    }
  ]
}