{
  "Metadata": {
    "PageCount": 1,
    "PageNo": 0,
    "TotalCount": 0
  },
  "Recipes": [
    {
      "AdServingKeywords": "Side Dish,Easy,Fish,Onion,Pasta/Noodles,Peas,Peppers,Seafood,Tuna,Vegetables,Kraft Mayo,Kraft Salad Dressing,Miracle Whip,All Seasons,Creamy",
      "AlternateLanguageRecipes": [],
      "Assets": [
        {
          "PictureFormats": [
            {
              "rendition": "300x200",
              "url": "http://assets.kraftfoods.com/recipe_images/DI_GIORNO_Tortellini_Tuna_Salad.jpg"
            }
          ],
          "author": null,
          "id": "0",
          "imageType": "DEFAULT",
          "mimeType": null,
          "publicationDate": null,
          "status": "1",
          "title": "DI_GIORNO_Tortellini_Tuna_Salad.jpg",
          "type": "image"
        }
      ],
      "AverageRating": 4.5,
      "BrandId": 1,
      "Branding": {
        "IngredientElevation": "",
        "PromoAltText": "",
        "PromoImage": "",
        "PromoLink": "",
        "SponsorshipAltText": "",
        "SponsorshipLink": "",
        "SponsorshipLogo": "",
        "UpperRightImage": ""
      },
      "CSSSkins": [
        {
          "brand": "Reynolds-Table4-110115",
          "fileName": "",
          "id": "1"
        }
      ],
      "CarbCounter": null,
      "Categories": [
        {
          "CategoryID": 9,
          "CategoryName": "Salads/Side Dishes",
          "CategoryRank": 13,
          "SubCategoryID": 426,
          "SubCategoryName": "Pasta Salads",
          "SubCategoryRank": 90
        },
        {
          "CategoryID": 11,
          "CategoryName": "Primary",
          "CategoryRank": 0,
          "SubCategoryID": 98,
          "SubCategoryName": "Salads",
          "SubCategoryRank": 70
        },
        {
          "CategoryID": 752,
          "CategoryName": "Salads",
          "CategoryRank": 6,
          "SubCategoryID": 2537,
          "SubCategoryName": "Pasta / Rice",
          "SubCategoryRank": 1
        },
        {
          "CategoryID": 753,
          "CategoryName": "Pizza & Pasta",
          "CategoryRank": 7,
          "SubCategoryID": 2545,
          "SubCategoryName": "Other",
          "SubCategoryRank": 1
        }
      ],
      "Classifications": [],
      "ComplimentaryRecipes": null,
      "CookingMethod": null,
      "Copyright": null,
      "Courses": [
        "Salads & sides"
      ],
      "DietExchange": null,
      "DishDetails": [],
      "EndDate": "/Date(-62135575200000-0600)/",
      "HasVideo": false,
      "Ingredients": [
        {
          "FullMeasure": null,
          "FullWeight": null,
          "IngredientGridHeaders": null,
          "IngredientID": 72046,
          "IngredientName": "(9 oz.)  refrigerated cheese tortellini, cooked",
          "IngredientStep": 10,
          "LanguageId": 0,
          "PostPreparation": "",
          "PrePreparation": "",
          "QuantityNum": 1,
          "QuantityText": "1",
          "QuantityUnit": "pkg.",
          "RecipeIngredientID": 83357,
          "TrialMeasure": null,
          "TrialWeight": null
        },
        {
          "FullMeasure": null,
          "FullWeight": null,
          "IngredientGridHeaders": null,
          "IngredientID": 67943,
          "IngredientName": "(5 oz.) tuna, drained, flaked",
          "IngredientStep": 20,
          "LanguageId": 0,
          "PostPreparation": "",
          "PrePreparation": "",
          "QuantityNum": 1,
          "QuantityText": "1",
          "QuantityUnit": "can",
          "RecipeIngredientID": 83754,
          "TrialMeasure": null,
          "TrialWeight": null
        },
        {
          "FullMeasure": null,
          "FullWeight": null,
          "IngredientGridHeaders": null,
          "IngredientID": 69059,
          "IngredientName": "frozen peas, thawed",
          "IngredientStep": 30,
          "LanguageId": 0,
          "PostPreparation": "",
          "PrePreparation": "",
          "QuantityNum": 0.5,
          "QuantityText": "1/2",
          "QuantityUnit": "cup",
          "RecipeIngredientID": 85451,
          "TrialMeasure": null,
          "TrialWeight": null
        },
        {
          "FullMeasure": null,
          "FullWeight": null,
          "IngredientGridHeaders": null,
          "IngredientID": 67960,
          "IngredientName": "chopped red peppers",
          "IngredientStep": 40,
          "LanguageId": 0,
          "PostPreparation": "",
          "PrePreparation": "",
          "QuantityNum": 0.5,
          "QuantityText": "1/2",
          "QuantityUnit": "cup",
          "RecipeIngredientID": 86089,
          "TrialMeasure": null,
          "TrialWeight": null
        },
        {
          "FullMeasure": null,
          "FullWeight": null,
          "IngredientGridHeaders": null,
          "IngredientID": 68573,
          "IngredientName": "finely chopped red onions",
          "IngredientStep": 50,
          "LanguageId": 0,
          "PostPreparation": "",
          "PrePreparation": "",
          "QuantityNum": 0.25,
          "QuantityText": "1/4",
          "QuantityUnit": "cup",
          "RecipeIngredientID": 87137,
          "TrialMeasure": null,
          "TrialWeight": null
        },
        {
          "FullMeasure": null,
          "FullWeight": null,
          "IngredientGridHeaders": null,
          "IngredientID": 68977,
          "IngredientName": "KRAFT Real Mayo Mayonnaise",
          "IngredientStep": 60,
          "LanguageId": 0,
          "PostPreparation": "",
          "PrePreparation": "",
          "QuantityNum": 0.25,
          "QuantityText": "1/4",
          "QuantityUnit": "cup",
          "RecipeIngredientID": 86944,
          "TrialMeasure": null,
          "TrialWeight": null
        },
        {
          "FullMeasure": null,
          "FullWeight": null,
          "IngredientGridHeaders": null,
          "IngredientID": 68787,
          "IngredientName": "KRAFT Tuscan House Italian Dressing",
          "IngredientStep": 70,
          "LanguageId": 0,
          "PostPreparation": "",
          "PrePreparation": "",
          "QuantityNum": 0.25,
          "QuantityText": "1/4",
          "QuantityUnit": "cup",
          "RecipeIngredientID": 88950,
          "TrialMeasure": null,
          "TrialWeight": null
        }
      ],
      "IsHealthyLiving": false,
      "KRLId": "507298",
      "KeyIngredients": [],
      "Keywords": "Side Dish,Easy,All Seasons,Pasta,Salad",
      "LanguageId": 1,
      "LifeStyles": [],
      "NumberOfIngredients": 7,
      "NumberOfRatings": 27,
      "NumberOfRatingsWithComments": "22",
      "NumberOfServings": "6 servings, about 2/3  cup each",
      "NumberOfTrialServings": null,
      "NutritionBonus": null,
      "NutritionExchangeItemId": 0,
      "NutritionGridItems": null,
      "NutritionItems": [
        {
          "DisplayOrder": 0,
          "Document": null,
          "NutritionItemID": 384,
          "NutritionItemName": "Vitamin D",
          "Predriscriptor": "",
          "Quantity": 0,
          "Unit": "%DV       "
        },
        {
          "DisplayOrder": 0,
          "Document": null,
          "NutritionItemID": 385,
          "NutritionItemName": "Vitamin E",
          "Predriscriptor": "",
          "Quantity": 2,
          "Unit": "%DV       "
        },
        {
          "DisplayOrder": 0,
          "Document": null,
          "NutritionItemID": 388,
          "NutritionItemName": "Potassium",
          "Predriscriptor": "",
          "Quantity": 2,
          "Unit": "%DV       "
        },
        {
          "DisplayOrder": 0,
          "Document": null,
          "NutritionItemID": 390,
          "NutritionItemName": "Added Sugars",
          "Predriscriptor": "",
          "Quantity": 0,
          "Unit": "g         "
        },
        {
          "DisplayOrder": 1,
          "Document": null,
          "NutritionItemID": 371,
          "NutritionItemName": "Calories",
          "Predriscriptor": "",
          "Quantity": 250,
          "Unit": "          "
        },
        {
          "DisplayOrder": 2,
          "Document": null,
          "NutritionItemID": 376,
          "NutritionItemName": "Total fat",
          "Predriscriptor": "",
          "Quantity": 13,
          "Unit": "g         "
        },
        {
          "DisplayOrder": 3,
          "Document": null,
          "NutritionItemID": 377,
          "NutritionItemName": "Saturated fat",
          "Predriscriptor": "",
          "Quantity": 2.5,
          "Unit": "g         "
        },
        {
          "DisplayOrder": 4,
          "Document": null,
          "NutritionItemID": 379,
          "NutritionItemName": "Polyunsaturated Fat",
          "Predriscriptor": "",
          "Quantity": 1,
          "Unit": "g         "
        },
        {
          "DisplayOrder": 5,
          "Document": null,
          "NutritionItemID": 378,
          "NutritionItemName": "Monounsaturated Fat",
          "Predriscriptor": "",
          "Quantity": 0,
          "Unit": "g         "
        },
        {
          "DisplayOrder": 6,
          "Document": null,
          "NutritionItemID": 380,
          "NutritionItemName": "Trans Fat",
          "Predriscriptor": "",
          "Quantity": 0,
          "Unit": "g         "
        },
        {
          "DisplayOrder": 7,
          "Document": null,
          "NutritionItemID": 381,
          "NutritionItemName": "Cholesterol",
          "Predriscriptor": "",
          "Quantity": 30,
          "Unit": "mg        "
        },
        {
          "DisplayOrder": 8,
          "Document": null,
          "NutritionItemID": 389,
          "NutritionItemName": "Sodium",
          "Predriscriptor": "",
          "Quantity": 410,
          "Unit": "mg        "
        },
        {
          "DisplayOrder": 10,
          "Document": null,
          "NutritionItemID": 373,
          "NutritionItemName": "Carbohydrate",
          "Predriscriptor": "",
          "Quantity": 22,
          "Unit": "g         "
        },
        {
          "DisplayOrder": 11,
          "Document": null,
          "NutritionItemID": 374,
          "NutritionItemName": "Dietary fiber",
          "Predriscriptor": "",
          "Quantity": 2,
          "Unit": "g         "
        },
        {
          "DisplayOrder": 12,
          "Document": null,
          "NutritionItemID": 375,
          "NutritionItemName": "Sugars",
          "Predriscriptor": "",
          "Quantity": 3,
          "Unit": "g         "
        },
        {
          "DisplayOrder": 13,
          "Document": null,
          "NutritionItemID": 372,
          "NutritionItemName": "Protein",
          "Predriscriptor": "",
          "Quantity": 12,
          "Unit": "g         "
        },
        {
          "DisplayOrder": 14,
          "Document": null,
          "NutritionItemID": 382,
          "NutritionItemName": "Vitamin A",
          "Predriscriptor": "",
          "Quantity": 15,
          "Unit": "%DV       "
        },
        {
          "DisplayOrder": 15,
          "Document": null,
          "NutritionItemID": 383,
          "NutritionItemName": "Vitamin C",
          "Predriscriptor": "",
          "Quantity": 20,
          "Unit": "%DV       "
        },
        {
          "DisplayOrder": 16,
          "Document": null,
          "NutritionItemID": 386,
          "NutritionItemName": "Calcium",
          "Predriscriptor": "",
          "Quantity": 6,
          "Unit": "%DV       "
        },
        {
          "DisplayOrder": 17,
          "Document": null,
          "NutritionItemID": 387,
          "NutritionItemName": "Iron",
          "Predriscriptor": "",
          "Quantity": 8,
          "Unit": "%DV       "
        }
      ],
      "NutritionServingText": null,
      "PrepStepImage": null,
      "PreparationDescription": "Combine ingredients.$Refrigerate several hours.",
      "PreparationPreText": null,
      "PreparationSteps": [
        {
          "Description": "Combine ingredients.",
          "PreparationStepImage": {
            "PictureFormats": [],
            "author": null,
            "id": null,
            "imageType": null,
            "mimeType": null,
            "publicationDate": null,
            "status": null,
            "title": null,
            "type": null
          },
          "Sequence": 1
        },
        {
          "Description": "Refrigerate several hours.",
          "PreparationStepImage": {
            "PictureFormats": [],
            "author": null,
            "id": null,
            "imageType": null,
            "mimeType": null,
            "publicationDate": null,
            "status": null,
            "title": null,
            "type": null
          },
          "Sequence": 2
        }
      ],
      "PreparationTime": 20,
      "Promotion": null,
      "Ratings": {
        "TotalCount": 27,
        "PageCount": 10,
        "PageNo": 1,
        "Rating": [
          {
            "Comment": "I made this last night, and we took it for lunch today and my husband said next time pack me extra.\r\nI really loved the flavor, and the idea that you can really add any veggie that you like.  I followed the recipe exactly as printed. \r\n(used Mircle Whip) The long it sits in the Frig. the better it taste. ",
            "DisplayName": true,
            "RatingValue": 5,
            "SubmitDate": "/Date(1396025100000-0500)/",
            "UpdatedDate": "/Date(1396025100000-0500)/",
            "UserName": "jgingrich1"
          },
          {
            "Comment": "Very easy to make. We would only change the amount of mayo to be less. The peppers and onions add the perfect amount of flavor. ",
            "DisplayName": true,
            "RatingValue": 4,
            "SubmitDate": "/Date(1251162736000-0500)/",
            "UpdatedDate": "/Date(1343256401000-0500)/",
            "UserName": "sharpeipup"
          },
          {
            "Comment": "",
            "DisplayName": true,
            "RatingValue": 5,
            "SubmitDate": "/Date(1338397949000-0500)/",
            "UpdatedDate": "/Date(1338397949000-0500)/",
            "UserName": "mburns12"
          },
          {
            "Comment": "I made this recipe using regular Italian dressing, and I added in mushrooms and broccoli.  It was very good and addicting!",
            "DisplayName": true,
            "RatingValue": 4,
            "SubmitDate": "/Date(1309916909000-0500)/",
            "UpdatedDate": "/Date(1309916909000-0500)/",
            "UserName": "metalmegs"
          },
          {
            "Comment": "Yum. & Italian Dressing is something I dont care for but the mixture is yummy!",
            "DisplayName": true,
            "RatingValue": 5,
            "SubmitDate": "/Date(1247686716000-0500)/",
            "UpdatedDate": "/Date(1247686716000-0500)/",
            "UserName": "mami03743"
          },
          {
            "Comment": "Excellent!  great alternative to \"tuna salad\".  I take it for lunch - especially in the spring/summer.  I have made this several times- took some to work as a potluck lunch and several co-workers asked for the receipe!!!",
            "DisplayName": true,
            "RatingValue": 5,
            "SubmitDate": "/Date(1243264280000-0500)/",
            "UpdatedDate": "/Date(1243264280000-0500)/",
            "UserName": "clwasilko"
          },
          {
            "Comment": "At a picnic I made this salad, another pasta salad, and a potato salad.  This one was the first to disappear and I got the most compliments on it.  Funny thing is, I didn't even add the tuna b/c it was an outdoor party!  The next day, I added it to the leftovers and WOW!  Even better!  Love it!",
            "DisplayName": true,
            "RatingValue": 4,
            "SubmitDate": "/Date(1221502551000-0500)/",
            "UpdatedDate": "/Date(1221502551000-0500)/",
            "UserName": "canadeeio"
          },
          {
            "Comment": "Fantastic, except I added an extra can of tuna.  This is also great with honey dijon dressing instead of italian, better in fact.",
            "DisplayName": true,
            "RatingValue": 5,
            "SubmitDate": "/Date(1203045370000-0600)/",
            "UpdatedDate": "/Date(1203045370000-0600)/",
            "UserName": "gbsgirlygirl"
          },
          {
            "Comment": "I thought this was a strange combination when I first came across the recipe, but I love tuna and tortellini so I gave it a try this weekend. I knew within 2 bites that I didn't like this enough to bother eating anymore. It just tasted strange. And I followed the recipe to a \"t\". I ended up throwing this all out. Too bad really since I was looking forward to having it for my lunches this week.",
            "DisplayName": true,
            "RatingValue": 1,
            "SubmitDate": "/Date(1202103236000-0600)/",
            "UpdatedDate": "/Date(1202103236000-0600)/",
            "UserName": "tlarkn70"
          },
          {
            "Comment": "",
            "DisplayName": true,
            "RatingValue": 4,
            "SubmitDate": "/Date(1199679613000-0600)/",
            "UpdatedDate": "/Date(1199679613000-0600)/",
            "UserName": "foultz"
          }
        ]
      },
      "RecipeDisplayFormatId": 0,
      "RecipeId": 55660,
      "RecipeName": "Tortellini Tuna Salad",
      "RecipeType": 0,
      "RelatedData": {
        "RelatedBrands": null,
        "RelatedProducts": null,
        "RelatedRecipes": {
          "DefaultTopCount": 5,
          "Recipe": [
            {
              "AverageRating": 4,
              "HasVideo": false,
              "IsHealthyLiving": true,
              "NumberOfRatings": 1,
              "PhotoName": "196002.jpg",
              "PhotoUrl": "http://assets.kraftfoods.com/recipe_images/opendeploy/196002.jpg",
              "RecipeId": 196002,
              "RecipeName": "Lemony Tortellini-Spinach Salad",
              "SEOName": "lemony-tortellini-spinach-salad-196002",
              "ThumbnailPhoto": null
            },
            {
              "AverageRating": 4.5,
              "HasVideo": false,
              "IsHealthyLiving": false,
              "NumberOfRatings": 2,
              "PhotoName": "179760_MXM_66108v0E_WP.jpg",
              "PhotoUrl": "http://assets.kraftfoods.com/recipe_images/opendeploy/179760_MXM_66108v0E_WP.jpg",
              "RecipeId": 179760,
              "RecipeName": "Greek Chicken Tortellini Salad",
              "SEOName": "greek-chicken-tortellini-salad-179760",
              "ThumbnailPhoto": null
            },
            {
              "AverageRating": 4.6,
              "HasVideo": false,
              "IsHealthyLiving": false,
              "NumberOfRatings": 59,
              "PhotoName": "74919.jpg",
              "PhotoUrl": "http://assets.kraftfoods.com/recipe_images/opendeploy/74919.jpg",
              "RecipeId": 74919,
              "RecipeName": "Antipasto Salad with Tortellini",
              "SEOName": "antipasto-salad-tortellini-74919",
              "ThumbnailPhoto": null
            },
            {
              "AverageRating": 4.3,
              "HasVideo": false,
              "IsHealthyLiving": false,
              "NumberOfRatings": 32,
              "PhotoName": "Creamy_Tortellini_Spring_Salad.jpg",
              "PhotoUrl": "http://assets.kraftfoods.com/recipe_images/opendeploy/Creamy_Tortellini_Spring_Salad.jpg",
              "RecipeId": 74918,
              "RecipeName": "Creamy, Cold Tortellini Salad",
              "SEOName": "creamy-cold-tortellini-salad-74918",
              "ThumbnailPhoto": null
            },
            {
              "AverageRating": 4.1,
              "HasVideo": false,
              "IsHealthyLiving": false,
              "NumberOfRatings": 18,
              "PhotoName": "Caesar_Tortellini_Salad.jpg",
              "PhotoUrl": "http://assets.kraftfoods.com/recipe_images/opendeploy/Caesar_Tortellini_Salad.jpg",
              "RecipeId": 54172,
              "RecipeName": "Vegetable Tortellini Salad",
              "SEOName": "vegetable-tortellini-salad-54172",
              "ThumbnailPhoto": null
            }
          ],
          "TotalCount": 2070
        }
      },
      "RiseIngredients": [
        {
          "IngredientCategory": "KRL",
          "IngredientId": 67943,
          "IngredientIndustrySector": "Retail",
          "IngredientType": "Inedible",
          "ProductId": null,
          "RecipeId": 55660
        },
        {
          "IngredientCategory": "KRL",
          "IngredientId": 67960,
          "IngredientIndustrySector": "Retail",
          "IngredientType": "Inedible",
          "ProductId": null,
          "RecipeId": 55660
        },
        {
          "IngredientCategory": "KRL",
          "IngredientId": 68573,
          "IngredientIndustrySector": "Retail",
          "IngredientType": "Inedible",
          "ProductId": null,
          "RecipeId": 55660
        },
        {
          "IngredientCategory": "KRL",
          "IngredientId": 68787,
          "IngredientIndustrySector": "Retail",
          "IngredientType": "KHC",
          "ProductId": "00068100896619",
          "RecipeId": 55660
        },
        {
          "IngredientCategory": "KRL",
          "IngredientId": 68977,
          "IngredientIndustrySector": "Retail",
          "IngredientType": "KHC",
          "ProductId": "00021000665266",
          "RecipeId": 55660
        },
        {
          "IngredientCategory": "KRL",
          "IngredientId": 69059,
          "IngredientIndustrySector": "Retail",
          "IngredientType": "Inedible",
          "ProductId": null,
          "RecipeId": 55660
        },
        {
          "IngredientCategory": "KRL",
          "IngredientId": 72046,
          "IngredientIndustrySector": "Retail",
          "IngredientType": "Inedible",
          "ProductId": null,
          "RecipeId": 55660
        }
      ],
      "RiseTaxonomy": [
        {
          "ParentTaxonomyId": 0,
          "RecipeId": 55660,
          "ResourceName": "Recipe",
          "TaxonomyId": 64,
          "TaxonomyName": "Side Dishes",
          "TaxonomyTypeId": 2,
          "TaxonomyTypeName": "Meal Part"
        },
        {
          "ParentTaxonomyId": 42,
          "RecipeId": 55660,
          "ResourceName": "Recipe",
          "TaxonomyId": 139,
          "TaxonomyName": "Pasta Salads",
          "TaxonomyTypeId": 3,
          "TaxonomyTypeName": "Dish Type"
        }
      ],
      "Riserecipe": [
        {
          "GRIN": 507298,
          "RecipeId": 55660,
          "RecipeIndustrySector": "Retail",
          "RecipeType": "Internal"
        }
      ],
      "RomanceText": "Try our Tortellini Tuna Salad. If you've got a can of tuna and some cheese tortellini, you can make this creamy, family-pleasing Tortellini Tuna Salad.\n",
      "SEOName": "tortellini-tuna-salad-55660",
      "Tips": [
        {
          "RecipeId": 55660,
          "Sequence": 10,
          "TipDescription": "Round out this great take-to-work lunch with fresh fruit and a glass of fat-free milk.",
          "TipID": 1,
          "TipName": "Serving Suggestion"
        },
        {
          "RecipeId": 55660,
          "Sequence": 20,
          "TipDescription": "This colorful salad can be refrigerated up to 24 hours before serving.",
          "TipID": 2,
          "TipName": "Note"
        },
        {
          "RecipeId": 55660,
          "Sequence": 30,
          "TipDescription": "Prepare using green peppers.",
          "TipID": 3,
          "TipName": "Substitute"
        }
      ],
      "TotalTime": 200,
      "TradeMarkInfo": null,
      "Video": [],
      "Yield": "6 servings, about 2/3  cup each"
    }
  ]
}