{
  "Metadata": {
    "PageCount": 1,
    "PageNo": 0,
    "TotalCount": 0
  },
  "Recipes": [
    {
      "AdServingKeywords": "Entree,Broccoli,Cheese,Chicken,Meat,Poultry,Rice,Vegetables,Dinner,All Seasons,Cheesy,Velveeta",
      "AlternateLanguageRecipes": [],
      "Assets": [
        {
          "PictureFormats": [
            {
              "rendition": "290x194",
              "url": "http://assets.kraftfoods.com/recipe_images/opendeploy/552384_1_1_retail-c30ee4a6aeba0c44650767fa47cdb86779b99cb1_291x194.jpg"
            },
            {
              "rendition": "306x204",
              "url": "http://assets.kraftfoods.com/recipe_images/opendeploy/552384_1_1_retail-c30ee4a6aeba0c44650767fa47cdb86779b99cb1_306x204.jpg"
            },
            {
              "rendition": "640x428",
              "url": "http://assets.kraftfoods.com/recipe_images/opendeploy/552384_1_1_retail-c30ee4a6aeba0c44650767fa47cdb86779b99cb1_642x428.jpg"
            }
          ],
          "author": "Kraft",
          "id": "2",
          "imageType": "Primary",
          "mimeType": "image/jpeg",
          "publicationDate": null,
          "status": "1",
          "title": "552384_1_1_retail-c30ee4a6aeba0c44650767fa47cdb86779b99cb1",
          "type": "image"
        }
      ],
      "AverageRating": 4.2,
      "BrandId": 1,
      "Branding": null,
      "CSSSkins": null,
      "CarbCounter": null,
      "Categories": [
        {
          "CategoryID": 2,
          "CategoryName": "Poultry Entrees",
          "CategoryRank": 11,
          "SubCategoryID": 377,
          "SubCategoryName": "Top of Stove",
          "SubCategoryRank": 100
        },
        {
          "CategoryID": 11,
          "CategoryName": "Primary",
          "CategoryRank": 0,
          "SubCategoryID": 97,
          "SubCategoryName": "Entrees",
          "SubCategoryRank": 50
        },
        {
          "CategoryID": 755,
          "CategoryName": "International Flavours",
          "CategoryRank": 9,
          "SubCategoryID": 2558,
          "SubCategoryName": "Mediterranean",
          "SubCategoryRank": 1
        },
        {
          "CategoryID": 756,
          "CategoryName": "Main Meals (Meat / Seafood / Egg)",
          "CategoryRank": 10,
          "SubCategoryID": 2562,
          "SubCategoryName": "Chicken",
          "SubCategoryRank": 1
        }
      ],
      "Classifications": [],
      "ComplimentaryRecipes": [
        {
          "AverageRating": 0,
          "HasVideo": false,
          "IsHealthyLiving": false,
          "NumberOfRatings": 0,
          "PhotoName": null,
          "PhotoUrl": null,
          "RecipeId": 129448,
          "RecipeName": null,
          "SEOName": "california-shrimp-topper-129448",
          "ThumbnailPhoto": ""
        }
      ],
      "CookingMethod": null,
      "Copyright": null,
      "Courses": [
        "Main dishes"
      ],
      "DietExchange": null,
      "DishDetails": [
        {
          "Text": "chicken recipes",
          "Url": "/recipes/dinner/chicken-recipes/main.aspx"
        },
        {
          "Text": "grilled chicken recipes",
          "Url": "/recipes/dinner/chicken-recipes/grilled-chicken/main.aspx"
        },
        {
          "Text": "healthy living chicken recipes",
          "Url": "/recipes/dinner/chicken-recipes/hl/main.aspx"
        },
        {
          "Text": "slow cooker chicken recipes",
          "Url": "/recipes/dinner/chicken-recipes/slow-cooker/main.aspx"
        },
        {
          "Text": "whole chicken recipes",
          "Url": "/recipes/dinner/chicken-recipes/whole-chicken/main.aspx"
        },
        {
          "Text": "chicken breast recipes",
          "Url": "/recipes/dinner/chicken-recipes/chicken-breast/main.aspx"
        },
        {
          "Text": "chicken casseroles",
          "Url": "/recipes/dinner/chicken-recipes/casseroles/main.aspx"
        },
        {
          "Text": "chicken pasta recipes",
          "Url": "/recipes/dinner/chicken-recipes/pasta-dishes/main.aspx"
        },
        {
          "Text": "chicken salad recipes",
          "Url": "/recipes/dinner/chicken-recipes/salads/main.aspx"
        },
        {
          "Text": "chicken stir-fry recipes",
          "Url": "/recipes/dinner/chicken-recipes/stir-fry/main.aspx"
        },
        {
          "Text": "chicken wing recipes",
          "Url": "/recipes/appetizers/chicken-wing-recipes/main.aspx"
        },
        {
          "Text": "baked chicken recipes",
          "Url": "/recipes/dinner/chicken-recipes/baked-chicken/main.aspx"
        },
        {
          "Text": "bbq chicken recipes",
          "Url": "/recipes/holidays-and-entertaining/entertaining/summer/bbq-recipes/bbq-chicken-recipes/main.aspx"
        }
      ],
      "EndDate": "/Date(-62135575200000-0600)/",
      "HasVideo": false,
      "Ingredients": [
        {
          "FullMeasure": null,
          "FullWeight": null,
          "IngredientGridHeaders": null,
          "IngredientID": 67921,
          "IngredientName": "oil",
          "IngredientStep": 10,
          "LanguageId": 0,
          "PostPreparation": "",
          "PrePreparation": "",
          "QuantityNum": 2,
          "QuantityText": "2",
          "QuantityUnit": "tsp.",
          "RecipeIngredientID": 58094,
          "TrialMeasure": null,
          "TrialWeight": null
        },
        {
          "FullMeasure": null,
          "FullWeight": null,
          "IngredientGridHeaders": null,
          "IngredientID": 72876,
          "IngredientName": "boneless skinless chicken breasts (1 lb.)",
          "IngredientStep": 20,
          "LanguageId": 0,
          "PostPreparation": "",
          "PrePreparation": "",
          "QuantityNum": 4,
          "QuantityText": "4",
          "QuantityUnit": "small",
          "RecipeIngredientID": 58095,
          "TrialMeasure": null,
          "TrialWeight": null
        },
        {
          "FullMeasure": null,
          "FullWeight": null,
          "IngredientGridHeaders": null,
          "IngredientID": 67733,
          "IngredientName": "frozen broccoli florets, thawed",
          "IngredientStep": 30,
          "LanguageId": 0,
          "PostPreparation": "",
          "PrePreparation": "",
          "QuantityNum": 2,
          "QuantityText": "2",
          "QuantityUnit": "cups",
          "RecipeIngredientID": 61519,
          "TrialMeasure": null,
          "TrialWeight": null
        },
        {
          "FullMeasure": null,
          "FullWeight": null,
          "IngredientGridHeaders": null,
          "IngredientID": 69234,
          "IngredientName": "(10-3/4 oz.) condensed cream of chicken soup",
          "IngredientStep": 40,
          "LanguageId": 0,
          "PostPreparation": "",
          "PrePreparation": "",
          "QuantityNum": 1,
          "QuantityText": "1",
          "QuantityUnit": "can",
          "RecipeIngredientID": 57044,
          "TrialMeasure": null,
          "TrialWeight": null
        },
        {
          "FullMeasure": null,
          "FullWeight": null,
          "IngredientGridHeaders": null,
          "IngredientID": 67959,
          "IngredientName": "(4 oz.) VELVEETA®, cut into 1/2-inch cubes",
          "IngredientStep": 50,
          "LanguageId": 0,
          "PostPreparation": "",
          "PrePreparation": "",
          "QuantityNum": 0.25,
          "QuantityText": "1/4",
          "QuantityUnit": "lb.",
          "RecipeIngredientID": 55275,
          "TrialMeasure": null,
          "TrialWeight": null
        },
        {
          "FullMeasure": null,
          "FullWeight": null,
          "IngredientGridHeaders": null,
          "IngredientID": 68061,
          "IngredientName": "hot cooked long-grain white rice",
          "IngredientStep": 60,
          "LanguageId": 0,
          "PostPreparation": "",
          "PrePreparation": "",
          "QuantityNum": 2,
          "QuantityText": "2",
          "QuantityUnit": "cups",
          "RecipeIngredientID": 58031,
          "TrialMeasure": null,
          "TrialWeight": null
        }
      ],
      "IsHealthyLiving": false,
      "KRLId": "552384",
      "KeyIngredients": [],
      "Keywords": "Entree,Dinner,All Seasons,Cheesy",
      "LanguageId": 1,
      "LifeStyles": [],
      "NumberOfIngredients": 6,
      "NumberOfRatings": 253,
      "NumberOfRatingsWithComments": "201",
      "NumberOfServings": "4 servings",
      "NumberOfTrialServings": null,
      "NutritionBonus": null,
      "NutritionExchangeItemId": 0,
      "NutritionGridItems": null,
      "NutritionItems": [
        {
          "DisplayOrder": 0,
          "Document": null,
          "NutritionItemID": 384,
          "NutritionItemName": "Vitamin D",
          "Predriscriptor": "",
          "Quantity": 0,
          "Unit": "%DV       "
        },
        {
          "DisplayOrder": 0,
          "Document": null,
          "NutritionItemID": 385,
          "NutritionItemName": "Vitamin E",
          "Predriscriptor": "",
          "Quantity": 4,
          "Unit": "%DV       "
        },
        {
          "DisplayOrder": 0,
          "Document": null,
          "NutritionItemID": 388,
          "NutritionItemName": "Potassium",
          "Predriscriptor": "",
          "Quantity": 8,
          "Unit": "%DV       "
        },
        {
          "DisplayOrder": 0,
          "Document": null,
          "NutritionItemID": 390,
          "NutritionItemName": "Added Sugars",
          "Predriscriptor": "",
          "Quantity": 0,
          "Unit": "g         "
        },
        {
          "DisplayOrder": 1,
          "Document": null,
          "NutritionItemID": 371,
          "NutritionItemName": "Calories",
          "Predriscriptor": "",
          "Quantity": 420,
          "Unit": "          "
        },
        {
          "DisplayOrder": 2,
          "Document": null,
          "NutritionItemID": 376,
          "NutritionItemName": "Total fat",
          "Predriscriptor": "",
          "Quantity": 17,
          "Unit": "g         "
        },
        {
          "DisplayOrder": 3,
          "Document": null,
          "NutritionItemID": 377,
          "NutritionItemName": "Saturated fat",
          "Predriscriptor": "",
          "Quantity": 5,
          "Unit": "g         "
        },
        {
          "DisplayOrder": 4,
          "Document": null,
          "NutritionItemID": 379,
          "NutritionItemName": "Polyunsaturated Fat",
          "Predriscriptor": "",
          "Quantity": 3,
          "Unit": "g         "
        },
        {
          "DisplayOrder": 5,
          "Document": null,
          "NutritionItemID": 378,
          "NutritionItemName": "Monounsaturated Fat",
          "Predriscriptor": "",
          "Quantity": 4.5,
          "Unit": "g         "
        },
        {
          "DisplayOrder": 6,
          "Document": null,
          "NutritionItemID": 380,
          "NutritionItemName": "Trans Fat",
          "Predriscriptor": "",
          "Quantity": 0,
          "Unit": "g         "
        },
        {
          "DisplayOrder": 7,
          "Document": null,
          "NutritionItemID": 381,
          "NutritionItemName": "Cholesterol",
          "Predriscriptor": "",
          "Quantity": 90,
          "Unit": "mg        "
        },
        {
          "DisplayOrder": 8,
          "Document": null,
          "NutritionItemID": 389,
          "NutritionItemName": "Sodium",
          "Predriscriptor": "",
          "Quantity": 1050,
          "Unit": "mg        "
        },
        {
          "DisplayOrder": 10,
          "Document": null,
          "NutritionItemID": 373,
          "NutritionItemName": "Carbohydrate",
          "Predriscriptor": "",
          "Quantity": 30,
          "Unit": "g         "
        },
        {
          "DisplayOrder": 11,
          "Document": null,
          "NutritionItemID": 374,
          "NutritionItemName": "Dietary fiber",
          "Predriscriptor": "",
          "Quantity": 2,
          "Unit": "g         "
        },
        {
          "DisplayOrder": 12,
          "Document": null,
          "NutritionItemID": 375,
          "NutritionItemName": "Sugars",
          "Predriscriptor": "",
          "Quantity": 4,
          "Unit": "g         "
        },
        {
          "DisplayOrder": 13,
          "Document": null,
          "NutritionItemID": 372,
          "NutritionItemName": "Protein",
          "Predriscriptor": "",
          "Quantity": 33,
          "Unit": "g         "
        },
        {
          "DisplayOrder": 14,
          "Document": null,
          "NutritionItemID": 382,
          "NutritionItemName": "Vitamin A",
          "Predriscriptor": "",
          "Quantity": 10,
          "Unit": "%DV       "
        },
        {
          "DisplayOrder": 15,
          "Document": null,
          "NutritionItemID": 383,
          "NutritionItemName": "Vitamin C",
          "Predriscriptor": "",
          "Quantity": 2,
          "Unit": "%DV       "
        },
        {
          "DisplayOrder": 16,
          "Document": null,
          "NutritionItemID": 386,
          "NutritionItemName": "Calcium",
          "Predriscriptor": "",
          "Quantity": 20,
          "Unit": "%DV       "
        },
        {
          "DisplayOrder": 17,
          "Document": null,
          "NutritionItemID": 387,
          "NutritionItemName": "Iron",
          "Predriscriptor": "",
          "Quantity": 15,
          "Unit": "%DV       "
        }
      ],
      "NutritionServingText": null,
      "PrepStepImage": null,
      "PreparationDescription": "Heat oil in large nonstick skillet on medium-high heat.  Add chicken; cook 6 to 7 min. on each side or until done (165ºF). Remove chicken from skillet; cover to keep warm.$Add broccoli, soup and VELVEETA to skillet; mix well.  Cook on medium heat 7 min. or until VELVEETA is melted and sauce is heated through, stirring frequently.$Serve chicken and broccoli mixture over rice.",
      "PreparationPreText": null,
      "PreparationSteps": [
        {
          "Description": "Heat oil in large nonstick skillet on medium-high heat.  Add chicken; cook 6 to 7 min. on each side or until done (165ºF). Remove chicken from skillet; cover to keep warm.",
          "PreparationStepImage": {
            "PictureFormats": [],
            "author": null,
            "id": null,
            "imageType": null,
            "mimeType": null,
            "publicationDate": null,
            "status": null,
            "title": null,
            "type": null
          },
          "Sequence": 1
        },
        {
          "Description": "Add broccoli, soup and VELVEETA to skillet; mix well.  Cook on medium heat 7 min. or until VELVEETA is melted and sauce is heated through, stirring frequently.",
          "PreparationStepImage": {
            "PictureFormats": [],
            "author": null,
            "id": null,
            "imageType": null,
            "mimeType": null,
            "publicationDate": null,
            "status": null,
            "title": null,
            "type": null
          },
          "Sequence": 2
        },
        {
          "Description": "Serve chicken and broccoli mixture over rice.",
          "PreparationStepImage": {
            "PictureFormats": [],
            "author": null,
            "id": null,
            "imageType": null,
            "mimeType": null,
            "publicationDate": null,
            "status": null,
            "title": null,
            "type": null
          },
          "Sequence": 3
        }
      ],
      "PreparationTime": 20,
      "Promotion": null,
      "Ratings": {
        "TotalCount": 253,
        "PageCount": 10,
        "PageNo": 1,
        "Rating": [
          {
            "Comment": "Was kinda bland, probably won't make this again.",
            "DisplayName": false,
            "RatingValue": 3,
            "SubmitDate": "/Date(1429568982000-0500)/",
            "UpdatedDate": "/Date(1429568982000-0500)/",
            "UserName": "refunder5"
          },
          {
            "Comment": "The recipe is a little bland to me. With some spices added in it would probably be much better and I will experiment with that in the future.",
            "DisplayName": true,
            "RatingValue": 3,
            "SubmitDate": "/Date(1400790548000-0500)/",
            "UpdatedDate": "/Date(1400790548000-0500)/",
            "UserName": "dastaton"
          },
          {
            "Comment": "i tweaked my recipe a little as i did not have velveeta on hand. i used cheddar cheese but had to add some milk to thin the soup/cheese. otherwise this is very good!",
            "DisplayName": true,
            "RatingValue": 4,
            "SubmitDate": "/Date(1377094949000-0500)/",
            "UpdatedDate": "/Date(1377094949000-0500)/",
            "UserName": "nicshamic"
          },
          {
            "Comment": "This recipe was so easy and very tasty.  I love to make this when I need a quick meal.  My 10 year son loves this cheesy meal.",
            "DisplayName": true,
            "RatingValue": 5,
            "SubmitDate": "/Date(1365536801000-0500)/",
            "UpdatedDate": "/Date(1365536801000-0500)/",
            "UserName": "lynnlovett"
          },
          {
            "Comment": "It was quick and easy but with little flavor",
            "DisplayName": true,
            "RatingValue": 2,
            "SubmitDate": "/Date(1365083977000-0500)/",
            "UpdatedDate": "/Date(1365083977000-0500)/",
            "UserName": "Kristi.abell"
          },
          {
            "Comment": "I forgot to put the cream of chicken into it, but it still came out yummy. I loved the cheesiness. Very simple and quick. I'll probably try it with different flavored rice next time.",
            "DisplayName": true,
            "RatingValue": 4,
            "SubmitDate": "/Date(1361750772000-0600)/",
            "UpdatedDate": "/Date(1361750772000-0600)/",
            "UserName": "kinao"
          },
          {
            "Comment": "",
            "DisplayName": true,
            "RatingValue": 5,
            "SubmitDate": "/Date(1358974043000-0600)/",
            "UpdatedDate": "/Date(1358974043000-0600)/",
            "UserName": "j_love169"
          },
          {
            "Comment": "WOW, This was SO good!!! I used up some leftover mexican style rice I had in the fridge and replaced the velveeta with some queso sauce i had on hand! ",
            "DisplayName": true,
            "RatingValue": 5,
            "SubmitDate": "/Date(1358437901000-0600)/",
            "UpdatedDate": "/Date(1358437901000-0600)/",
            "UserName": "amandajen1"
          },
          {
            "Comment": "Super Easy!  I use chicken tenderloins instead of breasts.",
            "DisplayName": true,
            "RatingValue": 5,
            "SubmitDate": "/Date(1349801773000-0500)/",
            "UpdatedDate": "/Date(1349801773000-0500)/",
            "UserName": "jeffsteph02"
          },
          {
            "Comment": "Quick and easy to make.  I did season the chicken a little before hand though.  Kids loved it.  Will definately make again.",
            "DisplayName": false,
            "RatingValue": 4,
            "SubmitDate": "/Date(1349039544000-0500)/",
            "UpdatedDate": "/Date(1349039544000-0500)/",
            "UserName": "Reyita19"
          }
        ]
      },
      "RecipeDisplayFormatId": 0,
      "RecipeId": 91557,
      "RecipeName": "Cheesy Chicken Recipe",
      "RecipeType": 0,
      "RelatedData": {
        "RelatedBrands": null,
        "RelatedProducts": null,
        "RelatedRecipes": {
          "DefaultTopCount": 5,
          "Recipe": [
            {
              "AverageRating": 4.2,
              "HasVideo": false,
              "IsHealthyLiving": false,
              "NumberOfRatings": 17,
              "PhotoName": "137567.jpg",
              "PhotoUrl": "http://assets.kraftfoods.com/recipe_images/opendeploy/137567.jpg",
              "RecipeId": 137567,
              "RecipeName": "Cheesy Tortilla Soup",
              "SEOName": "cheesy-tortilla-soup-137567",
              "ThumbnailPhoto": null
            },
            {
              "AverageRating": 4.3,
              "HasVideo": true,
              "IsHealthyLiving": true,
              "NumberOfRatings": 465,
              "PhotoName": "111246.jpg",
              "PhotoUrl": "http://assets.kraftfoods.com/recipe_images/opendeploy/111246.jpg",
              "RecipeId": 111246,
              "RecipeName": "Cheesy Chicken & Salsa Skillet",
              "SEOName": "cheesy-chicken-salsa-skillet-111246",
              "ThumbnailPhoto": null
            },
            {
              "AverageRating": 4.3,
              "HasVideo": false,
              "IsHealthyLiving": false,
              "NumberOfRatings": 17,
              "PhotoName": "92286.jpg",
              "PhotoUrl": "http://assets.kraftfoods.com/recipe_images/opendeploy/92286.jpg",
              "RecipeId": 92286,
              "RecipeName": "Cheesy Texan Skillet",
              "SEOName": "cheesy-texan-skillet-92286",
              "ThumbnailPhoto": null
            },
            {
              "AverageRating": 4.2,
              "HasVideo": false,
              "IsHealthyLiving": true,
              "NumberOfRatings": 159,
              "PhotoName": "91428.jpg",
              "PhotoUrl": "http://assets.kraftfoods.com/recipe_images/opendeploy/91428.jpg",
              "RecipeId": 91428,
              "RecipeName": "Cheesy Chicken & Broccoli Skillet",
              "SEOName": "cheesy-chicken-broccoli-skillet-91428",
              "ThumbnailPhoto": null
            },
            {
              "AverageRating": 4.2,
              "HasVideo": false,
              "IsHealthyLiving": false,
              "NumberOfRatings": 32,
              "PhotoName": "Deluxe_Cheesy_Chicken_Skillet.jpg",
              "PhotoUrl": "http://assets.kraftfoods.com/recipe_images/opendeploy/Deluxe_Cheesy_Chicken_Skillet.jpg",
              "RecipeId": 55691,
              "RecipeName": "Deluxe Cheesy Chicken Skillet",
              "SEOName": "deluxe-cheesy-chicken-skillet-55691",
              "ThumbnailPhoto": null
            }
          ],
          "TotalCount": 2116
        }
      },
      "RiseIngredients": [
        {
          "IngredientCategory": "KRL",
          "IngredientId": 67733,
          "IngredientIndustrySector": "Retail",
          "IngredientType": "Inedible",
          "ProductId": null,
          "RecipeId": 91557
        },
        {
          "IngredientCategory": "KRL",
          "IngredientId": 67921,
          "IngredientIndustrySector": "Retail",
          "IngredientType": "Inedible",
          "ProductId": null,
          "RecipeId": 91557
        },
        {
          "IngredientCategory": "KRL",
          "IngredientId": 67959,
          "IngredientIndustrySector": "Retail",
          "IngredientType": "KHC",
          "ProductId": "00068100018578",
          "RecipeId": 91557
        },
        {
          "IngredientCategory": "KRL",
          "IngredientId": 68061,
          "IngredientIndustrySector": "Retail",
          "IngredientType": "Inedible",
          "ProductId": null,
          "RecipeId": 91557
        },
        {
          "IngredientCategory": "KRL",
          "IngredientId": 69234,
          "IngredientIndustrySector": "Retail",
          "IngredientType": "KHC",
          "ProductId": null,
          "RecipeId": 91557
        },
        {
          "IngredientCategory": "KRL",
          "IngredientId": 72876,
          "IngredientIndustrySector": "Retail",
          "IngredientType": "Inedible",
          "ProductId": null,
          "RecipeId": 91557
        }
      ],
      "RiseTaxonomy": [
        {
          "ParentTaxonomyId": 54,
          "RecipeId": 91557,
          "ResourceName": "Recipe",
          "TaxonomyId": 32,
          "TaxonomyName": "Skillets, Rice",
          "TaxonomyTypeId": 3,
          "TaxonomyTypeName": "Dish Type"
        },
        {
          "ParentTaxonomyId": 0,
          "RecipeId": 91557,
          "ResourceName": "Recipe",
          "TaxonomyId": 65,
          "TaxonomyName": "Entrées",
          "TaxonomyTypeId": 2,
          "TaxonomyTypeName": "Meal Part"
        }
      ],
      "Riserecipe": [
        {
          "GRIN": 552384,
          "RecipeId": 91557,
          "RecipeIndustrySector": "Retail",
          "RecipeType": "Internal"
        }
      ],
      "RomanceText": "Try our easy Cheesy Chicken Recipe for a quick weeknight entrée! This Cheesy Chicken Recipe stars tender chicken breasts, broccoli and rice.\n",
      "SEOName": "cheesy-chicken-recipe-91557",
      "Tips": [
        {
          "RecipeId": 91557,
          "Sequence": 10,
          "TipDescription": "Prepare using your favorite cream soup and frozen vegetable combination, such as mushroom soup and peas.",
          "TipID": 1,
          "TipName": "Variation"
        }
      ],
      "TotalTime": 20,
      "TradeMarkInfo": null,
      "Video": [],
      "Yield": "4 servings"
    }
  ]
}