{
  "Metadata": {
    "PageCount": 1,
    "PageNo": 0,
    "TotalCount": 0
  },
  "Recipes": [
    {
      "AdServingKeywords": "Cheese,Mozzarella,Onion,Pasta Sauce,Peppers,Vegetables,Sandwich,Nutrition and Well-Being,Dinner,Lunch,All Seasons,Classico,Kraft Singles",
      "AlternateLanguageRecipes": [],
      "Assets": [],
      "AverageRating": 0,
      "BrandId": 1,
      "Branding": null,
      "CSSSkins": null,
      "CarbCounter": "",
      "Categories": [
        {
          "CategoryID": 11,
          "CategoryName": "Primary",
          "CategoryRank": 0,
          "SubCategoryID": 105,
          "SubCategoryName": "Sandwiches",
          "SubCategoryRank": 80
        },
        {
          "CategoryID": 14,
          "CategoryName": "Soup/Sandwiches",
          "CategoryRank": 14,
          "SubCategoryID": 160,
          "SubCategoryName": "Hot Sandwiches",
          "SubCategoryRank": 70
        },
        {
          "CategoryID": 14,
          "CategoryName": "Soup/Sandwiches",
          "CategoryRank": 14,
          "SubCategoryID": 165,
          "SubCategoryName": "Meatless Sandwiches",
          "SubCategoryRank": 80
        },
        {
          "CategoryID": 751,
          "CategoryName": "Breads, Sandwiches, Wraps & Burgers",
          "CategoryRank": 5,
          "SubCategoryID": 2531,
          "SubCategoryName": "Fresh",
          "SubCategoryRank": 1
        },
        {
          "CategoryID": 751,
          "CategoryName": "Breads, Sandwiches, Wraps & Burgers",
          "CategoryRank": 5,
          "SubCategoryID": 2532,
          "SubCategoryName": "Toasted / Grilled / Cooked",
          "SubCategoryRank": 1
        },
        {
          "CategoryID": 757,
          "CategoryName": "Vegetables & Vegetarian Meals",
          "CategoryRank": 11,
          "SubCategoryID": 2571,
          "SubCategoryName": "Side / Other",
          "SubCategoryRank": 1
        }
      ],
      "Classifications": [
        {
          "ClassficationId": 14,
          "ClassificationName": "Generally Nutritious"
        }
      ],
      "ComplimentaryRecipes": null,
      "CookingMethod": null,
      "Copyright": null,
      "Courses": [
        "Salads & sides",
        "Sandwiches"
      ],
      "DietExchange": "2 Starch,1/2 Meat (VL),1 1/2 Fat",
      "DishDetails": [],
      "EndDate": "/Date(-62135575200000-0600)/",
      "HasVideo": false,
      "Ingredients": [
        {
          "FullMeasure": "4 slices",
          "FullWeight": "",
          "IngredientGridHeaders": null,
          "IngredientID": 21087,
          "IngredientName": "100% whole grain bread",
          "IngredientStep": 10,
          "LanguageId": 0,
          "PostPreparation": "",
          "PrePreparation": "",
          "QuantityNum": 4,
          "QuantityText": "4",
          "QuantityUnit": "slices",
          "RecipeIngredientID": 5244951,
          "TrialMeasure": "",
          "TrialWeight": ""
        },
        {
          "FullMeasure": "2 Tbsp.",
          "FullWeight": "",
          "IngredientGridHeaders": null,
          "IngredientID": 30139,
          "IngredientName": "CLASSICO Traditional Pizza Sauce",
          "IngredientStep": 20,
          "LanguageId": 0,
          "PostPreparation": "",
          "PrePreparation": "",
          "QuantityNum": 2,
          "QuantityText": "2",
          "QuantityUnit": "Tbsp.",
          "RecipeIngredientID": 5244954,
          "TrialMeasure": "",
          "TrialWeight": ""
        },
        {
          "FullMeasure": "2",
          "FullWeight": "",
          "IngredientGridHeaders": null,
          "IngredientID": 4811,
          "IngredientName": "KRAFT FREE Mozzarella Singles",
          "IngredientStep": 30,
          "LanguageId": 0,
          "PostPreparation": "",
          "PrePreparation": "",
          "QuantityNum": 2,
          "QuantityText": "2",
          "QuantityUnit": "",
          "RecipeIngredientID": 5244956,
          "TrialMeasure": "",
          "TrialWeight": ""
        },
        {
          "FullMeasure": "2 Tbsp.",
          "FullWeight": "",
          "IngredientGridHeaders": null,
          "IngredientID": 1206,
          "IngredientName": "green pepper",
          "IngredientStep": 40,
          "LanguageId": 0,
          "PostPreparation": "s",
          "PrePreparation": "chopped",
          "QuantityNum": 2,
          "QuantityText": "2",
          "QuantityUnit": "Tbsp.",
          "RecipeIngredientID": 5244952,
          "TrialMeasure": "",
          "TrialWeight": ""
        },
        {
          "FullMeasure": "2 Tbsp.",
          "FullWeight": "",
          "IngredientGridHeaders": null,
          "IngredientID": 1529,
          "IngredientName": "red onion",
          "IngredientStep": 50,
          "LanguageId": 0,
          "PostPreparation": "s",
          "PrePreparation": "chopped",
          "QuantityNum": 2,
          "QuantityText": "2",
          "QuantityUnit": "Tbsp.",
          "RecipeIngredientID": 5244953,
          "TrialMeasure": "",
          "TrialWeight": ""
        },
        {
          "FullMeasure": "4 tsp.",
          "FullWeight": "",
          "IngredientGridHeaders": null,
          "IngredientID": 5836,
          "IngredientName": "vegetable oil spread",
          "IngredientStep": 60,
          "LanguageId": 0,
          "PostPreparation": "",
          "PrePreparation": "",
          "QuantityNum": 4,
          "QuantityText": "4",
          "QuantityUnit": "tsp.",
          "RecipeIngredientID": 5244955,
          "TrialMeasure": "",
          "TrialWeight": ""
        }
      ],
      "IsHealthyLiving": true,
      "KRLId": "508940",
      "KeyIngredients": [
        "Bread",
        "Cheese",
        "Mozzarella",
        "Onion",
        "Peppers",
        "Vegetables"
      ],
      "Keywords": "mozzarella cheese,onions,peppers,pizza sauce,green peppers,KRAFT Singles,spread,cheese slices,bell peppers,cheese-fat free,Sandwich,Nutrition and Well-Being,Dinner,Lunch,All Seasons",
      "LanguageId": 1,
      "LifeStyles": [
        "Generally Nutritious"
      ],
      "NumberOfIngredients": 6,
      "NumberOfRatings": 0,
      "NumberOfRatingsWithComments": "0",
      "NumberOfServings": "2 servings",
      "NumberOfTrialServings": "",
      "NutritionBonus": "Made with better-for-you ingredients, these grilled cheese sandwiches are rich in calcium, thanks to the Singles.",
      "NutritionExchangeItemId": 1,
      "NutritionGridItems": null,
      "NutritionItems": [
        {
          "DisplayOrder": 1,
          "Document": null,
          "NutritionItemID": 3,
          "NutritionItemName": "Calories",
          "Predriscriptor": "",
          "Quantity": 240,
          "Unit": "          "
        },
        {
          "DisplayOrder": 2,
          "Document": "fat_cholesterol.html",
          "NutritionItemID": 4,
          "NutritionItemName": "Total fat",
          "Predriscriptor": "",
          "Quantity": 9,
          "Unit": "g         "
        },
        {
          "DisplayOrder": 3,
          "Document": "fat_cholesterol.html",
          "NutritionItemID": 9,
          "NutritionItemName": "Saturated fat",
          "Predriscriptor": "",
          "Quantity": 2,
          "Unit": "g         "
        },
        {
          "DisplayOrder": 7,
          "Document": "fat_cholesterol.html",
          "NutritionItemID": 2,
          "NutritionItemName": "Cholesterol",
          "Predriscriptor": "Less than",
          "Quantity": 5,
          "Unit": "mg        "
        },
        {
          "DisplayOrder": 8,
          "Document": "sodium.html",
          "NutritionItemID": 8,
          "NutritionItemName": "Sodium",
          "Predriscriptor": "",
          "Quantity": 640,
          "Unit": "mg        "
        },
        {
          "DisplayOrder": 10,
          "Document": "carbs_sugars_fiber.html",
          "NutritionItemID": 1,
          "NutritionItemName": "Carbohydrate",
          "Predriscriptor": "",
          "Quantity": 27,
          "Unit": "g         "
        },
        {
          "DisplayOrder": 11,
          "Document": "carbs_sugars_fiber.html",
          "NutritionItemID": 7,
          "NutritionItemName": "Dietary fiber",
          "Predriscriptor": "",
          "Quantity": 4,
          "Unit": "g         "
        },
        {
          "DisplayOrder": 12,
          "Document": "carbs_sugars_fiber.html",
          "NutritionItemID": 5,
          "NutritionItemName": "Sugars",
          "Predriscriptor": "",
          "Quantity": 3,
          "Unit": "g         "
        },
        {
          "DisplayOrder": 13,
          "Document": null,
          "NutritionItemID": 6,
          "NutritionItemName": "Protein",
          "Predriscriptor": "",
          "Quantity": 12,
          "Unit": "g         "
        },
        {
          "DisplayOrder": 14,
          "Document": null,
          "NutritionItemID": 10,
          "NutritionItemName": "Vitamin A",
          "Predriscriptor": "",
          "Quantity": 15,
          "Unit": "%DV       "
        },
        {
          "DisplayOrder": 15,
          "Document": null,
          "NutritionItemID": 11,
          "NutritionItemName": "Vitamin C",
          "Predriscriptor": "",
          "Quantity": 8,
          "Unit": "%DV       "
        },
        {
          "DisplayOrder": 16,
          "Document": "dairy_and_calcium.html",
          "NutritionItemID": 12,
          "NutritionItemName": "Calcium",
          "Predriscriptor": "",
          "Quantity": 20,
          "Unit": "%DV       "
        },
        {
          "DisplayOrder": 17,
          "Document": null,
          "NutritionItemID": 13,
          "NutritionItemName": "Iron",
          "Predriscriptor": "",
          "Quantity": 8,
          "Unit": "%DV       "
        }
      ],
      "NutritionServingText": " ",
      "PrepStepImage": null,
      "PreparationDescription": "Spread bread with pizza sauce.  Cover each of 2 bread slices with 1 Singles and 1 Tbsp. <u>each</u> peppers and onions; top with remaining Singles and bread slices, sauce sides down.$Spread outsides of sandwiches with vegetable oil spread.$Cook in skillet on medium heat 3 min. on each side or until golden brown on both sides.",
      "PreparationPreText": "",
      "PreparationSteps": [
        {
          "Description": "Spread bread with pizza sauce.  Cover each of 2 bread slices with 1 Singles and 1 Tbsp. <u>each</u> peppers and onions; top with remaining Singles and bread slices, sauce sides down.",
          "PreparationStepImage": {
            "PictureFormats": [],
            "author": null,
            "id": null,
            "imageType": null,
            "mimeType": null,
            "publicationDate": null,
            "status": null,
            "title": null,
            "type": null
          },
          "Sequence": 1
        },
        {
          "Description": "Spread outsides of sandwiches with vegetable oil spread.",
          "PreparationStepImage": {
            "PictureFormats": [],
            "author": null,
            "id": null,
            "imageType": null,
            "mimeType": null,
            "publicationDate": null,
            "status": null,
            "title": null,
            "type": null
          },
          "Sequence": 2
        },
        {
          "Description": "Cook in skillet on medium heat 3 min. on each side or until golden brown on both sides.",
          "PreparationStepImage": {
            "PictureFormats": [],
            "author": null,
            "id": null,
            "imageType": null,
            "mimeType": null,
            "publicationDate": null,
            "status": null,
            "title": null,
            "type": null
          },
          "Sequence": 3
        }
      ],
      "PreparationTime": 15,
      "Promotion": null,
      "Ratings": {
        "TotalCount": 0,
        "PageCount": 10,
        "PageNo": 1,
        "Rating": []
      },
      "RecipeDisplayFormatId": 5,
      "RecipeId": 154725,
      "RecipeName": "Grilled Cheese Pizza Sandwiches",
      "RecipeType": 0,
      "RelatedData": {
        "RelatedBrands": null,
        "RelatedProducts": null,
        "RelatedRecipes": {
          "DefaultTopCount": 5,
          "Recipe": [
            {
              "AverageRating": 4.3,
              "HasVideo": false,
              "IsHealthyLiving": false,
              "NumberOfRatings": 15,
              "PhotoName": "Favorite_Pizza_Grill_Sandwich.jpg",
              "PhotoUrl": "http://assets.kraftfoods.com/recipe_images/opendeploy/Favorite_Pizza_Grill_Sandwich.jpg",
              "RecipeId": 55587,
              "RecipeName": "Favorite Pizza Grill Sandwich",
              "SEOName": "favorite-pizza-grill-sandwich-55587",
              "ThumbnailPhoto": null
            },
            {
              "AverageRating": 4.2,
              "HasVideo": false,
              "IsHealthyLiving": true,
              "NumberOfRatings": 30,
              "PhotoName": "opendeploy/553043_1_1_retail-7c0f55b59ea00b41908a742e071a1e1c258c27f2_306x204.jpg",
              "PhotoUrl": "http://assets.kraftfoods.com/recipe_images/opendeploy/opendeploy/553043_1_1_retail-7c0f55b59ea00b41908a742e071a1e1c258c27f2_306x204.jpg",
              "RecipeId": 91989,
              "RecipeName": "Easy Pizza Burger Recipe",
              "SEOName": "easy-pizza-burger-recipe-91989",
              "ThumbnailPhoto": null
            },
            {
              "AverageRating": 5,
              "HasVideo": false,
              "IsHealthyLiving": false,
              "NumberOfRatings": 1,
              "PhotoName": "179732.jpg",
              "PhotoUrl": "http://assets.kraftfoods.com/recipe_images/opendeploy/179732.jpg",
              "RecipeId": 179732,
              "RecipeName": "Grilled White Chicken Pizza",
              "SEOName": "grilled-white-chicken-pizza-179732",
              "ThumbnailPhoto": null
            },
            {
              "AverageRating": 5,
              "HasVideo": false,
              "IsHealthyLiving": false,
              "NumberOfRatings": 1,
              "PhotoName": "167480.jpg",
              "PhotoUrl": "http://assets.kraftfoods.com/recipe_images/opendeploy/167480.jpg",
              "RecipeId": 167480,
              "RecipeName": "Grilled Peach and Pepper Jack Pizza",
              "SEOName": "grilled-peach-pepper-jack-pizza-167480",
              "ThumbnailPhoto": null
            },
            {
              "AverageRating": 4.5,
              "HasVideo": false,
              "IsHealthyLiving": false,
              "NumberOfRatings": 4,
              "PhotoName": "131203.jpg",
              "PhotoUrl": "http://assets.kraftfoods.com/recipe_images/opendeploy/131203.jpg",
              "RecipeId": 131203,
              "RecipeName": "Grilled Chicken Flatbread",
              "SEOName": "grilled-chicken-flatbread-131203",
              "ThumbnailPhoto": null
            }
          ],
          "TotalCount": 5182
        }
      },
      "RiseIngredients": [],
      "RiseTaxonomy": [],
      "Riserecipe": [
        {
          "GRIN": 508940,
          "RecipeId": 154725,
          "RecipeIndustrySector": "Retail",
          "RecipeType": "Internal"
        }
      ],
      "RomanceText": "Like your pizza with peppers and onions? Try your grilled cheese sandwiches the same way! They're ready to eat in less than 15 minutes.",
      "SEOName": "grilled-cheese-pizza-sandwiches-154725",
      "Tips": [
        {
          "RecipeId": 154725,
          "Sequence": 10,
          "TipDescription": "Serve with a mixed green salad tossed with your favorite KRAFT Lite Dressing.",
          "TipID": 4,
          "TipName": "Serving Suggestion"
        },
        {
          "RecipeId": 154725,
          "Sequence": 20,
          "TipDescription": "Omit pizza sauce, peppers and onions.  For each sandwich, cover 1 bread slice with 1 KRAFT 2% Milk Singles, 2 tomato slices and dash of dried oregano leaves; cover with second Singles and second bread slice.  Spread with 2 tsp. vegetable oil spread and cook as directed.  Makes 1 serving.",
          "TipID": 2,
          "TipName": "Favorite Grilled Cheese & Tomato Sandwich"
        },
        {
          "RecipeId": 154725,
          "Sequence": 30,
          "TipDescription": "Substitute red peppers for the green peppers.",
          "TipID": 3,
          "TipName": "Substitute"
        }
      ],
      "TotalTime": 15,
      "TradeMarkInfo": null,
      "Video": [],
      "Yield": "2 servings"
    }
  ]
}