{
  "Metadata": {
    "PageCount": 1,
    "PageNo": 0,
    "TotalCount": 0
  },
  "Recipes": [
    {
      "AdServingKeywords": "Dessert,Easy,Banana,Dairy,Fruit,Cool Whip,Jell-O,Kids Can Cook,Quick and Easy,All Seasons,Creamy,Pudding,Refrigerated Dessert",
      "AlternateLanguageRecipes": [],
      "Assets": [
        {
          "PictureFormats": [
            {
              "rendition": "300x200",
              "url": "http://assets.kraftfoods.com/recipe_images/Double-Decker_Banana_Cups.jpg"
            }
          ],
          "author": null,
          "id": "0",
          "imageType": "LANDSCAPE",
          "mimeType": null,
          "publicationDate": null,
          "status": "1",
          "title": "Double-Decker_Banana_Cups.jpg",
          "type": "image"
        }
      ],
      "AverageRating": 4.7,
      "BrandId": 1,
      "Branding": null,
      "CSSSkins": [],
      "CarbCounter": null,
      "Categories": [
        {
          "CategoryID": 3,
          "CategoryName": "Cookies/Candy/Other Desserts",
          "CategoryRank": 6,
          "SubCategoryID": 369,
          "SubCategoryName": "Parfaits",
          "SubCategoryRank": 160
        },
        {
          "CategoryID": 11,
          "CategoryName": "Primary",
          "CategoryRank": 0,
          "SubCategoryID": 103,
          "SubCategoryName": "Desserts",
          "SubCategoryRank": 40
        },
        {
          "CategoryID": 759,
          "CategoryName": "Desserts",
          "CategoryRank": 13,
          "SubCategoryID": 2577,
          "SubCategoryName": "Cold / Gelatine",
          "SubCategoryRank": 1
        }
      ],
      "Classifications": [
        {
          "ClassficationId": 14,
          "ClassificationName": "Generally Nutritious"
        }
      ],
      "ComplimentaryRecipes": null,
      "CookingMethod": null,
      "Copyright": null,
      "Courses": [
        "Desserts"
      ],
      "DietExchange": "1 Starch,1 Fruit,1/2 Fat",
      "DishDetails": [
        {
          "Text": "desserts",
          "Url": "/recipes/dessert/main.aspx"
        },
        {
          "Text": "fruity desserts",
          "Url": "/recipes/dessert/fruitydesserts.aspx"
        },
        {
          "Text": "gelatin desserts",
          "Url": "/recipes/dessert/gelatindesserts.aspx"
        },
        {
          "Text": "layered desserts",
          "Url": "/recipes/dessert/layereddesserts.aspx"
        },
        {
          "Text": "brownie recipes",
          "Url": "/recipes/dessert/brownie-recipes/main.aspx"
        },
        {
          "Text": "budget desserts",
          "Url": "/recipes/budget/budget-desserts.aspx"
        },
        {
          "Text": "no bake desserts",
          "Url": "/recipes/dessert/nobakedesserts.aspx"
        },
        {
          "Text": "pumpkin recipes",
          "Url": "/recipes/dessert/pumpkin-recipes.aspx"
        },
        {
          "Text": "chocolate cake recipes",
          "Url": "/recipes/dessert/chocolate-cake-recipes/main.aspx"
        },
        {
          "Text": "cheesecake recipes",
          "Url": "/recipes/dessert/cheesecake-center/cheesecake-recipes/main.aspx"
        },
        {
          "Text": "chocolate lovers recipes",
          "Url": "/recipes/dessert/chocolate-center/chocolateloversrecipes.aspx"
        },
        {
          "Text": "classic desserts",
          "Url": "/recipes/dessert/classicdesserts.aspx"
        },
        {
          "Text": "cookie ball recipes",
          "Url": "/recipes/dessert/cookie-ball-recipes/main.aspx"
        },
        {
          "Text": "cookie recipes",
          "Url": "/recipes/dessert/cookie-recipes/main.aspx"
        },
        {
          "Text": "cupcake recipes",
          "Url": "/recipes/dessert/cupcake-recipes/main.aspx"
        },
        {
          "Text": "healthy living desserts",
          "Url": "/healthy-living-ideas/diabetes-center/recipes/dessert-recipes.aspx"
        }
      ],
      "EndDate": "/Date(-62135575200000-0600)/",
      "HasVideo": false,
      "Ingredients": [
        {
          "FullMeasure": "1-1/2 cups",
          "FullWeight": "",
          "IngredientGridHeaders": null,
          "IngredientID": 4717,
          "IngredientName": "fat-free milk",
          "IngredientStep": 10,
          "LanguageId": 0,
          "PostPreparation": "",
          "PrePreparation": "cold",
          "QuantityNum": 1,
          "QuantityText": "1-1/2",
          "QuantityUnit": "cups",
          "RecipeIngredientID": 5279208,
          "TrialMeasure": "",
          "TrialWeight": ""
        },
        {
          "FullMeasure": "1 pkg.",
          "FullWeight": "",
          "IngredientGridHeaders": null,
          "IngredientID": 367,
          "IngredientName": "JELL-O Vanilla Flavor Sugar Free Fat Free Instant Pudding",
          "IngredientStep": 20,
          "LanguageId": 0,
          "PostPreparation": "",
          "PrePreparation": "(4-serving size)",
          "QuantityNum": 1,
          "QuantityText": "1",
          "QuantityUnit": "pkg.",
          "RecipeIngredientID": 5279211,
          "TrialMeasure": "",
          "TrialWeight": ""
        },
        {
          "FullMeasure": "1 cup",
          "FullWeight": "",
          "IngredientGridHeaders": null,
          "IngredientID": 138,
          "IngredientName": "COOL WHIP LITE Whipped Topping",
          "IngredientStep": 30,
          "LanguageId": 0,
          "PostPreparation": "",
          "PrePreparation": "thawed",
          "QuantityNum": 1,
          "QuantityText": "1",
          "QuantityUnit": "cup",
          "RecipeIngredientID": 5279212,
          "TrialMeasure": "",
          "TrialWeight": ""
        },
        {
          "FullMeasure": "2 Tbsp.",
          "FullWeight": "",
          "IngredientGridHeaders": null,
          "IngredientID": 20030,
          "IngredientName": "graham cracker crumbs",
          "IngredientStep": 40,
          "LanguageId": 0,
          "PostPreparation": "",
          "PrePreparation": "",
          "QuantityNum": 2,
          "QuantityText": "2",
          "QuantityUnit": "Tbsp.",
          "RecipeIngredientID": 5279209,
          "TrialMeasure": "",
          "TrialWeight": ""
        },
        {
          "FullMeasure": "2 medium",
          "FullWeight": "",
          "IngredientGridHeaders": null,
          "IngredientID": 8755,
          "IngredientName": "banana",
          "IngredientStep": 50,
          "LanguageId": 0,
          "PostPreparation": "s, sliced",
          "PrePreparation": "",
          "QuantityNum": 2,
          "QuantityText": "2",
          "QuantityUnit": "medium",
          "RecipeIngredientID": 5279210,
          "TrialMeasure": "",
          "TrialWeight": ""
        }
      ],
      "IsHealthyLiving": true,
      "KRLId": "534304",
      "KeyIngredients": [
        "Banana",
        "Dairy",
        "Fruit"
      ],
      "Keywords": "bananas,COOL WHIP LITE,JELL-O Sugar-Free Pudding,milk,vanilla pudding mix,pudding mix-instant-sugar free,graham cracker crumbs,whipped topping-reduced fat,HONEY MAID Cracker Crumbs,Dessert,Easy,Kids Can Cook,Quick and Easy,All Seasons,Refrigerated Dessert",
      "LanguageId": 1,
      "LifeStyles": [
        "Generally Nutritious"
      ],
      "NumberOfIngredients": 5,
      "NumberOfRatings": 16,
      "NumberOfRatingsWithComments": "12",
      "NumberOfServings": "4 servings",
      "NumberOfTrialServings": null,
      "NutritionBonus": "This great-tasting dessert, made with better-for-you products, can be part of your healthful eating plan.",
      "NutritionExchangeItemId": 1,
      "NutritionGridItems": null,
      "NutritionItems": [
        {
          "DisplayOrder": 1,
          "Document": null,
          "NutritionItemID": 3,
          "NutritionItemName": "Calories",
          "Predriscriptor": "",
          "Quantity": 170,
          "Unit": "          "
        },
        {
          "DisplayOrder": 2,
          "Document": "fat_cholesterol.html",
          "NutritionItemID": 4,
          "NutritionItemName": "Total fat",
          "Predriscriptor": "",
          "Quantity": 3,
          "Unit": "g         "
        },
        {
          "DisplayOrder": 3,
          "Document": "fat_cholesterol.html",
          "NutritionItemID": 9,
          "NutritionItemName": "Saturated fat",
          "Predriscriptor": "",
          "Quantity": 2.5,
          "Unit": "g         "
        },
        {
          "DisplayOrder": 7,
          "Document": "fat_cholesterol.html",
          "NutritionItemID": 2,
          "NutritionItemName": "Cholesterol",
          "Predriscriptor": "",
          "Quantity": 0,
          "Unit": "mg        "
        },
        {
          "DisplayOrder": 8,
          "Document": "sodium.html",
          "NutritionItemID": 8,
          "NutritionItemName": "Sodium",
          "Predriscriptor": "",
          "Quantity": 380,
          "Unit": "mg        "
        },
        {
          "DisplayOrder": 10,
          "Document": "carbs_sugars_fiber.html",
          "NutritionItemID": 1,
          "NutritionItemName": "Carbohydrate",
          "Predriscriptor": "",
          "Quantity": 32,
          "Unit": "g         "
        },
        {
          "DisplayOrder": 11,
          "Document": "carbs_sugars_fiber.html",
          "NutritionItemID": 7,
          "NutritionItemName": "Dietary fiber",
          "Predriscriptor": "",
          "Quantity": 2,
          "Unit": "g         "
        },
        {
          "DisplayOrder": 12,
          "Document": "carbs_sugars_fiber.html",
          "NutritionItemID": 5,
          "NutritionItemName": "Sugars",
          "Predriscriptor": "",
          "Quantity": 17,
          "Unit": "g         "
        },
        {
          "DisplayOrder": 13,
          "Document": null,
          "NutritionItemID": 6,
          "NutritionItemName": "Protein",
          "Predriscriptor": "",
          "Quantity": 4,
          "Unit": "g         "
        },
        {
          "DisplayOrder": 14,
          "Document": null,
          "NutritionItemID": 10,
          "NutritionItemName": "Vitamin A",
          "Predriscriptor": "",
          "Quantity": 6,
          "Unit": "%DV       "
        },
        {
          "DisplayOrder": 15,
          "Document": null,
          "NutritionItemID": 11,
          "NutritionItemName": "Vitamin C",
          "Predriscriptor": "",
          "Quantity": 8,
          "Unit": "%DV       "
        },
        {
          "DisplayOrder": 16,
          "Document": "dairy_and_calcium.html",
          "NutritionItemID": 12,
          "NutritionItemName": "Calcium",
          "Predriscriptor": "",
          "Quantity": 10,
          "Unit": "%DV       "
        },
        {
          "DisplayOrder": 17,
          "Document": null,
          "NutritionItemID": 13,
          "NutritionItemName": "Iron",
          "Predriscriptor": "",
          "Quantity": 4,
          "Unit": "%DV       "
        }
      ],
      "NutritionServingText": null,
      "PrepStepImage": null,
      "PreparationDescription": "Pour milk into large bowl.  Add dry pudding mix.  Beat with wire whisk 2 min. or until well blended. Gently stir in the whipped topping. Let stand 5 min. $Layer half <u>each</u> of the pudding mixture, graham crumbs and bananas in four individual dessert dishes; repeat all layers.$Refrigerate at least 1 hour or until ready to serve.  Store leftover desserts in refrigerator.",
      "PreparationPreText": null,
      "PreparationSteps": [
        {
          "Description": "Pour milk into large bowl.  Add dry pudding mix.  Beat with wire whisk 2 min. or until well blended. Gently stir in the whipped topping. Let stand 5 min. ",
          "PreparationStepImage": {
            "PictureFormats": [],
            "author": null,
            "id": null,
            "imageType": null,
            "mimeType": null,
            "publicationDate": null,
            "status": null,
            "title": null,
            "type": null
          },
          "Sequence": 1
        },
        {
          "Description": "Layer half <u>each</u> of the pudding mixture, graham crumbs and bananas in four individual dessert dishes; repeat all layers.",
          "PreparationStepImage": {
            "PictureFormats": [],
            "author": null,
            "id": null,
            "imageType": null,
            "mimeType": null,
            "publicationDate": null,
            "status": null,
            "title": null,
            "type": null
          },
          "Sequence": 2
        },
        {
          "Description": "Refrigerate at least 1 hour or until ready to serve.  Store leftover desserts in refrigerator.",
          "PreparationStepImage": {
            "PictureFormats": [],
            "author": null,
            "id": null,
            "imageType": null,
            "mimeType": null,
            "publicationDate": null,
            "status": null,
            "title": null,
            "type": null
          },
          "Sequence": 3
        }
      ],
      "PreparationTime": 5,
      "Promotion": null,
      "Ratings": {
        "TotalCount": 16,
        "PageCount": 10,
        "PageNo": 1,
        "Rating": [
          {
            "Comment": "Our favorite dessert!! Its quick, easy and uber tastey!",
            "DisplayName": true,
            "RatingValue": 5,
            "SubmitDate": "/Date(1273333615000-0500)/",
            "UpdatedDate": "/Date(1273333615000-0500)/",
            "UserName": "wenchseven"
          },
          {
            "Comment": "",
            "DisplayName": true,
            "RatingValue": 5,
            "SubmitDate": "/Date(1244580648000-0500)/",
            "UpdatedDate": "/Date(1244580648000-0500)/",
            "UserName": "cforehand0"
          },
          {
            "Comment": "A new favorite!! I love this - everyone else LOVED this. It was great. People thought it was much more complicated than it actually is. I made it in one big dish and it looked very pretty. Used Nilla Wafers though. Really simple. Really good. Will make again and again!!",
            "DisplayName": true,
            "RatingValue": 5,
            "SubmitDate": "/Date(1212375243000-0500)/",
            "UpdatedDate": "/Date(1212375243000-0500)/",
            "UserName": "star18"
          },
          {
            "Comment": "The first time I made this was for a family party, I have been making it since. It is easy and so good. I bring it to every party I go to because it is always requested.  One tip instead of making it in individual cup I make it in a Trifle bowl, it also looks really nice.",
            "DisplayName": true,
            "RatingValue": 5,
            "SubmitDate": "/Date(1176054391000-0500)/",
            "UpdatedDate": "/Date(1176054391000-0500)/",
            "UserName": "alafra"
          },
          {
            "Comment": "Tasty and easy to make!",
            "DisplayName": true,
            "RatingValue": 5,
            "SubmitDate": "/Date(1174442580000-0500)/",
            "UpdatedDate": "/Date(1174442580000-0500)/",
            "UserName": "ariens69"
          },
          {
            "Comment": "Very easy to make, yummy and looks great in fancy glasses!",
            "DisplayName": true,
            "RatingValue": 5,
            "SubmitDate": "/Date(1154659865000-0500)/",
            "UpdatedDate": "/Date(1154659865000-0500)/",
            "UserName": "Dameieon"
          },
          {
            "Comment": "",
            "DisplayName": true,
            "RatingValue": 5,
            "SubmitDate": "/Date(1151605141000-0500)/",
            "UpdatedDate": "/Date(1151605141000-0500)/",
            "UserName": "kyneish"
          },
          {
            "Comment": "I made this recipe yesterday for a bbq.It was a hit.I layered the ingrediants in a big clear bowl. Also i added vanilla icecream in the pudding and pie mixture.Topped it of with fresh stawberries and walnuts.I will definetly make it again and again.",
            "DisplayName": true,
            "RatingValue": 4,
            "SubmitDate": "/Date(1151174479000-0500)/",
            "UpdatedDate": "/Date(1151174479000-0500)/",
            "UserName": "sana 21"
          },
          {
            "Comment": "This recipe was quick & delicious. I can't wait to make it again.",
            "DisplayName": false,
            "RatingValue": 4,
            "SubmitDate": "/Date(1150910145000-0500)/",
            "UpdatedDate": "/Date(1150910145000-0500)/",
            "UserName": "shawna7997"
          },
          {
            "Comment": "Made this yesterday and it was very good. I used nilla wafers(crumbled) instead of graham crackers. I was very good. I will make again tonight!",
            "DisplayName": true,
            "RatingValue": 4,
            "SubmitDate": "/Date(1150307613000-0500)/",
            "UpdatedDate": "/Date(1150307613000-0500)/",
            "UserName": "kiss04bam"
          }
        ]
      },
      "RecipeDisplayFormatId": 5,
      "RecipeId": 74199,
      "RecipeName": "Double-Decker Banana Cups",
      "RecipeType": 0,
      "RelatedData": {
        "RelatedBrands": null,
        "RelatedProducts": null,
        "RelatedRecipes": {
          "DefaultTopCount": 5,
          "Recipe": [
            {
              "AverageRating": 4.9,
              "HasVideo": false,
              "IsHealthyLiving": false,
              "NumberOfRatings": 7,
              "PhotoName": "114847.jpg",
              "PhotoUrl": "http://assets.kraftfoods.com/recipe_images/opendeploy/114847.jpg",
              "RecipeId": 114847,
              "RecipeName": "Double-Decker OREO Cheesecake",
              "SEOName": "double-decker-oreo-cheesecake-114847",
              "ThumbnailPhoto": null
            },
            {
              "AverageRating": 4.9,
              "HasVideo": false,
              "IsHealthyLiving": false,
              "NumberOfRatings": 7,
              "PhotoName": "DOUBLE_DECKER_Veggie_Tacos.jpg",
              "PhotoUrl": "http://assets.kraftfoods.com/recipe_images/opendeploy/DOUBLE_DECKER_Veggie_Tacos.jpg",
              "RecipeId": 55207,
              "RecipeName": "Double-Decker Vegetarian Tacos",
              "SEOName": "double-decker-vegetarian-tacos-55207",
              "ThumbnailPhoto": null
            },
            {
              "AverageRating": 4.6,
              "HasVideo": false,
              "IsHealthyLiving": false,
              "NumberOfRatings": 41,
              "PhotoName": "DOUBLE_DECKER_Tacos.jpg",
              "PhotoUrl": "http://assets.kraftfoods.com/recipe_images/opendeploy/DOUBLE_DECKER_Tacos.jpg",
              "RecipeId": 50166,
              "RecipeName": "DOUBLE DECKER Tacos Recipe",
              "SEOName": "double-decker-tacos-recipe-50166",
              "ThumbnailPhoto": null
            },
            {
              "AverageRating": 4.4,
              "HasVideo": false,
              "IsHealthyLiving": false,
              "NumberOfRatings": 71,
              "PhotoName": "Taco_Salad_Tostada.jpg",
              "PhotoUrl": "http://assets.kraftfoods.com/recipe_images/opendeploy/Taco_Salad_Tostada.jpg",
              "RecipeId": 63772,
              "RecipeName": "Taco Salad Tostada",
              "SEOName": "taco-salad-tostada-63772",
              "ThumbnailPhoto": null
            },
            {
              "AverageRating": 4.2,
              "HasVideo": false,
              "IsHealthyLiving": false,
              "NumberOfRatings": 17,
              "PhotoName": "150548.jpg",
              "PhotoUrl": "http://assets.kraftfoods.com/recipe_images/opendeploy/150548.jpg",
              "RecipeId": 150548,
              "RecipeName": "Double-Banana Pudding Cake",
              "SEOName": "double-banana-pudding-cake-150548",
              "ThumbnailPhoto": null
            }
          ],
          "TotalCount": 2394
        }
      },
      "RiseIngredients": [],
      "RiseTaxonomy": [],
      "Riserecipe": [
        {
          "GRIN": 534304,
          "RecipeId": 74199,
          "RecipeIndustrySector": "Retail",
          "RecipeType": "Internal"
        }
      ],
      "RomanceText": "With two layers each of a creamy pudding mixture, graham cracker crumbs and sliced bananas, this 5-minute, no-bake recipe will be your new go-to dessert.",
      "SEOName": "double-decker-banana-cups-74199",
      "Tips": [
        {
          "RecipeId": 74199,
          "Sequence": 10,
          "TipDescription": "Prepare as directed, using JELL-O Chocolate Flavor Sugar Free Fat Free Instant Pudding.",
          "TipID": 1,
          "TipName": "Substitute"
        }
      ],
      "TotalTime": 5,
      "TradeMarkInfo": null,
      "Video": [],
      "Yield": "Makes 4 servings."
    }
  ]
}