{
  "Metadata": {
    "PageCount": 1,
    "PageNo": 0,
    "TotalCount": 0
  },
  "Recipes": [
    {
      "AdServingKeywords": "Entree,Cheese,Chicken,Colby,Lettuce,Meat,Monterey Jack,Poultry,Tomato,Vegetables,Slow cooker,All Seasons,Dinner,Lunch,Spicy,Kraft Cheese,Kraft Shredded Cheese,Taco Bell®",
      "AlternateLanguageRecipes": [],
      "Assets": [
        {
          "PictureFormats": [
            {
              "rendition": "640x428",
              "url": "http://assets.kraftfoods.com/recipe_images/opendeploy/172027_640x428.jpg"
            },
            {
              "rendition": "290x194",
              "url": "http://assets.kraftfoods.com/recipe_images/opendeploy/172027_290x194.jpg"
            },
            {
              "rendition": "600x250",
              "url": "http://assets.kraftfoods.com/recipe_images/opendeploy/172027_600x250.jpg"
            },
            {
              "rendition": "640x428",
              "url": "http://assets.kraftfoods.com/recipe_images/opendeploy/172027_640x428.jpg"
            }
          ],
          "author": null,
          "id": "3",
          "imageType": "Primary",
          "mimeType": "image/jpeg",
          "publicationDate": null,
          "status": "1",
          "title": "172027",
          "type": "image"
        },
        {
          "PictureFormats": [
            {
              "rendition": "300x200",
              "url": "http://assets.kraftfoods.com/recipe_images/172027.jpg"
            },
            {
              "rendition": "300x200",
              "url": "http://assets.kraftfoods.com/recipe_images/167145_MXM_64801CR.jpg"
            }
          ],
          "author": null,
          "id": "1",
          "imageType": "LANDSCAPE",
          "mimeType": "image/jpeg",
          "publicationDate": null,
          "status": "1",
          "title": "167145_MXM_64801CR.jpg",
          "type": "image"
        }
      ],
      "AverageRating": 4,
      "BrandId": 1,
      "Branding": null,
      "CSSSkins": null,
      "CarbCounter": null,
      "Categories": [
        {
          "CategoryID": 2,
          "CategoryName": "Poultry Entrees",
          "CategoryRank": 11,
          "SubCategoryID": 381,
          "SubCategoryName": "Enchiladas/Fajitas/Tacos",
          "SubCategoryRank": 30
        },
        {
          "CategoryID": 11,
          "CategoryName": "Primary",
          "CategoryRank": 0,
          "SubCategoryID": 97,
          "SubCategoryName": "Entrees",
          "SubCategoryRank": 50
        },
        {
          "CategoryID": 755,
          "CategoryName": "International Flavours",
          "CategoryRank": 9,
          "SubCategoryID": 2557,
          "SubCategoryName": "Asian",
          "SubCategoryRank": 1
        },
        {
          "CategoryID": 756,
          "CategoryName": "Main Meals (Meat / Seafood / Egg)",
          "CategoryRank": 10,
          "SubCategoryID": 2562,
          "SubCategoryName": "Chicken",
          "SubCategoryRank": 1
        }
      ],
      "Classifications": [],
      "ComplimentaryRecipes": null,
      "CookingMethod": null,
      "Copyright": null,
      "Courses": [
        "Main dishes"
      ],
      "DietExchange": null,
      "DishDetails": [
        {
          "Text": "chicken recipes",
          "Url": "/recipes/dinner/chicken-recipes/main.aspx"
        },
        {
          "Text": "grilled chicken recipes",
          "Url": "/recipes/dinner/chicken-recipes/grilled-chicken/main.aspx"
        },
        {
          "Text": "healthy living chicken recipes",
          "Url": "/recipes/dinner/chicken-recipes/hl/main.aspx"
        },
        {
          "Text": "slow cooker chicken recipes",
          "Url": "/recipes/dinner/chicken-recipes/slow-cooker/main.aspx"
        },
        {
          "Text": "whole chicken recipes",
          "Url": "/recipes/dinner/chicken-recipes/whole-chicken/main.aspx"
        },
        {
          "Text": "chicken breast recipes",
          "Url": "/recipes/dinner/chicken-recipes/chicken-breast/main.aspx"
        },
        {
          "Text": "chicken casseroles",
          "Url": "/recipes/dinner/chicken-recipes/casseroles/main.aspx"
        },
        {
          "Text": "chicken pasta recipes",
          "Url": "/recipes/dinner/chicken-recipes/pasta-dishes/main.aspx"
        },
        {
          "Text": "chicken salad recipes",
          "Url": "/recipes/dinner/chicken-recipes/salads/main.aspx"
        },
        {
          "Text": "chicken stir-fry recipes",
          "Url": "/recipes/dinner/chicken-recipes/stir-fry/main.aspx"
        },
        {
          "Text": "chicken wing recipes",
          "Url": "/recipes/appetizers/chicken-wing-recipes/main.aspx"
        },
        {
          "Text": "baked chicken recipes",
          "Url": "/recipes/dinner/chicken-recipes/baked-chicken/main.aspx"
        },
        {
          "Text": "bbq chicken recipes",
          "Url": "/recipes/holidays-and-entertaining/entertaining/summer/bbq-recipes/bbq-chicken-recipes/main.aspx"
        },
        {
          "Text": "slow cooker recipes",
          "Url": "/recipes/dinner/Planning/slow-cooker.aspx"
        },
        {
          "Text": "chicken slow cooker recipes",
          "Url": "/recipes/dinner/chicken-recipes/slow-cooker/main.aspx"
        }
      ],
      "EndDate": "/Date(-62135575200000-0600)/",
      "HasVideo": false,
      "Ingredients": [
        {
          "FullMeasure": null,
          "FullWeight": null,
          "IngredientGridHeaders": null,
          "IngredientID": 68165,
          "IngredientName": "(16 oz.) TACO BELL® Thick & Chunky Salsa",
          "IngredientStep": 10,
          "LanguageId": 0,
          "PostPreparation": "",
          "PrePreparation": "",
          "QuantityNum": 1,
          "QuantityText": "1",
          "QuantityUnit": "jar",
          "RecipeIngredientID": 259565,
          "TrialMeasure": null,
          "TrialWeight": null
        },
        {
          "FullMeasure": null,
          "FullWeight": null,
          "IngredientGridHeaders": null,
          "IngredientID": 67766,
          "IngredientName": "(1 oz.) TACO BELL® Taco Seasoning Mix",
          "IngredientStep": 20,
          "LanguageId": 0,
          "PostPreparation": "",
          "PrePreparation": "",
          "QuantityNum": 1,
          "QuantityText": "1",
          "QuantityUnit": "pkg.",
          "RecipeIngredientID": 254266,
          "TrialMeasure": null,
          "TrialWeight": null
        },
        {
          "FullMeasure": null,
          "FullWeight": null,
          "IngredientGridHeaders": null,
          "IngredientID": 68189,
          "IngredientName": "boneless skinless chicken breasts",
          "IngredientStep": 30,
          "LanguageId": 0,
          "PostPreparation": "",
          "PrePreparation": "",
          "QuantityNum": 2,
          "QuantityText": "2",
          "QuantityUnit": "lb.",
          "RecipeIngredientID": 260224,
          "TrialMeasure": null,
          "TrialWeight": null
        },
        {
          "FullMeasure": null,
          "FullWeight": null,
          "IngredientGridHeaders": null,
          "IngredientID": 68132,
          "IngredientName": "TACO BELL® Crunchy Taco Shells",
          "IngredientStep": 40,
          "LanguageId": 0,
          "PostPreparation": "",
          "PrePreparation": "",
          "QuantityNum": 24,
          "QuantityText": "24",
          "QuantityUnit": "",
          "RecipeIngredientID": 260223,
          "TrialMeasure": null,
          "TrialWeight": null
        },
        {
          "FullMeasure": null,
          "FullWeight": null,
          "IngredientGridHeaders": null,
          "IngredientID": 67871,
          "IngredientName": "shredded lettuce",
          "IngredientStep": 50,
          "LanguageId": 0,
          "PostPreparation": "",
          "PrePreparation": "",
          "QuantityNum": 4,
          "QuantityText": "4",
          "QuantityUnit": "cups",
          "RecipeIngredientID": 256630,
          "TrialMeasure": null,
          "TrialWeight": null
        },
        {
          "FullMeasure": null,
          "FullWeight": null,
          "IngredientGridHeaders": null,
          "IngredientID": 68630,
          "IngredientName": "  tomatoes, finely chopped",
          "IngredientStep": 60,
          "LanguageId": 0,
          "PostPreparation": "",
          "PrePreparation": "",
          "QuantityNum": 4,
          "QuantityText": "4",
          "QuantityUnit": "",
          "RecipeIngredientID": 254964,
          "TrialMeasure": null,
          "TrialWeight": null
        },
        {
          "FullMeasure": null,
          "FullWeight": null,
          "IngredientGridHeaders": null,
          "IngredientID": 67751,
          "IngredientName": "(8 oz.) KRAFT Shredded Colby & Monterey Jack Cheeses",
          "IngredientStep": 70,
          "LanguageId": 0,
          "PostPreparation": "",
          "PrePreparation": "",
          "QuantityNum": 1,
          "QuantityText": "1",
          "QuantityUnit": "pkg.",
          "RecipeIngredientID": 253352,
          "TrialMeasure": null,
          "TrialWeight": null
        }
      ],
      "IsHealthyLiving": false,
      "KRLId": "572254",
      "KeyIngredients": [],
      "Keywords": "Entree,Slow cooker,Dinner,Lunch,All Seasons,Spicy",
      "LanguageId": 1,
      "LifeStyles": [],
      "NumberOfIngredients": 7,
      "NumberOfRatings": 4,
      "NumberOfRatingsWithComments": "3",
      "NumberOfServings": "12 servings, 2 tacos each",
      "NumberOfTrialServings": null,
      "NutritionBonus": null,
      "NutritionExchangeItemId": 0,
      "NutritionGridItems": null,
      "NutritionItems": [
        {
          "DisplayOrder": 0,
          "Document": null,
          "NutritionItemID": 384,
          "NutritionItemName": "Vitamin D",
          "Predriscriptor": "",
          "Quantity": 0,
          "Unit": "%DV       "
        },
        {
          "DisplayOrder": 0,
          "Document": null,
          "NutritionItemID": 385,
          "NutritionItemName": "Vitamin E",
          "Predriscriptor": "",
          "Quantity": 2,
          "Unit": "%DV       "
        },
        {
          "DisplayOrder": 0,
          "Document": null,
          "NutritionItemID": 388,
          "NutritionItemName": "Potassium",
          "Predriscriptor": "",
          "Quantity": 6,
          "Unit": "%DV       "
        },
        {
          "DisplayOrder": 0,
          "Document": null,
          "NutritionItemID": 390,
          "NutritionItemName": "Added Sugars",
          "Predriscriptor": "",
          "Quantity": 0,
          "Unit": "g         "
        },
        {
          "DisplayOrder": 1,
          "Document": null,
          "NutritionItemID": 371,
          "NutritionItemName": "Calories",
          "Predriscriptor": "",
          "Quantity": 290,
          "Unit": "          "
        },
        {
          "DisplayOrder": 2,
          "Document": null,
          "NutritionItemID": 376,
          "NutritionItemName": "Total fat",
          "Predriscriptor": "",
          "Quantity": 11,
          "Unit": "g         "
        },
        {
          "DisplayOrder": 3,
          "Document": null,
          "NutritionItemID": 377,
          "NutritionItemName": "Saturated fat",
          "Predriscriptor": "",
          "Quantity": 4.5,
          "Unit": "g         "
        },
        {
          "DisplayOrder": 4,
          "Document": null,
          "NutritionItemID": 379,
          "NutritionItemName": "Polyunsaturated Fat",
          "Predriscriptor": "",
          "Quantity": 0,
          "Unit": "g         "
        },
        {
          "DisplayOrder": 5,
          "Document": null,
          "NutritionItemID": 378,
          "NutritionItemName": "Monounsaturated Fat",
          "Predriscriptor": "",
          "Quantity": 0.5,
          "Unit": "g         "
        },
        {
          "DisplayOrder": 6,
          "Document": null,
          "NutritionItemID": 380,
          "NutritionItemName": "Trans Fat",
          "Predriscriptor": "",
          "Quantity": 0,
          "Unit": "g         "
        },
        {
          "DisplayOrder": 7,
          "Document": null,
          "NutritionItemID": 381,
          "NutritionItemName": "Cholesterol",
          "Predriscriptor": "",
          "Quantity": 60,
          "Unit": "mg        "
        },
        {
          "DisplayOrder": 8,
          "Document": null,
          "NutritionItemID": 389,
          "NutritionItemName": "Sodium",
          "Predriscriptor": "",
          "Quantity": 590,
          "Unit": "mg        "
        },
        {
          "DisplayOrder": 10,
          "Document": null,
          "NutritionItemID": 373,
          "NutritionItemName": "Carbohydrate",
          "Predriscriptor": "",
          "Quantity": 22,
          "Unit": "g         "
        },
        {
          "DisplayOrder": 11,
          "Document": null,
          "NutritionItemID": 374,
          "NutritionItemName": "Dietary fiber",
          "Predriscriptor": "",
          "Quantity": 4,
          "Unit": "g         "
        },
        {
          "DisplayOrder": 12,
          "Document": null,
          "NutritionItemID": 375,
          "NutritionItemName": "Sugars",
          "Predriscriptor": "",
          "Quantity": 3,
          "Unit": "g         "
        },
        {
          "DisplayOrder": 13,
          "Document": null,
          "NutritionItemID": 372,
          "NutritionItemName": "Protein",
          "Predriscriptor": "",
          "Quantity": 22,
          "Unit": "g         "
        },
        {
          "DisplayOrder": 14,
          "Document": null,
          "NutritionItemID": 382,
          "NutritionItemName": "Vitamin A",
          "Predriscriptor": "",
          "Quantity": 15,
          "Unit": "%DV       "
        },
        {
          "DisplayOrder": 15,
          "Document": null,
          "NutritionItemID": 383,
          "NutritionItemName": "Vitamin C",
          "Predriscriptor": "",
          "Quantity": 6,
          "Unit": "%DV       "
        },
        {
          "DisplayOrder": 16,
          "Document": null,
          "NutritionItemID": 386,
          "NutritionItemName": "Calcium",
          "Predriscriptor": "",
          "Quantity": 10,
          "Unit": "%DV       "
        },
        {
          "DisplayOrder": 17,
          "Document": null,
          "NutritionItemID": 387,
          "NutritionItemName": "Iron",
          "Predriscriptor": "",
          "Quantity": 4,
          "Unit": "%DV       "
        }
      ],
      "NutritionServingText": null,
      "PrepStepImage": null,
      "PreparationDescription": "Mix salsa and taco seasoning in slow cooker until blended.  Top with chicken; cover with lid.$Cook on LOW 6 to 8 hours (or on HIGH 3 to 4 hours).  Remove chicken from slow cooker, reserving sauce in slow cooker. Shred chicken with fork.  Return to slow cooker; stir until chicken is evenly coated with sauce. $Bake taco shells as directed on package.   Fill with chicken mixture; top with remaining ingredients.",
      "PreparationPreText": null,
      "PreparationSteps": [
        {
          "Description": "Mix salsa and taco seasoning in slow cooker until blended.  Top with chicken; cover with lid.",
          "PreparationStepImage": {
            "PictureFormats": [],
            "author": null,
            "id": null,
            "imageType": null,
            "mimeType": null,
            "publicationDate": null,
            "status": null,
            "title": null,
            "type": null
          },
          "Sequence": 1
        },
        {
          "Description": "Cook on LOW 6 to 8 hours (or on HIGH 3 to 4 hours).  Remove chicken from slow cooker, reserving sauce in slow cooker. Shred chicken with fork.  Return to slow cooker; stir until chicken is evenly coated with sauce. ",
          "PreparationStepImage": {
            "PictureFormats": [],
            "author": null,
            "id": null,
            "imageType": null,
            "mimeType": null,
            "publicationDate": null,
            "status": null,
            "title": null,
            "type": null
          },
          "Sequence": 2
        },
        {
          "Description": "Bake taco shells as directed on package.   Fill with chicken mixture; top with remaining ingredients.",
          "PreparationStepImage": {
            "PictureFormats": [],
            "author": null,
            "id": null,
            "imageType": null,
            "mimeType": null,
            "publicationDate": null,
            "status": null,
            "title": null,
            "type": null
          },
          "Sequence": 3
        }
      ],
      "PreparationTime": 10,
      "Promotion": null,
      "Ratings": {
        "TotalCount": 4,
        "PageCount": 10,
        "PageNo": 1,
        "Rating": [
          {
            "Comment": "So easy and delicious and healthy!  Can make all variations of tacos/burritos with this as the base.",
            "DisplayName": true,
            "RatingValue": 5,
            "SubmitDate": "/Date(1442676864000-0500)/",
            "UpdatedDate": "/Date(1442676864000-0500)/",
            "UserName": "Barbara767"
          },
          {
            "Comment": "I made this for my Girl's Day outing and everyone love it.  I used Chicken breast tenderloins, but followed everything else in the recipe.",
            "DisplayName": true,
            "RatingValue": 3,
            "SubmitDate": "/Date(1437595575000-0500)/",
            "UpdatedDate": "/Date(1437595575000-0500)/",
            "UserName": "dawnraymond"
          },
          {
            "Comment": "I made this for my Girl's Day outing and everyone love it.  I used Chicken breast tenderloins, but followed everything else in the recipe.",
            "DisplayName": true,
            "RatingValue": 3,
            "SubmitDate": "/Date(1437595564000-0500)/",
            "UpdatedDate": "/Date(1437595564000-0500)/",
            "UserName": "dawnraymond"
          }
        ]
      },
      "RecipeDisplayFormatId": 0,
      "RecipeId": 172027,
      "RecipeName": "Slow-Cooker Shredded Chicken Tacos",
      "RecipeType": 0,
      "RelatedData": {
        "RelatedBrands": null,
        "RelatedProducts": null,
        "RelatedRecipes": {
          "DefaultTopCount": 5,
          "Recipe": [
            {
              "AverageRating": 4.4,
              "HasVideo": false,
              "IsHealthyLiving": true,
              "NumberOfRatings": 180,
              "PhotoName": "112395.jpg",
              "PhotoUrl": "http://assets.kraftfoods.com/recipe_images/opendeploy/112395.jpg",
              "RecipeId": 112395,
              "RecipeName": "Slow-Cooker Chunky Chicken Chili",
              "SEOName": "slow-cooker-chunky-chicken-chili-112395",
              "ThumbnailPhoto": null
            },
            {
              "AverageRating": 4.3,
              "HasVideo": false,
              "IsHealthyLiving": true,
              "NumberOfRatings": 452,
              "PhotoName": "107258.jpg",
              "PhotoUrl": "http://assets.kraftfoods.com/recipe_images/opendeploy/107258.jpg",
              "RecipeId": 107258,
              "RecipeName": "Slow-Cooker Tex-Mex Chicken",
              "SEOName": "slow-cooker-tex-mex-chicken-107258",
              "ThumbnailPhoto": null
            },
            {
              "AverageRating": 4,
              "HasVideo": false,
              "IsHealthyLiving": false,
              "NumberOfRatings": 3,
              "PhotoName": "opendeploy/176075-bd6be833ca07107812fee4a1ec8521bb8ce810ef_306x204.jpg",
              "PhotoUrl": "http://assets.kraftfoods.com/recipe_images/opendeploy/opendeploy/176075-bd6be833ca07107812fee4a1ec8521bb8ce810ef_306x204.jpg",
              "RecipeId": 176075,
              "RecipeName": "Slow-Cooker Pulled Pork Tacos",
              "SEOName": "slow-cooker-pulled-pork-tacos-176075",
              "ThumbnailPhoto": null
            },
            {
              "AverageRating": 4.1,
              "HasVideo": false,
              "IsHealthyLiving": true,
              "NumberOfRatings": 372,
              "PhotoName": "76229.jpg",
              "PhotoUrl": "http://assets.kraftfoods.com/recipe_images/opendeploy/76229.jpg",
              "RecipeId": 76229,
              "RecipeName": "Slow-Cooker Chicken Curry",
              "SEOName": "slow-cooker-chicken-curry-76229",
              "ThumbnailPhoto": null
            },
            {
              "AverageRating": 4.6,
              "HasVideo": false,
              "IsHealthyLiving": false,
              "NumberOfRatings": 235,
              "PhotoName": "111270.jpg",
              "PhotoUrl": "http://assets.kraftfoods.com/recipe_images/opendeploy/111270.jpg",
              "RecipeId": 111270,
              "RecipeName": "Slow-Cooker Beef Chili",
              "SEOName": "slow-cooker-beef-chili-111270",
              "ThumbnailPhoto": null
            }
          ],
          "TotalCount": 2847
        }
      },
      "RiseIngredients": [
        {
          "IngredientCategory": "KRL",
          "IngredientId": 67751,
          "IngredientIndustrySector": "Retail",
          "IngredientType": "KHC",
          "ProductId": "00021000007950",
          "RecipeId": 172027
        },
        {
          "IngredientCategory": "KRL",
          "IngredientId": 67766,
          "IngredientIndustrySector": "Retail",
          "IngredientType": "KHC",
          "ProductId": "00021000049479",
          "RecipeId": 172027
        },
        {
          "IngredientCategory": "KRL",
          "IngredientId": 67871,
          "IngredientIndustrySector": "Retail",
          "IngredientType": "Inedible",
          "ProductId": null,
          "RecipeId": 172027
        },
        {
          "IngredientCategory": "KRL",
          "IngredientId": 68132,
          "IngredientIndustrySector": "Retail",
          "IngredientType": "KHC",
          "ProductId": "00021000046942",
          "RecipeId": 172027
        },
        {
          "IngredientCategory": "KRL",
          "IngredientId": 68165,
          "IngredientIndustrySector": "Retail",
          "IngredientType": "KHC",
          "ProductId": "00021000046959",
          "RecipeId": 172027
        },
        {
          "IngredientCategory": "KRL",
          "IngredientId": 68189,
          "IngredientIndustrySector": "Retail",
          "IngredientType": "Inedible",
          "ProductId": null,
          "RecipeId": 172027
        },
        {
          "IngredientCategory": "KRL",
          "IngredientId": 68630,
          "IngredientIndustrySector": "Retail",
          "IngredientType": "Inedible",
          "ProductId": null,
          "RecipeId": 172027
        }
      ],
      "RiseTaxonomy": [
        {
          "ParentTaxonomyId": 54,
          "RecipeId": 172027,
          "ResourceName": "Recipe",
          "TaxonomyId": 25,
          "TaxonomyName": "Fajitas & Tacos",
          "TaxonomyTypeId": 3,
          "TaxonomyTypeName": "Dish Type"
        },
        {
          "ParentTaxonomyId": 0,
          "RecipeId": 172027,
          "ResourceName": "Recipe",
          "TaxonomyId": 65,
          "TaxonomyName": "Entrées",
          "TaxonomyTypeId": 2,
          "TaxonomyTypeName": "Meal Part"
        },
        {
          "ParentTaxonomyId": 0,
          "RecipeId": 172027,
          "ResourceName": "Recipe",
          "TaxonomyId": 324,
          "TaxonomyName": "Super Bowl",
          "TaxonomyTypeId": 5,
          "TaxonomyTypeName": "Occasion-Theme"
        },
        {
          "ParentTaxonomyId": 0,
          "RecipeId": 172027,
          "ResourceName": "Recipe",
          "TaxonomyId": 336,
          "TaxonomyName": "Fall",
          "TaxonomyTypeId": 6,
          "TaxonomyTypeName": "Season"
        },
        {
          "ParentTaxonomyId": 0,
          "RecipeId": 172027,
          "ResourceName": "Recipe",
          "TaxonomyId": 339,
          "TaxonomyName": "Winter",
          "TaxonomyTypeId": 6,
          "TaxonomyTypeName": "Season"
        }
      ],
      "Riserecipe": [
        {
          "GRIN": 572254,
          "RecipeId": 172027,
          "RecipeIndustrySector": "Retail",
          "RecipeType": "Internal"
        }
      ],
      "RomanceText": "Prepare these Slow-Cooker Shredded Chicken Tacos. Made with juicy chicken, these Slow-Cooker Shredded Chicken Tacos will be the best you've ever tasted.\n",
      "SEOName": "slow-cooker-shredded-chicken-tacos-172027",
      "Tips": [
        {
          "RecipeId": 172027,
          "Sequence": 10,
          "TipDescription": "For extra heat, prepare using KRAFT Shredded Pepper Jack Cheese with a TOUCH OF PHILADELPHIA. \n\n",
          "TipID": 1,
          "TipName": "Substitute"
        }
      ],
      "TotalTime": 370,
      "TradeMarkInfo": null,
      "Video": [],
      "Yield": "12 servings, 2 tacos each"
    }
  ]
}