{
  "Metadata": {
    "PageCount": 1,
    "PageNo": 0,
    "TotalCount": 0
  },
  "Recipes": [
    {
      "AdServingKeywords": "Dessert,Dairy,Easy,All Seasons,Birthday party,Frosting and Icing,Pudding,Kid-Friendly,Kids Can Cook,Cool Whip,Jell-O,Creamy",
      "AlternateLanguageRecipes": [],
      "Assets": [
        {
          "PictureFormats": [
            {
              "rendition": "290x194",
              "url": "http://assets.kraftfoods.com/recipe_images/opendeploy/57256_KFT_1233v0E_WP_290x194.jpg"
            },
            {
              "rendition": "600x250",
              "url": "http://assets.kraftfoods.com/recipe_images/opendeploy/57256_KFT_1233v0E_WP_600x250.jpg"
            },
            {
              "rendition": "640x428",
              "url": "http://assets.kraftfoods.com/recipe_images/opendeploy/57256_KFT_1233v0E_WP_640x428.jpg"
            }
          ],
          "author": null,
          "id": "2",
          "imageType": "Primary",
          "mimeType": "image/jpeg",
          "publicationDate": null,
          "status": "1",
          "title": "57256_KFT_1233v0E_WP",
          "type": "image"
        },
        {
          "PictureFormats": [
            {
              "rendition": "300x200",
              "url": "http://assets.kraftfoods.com/recipe_images/57256.jpg"
            }
          ],
          "author": "BulKUpload",
          "id": "0",
          "imageType": "LANDSCAPE",
          "mimeType": "image/jpeg",
          "publicationDate": null,
          "status": "1",
          "title": "57256.jpg",
          "type": "image"
        }
      ],
      "AverageRating": 4.5,
      "BrandId": 1,
      "Branding": null,
      "CSSSkins": null,
      "CarbCounter": null,
      "Categories": [
        {
          "CategoryID": 4,
          "CategoryName": "Cakes/Pies/Cheesecakes",
          "CategoryRank": 5,
          "SubCategoryID": 142,
          "SubCategoryName": "Frostings/Fillings",
          "SubCategoryRank": 80
        },
        {
          "CategoryID": 11,
          "CategoryName": "Primary",
          "CategoryRank": 0,
          "SubCategoryID": 103,
          "SubCategoryName": "Desserts",
          "SubCategoryRank": 40
        },
        {
          "CategoryID": 758,
          "CategoryName": "Marinades, Sauces, Spreads & Frostings",
          "CategoryRank": 12,
          "SubCategoryID": 2572,
          "SubCategoryName": "Sweet",
          "SubCategoryRank": 1
        },
        {
          "CategoryID": 758,
          "CategoryName": "Marinades, Sauces, Spreads & Frostings",
          "CategoryRank": 12,
          "SubCategoryID": 2574,
          "SubCategoryName": "Hot",
          "SubCategoryRank": 1
        },
        {
          "CategoryID": 758,
          "CategoryName": "Marinades, Sauces, Spreads & Frostings",
          "CategoryRank": 12,
          "SubCategoryID": 2575,
          "SubCategoryName": "Cold",
          "SubCategoryRank": 1
        }
      ],
      "Classifications": [],
      "ComplimentaryRecipes": null,
      "CookingMethod": null,
      "Copyright": null,
      "Courses": [
        "Desserts"
      ],
      "DietExchange": null,
      "DishDetails": [
        {
          "Text": "desserts",
          "Url": "/recipes/dessert/main.aspx"
        },
        {
          "Text": "fruity desserts",
          "Url": "/recipes/dessert/fruitydesserts.aspx"
        },
        {
          "Text": "gelatin desserts",
          "Url": "/recipes/dessert/gelatindesserts.aspx"
        },
        {
          "Text": "layered desserts",
          "Url": "/recipes/dessert/layereddesserts.aspx"
        },
        {
          "Text": "brownie recipes",
          "Url": "/recipes/dessert/brownie-recipes/main.aspx"
        },
        {
          "Text": "budget desserts",
          "Url": "/recipes/budget/budget-desserts.aspx"
        },
        {
          "Text": "no bake desserts",
          "Url": "/recipes/dessert/nobakedesserts.aspx"
        },
        {
          "Text": "pumpkin recipes",
          "Url": "/recipes/dessert/pumpkin-recipes.aspx"
        },
        {
          "Text": "chocolate cake recipes",
          "Url": "/recipes/dessert/chocolate-cake-recipes/main.aspx"
        },
        {
          "Text": "cheesecake recipes",
          "Url": "/recipes/dessert/cheesecake-center/cheesecake-recipes/main.aspx"
        },
        {
          "Text": "chocolate lovers recipes",
          "Url": "/recipes/dessert/chocolate-center/chocolateloversrecipes.aspx"
        },
        {
          "Text": "classic desserts",
          "Url": "/recipes/dessert/classicdesserts.aspx"
        },
        {
          "Text": "cookie ball recipes",
          "Url": "/recipes/dessert/cookie-ball-recipes/main.aspx"
        },
        {
          "Text": "cookie recipes",
          "Url": "/recipes/dessert/cookie-recipes/main.aspx"
        },
        {
          "Text": "cupcake recipes",
          "Url": "/recipes/dessert/cupcake-recipes/main.aspx"
        },
        {
          "Text": "healthy living desserts",
          "Url": "/healthy-living-ideas/diabetes-center/recipes/dessert-recipes.aspx"
        }
      ],
      "EndDate": "/Date(-62135575200000-0600)/",
      "HasVideo": false,
      "Ingredients": [
        {
          "FullMeasure": null,
          "FullWeight": null,
          "IngredientGridHeaders": null,
          "IngredientID": 68684,
          "IngredientName": "(3.9 oz.) JELL-O Chocolate Flavor Instant Pudding",
          "IngredientStep": 10,
          "LanguageId": 0,
          "PostPreparation": "",
          "PrePreparation": "",
          "QuantityNum": 1,
          "QuantityText": "1",
          "QuantityUnit": "pkg.",
          "RecipeIngredientID": 48756,
          "TrialMeasure": null,
          "TrialWeight": null
        },
        {
          "FullMeasure": null,
          "FullWeight": null,
          "IngredientGridHeaders": null,
          "IngredientID": 68849,
          "IngredientName": "powdered sugar",
          "IngredientStep": 20,
          "LanguageId": 0,
          "PostPreparation": "",
          "PrePreparation": "",
          "QuantityNum": 0.25,
          "QuantityText": "1/4",
          "QuantityUnit": "cup",
          "RecipeIngredientID": 52551,
          "TrialMeasure": null,
          "TrialWeight": null
        },
        {
          "FullMeasure": null,
          "FullWeight": null,
          "IngredientGridHeaders": null,
          "IngredientID": 68096,
          "IngredientName": "cold  milk",
          "IngredientStep": 30,
          "LanguageId": 0,
          "PostPreparation": "",
          "PrePreparation": "",
          "QuantityNum": 1,
          "QuantityText": "1",
          "QuantityUnit": "cup",
          "RecipeIngredientID": 53070,
          "TrialMeasure": null,
          "TrialWeight": null
        },
        {
          "FullMeasure": null,
          "FullWeight": null,
          "IngredientGridHeaders": null,
          "IngredientID": 67974,
          "IngredientName": "(8 oz.) COOL WHIP Whipped Topping, thawed",
          "IngredientStep": 40,
          "LanguageId": 0,
          "PostPreparation": "",
          "PrePreparation": "",
          "QuantityNum": 1,
          "QuantityText": "1",
          "QuantityUnit": "tub",
          "RecipeIngredientID": 47534,
          "TrialMeasure": null,
          "TrialWeight": null
        }
      ],
      "IsHealthyLiving": true,
      "KRLId": "502701",
      "KeyIngredients": [],
      "Keywords": "Dessert,Easy,All Seasons,Birthday party,Frosting and Icing,Pudding,Kid-Friendly,Kids Can Cook,Creamy",
      "LanguageId": 1,
      "LifeStyles": [],
      "NumberOfIngredients": 4,
      "NumberOfRatings": 103,
      "NumberOfRatingsWithComments": "85",
      "NumberOfServings": "36 servings, about 2 Tbsp. each",
      "NumberOfTrialServings": null,
      "NutritionBonus": null,
      "NutritionExchangeItemId": 0,
      "NutritionGridItems": null,
      "NutritionItems": [
        {
          "DisplayOrder": 0,
          "Document": null,
          "NutritionItemID": 384,
          "NutritionItemName": "Vitamin D",
          "Predriscriptor": "",
          "Quantity": 0,
          "Unit": "%DV       "
        },
        {
          "DisplayOrder": 0,
          "Document": null,
          "NutritionItemID": 385,
          "NutritionItemName": "Vitamin E",
          "Predriscriptor": "",
          "Quantity": 0,
          "Unit": "%DV       "
        },
        {
          "DisplayOrder": 0,
          "Document": null,
          "NutritionItemID": 388,
          "NutritionItemName": "Potassium",
          "Predriscriptor": "",
          "Quantity": 0,
          "Unit": "%DV       "
        },
        {
          "DisplayOrder": 0,
          "Document": null,
          "NutritionItemID": 388,
          "NutritionItemName": "Potassium",
          "Predriscriptor": "",
          "Quantity": 25,
          "Unit": "%DV       "
        },
        {
          "DisplayOrder": 0,
          "Document": null,
          "NutritionItemID": 390,
          "NutritionItemName": "Added Sugars",
          "Predriscriptor": "",
          "Quantity": 2,
          "Unit": "g         "
        },
        {
          "DisplayOrder": 1,
          "Document": null,
          "NutritionItemID": 371,
          "NutritionItemName": "Calories",
          "Predriscriptor": "",
          "Quantity": 40,
          "Unit": "          "
        },
        {
          "DisplayOrder": 2,
          "Document": null,
          "NutritionItemID": 376,
          "NutritionItemName": "Total fat",
          "Predriscriptor": "",
          "Quantity": 1.5,
          "Unit": "g         "
        },
        {
          "DisplayOrder": 2,
          "Document": null,
          "NutritionItemID": 376,
          "NutritionItemName": "Total fat",
          "Predriscriptor": "",
          "Quantity": 2,
          "Unit": "g         "
        },
        {
          "DisplayOrder": 3,
          "Document": null,
          "NutritionItemID": 377,
          "NutritionItemName": "Saturated fat",
          "Predriscriptor": "",
          "Quantity": 1,
          "Unit": "g         "
        },
        {
          "DisplayOrder": 3,
          "Document": null,
          "NutritionItemID": 377,
          "NutritionItemName": "Saturated fat",
          "Predriscriptor": "",
          "Quantity": 1.5,
          "Unit": "g         "
        },
        {
          "DisplayOrder": 4,
          "Document": null,
          "NutritionItemID": 379,
          "NutritionItemName": "Polyunsaturated Fat",
          "Predriscriptor": "",
          "Quantity": 0,
          "Unit": "g         "
        },
        {
          "DisplayOrder": 5,
          "Document": null,
          "NutritionItemID": 378,
          "NutritionItemName": "Monounsaturated Fat",
          "Predriscriptor": "",
          "Quantity": 0,
          "Unit": "g         "
        },
        {
          "DisplayOrder": 6,
          "Document": null,
          "NutritionItemID": 380,
          "NutritionItemName": "Trans Fat",
          "Predriscriptor": "",
          "Quantity": 0,
          "Unit": "g         "
        },
        {
          "DisplayOrder": 7,
          "Document": null,
          "NutritionItemID": 381,
          "NutritionItemName": "Cholesterol",
          "Predriscriptor": "",
          "Quantity": 0,
          "Unit": "mg        "
        },
        {
          "DisplayOrder": 8,
          "Document": null,
          "NutritionItemID": 389,
          "NutritionItemName": "Sodium",
          "Predriscriptor": "",
          "Quantity": 50,
          "Unit": "mg        "
        },
        {
          "DisplayOrder": 10,
          "Document": null,
          "NutritionItemID": 373,
          "NutritionItemName": "Carbohydrate",
          "Predriscriptor": "",
          "Quantity": 5,
          "Unit": "g         "
        },
        {
          "DisplayOrder": 11,
          "Document": null,
          "NutritionItemID": 374,
          "NutritionItemName": "Dietary fiber",
          "Predriscriptor": "",
          "Quantity": 0,
          "Unit": "g         "
        },
        {
          "DisplayOrder": 12,
          "Document": null,
          "NutritionItemID": 375,
          "NutritionItemName": "Sugars",
          "Predriscriptor": "",
          "Quantity": 5,
          "Unit": "g         "
        },
        {
          "DisplayOrder": 13,
          "Document": null,
          "NutritionItemID": 372,
          "NutritionItemName": "Protein",
          "Predriscriptor": "",
          "Quantity": 0,
          "Unit": "g         "
        },
        {
          "DisplayOrder": 14,
          "Document": null,
          "NutritionItemID": 382,
          "NutritionItemName": "Vitamin A",
          "Predriscriptor": "",
          "Quantity": 0,
          "Unit": "%DV       "
        },
        {
          "DisplayOrder": 15,
          "Document": null,
          "NutritionItemID": 383,
          "NutritionItemName": "Vitamin C",
          "Predriscriptor": "",
          "Quantity": 0,
          "Unit": "%DV       "
        },
        {
          "DisplayOrder": 16,
          "Document": null,
          "NutritionItemID": 386,
          "NutritionItemName": "Calcium",
          "Predriscriptor": "",
          "Quantity": 0,
          "Unit": "%DV       "
        },
        {
          "DisplayOrder": 17,
          "Document": null,
          "NutritionItemID": 387,
          "NutritionItemName": "Iron",
          "Predriscriptor": "",
          "Quantity": 0,
          "Unit": "%DV       "
        }
      ],
      "NutritionServingText": null,
      "PrepStepImage": null,
      "PreparationDescription": "Beat pudding mix, sugar and milk in large bowl with whisk 2 min.  $Stir in COOL WHIP.",
      "PreparationPreText": null,
      "PreparationSteps": [
        {
          "Description": "Beat pudding mix, sugar and milk in large bowl with whisk 2 min.  ",
          "PreparationStepImage": {
            "PictureFormats": [],
            "author": null,
            "id": null,
            "imageType": null,
            "mimeType": null,
            "publicationDate": null,
            "status": null,
            "title": null,
            "type": null
          },
          "Sequence": 1
        },
        {
          "Description": "Stir in COOL WHIP.",
          "PreparationStepImage": {
            "PictureFormats": [],
            "author": null,
            "id": null,
            "imageType": null,
            "mimeType": null,
            "publicationDate": null,
            "status": null,
            "title": null,
            "type": null
          },
          "Sequence": 2
        }
      ],
      "PreparationTime": 15,
      "Promotion": null,
      "Ratings": {
        "TotalCount": 103,
        "PageCount": 10,
        "PageNo": 1,
        "Rating": [
          {
            "Comment": "If I could give this recipe more than five stars,I would! It's so delicious and so easy to make. The amount of frosting it made was perfect for a 2-layer 9-inch cake.\nAs another reviewer noted, it's crucial to use INSTANT pudding mix! Mix that with the milk and sugar until it reaches a pudding consistency. Then, stir in the Cool Whip. Be careful not to over mix.",
            "DisplayName": true,
            "RatingValue": 5,
            "SubmitDate": "/Date(1461460353000-0500)/",
            "UpdatedDate": "/Date(1461460353000-0500)/",
            "UserName": "sierrasprings58"
          },
          {
            "Comment": "I have a lot of left over frosting, would **** to throw it away, and I don't really feel like to\n****** more cupcakes...any idea what to do with it? I'm thinking make like a ***** parfait? Please share your ideas...thanks!",
            "DisplayName": true,
            "RatingValue": 3,
            "SubmitDate": "/Date(1459928828000-0500)/",
            "UpdatedDate": "/Date(1459928828000-0500)/",
            "UserName": "Mommashorty84"
          },
          {
            "Comment": "Love this recipe! It turned out fantastic. I used heavy whipping ***** instead of milk since I had it on hand. This frosting is the best because it's not overly sweet like most buttercreams or anything that you buy in the store, and there's no need for a mixer, or even a whisk.. I just used a fork. Will definitely be ****** this whenever I need frosting!",
            "DisplayName": true,
            "RatingValue": 5,
            "SubmitDate": "/Date(1435282012000-0500)/",
            "UpdatedDate": "/Date(1435282012000-0500)/",
            "UserName": "Evilaydenn"
          },
          {
            "Comment": "I have made this many times and it always turns out really great. Light and fluffy, and everyone loves it. Works with many other pudding flavors. Not sure how people are managing to make this runny. ",
            "DisplayName": true,
            "RatingValue": 5,
            "SubmitDate": "/Date(1428988874000-0500)/",
            "UpdatedDate": "/Date(1428988874000-0500)/",
            "UserName": "skthom"
          },
          {
            "Comment": "This is a great recipe and for those of you finding the recipe coming out runny, you aren't using INSTANT pudding. It HAS to be instant or it won't thicken. If you find yourself in a predicament and you don't have the instant pudding and only have the cook and serve, you can microwave it in the microwave for 2 minutes, then stir and microwave for another 2 minutes and stir, then refrigerate until cool and then fold in the cool whip.",
            "DisplayName": true,
            "RatingValue": 4,
            "SubmitDate": "/Date(1385282163000-0600)/",
            "UpdatedDate": "/Date(1385282163000-0600)/",
            "UserName": "Shellymari"
          },
          {
            "Comment": "I've made pudding frosting for about 20 years and never added the milk or powered sugar. Small box of pudding (any favor) and tub of cool whip - whipped together. Just great!",
            "DisplayName": true,
            "RatingValue": 3,
            "SubmitDate": "/Date(1375997125000-0500)/",
            "UpdatedDate": "/Date(1375997125000-0500)/",
            "UserName": "akbumbaker"
          },
          {
            "Comment": "I just have no idea happened, but this recipe ended up being like a glass of chocolate water with its thickness.\r\nWe tried refrigeration, and we also added more powdered sugar. Nothing worked and the flavor ended up ruined from all the sugar.\r\nSeeing the other reviews, I have no idea what happened.",
            "DisplayName": false,
            "RatingValue": 1,
            "SubmitDate": "/Date(1374854988000-0500)/",
            "UpdatedDate": "/Date(1374854988000-0500)/",
            "UserName": "Niftykeen"
          },
          {
            "Comment": "I made ths for the first time last weekend. I've been baking for over 50 years and can honestly say this is the best frosting I've ever made. It's light, fluffy and delicious. When you're working with a whipped topping be sure you're not preparing it in a kitchen that is too hot or humid. I suspect this would cause the runny frosting that a couple of people wrote about. Everyone wanted the recipe and said it was melt-in-your-mouth good!",
            "DisplayName": false,
            "RatingValue": 5,
            "SubmitDate": "/Date(1360595627000-0600)/",
            "UpdatedDate": "/Date(1360595694000-0600)/",
            "UserName": "roseyroseyjj"
          },
          {
            "Comment": "Very very runny. Used it for a smash cake for my son but the frosting was so runny!",
            "DisplayName": true,
            "RatingValue": 1,
            "SubmitDate": "/Date(1333846951000-0500)/",
            "UpdatedDate": "/Date(1333846951000-0500)/",
            "UserName": "HubbaLance"
          },
          {
            "Comment": "Quick, easy, and so delicious. I have used this recipe with many flavors of pudding and they all turned out great.",
            "DisplayName": true,
            "RatingValue": 5,
            "SubmitDate": "/Date(1328630364000-0600)/",
            "UpdatedDate": "/Date(1328630364000-0600)/",
            "UserName": "lpravettone"
          }
        ]
      },
      "RecipeDisplayFormatId": 0,
      "RecipeId": 57256,
      "RecipeName": "Fluffy Pudding Frosting",
      "RecipeType": 0,
      "RelatedData": {
        "RelatedBrands": null,
        "RelatedProducts": null,
        "RelatedRecipes": {
          "DefaultTopCount": 5,
          "Recipe": [
            {
              "AverageRating": 4.6,
              "HasVideo": false,
              "IsHealthyLiving": true,
              "NumberOfRatings": 18,
              "PhotoName": "Quick_Fluffy_Frosting.jpg",
              "PhotoUrl": "http://assets.kraftfoods.com/recipe_images/opendeploy/Quick_Fluffy_Frosting.jpg",
              "RecipeId": 52111,
              "RecipeName": "Quick Fluffy Frosting",
              "SEOName": "quick-fluffy-frosting-52111",
              "ThumbnailPhoto": null
            },
            {
              "AverageRating": 5,
              "HasVideo": false,
              "IsHealthyLiving": false,
              "NumberOfRatings": 1,
              "PhotoName": "185681.jpg",
              "PhotoUrl": "http://assets.kraftfoods.com/recipe_images/opendeploy/185681.jpg",
              "RecipeId": 185681,
              "RecipeName": "Bunny-Butt Cookies",
              "SEOName": "bunny-butt-cookies-185681",
              "ThumbnailPhoto": null
            },
            {
              "AverageRating": 5,
              "HasVideo": false,
              "IsHealthyLiving": false,
              "NumberOfRatings": 2,
              "PhotoName": "168142_MXM_2685v8E_WP.jpg",
              "PhotoUrl": "http://assets.kraftfoods.com/recipe_images/opendeploy/168142_MXM_2685v8E_WP.jpg",
              "RecipeId": 168142,
              "RecipeName": "Fluffy Cream Cheese Frosting",
              "SEOName": "fluffy-cream-cheese-frosting-168142",
              "ThumbnailPhoto": null
            },
            {
              "AverageRating": 4.8,
              "HasVideo": false,
              "IsHealthyLiving": false,
              "NumberOfRatings": 8,
              "PhotoName": "51730_MXM_2566v0E.jpg",
              "PhotoUrl": "http://assets.kraftfoods.com/recipe_images/opendeploy/51730_MXM_2566v0E.jpg",
              "RecipeId": 51730,
              "RecipeName": "Fluffy Coconut Frosting",
              "SEOName": "fluffy-coconut-frosting-51730",
              "ThumbnailPhoto": null
            },
            {
              "AverageRating": 5,
              "HasVideo": false,
              "IsHealthyLiving": false,
              "NumberOfRatings": 1,
              "PhotoName": "194266.jpg",
              "PhotoUrl": "http://assets.kraftfoods.com/recipe_images/opendeploy/194266.jpg",
              "RecipeId": 194266,
              "RecipeName": "Chocolate Marshmallow Frosting",
              "SEOName": "chocolate-marshmallow-frosting-194266",
              "ThumbnailPhoto": null
            }
          ],
          "TotalCount": 947
        }
      },
      "RiseIngredients": [
        {
          "IngredientCategory": "KRL",
          "IngredientId": 67974,
          "IngredientIndustrySector": "Retail",
          "IngredientType": "Inedible",
          "ProductId": "00043000009536",
          "RecipeId": 57256
        },
        {
          "IngredientCategory": "KRL",
          "IngredientId": 68096,
          "IngredientIndustrySector": "Retail",
          "IngredientType": "Inedible",
          "ProductId": null,
          "RecipeId": 57256
        },
        {
          "IngredientCategory": "KRL",
          "IngredientId": 68684,
          "IngredientIndustrySector": "Retail",
          "IngredientType": "Inedible",
          "ProductId": "00043000071700",
          "RecipeId": 57256
        },
        {
          "IngredientCategory": "KRL",
          "IngredientId": 68849,
          "IngredientIndustrySector": "Retail",
          "IngredientType": "Inedible",
          "ProductId": null,
          "RecipeId": 57256
        }
      ],
      "RiseTaxonomy": [
        {
          "ParentTaxonomyId": 0,
          "RecipeId": 57256,
          "ResourceName": "Recipe",
          "TaxonomyId": 63,
          "TaxonomyName": "Desserts",
          "TaxonomyTypeId": 2,
          "TaxonomyTypeName": "Meal Part"
        },
        {
          "ParentTaxonomyId": 37,
          "RecipeId": 57256,
          "ResourceName": "Recipe",
          "TaxonomyId": 95,
          "TaxonomyName": "Frostings, Fillings & Glazes",
          "TaxonomyTypeId": 3,
          "TaxonomyTypeName": "Dish Type"
        }
      ],
      "Riserecipe": [
        {
          "GRIN": 502701,
          "RecipeId": 57256,
          "RecipeIndustrySector": "Retail",
          "RecipeType": "Internal"
        }
      ],
      "RomanceText": "Whip up this Fluffy Pudding Frosting  that takes just 15 minutes to prep. Follow the recipe to prepare this delicious frosting for cakes and cupcakes.",
      "SEOName": "fluffy-pudding-frosting-57256",
      "Tips": [
        {
          "RecipeId": 57256,
          "Sequence": 1,
          "TipDescription": "Prepare using 1 pkg. (3.4 oz.) JELL-O Vanilla Flavor Instant Pudding.",
          "TipID": 1,
          "TipName": "Substitute"
        },
        {
          "RecipeId": 57256,
          "Sequence": 1,
          "TipDescription": "Use 1 pkg. (3.9 oz.) JELL-O SIMPLY GOOD Chocolate Flavor Pudding",
          "TipID": 5846,
          "TipName": "Substitute"
        },
        {
          "RecipeId": 57256,
          "Sequence": 3,
          "TipDescription": "This creamy frosting can be prepared ahead of time.  Refrigerate in airtight container up to 24 hours before using as desired.    The frosted cakes or cupcakes can be refrigerated up to 2 days before serving.",
          "TipID": 2,
          "TipName": "Make Ahead"
        },
        {
          "RecipeId": 57256,
          "Sequence": 4,
          "TipDescription": "This easy-to-make recipe makes 4-1/2 cups frosting.  You will need about 2-1/4 cups frosting to frost a 2-layer (9-inch) cake or a 13x9-inch cake.  Refrigerate remaining frosting until ready to use as desired.",
          "TipID": 3,
          "TipName": "Note"
        },
        {
          "RecipeId": 57256,
          "Sequence": 5,
          "TipDescription": "Use to frost your favorite cake or cupcake recipe.  Refrigerate up to 2 days before serving.",
          "TipID": 4,
          "TipName": "How to Store"
        }
      ],
      "TotalTime": 15,
      "TradeMarkInfo": null,
      "Video": [],
      "Yield": "36 servings, about 2 Tbsp. each"
    }
  ]
}