{
  "Metadata": {
    "PageCount": 1,
    "PageNo": 0,
    "TotalCount": 0
  },
  "Recipes": [
    {
      "AdServingKeywords": "Entree,Beef,Meat,Peppers,Potato,Vegetables,Zucchini,Dinner,All Seasons,A.1.,Kraft Salad Dressing",
      "AlternateLanguageRecipes": [],
      "Assets": [],
      "AverageRating": 0,
      "BrandId": 1,
      "Branding": null,
      "CSSSkins": null,
      "CarbCounter": "1-1/2",
      "Categories": [
        {
          "CategoryID": 7,
          "CategoryName": "Pork/Beef Entrees",
          "CategoryRank": 10,
          "SubCategoryID": 408,
          "SubCategoryName": "Beef: Grilled/Broiled",
          "SubCategoryRank": 20
        },
        {
          "CategoryID": 11,
          "CategoryName": "Primary",
          "CategoryRank": 0,
          "SubCategoryID": 97,
          "SubCategoryName": "Entrees",
          "SubCategoryRank": 50
        },
        {
          "CategoryID": 756,
          "CategoryName": "Main Meals (Meat / Seafood / Egg)",
          "CategoryRank": 10,
          "SubCategoryID": 2563,
          "SubCategoryName": "Beef",
          "SubCategoryRank": 1
        },
        {
          "CategoryID": 756,
          "CategoryName": "Main Meals (Meat / Seafood / Egg)",
          "CategoryRank": 10,
          "SubCategoryID": 2564,
          "SubCategoryName": "Pork",
          "SubCategoryRank": 1
        }
      ],
      "Classifications": [
        {
          "ClassficationId": 9,
          "ClassificationName": "Low fat"
        },
        {
          "ClassficationId": 11,
          "ClassificationName": "Low calorie"
        },
        {
          "ClassficationId": 13,
          "ClassificationName": "Good source of vitamin A or C"
        },
        {
          "ClassficationId": 14,
          "ClassificationName": "Generally Nutritious"
        },
        {
          "ClassficationId": 119,
          "ClassificationName": "Diabetes Center"
        }
      ],
      "ComplimentaryRecipes": null,
      "CookingMethod": null,
      "Copyright": null,
      "Courses": [
        "Main dishes"
      ],
      "DietExchange": "1/2 Starch,2 Vegetable,4 Meat (L),1/2 Fat",
      "DishDetails": [
        {
          "Text": "ground beef recipes",
          "Url": "/recipes/dinner/ground-beef-recipes/main.aspx"
        },
        {
          "Text": "top 10 beef recipes",
          "Url": "/recipes/dinner/top-10/beef-recipes/main.aspx"
        },
        {
          "Text": "1 bag 5 dinners",
          "Url": "/recipes/dinner/1Bag5Dinners/1bag5dinnerschickenbeef.aspx"
        }
      ],
      "EndDate": "/Date(-62135575200000-0600)/",
      "HasVideo": false,
      "Ingredients": [
        {
          "FullMeasure": "1/2 cup",
          "FullWeight": "",
          "IngredientGridHeaders": null,
          "IngredientID": 7905,
          "IngredientName": "A.1. CHICAGO STEAKHOUSE Marinade",
          "IngredientStep": 10,
          "LanguageId": 0,
          "PostPreparation": ", divided",
          "PrePreparation": "",
          "QuantityNum": 0,
          "QuantityText": "1/2",
          "QuantityUnit": "cup",
          "RecipeIngredientID": 5299359,
          "TrialMeasure": "",
          "TrialWeight": ""
        },
        {
          "FullMeasure": "1",
          "FullWeight": "",
          "IngredientGridHeaders": null,
          "IngredientID": 5597,
          "IngredientName": "beef top round steak",
          "IngredientStep": 20,
          "LanguageId": 0,
          "PostPreparation": " (1 lb.)",
          "PrePreparation": "",
          "QuantityNum": 1,
          "QuantityText": "1",
          "QuantityUnit": "",
          "RecipeIngredientID": 5299363,
          "TrialMeasure": "",
          "TrialWeight": ""
        },
        {
          "FullMeasure": "2",
          "FullWeight": "",
          "IngredientGridHeaders": null,
          "IngredientID": 19875,
          "IngredientName": "baking potato",
          "IngredientStep": 30,
          "LanguageId": 0,
          "PostPreparation": "es (1/2 lb.)",
          "PrePreparation": "",
          "QuantityNum": 2,
          "QuantityText": "2",
          "QuantityUnit": "",
          "RecipeIngredientID": 5299361,
          "TrialMeasure": "",
          "TrialWeight": ""
        },
        {
          "FullMeasure": "2",
          "FullWeight": "",
          "IngredientGridHeaders": null,
          "IngredientID": 1779,
          "IngredientName": "zucchini",
          "IngredientStep": 40,
          "LanguageId": 0,
          "PostPreparation": ", cut lengthwise in half",
          "PrePreparation": "",
          "QuantityNum": 2,
          "QuantityText": "2",
          "QuantityUnit": "",
          "RecipeIngredientID": 5299360,
          "TrialMeasure": "",
          "TrialWeight": ""
        },
        {
          "FullMeasure": "2",
          "FullWeight": "",
          "IngredientGridHeaders": null,
          "IngredientID": 1523,
          "IngredientName": "red pepper",
          "IngredientStep": 50,
          "LanguageId": 0,
          "PostPreparation": "s, quartered",
          "PrePreparation": "",
          "QuantityNum": 2,
          "QuantityText": "2",
          "QuantityUnit": "",
          "RecipeIngredientID": 5299362,
          "TrialMeasure": "",
          "TrialWeight": ""
        },
        {
          "FullMeasure": "1/4 cup",
          "FullWeight": "",
          "IngredientGridHeaders": null,
          "IngredientID": 499,
          "IngredientName": "KRAFT Zesty Italian Dressing",
          "IngredientStep": 60,
          "LanguageId": 0,
          "PostPreparation": "",
          "PrePreparation": "",
          "QuantityNum": 0,
          "QuantityText": "1/4",
          "QuantityUnit": "cup",
          "RecipeIngredientID": 5299358,
          "TrialMeasure": "",
          "TrialWeight": ""
        }
      ],
      "IsHealthyLiving": true,
      "KRLId": "546559",
      "KeyIngredients": [
        "Beef",
        "Meat",
        "Peppers",
        "Potato",
        "Vegetables",
        "Zucchini"
      ],
      "Keywords": "peppers,potatoes,red peppers,beef,dressing,italian dressing,KRAFT Dressing,meat,salad dressing,squash,steak,zucchini,A.1. Sauces,round steak,steak sauce,beef-steak,A1 Sauces,bell peppers,Entree,Dinner,All Seasons",
      "LanguageId": 1,
      "LifeStyles": [
        "Low fat",
        "Low calorie",
        "Good source of vitamin A or C",
        "Generally Nutritious",
        "Diabetes Center"
      ],
      "NumberOfIngredients": 6,
      "NumberOfRatings": 0,
      "NumberOfRatingsWithComments": "0",
      "NumberOfServings": "4 servings",
      "NumberOfTrialServings": "",
      "NutritionBonus": "Low in both calories and fat, this grilled meal is a cinch to clean up.  And as a bonus, in addition to providing vitamin A, the colorful red peppers team up with the other vegetables to provide an excellent source of vitamin C.\r\n",
      "NutritionExchangeItemId": 1,
      "NutritionGridItems": null,
      "NutritionItems": [
        {
          "DisplayOrder": 1,
          "Document": null,
          "NutritionItemID": 3,
          "NutritionItemName": "Calories",
          "Predriscriptor": "",
          "Quantity": 300,
          "Unit": "          "
        },
        {
          "DisplayOrder": 2,
          "Document": "fat_cholesterol.html",
          "NutritionItemID": 4,
          "NutritionItemName": "Total fat",
          "Predriscriptor": "",
          "Quantity": 9,
          "Unit": "g         "
        },
        {
          "DisplayOrder": 3,
          "Document": "fat_cholesterol.html",
          "NutritionItemID": 9,
          "NutritionItemName": "Saturated fat",
          "Predriscriptor": "",
          "Quantity": 2,
          "Unit": "g         "
        },
        {
          "DisplayOrder": 7,
          "Document": "fat_cholesterol.html",
          "NutritionItemID": 2,
          "NutritionItemName": "Cholesterol",
          "Predriscriptor": "",
          "Quantity": 75,
          "Unit": "mg        "
        },
        {
          "DisplayOrder": 8,
          "Document": "sodium.html",
          "NutritionItemID": 8,
          "NutritionItemName": "Sodium",
          "Predriscriptor": "",
          "Quantity": 610,
          "Unit": "mg        "
        },
        {
          "DisplayOrder": 10,
          "Document": "carbs_sugars_fiber.html",
          "NutritionItemID": 1,
          "NutritionItemName": "Carbohydrate",
          "Predriscriptor": "",
          "Quantity": 22,
          "Unit": "g         "
        },
        {
          "DisplayOrder": 11,
          "Document": "carbs_sugars_fiber.html",
          "NutritionItemID": 7,
          "NutritionItemName": "Dietary fiber",
          "Predriscriptor": "",
          "Quantity": 4,
          "Unit": "g         "
        },
        {
          "DisplayOrder": 12,
          "Document": "carbs_sugars_fiber.html",
          "NutritionItemID": 5,
          "NutritionItemName": "Sugars",
          "Predriscriptor": "",
          "Quantity": 7,
          "Unit": "g         "
        },
        {
          "DisplayOrder": 13,
          "Document": null,
          "NutritionItemID": 6,
          "NutritionItemName": "Protein",
          "Predriscriptor": "",
          "Quantity": 31,
          "Unit": "g         "
        },
        {
          "DisplayOrder": 14,
          "Document": null,
          "NutritionItemID": 10,
          "NutritionItemName": "Vitamin A",
          "Predriscriptor": "",
          "Quantity": 45,
          "Unit": "%DV       "
        },
        {
          "DisplayOrder": 15,
          "Document": null,
          "NutritionItemID": 11,
          "NutritionItemName": "Vitamin C",
          "Predriscriptor": "",
          "Quantity": 90,
          "Unit": "%DV       "
        },
        {
          "DisplayOrder": 16,
          "Document": "dairy_and_calcium.html",
          "NutritionItemID": 12,
          "NutritionItemName": "Calcium",
          "Predriscriptor": "",
          "Quantity": 4,
          "Unit": "%DV       "
        },
        {
          "DisplayOrder": 17,
          "Document": null,
          "NutritionItemID": 13,
          "NutritionItemName": "Iron",
          "Predriscriptor": "",
          "Quantity": 20,
          "Unit": "%DV       "
        }
      ],
      "NutritionServingText": " ",
      "PrepStepImage": null,
      "PreparationDescription": "Reserve 1/4 cup marinade; pour remaining marinade over steak in shallow dish.  Turn to evenly coat both sides of steak.  Refrigerate 30 min. to marinate.  Meanwhile, pierce potatoes in several places with fork or sharp knife.  Microwave on HIGH 8 to 9 min. or just until tender; cool.   $Heat grill to medium-high heat.  Remove steak from marinade; discard marinade.  Grill steak 5 min.  Meanwhile, cut each potato into 4 lengthwise wedges.  $Turn steak; brush with half of the reserved marinade.  Add potatoes, zucchini and peppers to grill; brush with 2 Tbsp. dressing.  Grill 5 min.  Turn steak and vegetables.  Brush steak with remaining marinade and brush vegetables with remaining dressing.  Grill 4 to 5 min. or until steak is medium doneness (160°F) and vegetables are crisp-tender.",
      "PreparationPreText": "",
      "PreparationSteps": [
        {
          "Description": "Reserve 1/4 cup marinade; pour remaining marinade over steak in shallow dish.  Turn to evenly coat both sides of steak.  Refrigerate 30 min. to marinate.  Meanwhile, pierce potatoes in several places with fork or sharp knife.  Microwave on HIGH 8 to 9 min. or just until tender; cool.   ",
          "PreparationStepImage": {
            "PictureFormats": [],
            "author": null,
            "id": null,
            "imageType": null,
            "mimeType": null,
            "publicationDate": null,
            "status": null,
            "title": null,
            "type": null
          },
          "Sequence": 1
        },
        {
          "Description": "Heat grill to medium-high heat.  Remove steak from marinade; discard marinade.  Grill steak 5 min.  Meanwhile, cut each potato into 4 lengthwise wedges.  ",
          "PreparationStepImage": {
            "PictureFormats": [],
            "author": null,
            "id": null,
            "imageType": null,
            "mimeType": null,
            "publicationDate": null,
            "status": null,
            "title": null,
            "type": null
          },
          "Sequence": 2
        },
        {
          "Description": "Turn steak; brush with half of the reserved marinade.  Add potatoes, zucchini and peppers to grill; brush with 2 Tbsp. dressing.  Grill 5 min.  Turn steak and vegetables.  Brush steak with remaining marinade and brush vegetables with remaining dressing.  Grill 4 to 5 min. or until steak is medium doneness (160°F) and vegetables are crisp-tender.",
          "PreparationStepImage": {
            "PictureFormats": [],
            "author": null,
            "id": null,
            "imageType": null,
            "mimeType": null,
            "publicationDate": null,
            "status": null,
            "title": null,
            "type": null
          },
          "Sequence": 3
        }
      ],
      "PreparationTime": 30,
      "Promotion": null,
      "Ratings": {
        "TotalCount": 0,
        "PageCount": 10,
        "PageNo": 1,
        "Rating": []
      },
      "RecipeDisplayFormatId": 5,
      "RecipeId": 187068,
      "RecipeName": "Steak and Vegetables on the Grill",
      "RecipeType": 0,
      "RelatedData": {
        "RelatedBrands": null,
        "RelatedProducts": null,
        "RelatedRecipes": {
          "DefaultTopCount": 5,
          "Recipe": [
            {
              "AverageRating": 4.3,
              "HasVideo": false,
              "IsHealthyLiving": true,
              "NumberOfRatings": 3,
              "PhotoName": "110663.jpg",
              "PhotoUrl": "http://assets.kraftfoods.com/recipe_images/opendeploy/110663.jpg",
              "RecipeId": 110663,
              "RecipeName": "Skewered Surf & Turf with Grilled Vegetables",
              "SEOName": "skewered-surf-turf-grilled-vegetables-110663",
              "ThumbnailPhoto": null
            },
            {
              "AverageRating": 4.5,
              "HasVideo": false,
              "IsHealthyLiving": true,
              "NumberOfRatings": 91,
              "PhotoName": "Grilled_Steak_n_Vegetable_Salad.jpg",
              "PhotoUrl": "http://assets.kraftfoods.com/recipe_images/opendeploy/Grilled_Steak_n_Vegetable_Salad.jpg",
              "RecipeId": 74521,
              "RecipeName": "Grilled Steak & Vegetable Salad",
              "SEOName": "grilled-steak-vegetable-salad-74521",
              "ThumbnailPhoto": null
            },
            {
              "AverageRating": 4.3,
              "HasVideo": false,
              "IsHealthyLiving": true,
              "NumberOfRatings": 7,
              "PhotoName": "A1_Cajun_Grilled_Steak_and_Vegetables.jpg",
              "PhotoUrl": "http://assets.kraftfoods.com/recipe_images/opendeploy/A1_Cajun_Grilled_Steak_and_Vegetables.jpg",
              "RecipeId": 63965,
              "RecipeName": "Cajun Grilled Steak and Vegetables",
              "SEOName": "cajun-grilled-steak-vegetables-63965",
              "ThumbnailPhoto": null
            },
            {
              "AverageRating": 5,
              "HasVideo": false,
              "IsHealthyLiving": true,
              "NumberOfRatings": 1,
              "PhotoName": "148462.jpg",
              "PhotoUrl": "http://assets.kraftfoods.com/recipe_images/opendeploy/148462.jpg",
              "RecipeId": 148462,
              "RecipeName": "Rancher's Steak with Grilled Peppers & Onions",
              "SEOName": "ranchers-steak-grilled-peppers-onions-148462",
              "ThumbnailPhoto": null
            },
            {
              "AverageRating": 4.2,
              "HasVideo": false,
              "IsHealthyLiving": true,
              "NumberOfRatings": 43,
              "PhotoName": "52780.jpg",
              "PhotoUrl": "http://assets.kraftfoods.com/recipe_images/opendeploy/52780.jpg",
              "RecipeId": 52780,
              "RecipeName": "BBQ Grilled Steak Wraps",
              "SEOName": "bbq-grilled-steak-wraps-52780",
              "ThumbnailPhoto": null
            }
          ],
          "TotalCount": 1790
        }
      },
      "RiseIngredients": [],
      "RiseTaxonomy": [],
      "Riserecipe": [
        {
          "GRIN": 546559,
          "RecipeId": 187068,
          "RecipeIndustrySector": "Retail",
          "RecipeType": "Internal"
        }
      ],
      "RomanceText": "Colorful veggies join marinated steak on the grill for a few rounds of turning and basting. The result? An intensely flavorful dish your family will love!",
      "SEOName": "steak-vegetables-on-the-grill-187068",
      "Tips": [
        {
          "RecipeId": 187068,
          "Sequence": 10,
          "TipDescription": "While the grill is hot, use it to cook additional vegetables or chicken for later use.  Chop up and add to salads or use as a filling for wrapped sandwiches.  ",
          "TipID": 1,
          "TipName": "Creative Leftovers"
        }
      ],
      "TotalTime": 60,
      "TradeMarkInfo": null,
      "Video": [],
      "Yield": "4 servings"
    }
  ]
}