{
  "Metadata": {
    "PageCount": 1,
    "PageNo": 0,
    "TotalCount": 0
  },
  "Recipes": [
    {
      "AdServingKeywords": "Entree,Cheese,Chicken,Ham,Meat,Mozzarella,Olive,Peppers,Poultry,Vegetables,Dinner,All Seasons,Kraft Cheese,Kraft Salad Dressing,Kraft Shredded Cheese,Oscar Mayer",
      "AlternateLanguageRecipes": [],
      "Assets": [],
      "AverageRating": 0,
      "BrandId": 1,
      "Branding": null,
      "CSSSkins": null,
      "CarbCounter": null,
      "Categories": [
        {
          "CategoryID": 2,
          "CategoryName": "Poultry Entrees",
          "CategoryRank": 11,
          "SubCategoryID": 380,
          "SubCategoryName": "Grilled/Broiled",
          "SubCategoryRank": 40
        },
        {
          "CategoryID": 11,
          "CategoryName": "Primary",
          "CategoryRank": 0,
          "SubCategoryID": 97,
          "SubCategoryName": "Entrees",
          "SubCategoryRank": 50
        },
        {
          "CategoryID": 756,
          "CategoryName": "Main Meals (Meat / Seafood / Egg)",
          "CategoryRank": 10,
          "SubCategoryID": 2562,
          "SubCategoryName": "Chicken",
          "SubCategoryRank": 1
        }
      ],
      "Classifications": [],
      "ComplimentaryRecipes": null,
      "CookingMethod": null,
      "Copyright": null,
      "Courses": [
        "Main dishes"
      ],
      "DietExchange": null,
      "DishDetails": [
        {
          "Text": "chicken recipes",
          "Url": "/recipes/dinner/chicken-recipes/main.aspx"
        },
        {
          "Text": "grilled chicken recipes",
          "Url": "/recipes/dinner/chicken-recipes/grilled-chicken/main.aspx"
        },
        {
          "Text": "healthy living chicken recipes",
          "Url": "/recipes/dinner/chicken-recipes/hl/main.aspx"
        },
        {
          "Text": "slow cooker chicken recipes",
          "Url": "/recipes/dinner/chicken-recipes/slow-cooker/main.aspx"
        },
        {
          "Text": "whole chicken recipes",
          "Url": "/recipes/dinner/chicken-recipes/whole-chicken/main.aspx"
        },
        {
          "Text": "chicken breast recipes",
          "Url": "/recipes/dinner/chicken-recipes/chicken-breast/main.aspx"
        },
        {
          "Text": "chicken casseroles",
          "Url": "/recipes/dinner/chicken-recipes/casseroles/main.aspx"
        },
        {
          "Text": "chicken pasta recipes",
          "Url": "/recipes/dinner/chicken-recipes/pasta-dishes/main.aspx"
        },
        {
          "Text": "chicken salad recipes",
          "Url": "/recipes/dinner/chicken-recipes/salads/main.aspx"
        },
        {
          "Text": "chicken stir-fry recipes",
          "Url": "/recipes/dinner/chicken-recipes/stir-fry/main.aspx"
        },
        {
          "Text": "chicken wing recipes",
          "Url": "/recipes/appetizers/chicken-wing-recipes/main.aspx"
        },
        {
          "Text": "baked chicken recipes",
          "Url": "/recipes/dinner/chicken-recipes/baked-chicken/main.aspx"
        },
        {
          "Text": "bbq chicken recipes",
          "Url": "/recipes/holidays-and-entertaining/entertaining/summer/bbq-recipes/bbq-chicken-recipes/main.aspx"
        }
      ],
      "EndDate": "/Date(-62135575200000-0600)/",
      "HasVideo": false,
      "Ingredients": [
        {
          "FullMeasure": "4 small",
          "FullWeight": "",
          "IngredientGridHeaders": null,
          "IngredientID": 27042,
          "IngredientName": "boneless skinless chicken breasts",
          "IngredientStep": 10,
          "LanguageId": 0,
          "PostPreparation": " (1 lb.)",
          "PrePreparation": "",
          "QuantityNum": 4,
          "QuantityText": "4",
          "QuantityUnit": "small",
          "RecipeIngredientID": 4210981,
          "TrialMeasure": "",
          "TrialWeight": ""
        },
        {
          "FullMeasure": "4 slices",
          "FullWeight": "",
          "IngredientGridHeaders": null,
          "IngredientID": 612,
          "IngredientName": "OSCAR MAYER Smoked Ham",
          "IngredientStep": 20,
          "LanguageId": 0,
          "PostPreparation": "",
          "PrePreparation": "",
          "QuantityNum": 4,
          "QuantityText": "4",
          "QuantityUnit": "slices",
          "RecipeIngredientID": 4210979,
          "TrialMeasure": "",
          "TrialWeight": ""
        },
        {
          "FullMeasure": "1 small",
          "FullWeight": "",
          "IngredientGridHeaders": null,
          "IngredientID": 1523,
          "IngredientName": "red pepper",
          "IngredientStep": 30,
          "LanguageId": 0,
          "PostPreparation": ", thinly sliced",
          "PrePreparation": " ",
          "QuantityNum": 1,
          "QuantityText": "1",
          "QuantityUnit": "small",
          "RecipeIngredientID": 4210976,
          "TrialMeasure": "",
          "TrialWeight": ""
        },
        {
          "FullMeasure": "1/2 cup",
          "FullWeight": "",
          "IngredientGridHeaders": null,
          "IngredientID": 466,
          "IngredientName": "KRAFT Shredded Low-Moisture Part-Skim Mozzarella Cheese",
          "IngredientStep": 40,
          "LanguageId": 0,
          "PostPreparation": "",
          "PrePreparation": "",
          "QuantityNum": 0,
          "QuantityText": "1/2",
          "QuantityUnit": "cup",
          "RecipeIngredientID": 4210978,
          "TrialMeasure": "",
          "TrialWeight": ""
        },
        {
          "FullMeasure": "1/4 cup",
          "FullWeight": "",
          "IngredientGridHeaders": null,
          "IngredientID": 3555,
          "IngredientName": "pimento-stuffed green olives",
          "IngredientStep": 50,
          "LanguageId": 0,
          "PostPreparation": "",
          "PrePreparation": " chopped ",
          "QuantityNum": 0,
          "QuantityText": "1/4",
          "QuantityUnit": "cup",
          "RecipeIngredientID": 4210977,
          "TrialMeasure": "",
          "TrialWeight": ""
        },
        {
          "FullMeasure": "1/4 cup",
          "FullWeight": "",
          "IngredientGridHeaders": null,
          "IngredientID": 499,
          "IngredientName": "KRAFT Zesty Italian Dressing",
          "IngredientStep": 60,
          "LanguageId": 0,
          "PostPreparation": "",
          "PrePreparation": "",
          "QuantityNum": 0,
          "QuantityText": "1/4",
          "QuantityUnit": "cup",
          "RecipeIngredientID": 4210980,
          "TrialMeasure": "",
          "TrialWeight": ""
        }
      ],
      "IsHealthyLiving": false,
      "KRLId": "552762",
      "KeyIngredients": [
        "Cheese",
        "Ham",
        "Meat",
        "Mozzarella",
        "Olive",
        "Peppers",
        "Vegetables"
      ],
      "Keywords": "mozzarella cheese,olives,OSCAR MAYER Ham,peppers,pork,red peppers,cheese,chicken,chicken breasts-boneless,cold cuts,dressing,ham,italian dressing,KRAFT Dressing,KRAFT Mozzarella Cheese,meat,salad dressing,chicken breasts,lunch meat,bell peppers,Entree,Dinner,All Seasons",
      "LanguageId": 1,
      "LifeStyles": [],
      "NumberOfIngredients": 6,
      "NumberOfRatings": 0,
      "NumberOfRatingsWithComments": "0",
      "NumberOfServings": "4 servings",
      "NumberOfTrialServings": "",
      "NutritionBonus": null,
      "NutritionExchangeItemId": 0,
      "NutritionGridItems": null,
      "NutritionItems": [
        {
          "DisplayOrder": 1,
          "Document": null,
          "NutritionItemID": 3,
          "NutritionItemName": "Calories",
          "Predriscriptor": "",
          "Quantity": 240,
          "Unit": "          "
        },
        {
          "DisplayOrder": 2,
          "Document": "fat_cholesterol.html",
          "NutritionItemID": 4,
          "NutritionItemName": "Total fat",
          "Predriscriptor": "",
          "Quantity": 10,
          "Unit": "g         "
        },
        {
          "DisplayOrder": 3,
          "Document": "fat_cholesterol.html",
          "NutritionItemID": 9,
          "NutritionItemName": "Saturated fat",
          "Predriscriptor": "",
          "Quantity": 3,
          "Unit": "g         "
        },
        {
          "DisplayOrder": 7,
          "Document": "fat_cholesterol.html",
          "NutritionItemID": 2,
          "NutritionItemName": "Cholesterol",
          "Predriscriptor": "",
          "Quantity": 80,
          "Unit": "mg        "
        },
        {
          "DisplayOrder": 8,
          "Document": "sodium.html",
          "NutritionItemID": 8,
          "NutritionItemName": "Sodium",
          "Predriscriptor": "",
          "Quantity": 710,
          "Unit": "mg        "
        },
        {
          "DisplayOrder": 10,
          "Document": "carbs_sugars_fiber.html",
          "NutritionItemID": 1,
          "NutritionItemName": "Carbohydrate",
          "Predriscriptor": "",
          "Quantity": 4,
          "Unit": "g         "
        },
        {
          "DisplayOrder": 11,
          "Document": "carbs_sugars_fiber.html",
          "NutritionItemID": 7,
          "NutritionItemName": "Dietary fiber",
          "Predriscriptor": "Less than",
          "Quantity": 1,
          "Unit": "g         "
        },
        {
          "DisplayOrder": 12,
          "Document": "carbs_sugars_fiber.html",
          "NutritionItemID": 5,
          "NutritionItemName": "Sugars",
          "Predriscriptor": "",
          "Quantity": 2,
          "Unit": "g         "
        },
        {
          "DisplayOrder": 13,
          "Document": null,
          "NutritionItemID": 6,
          "NutritionItemName": "Protein",
          "Predriscriptor": "",
          "Quantity": 32,
          "Unit": "g         "
        },
        {
          "DisplayOrder": 14,
          "Document": null,
          "NutritionItemID": 10,
          "NutritionItemName": "Vitamin A",
          "Predriscriptor": "",
          "Quantity": 15,
          "Unit": "%DV       "
        },
        {
          "DisplayOrder": 15,
          "Document": null,
          "NutritionItemID": 11,
          "NutritionItemName": "Vitamin C",
          "Predriscriptor": "",
          "Quantity": 25,
          "Unit": "%DV       "
        },
        {
          "DisplayOrder": 16,
          "Document": "dairy_and_calcium.html",
          "NutritionItemID": 12,
          "NutritionItemName": "Calcium",
          "Predriscriptor": "",
          "Quantity": 10,
          "Unit": "%DV       "
        },
        {
          "DisplayOrder": 17,
          "Document": null,
          "NutritionItemID": 13,
          "NutritionItemName": "Iron",
          "Predriscriptor": "",
          "Quantity": 6,
          "Unit": "%DV       "
        }
      ],
      "NutritionServingText": null,
      "PrepStepImage": null,
      "PreparationDescription": "Pound chicken breasts to 1/2-inch thickness.  Carefully cut 2-inch-long opening in one side of each breast to form a pocket.$Top ham slices evenly with peppers, cheese and olives; roll up.  Insert one roll into pocket of each chicken breast.  Brush chicken with dressing.$Grill chicken 8 min. on each side or until chicken is done (165°F).",
      "PreparationPreText": "Heat grill to medium heat.",
      "PreparationSteps": [
        {
          "Description": "Pound chicken breasts to 1/2-inch thickness.  Carefully cut 2-inch-long opening in one side of each breast to form a pocket.",
          "PreparationStepImage": {
            "PictureFormats": [],
            "author": null,
            "id": null,
            "imageType": null,
            "mimeType": null,
            "publicationDate": null,
            "status": null,
            "title": null,
            "type": null
          },
          "Sequence": 1
        },
        {
          "Description": "Top ham slices evenly with peppers, cheese and olives; roll up.  Insert one roll into pocket of each chicken breast.  Brush chicken with dressing.",
          "PreparationStepImage": {
            "PictureFormats": [],
            "author": null,
            "id": null,
            "imageType": null,
            "mimeType": null,
            "publicationDate": null,
            "status": null,
            "title": null,
            "type": null
          },
          "Sequence": 2
        },
        {
          "Description": "Grill chicken 8 min. on each side or until chicken is done (165°F).",
          "PreparationStepImage": {
            "PictureFormats": [],
            "author": null,
            "id": null,
            "imageType": null,
            "mimeType": null,
            "publicationDate": null,
            "status": null,
            "title": null,
            "type": null
          },
          "Sequence": 3
        }
      ],
      "PreparationTime": 25,
      "Promotion": null,
      "Ratings": {
        "TotalCount": 0,
        "PageCount": 10,
        "PageNo": 1,
        "Rating": []
      },
      "RecipeDisplayFormatId": 5,
      "RecipeId": 163083,
      "RecipeName": "Uruguayan Grilled Stuffed Chicken Breast",
      "RecipeType": 0,
      "RelatedData": {
        "RelatedBrands": null,
        "RelatedProducts": null,
        "RelatedRecipes": {
          "DefaultTopCount": 5,
          "Recipe": [
            {
              "AverageRating": 4.1,
              "HasVideo": false,
              "IsHealthyLiving": false,
              "NumberOfRatings": 21,
              "PhotoName": "Easy_BBQ_Chicken_with_Stuffing_Dinner.jpg",
              "PhotoUrl": "http://assets.kraftfoods.com/recipe_images/opendeploy/Easy_BBQ_Chicken_with_Stuffing_Dinner.jpg",
              "RecipeId": 55340,
              "RecipeName": "Easy BBQ Chicken with Stuffing Dinner",
              "SEOName": "easy-bbq-chicken-stuffing-dinner-55340",
              "ThumbnailPhoto": null
            },
            {
              "AverageRating": 5,
              "HasVideo": false,
              "IsHealthyLiving": false,
              "NumberOfRatings": 1,
              "PhotoName": "169659_TMB_66277v0_FO.jpg",
              "PhotoUrl": "http://assets.kraftfoods.com/recipe_images/opendeploy/169659_TMB_66277v0_FO.jpg",
              "RecipeId": 169659,
              "RecipeName": "Crispy Baked Chicken Supreme",
              "SEOName": "crispy-baked-chicken-supreme-169659",
              "ThumbnailPhoto": null
            },
            {
              "AverageRating": 4.3,
              "HasVideo": false,
              "IsHealthyLiving": true,
              "NumberOfRatings": 133,
              "PhotoName": "Spinach-Stuffed-Chicken-Breasts-For Two.jpg",
              "PhotoUrl": "http://assets.kraftfoods.com/recipe_images/opendeploy/Spinach-Stuffed-Chicken-Breasts-For Two.jpg",
              "RecipeId": 104488,
              "RecipeName": "Spinach-Stuffed Chicken Breasts for Two",
              "SEOName": "spinach-stuffed-chicken-breasts-for-two-104488",
              "ThumbnailPhoto": null
            },
            {
              "AverageRating": 4,
              "HasVideo": false,
              "IsHealthyLiving": false,
              "NumberOfRatings": 71,
              "PhotoName": "90170.jpg",
              "PhotoUrl": "http://assets.kraftfoods.com/recipe_images/opendeploy/90170.jpg",
              "RecipeId": 90170,
              "RecipeName": "Cheesy Rice-Stuffed Chicken Breasts",
              "SEOName": "cheesy-rice-stuffed-chicken-breasts-90170",
              "ThumbnailPhoto": null
            },
            {
              "AverageRating": 4.6,
              "HasVideo": false,
              "IsHealthyLiving": false,
              "NumberOfRatings": 7,
              "PhotoName": "Chorizo-Poblano-Stuffed-Chicken-Breast-47539.jpg",
              "PhotoUrl": "http://assets.kraftfoods.com/recipe_images/opendeploy/Chorizo-Poblano-Stuffed-Chicken-Breast-47539.jpg",
              "RecipeId": 115068,
              "RecipeName": "Chorizo & Poblano Stuffed Chicken Breast",
              "SEOName": "chorizo-poblano-stuffed-chicken-breast-115068",
              "ThumbnailPhoto": null
            }
          ],
          "TotalCount": 2352
        }
      },
      "RiseIngredients": [],
      "RiseTaxonomy": [],
      "Riserecipe": [
        {
          "GRIN": 552762,
          "RecipeId": 163083,
          "RecipeIndustrySector": "Retail",
          "RecipeType": "Internal"
        }
      ],
      "RomanceText": "Looking to do something different with chicken breasts? Make them Uruguayan-style—with chopped pimiento-stuffed green olives and slices of smoked ham.",
      "SEOName": "uruguayan-grilled-stuffed-chicken-breast-163083",
      "Tips": [
        {
          "RecipeId": 163083,
          "Sequence": 10,
          "TipDescription": "Serve with steamed rice.",
          "TipID": 2,
          "TipName": "Serving Suggestion"
        },
        {
          "RecipeId": 163083,
          "Sequence": 20,
          "TipDescription": "Add a little heat by substituting ½ cup sliced roasted poblano chiles for the red peppers. \r\n\r\n",
          "TipID": 1,
          "TipName": "Substitute"
        },
        {
          "RecipeId": 163083,
          "Sequence": 30,
          "TipDescription": "To pound chicken breasts, veal cutlets or tenderize beef, place meat in a freezer-weight resealable plastic bag, then pound the meat with the side of a heavy can, rolling pin or meat mallet until meat is the desired thickness.  The bag will contain the liquids from the meat, minimizing the mess.  ",
          "TipID": 4511,
          "TipName": "How to Pound Meat"
        }
      ],
      "TotalTime": 25,
      "TradeMarkInfo": null,
      "Video": [],
      "Yield": "4 servings"
    }
  ]
}