{
  "Metadata": {
    "PageCount": 1,
    "PageNo": 0,
    "TotalCount": 0
  },
  "Recipes": [
    {
      "AdServingKeywords": "Cheddar,Cheese,Dairy,Onion,Parmesan,Potato,Vegetables,Side Dish,All Seasons,Grey Poupon,Kraft Cheese,Kraft Grated Cheese,Kraft Shredded Cheese,Cheesy",
      "AlternateLanguageRecipes": [],
      "Assets": [],
      "AverageRating": 4,
      "BrandId": 1,
      "Branding": null,
      "CSSSkins": null,
      "CarbCounter": null,
      "Categories": [
        {
          "CategoryID": 9,
          "CategoryName": "Salads/Side Dishes",
          "CategoryRank": 13,
          "SubCategoryID": 429,
          "SubCategoryName": "Potato Side Dishes",
          "SubCategoryRank": 120
        },
        {
          "CategoryID": 11,
          "CategoryName": "Primary",
          "CategoryRank": 0,
          "SubCategoryID": 99,
          "SubCategoryName": "Side Dishes",
          "SubCategoryRank": 90
        },
        {
          "CategoryID": 757,
          "CategoryName": "Vegetables & Vegetarian Meals",
          "CategoryRank": 11,
          "SubCategoryID": 2571,
          "SubCategoryName": "Side / Other",
          "SubCategoryRank": 1
        }
      ],
      "Classifications": [],
      "ComplimentaryRecipes": null,
      "CookingMethod": null,
      "Copyright": null,
      "Courses": [
        "Salads & sides"
      ],
      "DietExchange": null,
      "DishDetails": [],
      "EndDate": "/Date(-62135575200000-0600)/",
      "HasVideo": false,
      "Ingredients": [
        {
          "FullMeasure": "2-1/2 lb.",
          "FullWeight": "",
          "IngredientGridHeaders": null,
          "IngredientID": 1448,
          "IngredientName": "potatoes",
          "IngredientStep": 10,
          "LanguageId": 0,
          "PostPreparation": " (about 7)",
          "PrePreparation": "baking",
          "QuantityNum": 2,
          "QuantityText": "2-1/2",
          "QuantityUnit": "lb.",
          "RecipeIngredientID": 4015081,
          "TrialMeasure": "",
          "TrialWeight": ""
        },
        {
          "FullMeasure": "1/4 cup",
          "FullWeight": "",
          "IngredientGridHeaders": null,
          "IngredientID": 863,
          "IngredientName": "butter",
          "IngredientStep": 20,
          "LanguageId": 0,
          "PostPreparation": "",
          "PrePreparation": "",
          "QuantityNum": 0,
          "QuantityText": "1/4",
          "QuantityUnit": "cup",
          "RecipeIngredientID": 4015075,
          "TrialMeasure": "",
          "TrialWeight": ""
        },
        {
          "FullMeasure": "1 small",
          "FullWeight": "",
          "IngredientGridHeaders": null,
          "IngredientID": 1370,
          "IngredientName": "onion",
          "IngredientStep": 30,
          "LanguageId": 0,
          "PostPreparation": ", chopped",
          "PrePreparation": "",
          "QuantityNum": 1,
          "QuantityText": "1",
          "QuantityUnit": "small",
          "RecipeIngredientID": 4015079,
          "TrialMeasure": "",
          "TrialWeight": ""
        },
        {
          "FullMeasure": "1/4 cup",
          "FullWeight": "",
          "IngredientGridHeaders": null,
          "IngredientID": 1080,
          "IngredientName": "flour",
          "IngredientStep": 40,
          "LanguageId": 0,
          "PostPreparation": "",
          "PrePreparation": "",
          "QuantityNum": 0,
          "QuantityText": "1/4",
          "QuantityUnit": "cup",
          "RecipeIngredientID": 4015082,
          "TrialMeasure": "",
          "TrialWeight": ""
        },
        {
          "FullMeasure": "2-1/2 cups",
          "FullWeight": "",
          "IngredientGridHeaders": null,
          "IngredientID": 1345,
          "IngredientName": "milk",
          "IngredientStep": 50,
          "LanguageId": 0,
          "PostPreparation": "",
          "PrePreparation": "",
          "QuantityNum": 2,
          "QuantityText": "2-1/2",
          "QuantityUnit": "cups",
          "RecipeIngredientID": 4015076,
          "TrialMeasure": "",
          "TrialWeight": ""
        },
        {
          "FullMeasure": "1-3/4 cups",
          "FullWeight": "",
          "IngredientGridHeaders": null,
          "IngredientID": 461,
          "IngredientName": "KRAFT Shredded Cheddar Cheese",
          "IngredientStep": 60,
          "LanguageId": 0,
          "PostPreparation": ", divided",
          "PrePreparation": "",
          "QuantityNum": 1,
          "QuantityText": "1-3/4",
          "QuantityUnit": "cups",
          "RecipeIngredientID": 4015078,
          "TrialMeasure": "",
          "TrialWeight": ""
        },
        {
          "FullMeasure": "2 Tbsp.",
          "FullWeight": "",
          "IngredientGridHeaders": null,
          "IngredientID": 214,
          "IngredientName": "GREY POUPON Dijon Mustard",
          "IngredientStep": 70,
          "LanguageId": 0,
          "PostPreparation": "",
          "PrePreparation": "",
          "QuantityNum": 2,
          "QuantityText": "2",
          "QuantityUnit": "Tbsp.",
          "RecipeIngredientID": 4015080,
          "TrialMeasure": "",
          "TrialWeight": ""
        },
        {
          "FullMeasure": "1/4 cup",
          "FullWeight": "",
          "IngredientGridHeaders": null,
          "IngredientID": 397,
          "IngredientName": "KRAFT Grated Parmesan Cheese",
          "IngredientStep": 80,
          "LanguageId": 0,
          "PostPreparation": "",
          "PrePreparation": "",
          "QuantityNum": 0,
          "QuantityText": "1/4",
          "QuantityUnit": "cup",
          "RecipeIngredientID": 4015077,
          "TrialMeasure": "",
          "TrialWeight": ""
        }
      ],
      "IsHealthyLiving": false,
      "KRLId": "525747",
      "KeyIngredients": [
        "Cheddar",
        "Cheese",
        "Dairy",
        "Onion",
        "Parmesan",
        "Potato",
        "Vegetables"
      ],
      "Keywords": "mustard,onions,parmesan cheese,potatoes,cheddar cheese,cheese,KRAFT Cheddar Cheese,KRAFT Parmesan Cheese,milk,butter,flour,dijon mustard,GREY POUPON Mustard,Side Dish,All Seasons,Cheesy",
      "LanguageId": 1,
      "LifeStyles": [],
      "NumberOfIngredients": 8,
      "NumberOfRatings": 1,
      "NumberOfRatingsWithComments": "1",
      "NumberOfServings": "12 servings",
      "NumberOfTrialServings": "",
      "NutritionBonus": null,
      "NutritionExchangeItemId": 0,
      "NutritionGridItems": null,
      "NutritionItems": [
        {
          "DisplayOrder": 1,
          "Document": null,
          "NutritionItemID": 3,
          "NutritionItemName": "Calories",
          "Predriscriptor": "",
          "Quantity": 230,
          "Unit": "          "
        },
        {
          "DisplayOrder": 2,
          "Document": "fat_cholesterol.html",
          "NutritionItemID": 4,
          "NutritionItemName": "Total fat",
          "Predriscriptor": "",
          "Quantity": 11,
          "Unit": "g         "
        },
        {
          "DisplayOrder": 3,
          "Document": "fat_cholesterol.html",
          "NutritionItemID": 9,
          "NutritionItemName": "Saturated fat",
          "Predriscriptor": "",
          "Quantity": 7,
          "Unit": "g         "
        },
        {
          "DisplayOrder": 7,
          "Document": "fat_cholesterol.html",
          "NutritionItemID": 2,
          "NutritionItemName": "Cholesterol",
          "Predriscriptor": "",
          "Quantity": 30,
          "Unit": "mg        "
        },
        {
          "DisplayOrder": 8,
          "Document": "sodium.html",
          "NutritionItemID": 8,
          "NutritionItemName": "Sodium",
          "Predriscriptor": "",
          "Quantity": 270,
          "Unit": "mg        "
        },
        {
          "DisplayOrder": 10,
          "Document": "carbs_sugars_fiber.html",
          "NutritionItemID": 1,
          "NutritionItemName": "Carbohydrate",
          "Predriscriptor": "",
          "Quantity": 23,
          "Unit": "g         "
        },
        {
          "DisplayOrder": 11,
          "Document": "carbs_sugars_fiber.html",
          "NutritionItemID": 7,
          "NutritionItemName": "Dietary fiber",
          "Predriscriptor": "",
          "Quantity": 2,
          "Unit": "g         "
        },
        {
          "DisplayOrder": 12,
          "Document": "carbs_sugars_fiber.html",
          "NutritionItemID": 5,
          "NutritionItemName": "Sugars",
          "Predriscriptor": "",
          "Quantity": 4,
          "Unit": "g         "
        },
        {
          "DisplayOrder": 13,
          "Document": null,
          "NutritionItemID": 6,
          "NutritionItemName": "Protein",
          "Predriscriptor": "",
          "Quantity": 8,
          "Unit": "g         "
        },
        {
          "DisplayOrder": 14,
          "Document": null,
          "NutritionItemID": 10,
          "NutritionItemName": "Vitamin A",
          "Predriscriptor": "",
          "Quantity": 8,
          "Unit": "%DV       "
        },
        {
          "DisplayOrder": 15,
          "Document": null,
          "NutritionItemID": 11,
          "NutritionItemName": "Vitamin C",
          "Predriscriptor": "",
          "Quantity": 20,
          "Unit": "%DV       "
        },
        {
          "DisplayOrder": 16,
          "Document": "dairy_and_calcium.html",
          "NutritionItemID": 12,
          "NutritionItemName": "Calcium",
          "Predriscriptor": "",
          "Quantity": 20,
          "Unit": "%DV       "
        },
        {
          "DisplayOrder": 17,
          "Document": null,
          "NutritionItemID": 13,
          "NutritionItemName": "Iron",
          "Predriscriptor": "",
          "Quantity": 4,
          "Unit": "%DV       "
        }
      ],
      "NutritionServingText": " ",
      "PrepStepImage": null,
      "PreparationDescription": "Cook potatoes in boiling water 20 min. or just until tender; drain.  Return to pan; cover with cold water.  Let stand until cooled. $Meanwhile, melt butter in medium saucepan on medium heat. Add onions; cook and stir 2 min.  Blend in flour; cook 1 min.  Gradually add milk; cook 5 min. or until thickened, stirring constantly.  Add 1-1/4 cups cheddar; cook and stir 1 min. or until melted.  Stir in mustard.$Heat oven to 375°F.  Peel potatoes; cut into 1/4-inch-thick slices.  Layer alternately with cheese sauce in 2-qt. casserole sprayed with cooking spray, ending with sauce. $Bake 25 to 30 min. or until heated through.  Top with remaining cheeses; bake 5 min. or until cheddar is melted.",
      "PreparationPreText": "",
      "PreparationSteps": [
        {
          "Description": "Cook potatoes in boiling water 20 min. or just until tender; drain.  Return to pan; cover with cold water.  Let stand until cooled. ",
          "PreparationStepImage": {
            "PictureFormats": [],
            "author": null,
            "id": null,
            "imageType": null,
            "mimeType": null,
            "publicationDate": null,
            "status": null,
            "title": null,
            "type": null
          },
          "Sequence": 1
        },
        {
          "Description": "Meanwhile, melt butter in medium saucepan on medium heat. Add onions; cook and stir 2 min.  Blend in flour; cook 1 min.  Gradually add milk; cook 5 min. or until thickened, stirring constantly.  Add 1-1/4 cups cheddar; cook and stir 1 min. or until melted.  Stir in mustard.",
          "PreparationStepImage": {
            "PictureFormats": [],
            "author": null,
            "id": null,
            "imageType": null,
            "mimeType": null,
            "publicationDate": null,
            "status": null,
            "title": null,
            "type": null
          },
          "Sequence": 2
        },
        {
          "Description": "Heat oven to 375°F.  Peel potatoes; cut into 1/4-inch-thick slices.  Layer alternately with cheese sauce in 2-qt. casserole sprayed with cooking spray, ending with sauce. ",
          "PreparationStepImage": {
            "PictureFormats": [],
            "author": null,
            "id": null,
            "imageType": null,
            "mimeType": null,
            "publicationDate": null,
            "status": null,
            "title": null,
            "type": null
          },
          "Sequence": 3
        },
        {
          "Description": "Bake 25 to 30 min. or until heated through.  Top with remaining cheeses; bake 5 min. or until cheddar is melted.",
          "PreparationStepImage": {
            "PictureFormats": [],
            "author": null,
            "id": null,
            "imageType": null,
            "mimeType": null,
            "publicationDate": null,
            "status": null,
            "title": null,
            "type": null
          },
          "Sequence": 4
        }
      ],
      "PreparationTime": 40,
      "Promotion": null,
      "Ratings": {
        "TotalCount": 1,
        "PageCount": 10,
        "PageNo": 1,
        "Rating": [
          {
            "Comment": "potatoes were good but we think would be better without the parmesan on top.  Next time I make it, I will leave it off.",
            "DisplayName": false,
            "RatingValue": 4,
            "SubmitDate": "/Date(1384815412000-0600)/",
            "UpdatedDate": "/Date(1384815412000-0600)/",
            "UserName": "mscs72"
          }
        ]
      },
      "RecipeDisplayFormatId": 5,
      "RecipeId": 157605,
      "RecipeName": "Cheesy Cheddar Potatoes au Gratin",
      "RecipeType": 0,
      "RelatedData": {
        "RelatedBrands": null,
        "RelatedProducts": null,
        "RelatedRecipes": {
          "DefaultTopCount": 5,
          "Recipe": [
            {
              "AverageRating": 4.1,
              "HasVideo": false,
              "IsHealthyLiving": false,
              "NumberOfRatings": 14,
              "PhotoName": "Creamy_Cheesy_Brussels_Sprouts_au_Gratin.jpg",
              "PhotoUrl": "http://assets.kraftfoods.com/recipe_images/opendeploy/Creamy_Cheesy_Brussels_Sprouts_au_Gratin.jpg",
              "RecipeId": 89654,
              "RecipeName": "Creamy Cheesy Brussels Sprouts au Gratin",
              "SEOName": "creamy-cheesy-brussels-sprouts-au-gratin-89654",
              "ThumbnailPhoto": null
            },
            {
              "AverageRating": 4,
              "HasVideo": false,
              "IsHealthyLiving": true,
              "NumberOfRatings": 44,
              "PhotoName": "69206.jpg",
              "PhotoUrl": "http://assets.kraftfoods.com/recipe_images/opendeploy/69206.jpg",
              "RecipeId": 69206,
              "RecipeName": "Cheesy Cauliflower au Gratin",
              "SEOName": "cheesy-cauliflower-au-gratin-69206",
              "ThumbnailPhoto": null
            },
            {
              "AverageRating": 4.3,
              "HasVideo": false,
              "IsHealthyLiving": false,
              "NumberOfRatings": 9,
              "PhotoName": "64186.jpg",
              "PhotoUrl": "http://assets.kraftfoods.com/recipe_images/opendeploy/64186.jpg",
              "RecipeId": 64186,
              "RecipeName": "Cheesy Ham and Potato Frittata",
              "SEOName": "cheesy-ham-potato-frittata-64186",
              "ThumbnailPhoto": null
            },
            {
              "AverageRating": 4.3,
              "HasVideo": true,
              "IsHealthyLiving": false,
              "NumberOfRatings": 7,
              "PhotoName": "Potatoes-Au-Gratin-25276.jpg",
              "PhotoUrl": "http://assets.kraftfoods.com/recipe_images/opendeploy/Potatoes-Au-Gratin-25276.jpg",
              "RecipeId": 114864,
              "RecipeName": "Potatoes au Gratin",
              "SEOName": "potatoes-au-gratin-114864",
              "ThumbnailPhoto": null
            },
            {
              "AverageRating": 4.4,
              "HasVideo": false,
              "IsHealthyLiving": false,
              "NumberOfRatings": 60,
              "PhotoName": "57718.jpg",
              "PhotoUrl": "http://assets.kraftfoods.com/recipe_images/opendeploy/57718.jpg",
              "RecipeId": 57718,
              "RecipeName": "Easy au Gratin Potato Bake",
              "SEOName": "easy-au-gratin-potato-bake-57718",
              "ThumbnailPhoto": null
            }
          ],
          "TotalCount": 1266
        }
      },
      "RiseIngredients": [],
      "RiseTaxonomy": [],
      "Riserecipe": [
        {
          "GRIN": 525747,
          "RecipeId": 157605,
          "RecipeIndustrySector": "Retail",
          "RecipeType": "Internal"
        }
      ],
      "RomanceText": "Are you a fan of anything au gratin? This potato bake, made cheesy with shredded cheddar and grated Parmesan, will be right up your alley.",
      "SEOName": "cheesy-cheddar-potatoes-au-gratin-157605",
      "Tips": [
        {
          "RecipeId": 157605,
          "Sequence": 10,
          "TipDescription": "Serve this tasty potato side dish with a mixed green salad or hot steamed vegetable, and a serving of cooked lean meat, poultry or fish. ",
          "TipID": 5,
          "TipName": "Serving Suggestion"
        }
      ],
      "TotalTime": 95,
      "TradeMarkInfo": null,
      "Video": [],
      "Yield": "12 servings"
    }
  ]
}