{
  "Metadata": {
    "PageCount": 1,
    "PageNo": 0,
    "TotalCount": 0
  },
  "Recipes": [
    {
      "AdServingKeywords": "Appetizer,Cheddar,Cheese,Cream Cheese,Dairy,Sour Cream,Spinach,Vegetables,All Seasons,Dip,Breakstones,Knudsen,Kraft Cheese,Kraft Shredded Cheese,Philadelphia,Spicy",
      "AlternateLanguageRecipes": [],
      "Assets": [],
      "AverageRating": 0,
      "BrandId": 1,
      "Branding": null,
      "CSSSkins": null,
      "CarbCounter": null,
      "Categories": [
        {
          "CategoryID": 6,
          "CategoryName": "Appetizers/Snacks",
          "CategoryRank": 1,
          "SubCategoryID": 126,
          "SubCategoryName": "Hot Dips",
          "SubCategoryRank": 40
        },
        {
          "CategoryID": 11,
          "CategoryName": "Primary",
          "CategoryRank": 0,
          "SubCategoryID": 96,
          "SubCategoryName": "Appetizers & Snacks",
          "SubCategoryRank": 10
        },
        {
          "CategoryID": 748,
          "CategoryName": "Finger Food, Dips & Appetisers",
          "CategoryRank": 2,
          "SubCategoryID": 2523,
          "SubCategoryName": "Hot",
          "SubCategoryRank": 1
        }
      ],
      "Classifications": [],
      "ComplimentaryRecipes": null,
      "CookingMethod": null,
      "Copyright": null,
      "Courses": [
        "Appetizers"
      ],
      "DietExchange": null,
      "DishDetails": [
        {
          "Text": "appetizers",
          "Url": "/recipes/appetizers/main.aspx"
        },
        {
          "Text": "cold appetizers",
          "Url": "/recipes/appetizers/coldappetizers.aspx"
        },
        {
          "Text": "cheese plates",
          "Url": "/recipes/appetizers/entertainingcheeseplates.aspx"
        },
        {
          "Text": "hot appetizers",
          "Url": "/recipes/appetizers/hotappetizers.aspx"
        },
        {
          "Text": "quick appetizers",
          "Url": "/recipes/appetizers/quick.aspx"
        },
        {
          "Text": "salsa recipes",
          "Url": "/recipes/appetizers/salsa-recipes/main.aspx"
        },
        {
          "Text": "seafood appetizers",
          "Url": "/recipes/dinner/seafood/appetizers/main.aspx"
        },
        {
          "Text": "dip recipes",
          "Url": "/recipes/appetizers/dip-recipes/main.aspx"
        },
        {
          "Text": "dip recipes",
          "Url": "/recipes/appetizers/dip-recipes/main.aspx"
        },
        {
          "Text": "salsa recipes",
          "Url": "/recipes/appetizers/salsa-recipes/main.aspx"
        },
        {
          "Text": "VELVEETA appetizers",
          "Url": "/recipes/appetizers/velveeta-recipes/main.aspx"
        }
      ],
      "EndDate": "/Date(-62135575200000-0600)/",
      "HasVideo": false,
      "Ingredients": [
        {
          "FullMeasure": "1 tub",
          "FullWeight": "",
          "IngredientGridHeaders": null,
          "IngredientID": 26061,
          "IngredientName": "PHILADELPHIA Spicy Jalapeño Cream Cheese Spread",
          "IngredientStep": 10,
          "LanguageId": 0,
          "PostPreparation": "",
          "PrePreparation": "(8 oz.)",
          "QuantityNum": 1,
          "QuantityText": "1",
          "QuantityUnit": "tub",
          "RecipeIngredientID": 5190028,
          "TrialMeasure": "",
          "TrialWeight": ""
        },
        {
          "FullMeasure": "1 cup",
          "FullWeight": "",
          "IngredientGridHeaders": null,
          "IngredientID": 88,
          "IngredientName": "BREAKSTONE'S or KNUDSEN Sour Cream",
          "IngredientStep": 20,
          "LanguageId": 0,
          "PostPreparation": "",
          "PrePreparation": "",
          "QuantityNum": 1,
          "QuantityText": "1",
          "QuantityUnit": "cup",
          "RecipeIngredientID": 5190029,
          "TrialMeasure": "",
          "TrialWeight": ""
        },
        {
          "FullMeasure": "1 pkg.",
          "FullWeight": "",
          "IngredientGridHeaders": null,
          "IngredientID": 1136,
          "IngredientName": "frozen chopped spinach",
          "IngredientStep": 30,
          "LanguageId": 0,
          "PostPreparation": ", thawed, squeezed dry",
          "PrePreparation": "(10 oz.)",
          "QuantityNum": 1,
          "QuantityText": "1",
          "QuantityUnit": "pkg.",
          "RecipeIngredientID": 5190030,
          "TrialMeasure": "",
          "TrialWeight": ""
        },
        {
          "FullMeasure": "1 pkg.",
          "FullWeight": "",
          "IngredientGridHeaders": null,
          "IngredientID": 461,
          "IngredientName": "KRAFT Shredded Cheddar Cheese",
          "IngredientStep": 40,
          "LanguageId": 0,
          "PostPreparation": ", divided",
          "PrePreparation": "(8 oz.)",
          "QuantityNum": 1,
          "QuantityText": "1",
          "QuantityUnit": "pkg.",
          "RecipeIngredientID": 5190031,
          "TrialMeasure": "",
          "TrialWeight": ""
        }
      ],
      "IsHealthyLiving": false,
      "KRLId": "504708",
      "KeyIngredients": [
        "Cheddar",
        "Cheese",
        "Dairy",
        "Spinach",
        "Vegetables"
      ],
      "Keywords": "BREAKSTONE'S Sour Cream,cheddar cheese,cheese,cream cheese,KNUDSEN Sour Cream,KRAFT Cheddar Cheese,sour cream,spinach,PHILADELPHIA Cream Cheese Spre,jalapeno cream cheese,Appetizer,Dip,All Seasons,Spicy",
      "LanguageId": 1,
      "LifeStyles": [],
      "NumberOfIngredients": 4,
      "NumberOfRatings": 0,
      "NumberOfRatingsWithComments": "0",
      "NumberOfServings": "32 servings, 2 Tbsp. each",
      "NumberOfTrialServings": "",
      "NutritionBonus": null,
      "NutritionExchangeItemId": 0,
      "NutritionGridItems": null,
      "NutritionItems": [
        {
          "DisplayOrder": 1,
          "Document": null,
          "NutritionItemID": 3,
          "NutritionItemName": "Calories",
          "Predriscriptor": "",
          "Quantity": 60,
          "Unit": "          "
        },
        {
          "DisplayOrder": 2,
          "Document": "fat_cholesterol.html",
          "NutritionItemID": 4,
          "NutritionItemName": "Total fat",
          "Predriscriptor": "",
          "Quantity": 5,
          "Unit": "g         "
        },
        {
          "DisplayOrder": 3,
          "Document": "fat_cholesterol.html",
          "NutritionItemID": 9,
          "NutritionItemName": "Saturated fat",
          "Predriscriptor": "",
          "Quantity": 3,
          "Unit": "g         "
        },
        {
          "DisplayOrder": 7,
          "Document": "fat_cholesterol.html",
          "NutritionItemID": 2,
          "NutritionItemName": "Cholesterol",
          "Predriscriptor": "",
          "Quantity": 15,
          "Unit": "mg        "
        },
        {
          "DisplayOrder": 8,
          "Document": "sodium.html",
          "NutritionItemID": 8,
          "NutritionItemName": "Sodium",
          "Predriscriptor": "",
          "Quantity": 95,
          "Unit": "mg        "
        },
        {
          "DisplayOrder": 10,
          "Document": "carbs_sugars_fiber.html",
          "NutritionItemID": 1,
          "NutritionItemName": "Carbohydrate",
          "Predriscriptor": "",
          "Quantity": 1,
          "Unit": "g         "
        },
        {
          "DisplayOrder": 11,
          "Document": "carbs_sugars_fiber.html",
          "NutritionItemID": 7,
          "NutritionItemName": "Dietary fiber",
          "Predriscriptor": "",
          "Quantity": 0,
          "Unit": "g         "
        },
        {
          "DisplayOrder": 12,
          "Document": "carbs_sugars_fiber.html",
          "NutritionItemID": 5,
          "NutritionItemName": "Sugars",
          "Predriscriptor": "Less than",
          "Quantity": 1,
          "Unit": "g         "
        },
        {
          "DisplayOrder": 13,
          "Document": null,
          "NutritionItemID": 6,
          "NutritionItemName": "Protein",
          "Predriscriptor": "",
          "Quantity": 3,
          "Unit": "g         "
        },
        {
          "DisplayOrder": 14,
          "Document": null,
          "NutritionItemID": 10,
          "NutritionItemName": "Vitamin A",
          "Predriscriptor": "",
          "Quantity": 25,
          "Unit": "%DV       "
        },
        {
          "DisplayOrder": 15,
          "Document": null,
          "NutritionItemID": 11,
          "NutritionItemName": "Vitamin C",
          "Predriscriptor": "",
          "Quantity": 0,
          "Unit": "%DV       "
        },
        {
          "DisplayOrder": 16,
          "Document": "dairy_and_calcium.html",
          "NutritionItemID": 12,
          "NutritionItemName": "Calcium",
          "Predriscriptor": "",
          "Quantity": 8,
          "Unit": "%DV       "
        },
        {
          "DisplayOrder": 17,
          "Document": null,
          "NutritionItemID": 13,
          "NutritionItemName": "Iron",
          "Predriscriptor": "",
          "Quantity": 0,
          "Unit": "%DV       "
        }
      ],
      "NutritionServingText": " ",
      "PrepStepImage": null,
      "PreparationDescription": "Mix first 3 ingredients until blended.  Add 1-1/2 cups cheddar; mix well.  $Spread onto bottom of 9-inch pie plate.$Bake 20 min. or until heated through.  Sprinkle with remaining cheddar; bake 5 min. or until melted.  ",
      "PreparationPreText": "Heat oven to 350°F.",
      "PreparationSteps": [
        {
          "Description": "Mix first 3 ingredients until blended.  Add 1-1/2 cups cheddar; mix well.  ",
          "PreparationStepImage": {
            "PictureFormats": [],
            "author": null,
            "id": null,
            "imageType": null,
            "mimeType": null,
            "publicationDate": null,
            "status": null,
            "title": null,
            "type": null
          },
          "Sequence": 1
        },
        {
          "Description": "Spread onto bottom of 9-inch pie plate.",
          "PreparationStepImage": {
            "PictureFormats": [],
            "author": null,
            "id": null,
            "imageType": null,
            "mimeType": null,
            "publicationDate": null,
            "status": null,
            "title": null,
            "type": null
          },
          "Sequence": 2
        },
        {
          "Description": "Bake 20 min. or until heated through.  Sprinkle with remaining cheddar; bake 5 min. or until melted.  ",
          "PreparationStepImage": {
            "PictureFormats": [],
            "author": null,
            "id": null,
            "imageType": null,
            "mimeType": null,
            "publicationDate": null,
            "status": null,
            "title": null,
            "type": null
          },
          "Sequence": 3
        }
      ],
      "PreparationTime": 15,
      "Promotion": null,
      "Ratings": {
        "TotalCount": 0,
        "PageCount": 10,
        "PageNo": 1,
        "Rating": []
      },
      "RecipeDisplayFormatId": 5,
      "RecipeId": 158645,
      "RecipeName": "Hot Jalapeño, Spinach & Cheese Dip",
      "RecipeType": 0,
      "RelatedData": {
        "RelatedBrands": null,
        "RelatedProducts": null,
        "RelatedRecipes": {
          "DefaultTopCount": 5,
          "Recipe": [
            {
              "AverageRating": 4.4,
              "HasVideo": false,
              "IsHealthyLiving": false,
              "NumberOfRatings": 48,
              "PhotoName": "57608.jpg",
              "PhotoUrl": "http://assets.kraftfoods.com/recipe_images/opendeploy/57608.jpg",
              "RecipeId": 57608,
              "RecipeName": "Hot Spinach Dip",
              "SEOName": "hot-spinach-dip-57608",
              "ThumbnailPhoto": null
            },
            {
              "AverageRating": 4,
              "HasVideo": false,
              "IsHealthyLiving": false,
              "NumberOfRatings": 1,
              "PhotoName": "Bolivian_Stuffed_Trout.jpg",
              "PhotoUrl": "http://assets.kraftfoods.com/recipe_images/opendeploy/Bolivian_Stuffed_Trout.jpg",
              "RecipeId": 89033,
              "RecipeName": "Bolivian Stuffed Trout",
              "SEOName": "bolivian-stuffed-trout-89033",
              "ThumbnailPhoto": null
            },
            {
              "AverageRating": 4.8,
              "HasVideo": false,
              "IsHealthyLiving": false,
              "NumberOfRatings": 4,
              "PhotoName": "136316.jpg",
              "PhotoUrl": "http://assets.kraftfoods.com/recipe_images/opendeploy/136316.jpg",
              "RecipeId": 136316,
              "RecipeName": "Cheddar-Jalapeño Dip",
              "SEOName": "cheddar-jalapeno-dip-136316",
              "ThumbnailPhoto": null
            },
            {
              "AverageRating": 4.3,
              "HasVideo": false,
              "IsHealthyLiving": true,
              "NumberOfRatings": 28,
              "PhotoName": "VELVEETA_LIGHT_Cheesy_Spinach_Dip.jpg",
              "PhotoUrl": "http://assets.kraftfoods.com/recipe_images/opendeploy/VELVEETA_LIGHT_Cheesy_Spinach_Dip.jpg",
              "RecipeId": 57385,
              "RecipeName": "VELVEETA Cheesy Spinach Dip",
              "SEOName": "velveeta-cheesy-spinach-dip-57385",
              "ThumbnailPhoto": null
            },
            {
              "AverageRating": 4.8,
              "HasVideo": true,
              "IsHealthyLiving": false,
              "NumberOfRatings": 6,
              "PhotoName": "120188.jpg",
              "PhotoUrl": "http://assets.kraftfoods.com/recipe_images/opendeploy/120188.jpg",
              "RecipeId": 120188,
              "RecipeName": "Savory Parmesan Spinach-Artichoke Dip",
              "SEOName": "savory-parmesan-spinach-artichoke-dip-120188",
              "ThumbnailPhoto": null
            }
          ],
          "TotalCount": 5104
        }
      },
      "RiseIngredients": [],
      "RiseTaxonomy": [],
      "Riserecipe": [
        {
          "GRIN": 504708,
          "RecipeId": 158645,
          "RecipeIndustrySector": "Retail",
          "RecipeType": "Internal"
        }
      ],
      "RomanceText": "Get your guests warmed up with a bowl of Hot Jalapeño, Spinach & Cheese Dip served straight from the oven.",
      "SEOName": "hot-jalapeno-spinach-cheese-dip-158645",
      "Tips": [
        {
          "RecipeId": 158645,
          "Sequence": 10,
          "TipDescription": "Mix ingredients as directed; spoon into 9-inch microwaveable pie plate.  Microwave on HIGH 6 to 7 min. or until heated through, stirring every 3 min.  Sprinkle with remaining cheddar.  Microwave 2 to 3 min. or until melted.",
          "TipID": 1,
          "TipName": "Use Your Microwave"
        },
        {
          "RecipeId": 158645,
          "Sequence": 20,
          "TipDescription": "Serve with assorted crackers and fresh vegetable dippers, such as thick bell pepper wedges, large mushroom caps and/or thick diagonally cut carrot slices. ",
          "TipID": 5,
          "TipName": "Serving Suggestion"
        },
        {
          "RecipeId": 158645,
          "Sequence": 30,
          "TipDescription": "For best results, use full-fat sour cream as directed in recipe. Or, if you prefer to instead use BREAKSTONE'S Reduced Fat or KNUDSEN Light Sour Cream, add 1 tsp. flour to the cream cheese mixture before using as directed. \r\n",
          "TipID": 6,
          "TipName": "Note"
        }
      ],
      "TotalTime": 35,
      "TradeMarkInfo": null,
      "Video": [],
      "Yield": "32 servings, 2 Tbsp. each"
    }
  ]
}