{
  "Metadata": {
    "PageCount": 1,
    "PageNo": 0,
    "TotalCount": 0
  },
  "Recipes": [
    {
      "AdServingKeywords": "Carrot,Cream Cheese,Vegetables,Side Dish,Top of Stove,Easy,Nutrition and Well-Being,All Seasons,Philadelphia,Creamy",
      "AlternateLanguageRecipes": [
        {
          "LanguageId": "2",
          "RecipeId": "132481",
          "SiteId": "1"
        },
        {
          "LanguageId": "2",
          "RecipeId": "132481",
          "SiteId": "90"
        }
      ],
      "Assets": [
        {
          "PictureFormats": [
            {
              "rendition": "640x428",
              "url": "http://assets.kraftfoods.com/recipe_images/opendeploy/132480_640x428.jpg"
            },
            {
              "rendition": "600x250",
              "url": "http://assets.kraftfoods.com/recipe_images/opendeploy/132480_600x250.jpg"
            },
            {
              "rendition": "290x194",
              "url": "http://assets.kraftfoods.com/recipe_images/opendeploy/132480_290x194.jpg"
            }
          ],
          "author": null,
          "id": "2",
          "imageType": "Primary",
          "mimeType": "image/jpeg",
          "publicationDate": null,
          "status": "1",
          "title": "132480",
          "type": "image"
        },
        {
          "PictureFormats": [
            {
              "rendition": "140x90",
              "url": "http://assets.kraftfoods.com/recipe_images/opendeploy/132480_MXM_K58912V2_OR1_CR_140x90.jpg"
            },
            {
              "rendition": "300x250",
              "url": "http://assets.kraftfoods.com/recipe_images/opendeploy/132480_MXM_K58912V2_OR1_CR_300x250.jpg"
            },
            {
              "rendition": "960x300",
              "url": "http://assets.kraftfoods.com/recipe_images/opendeploy/132480_MXM_K58912V2_OR1_CR_960x300.jpg"
            }
          ],
          "author": null,
          "id": "2",
          "imageType": "Primary",
          "mimeType": "image/jpeg",
          "publicationDate": null,
          "status": "1",
          "title": "132480_MXM_K58912V2_OR1_CR",
          "type": "image"
        },
        {
          "PictureFormats": [
            {
              "rendition": "300x200",
              "url": "http://assets.kraftfoods.com/recipe_images/132480.jpg"
            }
          ],
          "author": null,
          "id": "0",
          "imageType": "LANDSCAPE",
          "mimeType": "image/jpeg",
          "publicationDate": null,
          "status": "1",
          "title": "132480.jpg",
          "type": "image"
        }
      ],
      "AverageRating": 3.9,
      "BrandId": 1,
      "Branding": null,
      "CSSSkins": null,
      "CarbCounter": "1",
      "Categories": [
        {
          "CategoryID": 9,
          "CategoryName": "Salads/Side Dishes",
          "CategoryRank": 13,
          "SubCategoryID": 39,
          "SubCategoryName": "Vegetables Side Dishes",
          "SubCategoryRank": 200
        },
        {
          "CategoryID": 11,
          "CategoryName": "Primary",
          "CategoryRank": 0,
          "SubCategoryID": 99,
          "SubCategoryName": "Side Dishes",
          "SubCategoryRank": 90
        },
        {
          "CategoryID": 757,
          "CategoryName": "Vegetables & Vegetarian Meals",
          "CategoryRank": 11,
          "SubCategoryID": 2569,
          "SubCategoryName": "Entrée",
          "SubCategoryRank": 1
        },
        {
          "CategoryID": 757,
          "CategoryName": "Vegetables & Vegetarian Meals",
          "CategoryRank": 11,
          "SubCategoryID": 2571,
          "SubCategoryName": "Side / Other",
          "SubCategoryRank": 1
        },
        {
          "CategoryID": 1765,
          "CategoryName": "Philly Side Dishes",
          "CategoryRank": 0,
          "SubCategoryID": 16870,
          "SubCategoryName": "Brick Cream Cheese",
          "SubCategoryRank": 0
        },
        {
          "CategoryID": 1765,
          "CategoryName": "Philly Side Dishes",
          "CategoryRank": 0,
          "SubCategoryID": 16874,
          "SubCategoryName": "Use for All",
          "SubCategoryRank": 0
        },
        {
          "CategoryID": 1767,
          "CategoryName": "Philly Healthy Living",
          "CategoryRank": 0,
          "SubCategoryID": 16881,
          "SubCategoryName": "Brick Cream Cheese",
          "SubCategoryRank": 0
        },
        {
          "CategoryID": 1767,
          "CategoryName": "Philly Healthy Living",
          "CategoryRank": 0,
          "SubCategoryID": 16886,
          "SubCategoryName": "Use for All",
          "SubCategoryRank": 0
        }
      ],
      "Classifications": [
        {
          "ClassficationId": 13,
          "ClassificationName": "Good source of vitamin A or C"
        },
        {
          "ClassficationId": 14,
          "ClassificationName": "Generally Nutritious"
        },
        {
          "ClassficationId": 119,
          "ClassificationName": "Diabetes Center"
        }
      ],
      "ComplimentaryRecipes": [
        {
          "AverageRating": 0,
          "HasVideo": false,
          "IsHealthyLiving": false,
          "NumberOfRatings": 0,
          "PhotoName": null,
          "PhotoUrl": null,
          "RecipeId": 90604,
          "RecipeName": null,
          "SEOName": "simple-southern-style-unfried-chicken-90604",
          "ThumbnailPhoto": "90604.jpg"
        }
      ],
      "CookingMethod": null,
      "Copyright": null,
      "Courses": [
        "Main dishes",
        "Salads & sides"
      ],
      "DietExchange": "2 Vegetable,1/2 Fat",
      "DishDetails": [],
      "EndDate": "/Date(-62135575200000-0600)/",
      "HasVideo": false,
      "Ingredients": [
        {
          "FullMeasure": "1-1/2 lb.",
          "FullWeight": "",
          "IngredientGridHeaders": null,
          "IngredientID": 883,
          "IngredientName": "carrot",
          "IngredientStep": 10,
          "LanguageId": 0,
          "PostPreparation": "s, peeled, diagonally cut into thin slices",
          "PrePreparation": "",
          "QuantityNum": 1,
          "QuantityText": "1-1/2",
          "QuantityUnit": "lb.",
          "RecipeIngredientID": 5587595,
          "TrialMeasure": "",
          "TrialWeight": ""
        },
        {
          "FullMeasure": "1/2 cup",
          "FullWeight": "",
          "IngredientGridHeaders": null,
          "IngredientID": 21704,
          "IngredientName": "fat-free reduced-sodium vegetable broth",
          "IngredientStep": 20,
          "LanguageId": 0,
          "PostPreparation": "",
          "PrePreparation": "",
          "QuantityNum": 0,
          "QuantityText": "1/2",
          "QuantityUnit": "cup",
          "RecipeIngredientID": 5587597,
          "TrialMeasure": "",
          "TrialWeight": ""
        },
        {
          "FullMeasure": "2 oz.",
          "FullWeight": "",
          "IngredientGridHeaders": null,
          "IngredientID": 628,
          "IngredientName": "PHILADELPHIA Cream Cheese",
          "IngredientStep": 30,
          "LanguageId": 0,
          "PostPreparation": ", cubed",
          "PrePreparation": "(1/4 of 8-oz. pkg.)",
          "QuantityNum": 2,
          "QuantityText": "2",
          "QuantityUnit": "oz.",
          "RecipeIngredientID": 5587598,
          "TrialMeasure": "",
          "TrialWeight": ""
        },
        {
          "FullMeasure": "2 Tbsp.",
          "FullWeight": "",
          "IngredientGridHeaders": null,
          "IngredientID": 1096,
          "IngredientName": "fresh chives",
          "IngredientStep": 40,
          "LanguageId": 0,
          "PostPreparation": "",
          "PrePreparation": "chopped",
          "QuantityNum": 2,
          "QuantityText": "2",
          "QuantityUnit": "Tbsp.",
          "RecipeIngredientID": 5587596,
          "TrialMeasure": "",
          "TrialWeight": ""
        }
      ],
      "IsHealthyLiving": true,
      "KRLId": "564827",
      "KeyIngredients": [
        "Carrot",
        "Cream Cheese",
        "Vegetables"
      ],
      "Keywords": "PHILADELPHIA Cream Cheese,carrots,cheese,chives,cream cheese,vegetable broth,broth,Side Dish,Top of Stove,Easy,Nutrition and Well-Being,All Seasons,Creamy",
      "LanguageId": 1,
      "LifeStyles": [
        "Good source of vitamin A or C",
        "Generally Nutritious",
        "Diabetes Center"
      ],
      "NumberOfIngredients": 4,
      "NumberOfRatings": 7,
      "NumberOfRatingsWithComments": "6",
      "NumberOfServings": "6 servings, 1/2 cup each",
      "NumberOfTrialServings": "",
      "NutritionBonus": "Carrots, high in vitamin A, taste extra special in a creamy sauce.",
      "NutritionExchangeItemId": 2,
      "NutritionGridItems": null,
      "NutritionItems": [
        {
          "DisplayOrder": 1,
          "Document": null,
          "NutritionItemID": 3,
          "NutritionItemName": "Calories",
          "Predriscriptor": "",
          "Quantity": 70,
          "Unit": "          "
        },
        {
          "DisplayOrder": 2,
          "Document": "fat_cholesterol.html",
          "NutritionItemID": 4,
          "NutritionItemName": "Total fat",
          "Predriscriptor": "",
          "Quantity": 3.5,
          "Unit": "g         "
        },
        {
          "DisplayOrder": 3,
          "Document": "fat_cholesterol.html",
          "NutritionItemID": 9,
          "NutritionItemName": "Saturated fat",
          "Predriscriptor": "",
          "Quantity": 2,
          "Unit": "g         "
        },
        {
          "DisplayOrder": 7,
          "Document": "fat_cholesterol.html",
          "NutritionItemID": 2,
          "NutritionItemName": "Cholesterol",
          "Predriscriptor": "",
          "Quantity": 10,
          "Unit": "mg        "
        },
        {
          "DisplayOrder": 8,
          "Document": "sodium.html",
          "NutritionItemID": 8,
          "NutritionItemName": "Sodium",
          "Predriscriptor": "",
          "Quantity": 140,
          "Unit": "mg        "
        },
        {
          "DisplayOrder": 10,
          "Document": "carbs_sugars_fiber.html",
          "NutritionItemID": 1,
          "NutritionItemName": "Carbohydrate",
          "Predriscriptor": "",
          "Quantity": 10,
          "Unit": "g         "
        },
        {
          "DisplayOrder": 11,
          "Document": "carbs_sugars_fiber.html",
          "NutritionItemID": 7,
          "NutritionItemName": "Dietary fiber",
          "Predriscriptor": "",
          "Quantity": 3,
          "Unit": "g         "
        },
        {
          "DisplayOrder": 12,
          "Document": "carbs_sugars_fiber.html",
          "NutritionItemID": 5,
          "NutritionItemName": "Sugars",
          "Predriscriptor": "",
          "Quantity": 7,
          "Unit": "g         "
        },
        {
          "DisplayOrder": 13,
          "Document": null,
          "NutritionItemID": 6,
          "NutritionItemName": "Protein",
          "Predriscriptor": "",
          "Quantity": 2,
          "Unit": "g         "
        },
        {
          "DisplayOrder": 14,
          "Document": null,
          "NutritionItemID": 10,
          "NutritionItemName": "Vitamin A",
          "Predriscriptor": "",
          "Quantity": 340,
          "Unit": "%DV       "
        },
        {
          "DisplayOrder": 15,
          "Document": null,
          "NutritionItemID": 11,
          "NutritionItemName": "Vitamin C",
          "Predriscriptor": "",
          "Quantity": 6,
          "Unit": "%DV       "
        },
        {
          "DisplayOrder": 16,
          "Document": "dairy_and_calcium.html",
          "NutritionItemID": 12,
          "NutritionItemName": "Calcium",
          "Predriscriptor": "",
          "Quantity": 4,
          "Unit": "%DV       "
        },
        {
          "DisplayOrder": 17,
          "Document": null,
          "NutritionItemID": 13,
          "NutritionItemName": "Iron",
          "Predriscriptor": "",
          "Quantity": 0,
          "Unit": "%DV       "
        }
      ],
      "NutritionServingText": " ",
      "PrepStepImage": null,
      "PreparationDescription": "Bring carrots and broth to boil in large skillet on medium-high heat; cover.  Simmer on medium-low heat 8 to 10 min. or until carrots are crisp-tender. $Uncover; simmer 8 to 10 min. or until most the broth is cooked off and carrots are tender.$Remove from heat. Add cream cheese; stir until melted.  Sprinkle with chives.",
      "PreparationPreText": "",
      "PreparationSteps": [
        {
          "Description": "Bring carrots and broth to boil in large skillet on medium-high heat; cover.  Simmer on medium-low heat 8 to 10 min. or until carrots are crisp-tender. ",
          "PreparationStepImage": {
            "PictureFormats": [],
            "author": null,
            "id": null,
            "imageType": null,
            "mimeType": null,
            "publicationDate": null,
            "status": null,
            "title": null,
            "type": null
          },
          "Sequence": 1
        },
        {
          "Description": "Uncover; simmer 8 to 10 min. or until most the broth is cooked off and carrots are tender.",
          "PreparationStepImage": {
            "PictureFormats": [],
            "author": null,
            "id": null,
            "imageType": null,
            "mimeType": null,
            "publicationDate": null,
            "status": null,
            "title": null,
            "type": null
          },
          "Sequence": 2
        },
        {
          "Description": "Remove from heat. Add cream cheese; stir until melted.  Sprinkle with chives.",
          "PreparationStepImage": {
            "PictureFormats": [],
            "author": null,
            "id": null,
            "imageType": null,
            "mimeType": null,
            "publicationDate": null,
            "status": null,
            "title": null,
            "type": null
          },
          "Sequence": 3
        }
      ],
      "PreparationTime": 20,
      "Promotion": null,
      "Ratings": {
        "TotalCount": 7,
        "PageCount": 10,
        "PageNo": 1,
        "Rating": [
          {
            "Comment": "I'm not a huge fan of carrots,, but they are one of the few vegetables my husband will eat! This was a nice way to change up the flavors.. Super easy.. Makes for a nice quick side!",
            "DisplayName": false,
            "RatingValue": 3,
            "SubmitDate": "/Date(1376868789000-0500)/",
            "UpdatedDate": "/Date(1376868789000-0500)/",
            "UserName": "Df.thomas"
          },
          {
            "Comment": "It was ok.  Probably won't make again.",
            "DisplayName": true,
            "RatingValue": 3,
            "SubmitDate": "/Date(1357439054000-0600)/",
            "UpdatedDate": "/Date(1357439054000-0600)/",
            "UserName": "Kilyena"
          },
          {
            "Comment": "Best ever! So simple and easy!",
            "DisplayName": true,
            "RatingValue": 5,
            "SubmitDate": "/Date(1337476779000-0500)/",
            "UpdatedDate": "/Date(1337476779000-0500)/",
            "UserName": "melinda8022"
          },
          {
            "Comment": "Love this recipe! Very simple and wonderful flavor. My whole family enjoyed it. I'll definitely make it again!",
            "DisplayName": true,
            "RatingValue": 5,
            "SubmitDate": "/Date(1334080836000-0500)/",
            "UpdatedDate": "/Date(1334080836000-0500)/",
            "UserName": "sheila316"
          },
          {
            "Comment": "Quick, easy, tasty. I look forward to making this again.  ",
            "DisplayName": true,
            "RatingValue": 4,
            "SubmitDate": "/Date(1332798676000-0500)/",
            "UpdatedDate": "/Date(1332798676000-0500)/",
            "UserName": "Rusty9"
          },
          {
            "Comment": "",
            "DisplayName": false,
            "RatingValue": 3,
            "SubmitDate": "/Date(1332479938000-0500)/",
            "UpdatedDate": "/Date(1332479938000-0500)/",
            "UserName": "jlo2006"
          },
          {
            "Comment": "Love this easy recipie for carrots.  Carrots are often overlooked, but this makes a tasty side. I added a dash of grated ginger for a differnt twist.",
            "DisplayName": false,
            "RatingValue": 4,
            "SubmitDate": "/Date(1332317757000-0500)/",
            "UpdatedDate": "/Date(1332317757000-0500)/",
            "UserName": "pggbutler"
          }
        ]
      },
      "RecipeDisplayFormatId": 5,
      "RecipeId": 132480,
      "RecipeName": "Creamy Carrots",
      "RecipeType": 0,
      "RelatedData": {
        "RelatedBrands": null,
        "RelatedProducts": null,
        "RelatedRecipes": {
          "DefaultTopCount": 5,
          "Recipe": [
            {
              "AverageRating": 4.5,
              "HasVideo": false,
              "IsHealthyLiving": true,
              "NumberOfRatings": 2,
              "PhotoName": "Veggies-Creamy-Chive-Onion-15808.jpg",
              "PhotoUrl": "http://assets.kraftfoods.com/recipe_images/opendeploy/Veggies-Creamy-Chive-Onion-15808.jpg",
              "RecipeId": 116153,
              "RecipeName": "Veggies with Creamy Chive and Onion Sauce",
              "SEOName": "veggies-creamy-chive-onion-sauce-116153",
              "ThumbnailPhoto": null
            },
            {
              "AverageRating": 4.5,
              "HasVideo": false,
              "IsHealthyLiving": false,
              "NumberOfRatings": 8,
              "PhotoName": "Taquitos-Creamy-Jalapeno-Sauce-22256.jpg",
              "PhotoUrl": "http://assets.kraftfoods.com/recipe_images/opendeploy/Taquitos-Creamy-Jalapeno-Sauce-22256.jpg",
              "RecipeId": 55571,
              "RecipeName": "Taquitos with Creamy Jalapeño Sauce",
              "SEOName": "taquitos-creamy-jalapeno-sauce-55571",
              "ThumbnailPhoto": null
            },
            {
              "AverageRating": 4.3,
              "HasVideo": false,
              "IsHealthyLiving": false,
              "NumberOfRatings": 38,
              "PhotoName": "51427.jpg",
              "PhotoUrl": "http://assets.kraftfoods.com/recipe_images/opendeploy/51427.jpg",
              "RecipeId": 51427,
              "RecipeName": "Creamy Cheddar Vegetable Lasagna",
              "SEOName": "creamy-cheddar-vegetable-lasagna-51427",
              "ThumbnailPhoto": null
            },
            {
              "AverageRating": 4.1,
              "HasVideo": false,
              "IsHealthyLiving": false,
              "NumberOfRatings": 9,
              "PhotoName": "166336_MXM_64782CR.jpg",
              "PhotoUrl": "http://assets.kraftfoods.com/recipe_images/opendeploy/166336_MXM_64782CR.jpg",
              "RecipeId": 166336,
              "RecipeName": "Creamy Turkey & Noodles",
              "SEOName": "creamy-turkey-noodles-166336",
              "ThumbnailPhoto": null
            },
            {
              "AverageRating": 4.3,
              "HasVideo": false,
              "IsHealthyLiving": false,
              "NumberOfRatings": 4,
              "PhotoName": "121805.jpg",
              "PhotoUrl": "http://assets.kraftfoods.com/recipe_images/opendeploy/121805.jpg",
              "RecipeId": 121805,
              "RecipeName": "Creamy Wild Rice Soup",
              "SEOName": "creamy-wild-rice-soup-121805",
              "ThumbnailPhoto": null
            }
          ],
          "TotalCount": 918
        }
      },
      "RiseIngredients": [],
      "RiseTaxonomy": [],
      "Riserecipe": [
        {
          "GRIN": 564827,
          "RecipeId": 132480,
          "RecipeIndustrySector": "Retail",
          "RecipeType": "Internal"
        }
      ],
      "RomanceText": "The plain Jane of veggies gets a saucy makeover with cream cheese and chives for a whole new way to love carrots.",
      "SEOName": "creamy-carrots-132480",
      "Tips": [
        {
          "RecipeId": 132480,
          "Sequence": 20,
          "TipDescription": "Substitute green onions for the chives.",
          "TipID": 1,
          "TipName": "Substitute"
        },
        {
          "RecipeId": 132480,
          "Sequence": 30,
          "TipDescription": "Serve topped with freshly cracked black pepper.",
          "TipID": 2,
          "TipName": "Special Extra"
        },
        {
          "RecipeId": 132480,
          "Sequence": 40,
          "TipDescription": "To prepare this recipe for Passover, select food products that are kosher for Passover as needed. Consult with your rabbi if you have any questions.",
          "TipID": 4614,
          "TipName": "Passover Celebrations"
        }
      ],
      "TotalTime": 40,
      "TradeMarkInfo": null,
      "Video": [],
      "Yield": "6 servings, 1/2 cup each"
    }
  ]
}