{
  "Metadata": {
    "PageCount": 1,
    "PageNo": 0,
    "TotalCount": 0
  },
  "Recipes": [
    {
      "AdServingKeywords": "Beef,Cheese,Colby,Frozen Potatoes,Ground Beef,Meat,Monterey Jack,Olive,Onion,Pasta Sauce,Peppers,Vegetables,Entree,Baked,Top of Stove,Easy,Fall,Winter,Dinner,All Seasons,Casserole,Classico,Kraft Cheese,Kraft Shredded Cheese,Ore-Ida,Oscar Mayer",
      "AlternateLanguageRecipes": [
        {
          "LanguageId": "2",
          "RecipeId": "198750",
          "SiteId": "1"
        },
        {
          "LanguageId": "2",
          "RecipeId": "198750",
          "SiteId": "90"
        }
      ],
      "Assets": [
        {
          "PictureFormats": [
            {
              "rendition": "290x194",
              "url": "http://assets.kraftfoods.com/recipe_images/opendeploy/188997_290x194.jpg"
            },
            {
              "rendition": "600x250",
              "url": "http://assets.kraftfoods.com/recipe_images/opendeploy/188997_600x250.jpg"
            },
            {
              "rendition": "640x428",
              "url": "http://assets.kraftfoods.com/recipe_images/opendeploy/188997_640x428.jpg"
            }
          ],
          "author": "BulKUpload",
          "id": "2",
          "imageType": "Primary",
          "mimeType": "image/jpeg",
          "publicationDate": null,
          "status": "1",
          "title": "188997",
          "type": "image"
        },
        {
          "PictureFormats": [
            {
              "rendition": "300x200",
              "url": "http://assets.kraftfoods.com/recipe_images/188997.jpg"
            }
          ],
          "author": "BulKUpload",
          "id": "0",
          "imageType": "LANDSCAPE",
          "mimeType": "image/jpeg",
          "publicationDate": null,
          "status": "1",
          "title": "188997.jpg",
          "type": "image"
        }
      ],
      "AverageRating": 0,
      "BrandId": 1,
      "Branding": null,
      "CSSSkins": null,
      "CarbCounter": null,
      "Categories": [
        {
          "CategoryID": 7,
          "CategoryName": "Pork/Beef Entrees",
          "CategoryRank": 10,
          "SubCategoryID": 412,
          "SubCategoryName": "Ground Beef: Other",
          "SubCategoryRank": 80
        },
        {
          "CategoryID": 11,
          "CategoryName": "Primary",
          "CategoryRank": 0,
          "SubCategoryID": 97,
          "SubCategoryName": "Entrees",
          "SubCategoryRank": 50
        },
        {
          "CategoryID": 12,
          "CategoryName": "Especially for Kids",
          "CategoryRank": 7,
          "SubCategoryID": 150,
          "SubCategoryName": "Entrees",
          "SubCategoryRank": 40
        },
        {
          "CategoryID": 755,
          "CategoryName": "International Flavours",
          "CategoryRank": 9,
          "SubCategoryID": 2555,
          "SubCategoryName": "Mexican / Spanish",
          "SubCategoryRank": 1
        },
        {
          "CategoryID": 756,
          "CategoryName": "Main Meals (Meat / Seafood / Egg)",
          "CategoryRank": 10,
          "SubCategoryID": 2563,
          "SubCategoryName": "Beef",
          "SubCategoryRank": 1
        },
        {
          "CategoryID": 762,
          "CategoryName": "Kids Cooking",
          "CategoryRank": 16,
          "SubCategoryID": 2591,
          "SubCategoryName": "Cooked",
          "SubCategoryRank": 1
        },
        {
          "CategoryID": 762,
          "CategoryName": "Kids Cooking",
          "CategoryRank": 16,
          "SubCategoryID": 2594,
          "SubCategoryName": "Savoury",
          "SubCategoryRank": 1
        }
      ],
      "Classifications": [],
      "ComplimentaryRecipes": null,
      "CookingMethod": null,
      "Copyright": null,
      "Courses": [
        "Main dishes"
      ],
      "DietExchange": null,
      "DishDetails": [
        {
          "Text": "ground beef recipes",
          "Url": "/recipes/dinner/ground-beef-recipes/main.aspx"
        },
        {
          "Text": "top 10 beef recipes",
          "Url": "/recipes/dinner/top-10/beef-recipes/main.aspx"
        },
        {
          "Text": "1 bag 5 dinners",
          "Url": "/recipes/dinner/1Bag5Dinners/1bag5dinnerschickenbeef.aspx"
        },
        {
          "Text": "casseroles",
          "Url": "/recipes/dinner/casserole-recipes/main.aspx"
        },
        {
          "Text": "chicken casseroles",
          "Url": "/recipes/dinner/chicken-recipes/casseroles/main.aspx"
        },
        {
          "Text": "seafood casseroles",
          "Url": "/recipes/dinner/seafood/casseroles/main.aspx"
        }
      ],
      "EndDate": "/Date(-62135575200000-0600)/",
      "HasVideo": false,
      "Ingredients": [
        {
          "FullMeasure": null,
          "FullWeight": null,
          "IngredientGridHeaders": null,
          "IngredientID": 68516,
          "IngredientName": "(3/4 of 32-oz. pkg.) ORE-IDA TATER TOTS, divided",
          "IngredientStep": 10,
          "LanguageId": 0,
          "PostPreparation": "",
          "PrePreparation": "",
          "QuantityNum": 6,
          "QuantityText": "6",
          "QuantityUnit": "cups",
          "RecipeIngredientID": 341910,
          "TrialMeasure": null,
          "TrialWeight": null
        },
        {
          "FullMeasure": null,
          "FullWeight": null,
          "IngredientGridHeaders": null,
          "IngredientID": 71353,
          "IngredientName": "lean ground beef",
          "IngredientStep": 20,
          "LanguageId": 0,
          "PostPreparation": "",
          "PrePreparation": "",
          "QuantityNum": 0.75,
          "QuantityText": "3/4",
          "QuantityUnit": "lb.",
          "RecipeIngredientID": 338478,
          "TrialMeasure": null,
          "TrialWeight": null
        },
        {
          "FullMeasure": null,
          "FullWeight": null,
          "IngredientGridHeaders": null,
          "IngredientID": 73685,
          "IngredientName": "ORE-IDA Chopped Onions",
          "IngredientStep": 30,
          "LanguageId": 0,
          "PostPreparation": "",
          "PrePreparation": "",
          "QuantityNum": 0.5,
          "QuantityText": "1/2",
          "QuantityUnit": "cup",
          "RecipeIngredientID": 337351,
          "TrialMeasure": null,
          "TrialWeight": null
        },
        {
          "FullMeasure": null,
          "FullWeight": null,
          "IngredientGridHeaders": null,
          "IngredientID": 67755,
          "IngredientName": "chopped green peppers, divided",
          "IngredientStep": 40,
          "LanguageId": 0,
          "PostPreparation": "",
          "PrePreparation": "",
          "QuantityNum": 0.75,
          "QuantityText": "3/4",
          "QuantityUnit": "cup",
          "RecipeIngredientID": 335354,
          "TrialMeasure": null,
          "TrialWeight": null
        },
        {
          "FullMeasure": null,
          "FullWeight": null,
          "IngredientGridHeaders": null,
          "IngredientID": 73705,
          "IngredientName": "(14 oz.) CLASSICO Traditional Pizza Sauce",
          "IngredientStep": 50,
          "LanguageId": 0,
          "PostPreparation": "",
          "PrePreparation": "",
          "QuantityNum": 1,
          "QuantityText": "1",
          "QuantityUnit": "jar",
          "RecipeIngredientID": 339940,
          "TrialMeasure": null,
          "TrialWeight": null
        },
        {
          "FullMeasure": null,
          "FullWeight": null,
          "IngredientGridHeaders": null,
          "IngredientID": 73012,
          "IngredientName": "sliced fresh mushrooms",
          "IngredientStep": 60,
          "LanguageId": 0,
          "PostPreparation": "",
          "PrePreparation": "",
          "QuantityNum": 0.25,
          "QuantityText": "1/4",
          "QuantityUnit": "lb.",
          "RecipeIngredientID": 335355,
          "TrialMeasure": null,
          "TrialWeight": null
        },
        {
          "FullMeasure": null,
          "FullWeight": null,
          "IngredientGridHeaders": null,
          "IngredientID": 70251,
          "IngredientName": "(1/2 of 6-oz. pkg.) OSCAR MAYER Pepperoni slices, cut in half",
          "IngredientStep": 70,
          "LanguageId": 0,
          "PostPreparation": "",
          "PrePreparation": "",
          "QuantityNum": 3,
          "QuantityText": "3",
          "QuantityUnit": "oz.",
          "RecipeIngredientID": 337248,
          "TrialMeasure": null,
          "TrialWeight": null
        },
        {
          "FullMeasure": null,
          "FullWeight": null,
          "IngredientGridHeaders": null,
          "IngredientID": 67751,
          "IngredientName": "KRAFT Shredded Colby & Monterey Jack Cheeses, divided",
          "IngredientStep": 80,
          "LanguageId": 0,
          "PostPreparation": "",
          "PrePreparation": "",
          "QuantityNum": 1,
          "QuantityText": "1",
          "QuantityUnit": "cup",
          "RecipeIngredientID": 337403,
          "TrialMeasure": null,
          "TrialWeight": null
        },
        {
          "FullMeasure": null,
          "FullWeight": null,
          "IngredientGridHeaders": null,
          "IngredientID": 69953,
          "IngredientName": "(2-1/4 oz.) sliced black olives, drained",
          "IngredientStep": 90,
          "LanguageId": 0,
          "PostPreparation": "",
          "PrePreparation": "",
          "QuantityNum": 1,
          "QuantityText": "1",
          "QuantityUnit": "can",
          "RecipeIngredientID": 346061,
          "TrialMeasure": null,
          "TrialWeight": null
        }
      ],
      "IsHealthyLiving": false,
      "KRLId": "576951",
      "KeyIngredients": [],
      "Keywords": "Entree,Baked,Top of Stove,Easy,Fall,Winter,Dinner,Casserole,All Seasons",
      "LanguageId": 1,
      "LifeStyles": [],
      "NumberOfIngredients": 9,
      "NumberOfRatings": 0,
      "NumberOfRatingsWithComments": "0",
      "NumberOfServings": "8 servings",
      "NumberOfTrialServings": null,
      "NutritionBonus": null,
      "NutritionExchangeItemId": 0,
      "NutritionGridItems": null,
      "NutritionItems": [
        {
          "DisplayOrder": 1,
          "Document": null,
          "NutritionItemID": 371,
          "NutritionItemName": "Calories",
          "Predriscriptor": "",
          "Quantity": 370,
          "Unit": "          "
        },
        {
          "DisplayOrder": 2,
          "Document": null,
          "NutritionItemID": 376,
          "NutritionItemName": "Total fat",
          "Predriscriptor": "",
          "Quantity": 21,
          "Unit": "g         "
        },
        {
          "DisplayOrder": 3,
          "Document": null,
          "NutritionItemID": 377,
          "NutritionItemName": "Saturated fat",
          "Predriscriptor": "",
          "Quantity": 7,
          "Unit": "g         "
        },
        {
          "DisplayOrder": 4,
          "Document": null,
          "NutritionItemID": 379,
          "NutritionItemName": "Polyunsaturated Fat",
          "Predriscriptor": "",
          "Quantity": 0,
          "Unit": "g         "
        },
        {
          "DisplayOrder": 5,
          "Document": null,
          "NutritionItemID": 378,
          "NutritionItemName": "Monounsaturated Fat",
          "Predriscriptor": "",
          "Quantity": 1.5,
          "Unit": "g         "
        },
        {
          "DisplayOrder": 6,
          "Document": null,
          "NutritionItemID": 380,
          "NutritionItemName": "Trans Fat",
          "Predriscriptor": "",
          "Quantity": 0.5,
          "Unit": "g         "
        },
        {
          "DisplayOrder": 7,
          "Document": null,
          "NutritionItemID": 381,
          "NutritionItemName": "Cholesterol",
          "Predriscriptor": "",
          "Quantity": 50,
          "Unit": "mg        "
        },
        {
          "DisplayOrder": 8,
          "Document": null,
          "NutritionItemID": 389,
          "NutritionItemName": "Sodium",
          "Predriscriptor": "",
          "Quantity": 1020,
          "Unit": "mg        "
        },
        {
          "DisplayOrder": 10,
          "Document": null,
          "NutritionItemID": 373,
          "NutritionItemName": "Carbohydrate",
          "Predriscriptor": "",
          "Quantity": 28,
          "Unit": "g         "
        },
        {
          "DisplayOrder": 11,
          "Document": null,
          "NutritionItemID": 374,
          "NutritionItemName": "Dietary fiber",
          "Predriscriptor": "",
          "Quantity": 4,
          "Unit": "g         "
        },
        {
          "DisplayOrder": 12,
          "Document": null,
          "NutritionItemID": 375,
          "NutritionItemName": "Sugars",
          "Predriscriptor": "",
          "Quantity": 6,
          "Unit": "g         "
        },
        {
          "DisplayOrder": 13,
          "Document": null,
          "NutritionItemID": 372,
          "NutritionItemName": "Protein",
          "Predriscriptor": "",
          "Quantity": 17,
          "Unit": "g         "
        },
        {
          "DisplayOrder": 14,
          "Document": null,
          "NutritionItemID": 382,
          "NutritionItemName": "Vitamin A",
          "Predriscriptor": "",
          "Quantity": 15,
          "Unit": "%DV       "
        },
        {
          "DisplayOrder": 15,
          "Document": null,
          "NutritionItemID": 383,
          "NutritionItemName": "Vitamin C",
          "Predriscriptor": "",
          "Quantity": 25,
          "Unit": "%DV       "
        },
        {
          "DisplayOrder": 16,
          "Document": null,
          "NutritionItemID": 386,
          "NutritionItemName": "Calcium",
          "Predriscriptor": "",
          "Quantity": 10,
          "Unit": "%DV       "
        },
        {
          "DisplayOrder": 17,
          "Document": null,
          "NutritionItemID": 387,
          "NutritionItemName": "Iron",
          "Predriscriptor": "",
          "Quantity": 10,
          "Unit": "%DV       "
        }
      ],
      "NutritionServingText": null,
      "PrepStepImage": null,
      "PreparationDescription": "Place 3 cups TATER TOTS in 9-inch deep-dish pie plate sprayed with cooking spray; bake 15 min. Meanwhile, brown ground beef with onions and 1/2 cup peppers in large skillet; drain.   Return meat mixture to skillet.  Add pizza sauce, mushrooms and pepperoni; mix well.  Cook 2 min. or until heated through, stirring frequently.$Spoon meat mixture over hot TATER TOTS in pie plate; sprinkle with 3/4 cup cheese. Top with remaining TATER TOTS.$Bake 15 to 20 min. or until TATER TOTS are crisp. Top with remaining cheese, peppers, and olives.",
      "PreparationPreText": "Heat oven to 450ºF.",
      "PreparationSteps": [
        {
          "Description": "Place 3 cups TATER TOTS in 9-inch deep-dish pie plate sprayed with cooking spray; bake 15 min. Meanwhile, brown ground beef with onions and 1/2 cup peppers in large skillet; drain.   Return meat mixture to skillet.  Add pizza sauce, mushrooms and pepperoni; mix well.  Cook 2 min. or until heated through, stirring frequently.",
          "PreparationStepImage": {
            "PictureFormats": [],
            "author": null,
            "id": null,
            "imageType": null,
            "mimeType": null,
            "publicationDate": null,
            "status": null,
            "title": null,
            "type": null
          },
          "Sequence": 1
        },
        {
          "Description": "Spoon meat mixture over hot TATER TOTS in pie plate; sprinkle with 3/4 cup cheese. Top with remaining TATER TOTS.",
          "PreparationStepImage": {
            "PictureFormats": [],
            "author": null,
            "id": null,
            "imageType": null,
            "mimeType": null,
            "publicationDate": null,
            "status": null,
            "title": null,
            "type": null
          },
          "Sequence": 2
        },
        {
          "Description": "Bake 15 to 20 min. or until TATER TOTS are crisp. Top with remaining cheese, peppers, and olives.",
          "PreparationStepImage": {
            "PictureFormats": [],
            "author": null,
            "id": null,
            "imageType": null,
            "mimeType": null,
            "publicationDate": null,
            "status": null,
            "title": null,
            "type": null
          },
          "Sequence": 3
        }
      ],
      "PreparationTime": 25,
      "Promotion": null,
      "Ratings": {
        "TotalCount": 0,
        "PageCount": 10,
        "PageNo": 1,
        "Rating": []
      },
      "RecipeDisplayFormatId": 0,
      "RecipeId": 188997,
      "RecipeName": "The Works TATER TOTS Pizza Pie",
      "RecipeType": 0,
      "RelatedData": {
        "RelatedBrands": null,
        "RelatedProducts": null,
        "RelatedRecipes": {
          "DefaultTopCount": 5,
          "Recipe": [
            {
              "AverageRating": 5,
              "HasVideo": true,
              "IsHealthyLiving": false,
              "NumberOfRatings": 1,
              "PhotoName": "171293.jpg",
              "PhotoUrl": "http://assets.kraftfoods.com/recipe_images/opendeploy/171293.jpg",
              "RecipeId": 171293,
              "RecipeName": "Bacon Cheeseburger 3 Ways",
              "SEOName": "bacon-cheeseburger-3-ways-171293",
              "ThumbnailPhoto": null
            },
            {
              "AverageRating": 5,
              "HasVideo": false,
              "IsHealthyLiving": false,
              "NumberOfRatings": 2,
              "PhotoName": "188971.jpg",
              "PhotoUrl": "http://assets.kraftfoods.com/recipe_images/opendeploy/188971.jpg",
              "RecipeId": 188971,
              "RecipeName": "Cheesy TATER TOTS® Casserole",
              "SEOName": "cheesy-tater-tots-casserole-188971",
              "ThumbnailPhoto": null
            },
            {
              "AverageRating": 5,
              "HasVideo": false,
              "IsHealthyLiving": false,
              "NumberOfRatings": 1,
              "PhotoName": "188934.jpg",
              "PhotoUrl": "http://assets.kraftfoods.com/recipe_images/opendeploy/188934.jpg",
              "RecipeId": 188934,
              "RecipeName": "Easy Taco TATER TOTS",
              "SEOName": "easy-taco-tater-tots-188934",
              "ThumbnailPhoto": null
            },
            {
              "AverageRating": 4,
              "HasVideo": false,
              "IsHealthyLiving": false,
              "NumberOfRatings": 1,
              "PhotoName": "186460.jpg",
              "PhotoUrl": "http://assets.kraftfoods.com/recipe_images/opendeploy/186460.jpg",
              "RecipeId": 186460,
              "RecipeName": "TATER TOTS® Breakfast-Time Casserole",
              "SEOName": "tater-tots-breakfast-time-casserole-186460",
              "ThumbnailPhoto": null
            },
            {
              "AverageRating": 4.2,
              "HasVideo": false,
              "IsHealthyLiving": false,
              "NumberOfRatings": 24,
              "PhotoName": "120788.jpg",
              "PhotoUrl": "http://assets.kraftfoods.com/recipe_images/opendeploy/120788.jpg",
              "RecipeId": 120788,
              "RecipeName": "Bacon-Wrapped TATER TOTS®",
              "SEOName": "bacon-wrapped-tater-tots-120788",
              "ThumbnailPhoto": null
            }
          ],
          "TotalCount": 1703
        }
      },
      "RiseIngredients": [
        {
          "IngredientCategory": "KRL",
          "IngredientId": 67751,
          "IngredientIndustrySector": "Retail",
          "IngredientType": "KHC",
          "ProductId": "00021000007950",
          "RecipeId": 188997
        },
        {
          "IngredientCategory": "KRL",
          "IngredientId": 67755,
          "IngredientIndustrySector": "Retail",
          "IngredientType": "Inedible",
          "ProductId": null,
          "RecipeId": 188997
        },
        {
          "IngredientCategory": "KRL",
          "IngredientId": 68516,
          "IngredientIndustrySector": "Retail",
          "IngredientType": "KHC",
          "ProductId": "00013120017841",
          "RecipeId": 188997
        },
        {
          "IngredientCategory": "KRL",
          "IngredientId": 69953,
          "IngredientIndustrySector": "Retail",
          "IngredientType": "Inedible",
          "ProductId": null,
          "RecipeId": 188997
        },
        {
          "IngredientCategory": "KRL",
          "IngredientId": 70251,
          "IngredientIndustrySector": "Retail",
          "IngredientType": "KHC",
          "ProductId": "00044700074350",
          "RecipeId": 188997
        },
        {
          "IngredientCategory": "KRL",
          "IngredientId": 71353,
          "IngredientIndustrySector": "Retail",
          "IngredientType": "Inedible",
          "ProductId": null,
          "RecipeId": 188997
        },
        {
          "IngredientCategory": "KRL",
          "IngredientId": 73012,
          "IngredientIndustrySector": "Retail",
          "IngredientType": "KHC",
          "ProductId": null,
          "RecipeId": 188997
        },
        {
          "IngredientCategory": "KRL",
          "IngredientId": 73685,
          "IngredientIndustrySector": "Retail",
          "IngredientType": "KHC",
          "ProductId": "00013120004735",
          "RecipeId": 188997
        },
        {
          "IngredientCategory": "KRL",
          "IngredientId": 73705,
          "IngredientIndustrySector": "Retail",
          "IngredientType": "KHC",
          "ProductId": null,
          "RecipeId": 188997
        }
      ],
      "RiseTaxonomy": [],
      "Riserecipe": [
        {
          "GRIN": 576951,
          "RecipeId": 188997,
          "RecipeIndustrySector": "Retail",
          "RecipeType": "Internal"
        }
      ],
      "RomanceText": "No dough required for this pizza pie featuring ORE-IDA TATER TOTS. Still, it's got all your favorite fixings, including mushrooms, peppers and pepperoni.",
      "SEOName": "the-works-tater-tots-pizza-pie-188997",
      "Tips": [
        {
          "RecipeId": 188997,
          "Sequence": 10,
          "TipDescription": "Prepare using KRAFT Shredded Cheddar Cheese.",
          "TipID": 1,
          "TipName": "Substitute"
        }
      ],
      "TotalTime": 45,
      "TradeMarkInfo": null,
      "Video": [],
      "Yield": "8 servings"
    }
  ]
}