{
  "Metadata": {
    "PageCount": 1,
    "PageNo": 0,
    "TotalCount": 0
  },
  "Recipes": [
    {
      "AdServingKeywords": "Top of Stove ,Entree,Intermediate,Cheddar,Cheese,Dairy,Garlic,Parmesan,Pasta/Noodles,Squash,Vegetables,Kraft Shredded Cheese,Comfort Food,Dinner,Lunch,Fall,Winter,Macaroni and Cheese,Meatless",
      "AlternateLanguageRecipes": [
        {
          "LanguageId": "1",
          "RecipeId": "212223",
          "SiteId": "1"
        },
        {
          "LanguageId": "1",
          "RecipeId": "212223",
          "SiteId": "151"
        },
        {
          "LanguageId": "3",
          "RecipeId": "212224",
          "SiteId": "1"
        },
        {
          "LanguageId": "3",
          "RecipeId": "212224",
          "SiteId": "151"
        }
      ],
      "Assets": [
        {
          "PictureFormats": [
            {
              "rendition": "290x194",
              "url": "http://assets.kraftfoods.com/recipe_images/opendeploy/583043_1_1_retail-067508442f8b20f139ca7a36128f9d12378a43af_291x194.jpg"
            },
            {
              "rendition": "306x204",
              "url": "http://assets.kraftfoods.com/recipe_images/opendeploy/583043_1_1_retail-067508442f8b20f139ca7a36128f9d12378a43af_306x204.jpg"
            },
            {
              "rendition": "640x428",
              "url": "http://assets.kraftfoods.com/recipe_images/opendeploy/583043_1_1_retail-067508442f8b20f139ca7a36128f9d12378a43af_642x428.jpg"
            }
          ],
          "author": "Kraft",
          "id": "2",
          "imageType": "Primary",
          "mimeType": "image/jpeg",
          "publicationDate": null,
          "status": "1",
          "title": "583043_1_1_retail-067508442f8b20f139ca7a36128f9d12378a43af",
          "type": "image"
        }
      ],
      "AverageRating": 0,
      "BrandId": 1,
      "Branding": null,
      "CSSSkins": [],
      "CarbCounter": null,
      "Categories": [],
      "Classifications": [],
      "ComplimentaryRecipes": null,
      "CookingMethod": null,
      "Copyright": null,
      "Courses": [],
      "DietExchange": null,
      "DishDetails": null,
      "EndDate": "/Date(-62135575200000-0600)/",
      "HasVideo": false,
      "Ingredients": [
        {
          "FullMeasure": null,
          "FullWeight": null,
          "IngredientGridHeaders": null,
          "IngredientID": 67870,
          "IngredientName": "elbow macaroni,uncooked",
          "IngredientStep": 10,
          "LanguageId": 0,
          "PostPreparation": "",
          "PrePreparation": "",
          "QuantityNum": 1,
          "QuantityText": "1",
          "QuantityUnit": "lb.",
          "RecipeIngredientID": 457211,
          "TrialMeasure": null,
          "TrialWeight": null
        },
        {
          "FullMeasure": null,
          "FullWeight": null,
          "IngredientGridHeaders": null,
          "IngredientID": 69793,
          "IngredientName": "peeled butternut squash cubes (1/2 inch)",
          "IngredientStep": 20,
          "LanguageId": 0,
          "PostPreparation": "",
          "PrePreparation": "",
          "QuantityNum": 2,
          "QuantityText": "2",
          "QuantityUnit": "cups",
          "RecipeIngredientID": 457212,
          "TrialMeasure": null,
          "TrialWeight": null
        },
        {
          "FullMeasure": null,
          "FullWeight": null,
          "IngredientGridHeaders": null,
          "IngredientID": 67994,
          "IngredientName": "butter",
          "IngredientStep": 30,
          "LanguageId": 0,
          "PostPreparation": "",
          "PrePreparation": "",
          "QuantityNum": 2,
          "QuantityText": "2",
          "QuantityUnit": "Tbsp.",
          "RecipeIngredientID": 457214,
          "TrialMeasure": null,
          "TrialWeight": null
        },
        {
          "FullMeasure": null,
          "FullWeight": null,
          "IngredientGridHeaders": null,
          "IngredientID": 69099,
          "IngredientName": "flour",
          "IngredientStep": 40,
          "LanguageId": 0,
          "PostPreparation": "",
          "PrePreparation": "",
          "QuantityNum": 2,
          "QuantityText": "2",
          "QuantityUnit": "Tbsp.",
          "RecipeIngredientID": 457213,
          "TrialMeasure": null,
          "TrialWeight": null
        },
        {
          "FullMeasure": null,
          "FullWeight": null,
          "IngredientGridHeaders": null,
          "IngredientID": 67896,
          "IngredientName": "paprika",
          "IngredientStep": 50,
          "LanguageId": 0,
          "PostPreparation": "",
          "PrePreparation": "",
          "QuantityNum": 1,
          "QuantityText": "1",
          "QuantityUnit": "tsp.",
          "RecipeIngredientID": 457215,
          "TrialMeasure": null,
          "TrialWeight": null
        },
        {
          "FullMeasure": null,
          "FullWeight": null,
          "IngredientGridHeaders": null,
          "IngredientID": 68527,
          "IngredientName": "garlic powder",
          "IngredientStep": 60,
          "LanguageId": 0,
          "PostPreparation": "",
          "PrePreparation": "",
          "QuantityNum": 1,
          "QuantityText": "1",
          "QuantityUnit": "tsp.",
          "RecipeIngredientID": 457216,
          "TrialMeasure": null,
          "TrialWeight": null
        },
        {
          "FullMeasure": null,
          "FullWeight": null,
          "IngredientGridHeaders": null,
          "IngredientID": 68096,
          "IngredientName": "milk",
          "IngredientStep": 70,
          "LanguageId": 0,
          "PostPreparation": "",
          "PrePreparation": "",
          "QuantityNum": 1.5,
          "QuantityText": "1-1/2",
          "QuantityUnit": "cups",
          "RecipeIngredientID": 457217,
          "TrialMeasure": null,
          "TrialWeight": null
        },
        {
          "FullMeasure": null,
          "FullWeight": null,
          "IngredientGridHeaders": null,
          "IngredientID": 68194,
          "IngredientName": "(8 oz.) KRAFT Shredded Sharp Cheddar Cheese",
          "IngredientStep": 80,
          "LanguageId": 0,
          "PostPreparation": "",
          "PrePreparation": "",
          "QuantityNum": 1,
          "QuantityText": "1",
          "QuantityUnit": "pkg.",
          "RecipeIngredientID": 457209,
          "TrialMeasure": null,
          "TrialWeight": null
        },
        {
          "FullMeasure": null,
          "FullWeight": null,
          "IngredientGridHeaders": null,
          "IngredientID": 68622,
          "IngredientName": "KRAFT Shredded Parmesan Cheese",
          "IngredientStep": 90,
          "LanguageId": 0,
          "PostPreparation": "",
          "PrePreparation": "",
          "QuantityNum": 0.5,
          "QuantityText": "1/2",
          "QuantityUnit": "cup",
          "RecipeIngredientID": 457210,
          "TrialMeasure": null,
          "TrialWeight": null
        }
      ],
      "IsHealthyLiving": false,
      "KRLId": "583043",
      "KeyIngredients": [],
      "Keywords": "Top of Stove ,Entree,Intermediate,Comfort Food,Macaroni and Cheese,Meatless,Pasta",
      "LanguageId": 1,
      "LifeStyles": [],
      "NumberOfIngredients": 9,
      "NumberOfRatings": 0,
      "NumberOfRatingsWithComments": "0",
      "NumberOfServings": "10 cups",
      "NumberOfTrialServings": null,
      "NutritionBonus": null,
      "NutritionExchangeItemId": 0,
      "NutritionGridItems": null,
      "NutritionItems": [
        {
          "DisplayOrder": 0,
          "Document": null,
          "NutritionItemID": 371,
          "NutritionItemName": "Calories",
          "Predriscriptor": "",
          "Quantity": 340,
          "Unit": "          "
        },
        {
          "DisplayOrder": 0,
          "Document": null,
          "NutritionItemID": 372,
          "NutritionItemName": "Protein",
          "Predriscriptor": "",
          "Quantity": 15,
          "Unit": "g         "
        },
        {
          "DisplayOrder": 0,
          "Document": null,
          "NutritionItemID": 373,
          "NutritionItemName": "Carbohydrate",
          "Predriscriptor": "",
          "Quantity": 41,
          "Unit": "g         "
        },
        {
          "DisplayOrder": 0,
          "Document": null,
          "NutritionItemID": 374,
          "NutritionItemName": "Dietary fiber",
          "Predriscriptor": "",
          "Quantity": 4,
          "Unit": "g         "
        },
        {
          "DisplayOrder": 0,
          "Document": null,
          "NutritionItemID": 375,
          "NutritionItemName": "Sugars",
          "Predriscriptor": "",
          "Quantity": 3,
          "Unit": "g         "
        },
        {
          "DisplayOrder": 0,
          "Document": null,
          "NutritionItemID": 376,
          "NutritionItemName": "Total fat",
          "Predriscriptor": "",
          "Quantity": 13,
          "Unit": "g         "
        },
        {
          "DisplayOrder": 0,
          "Document": null,
          "NutritionItemID": 377,
          "NutritionItemName": "Saturated fat",
          "Predriscriptor": "",
          "Quantity": 8,
          "Unit": "g         "
        },
        {
          "DisplayOrder": 0,
          "Document": null,
          "NutritionItemID": 378,
          "NutritionItemName": "Monounsaturated Fat",
          "Predriscriptor": "",
          "Quantity": 0,
          "Unit": "g         "
        },
        {
          "DisplayOrder": 0,
          "Document": null,
          "NutritionItemID": 379,
          "NutritionItemName": "Polyunsaturated Fat",
          "Predriscriptor": "",
          "Quantity": 0,
          "Unit": "g         "
        },
        {
          "DisplayOrder": 0,
          "Document": null,
          "NutritionItemID": 380,
          "NutritionItemName": "Trans Fat",
          "Predriscriptor": "",
          "Quantity": 0,
          "Unit": "g         "
        },
        {
          "DisplayOrder": 0,
          "Document": null,
          "NutritionItemID": 381,
          "NutritionItemName": "Cholesterol",
          "Predriscriptor": "",
          "Quantity": 35,
          "Unit": "mg        "
        },
        {
          "DisplayOrder": 0,
          "Document": null,
          "NutritionItemID": 382,
          "NutritionItemName": "Vitamin A",
          "Predriscriptor": "",
          "Quantity": 40,
          "Unit": "%DV       "
        },
        {
          "DisplayOrder": 0,
          "Document": null,
          "NutritionItemID": 383,
          "NutritionItemName": "Vitamin C",
          "Predriscriptor": "",
          "Quantity": 0,
          "Unit": "%DV       "
        },
        {
          "DisplayOrder": 0,
          "Document": null,
          "NutritionItemID": 384,
          "NutritionItemName": "Vitamin D",
          "Predriscriptor": "",
          "Quantity": 2,
          "Unit": "%DV       "
        },
        {
          "DisplayOrder": 0,
          "Document": null,
          "NutritionItemID": 385,
          "NutritionItemName": "Vitamin E",
          "Predriscriptor": "",
          "Quantity": 0,
          "Unit": "%DV       "
        },
        {
          "DisplayOrder": 0,
          "Document": null,
          "NutritionItemID": 386,
          "NutritionItemName": "Calcium",
          "Predriscriptor": "",
          "Quantity": 4,
          "Unit": "%DV       "
        },
        {
          "DisplayOrder": 0,
          "Document": null,
          "NutritionItemID": 387,
          "NutritionItemName": "Iron",
          "Predriscriptor": "",
          "Quantity": 10,
          "Unit": "%DV       "
        },
        {
          "DisplayOrder": 0,
          "Document": null,
          "NutritionItemID": 388,
          "NutritionItemName": "Potassium",
          "Predriscriptor": "",
          "Quantity": 2,
          "Unit": "%DV       "
        },
        {
          "DisplayOrder": 0,
          "Document": null,
          "NutritionItemID": 389,
          "NutritionItemName": "Sodium",
          "Predriscriptor": "",
          "Quantity": 250,
          "Unit": "mg        "
        },
        {
          "DisplayOrder": 0,
          "Document": null,
          "NutritionItemID": 390,
          "NutritionItemName": "Added Sugars",
          "Predriscriptor": "",
          "Quantity": 0,
          "Unit": "g         "
        }
      ],
      "NutritionServingText": null,
      "PrepStepImage": null,
      "PreparationDescription": "Cook macaroni in medium saucepan as directed on package, omitting salt.  Meanwhile, cook squash in large saucepan of boiling water 8 min. or until tender. $Drain squash, reserving 2 Tbsp. of the cooking water.  Add reserved water and squash to blender; blend until smooth.  $Melt butter in large saucepan on low heat.  Add flour and seasonings; cook and stir 2 min. or until hot and bubbly.  Gradually whisk in milk; bring just to boil on medium heat, stirring constantly. Simmer on medium-low heat 3 to 5 min. or until thickened, stirring constantly.  Gradually add cheddar, cooking and stirring after each addition until melted.  Remove from heat.   Add squash purée; mix well. $Drain macaroni. Add to squash mixture; mix lightly.  Sprinkle with Parmesan.",
      "PreparationPreText": null,
      "PreparationSteps": [
        {
          "Description": "Cook macaroni in medium saucepan as directed on package, omitting salt.  Meanwhile, cook squash in large saucepan of boiling water 8 min. or until tender. ",
          "PreparationStepImage": {
            "PictureFormats": [],
            "author": null,
            "id": null,
            "imageType": null,
            "mimeType": null,
            "publicationDate": null,
            "status": null,
            "title": null,
            "type": null
          },
          "Sequence": 1
        },
        {
          "Description": "Drain squash, reserving 2 Tbsp. of the cooking water.  Add reserved water and squash to blender; blend until smooth.  ",
          "PreparationStepImage": {
            "PictureFormats": [],
            "author": null,
            "id": null,
            "imageType": null,
            "mimeType": null,
            "publicationDate": null,
            "status": null,
            "title": null,
            "type": null
          },
          "Sequence": 2
        },
        {
          "Description": "Melt butter in large saucepan on low heat.  Add flour and seasonings; cook and stir 2 min. or until hot and bubbly.  Gradually whisk in milk; bring just to boil on medium heat, stirring constantly. Simmer on medium-low heat 3 to 5 min. or until thickened, stirring constantly.  Gradually add cheddar, cooking and stirring after each addition until melted.  Remove from heat.   Add squash purée; mix well. ",
          "PreparationStepImage": {
            "PictureFormats": [],
            "author": null,
            "id": null,
            "imageType": null,
            "mimeType": null,
            "publicationDate": null,
            "status": null,
            "title": null,
            "type": null
          },
          "Sequence": 3
        },
        {
          "Description": "Drain macaroni. Add to squash mixture; mix lightly.  Sprinkle with Parmesan.",
          "PreparationStepImage": {
            "PictureFormats": [],
            "author": null,
            "id": null,
            "imageType": null,
            "mimeType": null,
            "publicationDate": null,
            "status": null,
            "title": null,
            "type": null
          },
          "Sequence": 4
        }
      ],
      "PreparationTime": 30,
      "Promotion": null,
      "Ratings": {
        "TotalCount": 0,
        "PageCount": 10,
        "PageNo": 1,
        "Rating": []
      },
      "RecipeDisplayFormatId": 0,
      "RecipeId": 210644,
      "RecipeName": "Butternut Squash Mac and Cheese",
      "RecipeType": 0,
      "RelatedData": {
        "RelatedBrands": null,
        "RelatedProducts": null,
        "RelatedRecipes": {
          "DefaultTopCount": 5,
          "Recipe": [
            {
              "AverageRating": 4.5,
              "HasVideo": false,
              "IsHealthyLiving": false,
              "NumberOfRatings": 2,
              "PhotoName": "Macaroni-Cheese-Butternut-Squash-Bacon-64598.jpg",
              "PhotoUrl": "http://assets.kraftfoods.com/recipe_images/opendeploy/Macaroni-Cheese-Butternut-Squash-Bacon-64598.jpg",
              "RecipeId": 159442,
              "RecipeName": "Macaroni & Cheese with Butternut Squash & Bacon",
              "SEOName": "macaroni-cheese-butternut-squash-bacon-159442",
              "ThumbnailPhoto": null
            },
            {
              "AverageRating": 4.5,
              "HasVideo": false,
              "IsHealthyLiving": true,
              "NumberOfRatings": 2,
              "PhotoName": "Butternut-Squash-Black-Bean-Chili-63014.jpg",
              "PhotoUrl": "http://assets.kraftfoods.com/recipe_images/opendeploy/Butternut-Squash-Black-Bean-Chili-63014.jpg",
              "RecipeId": 144158,
              "RecipeName": "Butternut Squash & Black Bean Chili",
              "SEOName": "butternut-squash-black-bean-chili-144158",
              "ThumbnailPhoto": null
            },
            {
              "AverageRating": 4.7,
              "HasVideo": false,
              "IsHealthyLiving": false,
              "NumberOfRatings": 20,
              "PhotoName": "126691.jpg",
              "PhotoUrl": "http://assets.kraftfoods.com/recipe_images/opendeploy/126691.jpg",
              "RecipeId": 126691,
              "RecipeName": "Butternut Squash au Gratin",
              "SEOName": "butternut-squash-au-gratin-126691",
              "ThumbnailPhoto": null
            },
            {
              "AverageRating": 5,
              "HasVideo": false,
              "IsHealthyLiving": false,
              "NumberOfRatings": 1,
              "PhotoName": "155082.jpg",
              "PhotoUrl": "http://assets.kraftfoods.com/recipe_images/opendeploy/155082.jpg",
              "RecipeId": 155082,
              "RecipeName": "Roasted Garlic Mashed Butternut Squash",
              "SEOName": "roasted-garlic-mashed-butternut-squash-155082",
              "ThumbnailPhoto": null
            },
            {
              "AverageRating": 4.5,
              "HasVideo": false,
              "IsHealthyLiving": false,
              "NumberOfRatings": 20,
              "PhotoName": "119252.jpg",
              "PhotoUrl": "http://assets.kraftfoods.com/recipe_images/opendeploy/119252.jpg",
              "RecipeId": 119252,
              "RecipeName": "Cheesy Stuffed Butternut Squash",
              "SEOName": "cheesy-stuffed-butternut-squash-119252",
              "ThumbnailPhoto": null
            }
          ],
          "TotalCount": 4270
        }
      },
      "RiseIngredients": [
        {
          "IngredientCategory": "KRL",
          "IngredientId": 67870,
          "IngredientIndustrySector": "Retail",
          "IngredientType": "Inedible",
          "ProductId": null,
          "RecipeId": 210644
        },
        {
          "IngredientCategory": "KRL",
          "IngredientId": 67896,
          "IngredientIndustrySector": "Retail",
          "IngredientType": "Inedible",
          "ProductId": null,
          "RecipeId": 210644
        },
        {
          "IngredientCategory": "KRL",
          "IngredientId": 67994,
          "IngredientIndustrySector": "Retail",
          "IngredientType": "Inedible",
          "ProductId": null,
          "RecipeId": 210644
        },
        {
          "IngredientCategory": "KRL",
          "IngredientId": 68096,
          "IngredientIndustrySector": "Retail",
          "IngredientType": "Inedible",
          "ProductId": null,
          "RecipeId": 210644
        },
        {
          "IngredientCategory": "KRL",
          "IngredientId": 68194,
          "IngredientIndustrySector": "Retail",
          "IngredientType": "Inedible",
          "ProductId": "00021000053711",
          "RecipeId": 210644
        },
        {
          "IngredientCategory": "KRL",
          "IngredientId": 68527,
          "IngredientIndustrySector": "Retail",
          "IngredientType": "Inedible",
          "ProductId": null,
          "RecipeId": 210644
        },
        {
          "IngredientCategory": "KRL",
          "IngredientId": 68622,
          "IngredientIndustrySector": "Retail",
          "IngredientType": "KHC",
          "ProductId": "00021000614448",
          "RecipeId": 210644
        },
        {
          "IngredientCategory": "KRL",
          "IngredientId": 69099,
          "IngredientIndustrySector": "Retail",
          "IngredientType": "Inedible",
          "ProductId": null,
          "RecipeId": 210644
        },
        {
          "IngredientCategory": "KRL",
          "IngredientId": 69793,
          "IngredientIndustrySector": "Retail",
          "IngredientType": "Inedible",
          "ProductId": null,
          "RecipeId": 210644
        }
      ],
      "RiseTaxonomy": [
        {
          "ParentTaxonomyId": 0,
          "RecipeId": 210644,
          "ResourceName": "Recipe",
          "TaxonomyId": 65,
          "TaxonomyName": "Entrées",
          "TaxonomyTypeId": 2,
          "TaxonomyTypeName": "Meal Part"
        },
        {
          "ParentTaxonomyId": 51,
          "RecipeId": 210644,
          "ResourceName": "Recipe",
          "TaxonomyId": 237,
          "TaxonomyName": "Macaroni & Cheese",
          "TaxonomyTypeId": 3,
          "TaxonomyTypeName": "Dish Type"
        }
      ],
      "Riserecipe": [
        {
          "GRIN": 583043,
          "RecipeId": 210644,
          "RecipeIndustrySector": "Retail",
          "RecipeType": "Internal"
        }
      ],
      "RomanceText": "Enhance everyday mac and cheese with our Butternut Squash Mac and Cheese. Butternut Squash Mac and Cheese is a great use for your favorite winter squash.\n",
      "SEOName": "butternut-squash-mac-cheese-210644",
      "Tips": [
        {
          "RecipeId": 210644,
          "Sequence": 1,
          "TipDescription": "Sprinkle with 1 cup toasted panko bread crumbs along with the Parmesan before serving. ",
          "TipID": 1,
          "TipName": "Special Extra"
        },
        {
          "RecipeId": 210644,
          "Sequence": 2,
          "TipDescription": "Serve this creamy pasta with a crisp, mixed green salad tossed with your favorite KRAFT Lite Dressing.",
          "TipID": 2,
          "TipName": "Serving Suggestion"
        }
      ],
      "TotalTime": 30,
      "TradeMarkInfo": null,
      "Video": [],
      "Yield": "10 cups"
    }
  ]
}