{
  "Metadata": {
    "PageCount": 1,
    "PageNo": 0,
    "TotalCount": 0
  },
  "Recipes": [
    {
      "AdServingKeywords": "Entree,Cheese,Chicken,Feta,Garlic,Meat,Pasta/Noodles,Peppers,Poultry,Vegetables,Stir-fry,Easy,Dinner,All Seasons,Athenos,Oscar Mayer",
      "AlternateLanguageRecipes": [],
      "Assets": [
        {
          "PictureFormats": [
            {
              "rendition": "300x200",
              "url": "http://assets.kraftfoods.com/recipe_images/Pasta_with_Chicken_Roasted_Red_Peppers-Feta.jpg"
            }
          ],
          "author": null,
          "id": "0",
          "imageType": "DEFAULT",
          "mimeType": null,
          "publicationDate": null,
          "status": "1",
          "title": "Pasta_with_Chicken_Roasted_Red_Peppers-Feta.jpg",
          "type": "image"
        }
      ],
      "AverageRating": 4.1,
      "BrandId": 54,
      "Branding": null,
      "CSSSkins": null,
      "CarbCounter": null,
      "Categories": [
        {
          "CategoryID": 11,
          "CategoryName": "Primary",
          "CategoryRank": 0,
          "SubCategoryID": 97,
          "SubCategoryName": "Entrees",
          "SubCategoryRank": 50
        },
        {
          "CategoryID": 15,
          "CategoryName": "Pasta/Pizza Entrees",
          "CategoryRank": 9,
          "SubCategoryID": 391,
          "SubCategoryName": "Pasta: Poultry",
          "SubCategoryRank": 60
        },
        {
          "CategoryID": 753,
          "CategoryName": "Pizza & Pasta",
          "CategoryRank": 7,
          "SubCategoryID": 2542,
          "SubCategoryName": "Creamy / Cheesy Pasta",
          "SubCategoryRank": 1
        },
        {
          "CategoryID": 753,
          "CategoryName": "Pizza & Pasta",
          "CategoryRank": 7,
          "SubCategoryID": 2543,
          "SubCategoryName": "Tomato Based Pasta",
          "SubCategoryRank": 1
        },
        {
          "CategoryID": 756,
          "CategoryName": "Main Meals (Meat / Seafood / Egg)",
          "CategoryRank": 10,
          "SubCategoryID": 2562,
          "SubCategoryName": "Chicken",
          "SubCategoryRank": 1
        }
      ],
      "Classifications": [],
      "ComplimentaryRecipes": [
        {
          "AverageRating": 0,
          "HasVideo": false,
          "IsHealthyLiving": false,
          "NumberOfRatings": 0,
          "PhotoName": null,
          "PhotoUrl": null,
          "RecipeId": 51466,
          "RecipeName": null,
          "SEOName": "favorite-chocolate-caramel-nut-bars-51466",
          "ThumbnailPhoto": "opendeploy/501111_1_1_retail-9b4f718e19e17e9a772bc40fe484dca9b6a9d1ac_306x204.jpg"
        }
      ],
      "CookingMethod": null,
      "Copyright": null,
      "Courses": [
        "Main dishes"
      ],
      "DietExchange": null,
      "DishDetails": [
        {
          "Text": "chicken recipes",
          "Url": "/recipes/dinner/chicken-recipes/main.aspx"
        },
        {
          "Text": "grilled chicken recipes",
          "Url": "/recipes/dinner/chicken-recipes/grilled-chicken/main.aspx"
        },
        {
          "Text": "healthy living chicken recipes",
          "Url": "/recipes/dinner/chicken-recipes/hl/main.aspx"
        },
        {
          "Text": "slow cooker chicken recipes",
          "Url": "/recipes/dinner/chicken-recipes/slow-cooker/main.aspx"
        },
        {
          "Text": "whole chicken recipes",
          "Url": "/recipes/dinner/chicken-recipes/whole-chicken/main.aspx"
        },
        {
          "Text": "chicken breast recipes",
          "Url": "/recipes/dinner/chicken-recipes/chicken-breast/main.aspx"
        },
        {
          "Text": "chicken casseroles",
          "Url": "/recipes/dinner/chicken-recipes/casseroles/main.aspx"
        },
        {
          "Text": "chicken pasta recipes",
          "Url": "/recipes/dinner/chicken-recipes/pasta-dishes/main.aspx"
        },
        {
          "Text": "chicken salad recipes",
          "Url": "/recipes/dinner/chicken-recipes/salads/main.aspx"
        },
        {
          "Text": "chicken stir-fry recipes",
          "Url": "/recipes/dinner/chicken-recipes/stir-fry/main.aspx"
        },
        {
          "Text": "chicken wing recipes",
          "Url": "/recipes/appetizers/chicken-wing-recipes/main.aspx"
        },
        {
          "Text": "baked chicken recipes",
          "Url": "/recipes/dinner/chicken-recipes/baked-chicken/main.aspx"
        },
        {
          "Text": "bbq chicken recipes",
          "Url": "/recipes/holidays-and-entertaining/entertaining/summer/bbq-recipes/bbq-chicken-recipes/main.aspx"
        }
      ],
      "EndDate": "/Date(-62135575200000-0600)/",
      "HasVideo": false,
      "Ingredients": [
        {
          "FullMeasure": "2 cloves",
          "FullWeight": "",
          "IngredientGridHeaders": null,
          "IngredientID": 1175,
          "IngredientName": "garlic",
          "IngredientStep": 10,
          "LanguageId": 0,
          "PostPreparation": ", minced",
          "PrePreparation": "",
          "QuantityNum": 2,
          "QuantityText": "2",
          "QuantityUnit": "cloves",
          "RecipeIngredientID": 4946578,
          "TrialMeasure": "",
          "TrialWeight": ""
        },
        {
          "FullMeasure": "1/4 cup",
          "FullWeight": "",
          "IngredientGridHeaders": null,
          "IngredientID": 1369,
          "IngredientName": "olive oil",
          "IngredientStep": 20,
          "LanguageId": 0,
          "PostPreparation": ", divided",
          "PrePreparation": "",
          "QuantityNum": 0,
          "QuantityText": "1/4",
          "QuantityUnit": "cup",
          "RecipeIngredientID": 4946575,
          "TrialMeasure": "",
          "TrialWeight": ""
        },
        {
          "FullMeasure": "1 jar",
          "FullWeight": "",
          "IngredientGridHeaders": null,
          "IngredientID": 3844,
          "IngredientName": "roasted red pepper",
          "IngredientStep": 30,
          "LanguageId": 0,
          "PostPreparation": "s, drained, finely chopped",
          "PrePreparation": "(12 oz.)",
          "QuantityNum": 1,
          "QuantityText": "1",
          "QuantityUnit": "jar",
          "RecipeIngredientID": 4946574,
          "TrialMeasure": "",
          "TrialWeight": ""
        },
        {
          "FullMeasure": "1 pkg.",
          "FullWeight": "",
          "IngredientGridHeaders": null,
          "IngredientID": 9542,
          "IngredientName": "OSCAR MAYER CARVING BOARD Flame Grilled Chicken Breast Strips",
          "IngredientStep": 40,
          "LanguageId": 0,
          "PostPreparation": "",
          "PrePreparation": "(6 oz.)",
          "QuantityNum": 1,
          "QuantityText": "1",
          "QuantityUnit": "pkg.",
          "RecipeIngredientID": 4946577,
          "TrialMeasure": "",
          "TrialWeight": ""
        },
        {
          "FullMeasure": "8 oz.",
          "FullWeight": "",
          "IngredientGridHeaders": null,
          "IngredientID": 4923,
          "IngredientName": "farfalle (bow-tie pasta)",
          "IngredientStep": 50,
          "LanguageId": 0,
          "PostPreparation": ", uncooked",
          "PrePreparation": "",
          "QuantityNum": 7,
          "QuantityText": "8",
          "QuantityUnit": "oz.",
          "RecipeIngredientID": 4946579,
          "TrialMeasure": "",
          "TrialWeight": ""
        },
        {
          "FullMeasure": "1 pkg.",
          "FullWeight": "",
          "IngredientGridHeaders": null,
          "IngredientID": 19,
          "IngredientName": "ATHENOS Traditional Crumbled Feta Cheese",
          "IngredientStep": 60,
          "LanguageId": 0,
          "PostPreparation": "",
          "PrePreparation": "(4 oz.)",
          "QuantityNum": 1,
          "QuantityText": "1",
          "QuantityUnit": "pkg.",
          "RecipeIngredientID": 4946576,
          "TrialMeasure": "",
          "TrialWeight": ""
        },
        {
          "FullMeasure": "1 Tbsp.",
          "FullWeight": "",
          "IngredientGridHeaders": null,
          "IngredientID": 1119,
          "IngredientName": "fresh parsley",
          "IngredientStep": 70,
          "LanguageId": 0,
          "PostPreparation": " (optional)",
          "PrePreparation": "chopped",
          "QuantityNum": 1,
          "QuantityText": "1",
          "QuantityUnit": "Tbsp.",
          "RecipeIngredientID": 4946573,
          "TrialMeasure": "",
          "TrialWeight": ""
        }
      ],
      "IsHealthyLiving": false,
      "KRLId": "505151",
      "KeyIngredients": [
        "Cheese",
        "Chicken",
        "Garlic",
        "Meat",
        "Pasta",
        "Peppers",
        "Poultry",
        "Vegetables"
      ],
      "Keywords": "oil,olive oil,OSCAR MAYER,pasta,peppers,red peppers,roasted peppers,ATHENOS Feta Cheese,cheese,chicken,feta cheese,bowtie pasta,chicken breast strips,garlic,parsley,bell peppers,OSCAR MAYER Chicken Breast Strips,OSCAR MAYER CARVING BOARD,Stir-fry ,Entree,Easy,All Seasons",
      "LanguageId": 1,
      "LifeStyles": [],
      "NumberOfIngredients": 7,
      "NumberOfRatings": 23,
      "NumberOfRatingsWithComments": "16",
      "NumberOfServings": "4 servings",
      "NumberOfTrialServings": null,
      "NutritionBonus": null,
      "NutritionExchangeItemId": 0,
      "NutritionGridItems": null,
      "NutritionItems": [
        {
          "DisplayOrder": 1,
          "Document": null,
          "NutritionItemID": 3,
          "NutritionItemName": "Calories",
          "Predriscriptor": "",
          "Quantity": 480,
          "Unit": "          "
        },
        {
          "DisplayOrder": 2,
          "Document": "fat_cholesterol.html",
          "NutritionItemID": 4,
          "NutritionItemName": "Total fat",
          "Predriscriptor": "",
          "Quantity": 22,
          "Unit": "g         "
        },
        {
          "DisplayOrder": 3,
          "Document": "fat_cholesterol.html",
          "NutritionItemID": 9,
          "NutritionItemName": "Saturated fat",
          "Predriscriptor": "",
          "Quantity": 7,
          "Unit": "g         "
        },
        {
          "DisplayOrder": 7,
          "Document": "fat_cholesterol.html",
          "NutritionItemID": 2,
          "NutritionItemName": "Cholesterol",
          "Predriscriptor": "",
          "Quantity": 45,
          "Unit": "mg        "
        },
        {
          "DisplayOrder": 8,
          "Document": "sodium.html",
          "NutritionItemID": 8,
          "NutritionItemName": "Sodium",
          "Predriscriptor": "",
          "Quantity": 930,
          "Unit": "mg        "
        },
        {
          "DisplayOrder": 10,
          "Document": "carbs_sugars_fiber.html",
          "NutritionItemID": 1,
          "NutritionItemName": "Carbohydrate",
          "Predriscriptor": "",
          "Quantity": 47,
          "Unit": "g         "
        },
        {
          "DisplayOrder": 11,
          "Document": "carbs_sugars_fiber.html",
          "NutritionItemID": 7,
          "NutritionItemName": "Dietary fiber",
          "Predriscriptor": "",
          "Quantity": 2,
          "Unit": "g         "
        },
        {
          "DisplayOrder": 12,
          "Document": "carbs_sugars_fiber.html",
          "NutritionItemID": 5,
          "NutritionItemName": "Sugars",
          "Predriscriptor": "",
          "Quantity": 4,
          "Unit": "g         "
        },
        {
          "DisplayOrder": 13,
          "Document": null,
          "NutritionItemID": 6,
          "NutritionItemName": "Protein",
          "Predriscriptor": "",
          "Quantity": 23,
          "Unit": "g         "
        },
        {
          "DisplayOrder": 14,
          "Document": null,
          "NutritionItemID": 10,
          "NutritionItemName": "Vitamin A",
          "Predriscriptor": "",
          "Quantity": 50,
          "Unit": "%DV       "
        },
        {
          "DisplayOrder": 15,
          "Document": null,
          "NutritionItemID": 11,
          "NutritionItemName": "Vitamin C",
          "Predriscriptor": "",
          "Quantity": 50,
          "Unit": "%DV       "
        },
        {
          "DisplayOrder": 16,
          "Document": "dairy_and_calcium.html",
          "NutritionItemID": 12,
          "NutritionItemName": "Calcium",
          "Predriscriptor": "",
          "Quantity": 10,
          "Unit": "%DV       "
        },
        {
          "DisplayOrder": 17,
          "Document": null,
          "NutritionItemID": 13,
          "NutritionItemName": "Iron",
          "Predriscriptor": "",
          "Quantity": 15,
          "Unit": "%DV       "
        }
      ],
      "NutritionServingText": null,
      "PrepStepImage": null,
      "PreparationDescription": "Cook and stir garlic in 2 Tbsp. of the oil in skillet on medium heat 3 minutes.  Add peppers, chicken breast strips and remaining 2 Tbsp. oil.  Cook 2 minutes or until heated through.$Cook pasta as directed on package; drain.$Toss vegetable mixture with hot pasta and feta cheese.  Sprinkle with parsley.",
      "PreparationPreText": null,
      "PreparationSteps": [
        {
          "Description": "Cook and stir garlic in 2 Tbsp. of the oil in skillet on medium heat 3 minutes.  Add peppers, chicken breast strips and remaining 2 Tbsp. oil.  Cook 2 minutes or until heated through.",
          "PreparationStepImage": {
            "PictureFormats": [],
            "author": null,
            "id": null,
            "imageType": null,
            "mimeType": null,
            "publicationDate": null,
            "status": null,
            "title": null,
            "type": null
          },
          "Sequence": 1
        },
        {
          "Description": "Cook pasta as directed on package; drain.",
          "PreparationStepImage": {
            "PictureFormats": [],
            "author": null,
            "id": null,
            "imageType": null,
            "mimeType": null,
            "publicationDate": null,
            "status": null,
            "title": null,
            "type": null
          },
          "Sequence": 2
        },
        {
          "Description": "Toss vegetable mixture with hot pasta and feta cheese.  Sprinkle with parsley.",
          "PreparationStepImage": {
            "PictureFormats": [],
            "author": null,
            "id": null,
            "imageType": null,
            "mimeType": null,
            "publicationDate": null,
            "status": null,
            "title": null,
            "type": null
          },
          "Sequence": 3
        }
      ],
      "PreparationTime": 15,
      "Promotion": null,
      "Ratings": {
        "TotalCount": 23,
        "PageCount": 10,
        "PageNo": 1,
        "Rating": [
          {
            "Comment": "This is a fantastic recipie!!",
            "DisplayName": true,
            "RatingValue": 5,
            "SubmitDate": "/Date(1361710166000-0600)/",
            "UpdatedDate": "/Date(1361710166000-0600)/",
            "UserName": "Awtumdaisy"
          },
          {
            "Comment": "",
            "DisplayName": true,
            "RatingValue": 4,
            "SubmitDate": "/Date(1306880479000-0500)/",
            "UpdatedDate": "/Date(1306880479000-0500)/",
            "UserName": "ldibble1012"
          },
          {
            "Comment": "",
            "DisplayName": true,
            "RatingValue": 5,
            "SubmitDate": "/Date(1301781183000-0500)/",
            "UpdatedDate": "/Date(1301781183000-0500)/",
            "UserName": "hebruner"
          },
          {
            "Comment": "Very bland.",
            "DisplayName": true,
            "RatingValue": 2,
            "SubmitDate": "/Date(1274753380000-0500)/",
            "UpdatedDate": "/Date(1274753380000-0500)/",
            "UserName": "naugaroo"
          },
          {
            "Comment": "This was fantastic and so simple! Our grocery store was out of the chicken strips so I just baked some chicken with Italian seasoning on top and cut it up to put in the mixture.  My husband loved it too!",
            "DisplayName": true,
            "RatingValue": 5,
            "SubmitDate": "/Date(1266807778000-0600)/",
            "UpdatedDate": "/Date(1266807778000-0600)/",
            "UserName": "AlabamianAmy"
          },
          {
            "Comment": "My husband and I loved this recipe! I barbequed my own chicken breasts and basted them in Greek with Feta and Oregano dressing (gave a nice flavour to the chicken in the dish). I also added some of the dressing to the overall dish. It was awesome! Will be making this again for sure!",
            "DisplayName": true,
            "RatingValue": 5,
            "SubmitDate": "/Date(1253887602000-0500)/",
            "UpdatedDate": "/Date(1253887602000-0500)/",
            "UserName": "lcollis01"
          },
          {
            "Comment": "My family loved, all of them. My two girls that are 3 and 6 and my husband who is very picky. ",
            "DisplayName": true,
            "RatingValue": 5,
            "SubmitDate": "/Date(1231723923000-0600)/",
            "UpdatedDate": "/Date(1231723923000-0600)/",
            "UserName": "HopeC13"
          },
          {
            "Comment": "Loved this recipe!! I make it all the time! If you like feta, you'll  love this one!",
            "DisplayName": false,
            "RatingValue": 5,
            "SubmitDate": "/Date(1223602570000-0500)/",
            "UpdatedDate": "/Date(1223602570000-0500)/",
            "UserName": "mwantuch"
          },
          {
            "Comment": "",
            "DisplayName": false,
            "RatingValue": 4,
            "SubmitDate": "/Date(1199859369000-0600)/",
            "UpdatedDate": "/Date(1199859369000-0600)/",
            "UserName": "andrea.mayo"
          },
          {
            "Comment": "This was a decent recipe.  My husband made it tonight but added frozen spinach.  The spinach added a real nice flavor.  This sure wasn't a gourmet meal, but it was quick and easy.  Not sure if we'll make it again.",
            "DisplayName": true,
            "RatingValue": 3,
            "SubmitDate": "/Date(1193527103000-0500)/",
            "UpdatedDate": "/Date(1193527103000-0500)/",
            "UserName": "tanyamoore3"
          }
        ]
      },
      "RecipeDisplayFormatId": 5,
      "RecipeId": 54179,
      "RecipeName": "Pasta with Chicken, Roasted Red Peppers & Feta",
      "RecipeType": 0,
      "RelatedData": {
        "RelatedBrands": null,
        "RelatedProducts": null,
        "RelatedRecipes": {
          "DefaultTopCount": 5,
          "Recipe": [
            {
              "AverageRating": 4.6,
              "HasVideo": false,
              "IsHealthyLiving": false,
              "NumberOfRatings": 34,
              "PhotoName": "opendeploy/509074_1_1_retail-6d3b4323cfd73d342e256858737d3f560787cdd6_306x204.jpg",
              "PhotoUrl": "http://assets.kraftfoods.com/recipe_images/opendeploy/opendeploy/509074_1_1_retail-6d3b4323cfd73d342e256858737d3f560787cdd6_306x204.jpg",
              "RecipeId": 55749,
              "RecipeName": "Pesto Pasta Toss",
              "SEOName": "pesto-pasta-toss-55749",
              "ThumbnailPhoto": null
            },
            {
              "AverageRating": 4,
              "HasVideo": false,
              "IsHealthyLiving": true,
              "NumberOfRatings": 1,
              "PhotoName": "161780.jpg",
              "PhotoUrl": "http://assets.kraftfoods.com/recipe_images/opendeploy/161780.jpg",
              "RecipeId": 161780,
              "RecipeName": "20-Minute One-Pot Pasta Primavera",
              "SEOName": "20-minute-one-pot-pasta-primavera-161780",
              "ThumbnailPhoto": null
            },
            {
              "AverageRating": 4.8,
              "HasVideo": false,
              "IsHealthyLiving": true,
              "NumberOfRatings": 4,
              "PhotoName": "123729.jpg",
              "PhotoUrl": "http://assets.kraftfoods.com/recipe_images/opendeploy/123729.jpg",
              "RecipeId": 123729,
              "RecipeName": "Greek-Style Burritos",
              "SEOName": "greek-style-burritos-123729",
              "ThumbnailPhoto": null
            },
            {
              "AverageRating": 4.2,
              "HasVideo": true,
              "IsHealthyLiving": false,
              "NumberOfRatings": 5,
              "PhotoName": "118558.jpg",
              "PhotoUrl": "http://assets.kraftfoods.com/recipe_images/opendeploy/118558.jpg",
              "RecipeId": 118558,
              "RecipeName": "Roasted Three-Pepper Pasta Primavera",
              "SEOName": "roasted-three-pepper-pasta-primavera-118558",
              "ThumbnailPhoto": null
            },
            {
              "AverageRating": 5,
              "HasVideo": false,
              "IsHealthyLiving": false,
              "NumberOfRatings": 1,
              "PhotoName": "Slow-Cooker-Italian-Chicken-Noodles-64929.jpg",
              "PhotoUrl": "http://assets.kraftfoods.com/recipe_images/opendeploy/Slow-Cooker-Italian-Chicken-Noodles-64929.jpg",
              "RecipeId": 161948,
              "RecipeName": "Slow-Cooker Italian Chicken and Noodles",
              "SEOName": "slow-cooker-italian-chicken-noodles-161948",
              "ThumbnailPhoto": null
            }
          ],
          "TotalCount": 3432
        }
      },
      "RiseIngredients": [],
      "RiseTaxonomy": [],
      "Riserecipe": [],
      "RomanceText": "This tasty chicken and pasta dish surely deserves a spot on the weeknight dinner rotation. It's fast, flavorful and ready to eat in a half hour.",
      "SEOName": "pasta-chicken-roasted-red-peppers-feta-54179",
      "Tips": [
        {
          "RecipeId": 54179,
          "Sequence": 10,
          "TipDescription": "Take a long walk with your family after enjoying this quick and easy meal.",
          "TipID": 2,
          "TipName": "Family Fun"
        },
        {
          "RecipeId": 54179,
          "Sequence": 20,
          "TipDescription": "To peel garlic cloves for mincing, use the flat edge of a chef's knife to smash down on the garlic cloves.  This loosens the skins so they can be easily removed.",
          "TipID": 1,
          "TipName": "How to Peel Garlic"
        }
      ],
      "TotalTime": 30,
      "TradeMarkInfo": null,
      "Video": [],
      "Yield": "Makes 4 servings."
    }
  ]
}