{
  "Metadata": {
    "PageCount": 1,
    "PageNo": 0,
    "TotalCount": 0
  },
  "Recipes": [
    {
      "AdServingKeywords": "Chocolate,Dairy,Fruit,Ice Cream,Dessert,All Seasons,Bakers",
      "AlternateLanguageRecipes": [],
      "Assets": [
        {
          "PictureFormats": [
            {
              "rendition": "300x200",
              "url": "http://assets.kraftfoods.com/recipe_images/CHIPS_AHOY_Bon_Bons.jpg"
            }
          ],
          "author": null,
          "id": "0",
          "imageType": "DEFAULT",
          "mimeType": null,
          "publicationDate": null,
          "status": "1",
          "title": "CHIPS_AHOY_Bon_Bons.jpg",
          "type": "image"
        }
      ],
      "AverageRating": 4,
      "BrandId": 60,
      "Branding": null,
      "CSSSkins": null,
      "CarbCounter": null,
      "Categories": [
        {
          "CategoryID": 3,
          "CategoryName": "Cookies/Candy/Other Desserts",
          "CategoryRank": 6,
          "SubCategoryID": 370,
          "SubCategoryName": "Ice Cream Desserts",
          "SubCategoryRank": 80
        },
        {
          "CategoryID": 11,
          "CategoryName": "Primary",
          "CategoryRank": 0,
          "SubCategoryID": 103,
          "SubCategoryName": "Desserts",
          "SubCategoryRank": 40
        },
        {
          "CategoryID": 759,
          "CategoryName": "Desserts",
          "CategoryRank": 13,
          "SubCategoryID": 2578,
          "SubCategoryName": "Frozen",
          "SubCategoryRank": 1
        }
      ],
      "Classifications": [],
      "ComplimentaryRecipes": null,
      "CookingMethod": null,
      "Copyright": null,
      "Courses": [
        "Desserts"
      ],
      "DietExchange": null,
      "DishDetails": [
        {
          "Text": "desserts",
          "Url": "/recipes/dessert/main.aspx"
        },
        {
          "Text": "fruity desserts",
          "Url": "/recipes/dessert/fruitydesserts.aspx"
        },
        {
          "Text": "gelatin desserts",
          "Url": "/recipes/dessert/gelatindesserts.aspx"
        },
        {
          "Text": "layered desserts",
          "Url": "/recipes/dessert/layereddesserts.aspx"
        },
        {
          "Text": "brownie recipes",
          "Url": "/recipes/dessert/brownie-recipes/main.aspx"
        },
        {
          "Text": "budget desserts",
          "Url": "/recipes/budget/budget-desserts.aspx"
        },
        {
          "Text": "no bake desserts",
          "Url": "/recipes/dessert/nobakedesserts.aspx"
        },
        {
          "Text": "pumpkin recipes",
          "Url": "/recipes/dessert/pumpkin-recipes.aspx"
        },
        {
          "Text": "chocolate cake recipes",
          "Url": "/recipes/dessert/chocolate-cake-recipes/main.aspx"
        },
        {
          "Text": "cheesecake recipes",
          "Url": "/recipes/dessert/cheesecake-center/cheesecake-recipes/main.aspx"
        },
        {
          "Text": "chocolate lovers recipes",
          "Url": "/recipes/dessert/chocolate-center/chocolateloversrecipes.aspx"
        },
        {
          "Text": "classic desserts",
          "Url": "/recipes/dessert/classicdesserts.aspx"
        },
        {
          "Text": "cookie ball recipes",
          "Url": "/recipes/dessert/cookie-ball-recipes/main.aspx"
        },
        {
          "Text": "cookie recipes",
          "Url": "/recipes/dessert/cookie-recipes/main.aspx"
        },
        {
          "Text": "cupcake recipes",
          "Url": "/recipes/dessert/cupcake-recipes/main.aspx"
        },
        {
          "Text": "healthy living desserts",
          "Url": "/healthy-living-ideas/diabetes-center/recipes/dessert-recipes.aspx"
        }
      ],
      "EndDate": "/Date(-62135575200000-0600)/",
      "HasVideo": false,
      "Ingredients": [
        {
          "FullMeasure": "12",
          "FullWeight": "",
          "IngredientGridHeaders": null,
          "IngredientID": 5428,
          "IngredientName": "chocolate chip cookies (2 inch)",
          "IngredientStep": 10,
          "LanguageId": 0,
          "PostPreparation": ", divided",
          "PrePreparation": "",
          "QuantityNum": 12,
          "QuantityText": "12",
          "QuantityUnit": "",
          "RecipeIngredientID": 4583495,
          "TrialMeasure": "",
          "TrialWeight": ""
        },
        {
          "FullMeasure": "1 pt.",
          "FullWeight": "",
          "IngredientGridHeaders": null,
          "IngredientID": 5683,
          "IngredientName": "ice cream",
          "IngredientStep": 20,
          "LanguageId": 0,
          "PostPreparation": "",
          "PrePreparation": "(2 cups) chocolate",
          "QuantityNum": 1,
          "QuantityText": "1",
          "QuantityUnit": "pt.",
          "RecipeIngredientID": 4583498,
          "TrialMeasure": "",
          "TrialWeight": ""
        },
        {
          "FullMeasure": "6",
          "FullWeight": "",
          "IngredientGridHeaders": null,
          "IngredientID": 1324,
          "IngredientName": "maraschino cherries",
          "IngredientStep": 30,
          "LanguageId": 0,
          "PostPreparation": "",
          "PrePreparation": "",
          "QuantityNum": 6,
          "QuantityText": "6",
          "QuantityUnit": "",
          "RecipeIngredientID": 4583492,
          "TrialMeasure": "",
          "TrialWeight": ""
        },
        {
          "FullMeasure": "3 oz.",
          "FullWeight": "",
          "IngredientGridHeaders": null,
          "IngredientID": 66,
          "IngredientName": "BAKER'S Semi-Sweet Chocolate",
          "IngredientStep": 40,
          "LanguageId": 0,
          "PostPreparation": "",
          "PrePreparation": "",
          "QuantityNum": 3,
          "QuantityText": "3",
          "QuantityUnit": "oz.",
          "RecipeIngredientID": 4583497,
          "TrialMeasure": "",
          "TrialWeight": ""
        },
        {
          "FullMeasure": "1 Tbsp.",
          "FullWeight": "",
          "IngredientGridHeaders": null,
          "IngredientID": 1606,
          "IngredientName": "shortening",
          "IngredientStep": 50,
          "LanguageId": 0,
          "PostPreparation": "",
          "PrePreparation": "",
          "QuantityNum": 1,
          "QuantityText": "1",
          "QuantityUnit": "Tbsp.",
          "RecipeIngredientID": 4583494,
          "TrialMeasure": "",
          "TrialWeight": ""
        },
        {
          "FullMeasure": "1 Tbsp.",
          "FullWeight": "",
          "IngredientGridHeaders": null,
          "IngredientID": 1302,
          "IngredientName": "light corn syrup",
          "IngredientStep": 60,
          "LanguageId": 0,
          "PostPreparation": "",
          "PrePreparation": "",
          "QuantityNum": 1,
          "QuantityText": "1",
          "QuantityUnit": "Tbsp.",
          "RecipeIngredientID": 4583496,
          "TrialMeasure": "",
          "TrialWeight": ""
        },
        {
          "FullMeasure": "2 Tbsp.",
          "FullWeight": "",
          "IngredientGridHeaders": null,
          "IngredientID": 571,
          "IngredientName": "multi-colored sprinkles",
          "IngredientStep": 70,
          "LanguageId": 0,
          "PostPreparation": "",
          "PrePreparation": "",
          "QuantityNum": 2,
          "QuantityText": "2",
          "QuantityUnit": "Tbsp.",
          "RecipeIngredientID": 4583493,
          "TrialMeasure": "",
          "TrialWeight": ""
        }
      ],
      "IsHealthyLiving": false,
      "KRLId": "507696",
      "KeyIngredients": [
        "Chocolate",
        "Fruit",
        "Ice Cream"
      ],
      "Keywords": "baking chocolate,cherries,chocolate,cookies,corn syrup,ice cream,maraschino cherries,sprinkles,BAKER'S Semi-Sweet Chocolate,semi-sweet chocolate,chocolate-semi-sweet,CHIPS AHOY! Cookies,chocolate chip cookies,shortening,Dessert,All Seasons",
      "LanguageId": 1,
      "LifeStyles": [],
      "NumberOfIngredients": 7,
      "NumberOfRatings": 3,
      "NumberOfRatingsWithComments": "2",
      "NumberOfServings": "6 servings",
      "NumberOfTrialServings": null,
      "NutritionBonus": null,
      "NutritionExchangeItemId": 0,
      "NutritionGridItems": null,
      "NutritionItems": [
        {
          "DisplayOrder": 1,
          "Document": null,
          "NutritionItemID": 3,
          "NutritionItemName": "Calories",
          "Predriscriptor": "",
          "Quantity": 320,
          "Unit": "          "
        },
        {
          "DisplayOrder": 2,
          "Document": "fat_cholesterol.html",
          "NutritionItemID": 4,
          "NutritionItemName": "Total fat",
          "Predriscriptor": "",
          "Quantity": 16,
          "Unit": "g         "
        },
        {
          "DisplayOrder": 3,
          "Document": "fat_cholesterol.html",
          "NutritionItemID": 9,
          "NutritionItemName": "Saturated fat",
          "Predriscriptor": "",
          "Quantity": 8,
          "Unit": "g         "
        },
        {
          "DisplayOrder": 7,
          "Document": "fat_cholesterol.html",
          "NutritionItemID": 2,
          "NutritionItemName": "Cholesterol",
          "Predriscriptor": "",
          "Quantity": 15,
          "Unit": "mg        "
        },
        {
          "DisplayOrder": 8,
          "Document": "sodium.html",
          "NutritionItemID": 8,
          "NutritionItemName": "Sodium",
          "Predriscriptor": "",
          "Quantity": 110,
          "Unit": "mg        "
        },
        {
          "DisplayOrder": 10,
          "Document": "carbs_sugars_fiber.html",
          "NutritionItemID": 1,
          "NutritionItemName": "Carbohydrate",
          "Predriscriptor": "",
          "Quantity": 44,
          "Unit": "g         "
        },
        {
          "DisplayOrder": 11,
          "Document": "carbs_sugars_fiber.html",
          "NutritionItemID": 7,
          "NutritionItemName": "Dietary fiber",
          "Predriscriptor": "",
          "Quantity": 2,
          "Unit": "g         "
        },
        {
          "DisplayOrder": 12,
          "Document": "carbs_sugars_fiber.html",
          "NutritionItemID": 5,
          "NutritionItemName": "Sugars",
          "Predriscriptor": "",
          "Quantity": 30,
          "Unit": "g         "
        },
        {
          "DisplayOrder": 13,
          "Document": null,
          "NutritionItemID": 6,
          "NutritionItemName": "Protein",
          "Predriscriptor": "",
          "Quantity": 4,
          "Unit": "g         "
        },
        {
          "DisplayOrder": 14,
          "Document": null,
          "NutritionItemID": 10,
          "NutritionItemName": "Vitamin A",
          "Predriscriptor": "",
          "Quantity": 4,
          "Unit": "%DV       "
        },
        {
          "DisplayOrder": 15,
          "Document": null,
          "NutritionItemID": 11,
          "NutritionItemName": "Vitamin C",
          "Predriscriptor": "",
          "Quantity": 0,
          "Unit": "%DV       "
        },
        {
          "DisplayOrder": 16,
          "Document": "dairy_and_calcium.html",
          "NutritionItemID": 12,
          "NutritionItemName": "Calcium",
          "Predriscriptor": "",
          "Quantity": 6,
          "Unit": "%DV       "
        },
        {
          "DisplayOrder": 17,
          "Document": null,
          "NutritionItemID": 13,
          "NutritionItemName": "Iron",
          "Predriscriptor": "",
          "Quantity": 10,
          "Unit": "%DV       "
        }
      ],
      "NutritionServingText": null,
      "PrepStepImage": null,
      "PreparationDescription": "Crush six of the cookies in shallow dish; set aside.  Scoop ice cream into six balls.  Press one cherry into center of each ball; immediately roll in cookie crumbs until evenly coated on all sides.  Place on wax paper-covered baking sheet.  Freeze 1 hour or until firm.$Place chocolate, shortening and corn syrup in top of double boiler.  Place over hot (not boiling) water. (Bottom of top pan should not touch boiling water.)  Cook until chocolate is melted and mixture is well blended, stirring frequently.    $Top each of the six remaining cookies with one ice cream ball, securing ice cream to each cookie with 1 tsp. of the melted chocolate.  Drizzle remaining melted chocolate evenly over ice cream balls; top with sprinkles.  Freeze at least 1 hour before serving.",
      "PreparationPreText": "",
      "PreparationSteps": [
        {
          "Description": "Crush six of the cookies in shallow dish; set aside.  Scoop ice cream into six balls.  Press one cherry into center of each ball; immediately roll in cookie crumbs until evenly coated on all sides.  Place on wax paper-covered baking sheet.  Freeze 1 hour or until firm.",
          "PreparationStepImage": {
            "PictureFormats": [],
            "author": null,
            "id": null,
            "imageType": null,
            "mimeType": null,
            "publicationDate": null,
            "status": null,
            "title": null,
            "type": null
          },
          "Sequence": 1
        },
        {
          "Description": "Place chocolate, shortening and corn syrup in top of double boiler.  Place over hot (not boiling) water. (Bottom of top pan should not touch boiling water.)  Cook until chocolate is melted and mixture is well blended, stirring frequently.    ",
          "PreparationStepImage": {
            "PictureFormats": [],
            "author": null,
            "id": null,
            "imageType": null,
            "mimeType": null,
            "publicationDate": null,
            "status": null,
            "title": null,
            "type": null
          },
          "Sequence": 2
        },
        {
          "Description": "Top each of the six remaining cookies with one ice cream ball, securing ice cream to each cookie with 1 tsp. of the melted chocolate.  Drizzle remaining melted chocolate evenly over ice cream balls; top with sprinkles.  Freeze at least 1 hour before serving.",
          "PreparationStepImage": {
            "PictureFormats": [],
            "author": null,
            "id": null,
            "imageType": null,
            "mimeType": null,
            "publicationDate": null,
            "status": null,
            "title": null,
            "type": null
          },
          "Sequence": 3
        }
      ],
      "PreparationTime": 30,
      "Promotion": null,
      "Ratings": {
        "TotalCount": 3,
        "PageCount": 10,
        "PageNo": 1,
        "Rating": [
          {
            "Comment": "I haven't tried this but it looks so dang good!",
            "DisplayName": true,
            "RatingValue": 4,
            "SubmitDate": "/Date(1188342613000-0500)/",
            "UpdatedDate": "/Date(1188342613000-0500)/",
            "UserName": "avril_rocks98"
          },
          {
            "Comment": "",
            "DisplayName": true,
            "RatingValue": 5,
            "SubmitDate": "/Date(1056134330000-0500)/",
            "UpdatedDate": "/Date(1056134330000-0500)/",
            "UserName": "Proudprozacuser"
          },
          {
            "Comment": "fun for kids, easy to prepare and something a little different than a plain scoop of icecream.",
            "DisplayName": false,
            "RatingValue": 3,
            "SubmitDate": "/Date(1035180174000-0500)/",
            "UpdatedDate": "/Date(1035180174000-0500)/",
            "UserName": "xxmlkxx"
          }
        ]
      },
      "RecipeDisplayFormatId": 5,
      "RecipeId": 53901,
      "RecipeName": "Ice Cream Bon Bons",
      "RecipeType": 0,
      "RelatedData": {
        "RelatedBrands": null,
        "RelatedProducts": null,
        "RelatedRecipes": {
          "DefaultTopCount": 5,
          "Recipe": [
            {
              "AverageRating": 5,
              "HasVideo": false,
              "IsHealthyLiving": false,
              "NumberOfRatings": 1,
              "PhotoName": "171643.jpg",
              "PhotoUrl": "http://assets.kraftfoods.com/recipe_images/opendeploy/171643.jpg",
              "RecipeId": 171643,
              "RecipeName": "Ice Cream Peach Smoothie Recipe",
              "SEOName": "ice-cream-peach-smoothie-recipe-171643",
              "ThumbnailPhoto": null
            },
            {
              "AverageRating": 4.5,
              "HasVideo": true,
              "IsHealthyLiving": false,
              "NumberOfRatings": 17,
              "PhotoName": "144700.jpg",
              "PhotoUrl": "http://assets.kraftfoods.com/recipe_images/opendeploy/144700.jpg",
              "RecipeId": 144700,
              "RecipeName": "S'mores Ice Cream Cake",
              "SEOName": "smores-ice-cream-cake-144700",
              "ThumbnailPhoto": null
            },
            {
              "AverageRating": 5,
              "HasVideo": false,
              "IsHealthyLiving": false,
              "NumberOfRatings": 6,
              "PhotoName": "Sundae-Cone-Cake-62731.jpg",
              "PhotoUrl": "http://assets.kraftfoods.com/recipe_images/opendeploy/Sundae-Cone-Cake-62731.jpg",
              "RecipeId": 144696,
              "RecipeName": "Sundae Cone 'Cake'",
              "SEOName": "sundae-cone-cake-144696",
              "ThumbnailPhoto": null
            },
            {
              "AverageRating": 4.6,
              "HasVideo": false,
              "IsHealthyLiving": false,
              "NumberOfRatings": 5,
              "PhotoName": "Chocolate-Cookie-Ice-Cream-Slice-35443.jpg",
              "PhotoUrl": "http://assets.kraftfoods.com/recipe_images/opendeploy/Chocolate-Cookie-Ice-Cream-Slice-35443.jpg",
              "RecipeId": 124504,
              "RecipeName": "Chocolate Cookie Ice Cream Slice",
              "SEOName": "chocolate-cookie-ice-cream-slice-124504",
              "ThumbnailPhoto": null
            },
            {
              "AverageRating": 4.6,
              "HasVideo": true,
              "IsHealthyLiving": false,
              "NumberOfRatings": 34,
              "PhotoName": "116603.jpg",
              "PhotoUrl": "http://assets.kraftfoods.com/recipe_images/opendeploy/116603.jpg",
              "RecipeId": 116603,
              "RecipeName": "OREO Frozen Peanut Butter Dessert",
              "SEOName": "oreo-frozen-peanut-butter-dessert-116603",
              "ThumbnailPhoto": null
            }
          ],
          "TotalCount": 2567
        }
      },
      "RiseIngredients": [],
      "RiseTaxonomy": [],
      "Riserecipe": [],
      "RomanceText": "Scoops of ice cream with a cherry surprise inside are rolled in crushed chocolate chip cookies and served with chocolate sauce for a fun frozen dessert.",
      "SEOName": "ice-cream-bon-bons-53901",
      "Tips": [
        {
          "RecipeId": 53901,
          "Sequence": 10,
          "TipDescription": "With their built-in portion control, these ice cream favorites make a great treat.",
          "TipID": 3,
          "TipName": "Size Wise"
        },
        {
          "RecipeId": 53901,
          "Sequence": 20,
          "TipDescription": "Place chocolate, shortening and corn syrup in small microwaveable bowl.  Microwave on HIGH 30 sec.; stir.  Continue microwaving at 10-sec. intervals until chocolate is completely melted and mixture is well blended, stirring every 10 sec.  Continue as directed.",
          "TipID": 1,
          "TipName": "Use Your Microwave"
        },
        {
          "RecipeId": 53901,
          "Sequence": 30,
          "TipDescription": "Prepare as directed, substituting your favorite flavor of sherbet for the ice cream.",
          "TipID": 2,
          "TipName": "Substitute"
        }
      ],
      "TotalTime": 150,
      "TradeMarkInfo": null,
      "Video": [],
      "Yield": "Makes 6 servings."
    }
  ]
}