{
  "Metadata": {
    "PageCount": 1,
    "PageNo": 0,
    "TotalCount": 0
  },
  "Recipes": [
    {
      "AdServingKeywords": "Dessert,Chocolate,Nuts,Peanuts,Cookie,All Seasons,Bakers,Planters",
      "AlternateLanguageRecipes": [],
      "Assets": [],
      "AverageRating": 0,
      "BrandId": 1,
      "Branding": null,
      "CSSSkins": null,
      "CarbCounter": null,
      "Categories": [
        {
          "CategoryID": 3,
          "CategoryName": "Cookies/Candy/Other Desserts",
          "CategoryRank": 6,
          "SubCategoryID": 363,
          "SubCategoryName": "No Bake Cookies/Bars",
          "SubCategoryRank": 100
        },
        {
          "CategoryID": 11,
          "CategoryName": "Primary",
          "CategoryRank": 0,
          "SubCategoryID": 103,
          "SubCategoryName": "Desserts",
          "SubCategoryRank": 40
        },
        {
          "CategoryID": 761,
          "CategoryName": "Cakes, Muffins & Sweet Treats",
          "CategoryRank": 15,
          "SubCategoryID": 2585,
          "SubCategoryName": "Sweet",
          "SubCategoryRank": 1
        },
        {
          "CategoryID": 761,
          "CategoryName": "Cakes, Muffins & Sweet Treats",
          "CategoryRank": 15,
          "SubCategoryID": 2589,
          "SubCategoryName": "Slices - No Bake",
          "SubCategoryRank": 1
        }
      ],
      "Classifications": [],
      "ComplimentaryRecipes": null,
      "CookingMethod": null,
      "Copyright": null,
      "Courses": [
        "Desserts"
      ],
      "DietExchange": null,
      "DishDetails": [
        {
          "Text": "desserts",
          "Url": "/recipes/dessert/main.aspx"
        },
        {
          "Text": "fruity desserts",
          "Url": "/recipes/dessert/fruitydesserts.aspx"
        },
        {
          "Text": "gelatin desserts",
          "Url": "/recipes/dessert/gelatindesserts.aspx"
        },
        {
          "Text": "layered desserts",
          "Url": "/recipes/dessert/layereddesserts.aspx"
        },
        {
          "Text": "brownie recipes",
          "Url": "/recipes/dessert/brownie-recipes/main.aspx"
        },
        {
          "Text": "budget desserts",
          "Url": "/recipes/budget/budget-desserts.aspx"
        },
        {
          "Text": "no bake desserts",
          "Url": "/recipes/dessert/nobakedesserts.aspx"
        },
        {
          "Text": "pumpkin recipes",
          "Url": "/recipes/dessert/pumpkin-recipes.aspx"
        },
        {
          "Text": "chocolate cake recipes",
          "Url": "/recipes/dessert/chocolate-cake-recipes/main.aspx"
        },
        {
          "Text": "cheesecake recipes",
          "Url": "/recipes/dessert/cheesecake-center/cheesecake-recipes/main.aspx"
        },
        {
          "Text": "chocolate lovers recipes",
          "Url": "/recipes/dessert/chocolate-center/chocolateloversrecipes.aspx"
        },
        {
          "Text": "classic desserts",
          "Url": "/recipes/dessert/classicdesserts.aspx"
        },
        {
          "Text": "cookie ball recipes",
          "Url": "/recipes/dessert/cookie-ball-recipes/main.aspx"
        },
        {
          "Text": "cookie recipes",
          "Url": "/recipes/dessert/cookie-recipes/main.aspx"
        },
        {
          "Text": "cupcake recipes",
          "Url": "/recipes/dessert/cupcake-recipes/main.aspx"
        },
        {
          "Text": "healthy living desserts",
          "Url": "/healthy-living-ideas/diabetes-center/recipes/dessert-recipes.aspx"
        },
        {
          "Text": "cookie recipes",
          "Url": "/recipes/dessert/cookie-recipes/main.aspx"
        },
        {
          "Text": "cookie ball recipes",
          "Url": "/recipes/dessert/cookie-ball-recipes/main.aspx"
        },
        {
          "Text": "dessert recipes",
          "Url": "/recipes/dessert/main.aspx"
        },
        {
          "Text": "peanut butter cookie recipes",
          "Url": "/recipes/dessert/peanut-butter-cookies/main.aspx"
        }
      ],
      "EndDate": "/Date(-62135575200000-0600)/",
      "HasVideo": false,
      "Ingredients": [
        {
          "FullMeasure": "6",
          "FullWeight": "",
          "IngredientGridHeaders": null,
          "IngredientID": 25010,
          "IngredientName": "peanut butter sandwich cookie",
          "IngredientStep": 10,
          "LanguageId": 0,
          "PostPreparation": "s",
          "PrePreparation": "",
          "QuantityNum": 6,
          "QuantityText": "6",
          "QuantityUnit": "",
          "RecipeIngredientID": 4781517,
          "TrialMeasure": "",
          "TrialWeight": ""
        },
        {
          "FullMeasure": "2 oz.",
          "FullWeight": "",
          "IngredientGridHeaders": null,
          "IngredientID": 60,
          "IngredientName": "BAKER'S White Chocolate",
          "IngredientStep": 20,
          "LanguageId": 0,
          "PostPreparation": ", melted",
          "PrePreparation": "",
          "QuantityNum": 2,
          "QuantityText": "2",
          "QuantityUnit": "oz.",
          "RecipeIngredientID": 4781515,
          "TrialMeasure": "",
          "TrialWeight": ""
        },
        {
          "FullMeasure": "2 Tbsp.",
          "FullWeight": "",
          "IngredientGridHeaders": null,
          "IngredientID": 21590,
          "IngredientName": "PLANTERS Lightly Salted Dry Roasted Peanut",
          "IngredientStep": 30,
          "LanguageId": 0,
          "PostPreparation": "s",
          "PrePreparation": "chopped",
          "QuantityNum": 2,
          "QuantityText": "2",
          "QuantityUnit": "Tbsp.",
          "RecipeIngredientID": 4781516,
          "TrialMeasure": "",
          "TrialWeight": ""
        }
      ],
      "IsHealthyLiving": false,
      "KRLId": "545107",
      "KeyIngredients": [
        "Chocolate"
      ],
      "Keywords": "nuts,peanuts,baking chocolate,chocolate,sandwich cookies,BAKER'S White Chocolate,PLANTERS Peanuts,white chocolate,chocolate-white,PLANTERS Nuts,Planters,peanut butter cookie,Dessert,All Seasons",
      "LanguageId": 1,
      "LifeStyles": [],
      "NumberOfIngredients": 3,
      "NumberOfRatings": 0,
      "NumberOfRatingsWithComments": "0",
      "NumberOfServings": "3 servings",
      "NumberOfTrialServings": "",
      "NutritionBonus": null,
      "NutritionExchangeItemId": 0,
      "NutritionGridItems": null,
      "NutritionItems": [
        {
          "DisplayOrder": 1,
          "Document": null,
          "NutritionItemID": 3,
          "NutritionItemName": "Calories",
          "Predriscriptor": "",
          "Quantity": 270,
          "Unit": "          "
        },
        {
          "DisplayOrder": 2,
          "Document": "fat_cholesterol.html",
          "NutritionItemID": 4,
          "NutritionItemName": "Total fat",
          "Predriscriptor": "",
          "Quantity": 15,
          "Unit": "g         "
        },
        {
          "DisplayOrder": 3,
          "Document": "fat_cholesterol.html",
          "NutritionItemID": 9,
          "NutritionItemName": "Saturated fat",
          "Predriscriptor": "",
          "Quantity": 5,
          "Unit": "g         "
        },
        {
          "DisplayOrder": 7,
          "Document": "fat_cholesterol.html",
          "NutritionItemID": 2,
          "NutritionItemName": "Cholesterol",
          "Predriscriptor": "Less than",
          "Quantity": 5,
          "Unit": "mg        "
        },
        {
          "DisplayOrder": 8,
          "Document": "sodium.html",
          "NutritionItemID": 8,
          "NutritionItemName": "Sodium",
          "Predriscriptor": "",
          "Quantity": 140,
          "Unit": "mg        "
        },
        {
          "DisplayOrder": 10,
          "Document": "carbs_sugars_fiber.html",
          "NutritionItemID": 1,
          "NutritionItemName": "Carbohydrate",
          "Predriscriptor": "",
          "Quantity": 32,
          "Unit": "g         "
        },
        {
          "DisplayOrder": 11,
          "Document": "carbs_sugars_fiber.html",
          "NutritionItemID": 7,
          "NutritionItemName": "Dietary fiber",
          "Predriscriptor": "",
          "Quantity": 1,
          "Unit": "g         "
        },
        {
          "DisplayOrder": 12,
          "Document": "carbs_sugars_fiber.html",
          "NutritionItemID": 5,
          "NutritionItemName": "Sugars",
          "Predriscriptor": "",
          "Quantity": 20,
          "Unit": "g         "
        },
        {
          "DisplayOrder": 13,
          "Document": null,
          "NutritionItemID": 6,
          "NutritionItemName": "Protein",
          "Predriscriptor": "",
          "Quantity": 5,
          "Unit": "g         "
        },
        {
          "DisplayOrder": 14,
          "Document": null,
          "NutritionItemID": 10,
          "NutritionItemName": "Vitamin A",
          "Predriscriptor": "",
          "Quantity": 0,
          "Unit": "%DV       "
        },
        {
          "DisplayOrder": 15,
          "Document": null,
          "NutritionItemID": 11,
          "NutritionItemName": "Vitamin C",
          "Predriscriptor": "",
          "Quantity": 0,
          "Unit": "%DV       "
        },
        {
          "DisplayOrder": 16,
          "Document": "dairy_and_calcium.html",
          "NutritionItemID": 12,
          "NutritionItemName": "Calcium",
          "Predriscriptor": "",
          "Quantity": 6,
          "Unit": "%DV       "
        },
        {
          "DisplayOrder": 17,
          "Document": null,
          "NutritionItemID": 13,
          "NutritionItemName": "Iron",
          "Predriscriptor": "",
          "Quantity": 6,
          "Unit": "%DV       "
        }
      ],
      "NutritionServingText": " ",
      "PrepStepImage": null,
      "PreparationDescription": "Dip half of each cookie in chocolate; place on waxed paper-covered plate.$Sprinkle with nuts.   $Let stand until chocolate coating is firm. ",
      "PreparationPreText": "",
      "PreparationSteps": [
        {
          "Description": "Dip half of each cookie in chocolate; place on waxed paper-covered plate.",
          "PreparationStepImage": {
            "PictureFormats": [],
            "author": null,
            "id": null,
            "imageType": null,
            "mimeType": null,
            "publicationDate": null,
            "status": null,
            "title": null,
            "type": null
          },
          "Sequence": 1
        },
        {
          "Description": "Sprinkle with nuts.   ",
          "PreparationStepImage": {
            "PictureFormats": [],
            "author": null,
            "id": null,
            "imageType": null,
            "mimeType": null,
            "publicationDate": null,
            "status": null,
            "title": null,
            "type": null
          },
          "Sequence": 2
        },
        {
          "Description": "Let stand until chocolate coating is firm. ",
          "PreparationStepImage": {
            "PictureFormats": [],
            "author": null,
            "id": null,
            "imageType": null,
            "mimeType": null,
            "publicationDate": null,
            "status": null,
            "title": null,
            "type": null
          },
          "Sequence": 3
        }
      ],
      "PreparationTime": 10,
      "Promotion": null,
      "Ratings": {
        "TotalCount": 0,
        "PageCount": 10,
        "PageNo": 1,
        "Rating": []
      },
      "RecipeDisplayFormatId": 5,
      "RecipeId": 158937,
      "RecipeName": "Nutty Chocolate-Dipped Peanut Butter Cookies",
      "RecipeType": 0,
      "RelatedData": {
        "RelatedBrands": null,
        "RelatedProducts": null,
        "RelatedRecipes": {
          "DefaultTopCount": 5,
          "Recipe": [
            {
              "AverageRating": 4.9,
              "HasVideo": false,
              "IsHealthyLiving": false,
              "NumberOfRatings": 18,
              "PhotoName": "120203.jpg",
              "PhotoUrl": "http://assets.kraftfoods.com/recipe_images/opendeploy/120203.jpg",
              "RecipeId": 120203,
              "RecipeName": "Nutty OREO Ice Cream Bars",
              "SEOName": "nutty-oreo-ice-cream-bars-120203",
              "ThumbnailPhoto": null
            },
            {
              "AverageRating": 4,
              "HasVideo": false,
              "IsHealthyLiving": false,
              "NumberOfRatings": 5,
              "PhotoName": "Nutty_NEWTONS_Apple_Roll-Up.jpg",
              "PhotoUrl": "http://assets.kraftfoods.com/recipe_images/opendeploy/Nutty_NEWTONS_Apple_Roll-Up.jpg",
              "RecipeId": 65001,
              "RecipeName": "Nutty Fig & Apple Roll-Up",
              "SEOName": "nutty-fig-apple-roll-up-65001",
              "ThumbnailPhoto": null
            },
            {
              "AverageRating": 4.1,
              "HasVideo": false,
              "IsHealthyLiving": false,
              "NumberOfRatings": 16,
              "PhotoName": "109522.jpg",
              "PhotoUrl": "http://assets.kraftfoods.com/recipe_images/opendeploy/109522.jpg",
              "RecipeId": 109522,
              "RecipeName": "Chocolate-Dipped Peanut Butter Sandwich Cookies",
              "SEOName": "chocolate-dipped-peanut-butter-sandwich-cookies-109522",
              "ThumbnailPhoto": null
            },
            {
              "AverageRating": 4,
              "HasVideo": false,
              "IsHealthyLiving": false,
              "NumberOfRatings": 122,
              "PhotoName": "75578.jpg",
              "PhotoUrl": "http://assets.kraftfoods.com/recipe_images/opendeploy/75578.jpg",
              "RecipeId": 75578,
              "RecipeName": "Easy Chocolate-Dipped Peanut Butter Cookies",
              "SEOName": "easy-chocolate-dipped-peanut-butter-cookies-75578",
              "ThumbnailPhoto": null
            },
            {
              "AverageRating": 5,
              "HasVideo": false,
              "IsHealthyLiving": false,
              "NumberOfRatings": 6,
              "PhotoName": "128132.jpg",
              "PhotoUrl": "http://assets.kraftfoods.com/recipe_images/opendeploy/128132.jpg",
              "RecipeId": 128132,
              "RecipeName": "Peanut Butter Cookie Santas",
              "SEOName": "peanut-butter-cookie-santas-128132",
              "ThumbnailPhoto": null
            }
          ],
          "TotalCount": 3501
        }
      },
      "RiseIngredients": [],
      "RiseTaxonomy": [],
      "Riserecipe": [
        {
          "GRIN": 545107,
          "RecipeId": 158937,
          "RecipeIndustrySector": "Retail",
          "RecipeType": "Internal"
        }
      ],
      "RomanceText": "Another scrumptious choice for the chocolate and peanut butter fan club: PB sandwich cookies dipped in white chocolate and sprinkled with chopped peanuts.",
      "SEOName": "nutty-chocolate-dipped-peanut-butter-cookies-158937",
      "Tips": [
        {
          "RecipeId": 158937,
          "Sequence": 10,
          "TipDescription": "Sweets can add enjoyment to a balanced diet, but remember to keep tabs on portions. One serving of this dessert is 2 cookies. ",
          "TipID": 3,
          "TipName": "Size Wise"
        },
        {
          "RecipeId": 158937,
          "Sequence": 30,
          "TipDescription": "Prepare using BAKER'S Semi-Sweet Chocolate. \r\n",
          "TipID": 2,
          "TipName": "Substitute"
        }
      ],
      "TotalTime": 10,
      "TradeMarkInfo": null,
      "Video": [],
      "Yield": "3 servings"
    }
  ]
}