{
  "Metadata": {
    "PageCount": 1,
    "PageNo": 0,
    "TotalCount": 0
  },
  "Recipes": [
    {
      "AdServingKeywords": "Entree,Chicken,Frozen Potatoes,Gravy,Meat,Peppers,Poultry,Spinach,Vegetables,Baked,Intermediate,Dinner,Heinz Gravy,Ore-Ida",
      "AlternateLanguageRecipes": [],
      "Assets": [
        {
          "PictureFormats": [
            {
              "rendition": "290x194",
              "url": "http://assets.kraftfoods.com/recipe_images/opendeploy/578996_1_1_retail-9bb491f09b404eac0107425ffa3ef8c5be94b031_291x194.jpg"
            },
            {
              "rendition": "306x204",
              "url": "http://assets.kraftfoods.com/recipe_images/opendeploy/578996_1_1_retail-9bb491f09b404eac0107425ffa3ef8c5be94b031_306x204.jpg"
            },
            {
              "rendition": "640x428",
              "url": "http://assets.kraftfoods.com/recipe_images/opendeploy/578996_1_1_retail-9bb491f09b404eac0107425ffa3ef8c5be94b031_642x428.jpg"
            }
          ],
          "author": "Kraft",
          "id": "2",
          "imageType": "Primary",
          "mimeType": "image/jpeg",
          "publicationDate": null,
          "status": "1",
          "title": "578996_1_1_retail-9bb491f09b404eac0107425ffa3ef8c5be94b031",
          "type": "image"
        }
      ],
      "AverageRating": 0,
      "BrandId": 1,
      "Branding": null,
      "CSSSkins": null,
      "CarbCounter": null,
      "Categories": [
        {
          "CategoryID": 2,
          "CategoryName": "Poultry Entrees",
          "CategoryRank": 11,
          "SubCategoryID": 379,
          "SubCategoryName": "Baked",
          "SubCategoryRank": 10
        },
        {
          "CategoryID": 11,
          "CategoryName": "Primary",
          "CategoryRank": 0,
          "SubCategoryID": 97,
          "SubCategoryName": "Entrees",
          "SubCategoryRank": 50
        },
        {
          "CategoryID": 12,
          "CategoryName": "Especially for Kids",
          "CategoryRank": 7,
          "SubCategoryID": 150,
          "SubCategoryName": "Entrees",
          "SubCategoryRank": 40
        },
        {
          "CategoryID": 756,
          "CategoryName": "Main Meals (Meat / Seafood / Egg)",
          "CategoryRank": 10,
          "SubCategoryID": 2562,
          "SubCategoryName": "Chicken",
          "SubCategoryRank": 1
        },
        {
          "CategoryID": 762,
          "CategoryName": "Kids Cooking",
          "CategoryRank": 16,
          "SubCategoryID": 2591,
          "SubCategoryName": "Cooked",
          "SubCategoryRank": 1
        },
        {
          "CategoryID": 762,
          "CategoryName": "Kids Cooking",
          "CategoryRank": 16,
          "SubCategoryID": 2594,
          "SubCategoryName": "Savoury",
          "SubCategoryRank": 1
        }
      ],
      "Classifications": [],
      "ComplimentaryRecipes": null,
      "CookingMethod": null,
      "Copyright": null,
      "Courses": [
        "Main dishes"
      ],
      "DietExchange": null,
      "DishDetails": [
        {
          "Text": "chicken recipes",
          "Url": "/recipes/dinner/chicken-recipes/main.aspx"
        },
        {
          "Text": "grilled chicken recipes",
          "Url": "/recipes/dinner/chicken-recipes/grilled-chicken/main.aspx"
        },
        {
          "Text": "healthy living chicken recipes",
          "Url": "/recipes/dinner/chicken-recipes/hl/main.aspx"
        },
        {
          "Text": "slow cooker chicken recipes",
          "Url": "/recipes/dinner/chicken-recipes/slow-cooker/main.aspx"
        },
        {
          "Text": "whole chicken recipes",
          "Url": "/recipes/dinner/chicken-recipes/whole-chicken/main.aspx"
        },
        {
          "Text": "chicken breast recipes",
          "Url": "/recipes/dinner/chicken-recipes/chicken-breast/main.aspx"
        },
        {
          "Text": "chicken casseroles",
          "Url": "/recipes/dinner/chicken-recipes/casseroles/main.aspx"
        },
        {
          "Text": "chicken pasta recipes",
          "Url": "/recipes/dinner/chicken-recipes/pasta-dishes/main.aspx"
        },
        {
          "Text": "chicken salad recipes",
          "Url": "/recipes/dinner/chicken-recipes/salads/main.aspx"
        },
        {
          "Text": "chicken stir-fry recipes",
          "Url": "/recipes/dinner/chicken-recipes/stir-fry/main.aspx"
        },
        {
          "Text": "chicken wing recipes",
          "Url": "/recipes/appetizers/chicken-wing-recipes/main.aspx"
        },
        {
          "Text": "baked chicken recipes",
          "Url": "/recipes/dinner/chicken-recipes/baked-chicken/main.aspx"
        },
        {
          "Text": "bbq chicken recipes",
          "Url": "/recipes/holidays-and-entertaining/entertaining/summer/bbq-recipes/bbq-chicken-recipes/main.aspx"
        }
      ],
      "EndDate": "/Date(-62135575200000-0600)/",
      "HasVideo": false,
      "Ingredients": [
        {
          "FullMeasure": "1 pkg.",
          "FullWeight": "",
          "IngredientGridHeaders": null,
          "IngredientID": 30037,
          "IngredientName": "ORE-IDA STEAM N' MASH Cut Russet Potatoes",
          "IngredientStep": 10,
          "LanguageId": 0,
          "PostPreparation": "",
          "PrePreparation": "(24 oz.)",
          "QuantityNum": 1,
          "QuantityText": "1",
          "QuantityUnit": "pkg.",
          "RecipeIngredientID": 6300438,
          "TrialMeasure": "",
          "TrialWeight": ""
        },
        {
          "FullMeasure": "1-1/2 lb.",
          "FullWeight": "",
          "IngredientGridHeaders": null,
          "IngredientID": 20399,
          "IngredientName": "ground chicken",
          "IngredientStep": 20,
          "LanguageId": 0,
          "PostPreparation": "",
          "PrePreparation": "",
          "QuantityNum": 1,
          "QuantityText": "1-1/2",
          "QuantityUnit": "lb.",
          "RecipeIngredientID": 6300441,
          "TrialMeasure": "",
          "TrialWeight": ""
        },
        {
          "FullMeasure": "1/2 cup",
          "FullWeight": "",
          "IngredientGridHeaders": null,
          "IngredientID": 3844,
          "IngredientName": "roasted red pepper",
          "IngredientStep": 30,
          "LanguageId": 0,
          "PostPreparation": "s",
          "PrePreparation": "chopped",
          "QuantityNum": 0,
          "QuantityText": "1/2",
          "QuantityUnit": "cup",
          "RecipeIngredientID": 6300440,
          "TrialMeasure": "",
          "TrialWeight": ""
        },
        {
          "FullMeasure": "1/4 tsp.",
          "FullWeight": "",
          "IngredientGridHeaders": null,
          "IngredientID": 1213,
          "IngredientName": "ground black pepper",
          "IngredientStep": 40,
          "LanguageId": 0,
          "PostPreparation": "",
          "PrePreparation": "",
          "QuantityNum": 0,
          "QuantityText": "1/4",
          "QuantityUnit": "tsp.",
          "RecipeIngredientID": 6300437,
          "TrialMeasure": "",
          "TrialWeight": ""
        },
        {
          "FullMeasure": "1-1/2 cups",
          "FullWeight": "",
          "IngredientGridHeaders": null,
          "IngredientID": 5007,
          "IngredientName": "baby spinach leaves",
          "IngredientStep": 50,
          "LanguageId": 0,
          "PostPreparation": "",
          "PrePreparation": "tightly packed",
          "QuantityNum": 1,
          "QuantityText": "1-1/2",
          "QuantityUnit": "cups",
          "RecipeIngredientID": 6300439,
          "TrialMeasure": "",
          "TrialWeight": ""
        },
        {
          "FullMeasure": "1 jar",
          "FullWeight": "",
          "IngredientGridHeaders": null,
          "IngredientID": 30123,
          "IngredientName": "HEINZ HomeStyle Classic Chicken Gravy",
          "IngredientStep": 60,
          "LanguageId": 0,
          "PostPreparation": "",
          "PrePreparation": "(12 oz.)",
          "QuantityNum": 1,
          "QuantityText": "1",
          "QuantityUnit": "jar",
          "RecipeIngredientID": 6300436,
          "TrialMeasure": "",
          "TrialWeight": ""
        }
      ],
      "IsHealthyLiving": false,
      "KRLId": "578996",
      "KeyIngredients": [
        "Chicken",
        "Meat",
        "Peppers",
        "Poultry",
        "Spinach",
        "Vegetables"
      ],
      "Keywords": "peppers,potatoes,red peppers,roasted peppers,chicken,meat,spinach,frozen potatoes,gravy,bell peppers,ground chicken,Entree,Baked,Intermediate,Dinner",
      "LanguageId": 1,
      "LifeStyles": [],
      "NumberOfIngredients": 6,
      "NumberOfRatings": 0,
      "NumberOfRatingsWithComments": "0",
      "NumberOfServings": "6 servings",
      "NumberOfTrialServings": "",
      "NutritionBonus": null,
      "NutritionExchangeItemId": 0,
      "NutritionGridItems": null,
      "NutritionItems": [
        {
          "DisplayOrder": 1,
          "Document": null,
          "NutritionItemID": 3,
          "NutritionItemName": "Calories",
          "Predriscriptor": "",
          "Quantity": 280,
          "Unit": "          "
        },
        {
          "DisplayOrder": 2,
          "Document": "fat_cholesterol.html",
          "NutritionItemID": 4,
          "NutritionItemName": "Total fat",
          "Predriscriptor": "",
          "Quantity": 11,
          "Unit": "g         "
        },
        {
          "DisplayOrder": 3,
          "Document": "fat_cholesterol.html",
          "NutritionItemID": 9,
          "NutritionItemName": "Saturated fat",
          "Predriscriptor": "",
          "Quantity": 3,
          "Unit": "g         "
        },
        {
          "DisplayOrder": 7,
          "Document": "fat_cholesterol.html",
          "NutritionItemID": 2,
          "NutritionItemName": "Cholesterol",
          "Predriscriptor": "",
          "Quantity": 90,
          "Unit": "mg        "
        },
        {
          "DisplayOrder": 8,
          "Document": "sodium.html",
          "NutritionItemID": 8,
          "NutritionItemName": "Sodium",
          "Predriscriptor": "",
          "Quantity": 690,
          "Unit": "mg        "
        },
        {
          "DisplayOrder": 10,
          "Document": "carbs_sugars_fiber.html",
          "NutritionItemID": 1,
          "NutritionItemName": "Carbohydrate",
          "Predriscriptor": "",
          "Quantity": 23,
          "Unit": "g         "
        },
        {
          "DisplayOrder": 11,
          "Document": "carbs_sugars_fiber.html",
          "NutritionItemID": 7,
          "NutritionItemName": "Dietary fiber",
          "Predriscriptor": "",
          "Quantity": 3,
          "Unit": "g         "
        },
        {
          "DisplayOrder": 12,
          "Document": "carbs_sugars_fiber.html",
          "NutritionItemID": 5,
          "NutritionItemName": "Sugars",
          "Predriscriptor": "Less than",
          "Quantity": 1,
          "Unit": "g         "
        },
        {
          "DisplayOrder": 13,
          "Document": null,
          "NutritionItemID": 6,
          "NutritionItemName": "Protein",
          "Predriscriptor": "",
          "Quantity": 23,
          "Unit": "g         "
        },
        {
          "DisplayOrder": 14,
          "Document": null,
          "NutritionItemID": 10,
          "NutritionItemName": "Vitamin A",
          "Predriscriptor": "",
          "Quantity": 35,
          "Unit": "%DV       "
        },
        {
          "DisplayOrder": 15,
          "Document": null,
          "NutritionItemID": 11,
          "NutritionItemName": "Vitamin C",
          "Predriscriptor": "",
          "Quantity": 25,
          "Unit": "%DV       "
        },
        {
          "DisplayOrder": 16,
          "Document": "dairy_and_calcium.html",
          "NutritionItemID": 12,
          "NutritionItemName": "Calcium",
          "Predriscriptor": "",
          "Quantity": 2,
          "Unit": "%DV       "
        },
        {
          "DisplayOrder": 17,
          "Document": null,
          "NutritionItemID": 13,
          "NutritionItemName": "Iron",
          "Predriscriptor": "",
          "Quantity": 8,
          "Unit": "%DV       "
        }
      ],
      "NutritionServingText": " ",
      "PrepStepImage": null,
      "PreparationDescription": "Prepare potatoes as directed on package; cool.  Meanwhile, mix chicken, roasted peppers and black pepper just until blended; shape into 6 (3-inch) patties. $Divide potatoes into 12 portions. Place 6 portions on baking sheet sprayed with cooking spray; flatten to 3-inch patties.  Top with chicken patties and spinach. Press remaining potato portions into 6 patties; place over spinach.  Flatten slightly.$Bake 25 min. or until chicken patties are done.  About 5 min. before chicken patties are done, cook gravy in small saucepan on medium-low heat until heated through, stirring occasionally. $Drizzle gravy over patties just before serving.",
      "PreparationPreText": "Heat oven to 400°F.",
      "PreparationSteps": [
        {
          "Description": "Prepare potatoes as directed on package; cool.  Meanwhile, mix chicken, roasted peppers and black pepper just until blended; shape into 6 (3-inch) patties. ",
          "PreparationStepImage": {
            "PictureFormats": [],
            "author": null,
            "id": null,
            "imageType": null,
            "mimeType": null,
            "publicationDate": null,
            "status": null,
            "title": null,
            "type": null
          },
          "Sequence": 1
        },
        {
          "Description": "Divide potatoes into 12 portions. Place 6 portions on baking sheet sprayed with cooking spray; flatten to 3-inch patties.  Top with chicken patties and spinach. Press remaining potato portions into 6 patties; place over spinach.  Flatten slightly.",
          "PreparationStepImage": {
            "PictureFormats": [],
            "author": null,
            "id": null,
            "imageType": null,
            "mimeType": null,
            "publicationDate": null,
            "status": null,
            "title": null,
            "type": null
          },
          "Sequence": 2
        },
        {
          "Description": "Bake 25 min. or until chicken patties are done.  About 5 min. before chicken patties are done, cook gravy in small saucepan on medium-low heat until heated through, stirring occasionally. ",
          "PreparationStepImage": {
            "PictureFormats": [],
            "author": null,
            "id": null,
            "imageType": null,
            "mimeType": null,
            "publicationDate": null,
            "status": null,
            "title": null,
            "type": null
          },
          "Sequence": 3
        },
        {
          "Description": "Drizzle gravy over patties just before serving.",
          "PreparationStepImage": {
            "PictureFormats": [],
            "author": null,
            "id": null,
            "imageType": null,
            "mimeType": null,
            "publicationDate": null,
            "status": null,
            "title": null,
            "type": null
          },
          "Sequence": 4
        }
      ],
      "PreparationTime": 30,
      "Promotion": null,
      "Ratings": {
        "TotalCount": 0,
        "PageCount": 10,
        "PageNo": 1,
        "Rating": []
      },
      "RecipeDisplayFormatId": 5,
      "RecipeId": 202133,
      "RecipeName": "Potato-Crusted Chicken Patties Recipe",
      "RecipeType": 0,
      "RelatedData": {
        "RelatedBrands": null,
        "RelatedProducts": null,
        "RelatedRecipes": {
          "DefaultTopCount": 5,
          "Recipe": [
            {
              "AverageRating": 4.4,
              "HasVideo": false,
              "IsHealthyLiving": false,
              "NumberOfRatings": 45,
              "PhotoName": "136909.jpg",
              "PhotoUrl": "http://assets.kraftfoods.com/recipe_images/opendeploy/136909.jpg",
              "RecipeId": 136909,
              "RecipeName": "Salisbury Steak Recipe with Mashed Potatoes",
              "SEOName": "salisbury-steak-recipe-mashed-potatoes-136909",
              "ThumbnailPhoto": null
            },
            {
              "AverageRating": 4.7,
              "HasVideo": false,
              "IsHealthyLiving": false,
              "NumberOfRatings": 3,
              "PhotoName": "Puerto_Rican-Style_Stuffed_Potatoes.jpg",
              "PhotoUrl": "http://assets.kraftfoods.com/recipe_images/opendeploy/Puerto_Rican-Style_Stuffed_Potatoes.jpg",
              "RecipeId": 108289,
              "RecipeName": "Puerto Rican-Style Stuffed Potatoes",
              "SEOName": "puerto-rican-style-stuffed-potatoes-108289",
              "ThumbnailPhoto": null
            },
            {
              "AverageRating": 5,
              "HasVideo": false,
              "IsHealthyLiving": false,
              "NumberOfRatings": 4,
              "PhotoName": "167559_MXM_64788CR.jpg",
              "PhotoUrl": "http://assets.kraftfoods.com/recipe_images/opendeploy/167559_MXM_64788CR.jpg",
              "RecipeId": 167559,
              "RecipeName": "Chicken & Bacon Pot Pie",
              "SEOName": "chicken-bacon-pot-pie-167559",
              "ThumbnailPhoto": null
            },
            {
              "AverageRating": 4.4,
              "HasVideo": false,
              "IsHealthyLiving": false,
              "NumberOfRatings": 11,
              "PhotoName": "Ecuadorian_Cheesy_Potato_Patties.jpg",
              "PhotoUrl": "http://assets.kraftfoods.com/recipe_images/opendeploy/Ecuadorian_Cheesy_Potato_Patties.jpg",
              "RecipeId": 66168,
              "RecipeName": "Ecuadorian Cheesy Potato Patties",
              "SEOName": "ecuadorian-cheesy-potato-patties-66168",
              "ThumbnailPhoto": null
            },
            {
              "AverageRating": 4.5,
              "HasVideo": false,
              "IsHealthyLiving": true,
              "NumberOfRatings": 2,
              "PhotoName": "Italian_Chik_n_Chop_Salad.jpg",
              "PhotoUrl": "http://assets.kraftfoods.com/recipe_images/opendeploy/Italian_Chik_n_Chop_Salad.jpg",
              "RecipeId": 75339,
              "RecipeName": "Italian Chik'n Chop Salad",
              "SEOName": "italian-chikn-chop-salad-75339",
              "ThumbnailPhoto": null
            }
          ],
          "TotalCount": 3806
        }
      },
      "RiseIngredients": [],
      "RiseTaxonomy": [],
      "Riserecipe": [
        {
          "GRIN": 578996,
          "RecipeId": 202133,
          "RecipeIndustrySector": "Retail",
          "RecipeType": "Internal"
        }
      ],
      "RomanceText": "Experience something different with our Potato-Crusted Chicken Patties Recipe. This chicken patties recipe is served smothered in a rich, delicious gravy.",
      "SEOName": "potato-crusted-chicken-patties-recipe-202133",
      "Tips": [
        {
          "RecipeId": 202133,
          "Sequence": 10,
          "TipDescription": "Substitute baby arugula for the baby spinach leaves.",
          "TipID": 1,
          "TipName": "Substitute"
        },
        {
          "RecipeId": 202133,
          "Sequence": 20,
          "TipDescription": "Prepare using HEINZ Fat Free Classic Chicken Gravy.",
          "TipID": 2,
          "TipName": "Substitute"
        },
        {
          "RecipeId": 202133,
          "Sequence": 30,
          "TipDescription": "Serve with a small garden salad drizzled with your favorite KRAFT Dressing.",
          "TipID": 3,
          "TipName": "Serving Suggestion"
        }
      ],
      "TotalTime": 60,
      "TradeMarkInfo": null,
      "Video": [],
      "Yield": "6 servings"
    }
  ]
}