{
  "Metadata": {
    "PageCount": 1,
    "PageNo": 0,
    "TotalCount": 0
  },
  "Recipes": [
    {
      "AdServingKeywords": "Dessert,Eggs,Baked,Easy,Cupcake,All Seasons,Potluck,Cool Whip,Kid-Friendly",
      "AlternateLanguageRecipes": [],
      "Assets": [
        {
          "PictureFormats": [
            {
              "rendition": "290x194",
              "url": "http://assets.kraftfoods.com/recipe_images/opendeploy/145862_290x194.jpg"
            },
            {
              "rendition": "600x250",
              "url": "http://assets.kraftfoods.com/recipe_images/opendeploy/145862_600x250.jpg"
            },
            {
              "rendition": "640x428",
              "url": "http://assets.kraftfoods.com/recipe_images/opendeploy/145862_640x428.jpg"
            }
          ],
          "author": null,
          "id": "2",
          "imageType": "Primary",
          "mimeType": "image/jpeg",
          "publicationDate": null,
          "status": "1",
          "title": "145862",
          "type": "image"
        },
        {
          "PictureFormats": [
            {
              "rendition": "300x200",
              "url": "http://assets.kraftfoods.com/recipe_images/145862.jpg"
            },
            {
              "rendition": "300x200",
              "url": "http://assets.kraftfoods.com/recipe_images/Root-Beer-Float-Cupcakes-52328.jpg"
            }
          ],
          "author": null,
          "id": "1",
          "imageType": "LANDSCAPE",
          "mimeType": "image/jpeg",
          "publicationDate": null,
          "status": "1",
          "title": "Root-Beer-Float-Cupcakes-52328.jpg",
          "type": "image"
        }
      ],
      "AverageRating": 2.8,
      "BrandId": 1,
      "Branding": null,
      "CSSSkins": null,
      "CarbCounter": null,
      "Categories": [
        {
          "CategoryID": 4,
          "CategoryName": "Cakes/Pies/Cheesecakes",
          "CategoryRank": 5,
          "SubCategoryID": 353,
          "SubCategoryName": "Cupcakes",
          "SubCategoryRank": 70
        },
        {
          "CategoryID": 11,
          "CategoryName": "Primary",
          "CategoryRank": 0,
          "SubCategoryID": 103,
          "SubCategoryName": "Desserts",
          "SubCategoryRank": 40
        },
        {
          "CategoryID": 761,
          "CategoryName": "Cakes, Muffins & Sweet Treats",
          "CategoryRank": 15,
          "SubCategoryID": 2585,
          "SubCategoryName": "Sweet",
          "SubCategoryRank": 1
        }
      ],
      "Classifications": [],
      "ComplimentaryRecipes": [
        {
          "AverageRating": 0,
          "HasVideo": false,
          "IsHealthyLiving": false,
          "NumberOfRatings": 0,
          "PhotoName": null,
          "PhotoUrl": null,
          "RecipeId": 111125,
          "RecipeName": null,
          "SEOName": "baked-chicken-tenders-111125",
          "ThumbnailPhoto": "111125.jpg"
        }
      ],
      "CookingMethod": null,
      "Copyright": null,
      "Courses": [
        "Desserts"
      ],
      "DietExchange": null,
      "DishDetails": [
        {
          "Text": "desserts",
          "Url": "/recipes/dessert/main.aspx"
        },
        {
          "Text": "fruity desserts",
          "Url": "/recipes/dessert/fruitydesserts.aspx"
        },
        {
          "Text": "gelatin desserts",
          "Url": "/recipes/dessert/gelatindesserts.aspx"
        },
        {
          "Text": "layered desserts",
          "Url": "/recipes/dessert/layereddesserts.aspx"
        },
        {
          "Text": "brownie recipes",
          "Url": "/recipes/dessert/brownie-recipes/main.aspx"
        },
        {
          "Text": "budget desserts",
          "Url": "/recipes/budget/budget-desserts.aspx"
        },
        {
          "Text": "no bake desserts",
          "Url": "/recipes/dessert/nobakedesserts.aspx"
        },
        {
          "Text": "pumpkin recipes",
          "Url": "/recipes/dessert/pumpkin-recipes.aspx"
        },
        {
          "Text": "chocolate cake recipes",
          "Url": "/recipes/dessert/chocolate-cake-recipes/main.aspx"
        },
        {
          "Text": "cheesecake recipes",
          "Url": "/recipes/dessert/cheesecake-center/cheesecake-recipes/main.aspx"
        },
        {
          "Text": "chocolate lovers recipes",
          "Url": "/recipes/dessert/chocolate-center/chocolateloversrecipes.aspx"
        },
        {
          "Text": "classic desserts",
          "Url": "/recipes/dessert/classicdesserts.aspx"
        },
        {
          "Text": "cookie ball recipes",
          "Url": "/recipes/dessert/cookie-ball-recipes/main.aspx"
        },
        {
          "Text": "cookie recipes",
          "Url": "/recipes/dessert/cookie-recipes/main.aspx"
        },
        {
          "Text": "cupcake recipes",
          "Url": "/recipes/dessert/cupcake-recipes/main.aspx"
        },
        {
          "Text": "healthy living desserts",
          "Url": "/healthy-living-ideas/diabetes-center/recipes/dessert-recipes.aspx"
        }
      ],
      "EndDate": "/Date(-62135575200000-0600)/",
      "HasVideo": false,
      "Ingredients": [
        {
          "FullMeasure": "1 pkg.",
          "FullWeight": "",
          "IngredientGridHeaders": null,
          "IngredientID": 20842,
          "IngredientName": "yellow cake mix",
          "IngredientStep": 10,
          "LanguageId": 0,
          "PostPreparation": "",
          "PrePreparation": "(2-layer size)",
          "QuantityNum": 1,
          "QuantityText": "1",
          "QuantityUnit": "pkg.",
          "RecipeIngredientID": 6445262,
          "TrialMeasure": "",
          "TrialWeight": ""
        },
        {
          "FullMeasure": "1-1/3 cups",
          "FullWeight": "",
          "IngredientGridHeaders": null,
          "IngredientID": 5055,
          "IngredientName": "root beer",
          "IngredientStep": 20,
          "LanguageId": 0,
          "PostPreparation": "",
          "PrePreparation": " ",
          "QuantityNum": 1,
          "QuantityText": "1-1/3",
          "QuantityUnit": "cups",
          "RecipeIngredientID": 6445269,
          "TrialMeasure": "",
          "TrialWeight": ""
        },
        {
          "FullMeasure": "1/3 cup",
          "FullWeight": "",
          "IngredientGridHeaders": null,
          "IngredientID": 1366,
          "IngredientName": "oil",
          "IngredientStep": 30,
          "LanguageId": 0,
          "PostPreparation": "",
          "PrePreparation": "",
          "QuantityNum": 0,
          "QuantityText": "1/3",
          "QuantityUnit": "cup",
          "RecipeIngredientID": 6445263,
          "TrialMeasure": "",
          "TrialWeight": ""
        },
        {
          "FullMeasure": "3",
          "FullWeight": "",
          "IngredientGridHeaders": null,
          "IngredientID": 1060,
          "IngredientName": "egg",
          "IngredientStep": 40,
          "LanguageId": 0,
          "PostPreparation": "s",
          "PrePreparation": "",
          "QuantityNum": 3,
          "QuantityText": "3",
          "QuantityUnit": "",
          "RecipeIngredientID": 6445268,
          "TrialMeasure": "",
          "TrialWeight": ""
        },
        {
          "FullMeasure": "1 container",
          "FullWeight": "",
          "IngredientGridHeaders": null,
          "IngredientID": 1517,
          "IngredientName": "ready-to-spread vanilla frosting",
          "IngredientStep": 50,
          "LanguageId": 0,
          "PostPreparation": "",
          "PrePreparation": "(16 oz.)",
          "QuantityNum": 1,
          "QuantityText": "1",
          "QuantityUnit": "container",
          "RecipeIngredientID": 6445267,
          "TrialMeasure": "",
          "TrialWeight": ""
        },
        {
          "FullMeasure": "1 tsp.",
          "FullWeight": "",
          "IngredientGridHeaders": null,
          "IngredientID": 26414,
          "IngredientName": "root beer extract",
          "IngredientStep": 60,
          "LanguageId": 0,
          "PostPreparation": "",
          "PrePreparation": "",
          "QuantityNum": 1,
          "QuantityText": "1",
          "QuantityUnit": "tsp.",
          "RecipeIngredientID": 6445266,
          "TrialMeasure": "",
          "TrialWeight": ""
        },
        {
          "FullMeasure": "1 cup",
          "FullWeight": "",
          "IngredientGridHeaders": null,
          "IngredientID": 140,
          "IngredientName": "COOL WHIP Whipped Topping",
          "IngredientStep": 70,
          "LanguageId": 0,
          "PostPreparation": "",
          "PrePreparation": "thawed",
          "QuantityNum": 1,
          "QuantityText": "1",
          "QuantityUnit": "cup",
          "RecipeIngredientID": 6445264,
          "TrialMeasure": "",
          "TrialWeight": ""
        },
        {
          "FullMeasure": "1/4 cup",
          "FullWeight": "",
          "IngredientGridHeaders": null,
          "IngredientID": 26380,
          "IngredientName": "root beer float dessert topper",
          "IngredientStep": 80,
          "LanguageId": 0,
          "PostPreparation": "",
          "PrePreparation": "",
          "QuantityNum": 0,
          "QuantityText": "1/4",
          "QuantityUnit": "cup",
          "RecipeIngredientID": 6445265,
          "TrialMeasure": "",
          "TrialWeight": ""
        }
      ],
      "IsHealthyLiving": false,
      "KRLId": "555609",
      "KeyIngredients": [
        "Cake",
        "Eggs"
      ],
      "Keywords": "oil,root beer,cake,cake mix,COOL WHIP,eggs,extract,ice cream topping,whipped topping,frosting-canned,root beer float dessert topper,Easy,Baked,All Seasons,Potluck,Cupcake,Kid-Friendly",
      "LanguageId": 1,
      "LifeStyles": [],
      "NumberOfIngredients": 8,
      "NumberOfRatings": 4,
      "NumberOfRatingsWithComments": "4",
      "NumberOfServings": "24 servings",
      "NumberOfTrialServings": "",
      "NutritionBonus": null,
      "NutritionExchangeItemId": 0,
      "NutritionGridItems": null,
      "NutritionItems": [
        {
          "DisplayOrder": 1,
          "Document": null,
          "NutritionItemID": 3,
          "NutritionItemName": "Calories",
          "Predriscriptor": "",
          "Quantity": 210,
          "Unit": "          "
        },
        {
          "DisplayOrder": 2,
          "Document": "fat_cholesterol.html",
          "NutritionItemID": 4,
          "NutritionItemName": "Total fat",
          "Predriscriptor": "",
          "Quantity": 8,
          "Unit": "g         "
        },
        {
          "DisplayOrder": 3,
          "Document": "fat_cholesterol.html",
          "NutritionItemID": 9,
          "NutritionItemName": "Saturated fat",
          "Predriscriptor": "",
          "Quantity": 2,
          "Unit": "g         "
        },
        {
          "DisplayOrder": 7,
          "Document": "fat_cholesterol.html",
          "NutritionItemID": 2,
          "NutritionItemName": "Cholesterol",
          "Predriscriptor": "",
          "Quantity": 25,
          "Unit": "mg        "
        },
        {
          "DisplayOrder": 8,
          "Document": "sodium.html",
          "NutritionItemID": 8,
          "NutritionItemName": "Sodium",
          "Predriscriptor": "",
          "Quantity": 180,
          "Unit": "mg        "
        },
        {
          "DisplayOrder": 10,
          "Document": "carbs_sugars_fiber.html",
          "NutritionItemID": 1,
          "NutritionItemName": "Carbohydrate",
          "Predriscriptor": "",
          "Quantity": 33,
          "Unit": "g         "
        },
        {
          "DisplayOrder": 11,
          "Document": "carbs_sugars_fiber.html",
          "NutritionItemID": 7,
          "NutritionItemName": "Dietary fiber",
          "Predriscriptor": "",
          "Quantity": 0,
          "Unit": "g         "
        },
        {
          "DisplayOrder": 12,
          "Document": "carbs_sugars_fiber.html",
          "NutritionItemID": 5,
          "NutritionItemName": "Sugars",
          "Predriscriptor": "",
          "Quantity": 25,
          "Unit": "g         "
        },
        {
          "DisplayOrder": 13,
          "Document": null,
          "NutritionItemID": 6,
          "NutritionItemName": "Protein",
          "Predriscriptor": "",
          "Quantity": 1,
          "Unit": "g         "
        },
        {
          "DisplayOrder": 14,
          "Document": null,
          "NutritionItemID": 10,
          "NutritionItemName": "Vitamin A",
          "Predriscriptor": "",
          "Quantity": 0,
          "Unit": "%DV       "
        },
        {
          "DisplayOrder": 15,
          "Document": null,
          "NutritionItemID": 11,
          "NutritionItemName": "Vitamin C",
          "Predriscriptor": "",
          "Quantity": 0,
          "Unit": "%DV       "
        },
        {
          "DisplayOrder": 16,
          "Document": "dairy_and_calcium.html",
          "NutritionItemID": 12,
          "NutritionItemName": "Calcium",
          "Predriscriptor": "",
          "Quantity": 4,
          "Unit": "%DV       "
        },
        {
          "DisplayOrder": 17,
          "Document": null,
          "NutritionItemID": 13,
          "NutritionItemName": "Iron",
          "Predriscriptor": "",
          "Quantity": 2,
          "Unit": "%DV       "
        }
      ],
      "NutritionServingText": " ",
      "PrepStepImage": null,
      "PreparationDescription": "Beat first 4 ingredients with mixer until blended; spoon into 24 paper-lined muffin cups. $Bake 18 to 20 min. or until toothpick inserted in centers comes out clean. Cool cupcakes in pans 10 min.  Remove from pans to wire racks; cool completely. $Spoon frosting into medium bowl; stir in extract.  Add COOL WHIP; whisk until blended.   Spread onto cupcakes; drizzle with dessert topper.",
      "PreparationPreText": "Heat oven to 350°F.",
      "PreparationSteps": [
        {
          "Description": "Beat first 4 ingredients with mixer until blended; spoon into 24 paper-lined muffin cups. ",
          "PreparationStepImage": {
            "PictureFormats": [],
            "author": null,
            "id": null,
            "imageType": null,
            "mimeType": null,
            "publicationDate": null,
            "status": null,
            "title": null,
            "type": null
          },
          "Sequence": 1
        },
        {
          "Description": "Bake 18 to 20 min. or until toothpick inserted in centers comes out clean. Cool cupcakes in pans 10 min.  Remove from pans to wire racks; cool completely. ",
          "PreparationStepImage": {
            "PictureFormats": [],
            "author": null,
            "id": null,
            "imageType": null,
            "mimeType": null,
            "publicationDate": null,
            "status": null,
            "title": null,
            "type": null
          },
          "Sequence": 2
        },
        {
          "Description": "Spoon frosting into medium bowl; stir in extract.  Add COOL WHIP; whisk until blended.   Spread onto cupcakes; drizzle with dessert topper.",
          "PreparationStepImage": {
            "PictureFormats": [],
            "author": null,
            "id": null,
            "imageType": null,
            "mimeType": null,
            "publicationDate": null,
            "status": null,
            "title": null,
            "type": null
          },
          "Sequence": 3
        }
      ],
      "PreparationTime": 20,
      "Promotion": null,
      "Ratings": {
        "TotalCount": 4,
        "PageCount": 10,
        "PageNo": 1,
        "Rating": [
          {
            "Comment": "These were really good but i did not use the Root Beer topping-- But you can find it on Amazon, a little pricey though. I just used chocolate sauce! ",
            "DisplayName": true,
            "RatingValue": 5,
            "SubmitDate": "/Date(1387087964000-0600)/",
            "UpdatedDate": "/Date(1387087964000-0600)/",
            "UserName": "oldtone2"
          },
          {
            "Comment": "I believe the root beer float topper stuff is in the grocery store in the ice cream topping area. they make dr pepper and what not.  Cant wait to try this recipe. sounds great.",
            "DisplayName": false,
            "RatingValue": 1,
            "SubmitDate": "/Date(1384807919000-0600)/",
            "UpdatedDate": "/Date(1384807919000-0600)/",
            "UserName": "shelldhin"
          },
          {
            "Comment": "What is root beer float dessert topper?",
            "DisplayName": true,
            "RatingValue": 1,
            "SubmitDate": "/Date(1382097550000-0500)/",
            "UpdatedDate": "/Date(1382097550000-0500)/",
            "UserName": "shepaddles"
          },
          {
            "Comment": "I would love to try this recipe, but I don't know what \" root beer float dessert topping\" is or where to get it.  Can anyone help?",
            "DisplayName": false,
            "RatingValue": 4,
            "SubmitDate": "/Date(1382052580000-0500)/",
            "UpdatedDate": "/Date(1382052580000-0500)/",
            "UserName": "nhoffma2"
          }
        ]
      },
      "RecipeDisplayFormatId": 5,
      "RecipeId": 145862,
      "RecipeName": "Root Beer Float Cupcakes",
      "RecipeType": 0,
      "RelatedData": {
        "RelatedBrands": null,
        "RelatedProducts": null,
        "RelatedRecipes": {
          "DefaultTopCount": 5,
          "Recipe": [
            {
              "AverageRating": 5,
              "HasVideo": false,
              "IsHealthyLiving": true,
              "NumberOfRatings": 3,
              "PhotoName": "KOOL-AID_Float.jpg",
              "PhotoUrl": "http://assets.kraftfoods.com/recipe_images/opendeploy/KOOL-AID_Float.jpg",
              "RecipeId": 91995,
              "RecipeName": "KOOL-AID Float",
              "SEOName": "kool-aid-float-91995",
              "ThumbnailPhoto": null
            },
            {
              "AverageRating": 4.2,
              "HasVideo": false,
              "IsHealthyLiving": false,
              "NumberOfRatings": 14,
              "PhotoName": "Fizzy_Float.jpg",
              "PhotoUrl": "http://assets.kraftfoods.com/recipe_images/opendeploy/Fizzy_Float.jpg",
              "RecipeId": 64325,
              "RecipeName": "Fizzy Float",
              "SEOName": "fizzy-float-64325",
              "ThumbnailPhoto": null
            },
            {
              "AverageRating": 4,
              "HasVideo": false,
              "IsHealthyLiving": true,
              "NumberOfRatings": 3,
              "PhotoName": "Patriotic_Floating_Fruit_Parfaits.jpg",
              "PhotoUrl": "http://assets.kraftfoods.com/recipe_images/opendeploy/Patriotic_Floating_Fruit_Parfaits.jpg",
              "RecipeId": 65103,
              "RecipeName": "Patriotic Floating Fruit Parfaits",
              "SEOName": "patriotic-floating-fruit-parfaits-65103",
              "ThumbnailPhoto": null
            },
            {
              "AverageRating": 4.2,
              "HasVideo": false,
              "IsHealthyLiving": false,
              "NumberOfRatings": 5,
              "PhotoName": "54947.jpg",
              "PhotoUrl": "http://assets.kraftfoods.com/recipe_images/opendeploy/54947.jpg",
              "RecipeId": 54947,
              "RecipeName": "Coffee and Ice Cream Float",
              "SEOName": "coffee-ice-cream-float-54947",
              "ThumbnailPhoto": null
            },
            {
              "AverageRating": 4,
              "HasVideo": false,
              "IsHealthyLiving": false,
              "NumberOfRatings": 4,
              "PhotoName": "Lemonade_Floats.jpg",
              "PhotoUrl": "http://assets.kraftfoods.com/recipe_images/opendeploy/Lemonade_Floats.jpg",
              "RecipeId": 52753,
              "RecipeName": "Lemonade Floats",
              "SEOName": "lemonade-floats-52753",
              "ThumbnailPhoto": null
            }
          ],
          "TotalCount": 172
        }
      },
      "RiseIngredients": [],
      "RiseTaxonomy": [],
      "Riserecipe": [
        {
          "GRIN": 555609,
          "RecipeId": 145862,
          "RecipeIndustrySector": "Retail",
          "RecipeType": "Internal"
        }
      ],
      "RomanceText": "Root beer mixed into the batter means your cupcakes will taste just like soda pop, and the vanilla whipped frosting makes them taste like root beer floats!",
      "SEOName": "root-beer-float-cupcakes-145862",
      "Tips": [
        {
          "RecipeId": 145862,
          "Sequence": 10,
          "TipDescription": "Fit pastry bag with desired decorating tip. Spoon enough COOL WHIP mixture into prepared bag to fill about halfway. Use to pipe COOL WHIP mixture onto cupcakes, refilling bag with remaining COOL WHIP mixture when necessary. Or if you don't have a pastry bag, you can use a resealable plastic bag instead. Spoon COOL WHIP mixture into bag, then cut piece off one bottom corner of bag before using to frost cupcakes.",
          "TipID": 1,
          "TipName": "Special Extra"
        },
        {
          "RecipeId": 145862,
          "Sequence": 20,
          "TipDescription": "Keep frosted cupcakes refrigerated.",
          "TipID": 2,
          "TipName": "How to Store"
        }
      ],
      "TotalTime": 80,
      "TradeMarkInfo": null,
      "Video": [],
      "Yield": "24 servings"
    }
  ]
}