{
  "Metadata": {
    "PageCount": 1,
    "PageNo": 0,
    "TotalCount": 0
  },
  "Recipes": [
    {
      "AdServingKeywords": "Baked,Top of Stove ,Entree,Easy,Bacon,Cheddar,Cheese,Dairy,Eggs,Frozen Potatoes,Meat,Sour Cream,Breakstones,Knudsen,Kraft Shredded Cheese,Ore-Ida,Oscar Mayer,All Seasons,Breakfast/Brunch,Casserole",
      "AlternateLanguageRecipes": [],
      "Assets": [
        {
          "PictureFormats": [
            {
              "rendition": "290x194",
              "url": "http://assets.kraftfoods.com/recipe_images/opendeploy/580210_1_1_retail-0c45c617d329baf664363a1b5d0efc0f450d20b3_291x194.jpg"
            },
            {
              "rendition": "306x204",
              "url": "http://assets.kraftfoods.com/recipe_images/opendeploy/580210_1_1_retail-0c45c617d329baf664363a1b5d0efc0f450d20b3_306x204.jpg"
            },
            {
              "rendition": "640x428",
              "url": "http://assets.kraftfoods.com/recipe_images/opendeploy/580210_1_1_retail-0c45c617d329baf664363a1b5d0efc0f450d20b3_642x428.jpg"
            }
          ],
          "author": "Kraft",
          "id": "2",
          "imageType": "Primary",
          "mimeType": "image/jpeg",
          "publicationDate": null,
          "status": "1",
          "title": "580210_1_1_retail-0c45c617d329baf664363a1b5d0efc0f450d20b3",
          "type": "image"
        }
      ],
      "AverageRating": 0,
      "BrandId": 1,
      "Branding": null,
      "CSSSkins": [],
      "CarbCounter": null,
      "Categories": [],
      "Classifications": [],
      "ComplimentaryRecipes": null,
      "CookingMethod": null,
      "Copyright": null,
      "Courses": [],
      "DietExchange": null,
      "DishDetails": null,
      "EndDate": "/Date(-62135575200000-0600)/",
      "HasVideo": false,
      "Ingredients": [
        {
          "FullMeasure": null,
          "FullWeight": null,
          "IngredientGridHeaders": null,
          "IngredientID": 73710,
          "IngredientName": "(22 oz.) ORE-IDA Waffle Fries",
          "IngredientStep": 10,
          "LanguageId": 0,
          "PostPreparation": "",
          "PrePreparation": "",
          "QuantityNum": 1,
          "QuantityText": "1",
          "QuantityUnit": "pkg.",
          "RecipeIngredientID": 356003,
          "TrialMeasure": null,
          "TrialWeight": null
        },
        {
          "FullMeasure": null,
          "FullWeight": null,
          "IngredientGridHeaders": null,
          "IngredientID": 68794,
          "IngredientName": "eggs",
          "IngredientStep": 20,
          "LanguageId": 0,
          "PostPreparation": "",
          "PrePreparation": "",
          "QuantityNum": 8,
          "QuantityText": "8",
          "QuantityUnit": "",
          "RecipeIngredientID": 353875,
          "TrialMeasure": null,
          "TrialWeight": null
        },
        {
          "FullMeasure": null,
          "FullWeight": null,
          "IngredientGridHeaders": null,
          "IngredientID": 67834,
          "IngredientName": "BREAKSTONE'S or KNUDSEN Sour Cream",
          "IngredientStep": 30,
          "LanguageId": 0,
          "PostPreparation": "",
          "PrePreparation": "",
          "QuantityNum": 0.5,
          "QuantityText": "1/2",
          "QuantityUnit": "cup",
          "RecipeIngredientID": 354677,
          "TrialMeasure": null,
          "TrialWeight": null
        },
        {
          "FullMeasure": null,
          "FullWeight": null,
          "IngredientGridHeaders": null,
          "IngredientID": 69188,
          "IngredientName": "(8 oz.) KRAFT Shredded Mild Cheddar Cheese",
          "IngredientStep": 40,
          "LanguageId": 0,
          "PostPreparation": "",
          "PrePreparation": "",
          "QuantityNum": 1,
          "QuantityText": "1",
          "QuantityUnit": "pkg.",
          "RecipeIngredientID": 353876,
          "TrialMeasure": null,
          "TrialWeight": null
        },
        {
          "FullMeasure": null,
          "FullWeight": null,
          "IngredientGridHeaders": null,
          "IngredientID": 68655,
          "IngredientName": "cooked OSCAR MAYER Bacon, chopped",
          "IngredientStep": 50,
          "LanguageId": 0,
          "PostPreparation": "",
          "PrePreparation": "",
          "QuantityNum": 6,
          "QuantityText": "6",
          "QuantityUnit": "slices",
          "RecipeIngredientID": 356347,
          "TrialMeasure": null,
          "TrialWeight": null
        },
        {
          "FullMeasure": null,
          "FullWeight": null,
          "IngredientGridHeaders": null,
          "IngredientID": 68320,
          "IngredientName": "chopped fresh chives",
          "IngredientStep": 60,
          "LanguageId": 0,
          "PostPreparation": "",
          "PrePreparation": "",
          "QuantityNum": 2,
          "QuantityText": "2",
          "QuantityUnit": "Tbsp.",
          "RecipeIngredientID": 355822,
          "TrialMeasure": null,
          "TrialWeight": null
        }
      ],
      "IsHealthyLiving": false,
      "KRLId": "580210",
      "KeyIngredients": [],
      "Keywords": "Baked,Top of Stove ,Entree,Easy,All Seasons,Casserole",
      "LanguageId": 1,
      "LifeStyles": [],
      "NumberOfIngredients": 6,
      "NumberOfRatings": 0,
      "NumberOfRatingsWithComments": "0",
      "NumberOfServings": "8 servings",
      "NumberOfTrialServings": null,
      "NutritionBonus": null,
      "NutritionExchangeItemId": 0,
      "NutritionGridItems": null,
      "NutritionItems": [
        {
          "DisplayOrder": 0,
          "Document": null,
          "NutritionItemID": 371,
          "NutritionItemName": "Calories",
          "Predriscriptor": "",
          "Quantity": 360,
          "Unit": "          "
        },
        {
          "DisplayOrder": 0,
          "Document": null,
          "NutritionItemID": 372,
          "NutritionItemName": "Protein",
          "Predriscriptor": "",
          "Quantity": 17,
          "Unit": "g         "
        },
        {
          "DisplayOrder": 0,
          "Document": null,
          "NutritionItemID": 373,
          "NutritionItemName": "Carbohydrate",
          "Predriscriptor": "",
          "Quantity": 18,
          "Unit": "g         "
        },
        {
          "DisplayOrder": 0,
          "Document": null,
          "NutritionItemID": 374,
          "NutritionItemName": "Dietary fiber",
          "Predriscriptor": "",
          "Quantity": 3,
          "Unit": "g         "
        },
        {
          "DisplayOrder": 0,
          "Document": null,
          "NutritionItemID": 375,
          "NutritionItemName": "Sugars",
          "Predriscriptor": "",
          "Quantity": 2,
          "Unit": "g         "
        },
        {
          "DisplayOrder": 0,
          "Document": null,
          "NutritionItemID": 376,
          "NutritionItemName": "Total fat",
          "Predriscriptor": "",
          "Quantity": 24,
          "Unit": "g         "
        },
        {
          "DisplayOrder": 0,
          "Document": null,
          "NutritionItemID": 377,
          "NutritionItemName": "Saturated fat",
          "Predriscriptor": "",
          "Quantity": 11,
          "Unit": "g         "
        },
        {
          "DisplayOrder": 0,
          "Document": null,
          "NutritionItemID": 378,
          "NutritionItemName": "Monounsaturated Fat",
          "Predriscriptor": "",
          "Quantity": 3,
          "Unit": "g         "
        },
        {
          "DisplayOrder": 0,
          "Document": null,
          "NutritionItemID": 379,
          "NutritionItemName": "Polyunsaturated Fat",
          "Predriscriptor": "",
          "Quantity": 1,
          "Unit": "g         "
        },
        {
          "DisplayOrder": 0,
          "Document": null,
          "NutritionItemID": 380,
          "NutritionItemName": "Trans Fat",
          "Predriscriptor": "",
          "Quantity": 0,
          "Unit": "g         "
        },
        {
          "DisplayOrder": 0,
          "Document": null,
          "NutritionItemID": 381,
          "NutritionItemName": "Cholesterol",
          "Predriscriptor": "",
          "Quantity": 210,
          "Unit": "mg        "
        },
        {
          "DisplayOrder": 0,
          "Document": null,
          "NutritionItemID": 382,
          "NutritionItemName": "Vitamin A",
          "Predriscriptor": "",
          "Quantity": 8,
          "Unit": "%DV       "
        },
        {
          "DisplayOrder": 0,
          "Document": null,
          "NutritionItemID": 383,
          "NutritionItemName": "Vitamin C",
          "Predriscriptor": "",
          "Quantity": 0,
          "Unit": "%DV       "
        },
        {
          "DisplayOrder": 0,
          "Document": null,
          "NutritionItemID": 384,
          "NutritionItemName": "Vitamin D",
          "Predriscriptor": "",
          "Quantity": 10,
          "Unit": "%DV       "
        },
        {
          "DisplayOrder": 0,
          "Document": null,
          "NutritionItemID": 385,
          "NutritionItemName": "Vitamin E",
          "Predriscriptor": "",
          "Quantity": 4,
          "Unit": "%DV       "
        },
        {
          "DisplayOrder": 0,
          "Document": null,
          "NutritionItemID": 386,
          "NutritionItemName": "Calcium",
          "Predriscriptor": "",
          "Quantity": 25,
          "Unit": "%DV       "
        },
        {
          "DisplayOrder": 0,
          "Document": null,
          "NutritionItemID": 387,
          "NutritionItemName": "Iron",
          "Predriscriptor": "",
          "Quantity": 8,
          "Unit": "%DV       "
        },
        {
          "DisplayOrder": 0,
          "Document": null,
          "NutritionItemID": 388,
          "NutritionItemName": "Potassium",
          "Predriscriptor": "",
          "Quantity": 160,
          "Unit": "%DV       "
        },
        {
          "DisplayOrder": 0,
          "Document": null,
          "NutritionItemID": 389,
          "NutritionItemName": "Sodium",
          "Predriscriptor": "",
          "Quantity": 370,
          "Unit": "mg        "
        },
        {
          "DisplayOrder": 0,
          "Document": null,
          "NutritionItemID": 390,
          "NutritionItemName": "Added Sugars",
          "Predriscriptor": "",
          "Quantity": 0,
          "Unit": "g         "
        }
      ],
      "NutritionServingText": null,
      "PrepStepImage": null,
      "PreparationDescription": "Bake fries as directed on package. $Meanwhile, whisk eggs and sour cream until blended; pour into large nonstick skillet.  Cook on medium heat 6 to 8 min. or just until egg mixture is set, stirring occasionally.$Sprinkle cheese over fries; top with egg mixture and bacon.  Bake 3 min. or until cheese is melted. Top with chives.",
      "PreparationPreText": "Heat oven to 450ºF.",
      "PreparationSteps": [
        {
          "Description": "Bake fries as directed on package. ",
          "PreparationStepImage": {
            "PictureFormats": [],
            "author": null,
            "id": null,
            "imageType": null,
            "mimeType": null,
            "publicationDate": null,
            "status": null,
            "title": null,
            "type": null
          },
          "Sequence": 1
        },
        {
          "Description": "Meanwhile, whisk eggs and sour cream until blended; pour into large nonstick skillet.  Cook on medium heat 6 to 8 min. or just until egg mixture is set, stirring occasionally.",
          "PreparationStepImage": {
            "PictureFormats": [],
            "author": null,
            "id": null,
            "imageType": null,
            "mimeType": null,
            "publicationDate": null,
            "status": null,
            "title": null,
            "type": null
          },
          "Sequence": 2
        },
        {
          "Description": "Sprinkle cheese over fries; top with egg mixture and bacon.  Bake 3 min. or until cheese is melted. Top with chives.",
          "PreparationStepImage": {
            "PictureFormats": [],
            "author": null,
            "id": null,
            "imageType": null,
            "mimeType": null,
            "publicationDate": null,
            "status": null,
            "title": null,
            "type": null
          },
          "Sequence": 3
        }
      ],
      "PreparationTime": 15,
      "Promotion": null,
      "Ratings": {
        "TotalCount": 0,
        "PageCount": 10,
        "PageNo": 1,
        "Rating": []
      },
      "RecipeDisplayFormatId": 0,
      "RecipeId": 209828,
      "RecipeName": "Cheesy Eggs, Bacon and Morning Fries ",
      "RecipeType": 0,
      "RelatedData": {
        "RelatedBrands": null,
        "RelatedProducts": null,
        "RelatedRecipes": {
          "DefaultTopCount": 5,
          "Recipe": [
            {
              "AverageRating": 5,
              "HasVideo": false,
              "IsHealthyLiving": false,
              "NumberOfRatings": 2,
              "PhotoName": "Bacon-Wrapped-Figs-61394.jpg",
              "PhotoUrl": "http://assets.kraftfoods.com/recipe_images/opendeploy/Bacon-Wrapped-Figs-61394.jpg",
              "RecipeId": 129360,
              "RecipeName": "Bacon-Wrapped Figs",
              "SEOName": "bacon-wrapped-figs-129360",
              "ThumbnailPhoto": null
            },
            {
              "AverageRating": 4.9,
              "HasVideo": false,
              "IsHealthyLiving": false,
              "NumberOfRatings": 7,
              "PhotoName": "110153.jpg",
              "PhotoUrl": "http://assets.kraftfoods.com/recipe_images/opendeploy/110153.jpg",
              "RecipeId": 110153,
              "RecipeName": "Asparagus, Tomato and Goat Cheese Salad",
              "SEOName": "asparagus-tomato-goat-cheese-salad-110153",
              "ThumbnailPhoto": null
            },
            {
              "AverageRating": 5,
              "HasVideo": false,
              "IsHealthyLiving": false,
              "NumberOfRatings": 3,
              "PhotoName": "Cheesy-Broccoli-Bacon-Mac-Bites-60414.jpg",
              "PhotoUrl": "http://assets.kraftfoods.com/recipe_images/opendeploy/Cheesy-Broccoli-Bacon-Mac-Bites-60414.jpg",
              "RecipeId": 158888,
              "RecipeName": "Cheesy Broccoli-Bacon Mac Bites",
              "SEOName": "cheesy-broccoli-bacon-mac-bites-158888",
              "ThumbnailPhoto": null
            },
            {
              "AverageRating": 4.2,
              "HasVideo": true,
              "IsHealthyLiving": false,
              "NumberOfRatings": 11,
              "PhotoName": "opendeploy/138235-5298da51890904f7ecedec2bf407db4581b21b3a_306x204.jpg",
              "PhotoUrl": "http://assets.kraftfoods.com/recipe_images/opendeploy/opendeploy/138235-5298da51890904f7ecedec2bf407db4581b21b3a_306x204.jpg",
              "RecipeId": 138235,
              "RecipeName": "Cheesy Bread Pulls",
              "SEOName": "cheesy-bread-pulls-138235",
              "ThumbnailPhoto": null
            },
            {
              "AverageRating": 4.7,
              "HasVideo": false,
              "IsHealthyLiving": false,
              "NumberOfRatings": 3,
              "PhotoName": "Cheesy-Bacon-Bruschetta-58097.jpg",
              "PhotoUrl": "http://assets.kraftfoods.com/recipe_images/opendeploy/Cheesy-Bacon-Bruschetta-58097.jpg",
              "RecipeId": 124108,
              "RecipeName": "Cheesy Bacon Bruschetta",
              "SEOName": "cheesy-bacon-bruschetta-124108",
              "ThumbnailPhoto": null
            }
          ],
          "TotalCount": 5370
        }
      },
      "RiseIngredients": [
        {
          "IngredientCategory": "KRL",
          "IngredientId": 67834,
          "IngredientIndustrySector": "Retail",
          "IngredientType": "KHC",
          "ProductId": "00021000301676",
          "RecipeId": 209828
        },
        {
          "IngredientCategory": "KRL",
          "IngredientId": 68320,
          "IngredientIndustrySector": "Retail",
          "IngredientType": "Inedible",
          "ProductId": null,
          "RecipeId": 209828
        },
        {
          "IngredientCategory": "KRL",
          "IngredientId": 68655,
          "IngredientIndustrySector": "Retail",
          "IngredientType": "Inedible",
          "ProductId": "00044700071205",
          "RecipeId": 209828
        },
        {
          "IngredientCategory": "KRL",
          "IngredientId": 68794,
          "IngredientIndustrySector": "Retail",
          "IngredientType": "Inedible",
          "ProductId": null,
          "RecipeId": 209828
        },
        {
          "IngredientCategory": "KRL",
          "IngredientId": 69188,
          "IngredientIndustrySector": "Retail",
          "IngredientType": "KHC",
          "ProductId": "00021000053704",
          "RecipeId": 209828
        },
        {
          "IngredientCategory": "KRL",
          "IngredientId": 73710,
          "IngredientIndustrySector": "Retail",
          "IngredientType": "KHC",
          "ProductId": "00013120011764",
          "RecipeId": 209828
        }
      ],
      "RiseTaxonomy": [
        {
          "ParentTaxonomyId": 0,
          "RecipeId": 209828,
          "ResourceName": "Recipe",
          "TaxonomyId": 65,
          "TaxonomyName": "Entrées",
          "TaxonomyTypeId": 2,
          "TaxonomyTypeName": "Meal Part"
        },
        {
          "ParentTaxonomyId": 48,
          "RecipeId": 209828,
          "ResourceName": "Recipe",
          "TaxonomyId": 199,
          "TaxonomyName": "Casseroles & Skillets",
          "TaxonomyTypeId": 3,
          "TaxonomyTypeName": "Dish Type"
        }
      ],
      "Riserecipe": [
        {
          "GRIN": 580210,
          "RecipeId": 209828,
          "RecipeIndustrySector": "Retail",
          "RecipeType": "Internal"
        }
      ],
      "RomanceText": null,
      "SEOName": "cheesy-eggs-bacon-morning-fries-209828",
      "Tips": [
        {
          "RecipeId": 209828,
          "Sequence": 1,
          "TipDescription": "For a delightful brunch idea, serve these Cheesy Eggs, Bacon and Morning Fries with a seasonal fresh fruit salad.",
          "TipID": 1,
          "TipName": "Serving Suggestion"
        },
        {
          "RecipeId": 209828,
          "Sequence": 2,
          "TipDescription": "Prepare using 10 cups (3/4 of 32-oz pkg.) ORE-IDA GOLDEN CRINKLES.  ",
          "TipID": 2,
          "TipName": "Substitute"
        }
      ],
      "TotalTime": 50,
      "TradeMarkInfo": null,
      "Video": [],
      "Yield": "8 servings"
    }
  ]
}