{
  "Metadata": {
    "PageCount": 1,
    "PageNo": 0,
    "TotalCount": 0
  },
  "Recipes": [
    {
      "AdServingKeywords": "Cream Cheese,Nuts,Pasta/Noodles,Tomato,Vegetables,Entree,Easy,Top of Stove,All Seasons,Dinner,Kraft Salad Dressing,Philadelphia,Creamy",
      "AlternateLanguageRecipes": [],
      "Assets": [
        {
          "PictureFormats": [
            {
              "rendition": "290x194",
              "url": "http://assets.kraftfoods.com/recipe_images/opendeploy/74526_290x194.jpg"
            },
            {
              "rendition": "640x428",
              "url": "http://assets.kraftfoods.com/recipe_images/opendeploy/74526_640x428.jpg"
            },
            {
              "rendition": "600x250",
              "url": "http://assets.kraftfoods.com/recipe_images/opendeploy/74526_600x250.jpg"
            }
          ],
          "author": "BulKUpload",
          "id": "2",
          "imageType": "Primary",
          "mimeType": "image/jpeg",
          "publicationDate": null,
          "status": "1",
          "title": "74526",
          "type": "image"
        },
        {
          "PictureFormats": [
            {
              "rendition": "140x90",
              "url": "http://assets.kraftfoods.com/recipe_images/opendeploy/74526_MXM_K46004V0_OR1_CR_140x90.jpg"
            },
            {
              "rendition": "300x250",
              "url": "http://assets.kraftfoods.com/recipe_images/opendeploy/74526_MXM_K46004V0_OR1_CR_300x250.jpg"
            },
            {
              "rendition": "960x300",
              "url": "http://assets.kraftfoods.com/recipe_images/opendeploy/74526_MXM_K46004V0_OR1_CR_960x300.jpg"
            }
          ],
          "author": null,
          "id": "2",
          "imageType": "Primary",
          "mimeType": "image/jpeg",
          "publicationDate": null,
          "status": "1",
          "title": "74526_MXM_K46004V0_OR1_CR",
          "type": "image"
        },
        {
          "PictureFormats": [
            {
              "rendition": "300x200",
              "url": "http://assets.kraftfoods.com/recipe_images/74526.jpg"
            }
          ],
          "author": "BulKUpload",
          "id": "0",
          "imageType": "LANDSCAPE",
          "mimeType": "image/jpeg",
          "publicationDate": null,
          "status": "1",
          "title": "74526.jpg",
          "type": "image"
        }
      ],
      "AverageRating": 4,
      "BrandId": 1,
      "Branding": null,
      "CSSSkins": null,
      "CarbCounter": null,
      "Categories": [
        {
          "CategoryID": 8,
          "CategoryName": "Seafood/Meatless Entrees",
          "CategoryRank": 12,
          "SubCategoryID": 48,
          "SubCategoryName": "Meatless: Pasta",
          "SubCategoryRank": 50
        },
        {
          "CategoryID": 11,
          "CategoryName": "Primary",
          "CategoryRank": 0,
          "SubCategoryID": 97,
          "SubCategoryName": "Entrees",
          "SubCategoryRank": 50
        },
        {
          "CategoryID": 15,
          "CategoryName": "Pasta/Pizza Entrees",
          "CategoryRank": 9,
          "SubCategoryID": 386,
          "SubCategoryName": "Pasta: Meatless",
          "SubCategoryRank": 50
        },
        {
          "CategoryID": 753,
          "CategoryName": "Pizza & Pasta",
          "CategoryRank": 7,
          "SubCategoryID": 2541,
          "SubCategoryName": "Vegetarian Pizza",
          "SubCategoryRank": 1
        },
        {
          "CategoryID": 753,
          "CategoryName": "Pizza & Pasta",
          "CategoryRank": 7,
          "SubCategoryID": 2542,
          "SubCategoryName": "Creamy / Cheesy Pasta",
          "SubCategoryRank": 1
        },
        {
          "CategoryID": 753,
          "CategoryName": "Pizza & Pasta",
          "CategoryRank": 7,
          "SubCategoryID": 2545,
          "SubCategoryName": "Other",
          "SubCategoryRank": 1
        },
        {
          "CategoryID": 756,
          "CategoryName": "Main Meals (Meat / Seafood / Egg)",
          "CategoryRank": 10,
          "SubCategoryID": 2560,
          "SubCategoryName": "Seafood",
          "SubCategoryRank": 1
        },
        {
          "CategoryID": 757,
          "CategoryName": "Vegetables & Vegetarian Meals",
          "CategoryRank": 11,
          "SubCategoryID": 2569,
          "SubCategoryName": "Entrée",
          "SubCategoryRank": 1
        },
        {
          "CategoryID": 757,
          "CategoryName": "Vegetables & Vegetarian Meals",
          "CategoryRank": 11,
          "SubCategoryID": 2570,
          "SubCategoryName": "Main Meal",
          "SubCategoryRank": 1
        },
        {
          "CategoryID": 1764,
          "CategoryName": "Philly Dinner",
          "CategoryRank": 0,
          "SubCategoryID": 16865,
          "SubCategoryName": "Brick Cream Cheese",
          "SubCategoryRank": 0
        },
        {
          "CategoryID": 1764,
          "CategoryName": "Philly Dinner",
          "CategoryRank": 0,
          "SubCategoryID": 16869,
          "SubCategoryName": "Use for All",
          "SubCategoryRank": 0
        }
      ],
      "Classifications": [],
      "ComplimentaryRecipes": [
        {
          "AverageRating": 0,
          "HasVideo": false,
          "IsHealthyLiving": false,
          "NumberOfRatings": 0,
          "PhotoName": null,
          "PhotoUrl": null,
          "RecipeId": 113821,
          "RecipeName": null,
          "SEOName": "frosty-orange-creme-layered-dessert-113821",
          "ThumbnailPhoto": "Frosty-Orange-Creme-Layered-Dessert-42510.jpg"
        }
      ],
      "CookingMethod": null,
      "Copyright": null,
      "Courses": [
        "Main dishes"
      ],
      "DietExchange": null,
      "DishDetails": [],
      "EndDate": "/Date(-62135575200000-0600)/",
      "HasVideo": false,
      "Ingredients": [
        {
          "FullMeasure": "6",
          "FullWeight": "",
          "IngredientGridHeaders": null,
          "IngredientID": 1702,
          "IngredientName": "tomato",
          "IngredientStep": 10,
          "LanguageId": 0,
          "PostPreparation": "es, chopped (about 3 cups)",
          "PrePreparation": "",
          "QuantityNum": 6,
          "QuantityText": "6",
          "QuantityUnit": "",
          "RecipeIngredientID": 5027360,
          "TrialMeasure": "",
          "TrialWeight": ""
        },
        {
          "FullMeasure": "1 pkg.",
          "FullWeight": "",
          "IngredientGridHeaders": null,
          "IngredientID": 628,
          "IngredientName": "PHILADELPHIA Cream Cheese",
          "IngredientStep": 20,
          "LanguageId": 0,
          "PostPreparation": ", cubed",
          "PrePreparation": "(8 oz.)",
          "QuantityNum": 1,
          "QuantityText": "1",
          "QuantityUnit": "pkg.",
          "RecipeIngredientID": 5027361,
          "TrialMeasure": "",
          "TrialWeight": ""
        },
        {
          "FullMeasure": "1/2 cup",
          "FullWeight": "",
          "IngredientGridHeaders": null,
          "IngredientID": 1091,
          "IngredientName": "fresh basil",
          "IngredientStep": 30,
          "LanguageId": 0,
          "PostPreparation": "",
          "PrePreparation": "chopped",
          "QuantityNum": 0,
          "QuantityText": "1/2",
          "QuantityUnit": "cup",
          "RecipeIngredientID": 5027357,
          "TrialMeasure": "",
          "TrialWeight": ""
        },
        {
          "FullMeasure": "1/4 cup",
          "FullWeight": "",
          "IngredientGridHeaders": null,
          "IngredientID": 4697,
          "IngredientName": "KRAFT Sun Dried Tomato Vinaigrette Dressing",
          "IngredientStep": 40,
          "LanguageId": 0,
          "PostPreparation": "",
          "PrePreparation": "",
          "QuantityNum": 0,
          "QuantityText": "1/4",
          "QuantityUnit": "cup",
          "RecipeIngredientID": 5027359,
          "TrialMeasure": "",
          "TrialWeight": ""
        },
        {
          "FullMeasure": "1 lb.",
          "FullWeight": "",
          "IngredientGridHeaders": null,
          "IngredientID": 1992,
          "IngredientName": "linguine",
          "IngredientStep": 50,
          "LanguageId": 0,
          "PostPreparation": ", uncooked",
          "PrePreparation": "",
          "QuantityNum": 1,
          "QuantityText": "1",
          "QuantityUnit": "lb.",
          "RecipeIngredientID": 5027362,
          "TrialMeasure": "",
          "TrialWeight": ""
        },
        {
          "FullMeasure": "1/2 cup",
          "FullWeight": "",
          "IngredientGridHeaders": null,
          "IngredientID": 1418,
          "IngredientName": "pine nuts",
          "IngredientStep": 60,
          "LanguageId": 0,
          "PostPreparation": ", toasted",
          "PrePreparation": "",
          "QuantityNum": 0,
          "QuantityText": "1/2",
          "QuantityUnit": "cup",
          "RecipeIngredientID": 5027358,
          "TrialMeasure": "",
          "TrialWeight": ""
        }
      ],
      "IsHealthyLiving": false,
      "KRLId": "549912",
      "KeyIngredients": [
        "Cream Cheese",
        "Fruit",
        "Nuts",
        "Pasta",
        "Tomato",
        "Vegetables"
      ],
      "Keywords": "nuts,pasta,PHILADELPHIA Cream Cheese,pine nuts,basil,cheese,cream cheese,dressing,KRAFT Dressing,linguine pasta,salad dressing,tomatoes,Top of Stove ,Entree,Easy,All Seasons",
      "LanguageId": 1,
      "LifeStyles": [],
      "NumberOfIngredients": 6,
      "NumberOfRatings": 52,
      "NumberOfRatingsWithComments": "40",
      "NumberOfServings": "8 servings, 1 cup each",
      "NumberOfTrialServings": "",
      "NutritionBonus": null,
      "NutritionExchangeItemId": 0,
      "NutritionGridItems": null,
      "NutritionItems": [
        {
          "DisplayOrder": 1,
          "Document": null,
          "NutritionItemID": 3,
          "NutritionItemName": "Calories",
          "Predriscriptor": "",
          "Quantity": 400,
          "Unit": "          "
        },
        {
          "DisplayOrder": 2,
          "Document": "fat_cholesterol.html",
          "NutritionItemID": 4,
          "NutritionItemName": "Total fat",
          "Predriscriptor": "",
          "Quantity": 17,
          "Unit": "g         "
        },
        {
          "DisplayOrder": 3,
          "Document": "fat_cholesterol.html",
          "NutritionItemID": 9,
          "NutritionItemName": "Saturated fat",
          "Predriscriptor": "",
          "Quantity": 6,
          "Unit": "g         "
        },
        {
          "DisplayOrder": 7,
          "Document": "fat_cholesterol.html",
          "NutritionItemID": 2,
          "NutritionItemName": "Cholesterol",
          "Predriscriptor": "",
          "Quantity": 40,
          "Unit": "mg        "
        },
        {
          "DisplayOrder": 8,
          "Document": "sodium.html",
          "NutritionItemID": 8,
          "NutritionItemName": "Sodium",
          "Predriscriptor": "",
          "Quantity": 200,
          "Unit": "mg        "
        },
        {
          "DisplayOrder": 10,
          "Document": "carbs_sugars_fiber.html",
          "NutritionItemID": 1,
          "NutritionItemName": "Carbohydrate",
          "Predriscriptor": "",
          "Quantity": 49,
          "Unit": "g         "
        },
        {
          "DisplayOrder": 11,
          "Document": "carbs_sugars_fiber.html",
          "NutritionItemID": 7,
          "NutritionItemName": "Dietary fiber",
          "Predriscriptor": "",
          "Quantity": 3,
          "Unit": "g         "
        },
        {
          "DisplayOrder": 12,
          "Document": "carbs_sugars_fiber.html",
          "NutritionItemID": 5,
          "NutritionItemName": "Sugars",
          "Predriscriptor": "",
          "Quantity": 6,
          "Unit": "g         "
        },
        {
          "DisplayOrder": 13,
          "Document": null,
          "NutritionItemID": 6,
          "NutritionItemName": "Protein",
          "Predriscriptor": "",
          "Quantity": 11,
          "Unit": "g         "
        },
        {
          "DisplayOrder": 14,
          "Document": null,
          "NutritionItemID": 10,
          "NutritionItemName": "Vitamin A",
          "Predriscriptor": "",
          "Quantity": 25,
          "Unit": "%DV       "
        },
        {
          "DisplayOrder": 15,
          "Document": null,
          "NutritionItemID": 11,
          "NutritionItemName": "Vitamin C",
          "Predriscriptor": "",
          "Quantity": 10,
          "Unit": "%DV       "
        },
        {
          "DisplayOrder": 16,
          "Document": "dairy_and_calcium.html",
          "NutritionItemID": 12,
          "NutritionItemName": "Calcium",
          "Predriscriptor": "",
          "Quantity": 6,
          "Unit": "%DV       "
        },
        {
          "DisplayOrder": 17,
          "Document": null,
          "NutritionItemID": 13,
          "NutritionItemName": "Iron",
          "Predriscriptor": "",
          "Quantity": 15,
          "Unit": "%DV       "
        }
      ],
      "NutritionServingText": "",
      "PrepStepImage": null,
      "PreparationDescription": "Combine first 4 ingredients. Let stand 30 min.  $Cook pasta in large saucepan as directed on package, omitting salt; drain. Place in large bowl.  $Add tomato mixture and pine nuts; mix lightly. ",
      "PreparationPreText": "",
      "PreparationSteps": [
        {
          "Description": "Combine first 4 ingredients. Let stand 30 min.  ",
          "PreparationStepImage": {
            "PictureFormats": [],
            "author": null,
            "id": null,
            "imageType": null,
            "mimeType": null,
            "publicationDate": null,
            "status": null,
            "title": null,
            "type": null
          },
          "Sequence": 1
        },
        {
          "Description": "Cook pasta in large saucepan as directed on package, omitting salt; drain. Place in large bowl.  ",
          "PreparationStepImage": {
            "PictureFormats": [],
            "author": null,
            "id": null,
            "imageType": null,
            "mimeType": null,
            "publicationDate": null,
            "status": null,
            "title": null,
            "type": null
          },
          "Sequence": 2
        },
        {
          "Description": "Add tomato mixture and pine nuts; mix lightly. ",
          "PreparationStepImage": {
            "PictureFormats": [],
            "author": null,
            "id": null,
            "imageType": null,
            "mimeType": null,
            "publicationDate": null,
            "status": null,
            "title": null,
            "type": null
          },
          "Sequence": 3
        }
      ],
      "PreparationTime": 20,
      "Promotion": null,
      "Ratings": {
        "TotalCount": 52,
        "PageCount": 10,
        "PageNo": 1,
        "Rating": [
          {
            "Comment": "",
            "DisplayName": true,
            "RatingValue": 4,
            "SubmitDate": "/Date(1368717824000-0500)/",
            "UpdatedDate": "/Date(1368717824000-0500)/",
            "UserName": "aemulka12"
          },
          {
            "Comment": "This was good.  I wasn't sure if it was hot or cold.  The noodles were hot and the sauce was cold so that made it kind of weird.  But my husband was happy.  I didn't love it, but will make again if my husband wants it.",
            "DisplayName": false,
            "RatingValue": 3,
            "SubmitDate": "/Date(1358292273000-0600)/",
            "UpdatedDate": "/Date(1358292273000-0600)/",
            "UserName": "anne2get"
          },
          {
            "Comment": "",
            "DisplayName": true,
            "RatingValue": 5,
            "SubmitDate": "/Date(1314456214000-0500)/",
            "UpdatedDate": "/Date(1314456214000-0500)/",
            "UserName": "susad2985"
          },
          {
            "Comment": "Instead of cream cheese, next time I will add fresh mozzarella.",
            "DisplayName": true,
            "RatingValue": 3,
            "SubmitDate": "/Date(1304693744000-0500)/",
            "UpdatedDate": "/Date(1304693744000-0500)/",
            "UserName": "sharpeipup"
          },
          {
            "Comment": "the whole family enjoyed this dish",
            "DisplayName": true,
            "RatingValue": 4,
            "SubmitDate": "/Date(1297464963000-0600)/",
            "UpdatedDate": "/Date(1297464963000-0600)/",
            "UserName": "terihosley"
          },
          {
            "Comment": "",
            "DisplayName": true,
            "RatingValue": 5,
            "SubmitDate": "/Date(1293942550000-0600)/",
            "UpdatedDate": "/Date(1293942550000-0600)/",
            "UserName": "tennith"
          },
          {
            "Comment": "I didn't find this very tasty. I probably wouldn't make it again.",
            "DisplayName": true,
            "RatingValue": 2,
            "SubmitDate": "/Date(1283732031000-0500)/",
            "UpdatedDate": "/Date(1283732031000-0500)/",
            "UserName": "stacr75"
          },
          {
            "Comment": "",
            "DisplayName": true,
            "RatingValue": 3,
            "SubmitDate": "/Date(1279560247000-0500)/",
            "UpdatedDate": "/Date(1279560247000-0500)/",
            "UserName": "pretentoiusbob"
          },
          {
            "Comment": "Pretty tasty.  Made it with shrimp and was delicious.",
            "DisplayName": true,
            "RatingValue": 5,
            "SubmitDate": "/Date(1274071188000-0500)/",
            "UpdatedDate": "/Date(1274071188000-0500)/",
            "UserName": "jupiterfish4"
          },
          {
            "Comment": "Over all it was great, but I used Sour cream instead of the cream cheese and I used chopped walnuts instead of the Pine Nuts. My wife loved it! On my portion I scattered sliced & pickled Jalapenjo Peppers for a little zing.   ",
            "DisplayName": true,
            "RatingValue": 5,
            "SubmitDate": "/Date(1270671008000-0500)/",
            "UpdatedDate": "/Date(1270671008000-0500)/",
            "UserName": "poppatom1948"
          }
        ]
      },
      "RecipeDisplayFormatId": 5,
      "RecipeId": 74526,
      "RecipeName": "Creamy Basil & Tomato Pasta",
      "RecipeType": 0,
      "RelatedData": {
        "RelatedBrands": null,
        "RelatedProducts": null,
        "RelatedRecipes": {
          "DefaultTopCount": 5,
          "Recipe": [
            {
              "AverageRating": 4.7,
              "HasVideo": false,
              "IsHealthyLiving": true,
              "NumberOfRatings": 90,
              "PhotoName": "116626.jpg",
              "PhotoUrl": "http://assets.kraftfoods.com/recipe_images/opendeploy/116626.jpg",
              "RecipeId": 116626,
              "RecipeName": "Creamy Tomato-Basil Pasta with Shrimp",
              "SEOName": "creamy-tomato-basil-pasta-shrimp-116626",
              "ThumbnailPhoto": null
            },
            {
              "AverageRating": 4.5,
              "HasVideo": true,
              "IsHealthyLiving": false,
              "NumberOfRatings": 92,
              "PhotoName": "115510.jpg",
              "PhotoUrl": "http://assets.kraftfoods.com/recipe_images/opendeploy/115510.jpg",
              "RecipeId": 115510,
              "RecipeName": "Creamy Tomato-Basil Pasta with Chicken",
              "SEOName": "creamy-tomato-basil-pasta-chicken-115510",
              "ThumbnailPhoto": null
            },
            {
              "AverageRating": 4.3,
              "HasVideo": true,
              "IsHealthyLiving": false,
              "NumberOfRatings": 58,
              "PhotoName": "125292.jpg",
              "PhotoUrl": "http://assets.kraftfoods.com/recipe_images/opendeploy/125292.jpg",
              "RecipeId": 125292,
              "RecipeName": "Creamy White Chicken & Artichoke Lasagna",
              "SEOName": "creamy-white-chicken-artichoke-lasagna-125292",
              "ThumbnailPhoto": null
            },
            {
              "AverageRating": 4,
              "HasVideo": false,
              "IsHealthyLiving": true,
              "NumberOfRatings": 1,
              "PhotoName": "Creamy-Tomato-Basil-Turkey-Casserole-61788.jpg",
              "PhotoUrl": "http://assets.kraftfoods.com/recipe_images/opendeploy/Creamy-Tomato-Basil-Turkey-Casserole-61788.jpg",
              "RecipeId": 133265,
              "RecipeName": "Creamy Tomato-Basil Turkey Casserole",
              "SEOName": "creamy-tomato-basil-turkey-casserole-133265",
              "ThumbnailPhoto": null
            },
            {
              "AverageRating": 4.4,
              "HasVideo": false,
              "IsHealthyLiving": false,
              "NumberOfRatings": 19,
              "PhotoName": "121461.jpg",
              "PhotoUrl": "http://assets.kraftfoods.com/recipe_images/opendeploy/121461.jpg",
              "RecipeId": 121461,
              "RecipeName": "Creamy Chicken Pomodoro",
              "SEOName": "creamy-chicken-pomodoro-121461",
              "ThumbnailPhoto": null
            }
          ],
          "TotalCount": 2430
        }
      },
      "RiseIngredients": [],
      "RiseTaxonomy": [],
      "Riserecipe": [
        {
          "GRIN": 549912,
          "RecipeId": 74526,
          "RecipeIndustrySector": "Retail",
          "RecipeType": "Internal"
        }
      ],
      "RomanceText": "Combine fresh tomatoes and fragrant, fresh basil with vinaigrette and cream cheese to feel like you're in an Italian café.",
      "SEOName": "creamy-basil-tomato-pasta-74526",
      "Tips": [
        {
          "RecipeId": 74526,
          "Sequence": 10,
          "TipDescription": "Enjoy this creamy dish with a mixed green salad tossed with your favorite KRAFT Lite Dressing.",
          "TipID": 1,
          "TipName": "Serving Suggestion"
        },
        {
          "RecipeId": 74526,
          "Sequence": 20,
          "TipDescription": "Add 1 lb. cooked cleaned shrimp to the drained cooked pasta along with the tomato mixture and pine nuts.",
          "TipID": 2,
          "TipName": "Special Extra"
        },
        {
          "RecipeId": 74526,
          "Sequence": 30,
          "TipDescription": "Ripe tomatoes should be firm and free of any soft spots, bruises or signs of mold.  They should have bright shiny skins, feel heavy for their size and boast a lovely fresh tomato fragrance. ",
          "TipID": 3452,
          "TipName": "Purchasing Fresh Tomatoes"
        }
      ],
      "TotalTime": 60,
      "TradeMarkInfo": null,
      "Video": [],
      "Yield": "8 servings, 1 cup each"
    }
  ]
}