{
  "Metadata": {
    "PageCount": 1,
    "PageNo": 0,
    "TotalCount": 0
  },
  "Recipes": [
    {
      "AdServingKeywords": "Cabbage,Chicken,Eggs,Fruit,Lime,Mango,Meat,Onion,Poultry,Vegetables,Entree,Caribbean,All Seasons,Dinner,Good Seasons,Kraft Mayo,Spicy",
      "AlternateLanguageRecipes": [],
      "Assets": [],
      "AverageRating": 0,
      "BrandId": 1,
      "Branding": null,
      "CSSSkins": null,
      "CarbCounter": null,
      "Categories": [
        {
          "CategoryID": 2,
          "CategoryName": "Poultry Entrees",
          "CategoryRank": 11,
          "SubCategoryID": 377,
          "SubCategoryName": "Top of Stove",
          "SubCategoryRank": 100
        },
        {
          "CategoryID": 11,
          "CategoryName": "Primary",
          "CategoryRank": 0,
          "SubCategoryID": 97,
          "SubCategoryName": "Entrees",
          "SubCategoryRank": 50
        },
        {
          "CategoryID": 755,
          "CategoryName": "International Flavours",
          "CategoryRank": 9,
          "SubCategoryID": 2558,
          "SubCategoryName": "Mediterranean",
          "SubCategoryRank": 1
        },
        {
          "CategoryID": 756,
          "CategoryName": "Main Meals (Meat / Seafood / Egg)",
          "CategoryRank": 10,
          "SubCategoryID": 2562,
          "SubCategoryName": "Chicken",
          "SubCategoryRank": 1
        }
      ],
      "Classifications": [],
      "ComplimentaryRecipes": null,
      "CookingMethod": null,
      "Copyright": null,
      "Courses": [
        "Main dishes"
      ],
      "DietExchange": null,
      "DishDetails": [
        {
          "Text": "chicken recipes",
          "Url": "/recipes/dinner/chicken-recipes/main.aspx"
        },
        {
          "Text": "grilled chicken recipes",
          "Url": "/recipes/dinner/chicken-recipes/grilled-chicken/main.aspx"
        },
        {
          "Text": "healthy living chicken recipes",
          "Url": "/recipes/dinner/chicken-recipes/hl/main.aspx"
        },
        {
          "Text": "slow cooker chicken recipes",
          "Url": "/recipes/dinner/chicken-recipes/slow-cooker/main.aspx"
        },
        {
          "Text": "whole chicken recipes",
          "Url": "/recipes/dinner/chicken-recipes/whole-chicken/main.aspx"
        },
        {
          "Text": "chicken breast recipes",
          "Url": "/recipes/dinner/chicken-recipes/chicken-breast/main.aspx"
        },
        {
          "Text": "chicken casseroles",
          "Url": "/recipes/dinner/chicken-recipes/casseroles/main.aspx"
        },
        {
          "Text": "chicken pasta recipes",
          "Url": "/recipes/dinner/chicken-recipes/pasta-dishes/main.aspx"
        },
        {
          "Text": "chicken salad recipes",
          "Url": "/recipes/dinner/chicken-recipes/salads/main.aspx"
        },
        {
          "Text": "chicken stir-fry recipes",
          "Url": "/recipes/dinner/chicken-recipes/stir-fry/main.aspx"
        },
        {
          "Text": "chicken wing recipes",
          "Url": "/recipes/appetizers/chicken-wing-recipes/main.aspx"
        },
        {
          "Text": "baked chicken recipes",
          "Url": "/recipes/dinner/chicken-recipes/baked-chicken/main.aspx"
        },
        {
          "Text": "bbq chicken recipes",
          "Url": "/recipes/holidays-and-entertaining/entertaining/summer/bbq-recipes/bbq-chicken-recipes/main.aspx"
        }
      ],
      "EndDate": "/Date(-62135575200000-0600)/",
      "HasVideo": false,
      "Ingredients": [
        {
          "FullMeasure": "2 Tbsp.",
          "FullWeight": "",
          "IngredientGridHeaders": null,
          "IngredientID": 447,
          "IngredientName": "KRAFT Real Mayo Mayonnaise",
          "IngredientStep": 10,
          "LanguageId": 0,
          "PostPreparation": "",
          "PrePreparation": "",
          "QuantityNum": 2,
          "QuantityText": "2",
          "QuantityUnit": "Tbsp.",
          "RecipeIngredientID": 4160546,
          "TrialMeasure": "",
          "TrialWeight": ""
        },
        {
          "FullMeasure": "4 tsp.",
          "FullWeight": "",
          "IngredientGridHeaders": null,
          "IngredientID": 1369,
          "IngredientName": "olive oil",
          "IngredientStep": 20,
          "LanguageId": 0,
          "PostPreparation": "",
          "PrePreparation": "",
          "QuantityNum": 4,
          "QuantityText": "4",
          "QuantityUnit": "tsp.",
          "RecipeIngredientID": 4160544,
          "TrialMeasure": "",
          "TrialWeight": ""
        },
        {
          "FullMeasure": null,
          "FullWeight": null,
          "IngredientGridHeaders": null,
          "IngredientID": 1306,
          "IngredientName": "lime",
          "IngredientStep": 30,
          "LanguageId": 0,
          "PostPreparation": "s, divided",
          "PrePreparation": " zest and 1 tsp. juice from 3",
          "QuantityNum": 0,
          "QuantityText": "",
          "QuantityUnit": "",
          "RecipeIngredientID": 4160549,
          "TrialMeasure": null,
          "TrialWeight": null
        },
        {
          "FullMeasure": "1 tsp.",
          "FullWeight": "",
          "IngredientGridHeaders": null,
          "IngredientID": 1254,
          "IngredientName": "hot pepper sauce",
          "IngredientStep": 40,
          "LanguageId": 0,
          "PostPreparation": "",
          "PrePreparation": "",
          "QuantityNum": 1,
          "QuantityText": "1",
          "QuantityUnit": "tsp.",
          "RecipeIngredientID": 4160539,
          "TrialMeasure": "",
          "TrialWeight": ""
        },
        {
          "FullMeasure": "1/4 tsp.",
          "FullWeight": "",
          "IngredientGridHeaders": null,
          "IngredientID": 19949,
          "IngredientName": "ground red pepper (cayenne)",
          "IngredientStep": 50,
          "LanguageId": 0,
          "PostPreparation": "",
          "PrePreparation": "",
          "QuantityNum": 0,
          "QuantityText": "1/4",
          "QuantityUnit": "tsp.",
          "RecipeIngredientID": 4160551,
          "TrialMeasure": "",
          "TrialWeight": ""
        },
        {
          "FullMeasure": "2 cups",
          "FullWeight": "",
          "IngredientGridHeaders": null,
          "IngredientID": 7415,
          "IngredientName": "red cabbage",
          "IngredientStep": 60,
          "LanguageId": 0,
          "PostPreparation": "",
          "PrePreparation": "shredded  ",
          "QuantityNum": 2,
          "QuantityText": "2",
          "QuantityUnit": "cups",
          "RecipeIngredientID": 4160550,
          "TrialMeasure": "",
          "TrialWeight": ""
        },
        {
          "FullMeasure": "1 large",
          "FullWeight": "",
          "IngredientGridHeaders": null,
          "IngredientID": 2109,
          "IngredientName": "mango",
          "IngredientStep": 70,
          "LanguageId": 0,
          "PostPreparation": ", chopped",
          "PrePreparation": " ",
          "QuantityNum": 1,
          "QuantityText": "1",
          "QuantityUnit": "large",
          "RecipeIngredientID": 4160542,
          "TrialMeasure": "",
          "TrialWeight": ""
        },
        {
          "FullMeasure": "4",
          "FullWeight": "",
          "IngredientGridHeaders": null,
          "IngredientID": 7023,
          "IngredientName": "green onions",
          "IngredientStep": 80,
          "LanguageId": 0,
          "PostPreparation": ", thinly sliced",
          "PrePreparation": "",
          "QuantityNum": 4,
          "QuantityText": "4",
          "QuantityUnit": "",
          "RecipeIngredientID": 4160548,
          "TrialMeasure": "",
          "TrialWeight": ""
        },
        {
          "FullMeasure": "30",
          "FullWeight": "",
          "IngredientGridHeaders": null,
          "IngredientID": 27078,
          "IngredientName": "whole wheat saltine cracker",
          "IngredientStep": 90,
          "LanguageId": 0,
          "PostPreparation": "s, finely crushed",
          "PrePreparation": "",
          "QuantityNum": 30,
          "QuantityText": "30",
          "QuantityUnit": "",
          "RecipeIngredientID": 4160552,
          "TrialMeasure": "",
          "TrialWeight": ""
        },
        {
          "FullMeasure": "1 env.",
          "FullWeight": "",
          "IngredientGridHeaders": null,
          "IngredientID": 1961,
          "IngredientName": "GOOD SEASONS Garlic & Herb Dressing Mix",
          "IngredientStep": 100,
          "LanguageId": 0,
          "PostPreparation": "",
          "PrePreparation": "(0.75 oz.)",
          "QuantityNum": 1,
          "QuantityText": "1",
          "QuantityUnit": "env.",
          "RecipeIngredientID": 4160547,
          "TrialMeasure": "",
          "TrialWeight": ""
        },
        {
          "FullMeasure": "3 Tbsp.",
          "FullWeight": "",
          "IngredientGridHeaders": null,
          "IngredientID": 1124,
          "IngredientName": "fresh thyme",
          "IngredientStep": 110,
          "LanguageId": 0,
          "PostPreparation": "",
          "PrePreparation": "chopped",
          "QuantityNum": 3,
          "QuantityText": "3",
          "QuantityUnit": "Tbsp.",
          "RecipeIngredientID": 4160545,
          "TrialMeasure": "",
          "TrialWeight": ""
        },
        {
          "FullMeasure": "1/2 tsp.",
          "FullWeight": "",
          "IngredientGridHeaders": null,
          "IngredientID": 1213,
          "IngredientName": "ground black pepper",
          "IngredientStep": 120,
          "LanguageId": 0,
          "PostPreparation": "",
          "PrePreparation": "",
          "QuantityNum": 0,
          "QuantityText": "1/2",
          "QuantityUnit": "tsp.",
          "RecipeIngredientID": 4160540,
          "TrialMeasure": "",
          "TrialWeight": ""
        },
        {
          "FullMeasure": "8 small",
          "FullWeight": "",
          "IngredientGridHeaders": null,
          "IngredientID": 27042,
          "IngredientName": "boneless skinless chicken breasts",
          "IngredientStep": 130,
          "LanguageId": 0,
          "PostPreparation": " (2 lb.)",
          "PrePreparation": "",
          "QuantityNum": 7,
          "QuantityText": "8",
          "QuantityUnit": "small",
          "RecipeIngredientID": 4160553,
          "TrialMeasure": "",
          "TrialWeight": ""
        },
        {
          "FullMeasure": "2",
          "FullWeight": "",
          "IngredientGridHeaders": null,
          "IngredientID": 1062,
          "IngredientName": "egg white",
          "IngredientStep": 140,
          "LanguageId": 0,
          "PostPreparation": "s, beaten",
          "PrePreparation": "",
          "QuantityNum": 2,
          "QuantityText": "2",
          "QuantityUnit": "",
          "RecipeIngredientID": 4160543,
          "TrialMeasure": "",
          "TrialWeight": ""
        },
        {
          "FullMeasure": "1/4 cup",
          "FullWeight": "",
          "IngredientGridHeaders": null,
          "IngredientID": 863,
          "IngredientName": "butter",
          "IngredientStep": 150,
          "LanguageId": 0,
          "PostPreparation": ", divided",
          "PrePreparation": "",
          "QuantityNum": 0,
          "QuantityText": "1/4",
          "QuantityUnit": "cup",
          "RecipeIngredientID": 4160541,
          "TrialMeasure": "",
          "TrialWeight": ""
        }
      ],
      "IsHealthyLiving": false,
      "KRLId": "511197",
      "KeyIngredients": [
        "Cabbage",
        "Eggs",
        "Fruit",
        "Lime",
        "Mango",
        "Onion",
        "Vegetables"
      ],
      "Keywords": "oil,olive oil,pepper sauce,chicken,chicken breasts-boneless,crackers,egg whites,GOOD SEASONS Dressing Mix,hot pepper sauce,limes,mangoes,mayonnaise,meat,salad dressing mix,scallions,spices,whole wheat crackers,KRAFT Mayo Real Mayonnaise,butter,green onions,mayo type dressing,cabbage,thyme,saltine crackers,chicken breasts,cayenne pepper,Entree,Caribbean,Dinner,All Seasons,Spicy",
      "LanguageId": 1,
      "LifeStyles": [],
      "NumberOfIngredients": 15,
      "NumberOfRatings": 0,
      "NumberOfRatingsWithComments": "0",
      "NumberOfServings": "8 servings",
      "NumberOfTrialServings": " ",
      "NutritionBonus": null,
      "NutritionExchangeItemId": 0,
      "NutritionGridItems": null,
      "NutritionItems": [
        {
          "DisplayOrder": 1,
          "Document": null,
          "NutritionItemID": 3,
          "NutritionItemName": "Calories",
          "Predriscriptor": "",
          "Quantity": 310,
          "Unit": "          "
        },
        {
          "DisplayOrder": 2,
          "Document": "fat_cholesterol.html",
          "NutritionItemID": 4,
          "NutritionItemName": "Total fat",
          "Predriscriptor": "",
          "Quantity": 15,
          "Unit": "g         "
        },
        {
          "DisplayOrder": 3,
          "Document": "fat_cholesterol.html",
          "NutritionItemID": 9,
          "NutritionItemName": "Saturated fat",
          "Predriscriptor": "",
          "Quantity": 5,
          "Unit": "g         "
        },
        {
          "DisplayOrder": 7,
          "Document": "fat_cholesterol.html",
          "NutritionItemID": 2,
          "NutritionItemName": "Cholesterol",
          "Predriscriptor": "",
          "Quantity": 85,
          "Unit": "mg        "
        },
        {
          "DisplayOrder": 8,
          "Document": "sodium.html",
          "NutritionItemID": 8,
          "NutritionItemName": "Sodium",
          "Predriscriptor": "",
          "Quantity": 660,
          "Unit": "mg        "
        },
        {
          "DisplayOrder": 10,
          "Document": "carbs_sugars_fiber.html",
          "NutritionItemID": 1,
          "NutritionItemName": "Carbohydrate",
          "Predriscriptor": "",
          "Quantity": 16,
          "Unit": "g         "
        },
        {
          "DisplayOrder": 11,
          "Document": "carbs_sugars_fiber.html",
          "NutritionItemID": 7,
          "NutritionItemName": "Dietary fiber",
          "Predriscriptor": "",
          "Quantity": 1,
          "Unit": "g         "
        },
        {
          "DisplayOrder": 12,
          "Document": "carbs_sugars_fiber.html",
          "NutritionItemID": 5,
          "NutritionItemName": "Sugars",
          "Predriscriptor": "",
          "Quantity": 7,
          "Unit": "g         "
        },
        {
          "DisplayOrder": 13,
          "Document": null,
          "NutritionItemID": 6,
          "NutritionItemName": "Protein",
          "Predriscriptor": "",
          "Quantity": 27,
          "Unit": "g         "
        },
        {
          "DisplayOrder": 14,
          "Document": null,
          "NutritionItemID": 10,
          "NutritionItemName": "Vitamin A",
          "Predriscriptor": "",
          "Quantity": 15,
          "Unit": "%DV       "
        },
        {
          "DisplayOrder": 15,
          "Document": null,
          "NutritionItemID": 11,
          "NutritionItemName": "Vitamin C",
          "Predriscriptor": "",
          "Quantity": 40,
          "Unit": "%DV       "
        },
        {
          "DisplayOrder": 16,
          "Document": "dairy_and_calcium.html",
          "NutritionItemID": 12,
          "NutritionItemName": "Calcium",
          "Predriscriptor": "",
          "Quantity": 4,
          "Unit": "%DV       "
        },
        {
          "DisplayOrder": 17,
          "Document": null,
          "NutritionItemID": 13,
          "NutritionItemName": "Iron",
          "Predriscriptor": "",
          "Quantity": 10,
          "Unit": "%DV       "
        }
      ],
      "NutritionServingText": " ",
      "PrepStepImage": null,
      "PreparationDescription": "Mix mayo, oil, 1 tsp. lime zest, juice, hot sauce and red pepper until blended.  Combine cabbage, mangos and onions in medium bowl.  Add mayo mixture; mix lightly.  Refrigerate until ready to serve.  $Combine next 4 ingredients and remaining zest in shallow bowl.  Dip each chicken breast in egg whites, then in crumb mixture, turning to evenly coat both sides of each breast.  $Melt 2 Tbsp. butter in large skillet on medium heat.  Add half the chicken; cook 4 to 5 min. on each side or until done (165°F).  Repeat with remaining butter and chicken.  Serve with slaw.",
      "PreparationPreText": "",
      "PreparationSteps": [
        {
          "Description": "Mix mayo, oil, 1 tsp. lime zest, juice, hot sauce and red pepper until blended.  Combine cabbage, mangos and onions in medium bowl.  Add mayo mixture; mix lightly.  Refrigerate until ready to serve.  ",
          "PreparationStepImage": {
            "PictureFormats": [],
            "author": null,
            "id": null,
            "imageType": null,
            "mimeType": null,
            "publicationDate": null,
            "status": null,
            "title": null,
            "type": null
          },
          "Sequence": 1
        },
        {
          "Description": "Combine next 4 ingredients and remaining zest in shallow bowl.  Dip each chicken breast in egg whites, then in crumb mixture, turning to evenly coat both sides of each breast.  ",
          "PreparationStepImage": {
            "PictureFormats": [],
            "author": null,
            "id": null,
            "imageType": null,
            "mimeType": null,
            "publicationDate": null,
            "status": null,
            "title": null,
            "type": null
          },
          "Sequence": 2
        },
        {
          "Description": "Melt 2 Tbsp. butter in large skillet on medium heat.  Add half the chicken; cook 4 to 5 min. on each side or until done (165°F).  Repeat with remaining butter and chicken.  Serve with slaw.",
          "PreparationStepImage": {
            "PictureFormats": [],
            "author": null,
            "id": null,
            "imageType": null,
            "mimeType": null,
            "publicationDate": null,
            "status": null,
            "title": null,
            "type": null
          },
          "Sequence": 3
        }
      ],
      "PreparationTime": 35,
      "Promotion": null,
      "Ratings": {
        "TotalCount": 0,
        "PageCount": 10,
        "PageNo": 1,
        "Rating": []
      },
      "RecipeDisplayFormatId": 5,
      "RecipeId": 162325,
      "RecipeName": "Thyme-Lime Chicken With Caribbean Slaw",
      "RecipeType": 0,
      "RelatedData": {
        "RelatedBrands": null,
        "RelatedProducts": null,
        "RelatedRecipes": {
          "DefaultTopCount": 5,
          "Recipe": [
            {
              "AverageRating": 4.3,
              "HasVideo": false,
              "IsHealthyLiving": false,
              "NumberOfRatings": 42,
              "PhotoName": "Caribbean_BBQ_Chicken.jpg",
              "PhotoUrl": "http://assets.kraftfoods.com/recipe_images/opendeploy/Caribbean_BBQ_Chicken.jpg",
              "RecipeId": 74908,
              "RecipeName": "Caribbean BBQ Chicken",
              "SEOName": "caribbean-bbq-chicken-74908",
              "ThumbnailPhoto": null
            },
            {
              "AverageRating": 4.2,
              "HasVideo": false,
              "IsHealthyLiving": true,
              "NumberOfRatings": 10,
              "PhotoName": "118640.jpg",
              "PhotoUrl": "http://assets.kraftfoods.com/recipe_images/opendeploy/118640.jpg",
              "RecipeId": 118640,
              "RecipeName": "Grilled Fish Tacos with Coleslaw for Two",
              "SEOName": "grilled-fish-tacos-coleslaw-for-two-118640",
              "ThumbnailPhoto": null
            },
            {
              "AverageRating": 4.3,
              "HasVideo": false,
              "IsHealthyLiving": false,
              "NumberOfRatings": 10,
              "PhotoName": "75292.jpg",
              "PhotoUrl": "http://assets.kraftfoods.com/recipe_images/opendeploy/75292.jpg",
              "RecipeId": 75292,
              "RecipeName": "Caribbean Jerk Chicken Wings",
              "SEOName": "caribbean-jerk-chicken-wings-75292",
              "ThumbnailPhoto": null
            },
            {
              "AverageRating": 4.6,
              "HasVideo": false,
              "IsHealthyLiving": true,
              "NumberOfRatings": 125,
              "PhotoName": "Caribbean_Jerk_Chicken_Skewers.jpg",
              "PhotoUrl": "http://assets.kraftfoods.com/recipe_images/opendeploy/Caribbean_Jerk_Chicken_Skewers.jpg",
              "RecipeId": 63177,
              "RecipeName": "Caribbean Jerk Chicken Skewers",
              "SEOName": "caribbean-jerk-chicken-skewers-63177",
              "ThumbnailPhoto": null
            },
            {
              "AverageRating": 4.4,
              "HasVideo": false,
              "IsHealthyLiving": true,
              "NumberOfRatings": 58,
              "PhotoName": "53099.jpg",
              "PhotoUrl": "http://assets.kraftfoods.com/recipe_images/opendeploy/53099.jpg",
              "RecipeId": 53099,
              "RecipeName": "Jamaican Jerk Chicken Breasts",
              "SEOName": "jamaican-jerk-chicken-breasts-53099",
              "ThumbnailPhoto": null
            }
          ],
          "TotalCount": 1675
        }
      },
      "RiseIngredients": [],
      "RiseTaxonomy": [],
      "Riserecipe": [
        {
          "GRIN": 511197,
          "RecipeId": 162325,
          "RecipeIndustrySector": "Retail",
          "RecipeType": "Internal"
        }
      ],
      "RomanceText": "Here's another great dish for your chicken breast recipe folder—made with lime juice and fresh thyme and served on a bed of tangy Caribbean-style coleslaw.",
      "SEOName": "thyme-lime-chicken-caribbean-slaw-162325",
      "Tips": [
        {
          "RecipeId": 162325,
          "Sequence": 10,
          "TipDescription": "Serve with 1/2 cup <u>each</u> of your favorite cooked pasta and sautéed vegetables to round out the meal. ",
          "TipID": 2,
          "TipName": "Serving Suggestion"
        },
        {
          "RecipeId": 162325,
          "Sequence": 20,
          "TipDescription": "Substitute a papaya for the mango.",
          "TipID": 1,
          "TipName": "Substitute"
        }
      ],
      "TotalTime": 35,
      "TradeMarkInfo": null,
      "Video": [],
      "Yield": "8 servings"
    }
  ]
}