{
  "Metadata": {
    "PageCount": 1,
    "PageNo": 0,
    "TotalCount": 0
  },
  "Recipes": [
    {
      "AdServingKeywords": "Cheese,Cucumber,Feta,Olive,Onion,Peppers,Vegetables,Side Dish,Athenos,Kraft Salad Dressing",
      "AlternateLanguageRecipes": [],
      "Assets": [],
      "AverageRating": 0,
      "BrandId": 1,
      "Branding": null,
      "CSSSkins": null,
      "CarbCounter": null,
      "Categories": [
        {
          "CategoryID": 9,
          "CategoryName": "Salads/Side Dishes",
          "CategoryRank": 13,
          "SubCategoryID": 436,
          "SubCategoryName": "Vegetable Salads",
          "SubCategoryRank": 190
        },
        {
          "CategoryID": 11,
          "CategoryName": "Primary",
          "CategoryRank": 0,
          "SubCategoryID": 98,
          "SubCategoryName": "Salads",
          "SubCategoryRank": 70
        },
        {
          "CategoryID": 752,
          "CategoryName": "Salads",
          "CategoryRank": 6,
          "SubCategoryID": 2535,
          "SubCategoryName": "Side",
          "SubCategoryRank": 1
        },
        {
          "CategoryID": 752,
          "CategoryName": "Salads",
          "CategoryRank": 6,
          "SubCategoryID": 2536,
          "SubCategoryName": "Vegetarian",
          "SubCategoryRank": 1
        }
      ],
      "Classifications": [],
      "ComplimentaryRecipes": null,
      "CookingMethod": null,
      "Copyright": null,
      "Courses": [
        "Salads & sides"
      ],
      "DietExchange": null,
      "DishDetails": [],
      "EndDate": "/Date(-62135575200000-0600)/",
      "HasVideo": false,
      "Ingredients": [
        {
          "FullMeasure": "1",
          "FullWeight": "",
          "IngredientGridHeaders": null,
          "IngredientID": 20044,
          "IngredientName": "English cucumber",
          "IngredientStep": 10,
          "LanguageId": 0,
          "PostPreparation": ", chopped",
          "PrePreparation": "",
          "QuantityNum": 1,
          "QuantityText": "1",
          "QuantityUnit": "",
          "RecipeIngredientID": 6194103,
          "TrialMeasure": "",
          "TrialWeight": ""
        },
        {
          "FullMeasure": "1/2 cup",
          "FullWeight": "",
          "IngredientGridHeaders": null,
          "IngredientID": 1206,
          "IngredientName": "green pepper",
          "IngredientStep": 20,
          "LanguageId": 0,
          "PostPreparation": "s",
          "PrePreparation": "chopped",
          "QuantityNum": 0,
          "QuantityText": "1/2",
          "QuantityUnit": "cup",
          "RecipeIngredientID": 6194100,
          "TrialMeasure": "",
          "TrialWeight": ""
        },
        {
          "FullMeasure": "1/2 cup",
          "FullWeight": "",
          "IngredientGridHeaders": null,
          "IngredientID": 1529,
          "IngredientName": "red onion",
          "IngredientStep": 30,
          "LanguageId": 0,
          "PostPreparation": "s",
          "PrePreparation": "thinly sliced",
          "QuantityNum": 0,
          "QuantityText": "1/2",
          "QuantityUnit": "cup",
          "RecipeIngredientID": 6194101,
          "TrialMeasure": "",
          "TrialWeight": ""
        },
        {
          "FullMeasure": "1/2 cup",
          "FullWeight": "",
          "IngredientGridHeaders": null,
          "IngredientID": 19,
          "IngredientName": "ATHENOS Traditional Crumbled Feta Cheese",
          "IngredientStep": 40,
          "LanguageId": 0,
          "PostPreparation": "",
          "PrePreparation": "",
          "QuantityNum": 0,
          "QuantityText": "1/2",
          "QuantityUnit": "cup",
          "RecipeIngredientID": 6194105,
          "TrialMeasure": "",
          "TrialWeight": ""
        },
        {
          "FullMeasure": "1/3 cup",
          "FullWeight": "",
          "IngredientGridHeaders": null,
          "IngredientID": 3846,
          "IngredientName": "Kalamata olives",
          "IngredientStep": 50,
          "LanguageId": 0,
          "PostPreparation": "",
          "PrePreparation": "halved pitted",
          "QuantityNum": 0,
          "QuantityText": "1/3",
          "QuantityUnit": "cup",
          "RecipeIngredientID": 6194102,
          "TrialMeasure": "",
          "TrialWeight": ""
        },
        {
          "FullMeasure": "1/4 cup",
          "FullWeight": "",
          "IngredientGridHeaders": null,
          "IngredientID": 19218,
          "IngredientName": "KRAFT Greek Vinaigrette with Feta Cheese and Oregano Dressing made with Extra Virgin Olive Oil",
          "IngredientStep": 60,
          "LanguageId": 0,
          "PostPreparation": "",
          "PrePreparation": "",
          "QuantityNum": 0,
          "QuantityText": "1/4",
          "QuantityUnit": "cup",
          "RecipeIngredientID": 6194104,
          "TrialMeasure": "",
          "TrialWeight": ""
        }
      ],
      "IsHealthyLiving": false,
      "KRLId": "553012",
      "KeyIngredients": [
        "Cheese",
        "Cucumber",
        "Olive",
        "Onion",
        "Peppers",
        "Vegetables"
      ],
      "Keywords": "olives,onions,peppers,ATHENOS Feta Cheese,cheese,cucumbers,dressing,feta cheese,green peppers,salad dressing,vinaigrette dressing,bell peppers,KRAFT GOOD SEASONS Salad Dressings,Side Dish",
      "LanguageId": 1,
      "LifeStyles": [],
      "NumberOfIngredients": 6,
      "NumberOfRatings": 0,
      "NumberOfRatingsWithComments": "0",
      "NumberOfServings": "4 servings",
      "NumberOfTrialServings": "",
      "NutritionBonus": null,
      "NutritionExchangeItemId": 0,
      "NutritionGridItems": null,
      "NutritionItems": [
        {
          "DisplayOrder": 1,
          "Document": null,
          "NutritionItemID": 3,
          "NutritionItemName": "Calories",
          "Predriscriptor": "",
          "Quantity": 140,
          "Unit": "          "
        },
        {
          "DisplayOrder": 2,
          "Document": "fat_cholesterol.html",
          "NutritionItemID": 4,
          "NutritionItemName": "Total fat",
          "Predriscriptor": "",
          "Quantity": 12,
          "Unit": "g         "
        },
        {
          "DisplayOrder": 3,
          "Document": "fat_cholesterol.html",
          "NutritionItemID": 9,
          "NutritionItemName": "Saturated fat",
          "Predriscriptor": "",
          "Quantity": 3,
          "Unit": "g         "
        },
        {
          "DisplayOrder": 7,
          "Document": "fat_cholesterol.html",
          "NutritionItemID": 2,
          "NutritionItemName": "Cholesterol",
          "Predriscriptor": "",
          "Quantity": 10,
          "Unit": "mg        "
        },
        {
          "DisplayOrder": 8,
          "Document": "sodium.html",
          "NutritionItemID": 8,
          "NutritionItemName": "Sodium",
          "Predriscriptor": "",
          "Quantity": 480,
          "Unit": "mg        "
        },
        {
          "DisplayOrder": 10,
          "Document": "carbs_sugars_fiber.html",
          "NutritionItemID": 1,
          "NutritionItemName": "Carbohydrate",
          "Predriscriptor": "",
          "Quantity": 7,
          "Unit": "g         "
        },
        {
          "DisplayOrder": 11,
          "Document": "carbs_sugars_fiber.html",
          "NutritionItemID": 7,
          "NutritionItemName": "Dietary fiber",
          "Predriscriptor": "",
          "Quantity": 2,
          "Unit": "g         "
        },
        {
          "DisplayOrder": 12,
          "Document": "carbs_sugars_fiber.html",
          "NutritionItemID": 5,
          "NutritionItemName": "Sugars",
          "Predriscriptor": "",
          "Quantity": 3,
          "Unit": "g         "
        },
        {
          "DisplayOrder": 13,
          "Document": null,
          "NutritionItemID": 6,
          "NutritionItemName": "Protein",
          "Predriscriptor": "",
          "Quantity": 5,
          "Unit": "g         "
        },
        {
          "DisplayOrder": 14,
          "Document": null,
          "NutritionItemID": 10,
          "NutritionItemName": "Vitamin A",
          "Predriscriptor": "",
          "Quantity": 6,
          "Unit": "%DV       "
        },
        {
          "DisplayOrder": 15,
          "Document": null,
          "NutritionItemID": 11,
          "NutritionItemName": "Vitamin C",
          "Predriscriptor": "",
          "Quantity": 30,
          "Unit": "%DV       "
        },
        {
          "DisplayOrder": 16,
          "Document": "dairy_and_calcium.html",
          "NutritionItemID": 12,
          "NutritionItemName": "Calcium",
          "Predriscriptor": "",
          "Quantity": 6,
          "Unit": "%DV       "
        },
        {
          "DisplayOrder": 17,
          "Document": null,
          "NutritionItemID": 13,
          "NutritionItemName": "Iron",
          "Predriscriptor": "",
          "Quantity": 4,
          "Unit": "%DV       "
        }
      ],
      "NutritionServingText": " ",
      "PrepStepImage": null,
      "PreparationDescription": "Combine ingredients. ",
      "PreparationPreText": "",
      "PreparationSteps": [
        {
          "Description": "Combine ingredients. ",
          "PreparationStepImage": {
            "PictureFormats": [],
            "author": null,
            "id": null,
            "imageType": null,
            "mimeType": null,
            "publicationDate": null,
            "status": null,
            "title": null,
            "type": null
          },
          "Sequence": 1
        }
      ],
      "PreparationTime": 10,
      "Promotion": null,
      "Ratings": {
        "TotalCount": 0,
        "PageCount": 10,
        "PageNo": 1,
        "Rating": []
      },
      "RecipeDisplayFormatId": 5,
      "RecipeId": 199938,
      "RecipeName": "Cucumber-Feta Salad",
      "RecipeType": 0,
      "RelatedData": {
        "RelatedBrands": null,
        "RelatedProducts": null,
        "RelatedRecipes": {
          "DefaultTopCount": 5,
          "Recipe": [
            {
              "AverageRating": 4.6,
              "HasVideo": false,
              "IsHealthyLiving": true,
              "NumberOfRatings": 105,
              "PhotoName": "92091.jpg",
              "PhotoUrl": "http://assets.kraftfoods.com/recipe_images/opendeploy/92091.jpg",
              "RecipeId": 92091,
              "RecipeName": "Easy Greek Cucumber-Tomato Salad",
              "SEOName": "easy-greek-cucumber-tomato-salad-92091",
              "ThumbnailPhoto": null
            },
            {
              "AverageRating": 4.4,
              "HasVideo": false,
              "IsHealthyLiving": true,
              "NumberOfRatings": 85,
              "PhotoName": "75168.jpg",
              "PhotoUrl": "http://assets.kraftfoods.com/recipe_images/opendeploy/75168.jpg",
              "RecipeId": 75168,
              "RecipeName": "Crisp and Easy Cucumber Salad",
              "SEOName": "crisp-easy-cucumber-salad-75168",
              "ThumbnailPhoto": null
            },
            {
              "AverageRating": 4.6,
              "HasVideo": false,
              "IsHealthyLiving": true,
              "NumberOfRatings": 9,
              "PhotoName": "Greek_Feta_Salad.jpg",
              "PhotoUrl": "http://assets.kraftfoods.com/recipe_images/opendeploy/Greek_Feta_Salad.jpg",
              "RecipeId": 90209,
              "RecipeName": "Greek Feta Salad",
              "SEOName": "greek-feta-salad-90209",
              "ThumbnailPhoto": null
            },
            {
              "AverageRating": 4.6,
              "HasVideo": false,
              "IsHealthyLiving": true,
              "NumberOfRatings": 301,
              "PhotoName": "75143.jpg",
              "PhotoUrl": "http://assets.kraftfoods.com/recipe_images/opendeploy/75143.jpg",
              "RecipeId": 75143,
              "RecipeName": "Zesty Feta and Vegetable Rotini Salad",
              "SEOName": "zesty-feta-vegetable-rotini-salad-75143",
              "ThumbnailPhoto": null
            },
            {
              "AverageRating": 4.5,
              "HasVideo": false,
              "IsHealthyLiving": false,
              "NumberOfRatings": 2,
              "PhotoName": "Grilled-Steak-Tzatziki-Sauce-53259.jpg",
              "PhotoUrl": "http://assets.kraftfoods.com/recipe_images/opendeploy/Grilled-Steak-Tzatziki-Sauce-53259.jpg",
              "RecipeId": 118794,
              "RecipeName": "Grilled Steak with Tzatziki Salad",
              "SEOName": "grilled-steak-tzatziki-salad-118794",
              "ThumbnailPhoto": null
            }
          ],
          "TotalCount": 1910
        }
      },
      "RiseIngredients": [],
      "RiseTaxonomy": [],
      "Riserecipe": [
        {
          "GRIN": 553012,
          "RecipeId": 199938,
          "RecipeIndustrySector": "Retail",
          "RecipeType": "Internal"
        }
      ],
      "RomanceText": "Combine green peppers, red onions, Kalamata olives and more for this Greek Cucumber-Feta Salad. You can even make this Cucumber-Feta Salad ahead of time!",
      "SEOName": "cucumber-feta-salad-199938",
      "Tips": [
        {
          "RecipeId": 199938,
          "Sequence": 20,
          "TipDescription": "Salad can be prepared ahead of time.  Refrigerate up to 24 hours before serving. ",
          "TipID": 1,
          "TipName": "Make Ahead"
        },
        {
          "RecipeId": 199938,
          "Sequence": 30,
          "TipDescription": "Add 1/2 cup halved grape tomatoes to salad.",
          "TipID": 2,
          "TipName": "Special Extra"
        },
        {
          "RecipeId": 199938,
          "Sequence": 40,
          "TipDescription": "Serve on a bed of mixed greens.",
          "TipID": 3,
          "TipName": "Special Extra"
        }
      ],
      "TotalTime": 10,
      "TradeMarkInfo": null,
      "Video": [],
      "Yield": " 4 servings"
    }
  ]
}