{
  "Metadata": {
    "PageCount": 1,
    "PageNo": 0,
    "TotalCount": 0
  },
  "Recipes": [
    {
      "AdServingKeywords": "Chocolate,Cream Cheese,Dessert,Easy,Cheesecake,Frozen Dessert,All Seasons,Bakers,Cool Whip,Philadelphia,Kid-Friendly,Kids Can Cook",
      "AlternateLanguageRecipes": [],
      "Assets": [
        {
          "PictureFormats": [
            {
              "rendition": "640x428",
              "url": "http://assets.kraftfoods.com/recipe_images/opendeploy/64200_640x428.jpg"
            },
            {
              "rendition": "600x250",
              "url": "http://assets.kraftfoods.com/recipe_images/opendeploy/64200_600x250.jpg"
            },
            {
              "rendition": "290x194",
              "url": "http://assets.kraftfoods.com/recipe_images/opendeploy/64200_290x194.jpg"
            }
          ],
          "author": "BulKUpload",
          "id": "2",
          "imageType": "Primary",
          "mimeType": "image/jpeg",
          "publicationDate": null,
          "status": "1",
          "title": "64200",
          "type": "image"
        },
        {
          "PictureFormats": [
            {
              "rendition": "140x90",
              "url": "http://assets.kraftfoods.com/recipe_images/opendeploy/64200_KRL_K25493V0_OR1_OH_140x90.jpg"
            },
            {
              "rendition": "300x250",
              "url": "http://assets.kraftfoods.com/recipe_images/opendeploy/64200_KRL_K25493V0_OR1_OH_300x250.jpg"
            },
            {
              "rendition": "960x300",
              "url": "http://assets.kraftfoods.com/recipe_images/opendeploy/64200_KRL_K25493V0_OR1_OH_960x300.jpg"
            }
          ],
          "author": null,
          "id": "2",
          "imageType": "Primary",
          "mimeType": "image/jpeg",
          "publicationDate": null,
          "status": "1",
          "title": "64200_KRL_K25493V0_OR1_OH",
          "type": "image"
        },
        {
          "PictureFormats": [
            {
              "rendition": "300x200",
              "url": "http://assets.kraftfoods.com/recipe_images/64200.jpg"
            }
          ],
          "author": "BulKUpload",
          "id": "0",
          "imageType": "LANDSCAPE",
          "mimeType": "image/jpeg",
          "publicationDate": null,
          "status": "1",
          "title": "64200.jpg",
          "type": "image"
        }
      ],
      "AverageRating": 4.3,
      "BrandId": 1,
      "Branding": null,
      "CSSSkins": null,
      "CarbCounter": null,
      "Categories": [
        {
          "CategoryID": 3,
          "CategoryName": "Cookies/Candy/Other Desserts",
          "CategoryRank": 6,
          "SubCategoryID": 371,
          "SubCategoryName": "Frozen Pops/Sandwiches",
          "SubCategoryRank": 60
        },
        {
          "CategoryID": 11,
          "CategoryName": "Primary",
          "CategoryRank": 0,
          "SubCategoryID": 103,
          "SubCategoryName": "Desserts",
          "SubCategoryRank": 40
        },
        {
          "CategoryID": 759,
          "CategoryName": "Desserts",
          "CategoryRank": 13,
          "SubCategoryID": 2578,
          "SubCategoryName": "Frozen",
          "SubCategoryRank": 1
        },
        {
          "CategoryID": 1759,
          "CategoryName": "Philly Desserts",
          "CategoryRank": 0,
          "SubCategoryID": 16840,
          "SubCategoryName": "Brick Cream Cheese",
          "SubCategoryRank": 0
        },
        {
          "CategoryID": 1759,
          "CategoryName": "Philly Desserts",
          "CategoryRank": 0,
          "SubCategoryID": 16843,
          "SubCategoryName": "Use for All",
          "SubCategoryRank": 0
        },
        {
          "CategoryID": 1760,
          "CategoryName": "Philly Cheesecakes",
          "CategoryRank": 0,
          "SubCategoryID": 16844,
          "SubCategoryName": "Brick Cream Cheese",
          "SubCategoryRank": 0
        },
        {
          "CategoryID": 1760,
          "CategoryName": "Philly Cheesecakes",
          "CategoryRank": 0,
          "SubCategoryID": 16847,
          "SubCategoryName": "Use for all",
          "SubCategoryRank": 0
        }
      ],
      "Classifications": [],
      "ComplimentaryRecipes": null,
      "CookingMethod": null,
      "Copyright": null,
      "Courses": [
        "Desserts"
      ],
      "DietExchange": null,
      "DishDetails": [
        {
          "Text": "desserts",
          "Url": "/recipes/dessert/main.aspx"
        },
        {
          "Text": "fruity desserts",
          "Url": "/recipes/dessert/fruitydesserts.aspx"
        },
        {
          "Text": "gelatin desserts",
          "Url": "/recipes/dessert/gelatindesserts.aspx"
        },
        {
          "Text": "layered desserts",
          "Url": "/recipes/dessert/layereddesserts.aspx"
        },
        {
          "Text": "brownie recipes",
          "Url": "/recipes/dessert/brownie-recipes/main.aspx"
        },
        {
          "Text": "budget desserts",
          "Url": "/recipes/budget/budget-desserts.aspx"
        },
        {
          "Text": "no bake desserts",
          "Url": "/recipes/dessert/nobakedesserts.aspx"
        },
        {
          "Text": "pumpkin recipes",
          "Url": "/recipes/dessert/pumpkin-recipes.aspx"
        },
        {
          "Text": "chocolate cake recipes",
          "Url": "/recipes/dessert/chocolate-cake-recipes/main.aspx"
        },
        {
          "Text": "cheesecake recipes",
          "Url": "/recipes/dessert/cheesecake-center/cheesecake-recipes/main.aspx"
        },
        {
          "Text": "chocolate lovers recipes",
          "Url": "/recipes/dessert/chocolate-center/chocolateloversrecipes.aspx"
        },
        {
          "Text": "classic desserts",
          "Url": "/recipes/dessert/classicdesserts.aspx"
        },
        {
          "Text": "cookie ball recipes",
          "Url": "/recipes/dessert/cookie-ball-recipes/main.aspx"
        },
        {
          "Text": "cookie recipes",
          "Url": "/recipes/dessert/cookie-recipes/main.aspx"
        },
        {
          "Text": "cupcake recipes",
          "Url": "/recipes/dessert/cupcake-recipes/main.aspx"
        },
        {
          "Text": "healthy living desserts",
          "Url": "/healthy-living-ideas/diabetes-center/recipes/dessert-recipes.aspx"
        },
        {
          "Text": "cheesecake recipes",
          "Url": "/recipes/dessert/cheesecake-center/cheesecake-recipes/main.aspx"
        },
        {
          "Text": "no bake cheesecake recipes",
          "Url": "/recipes/dessert/cheesecake-center/no-bake-cheesecake-recipes.aspx"
        },
        {
          "Text": "strawberry cheesecake recipes",
          "Url": "/recipes/dessert/cheesecake-center/strawberry-cheesecake-recipes.aspx"
        },
        {
          "Text": "cheese cake for all seasons",
          "Url": "/recipes/dessert/cheesecake-center/cheesecakeforallseasons.aspx"
        },
        {
          "Text": "chocolate cheesecake recipes",
          "Url": "/recipes/dessert/cheesecake-center/chocolate-cheesecake-recipes.aspx"
        },
        {
          "Text": "pumpkin cheesecake recipes",
          "Url": "/recipes/dessert/cheesecake-center/pumpkin-cheesecake-recipes.aspx"
        }
      ],
      "EndDate": "/Date(-62135575200000-0600)/",
      "HasVideo": false,
      "Ingredients": [
        {
          "FullMeasure": "4  oz.",
          "FullWeight": "",
          "IngredientGridHeaders": null,
          "IngredientID": 628,
          "IngredientName": "PHILADELPHIA Cream Cheese",
          "IngredientStep": 10,
          "LanguageId": 0,
          "PostPreparation": ", softened",
          "PrePreparation": "(1/2 of 8-oz. pkg.)",
          "QuantityNum": 4,
          "QuantityText": "4 ",
          "QuantityUnit": "oz.",
          "RecipeIngredientID": 5271918,
          "TrialMeasure": "",
          "TrialWeight": ""
        },
        {
          "FullMeasure": "2 Tbsp.",
          "FullWeight": "",
          "IngredientGridHeaders": null,
          "IngredientID": 1845,
          "IngredientName": "sugar",
          "IngredientStep": 20,
          "LanguageId": 0,
          "PostPreparation": "",
          "PrePreparation": "",
          "QuantityNum": 2,
          "QuantityText": "2",
          "QuantityUnit": "Tbsp.",
          "RecipeIngredientID": 5271922,
          "TrialMeasure": "",
          "TrialWeight": ""
        },
        {
          "FullMeasure": "1 cup",
          "FullWeight": "",
          "IngredientGridHeaders": null,
          "IngredientID": 140,
          "IngredientName": "COOL WHIP Whipped Topping",
          "IngredientStep": 30,
          "LanguageId": 0,
          "PostPreparation": "",
          "PrePreparation": "thawed",
          "QuantityNum": 1,
          "QuantityText": "1",
          "QuantityUnit": "cup",
          "RecipeIngredientID": 5271919,
          "TrialMeasure": "",
          "TrialWeight": ""
        },
        {
          "FullMeasure": "20 ",
          "FullWeight": "",
          "IngredientGridHeaders": null,
          "IngredientID": 5428,
          "IngredientName": "chocolate chip cookies (2 inch)",
          "IngredientStep": 40,
          "LanguageId": 0,
          "PostPreparation": "",
          "PrePreparation": "",
          "QuantityNum": 20,
          "QuantityText": "20 ",
          "QuantityUnit": "",
          "RecipeIngredientID": 5271921,
          "TrialMeasure": "",
          "TrialWeight": ""
        },
        {
          "FullMeasure": "1 tub",
          "FullWeight": "",
          "IngredientGridHeaders": null,
          "IngredientID": 8120,
          "IngredientName": "BAKER'S Milk Chocolate Dipping Chocolate",
          "IngredientStep": 50,
          "LanguageId": 0,
          "PostPreparation": ", melted",
          "PrePreparation": "(7 oz.)",
          "QuantityNum": 1,
          "QuantityText": "1",
          "QuantityUnit": "tub",
          "RecipeIngredientID": 5271920,
          "TrialMeasure": "",
          "TrialWeight": ""
        }
      ],
      "IsHealthyLiving": false,
      "KRLId": "526138",
      "KeyIngredients": [
        "Chocolate",
        "Cream Cheese"
      ],
      "Keywords": "PHILADELPHIA Cream Cheese,cheese,chocolate,cookies,COOL WHIP,cream cheese,sugar,whipped topping,chocolate chip cookies,milk chocolate,chocolate-milk,BAKER'S Dipping Chocolate,Dessert,Easy,Cheesecake,Frozen Dessert,All Seasons,Kid-Friendly,Kids Can Cook",
      "LanguageId": 1,
      "LifeStyles": [],
      "NumberOfIngredients": 5,
      "NumberOfRatings": 112,
      "NumberOfRatingsWithComments": "97",
      "NumberOfServings": "10 servings",
      "NumberOfTrialServings": "",
      "NutritionBonus": null,
      "NutritionExchangeItemId": 0,
      "NutritionGridItems": null,
      "NutritionItems": [
        {
          "DisplayOrder": 1,
          "Document": null,
          "NutritionItemID": 3,
          "NutritionItemName": "Calories",
          "Predriscriptor": "",
          "Quantity": 230,
          "Unit": "          "
        },
        {
          "DisplayOrder": 2,
          "Document": "fat_cholesterol.html",
          "NutritionItemID": 4,
          "NutritionItemName": "Total fat",
          "Predriscriptor": "",
          "Quantity": 14,
          "Unit": "g         "
        },
        {
          "DisplayOrder": 3,
          "Document": "fat_cholesterol.html",
          "NutritionItemID": 9,
          "NutritionItemName": "Saturated fat",
          "Predriscriptor": "",
          "Quantity": 8,
          "Unit": "g         "
        },
        {
          "DisplayOrder": 7,
          "Document": "fat_cholesterol.html",
          "NutritionItemID": 2,
          "NutritionItemName": "Cholesterol",
          "Predriscriptor": "",
          "Quantity": 10,
          "Unit": "mg        "
        },
        {
          "DisplayOrder": 8,
          "Document": "sodium.html",
          "NutritionItemID": 8,
          "NutritionItemName": "Sodium",
          "Predriscriptor": "",
          "Quantity": 125,
          "Unit": "mg        "
        },
        {
          "DisplayOrder": 10,
          "Document": "carbs_sugars_fiber.html",
          "NutritionItemID": 1,
          "NutritionItemName": "Carbohydrate",
          "Predriscriptor": "",
          "Quantity": 25,
          "Unit": "g         "
        },
        {
          "DisplayOrder": 11,
          "Document": "carbs_sugars_fiber.html",
          "NutritionItemID": 7,
          "NutritionItemName": "Dietary fiber",
          "Predriscriptor": "Less than",
          "Quantity": 1,
          "Unit": "g         "
        },
        {
          "DisplayOrder": 12,
          "Document": "carbs_sugars_fiber.html",
          "NutritionItemID": 5,
          "NutritionItemName": "Sugars",
          "Predriscriptor": "",
          "Quantity": 16,
          "Unit": "g         "
        },
        {
          "DisplayOrder": 13,
          "Document": null,
          "NutritionItemID": 6,
          "NutritionItemName": "Protein",
          "Predriscriptor": "",
          "Quantity": 3,
          "Unit": "g         "
        },
        {
          "DisplayOrder": 14,
          "Document": null,
          "NutritionItemID": 10,
          "NutritionItemName": "Vitamin A",
          "Predriscriptor": "",
          "Quantity": 2,
          "Unit": "%DV       "
        },
        {
          "DisplayOrder": 15,
          "Document": null,
          "NutritionItemID": 11,
          "NutritionItemName": "Vitamin C",
          "Predriscriptor": "",
          "Quantity": 0,
          "Unit": "%DV       "
        },
        {
          "DisplayOrder": 16,
          "Document": "dairy_and_calcium.html",
          "NutritionItemID": 12,
          "NutritionItemName": "Calcium",
          "Predriscriptor": "",
          "Quantity": 2,
          "Unit": "%DV       "
        },
        {
          "DisplayOrder": 17,
          "Document": null,
          "NutritionItemID": 13,
          "NutritionItemName": "Iron",
          "Predriscriptor": "",
          "Quantity": 4,
          "Unit": "%DV       "
        }
      ],
      "NutritionServingText": null,
      "PrepStepImage": null,
      "PreparationDescription": "Beat cream cheese and sugar with mixer until blended.  Stir in COOL WHIP.$Cover bottom (flat) side of each of 10 cookies with about 2 Tbsp. cream cheese mixture; top each with second cookie to form sandwich.   Dip half of each sandwich in chocolate; gently shake off excess chocolate.  Place in single layer in airtight container.$Freeze 3 hours or until firm. ",
      "PreparationPreText": "",
      "PreparationSteps": [
        {
          "Description": "Beat cream cheese and sugar with mixer until blended.  Stir in COOL WHIP.",
          "PreparationStepImage": {
            "PictureFormats": [],
            "author": null,
            "id": null,
            "imageType": null,
            "mimeType": null,
            "publicationDate": null,
            "status": null,
            "title": null,
            "type": null
          },
          "Sequence": 1
        },
        {
          "Description": "Cover bottom (flat) side of each of 10 cookies with about 2 Tbsp. cream cheese mixture; top each with second cookie to form sandwich.   Dip half of each sandwich in chocolate; gently shake off excess chocolate.  Place in single layer in airtight container.",
          "PreparationStepImage": {
            "PictureFormats": [],
            "author": null,
            "id": null,
            "imageType": null,
            "mimeType": null,
            "publicationDate": null,
            "status": null,
            "title": null,
            "type": null
          },
          "Sequence": 2
        },
        {
          "Description": "Freeze 3 hours or until firm. ",
          "PreparationStepImage": {
            "PictureFormats": [],
            "author": null,
            "id": null,
            "imageType": null,
            "mimeType": null,
            "publicationDate": null,
            "status": null,
            "title": null,
            "type": null
          },
          "Sequence": 3
        }
      ],
      "PreparationTime": 10,
      "Promotion": null,
      "Ratings": {
        "TotalCount": 112,
        "PageCount": 10,
        "PageNo": 1,
        "Rating": [
          {
            "Comment": "undeniably delicious, what's not to like, cream cheese, Cool Whip, and chocolate. Everyone loved them!",
            "DisplayName": true,
            "RatingValue": 5,
            "SubmitDate": "/Date(1321737476000-0600)/",
            "UpdatedDate": "/Date(1321737476000-0600)/",
            "UserName": "trivers50"
          },
          {
            "Comment": "These are delicious and so easy to make. My kids loved them.",
            "DisplayName": true,
            "RatingValue": 5,
            "SubmitDate": "/Date(1315103280000-0500)/",
            "UpdatedDate": "/Date(1315103280000-0500)/",
            "UserName": "Rosiecheex"
          },
          {
            "Comment": "I saw a link for this recipe somewhere, and it had my favorite words in it: chocolate and cheesecake. When I read how easy it was to make, I had to try it. I LOVED them and so did everyone at my cookout!  ",
            "DisplayName": true,
            "RatingValue": 5,
            "SubmitDate": "/Date(1309659566000-0500)/",
            "UpdatedDate": "/Date(1309659566000-0500)/",
            "UserName": "TheMrsDay"
          },
          {
            "Comment": "",
            "DisplayName": true,
            "RatingValue": 4,
            "SubmitDate": "/Date(1267124325000-0600)/",
            "UpdatedDate": "/Date(1267124325000-0600)/",
            "UserName": "jwarren0929"
          },
          {
            "Comment": "They never last long!  Delicious!",
            "DisplayName": true,
            "RatingValue": 5,
            "SubmitDate": "/Date(1257370168000-0600)/",
            "UpdatedDate": "/Date(1257370168000-0600)/",
            "UserName": "Nessa1600"
          },
          {
            "Comment": "I made these for work, and they went on and on about how good they were!!!  No one knew how simple and easy they were!",
            "DisplayName": true,
            "RatingValue": 5,
            "SubmitDate": "/Date(1256308060000-0500)/",
            "UpdatedDate": "/Date(1256308060000-0500)/",
            "UserName": "saradan624"
          },
          {
            "Comment": "A nice frozen treat!",
            "DisplayName": false,
            "RatingValue": 4,
            "SubmitDate": "/Date(1255908137000-0500)/",
            "UpdatedDate": "/Date(1255908137000-0500)/",
            "UserName": "agurenef"
          },
          {
            "Comment": "I made these for a playdate.  The kids enjoyed them...moms did, too.  I didn't dip them in chocolate, though.  Instead I rolled the filling in sprinkles and crushed m&m's.",
            "DisplayName": true,
            "RatingValue": 3,
            "SubmitDate": "/Date(1254075023000-0500)/",
            "UpdatedDate": "/Date(1254075023000-0500)/",
            "UserName": "ecamensky"
          },
          {
            "Comment": "I've made these for two different parties and they are gone as soon as the tray hits the table. Sooo good!",
            "DisplayName": true,
            "RatingValue": 5,
            "SubmitDate": "/Date(1252457115000-0500)/",
            "UpdatedDate": "/Date(1252457115000-0500)/",
            "UserName": "jadismoon"
          },
          {
            "Comment": "",
            "DisplayName": true,
            "RatingValue": 5,
            "SubmitDate": "/Date(1249385355000-0500)/",
            "UpdatedDate": "/Date(1249385355000-0500)/",
            "UserName": "feobe"
          }
        ]
      },
      "RecipeDisplayFormatId": 5,
      "RecipeId": 64200,
      "RecipeName": "Cheesecake Sandwiches",
      "RecipeType": 0,
      "RelatedData": {
        "RelatedBrands": null,
        "RelatedProducts": null,
        "RelatedRecipes": {
          "DefaultTopCount": 5,
          "Recipe": [
            {
              "AverageRating": 5,
              "HasVideo": false,
              "IsHealthyLiving": false,
              "NumberOfRatings": 4,
              "PhotoName": "155124.jpg",
              "PhotoUrl": "http://assets.kraftfoods.com/recipe_images/opendeploy/155124.jpg",
              "RecipeId": 155124,
              "RecipeName": "Peppermint Bark Cheesecake",
              "SEOName": "peppermint-bark-cheesecake-155124",
              "ThumbnailPhoto": null
            },
            {
              "AverageRating": 5,
              "HasVideo": false,
              "IsHealthyLiving": false,
              "NumberOfRatings": 1,
              "PhotoName": "154248.jpg",
              "PhotoUrl": "http://assets.kraftfoods.com/recipe_images/opendeploy/154248.jpg",
              "RecipeId": 154248,
              "RecipeName": "Best Coffeehouse Cheesecake",
              "SEOName": "best-coffeehouse-cheesecake-154248",
              "ThumbnailPhoto": null
            },
            {
              "AverageRating": 4.4,
              "HasVideo": false,
              "IsHealthyLiving": false,
              "NumberOfRatings": 9,
              "PhotoName": "63272_MXM_44326v0E.jpg",
              "PhotoUrl": "http://assets.kraftfoods.com/recipe_images/opendeploy/63272_MXM_44326v0E.jpg",
              "RecipeId": 63272,
              "RecipeName": "PHILADELPHIA® White Chocolate-Strawberry Swirl Cheesecake",
              "SEOName": "philadelphia-white-chocolate-strawberry-swirl-cheesecake-63272",
              "ThumbnailPhoto": null
            },
            {
              "AverageRating": 5,
              "HasVideo": false,
              "IsHealthyLiving": false,
              "NumberOfRatings": 7,
              "PhotoName": "155141.jpg",
              "PhotoUrl": "http://assets.kraftfoods.com/recipe_images/opendeploy/155141.jpg",
              "RecipeId": 155141,
              "RecipeName": "Mini Mocha Cheesecakes",
              "SEOName": "mini-mocha-cheesecakes-155141",
              "ThumbnailPhoto": null
            },
            {
              "AverageRating": 4,
              "HasVideo": false,
              "IsHealthyLiving": false,
              "NumberOfRatings": 135,
              "PhotoName": "PHILADELPHIA_OREO_No-Bake_Cheesecake.jpg",
              "PhotoUrl": "http://assets.kraftfoods.com/recipe_images/opendeploy/PHILADELPHIA_OREO_No-Bake_Cheesecake.jpg",
              "RecipeId": 105197,
              "RecipeName": "PHILADELPHIA-OREO No-Bake Cheesecake",
              "SEOName": "philadelphia-oreo-no-bake-cheesecake-105197",
              "ThumbnailPhoto": null
            }
          ],
          "TotalCount": 2122
        }
      },
      "RiseIngredients": [],
      "RiseTaxonomy": [],
      "Riserecipe": [
        {
          "GRIN": 526138,
          "RecipeId": 64200,
          "RecipeIndustrySector": "Retail",
          "RecipeType": "Internal"
        }
      ],
      "RomanceText": "Those frozen cookie sandwiches you had as a kid are all grown up, with cheesecake filling and a dip of rich chocolate. Just like you, evolved for the better.",
      "SEOName": "cheesecake-sandwiches-64200",
      "Tips": [
        {
          "RecipeId": 64200,
          "Sequence": 10,
          "TipDescription": "With their built-in portion control, these cheesecake sandwiches make great treats!",
          "TipID": 2,
          "TipName": "Size Wise"
        },
        {
          "RecipeId": 64200,
          "Sequence": 20,
          "TipDescription": "Prepare as directed, rolling or lightly pressing edges of sandwiches in colored sprinkles, miniature chocolate chips, chopped PLANTERS Nuts, BAKER'S ANGEL FLAKE Coconut or small candies before freezing.",
          "TipID": 1,
          "TipName": "Fun Idea"
        },
        {
          "RecipeId": 64200,
          "Sequence": 30,
          "TipDescription": "Store leftover chocolate in refrigerator up to 2 weeks.  To remelt, follow directions on label.  Use as a dip for additional chocolate chip cookies, other varieties of cookies, cut-up fresh fruit or cake cubes.",
          "TipID": 3,
          "TipName": "Creative Leftovers"
        },
        {
          "RecipeId": 64200,
          "Sequence": 40,
          "TipDescription": "Substitute 6 squares melted BAKER'S Semi-Sweet Chocolate for the tub of dipping chocolate.",
          "TipID": 4,
          "TipName": "Substitute"
        }
      ],
      "TotalTime": 190,
      "TradeMarkInfo": null,
      "Video": [],
      "Yield": "10 servings"
    }
  ]
}