{
  "Metadata": {
    "PageCount": 1,
    "PageNo": 0,
    "TotalCount": 0
  },
  "Recipes": [
    {
      "AdServingKeywords": "Cheese,Cream Cheese,Onion,Parmesan,Tomato,Vegetables,Appetizer,Easy,Italian,Dip,All Seasons,Picnic,Kraft Cheese,Kraft Salad Dressing,Kraft Shredded Cheese,Philadelphia,Cooking for a Crowd,Kid-Friendly,Kids Can Cook,Quick and Easy,Creamy",
      "AlternateLanguageRecipes": [],
      "Assets": [
        {
          "PictureFormats": [
            {
              "rendition": "290x194",
              "url": "http://assets.kraftfoods.com/recipe_images/opendeploy/105617_290x194.jpg"
            },
            {
              "rendition": "640x428",
              "url": "http://assets.kraftfoods.com/recipe_images/opendeploy/105617_640x428.jpg"
            },
            {
              "rendition": "600x250",
              "url": "http://assets.kraftfoods.com/recipe_images/opendeploy/105617_600x250.jpg"
            }
          ],
          "author": "BulKUpload",
          "id": "2",
          "imageType": "Primary",
          "mimeType": "image/jpeg",
          "publicationDate": null,
          "status": "1",
          "title": "105617",
          "type": "image"
        },
        {
          "PictureFormats": [
            {
              "rendition": "140x90",
              "url": "http://assets.kraftfoods.com/recipe_images/opendeploy/105617_MXM_K53933V0_OR1_CR_140x90.jpg"
            },
            {
              "rendition": "300x250",
              "url": "http://assets.kraftfoods.com/recipe_images/opendeploy/105617_MXM_K53933V0_OR1_CR_300x250.jpg"
            },
            {
              "rendition": "960x300",
              "url": "http://assets.kraftfoods.com/recipe_images/opendeploy/105617_MXM_K53933V0_OR1_CR_960x300.jpg"
            }
          ],
          "author": null,
          "id": "2",
          "imageType": "Primary",
          "mimeType": "image/jpeg",
          "publicationDate": null,
          "status": "1",
          "title": "105617_MXM_K53933V0_OR1_CR",
          "type": "image"
        },
        {
          "PictureFormats": [
            {
              "rendition": "300x200",
              "url": "http://assets.kraftfoods.com/recipe_images/105617.jpg"
            }
          ],
          "author": "BulKUpload",
          "id": "0",
          "imageType": "LANDSCAPE",
          "mimeType": "image/jpeg",
          "publicationDate": null,
          "status": "1",
          "title": "105617.jpg",
          "type": "image"
        }
      ],
      "AverageRating": 4.6,
      "BrandId": 1,
      "Branding": null,
      "CSSSkins": null,
      "CarbCounter": null,
      "Categories": [
        {
          "CategoryID": 6,
          "CategoryName": "Appetizers/Snacks",
          "CategoryRank": 1,
          "SubCategoryID": 49,
          "SubCategoryName": "Cold Dips",
          "SubCategoryRank": 20
        },
        {
          "CategoryID": 11,
          "CategoryName": "Primary",
          "CategoryRank": 0,
          "SubCategoryID": 96,
          "SubCategoryName": "Appetizers & Snacks",
          "SubCategoryRank": 10
        },
        {
          "CategoryID": 748,
          "CategoryName": "Finger Food, Dips & Appetisers",
          "CategoryRank": 2,
          "SubCategoryID": 2524,
          "SubCategoryName": "Cold",
          "SubCategoryRank": 1
        },
        {
          "CategoryID": 1761,
          "CategoryName": "Philly Appetizers",
          "CategoryRank": 0,
          "SubCategoryID": 16848,
          "SubCategoryName": "Brick Cream Cheese",
          "SubCategoryRank": 0
        },
        {
          "CategoryID": 1761,
          "CategoryName": "Philly Appetizers",
          "CategoryRank": 0,
          "SubCategoryID": 16853,
          "SubCategoryName": "Use for All",
          "SubCategoryRank": 0
        }
      ],
      "Classifications": [],
      "ComplimentaryRecipes": [
        {
          "AverageRating": 0,
          "HasVideo": false,
          "IsHealthyLiving": false,
          "NumberOfRatings": 0,
          "PhotoName": null,
          "PhotoUrl": null,
          "RecipeId": 160392,
          "RecipeName": null,
          "SEOName": "grilled-roasted-garlic-potato-salad-160392",
          "ThumbnailPhoto": "grilled-roasted-garlic-potato-salad-64854v0.jpg"
        }
      ],
      "CookingMethod": null,
      "Copyright": null,
      "Courses": [
        "Appetizers"
      ],
      "DietExchange": null,
      "DishDetails": [
        {
          "Text": "appetizers",
          "Url": "/recipes/appetizers/main.aspx"
        },
        {
          "Text": "cold appetizers",
          "Url": "/recipes/appetizers/coldappetizers.aspx"
        },
        {
          "Text": "cheese plates",
          "Url": "/recipes/appetizers/entertainingcheeseplates.aspx"
        },
        {
          "Text": "hot appetizers",
          "Url": "/recipes/appetizers/hotappetizers.aspx"
        },
        {
          "Text": "quick appetizers",
          "Url": "/recipes/appetizers/quick.aspx"
        },
        {
          "Text": "salsa recipes",
          "Url": "/recipes/appetizers/salsa-recipes/main.aspx"
        },
        {
          "Text": "seafood appetizers",
          "Url": "/recipes/dinner/seafood/appetizers/main.aspx"
        },
        {
          "Text": "dip recipes",
          "Url": "/recipes/appetizers/dip-recipes/main.aspx"
        },
        {
          "Text": "dip recipes",
          "Url": "/recipes/appetizers/dip-recipes/main.aspx"
        },
        {
          "Text": "salsa recipes",
          "Url": "/recipes/appetizers/salsa-recipes/main.aspx"
        },
        {
          "Text": "VELVEETA appetizers",
          "Url": "/recipes/appetizers/velveeta-recipes/main.aspx"
        }
      ],
      "EndDate": "/Date(-62135575200000-0600)/",
      "HasVideo": false,
      "Ingredients": [
        {
          "FullMeasure": null,
          "FullWeight": null,
          "IngredientGridHeaders": null,
          "IngredientID": 68324,
          "IngredientName": "(8 oz.) PHILADELPHIA Cream Cheese, softened",
          "IngredientStep": 10,
          "LanguageId": 0,
          "PostPreparation": "",
          "PrePreparation": "",
          "QuantityNum": 1,
          "QuantityText": "1",
          "QuantityUnit": "pkg.",
          "RecipeIngredientID": 108817,
          "TrialMeasure": null,
          "TrialWeight": null
        },
        {
          "FullMeasure": null,
          "FullWeight": null,
          "IngredientGridHeaders": null,
          "IngredientID": 69005,
          "IngredientName": "plum tomatoes, chopped",
          "IngredientStep": 20,
          "LanguageId": 0,
          "PostPreparation": "",
          "PrePreparation": "",
          "QuantityNum": 2,
          "QuantityText": "2",
          "QuantityUnit": "",
          "RecipeIngredientID": 108036,
          "TrialMeasure": null,
          "TrialWeight": null
        },
        {
          "FullMeasure": null,
          "FullWeight": null,
          "IngredientGridHeaders": null,
          "IngredientID": 68787,
          "IngredientName": "KRAFT Tuscan House Italian Dressing",
          "IngredientStep": 30,
          "LanguageId": 0,
          "PostPreparation": "",
          "PrePreparation": "",
          "QuantityNum": 2,
          "QuantityText": "2",
          "QuantityUnit": "Tbsp.",
          "RecipeIngredientID": 106686,
          "TrialMeasure": null,
          "TrialWeight": null
        },
        {
          "FullMeasure": null,
          "FullWeight": null,
          "IngredientGridHeaders": null,
          "IngredientID": 67914,
          "IngredientName": "green onion, thinly sliced",
          "IngredientStep": 40,
          "LanguageId": 0,
          "PostPreparation": "",
          "PrePreparation": "",
          "QuantityNum": 1,
          "QuantityText": "1",
          "QuantityUnit": "",
          "RecipeIngredientID": 109697,
          "TrialMeasure": null,
          "TrialWeight": null
        },
        {
          "FullMeasure": null,
          "FullWeight": null,
          "IngredientGridHeaders": null,
          "IngredientID": 68622,
          "IngredientName": "KRAFT Shredded Parmesan Cheese",
          "IngredientStep": 50,
          "LanguageId": 0,
          "PostPreparation": "",
          "PrePreparation": "",
          "QuantityNum": 2,
          "QuantityText": "2",
          "QuantityUnit": "Tbsp.",
          "RecipeIngredientID": 106868,
          "TrialMeasure": null,
          "TrialWeight": null
        },
        {
          "FullMeasure": null,
          "FullWeight": null,
          "IngredientGridHeaders": null,
          "IngredientID": 68043,
          "IngredientName": "finely chopped  fresh basil",
          "IngredientStep": 60,
          "LanguageId": 0,
          "PostPreparation": "",
          "PrePreparation": "",
          "QuantityNum": 2,
          "QuantityText": "2",
          "QuantityUnit": "Tbsp.",
          "RecipeIngredientID": 107314,
          "TrialMeasure": null,
          "TrialWeight": null
        }
      ],
      "IsHealthyLiving": false,
      "KRLId": "557904",
      "KeyIngredients": [],
      "Keywords": "Appetizer,Easy,Italian,Dip,All Seasons,Picnic,Cooking for a Crowd,Kid-Friendly,Kids Can Cook,Quick and Easy,Creamy",
      "LanguageId": 1,
      "LifeStyles": [],
      "NumberOfIngredients": 6,
      "NumberOfRatings": 22,
      "NumberOfRatingsWithComments": "20",
      "NumberOfServings": "14 servings, 2 Tbsp. each",
      "NumberOfTrialServings": null,
      "NutritionBonus": null,
      "NutritionExchangeItemId": 0,
      "NutritionGridItems": null,
      "NutritionItems": [
        {
          "DisplayOrder": 0,
          "Document": null,
          "NutritionItemID": 384,
          "NutritionItemName": "Vitamin D",
          "Predriscriptor": "",
          "Quantity": 0,
          "Unit": "%DV       "
        },
        {
          "DisplayOrder": 0,
          "Document": null,
          "NutritionItemID": 385,
          "NutritionItemName": "Vitamin E",
          "Predriscriptor": "",
          "Quantity": 0,
          "Unit": "%DV       "
        },
        {
          "DisplayOrder": 0,
          "Document": null,
          "NutritionItemID": 388,
          "NutritionItemName": "Potassium",
          "Predriscriptor": "",
          "Quantity": 0,
          "Unit": "%DV       "
        },
        {
          "DisplayOrder": 0,
          "Document": null,
          "NutritionItemID": 390,
          "NutritionItemName": "Added Sugars",
          "Predriscriptor": "",
          "Quantity": 0,
          "Unit": "g         "
        },
        {
          "DisplayOrder": 1,
          "Document": null,
          "NutritionItemID": 371,
          "NutritionItemName": "Calories",
          "Predriscriptor": "",
          "Quantity": 70,
          "Unit": "          "
        },
        {
          "DisplayOrder": 2,
          "Document": null,
          "NutritionItemID": 376,
          "NutritionItemName": "Total fat",
          "Predriscriptor": "",
          "Quantity": 6,
          "Unit": "g         "
        },
        {
          "DisplayOrder": 3,
          "Document": null,
          "NutritionItemID": 377,
          "NutritionItemName": "Saturated fat",
          "Predriscriptor": "",
          "Quantity": 3.5,
          "Unit": "g         "
        },
        {
          "DisplayOrder": 4,
          "Document": null,
          "NutritionItemID": 379,
          "NutritionItemName": "Polyunsaturated Fat",
          "Predriscriptor": "",
          "Quantity": 0,
          "Unit": "g         "
        },
        {
          "DisplayOrder": 5,
          "Document": null,
          "NutritionItemID": 378,
          "NutritionItemName": "Monounsaturated Fat",
          "Predriscriptor": "",
          "Quantity": 0,
          "Unit": "g         "
        },
        {
          "DisplayOrder": 6,
          "Document": null,
          "NutritionItemID": 380,
          "NutritionItemName": "Trans Fat",
          "Predriscriptor": "",
          "Quantity": 0,
          "Unit": "g         "
        },
        {
          "DisplayOrder": 7,
          "Document": null,
          "NutritionItemID": 381,
          "NutritionItemName": "Cholesterol",
          "Predriscriptor": "",
          "Quantity": 20,
          "Unit": "mg        "
        },
        {
          "DisplayOrder": 8,
          "Document": null,
          "NutritionItemID": 389,
          "NutritionItemName": "Sodium",
          "Predriscriptor": "",
          "Quantity": 95,
          "Unit": "mg        "
        },
        {
          "DisplayOrder": 10,
          "Document": null,
          "NutritionItemID": 373,
          "NutritionItemName": "Carbohydrate",
          "Predriscriptor": "",
          "Quantity": 1,
          "Unit": "g         "
        },
        {
          "DisplayOrder": 11,
          "Document": null,
          "NutritionItemID": 374,
          "NutritionItemName": "Dietary fiber",
          "Predriscriptor": "",
          "Quantity": 0,
          "Unit": "g         "
        },
        {
          "DisplayOrder": 12,
          "Document": null,
          "NutritionItemID": 375,
          "NutritionItemName": "Sugars",
          "Predriscriptor": "",
          "Quantity": 0.7916,
          "Unit": "g         "
        },
        {
          "DisplayOrder": 13,
          "Document": null,
          "NutritionItemID": 372,
          "NutritionItemName": "Protein",
          "Predriscriptor": "",
          "Quantity": 1,
          "Unit": "g         "
        },
        {
          "DisplayOrder": 14,
          "Document": null,
          "NutritionItemID": 382,
          "NutritionItemName": "Vitamin A",
          "Predriscriptor": "",
          "Quantity": 10,
          "Unit": "%DV       "
        },
        {
          "DisplayOrder": 15,
          "Document": null,
          "NutritionItemID": 383,
          "NutritionItemName": "Vitamin C",
          "Predriscriptor": "",
          "Quantity": 2,
          "Unit": "%DV       "
        },
        {
          "DisplayOrder": 16,
          "Document": null,
          "NutritionItemID": 386,
          "NutritionItemName": "Calcium",
          "Predriscriptor": "",
          "Quantity": 0,
          "Unit": "%DV       "
        },
        {
          "DisplayOrder": 17,
          "Document": null,
          "NutritionItemID": 387,
          "NutritionItemName": "Iron",
          "Predriscriptor": "",
          "Quantity": 2,
          "Unit": "%DV       "
        }
      ],
      "NutritionServingText": null,
      "PrepStepImage": null,
      "PreparationDescription": "Spread cream cheese onto bottom of pie plate.$Combine tomatoes and dressing; spoon over cream cheese. $Top with remaining ingredients.",
      "PreparationPreText": null,
      "PreparationSteps": [
        {
          "Description": "Spread cream cheese onto bottom of pie plate.",
          "PreparationStepImage": {
            "PictureFormats": [],
            "author": null,
            "id": null,
            "imageType": null,
            "mimeType": null,
            "publicationDate": null,
            "status": null,
            "title": null,
            "type": null
          },
          "Sequence": 1
        },
        {
          "Description": "Combine tomatoes and dressing; spoon over cream cheese. ",
          "PreparationStepImage": {
            "PictureFormats": [],
            "author": null,
            "id": null,
            "imageType": null,
            "mimeType": null,
            "publicationDate": null,
            "status": null,
            "title": null,
            "type": null
          },
          "Sequence": 2
        },
        {
          "Description": "Top with remaining ingredients.",
          "PreparationStepImage": {
            "PictureFormats": [],
            "author": null,
            "id": null,
            "imageType": null,
            "mimeType": null,
            "publicationDate": null,
            "status": null,
            "title": null,
            "type": null
          },
          "Sequence": 3
        }
      ],
      "PreparationTime": 15,
      "Promotion": null,
      "Ratings": {
        "TotalCount": 22,
        "PageCount": 10,
        "PageNo": 1,
        "Rating": [
          {
            "Comment": "I have not made this recipe yet, but sounds delicious.  Will be trying soon; however, I'm going to mix everything together, not in layers and believe that'll work best for us.  ",
            "DisplayName": true,
            "RatingValue": 5,
            "SubmitDate": "/Date(1390599021000-0600)/",
            "UpdatedDate": "/Date(1390599021000-0600)/",
            "UserName": "Karlotta45"
          },
          {
            "Comment": "",
            "DisplayName": true,
            "RatingValue": 4,
            "SubmitDate": "/Date(1346804967000-0500)/",
            "UpdatedDate": "/Date(1346804967000-0500)/",
            "UserName": "kpentico"
          },
          {
            "Comment": "Yes, this was a quick appetizer to put together. It wasn't all that tasty to me. I'm guessing my guests didn't enjoy it either since very little of it was eaten.",
            "DisplayName": false,
            "RatingValue": 3,
            "SubmitDate": "/Date(1346182947000-0500)/",
            "UpdatedDate": "/Date(1346182947000-0500)/",
            "UserName": "lil-lantana"
          },
          {
            "Comment": "Yummy! Served for a party and it quickly disappeared. Served with crackers and veggies, but the crackers were definitely a better choice with this dip..",
            "DisplayName": true,
            "RatingValue": 5,
            "SubmitDate": "/Date(1319410017000-0500)/",
            "UpdatedDate": "/Date(1319410017000-0500)/",
            "UserName": "Mary766"
          },
          {
            "Comment": "This recipe is such a hit.  So simple to make.  I actually finely chop the basil and add it in with the tomatoes and dressing.  I also use the Classic Balsamic Vineagrette Kraft dressing.",
            "DisplayName": true,
            "RatingValue": 5,
            "SubmitDate": "/Date(1308678256000-0500)/",
            "UpdatedDate": "/Date(1308678256000-0500)/",
            "UserName": "LOVE7721"
          },
          {
            "Comment": "Excellent recipe for a quick dip!  Served to friends and family and it disappeared within minutes.  ",
            "DisplayName": true,
            "RatingValue": 5,
            "SubmitDate": "/Date(1282492711000-0500)/",
            "UpdatedDate": "/Date(1282492711000-0500)/",
            "UserName": "leo217"
          },
          {
            "Comment": "Crowd pleaser!  I use reduced fat cream cheese & kraft roasted red pepper italian dressing, cuts down calories without cutting down on taste - delicious & super easy to make!",
            "DisplayName": true,
            "RatingValue": 5,
            "SubmitDate": "/Date(1277844179000-0500)/",
            "UpdatedDate": "/Date(1277844179000-0500)/",
            "UserName": "kmconly"
          },
          {
            "Comment": "One of my favorite dips - declicious!  I serve it w/ parmesean basil Wheat Thins",
            "DisplayName": true,
            "RatingValue": 5,
            "SubmitDate": "/Date(1262564402000-0600)/",
            "UpdatedDate": "/Date(1262564402000-0600)/",
            "UserName": "saucymole"
          },
          {
            "Comment": "I have made this several times.  A very simple, light appetizer...  Delicious!",
            "DisplayName": true,
            "RatingValue": 5,
            "SubmitDate": "/Date(1257092128000-0600)/",
            "UpdatedDate": "/Date(1257092128000-0600)/",
            "UserName": "sellers_amy"
          },
          {
            "Comment": "Very simple to make and there were no leftovers!",
            "DisplayName": false,
            "RatingValue": 5,
            "SubmitDate": "/Date(1220369687000-0500)/",
            "UpdatedDate": "/Date(1220369687000-0500)/",
            "UserName": "albalyn"
          }
        ]
      },
      "RecipeDisplayFormatId": 0,
      "RecipeId": 105617,
      "RecipeName": "PHILLY Tomato-Basil Dip",
      "RecipeType": 0,
      "RelatedData": {
        "RelatedBrands": null,
        "RelatedProducts": null,
        "RelatedRecipes": {
          "DefaultTopCount": 5,
          "Recipe": [
            {
              "AverageRating": 4.7,
              "HasVideo": false,
              "IsHealthyLiving": false,
              "NumberOfRatings": 84,
              "PhotoName": "52989.jpg",
              "PhotoUrl": "http://assets.kraftfoods.com/recipe_images/opendeploy/52989.jpg",
              "RecipeId": 52989,
              "RecipeName": "Layered Italian Dip",
              "SEOName": "layered-italian-dip-52989",
              "ThumbnailPhoto": null
            },
            {
              "AverageRating": 4,
              "HasVideo": false,
              "IsHealthyLiving": false,
              "NumberOfRatings": 1,
              "PhotoName": "123688.jpg",
              "PhotoUrl": "http://assets.kraftfoods.com/recipe_images/opendeploy/123688.jpg",
              "RecipeId": 123688,
              "RecipeName": "ATHENOS Flatbread",
              "SEOName": "athenos-flatbread-123688",
              "ThumbnailPhoto": null
            },
            {
              "AverageRating": 4.8,
              "HasVideo": false,
              "IsHealthyLiving": false,
              "NumberOfRatings": 19,
              "PhotoName": "106110.jpg",
              "PhotoUrl": "http://assets.kraftfoods.com/recipe_images/opendeploy/106110.jpg",
              "RecipeId": 106110,
              "RecipeName": "PHILLY Mediterranean Dip",
              "SEOName": "philly-mediterranean-dip-106110",
              "ThumbnailPhoto": null
            },
            {
              "AverageRating": 4.4,
              "HasVideo": false,
              "IsHealthyLiving": false,
              "NumberOfRatings": 11,
              "PhotoName": "155246.jpg",
              "PhotoUrl": "http://assets.kraftfoods.com/recipe_images/opendeploy/155246.jpg",
              "RecipeId": 155246,
              "RecipeName": "Lasagna Soup",
              "SEOName": "lasagna-soup-155246",
              "ThumbnailPhoto": null
            },
            {
              "AverageRating": 4.3,
              "HasVideo": true,
              "IsHealthyLiving": false,
              "NumberOfRatings": 58,
              "PhotoName": "125292.jpg",
              "PhotoUrl": "http://assets.kraftfoods.com/recipe_images/opendeploy/125292.jpg",
              "RecipeId": 125292,
              "RecipeName": "Creamy White Chicken & Artichoke Lasagna",
              "SEOName": "creamy-white-chicken-artichoke-lasagna-125292",
              "ThumbnailPhoto": null
            }
          ],
          "TotalCount": 2210
        }
      },
      "RiseIngredients": [
        {
          "IngredientCategory": "KRL",
          "IngredientId": 67914,
          "IngredientIndustrySector": "Retail",
          "IngredientType": "Inedible",
          "ProductId": null,
          "RecipeId": 105617
        },
        {
          "IngredientCategory": "KRL",
          "IngredientId": 68043,
          "IngredientIndustrySector": "Retail",
          "IngredientType": "Inedible",
          "ProductId": null,
          "RecipeId": 105617
        },
        {
          "IngredientCategory": "KRL",
          "IngredientId": 68324,
          "IngredientIndustrySector": "Retail",
          "IngredientType": "KHC",
          "ProductId": "00068100897210",
          "RecipeId": 105617
        },
        {
          "IngredientCategory": "KRL",
          "IngredientId": 68622,
          "IngredientIndustrySector": "Retail",
          "IngredientType": "KHC",
          "ProductId": "00021000614448",
          "RecipeId": 105617
        },
        {
          "IngredientCategory": "KRL",
          "IngredientId": 68787,
          "IngredientIndustrySector": "Retail",
          "IngredientType": "KHC",
          "ProductId": "00068100896619",
          "RecipeId": 105617
        },
        {
          "IngredientCategory": "KRL",
          "IngredientId": 69005,
          "IngredientIndustrySector": "Retail",
          "IngredientType": "Inedible",
          "ProductId": null,
          "RecipeId": 105617
        }
      ],
      "RiseTaxonomy": [
        {
          "ParentTaxonomyId": 0,
          "RecipeId": 105617,
          "ResourceName": "Recipe",
          "TaxonomyId": 60,
          "TaxonomyName": "Appetizers",
          "TaxonomyTypeId": 2,
          "TaxonomyTypeName": "Meal Part"
        },
        {
          "ParentTaxonomyId": 47,
          "RecipeId": 105617,
          "ResourceName": "Recipe",
          "TaxonomyId": 183,
          "TaxonomyName": "Dips, Cold",
          "TaxonomyTypeId": 3,
          "TaxonomyTypeName": "Dish Type"
        }
      ],
      "Riserecipe": [
        {
          "GRIN": 557904,
          "RecipeId": 105617,
          "RecipeIndustrySector": "Retail",
          "RecipeType": "Internal"
        }
      ],
      "RomanceText": "Enjoy an ingenious tomato-basil dip full of fresh garden flavors. This delicious PHILLY Tomato-Basil Dip features tomatoes, cream cheese and basil.",
      "SEOName": "philly-tomato-basil-dip-105617",
      "Tips": [
        {
          "RecipeId": 105617,
          "Sequence": 10,
          "TipDescription": "Serve with assorted cup-up fresh vegetables and pita chips or RITZ Crackers.",
          "TipID": 1,
          "TipName": "Serving Suggestion"
        },
        {
          "RecipeId": 105617,
          "Sequence": 20,
          "TipDescription": "Prepare using PHILADELPHIA Neufchatel Cheese.",
          "TipID": 2,
          "TipName": "Substitute"
        },
        {
          "RecipeId": 105617,
          "Sequence": 30,
          "TipDescription": "Prepare using KRAFT Balsamic Vinaigrette Dressing.",
          "TipID": 3,
          "TipName": "Substitute"
        }
      ],
      "TotalTime": 15,
      "TradeMarkInfo": null,
      "Video": [],
      "Yield": "14 servings, 2 Tbsp. each"
    }
  ]
}