{
  "Metadata": {
    "PageCount": 1,
    "PageNo": 0,
    "TotalCount": 0
  },
  "Recipes": [
    {
      "AdServingKeywords": "Cheddar,Cheese,Garlic,Easy,Baked,Dinner,Bread,All Seasons,Cheesy,Cracker Barrel,Kraft Cheese",
      "AlternateLanguageRecipes": [
        {
          "LanguageId": "2",
          "RecipeId": "150741",
          "SiteId": "1"
        },
        {
          "LanguageId": "2",
          "RecipeId": "150741",
          "SiteId": "90"
        }
      ],
      "Assets": [
        {
          "PictureFormats": [
            {
              "rendition": "140x90",
              "url": "http://assets.kraftfoods.com/recipe_images/opendeploy/150711_MXM_K63045V0_OR1_CR_140x90.jpg"
            },
            {
              "rendition": "290x194",
              "url": "http://assets.kraftfoods.com/recipe_images/opendeploy/150711_MXM_K63045V0_OR1_CR_290x194.jpg"
            },
            {
              "rendition": "300x250",
              "url": "http://assets.kraftfoods.com/recipe_images/opendeploy/150711_MXM_K63045V0_OR1_CR_300x250.jpg"
            },
            {
              "rendition": "600x250",
              "url": "http://assets.kraftfoods.com/recipe_images/opendeploy/150711_MXM_K63045V0_OR1_CR_600x250.jpg"
            },
            {
              "rendition": "640x428",
              "url": "http://assets.kraftfoods.com/recipe_images/opendeploy/150711_MXM_K63045V0_OR1_CR_640x428.jpg"
            },
            {
              "rendition": "960x300",
              "url": "http://assets.kraftfoods.com/recipe_images/opendeploy/150711_MXM_K63045V0_OR1_CR_960x300.jpg"
            }
          ],
          "author": null,
          "id": "5",
          "imageType": "Primary",
          "mimeType": "image/jpeg",
          "publicationDate": null,
          "status": "1",
          "title": "150711_MXM_K63045V0_OR1_CR",
          "type": "image"
        },
        {
          "PictureFormats": [
            {
              "rendition": "300x200",
              "url": "http://assets.kraftfoods.com/recipe_images/Cheesy-Garlic-Bread-63045.jpg"
            }
          ],
          "author": null,
          "id": "0",
          "imageType": "LANDSCAPE",
          "mimeType": null,
          "publicationDate": null,
          "status": "1",
          "title": "Cheesy-Garlic-Bread-63045.jpg",
          "type": "image"
        }
      ],
      "AverageRating": 4,
      "BrandId": 1,
      "Branding": null,
      "CSSSkins": null,
      "CarbCounter": null,
      "Categories": [
        {
          "CategoryID": 10,
          "CategoryName": "Breads",
          "CategoryRank": 3,
          "SubCategoryID": 43,
          "SubCategoryName": "Dinner Breads",
          "SubCategoryRank": 40
        },
        {
          "CategoryID": 11,
          "CategoryName": "Primary",
          "CategoryRank": 0,
          "SubCategoryID": 101,
          "SubCategoryName": "Breads and Muffins",
          "SubCategoryRank": 30
        },
        {
          "CategoryID": 751,
          "CategoryName": "Breads, Sandwiches, Wraps & Burgers",
          "CategoryRank": 5,
          "SubCategoryID": 2531,
          "SubCategoryName": "Fresh",
          "SubCategoryRank": 1
        },
        {
          "CategoryID": 751,
          "CategoryName": "Breads, Sandwiches, Wraps & Burgers",
          "CategoryRank": 5,
          "SubCategoryID": 2533,
          "SubCategoryName": "Specialty",
          "SubCategoryRank": 1
        }
      ],
      "Classifications": [],
      "ComplimentaryRecipes": null,
      "CookingMethod": null,
      "Copyright": null,
      "Courses": [
        "Breads"
      ],
      "DietExchange": null,
      "DishDetails": [],
      "EndDate": "/Date(-62135575200000-0600)/",
      "HasVideo": false,
      "Ingredients": [
        {
          "FullMeasure": "1",
          "FullWeight": "",
          "IngredientGridHeaders": null,
          "IngredientID": 22030,
          "IngredientName": "French bread baguette",
          "IngredientStep": 10,
          "LanguageId": 0,
          "PostPreparation": " (18 inch)",
          "PrePreparation": "",
          "QuantityNum": 1,
          "QuantityText": "1",
          "QuantityUnit": "",
          "RecipeIngredientID": 6125044,
          "TrialMeasure": "",
          "TrialWeight": ""
        },
        {
          "FullMeasure": "1/3 cup",
          "FullWeight": "",
          "IngredientGridHeaders": null,
          "IngredientID": 863,
          "IngredientName": "butter",
          "IngredientStep": 20,
          "LanguageId": 0,
          "PostPreparation": ", softened",
          "PrePreparation": "",
          "QuantityNum": 0,
          "QuantityText": "1/3",
          "QuantityUnit": "cup",
          "RecipeIngredientID": 6125043,
          "TrialMeasure": "",
          "TrialWeight": ""
        },
        {
          "FullMeasure": "3 cloves",
          "FullWeight": "",
          "IngredientGridHeaders": null,
          "IngredientID": 1175,
          "IngredientName": "garlic",
          "IngredientStep": 30,
          "LanguageId": 0,
          "PostPreparation": ", minced",
          "PrePreparation": "",
          "QuantityNum": 3,
          "QuantityText": "3",
          "QuantityUnit": "cloves",
          "RecipeIngredientID": 6125049,
          "TrialMeasure": "",
          "TrialWeight": ""
        },
        {
          "FullMeasure": "1/4 tsp.",
          "FullWeight": "",
          "IngredientGridHeaders": null,
          "IngredientID": 1048,
          "IngredientName": "dried oregano leaves",
          "IngredientStep": 40,
          "LanguageId": 0,
          "PostPreparation": "",
          "PrePreparation": "",
          "QuantityNum": 0,
          "QuantityText": "1/4",
          "QuantityUnit": "tsp.",
          "RecipeIngredientID": 6125045,
          "TrialMeasure": "",
          "TrialWeight": ""
        },
        {
          "FullMeasure": "1/4 tsp.",
          "FullWeight": "",
          "IngredientGridHeaders": null,
          "IngredientID": 1044,
          "IngredientName": "dried basil leaves",
          "IngredientStep": 50,
          "LanguageId": 0,
          "PostPreparation": "",
          "PrePreparation": "",
          "QuantityNum": 0,
          "QuantityText": "1/4",
          "QuantityUnit": "tsp.",
          "RecipeIngredientID": 6125046,
          "TrialMeasure": "",
          "TrialWeight": ""
        },
        {
          "FullMeasure": "1/4 tsp.",
          "FullWeight": "",
          "IngredientGridHeaders": null,
          "IngredientID": 818,
          "IngredientName": "black pepper",
          "IngredientStep": 60,
          "LanguageId": 0,
          "PostPreparation": "",
          "PrePreparation": "",
          "QuantityNum": 0,
          "QuantityText": "1/4",
          "QuantityUnit": "tsp.",
          "RecipeIngredientID": 6125047,
          "TrialMeasure": "",
          "TrialWeight": ""
        },
        {
          "FullMeasure": "6 oz.",
          "FullWeight": "",
          "IngredientGridHeaders": null,
          "IngredientID": 151,
          "IngredientName": "CRACKER BARREL Aged Reserve Extra Sharp Cheddar Cheese",
          "IngredientStep": 70,
          "LanguageId": 0,
          "PostPreparation": ", cut into 24 slices",
          "PrePreparation": "(3/4 of 8-oz. pkg.)",
          "QuantityNum": 6,
          "QuantityText": "6",
          "QuantityUnit": "oz.",
          "RecipeIngredientID": 6125048,
          "TrialMeasure": "",
          "TrialWeight": ""
        }
      ],
      "IsHealthyLiving": false,
      "KRLId": "569988",
      "KeyIngredients": [
        "Garlic"
      ],
      "Keywords": "oregano,basil,bread,cheddar cheese,cheese,CRACKER BARREL Cheese,butter,french bread,garlic,Baked,Easy,All Seasons,Dinner,Cheesy",
      "LanguageId": 1,
      "LifeStyles": [],
      "NumberOfIngredients": 7,
      "NumberOfRatings": 1,
      "NumberOfRatingsWithComments": "0",
      "NumberOfServings": "12 servings",
      "NumberOfTrialServings": "",
      "NutritionBonus": null,
      "NutritionExchangeItemId": 0,
      "NutritionGridItems": null,
      "NutritionItems": [
        {
          "DisplayOrder": 1,
          "Document": null,
          "NutritionItemID": 3,
          "NutritionItemName": "Calories",
          "Predriscriptor": "",
          "Quantity": 160,
          "Unit": "          "
        },
        {
          "DisplayOrder": 2,
          "Document": "fat_cholesterol.html",
          "NutritionItemID": 4,
          "NutritionItemName": "Total fat",
          "Predriscriptor": "",
          "Quantity": 10,
          "Unit": "g         "
        },
        {
          "DisplayOrder": 3,
          "Document": "fat_cholesterol.html",
          "NutritionItemID": 9,
          "NutritionItemName": "Saturated fat",
          "Predriscriptor": "",
          "Quantity": 6,
          "Unit": "g         "
        },
        {
          "DisplayOrder": 7,
          "Document": "fat_cholesterol.html",
          "NutritionItemID": 2,
          "NutritionItemName": "Cholesterol",
          "Predriscriptor": "",
          "Quantity": 30,
          "Unit": "mg        "
        },
        {
          "DisplayOrder": 8,
          "Document": "sodium.html",
          "NutritionItemID": 8,
          "NutritionItemName": "Sodium",
          "Predriscriptor": "",
          "Quantity": 220,
          "Unit": "mg        "
        },
        {
          "DisplayOrder": 10,
          "Document": "carbs_sugars_fiber.html",
          "NutritionItemID": 1,
          "NutritionItemName": "Carbohydrate",
          "Predriscriptor": "",
          "Quantity": 10,
          "Unit": "g         "
        },
        {
          "DisplayOrder": 11,
          "Document": "carbs_sugars_fiber.html",
          "NutritionItemID": 7,
          "NutritionItemName": "Dietary fiber",
          "Predriscriptor": "",
          "Quantity": 0,
          "Unit": "g         "
        },
        {
          "DisplayOrder": 12,
          "Document": "carbs_sugars_fiber.html",
          "NutritionItemID": 5,
          "NutritionItemName": "Sugars",
          "Predriscriptor": "Less than",
          "Quantity": 1,
          "Unit": "g         "
        },
        {
          "DisplayOrder": 13,
          "Document": null,
          "NutritionItemID": 6,
          "NutritionItemName": "Protein",
          "Predriscriptor": "",
          "Quantity": 5,
          "Unit": "g         "
        },
        {
          "DisplayOrder": 14,
          "Document": null,
          "NutritionItemID": 10,
          "NutritionItemName": "Vitamin A",
          "Predriscriptor": "",
          "Quantity": 6,
          "Unit": "%DV       "
        },
        {
          "DisplayOrder": 15,
          "Document": null,
          "NutritionItemID": 11,
          "NutritionItemName": "Vitamin C",
          "Predriscriptor": "",
          "Quantity": 0,
          "Unit": "%DV       "
        },
        {
          "DisplayOrder": 16,
          "Document": "dairy_and_calcium.html",
          "NutritionItemID": 12,
          "NutritionItemName": "Calcium",
          "Predriscriptor": "",
          "Quantity": 10,
          "Unit": "%DV       "
        },
        {
          "DisplayOrder": 17,
          "Document": null,
          "NutritionItemID": 13,
          "NutritionItemName": "Iron",
          "Predriscriptor": "",
          "Quantity": 4,
          "Unit": "%DV       "
        }
      ],
      "NutritionServingText": " ",
      "PrepStepImage": null,
      "PreparationDescription": "Use serrated knife to make 24 diagonal cuts in top of baguette, being careful to not cut through to bottom of baguette.  Place, cut sides up, on baking sheet. $Mix butter, garlic, herbs and pepper until blended; spread onto cut sides of baguette.  Fill with cheese.  Spread top of baguette with any remaining butter mixture.$Bake 7 to 8 min. or until cheese is melted.",
      "PreparationPreText": "Heat oven to 400ºF.",
      "PreparationSteps": [
        {
          "Description": "Use serrated knife to make 24 diagonal cuts in top of baguette, being careful to not cut through to bottom of baguette.  Place, cut sides up, on baking sheet. ",
          "PreparationStepImage": {
            "PictureFormats": [],
            "author": null,
            "id": null,
            "imageType": null,
            "mimeType": null,
            "publicationDate": null,
            "status": null,
            "title": null,
            "type": null
          },
          "Sequence": 1
        },
        {
          "Description": "Mix butter, garlic, herbs and pepper until blended; spread onto cut sides of baguette.  Fill with cheese.  Spread top of baguette with any remaining butter mixture.",
          "PreparationStepImage": {
            "PictureFormats": [],
            "author": null,
            "id": null,
            "imageType": null,
            "mimeType": null,
            "publicationDate": null,
            "status": null,
            "title": null,
            "type": null
          },
          "Sequence": 2
        },
        {
          "Description": "Bake 7 to 8 min. or until cheese is melted.",
          "PreparationStepImage": {
            "PictureFormats": [],
            "author": null,
            "id": null,
            "imageType": null,
            "mimeType": null,
            "publicationDate": null,
            "status": null,
            "title": null,
            "type": null
          },
          "Sequence": 3
        }
      ],
      "PreparationTime": 20,
      "Promotion": null,
      "Ratings": {
        "TotalCount": 1,
        "PageCount": 10,
        "PageNo": 1,
        "Rating": [
          {
            "Comment": "",
            "DisplayName": true,
            "RatingValue": 4,
            "SubmitDate": "/Date(1391646122000-0600)/",
            "UpdatedDate": "/Date(1394166855000-0600)/",
            "UserName": "jhohnholt"
          }
        ]
      },
      "RecipeDisplayFormatId": 5,
      "RecipeId": 150711,
      "RecipeName": "Garlic Cheesy Bread",
      "RecipeType": 0,
      "RelatedData": {
        "RelatedBrands": null,
        "RelatedProducts": null,
        "RelatedRecipes": {
          "DefaultTopCount": 5,
          "Recipe": [
            {
              "AverageRating": 4.4,
              "HasVideo": false,
              "IsHealthyLiving": false,
              "NumberOfRatings": 49,
              "PhotoName": "50325.jpg",
              "PhotoUrl": "http://assets.kraftfoods.com/recipe_images/opendeploy/50325.jpg",
              "RecipeId": 50325,
              "RecipeName": "Hot Cheesy Garlic Bread",
              "SEOName": "hot-cheesy-garlic-bread-50325",
              "ThumbnailPhoto": null
            },
            {
              "AverageRating": 4.7,
              "HasVideo": false,
              "IsHealthyLiving": false,
              "NumberOfRatings": 3,
              "PhotoName": "Cheesy-Bacon-Bruschetta-58097.jpg",
              "PhotoUrl": "http://assets.kraftfoods.com/recipe_images/opendeploy/Cheesy-Bacon-Bruschetta-58097.jpg",
              "RecipeId": 124108,
              "RecipeName": "Cheesy Bacon Bruschetta",
              "SEOName": "cheesy-bacon-bruschetta-124108",
              "ThumbnailPhoto": null
            },
            {
              "AverageRating": 4.5,
              "HasVideo": false,
              "IsHealthyLiving": true,
              "NumberOfRatings": 27,
              "PhotoName": "Cheesy_Bruschetta.jpg",
              "PhotoUrl": "http://assets.kraftfoods.com/recipe_images/opendeploy/Cheesy_Bruschetta.jpg",
              "RecipeId": 56055,
              "RecipeName": "Cheesy Bruschetta",
              "SEOName": "cheesy-bruschetta-56055",
              "ThumbnailPhoto": null
            },
            {
              "AverageRating": 4.2,
              "HasVideo": true,
              "IsHealthyLiving": false,
              "NumberOfRatings": 11,
              "PhotoName": "opendeploy/138235-5298da51890904f7ecedec2bf407db4581b21b3a_306x204.jpg",
              "PhotoUrl": "http://assets.kraftfoods.com/recipe_images/opendeploy/opendeploy/138235-5298da51890904f7ecedec2bf407db4581b21b3a_306x204.jpg",
              "RecipeId": 138235,
              "RecipeName": "Cheesy Bread Pulls",
              "SEOName": "cheesy-bread-pulls-138235",
              "ThumbnailPhoto": null
            },
            {
              "AverageRating": 4.6,
              "HasVideo": false,
              "IsHealthyLiving": false,
              "NumberOfRatings": 93,
              "PhotoName": "95122.jpg",
              "PhotoUrl": "http://assets.kraftfoods.com/recipe_images/opendeploy/95122.jpg",
              "RecipeId": 95122,
              "RecipeName": "Cheesy Appetizer Loaf",
              "SEOName": "cheesy-appetizer-loaf-95122",
              "ThumbnailPhoto": null
            }
          ],
          "TotalCount": 1750
        }
      },
      "RiseIngredients": [],
      "RiseTaxonomy": [],
      "Riserecipe": [
        {
          "GRIN": 569988,
          "RecipeId": 150711,
          "RecipeIndustrySector": "Retail",
          "RecipeType": "Internal"
        }
      ],
      "RomanceText": "Try this delicious Garlic Cheesy Bread alongside pizza or pasta! This Garlic Cheesy Bread recipe is full of cheesy flavor.",
      "SEOName": "garlic-cheesy-bread-150711",
      "Tips": [
        {
          "RecipeId": 150711,
          "Sequence": 10,
          "TipDescription": "This cheesy garlic bread will take almost any meal over the top.  Just serve it once in a  while, as part of a balanced diet.",
          "TipID": 2,
          "TipName": "Size Wise"
        },
        {
          "RecipeId": 150711,
          "Sequence": 20,
          "TipDescription": "Prepare using KRAFT Baby Swiss Cheese.",
          "TipID": 1,
          "TipName": "Substitute"
        }
      ],
      "TotalTime": 20,
      "TradeMarkInfo": null,
      "Video": [],
      "Yield": "12 servings"
    }
  ]
}