{
  "Metadata": {
    "PageCount": 1,
    "PageNo": 0,
    "TotalCount": 0
  },
  "Recipes": [
    {
      "AdServingKeywords": "Dessert,Berries,Dairy,Fruit,Strawberry,Easy,Nutrition and Well-Being,All Seasons,Refrigerated Dessert,Cool Whip,Jell-O",
      "AlternateLanguageRecipes": [],
      "Assets": [
        {
          "PictureFormats": [
            {
              "rendition": "290x194",
              "url": "http://assets.kraftfoods.com/recipe_images/opendeploy/95087_290x194.jpg"
            },
            {
              "rendition": "640x428",
              "url": "http://assets.kraftfoods.com/recipe_images/opendeploy/95087_640x428.jpg"
            },
            {
              "rendition": "600x250",
              "url": "http://assets.kraftfoods.com/recipe_images/opendeploy/95087_600x250.jpg"
            }
          ],
          "author": "BulKUpload",
          "id": "2",
          "imageType": "Primary",
          "mimeType": "image/jpeg",
          "publicationDate": null,
          "status": "1",
          "title": "95087",
          "type": "image"
        },
        {
          "PictureFormats": [
            {
              "rendition": "140x90",
              "url": "http://assets.kraftfoods.com/recipe_images/opendeploy/95087_KRL_K52615V0_OR1_OH_140x90.jpg"
            },
            {
              "rendition": "300x250",
              "url": "http://assets.kraftfoods.com/recipe_images/opendeploy/95087_KRL_K52615V0_OR1_OH_300x250.jpg"
            },
            {
              "rendition": "960x300",
              "url": "http://assets.kraftfoods.com/recipe_images/opendeploy/95087_KRL_K52615V0_OR1_OH_960x300.jpg"
            }
          ],
          "author": null,
          "id": "2",
          "imageType": "Primary",
          "mimeType": "image/jpeg",
          "publicationDate": null,
          "status": "1",
          "title": "95087_KRL_K52615V0_OR1_OH",
          "type": "image"
        },
        {
          "PictureFormats": [
            {
              "rendition": "300x200",
              "url": "http://assets.kraftfoods.com/recipe_images/95087.jpg"
            }
          ],
          "author": "BulKUpload",
          "id": "0",
          "imageType": "LANDSCAPE",
          "mimeType": "image/jpeg",
          "publicationDate": null,
          "status": "1",
          "title": "95087.jpg",
          "type": "image"
        }
      ],
      "AverageRating": 4.2,
      "BrandId": 1,
      "Branding": null,
      "CSSSkins": null,
      "CarbCounter": null,
      "Categories": [
        {
          "CategoryID": 3,
          "CategoryName": "Cookies/Candy/Other Desserts",
          "CategoryRank": 6,
          "SubCategoryID": 369,
          "SubCategoryName": "Parfaits",
          "SubCategoryRank": 160
        },
        {
          "CategoryID": 11,
          "CategoryName": "Primary",
          "CategoryRank": 0,
          "SubCategoryID": 103,
          "SubCategoryName": "Desserts",
          "SubCategoryRank": 40
        },
        {
          "CategoryID": 759,
          "CategoryName": "Desserts",
          "CategoryRank": 13,
          "SubCategoryID": 2577,
          "SubCategoryName": "Cold / Gelatine",
          "SubCategoryRank": 1
        }
      ],
      "Classifications": [
        {
          "ClassficationId": 7,
          "ClassificationName": "Good source of calcium"
        },
        {
          "ClassficationId": 9,
          "ClassificationName": "Low fat"
        },
        {
          "ClassficationId": 13,
          "ClassificationName": "Good source of vitamin A or C"
        },
        {
          "ClassficationId": 14,
          "ClassificationName": "Generally Nutritious"
        },
        {
          "ClassficationId": 119,
          "ClassificationName": "Diabetes Center"
        }
      ],
      "ComplimentaryRecipes": null,
      "CookingMethod": null,
      "Copyright": null,
      "Courses": [
        "Desserts"
      ],
      "DietExchange": "",
      "DishDetails": [
        {
          "Text": "desserts",
          "Url": "/recipes/dessert/main.aspx"
        },
        {
          "Text": "fruity desserts",
          "Url": "/recipes/dessert/fruitydesserts.aspx"
        },
        {
          "Text": "gelatin desserts",
          "Url": "/recipes/dessert/gelatindesserts.aspx"
        },
        {
          "Text": "layered desserts",
          "Url": "/recipes/dessert/layereddesserts.aspx"
        },
        {
          "Text": "brownie recipes",
          "Url": "/recipes/dessert/brownie-recipes/main.aspx"
        },
        {
          "Text": "budget desserts",
          "Url": "/recipes/budget/budget-desserts.aspx"
        },
        {
          "Text": "no bake desserts",
          "Url": "/recipes/dessert/nobakedesserts.aspx"
        },
        {
          "Text": "pumpkin recipes",
          "Url": "/recipes/dessert/pumpkin-recipes.aspx"
        },
        {
          "Text": "chocolate cake recipes",
          "Url": "/recipes/dessert/chocolate-cake-recipes/main.aspx"
        },
        {
          "Text": "cheesecake recipes",
          "Url": "/recipes/dessert/cheesecake-center/cheesecake-recipes/main.aspx"
        },
        {
          "Text": "chocolate lovers recipes",
          "Url": "/recipes/dessert/chocolate-center/chocolateloversrecipes.aspx"
        },
        {
          "Text": "classic desserts",
          "Url": "/recipes/dessert/classicdesserts.aspx"
        },
        {
          "Text": "cookie ball recipes",
          "Url": "/recipes/dessert/cookie-ball-recipes/main.aspx"
        },
        {
          "Text": "cookie recipes",
          "Url": "/recipes/dessert/cookie-recipes/main.aspx"
        },
        {
          "Text": "cupcake recipes",
          "Url": "/recipes/dessert/cupcake-recipes/main.aspx"
        },
        {
          "Text": "healthy living desserts",
          "Url": "/healthy-living-ideas/diabetes-center/recipes/dessert-recipes.aspx"
        }
      ],
      "EndDate": "/Date(-62135575200000-0600)/",
      "HasVideo": false,
      "Ingredients": [
        {
          "FullMeasure": null,
          "FullWeight": null,
          "IngredientGridHeaders": null,
          "IngredientID": 69038,
          "IngredientName": "(1.4 oz.) JELL-O Chocolate Flavor Sugar Free Fat Free Instant Pudding",
          "IngredientStep": 10,
          "LanguageId": 0,
          "PostPreparation": "",
          "PrePreparation": "",
          "QuantityNum": 1,
          "QuantityText": "1",
          "QuantityUnit": "pkg.",
          "RecipeIngredientID": 103894,
          "TrialMeasure": null,
          "TrialWeight": null
        },
        {
          "FullMeasure": null,
          "FullWeight": null,
          "IngredientGridHeaders": null,
          "IngredientID": 68528,
          "IngredientName": "cold fat-free milk",
          "IngredientStep": 20,
          "LanguageId": 0,
          "PostPreparation": "",
          "PrePreparation": "",
          "QuantityNum": 2,
          "QuantityText": "2",
          "QuantityUnit": "cups",
          "RecipeIngredientID": 99993,
          "TrialMeasure": null,
          "TrialWeight": null
        },
        {
          "FullMeasure": null,
          "FullWeight": null,
          "IngredientGridHeaders": null,
          "IngredientID": 70477,
          "IngredientName": "thawed COOL WHIP Sugar Free Whipped Topping",
          "IngredientStep": 30,
          "LanguageId": 0,
          "PostPreparation": "",
          "PrePreparation": "",
          "QuantityNum": 0.5,
          "QuantityText": "1/2",
          "QuantityUnit": "cup",
          "RecipeIngredientID": 97923,
          "TrialMeasure": null,
          "TrialWeight": null
        },
        {
          "FullMeasure": null,
          "FullWeight": null,
          "IngredientGridHeaders": null,
          "IngredientID": 68246,
          "IngredientName": "sliced fresh strawberries",
          "IngredientStep": 40,
          "LanguageId": 0,
          "PostPreparation": "",
          "PrePreparation": "",
          "QuantityNum": 1,
          "QuantityText": "1",
          "QuantityUnit": "cup",
          "RecipeIngredientID": 95443,
          "TrialMeasure": null,
          "TrialWeight": null
        }
      ],
      "IsHealthyLiving": true,
      "KRLId": "556025",
      "KeyIngredients": [],
      "Keywords": "Dessert,Easy,Nutrition and Well-Being,Refrigerated Dessert,All Seasons",
      "LanguageId": 1,
      "LifeStyles": [
        "Good source of calcium",
        "Low fat",
        "Good source of vitamin A or C",
        "Generally Nutritious",
        "Diabetes Center"
      ],
      "NumberOfIngredients": 4,
      "NumberOfRatings": 42,
      "NumberOfRatingsWithComments": "29",
      "NumberOfServings": "6 servings, about 1/2 cup each",
      "NumberOfTrialServings": null,
      "NutritionBonus": "Delight yourself with this creamy low-fat dessert.  As a bonus, the strawberries are a good source of vitamin C.",
      "NutritionExchangeItemId": 1,
      "NutritionGridItems": null,
      "NutritionItems": [
        {
          "DisplayOrder": 0,
          "Document": null,
          "NutritionItemID": 384,
          "NutritionItemName": "Vitamin D",
          "Predriscriptor": "",
          "Quantity": 4,
          "Unit": "%DV       "
        },
        {
          "DisplayOrder": 0,
          "Document": null,
          "NutritionItemID": 385,
          "NutritionItemName": "Vitamin E",
          "Predriscriptor": "",
          "Quantity": 0,
          "Unit": "%DV       "
        },
        {
          "DisplayOrder": 0,
          "Document": null,
          "NutritionItemID": 388,
          "NutritionItemName": "Potassium",
          "Predriscriptor": "",
          "Quantity": 0,
          "Unit": "%DV       "
        },
        {
          "DisplayOrder": 0,
          "Document": null,
          "NutritionItemID": 390,
          "NutritionItemName": "Added Sugars",
          "Predriscriptor": "",
          "Quantity": 0,
          "Unit": "g         "
        },
        {
          "DisplayOrder": 1,
          "Document": null,
          "NutritionItemID": 371,
          "NutritionItemName": "Calories",
          "Predriscriptor": "",
          "Quantity": 80,
          "Unit": "          "
        },
        {
          "DisplayOrder": 2,
          "Document": null,
          "NutritionItemID": 376,
          "NutritionItemName": "Total fat",
          "Predriscriptor": "",
          "Quantity": 1,
          "Unit": "g         "
        },
        {
          "DisplayOrder": 3,
          "Document": null,
          "NutritionItemID": 377,
          "NutritionItemName": "Saturated fat",
          "Predriscriptor": "",
          "Quantity": 1,
          "Unit": "g         "
        },
        {
          "DisplayOrder": 4,
          "Document": null,
          "NutritionItemID": 379,
          "NutritionItemName": "Polyunsaturated Fat",
          "Predriscriptor": "",
          "Quantity": 0,
          "Unit": "g         "
        },
        {
          "DisplayOrder": 5,
          "Document": null,
          "NutritionItemID": 378,
          "NutritionItemName": "Monounsaturated Fat",
          "Predriscriptor": "",
          "Quantity": 0,
          "Unit": "g         "
        },
        {
          "DisplayOrder": 6,
          "Document": null,
          "NutritionItemID": 380,
          "NutritionItemName": "Trans Fat",
          "Predriscriptor": "",
          "Quantity": 0,
          "Unit": "g         "
        },
        {
          "DisplayOrder": 7,
          "Document": null,
          "NutritionItemID": 381,
          "NutritionItemName": "Cholesterol",
          "Predriscriptor": "",
          "Quantity": 0,
          "Unit": "mg        "
        },
        {
          "DisplayOrder": 8,
          "Document": null,
          "NutritionItemID": 389,
          "NutritionItemName": "Sodium",
          "Predriscriptor": "",
          "Quantity": 260,
          "Unit": "mg        "
        },
        {
          "DisplayOrder": 10,
          "Document": null,
          "NutritionItemID": 373,
          "NutritionItemName": "Carbohydrate",
          "Predriscriptor": "",
          "Quantity": 14,
          "Unit": "g         "
        },
        {
          "DisplayOrder": 11,
          "Document": null,
          "NutritionItemID": 374,
          "NutritionItemName": "Dietary fiber",
          "Predriscriptor": "",
          "Quantity": 1,
          "Unit": "g         "
        },
        {
          "DisplayOrder": 12,
          "Document": null,
          "NutritionItemID": 375,
          "NutritionItemName": "Sugars",
          "Predriscriptor": "",
          "Quantity": 6,
          "Unit": "g         "
        },
        {
          "DisplayOrder": 13,
          "Document": null,
          "NutritionItemID": 372,
          "NutritionItemName": "Protein",
          "Predriscriptor": "",
          "Quantity": 4,
          "Unit": "g         "
        },
        {
          "DisplayOrder": 14,
          "Document": null,
          "NutritionItemID": 382,
          "NutritionItemName": "Vitamin A",
          "Predriscriptor": "",
          "Quantity": 6,
          "Unit": "%DV       "
        },
        {
          "DisplayOrder": 15,
          "Document": null,
          "NutritionItemID": 383,
          "NutritionItemName": "Vitamin C",
          "Predriscriptor": "",
          "Quantity": 15,
          "Unit": "%DV       "
        },
        {
          "DisplayOrder": 16,
          "Document": null,
          "NutritionItemID": 386,
          "NutritionItemName": "Calcium",
          "Predriscriptor": "",
          "Quantity": 10,
          "Unit": "%DV       "
        },
        {
          "DisplayOrder": 17,
          "Document": null,
          "NutritionItemID": 387,
          "NutritionItemName": "Iron",
          "Predriscriptor": "",
          "Quantity": 4,
          "Unit": "%DV       "
        }
      ],
      "NutritionServingText": null,
      "PrepStepImage": null,
      "PreparationDescription": "Beat pudding mix and milk in medium bowl with whisk 2 min.  Stir in COOL WHIP.$Spoon half  into 6 dessert glasses; top with layers of berries and remaining pudding mixture.$Refrigerate 1 hour.  ",
      "PreparationPreText": null,
      "PreparationSteps": [
        {
          "Description": "Beat pudding mix and milk in medium bowl with whisk 2 min.  Stir in COOL WHIP.",
          "PreparationStepImage": {
            "PictureFormats": [],
            "author": null,
            "id": null,
            "imageType": null,
            "mimeType": null,
            "publicationDate": null,
            "status": null,
            "title": null,
            "type": null
          },
          "Sequence": 1
        },
        {
          "Description": "Spoon half  into 6 dessert glasses; top with layers of berries and remaining pudding mixture.",
          "PreparationStepImage": {
            "PictureFormats": [],
            "author": null,
            "id": null,
            "imageType": null,
            "mimeType": null,
            "publicationDate": null,
            "status": null,
            "title": null,
            "type": null
          },
          "Sequence": 2
        },
        {
          "Description": "Refrigerate 1 hour.  ",
          "PreparationStepImage": {
            "PictureFormats": [],
            "author": null,
            "id": null,
            "imageType": null,
            "mimeType": null,
            "publicationDate": null,
            "status": null,
            "title": null,
            "type": null
          },
          "Sequence": 3
        }
      ],
      "PreparationTime": 10,
      "Promotion": null,
      "Ratings": {
        "TotalCount": 42,
        "PageCount": 10,
        "PageNo": 1,
        "Rating": [
          {
            "Comment": "This was delicious, I didn't make it fat free though.....maybe that's why it tasted so good.",
            "DisplayName": true,
            "RatingValue": 4,
            "SubmitDate": "/Date(1344461668000-0500)/",
            "UpdatedDate": "/Date(1344461668000-0500)/",
            "UserName": "Rosiecheex"
          },
          {
            "Comment": "",
            "DisplayName": true,
            "RatingValue": 3,
            "SubmitDate": "/Date(1336754004000-0500)/",
            "UpdatedDate": "/Date(1336754004000-0500)/",
            "UserName": "sandraelaine01"
          },
          {
            "Comment": "",
            "DisplayName": true,
            "RatingValue": 3,
            "SubmitDate": "/Date(1318608067000-0500)/",
            "UpdatedDate": "/Date(1318608067000-0500)/",
            "UserName": "aemulka12"
          },
          {
            "Comment": "better than I thought it would be",
            "DisplayName": true,
            "RatingValue": 4,
            "SubmitDate": "/Date(1304467856000-0500)/",
            "UpdatedDate": "/Date(1304467856000-0500)/",
            "UserName": "justmelane"
          },
          {
            "Comment": "A quick crowd pleaser.",
            "DisplayName": true,
            "RatingValue": 4,
            "SubmitDate": "/Date(1300729548000-0500)/",
            "UpdatedDate": "/Date(1300729548000-0500)/",
            "UserName": "sharpeipup"
          },
          {
            "Comment": "",
            "DisplayName": true,
            "RatingValue": 4,
            "SubmitDate": "/Date(1269039598000-0500)/",
            "UpdatedDate": "/Date(1269039598000-0500)/",
            "UserName": "luckyclvr"
          },
          {
            "Comment": "My kids loved this.  It was quick & easy & so good.  We made it twice in one week.  We all loved it.",
            "DisplayName": true,
            "RatingValue": 4,
            "SubmitDate": "/Date(1266270745000-0600)/",
            "UpdatedDate": "/Date(1266270745000-0600)/",
            "UserName": "snyderch01"
          },
          {
            "Comment": "",
            "DisplayName": true,
            "RatingValue": 5,
            "SubmitDate": "/Date(1256935818000-0500)/",
            "UpdatedDate": "/Date(1256935818000-0500)/",
            "UserName": "crazy10300908"
          },
          {
            "Comment": "",
            "DisplayName": true,
            "RatingValue": 4,
            "SubmitDate": "/Date(1252422049000-0500)/",
            "UpdatedDate": "/Date(1252422049000-0500)/",
            "UserName": "pilotbaby"
          },
          {
            "Comment": "Perfect for people with diabetes, like me. Only 13 carbs! Cool and refreshing and my family loved it. Especially the kids. Great summer dessert!",
            "DisplayName": true,
            "RatingValue": 4,
            "SubmitDate": "/Date(1251921150000-0500)/",
            "UpdatedDate": "/Date(1251921150000-0500)/",
            "UserName": "agwalker70"
          }
        ]
      },
      "RecipeDisplayFormatId": 0,
      "RecipeId": 95087,
      "RecipeName": "Chocolate-Berry Pudding",
      "RecipeType": 0,
      "RelatedData": {
        "RelatedBrands": null,
        "RelatedProducts": null,
        "RelatedRecipes": {
          "DefaultTopCount": 5,
          "Recipe": [
            {
              "AverageRating": 5,
              "HasVideo": false,
              "IsHealthyLiving": false,
              "NumberOfRatings": 2,
              "PhotoName": "186676.jpg",
              "PhotoUrl": "http://assets.kraftfoods.com/recipe_images/opendeploy/186676.jpg",
              "RecipeId": 186676,
              "RecipeName": "Rustic Berry-Cream Tart",
              "SEOName": "rustic-berry-cream-tart-186676",
              "ThumbnailPhoto": null
            },
            {
              "AverageRating": 4.8,
              "HasVideo": false,
              "IsHealthyLiving": false,
              "NumberOfRatings": 5,
              "PhotoName": "White-Chocolate-Berry-Bread-Pudding-9131.jpg",
              "PhotoUrl": "http://assets.kraftfoods.com/recipe_images/opendeploy/White-Chocolate-Berry-Bread-Pudding-9131.jpg",
              "RecipeId": 138505,
              "RecipeName": "White Choco-Berry Bread Pudding",
              "SEOName": "white-choco-berry-bread-pudding-138505",
              "ThumbnailPhoto": null
            },
            {
              "AverageRating": 4.3,
              "HasVideo": false,
              "IsHealthyLiving": true,
              "NumberOfRatings": 13,
              "PhotoName": "75180.jpg",
              "PhotoUrl": "http://assets.kraftfoods.com/recipe_images/opendeploy/75180.jpg",
              "RecipeId": 75180,
              "RecipeName": "Chocolate-Berry Parfaits",
              "SEOName": "chocolate-berry-parfaits-75180",
              "ThumbnailPhoto": null
            },
            {
              "AverageRating": 4,
              "HasVideo": false,
              "IsHealthyLiving": false,
              "NumberOfRatings": 2,
              "PhotoName": "57631.jpg",
              "PhotoUrl": "http://assets.kraftfoods.com/recipe_images/opendeploy/57631.jpg",
              "RecipeId": 57631,
              "RecipeName": "Chocolate-Berry Dessert Cups",
              "SEOName": "chocolate-berry-dessert-cups-57631",
              "ThumbnailPhoto": null
            },
            {
              "AverageRating": 4.5,
              "HasVideo": false,
              "IsHealthyLiving": true,
              "NumberOfRatings": 13,
              "PhotoName": "opendeploy/54868-9910605930fe8cae91ec7fba0a278a4e40ce83fa_306x204.jpg",
              "PhotoUrl": "http://assets.kraftfoods.com/recipe_images/opendeploy/opendeploy/54868-9910605930fe8cae91ec7fba0a278a4e40ce83fa_306x204.jpg",
              "RecipeId": 54868,
              "RecipeName": "Low-Fat Chocolate-Berry Dessert",
              "SEOName": "low-fat-chocolate-berry-dessert-54868",
              "ThumbnailPhoto": null
            }
          ],
          "TotalCount": 1786
        }
      },
      "RiseIngredients": [
        {
          "IngredientCategory": "KRL",
          "IngredientId": 68246,
          "IngredientIndustrySector": "Retail",
          "IngredientType": "Inedible",
          "ProductId": null,
          "RecipeId": 95087
        },
        {
          "IngredientCategory": "KRL",
          "IngredientId": 68528,
          "IngredientIndustrySector": "Retail",
          "IngredientType": "Inedible",
          "ProductId": null,
          "RecipeId": 95087
        },
        {
          "IngredientCategory": "KRL",
          "IngredientId": 69038,
          "IngredientIndustrySector": "Retail",
          "IngredientType": "KHC",
          "ProductId": "00043000208106",
          "RecipeId": 95087
        },
        {
          "IngredientCategory": "KRL",
          "IngredientId": 70477,
          "IngredientIndustrySector": "Retail",
          "IngredientType": "Inedible",
          "ProductId": "00043000010846",
          "RecipeId": 95087
        }
      ],
      "RiseTaxonomy": [
        {
          "ParentTaxonomyId": 0,
          "RecipeId": 95087,
          "ResourceName": "Recipe",
          "TaxonomyId": 63,
          "TaxonomyName": "Desserts",
          "TaxonomyTypeId": 2,
          "TaxonomyTypeName": "Meal Part"
        },
        {
          "ParentTaxonomyId": 49,
          "RecipeId": 95087,
          "ResourceName": "Recipe",
          "TaxonomyId": 222,
          "TaxonomyName": "Puddings & Custards",
          "TaxonomyTypeId": 3,
          "TaxonomyTypeName": "Dish Type"
        }
      ],
      "Riserecipe": [
        {
          "GRIN": 556025,
          "RecipeId": 95087,
          "RecipeIndustrySector": "Retail",
          "RecipeType": "Internal"
        }
      ],
      "RomanceText": "Wow the crowds with this delectable Chocolate-Berry Pudding. Top this Chocolate-Berry Pudding with fresh strawberries for the perfect finishing touch.\n",
      "SEOName": "chocolate-berry-pudding-95087",
      "Tips": [
        {
          "RecipeId": 95087,
          "Sequence": 10,
          "TipDescription": "Substitute any combination of cut-up fruit for the sliced strawberries.",
          "TipID": 1,
          "TipName": "Substitute"
        },
        {
          "RecipeId": 95087,
          "Sequence": 20,
          "TipDescription": "Garnish each serving with additional 2 Tbsp. COOL WHIP and additional strawberry slices just before serving.",
          "TipID": 2,
          "TipName": "Special Extra"
        },
        {
          "RecipeId": 95087,
          "Sequence": 30,
          "TipDescription": "Remove leafy cap of the strawberry using a paring knife.  Slice strawberries, one at a time, using an egg slicer.",
          "TipID": 3,
          "TipName": "How to Quickly Slice Strawberries"
        }
      ],
      "TotalTime": 70,
      "TradeMarkInfo": null,
      "Video": [],
      "Yield": "6 servings, about 1/2 cup each"
    }
  ]
}