{
  "Metadata": {
    "PageCount": 1,
    "PageNo": 0,
    "TotalCount": 0
  },
  "Recipes": [
    {
      "AdServingKeywords": "Dessert,Chocolate,Dairy,Eggs,Nuts,Pudding,Bakers,Planters",
      "AlternateLanguageRecipes": [],
      "Assets": [],
      "AverageRating": 4.1,
      "BrandId": 1,
      "Branding": null,
      "CSSSkins": null,
      "CarbCounter": null,
      "Categories": [
        {
          "CategoryID": 3,
          "CategoryName": "Cookies/Candy/Other Desserts",
          "CategoryRank": 6,
          "SubCategoryID": 120,
          "SubCategoryName": "Puddings/Custard",
          "SubCategoryRank": 170
        },
        {
          "CategoryID": 11,
          "CategoryName": "Primary",
          "CategoryRank": 0,
          "SubCategoryID": 103,
          "SubCategoryName": "Desserts",
          "SubCategoryRank": 40
        },
        {
          "CategoryID": 758,
          "CategoryName": "Marinades, Sauces, Spreads & Frostings",
          "CategoryRank": 12,
          "SubCategoryID": 2572,
          "SubCategoryName": "Sweet",
          "SubCategoryRank": 1
        },
        {
          "CategoryID": 758,
          "CategoryName": "Marinades, Sauces, Spreads & Frostings",
          "CategoryRank": 12,
          "SubCategoryID": 2574,
          "SubCategoryName": "Hot",
          "SubCategoryRank": 1
        },
        {
          "CategoryID": 759,
          "CategoryName": "Desserts",
          "CategoryRank": 13,
          "SubCategoryID": 2576,
          "SubCategoryName": "Hot",
          "SubCategoryRank": 1
        }
      ],
      "Classifications": [],
      "ComplimentaryRecipes": null,
      "CookingMethod": null,
      "Copyright": null,
      "Courses": [
        "Desserts"
      ],
      "DietExchange": null,
      "DishDetails": [
        {
          "Text": "desserts",
          "Url": "/recipes/dessert/main.aspx"
        },
        {
          "Text": "fruity desserts",
          "Url": "/recipes/dessert/fruitydesserts.aspx"
        },
        {
          "Text": "gelatin desserts",
          "Url": "/recipes/dessert/gelatindesserts.aspx"
        },
        {
          "Text": "layered desserts",
          "Url": "/recipes/dessert/layereddesserts.aspx"
        },
        {
          "Text": "brownie recipes",
          "Url": "/recipes/dessert/brownie-recipes/main.aspx"
        },
        {
          "Text": "budget desserts",
          "Url": "/recipes/budget/budget-desserts.aspx"
        },
        {
          "Text": "no bake desserts",
          "Url": "/recipes/dessert/nobakedesserts.aspx"
        },
        {
          "Text": "pumpkin recipes",
          "Url": "/recipes/dessert/pumpkin-recipes.aspx"
        },
        {
          "Text": "chocolate cake recipes",
          "Url": "/recipes/dessert/chocolate-cake-recipes/main.aspx"
        },
        {
          "Text": "cheesecake recipes",
          "Url": "/recipes/dessert/cheesecake-center/cheesecake-recipes/main.aspx"
        },
        {
          "Text": "chocolate lovers recipes",
          "Url": "/recipes/dessert/chocolate-center/chocolateloversrecipes.aspx"
        },
        {
          "Text": "classic desserts",
          "Url": "/recipes/dessert/classicdesserts.aspx"
        },
        {
          "Text": "cookie ball recipes",
          "Url": "/recipes/dessert/cookie-ball-recipes/main.aspx"
        },
        {
          "Text": "cookie recipes",
          "Url": "/recipes/dessert/cookie-recipes/main.aspx"
        },
        {
          "Text": "cupcake recipes",
          "Url": "/recipes/dessert/cupcake-recipes/main.aspx"
        },
        {
          "Text": "healthy living desserts",
          "Url": "/healthy-living-ideas/diabetes-center/recipes/dessert-recipes.aspx"
        }
      ],
      "EndDate": "/Date(-62135575200000-0600)/",
      "HasVideo": false,
      "Ingredients": [
        {
          "FullMeasure": "4 cup",
          "FullWeight": "",
          "IngredientGridHeaders": null,
          "IngredientID": 847,
          "IngredientName": "bread",
          "IngredientStep": 10,
          "LanguageId": 0,
          "PostPreparation": " cubes (about 6 slices bread)",
          "PrePreparation": "dry",
          "QuantityNum": 4,
          "QuantityText": "4",
          "QuantityUnit": "cup",
          "RecipeIngredientID": 5924508,
          "TrialMeasure": "",
          "TrialWeight": ""
        },
        {
          "FullMeasure": "1-1/2 cups",
          "FullWeight": "",
          "IngredientGridHeaders": null,
          "IngredientID": 5723,
          "IngredientName": "BAKER'S Semi-Sweet Chocolate Chunks",
          "IngredientStep": 20,
          "LanguageId": 0,
          "PostPreparation": ", divided",
          "PrePreparation": "",
          "QuantityNum": 1,
          "QuantityText": "1-1/2",
          "QuantityUnit": "cups",
          "RecipeIngredientID": 5924510,
          "TrialMeasure": "",
          "TrialWeight": ""
        },
        {
          "FullMeasure": "2",
          "FullWeight": "",
          "IngredientGridHeaders": null,
          "IngredientID": 1060,
          "IngredientName": "egg",
          "IngredientStep": 30,
          "LanguageId": 0,
          "PostPreparation": "s",
          "PrePreparation": "",
          "QuantityNum": 2,
          "QuantityText": "2",
          "QuantityUnit": "",
          "RecipeIngredientID": 5924512,
          "TrialMeasure": "",
          "TrialWeight": ""
        },
        {
          "FullMeasure": "1-3/4 cups",
          "FullWeight": "",
          "IngredientGridHeaders": null,
          "IngredientID": 1345,
          "IngredientName": "milk",
          "IngredientStep": 40,
          "LanguageId": 0,
          "PostPreparation": "",
          "PrePreparation": "",
          "QuantityNum": 1,
          "QuantityText": "1-3/4",
          "QuantityUnit": "cups",
          "RecipeIngredientID": 5924511,
          "TrialMeasure": "",
          "TrialWeight": ""
        },
        {
          "FullMeasure": "1/2 cup",
          "FullWeight": "",
          "IngredientGridHeaders": null,
          "IngredientID": 6095,
          "IngredientName": "caramel ice cream topping",
          "IngredientStep": 50,
          "LanguageId": 0,
          "PostPreparation": "",
          "PrePreparation": "",
          "QuantityNum": 0,
          "QuantityText": "1/2",
          "QuantityUnit": "cup",
          "RecipeIngredientID": 5924506,
          "TrialMeasure": "",
          "TrialWeight": ""
        },
        {
          "FullMeasure": "1/4 cup",
          "FullWeight": "",
          "IngredientGridHeaders": null,
          "IngredientID": 863,
          "IngredientName": "butter",
          "IngredientStep": 60,
          "LanguageId": 0,
          "PostPreparation": ", melted",
          "PrePreparation": "(1/2 stick)",
          "QuantityNum": 0,
          "QuantityText": "1/4",
          "QuantityUnit": "cup",
          "RecipeIngredientID": 5924504,
          "TrialMeasure": "",
          "TrialWeight": ""
        },
        {
          "FullMeasure": "3/4 cup",
          "FullWeight": "",
          "IngredientGridHeaders": null,
          "IngredientID": 1080,
          "IngredientName": "flour",
          "IngredientStep": 70,
          "LanguageId": 0,
          "PostPreparation": "",
          "PrePreparation": "",
          "QuantityNum": 0,
          "QuantityText": "3/4",
          "QuantityUnit": "cup",
          "RecipeIngredientID": 5924509,
          "TrialMeasure": "",
          "TrialWeight": ""
        },
        {
          "FullMeasure": "1/2 cup",
          "FullWeight": "",
          "IngredientGridHeaders": null,
          "IngredientID": 1300,
          "IngredientName": "light brown sugar",
          "IngredientStep": 80,
          "LanguageId": 0,
          "PostPreparation": "",
          "PrePreparation": "firmly packed",
          "QuantityNum": 0,
          "QuantityText": "1/2",
          "QuantityUnit": "cup",
          "RecipeIngredientID": 5924507,
          "TrialMeasure": "",
          "TrialWeight": ""
        },
        {
          "FullMeasure": "1/3 cup",
          "FullWeight": "",
          "IngredientGridHeaders": null,
          "IngredientID": 863,
          "IngredientName": "butter",
          "IngredientStep": 90,
          "LanguageId": 0,
          "PostPreparation": ", softened",
          "PrePreparation": "",
          "QuantityNum": 0,
          "QuantityText": "1/3",
          "QuantityUnit": "cup",
          "RecipeIngredientID": 5924505,
          "TrialMeasure": "",
          "TrialWeight": ""
        },
        {
          "FullMeasure": "1/2 cup",
          "FullWeight": "",
          "IngredientGridHeaders": null,
          "IngredientID": 5743,
          "IngredientName": "PLANTERS Pecan Pieces",
          "IngredientStep": 100,
          "LanguageId": 0,
          "PostPreparation": ", toasted",
          "PrePreparation": "",
          "QuantityNum": 0,
          "QuantityText": "1/2",
          "QuantityUnit": "cup",
          "RecipeIngredientID": 5924503,
          "TrialMeasure": "",
          "TrialWeight": ""
        }
      ],
      "IsHealthyLiving": false,
      "KRLId": "541496",
      "KeyIngredients": [
        "Bread",
        "Chocolate",
        "Dairy",
        "Eggs"
      ],
      "Keywords": "nuts,pecans,bread,brown sugar,caramel topping,chocolate,dessert toppings,eggs,ice cream topping,milk,BAKER'S Chocolate Chunks,butter,chocolate chips,flour,semi-sweet chocolate,PLANTERS Pecans,chocolate-semi-sweet,chocolate chunks,Planters,Pudding",
      "LanguageId": 1,
      "LifeStyles": [],
      "NumberOfIngredients": 10,
      "NumberOfRatings": 13,
      "NumberOfRatingsWithComments": "5",
      "NumberOfServings": "12 servings",
      "NumberOfTrialServings": null,
      "NutritionBonus": null,
      "NutritionExchangeItemId": 0,
      "NutritionGridItems": null,
      "NutritionItems": [
        {
          "DisplayOrder": 1,
          "Document": null,
          "NutritionItemID": 3,
          "NutritionItemName": "Calories",
          "Predriscriptor": "",
          "Quantity": 370,
          "Unit": "          "
        },
        {
          "DisplayOrder": 2,
          "Document": "fat_cholesterol.html",
          "NutritionItemID": 4,
          "NutritionItemName": "Total fat",
          "Predriscriptor": "",
          "Quantity": 20,
          "Unit": "g         "
        },
        {
          "DisplayOrder": 3,
          "Document": "fat_cholesterol.html",
          "NutritionItemID": 9,
          "NutritionItemName": "Saturated fat",
          "Predriscriptor": "",
          "Quantity": 9,
          "Unit": "g         "
        },
        {
          "DisplayOrder": 7,
          "Document": "fat_cholesterol.html",
          "NutritionItemID": 2,
          "NutritionItemName": "Cholesterol",
          "Predriscriptor": "",
          "Quantity": 60,
          "Unit": "mg        "
        },
        {
          "DisplayOrder": 8,
          "Document": "sodium.html",
          "NutritionItemID": 8,
          "NutritionItemName": "Sodium",
          "Predriscriptor": "",
          "Quantity": 190,
          "Unit": "mg        "
        },
        {
          "DisplayOrder": 10,
          "Document": "carbs_sugars_fiber.html",
          "NutritionItemID": 1,
          "NutritionItemName": "Carbohydrate",
          "Predriscriptor": "",
          "Quantity": 44,
          "Unit": "g         "
        },
        {
          "DisplayOrder": 11,
          "Document": "carbs_sugars_fiber.html",
          "NutritionItemID": 7,
          "NutritionItemName": "Dietary fiber",
          "Predriscriptor": "",
          "Quantity": 2,
          "Unit": "g         "
        },
        {
          "DisplayOrder": 12,
          "Document": "carbs_sugars_fiber.html",
          "NutritionItemID": 5,
          "NutritionItemName": "Sugars",
          "Predriscriptor": "",
          "Quantity": 26,
          "Unit": "g         "
        },
        {
          "DisplayOrder": 13,
          "Document": null,
          "NutritionItemID": 6,
          "NutritionItemName": "Protein",
          "Predriscriptor": "",
          "Quantity": 6,
          "Unit": "g         "
        },
        {
          "DisplayOrder": 14,
          "Document": null,
          "NutritionItemID": 10,
          "NutritionItemName": "Vitamin A",
          "Predriscriptor": "",
          "Quantity": 8,
          "Unit": "%DV       "
        },
        {
          "DisplayOrder": 15,
          "Document": null,
          "NutritionItemID": 11,
          "NutritionItemName": "Vitamin C",
          "Predriscriptor": "",
          "Quantity": 0,
          "Unit": "%DV       "
        },
        {
          "DisplayOrder": 16,
          "Document": "dairy_and_calcium.html",
          "NutritionItemID": 12,
          "NutritionItemName": "Calcium",
          "Predriscriptor": "",
          "Quantity": 10,
          "Unit": "%DV       "
        },
        {
          "DisplayOrder": 17,
          "Document": null,
          "NutritionItemID": 13,
          "NutritionItemName": "Iron",
          "Predriscriptor": "",
          "Quantity": 15,
          "Unit": "%DV       "
        }
      ],
      "NutritionServingText": null,
      "PrepStepImage": null,
      "PreparationDescription": "Preheat oven to 350°F.  Toss bread cubes with 1 cup of the chocolate chunks in greased 9-inch square baking pan. $Beat eggs in large bowl with wire whisk until foamy.  Add milk, caramel-flavored topping and melted butter; beat until well blended.  Pour evenly over bread mixture in pan.$Bake 20 min.  Meanwhile, mix flour, sugar and softened butter in medium bowl until crumbly.  Add pecans and remaining 1/2 cup chocolate chunks.  Sprinkle over pudding.  Bake an additional 25 min. or until center is set.  Cool slightly. ",
      "PreparationPreText": null,
      "PreparationSteps": [
        {
          "Description": "Preheat oven to 350°F.  Toss bread cubes with 1 cup of the chocolate chunks in greased 9-inch square baking pan. ",
          "PreparationStepImage": {
            "PictureFormats": [],
            "author": null,
            "id": null,
            "imageType": null,
            "mimeType": null,
            "publicationDate": null,
            "status": null,
            "title": null,
            "type": null
          },
          "Sequence": 1
        },
        {
          "Description": "Beat eggs in large bowl with wire whisk until foamy.  Add milk, caramel-flavored topping and melted butter; beat until well blended.  Pour evenly over bread mixture in pan.",
          "PreparationStepImage": {
            "PictureFormats": [],
            "author": null,
            "id": null,
            "imageType": null,
            "mimeType": null,
            "publicationDate": null,
            "status": null,
            "title": null,
            "type": null
          },
          "Sequence": 2
        },
        {
          "Description": "Bake 20 min.  Meanwhile, mix flour, sugar and softened butter in medium bowl until crumbly.  Add pecans and remaining 1/2 cup chocolate chunks.  Sprinkle over pudding.  Bake an additional 25 min. or until center is set.  Cool slightly. ",
          "PreparationStepImage": {
            "PictureFormats": [],
            "author": null,
            "id": null,
            "imageType": null,
            "mimeType": null,
            "publicationDate": null,
            "status": null,
            "title": null,
            "type": null
          },
          "Sequence": 3
        }
      ],
      "PreparationTime": 20,
      "Promotion": null,
      "Ratings": {
        "TotalCount": 13,
        "PageCount": 10,
        "PageNo": 1,
        "Rating": [
          {
            "Comment": "This bread pudding is excellent, but very rich.  I would definitely make it again, but with less chocolate chips.  The caramel sweetens the bread so much already, the chips seem to overdo it.",
            "DisplayName": true,
            "RatingValue": 4,
            "SubmitDate": "/Date(1081984379000-0500)/",
            "UpdatedDate": "/Date(1081984379000-0500)/",
            "UserName": "melissadiane75"
          },
          {
            "Comment": "i really enjoy doing this desert , all my friend liked it,but i used my own home made caramel & it was real good.",
            "DisplayName": false,
            "RatingValue": 4,
            "SubmitDate": "/Date(1070141316000-0600)/",
            "UpdatedDate": "/Date(1070141316000-0600)/",
            "UserName": "anwarahmed"
          },
          {
            "Comment": "It was absolutely deliciuos",
            "DisplayName": true,
            "RatingValue": 5,
            "SubmitDate": "/Date(1037310062000-0600)/",
            "UpdatedDate": "/Date(1037310062000-0600)/",
            "UserName": "Junie456"
          },
          {
            "Comment": "",
            "DisplayName": false,
            "RatingValue": 4,
            "SubmitDate": "/Date(1035916217000-0500)/",
            "UpdatedDate": "/Date(1035916217000-0500)/",
            "UserName": "joelandchrisdls"
          },
          {
            "Comment": "",
            "DisplayName": false,
            "RatingValue": 3,
            "SubmitDate": "/Date(1035743060000-0500)/",
            "UpdatedDate": "/Date(1035743060000-0500)/",
            "UserName": "jkaestner1"
          },
          {
            "Comment": "",
            "DisplayName": false,
            "RatingValue": 4,
            "SubmitDate": "/Date(1035682622000-0500)/",
            "UpdatedDate": "/Date(1035682622000-0500)/",
            "UserName": "naghma788"
          },
          {
            "Comment": "Delicious and everyone likes",
            "DisplayName": false,
            "RatingValue": 5,
            "SubmitDate": "/Date(1035397384000-0500)/",
            "UpdatedDate": "/Date(1035397384000-0500)/",
            "UserName": "Linda406"
          },
          {
            "Comment": "",
            "DisplayName": true,
            "RatingValue": 5,
            "SubmitDate": "/Date(1035392558000-0500)/",
            "UpdatedDate": "/Date(1035392558000-0500)/",
            "UserName": "Supers"
          },
          {
            "Comment": "",
            "DisplayName": false,
            "RatingValue": 2,
            "SubmitDate": "/Date(1035382438000-0500)/",
            "UpdatedDate": "/Date(1035382438000-0500)/",
            "UserName": "dguss"
          },
          {
            "Comment": "I have made this before, it is great.",
            "DisplayName": true,
            "RatingValue": 5,
            "SubmitDate": "/Date(1035329279000-0500)/",
            "UpdatedDate": "/Date(1035329279000-0500)/",
            "UserName": "bobbin52"
          }
        ]
      },
      "RecipeDisplayFormatId": 5,
      "RecipeId": 56657,
      "RecipeName": "Chocolate Chunk Turtle Bread Pudding",
      "RecipeType": 0,
      "RelatedData": {
        "RelatedBrands": null,
        "RelatedProducts": null,
        "RelatedRecipes": {
          "DefaultTopCount": 5,
          "Recipe": [
            {
              "AverageRating": 4.4,
              "HasVideo": true,
              "IsHealthyLiving": false,
              "NumberOfRatings": 14,
              "PhotoName": "138546.jpg",
              "PhotoUrl": "http://assets.kraftfoods.com/recipe_images/opendeploy/138546.jpg",
              "RecipeId": 138546,
              "RecipeName": "Chocolate-Caramel Turtle Torte",
              "SEOName": "chocolate-caramel-turtle-torte-138546",
              "ThumbnailPhoto": null
            },
            {
              "AverageRating": 4.8,
              "HasVideo": false,
              "IsHealthyLiving": false,
              "NumberOfRatings": 4,
              "PhotoName": "Chocolate-Glazed-Turtle-Pie-778.jpg",
              "PhotoUrl": "http://assets.kraftfoods.com/recipe_images/opendeploy/Chocolate-Glazed-Turtle-Pie-778.jpg",
              "RecipeId": 111070,
              "RecipeName": "Chocolate-Glazed  Turtle Pie",
              "SEOName": "chocolate-glazed-turtle-pie-111070",
              "ThumbnailPhoto": null
            },
            {
              "AverageRating": 5,
              "HasVideo": false,
              "IsHealthyLiving": false,
              "NumberOfRatings": 2,
              "PhotoName": "Turtle-Cake-58684.jpg",
              "PhotoUrl": "http://assets.kraftfoods.com/recipe_images/opendeploy/Turtle-Cake-58684.jpg",
              "RecipeId": 149081,
              "RecipeName": "Smart-Choice Turtle Cake",
              "SEOName": "smart-choice-turtle-cake-149081",
              "ThumbnailPhoto": null
            },
            {
              "AverageRating": 4.7,
              "HasVideo": false,
              "IsHealthyLiving": false,
              "NumberOfRatings": 29,
              "PhotoName": "119340.jpg",
              "PhotoUrl": "http://assets.kraftfoods.com/recipe_images/opendeploy/119340.jpg",
              "RecipeId": 119340,
              "RecipeName": "Turtle Cake",
              "SEOName": "turtle-cake-119340",
              "ThumbnailPhoto": null
            },
            {
              "AverageRating": 4,
              "HasVideo": false,
              "IsHealthyLiving": false,
              "NumberOfRatings": 9,
              "PhotoName": "Turtle-Brownie-Pie-9550A.jpg",
              "PhotoUrl": "http://assets.kraftfoods.com/recipe_images/opendeploy/Turtle-Brownie-Pie-9550A.jpg",
              "RecipeId": 115277,
              "RecipeName": "Turtle Brownie Pie",
              "SEOName": "turtle-brownie-pie-115277",
              "ThumbnailPhoto": null
            }
          ],
          "TotalCount": 2217
        }
      },
      "RiseIngredients": [],
      "RiseTaxonomy": [],
      "Riserecipe": [
        {
          "GRIN": 541496,
          "RecipeId": 56657,
          "RecipeIndustrySector": "Retail",
          "RecipeType": "Internal"
        }
      ],
      "RomanceText": null,
      "SEOName": "chocolate-chunk-turtle-bread-pudding-56657",
      "Tips": [
        {
          "RecipeId": 56657,
          "Sequence": 10,
          "TipDescription": "Save room for this special occasion dessert by planning ahead.  For example, watch portions and choose lower-fat foods beforehand.",
          "TipID": 2,
          "TipName": "Size Wise"
        },
        {
          "RecipeId": 56657,
          "Sequence": 20,
          "TipDescription": "Spread nuts in single layer on baking sheet.  Bake at 350°F for 5 to 7 min. or until lightly toasted, stirring occasionally.",
          "TipID": 1,
          "TipName": "How to Toast Nuts"
        }
      ],
      "TotalTime": 65,
      "TradeMarkInfo": null,
      "Video": [],
      "Yield": "Makes 12 servings."
    }
  ]
}