{
  "Metadata": {
    "PageCount": 1,
    "PageNo": 0,
    "TotalCount": 0
  },
  "Recipes": [
    {
      "AdServingKeywords": "Cheese,Ketchup,Onion,Vegetables,Yellow Mustard,Appetizer,Nutrition and Well-Being,All Seasons,Boca,Claussen,Heinz Ketchup,Heinz Yellow Mustard,Kraft Singles",
      "AlternateLanguageRecipes": [],
      "Assets": [],
      "AverageRating": 0,
      "BrandId": 1,
      "Branding": null,
      "CSSSkins": null,
      "CarbCounter": "1/2",
      "Categories": [
        {
          "CategoryID": 6,
          "CategoryName": "Appetizers/Snacks",
          "CategoryRank": 1,
          "SubCategoryID": 23,
          "SubCategoryName": "Other Hot Appetizers",
          "SubCategoryRank": 90
        },
        {
          "CategoryID": 11,
          "CategoryName": "Primary",
          "CategoryRank": 0,
          "SubCategoryID": 96,
          "SubCategoryName": "Appetizers & Snacks",
          "SubCategoryRank": 10
        },
        {
          "CategoryID": 748,
          "CategoryName": "Finger Food, Dips & Appetisers",
          "CategoryRank": 2,
          "SubCategoryID": 2523,
          "SubCategoryName": "Hot",
          "SubCategoryRank": 1
        }
      ],
      "Classifications": [
        {
          "ClassficationId": 9,
          "ClassificationName": "Low fat"
        },
        {
          "ClassficationId": 14,
          "ClassificationName": "Generally Nutritious"
        },
        {
          "ClassficationId": 119,
          "ClassificationName": "Diabetes Center"
        }
      ],
      "ComplimentaryRecipes": null,
      "CookingMethod": null,
      "Copyright": null,
      "Courses": [
        "Appetizers"
      ],
      "DietExchange": "1/2 Starch,1 Meat (L)",
      "DishDetails": [
        {
          "Text": "appetizers",
          "Url": "/recipes/appetizers/main.aspx"
        },
        {
          "Text": "cold appetizers",
          "Url": "/recipes/appetizers/coldappetizers.aspx"
        },
        {
          "Text": "cheese plates",
          "Url": "/recipes/appetizers/entertainingcheeseplates.aspx"
        },
        {
          "Text": "hot appetizers",
          "Url": "/recipes/appetizers/hotappetizers.aspx"
        },
        {
          "Text": "quick appetizers",
          "Url": "/recipes/appetizers/quick.aspx"
        },
        {
          "Text": "salsa recipes",
          "Url": "/recipes/appetizers/salsa-recipes/main.aspx"
        },
        {
          "Text": "seafood appetizers",
          "Url": "/recipes/dinner/seafood/appetizers/main.aspx"
        },
        {
          "Text": "dip recipes",
          "Url": "/recipes/appetizers/dip-recipes/main.aspx"
        }
      ],
      "EndDate": "/Date(-62135575200000-0600)/",
      "HasVideo": false,
      "Ingredients": [
        {
          "FullMeasure": "1/4 cup",
          "FullWeight": "",
          "IngredientGridHeaders": null,
          "IngredientID": 1370,
          "IngredientName": "onion",
          "IngredientStep": 10,
          "LanguageId": 0,
          "PostPreparation": "s",
          "PrePreparation": "finely chopped",
          "QuantityNum": 0,
          "QuantityText": "1/4",
          "QuantityUnit": "cup",
          "RecipeIngredientID": 4445762,
          "TrialMeasure": "",
          "TrialWeight": ""
        },
        {
          "FullMeasure": "2 Tbsp.",
          "FullWeight": "",
          "IngredientGridHeaders": null,
          "IngredientID": 887,
          "IngredientName": "HEINZ Tomato Ketchup",
          "IngredientStep": 20,
          "LanguageId": 0,
          "PostPreparation": "",
          "PrePreparation": "",
          "QuantityNum": 2,
          "QuantityText": "2",
          "QuantityUnit": "Tbsp.",
          "RecipeIngredientID": 4445760,
          "TrialMeasure": "",
          "TrialWeight": ""
        },
        {
          "FullMeasure": "1 Tbsp.",
          "FullWeight": "",
          "IngredientGridHeaders": null,
          "IngredientID": 1491,
          "IngredientName": "HEINZ Yellow Mustard",
          "IngredientStep": 30,
          "LanguageId": 0,
          "PostPreparation": "",
          "PrePreparation": "",
          "QuantityNum": 1,
          "QuantityText": "1",
          "QuantityUnit": "Tbsp.",
          "RecipeIngredientID": 4445758,
          "TrialMeasure": "",
          "TrialWeight": ""
        },
        {
          "FullMeasure": "8",
          "FullWeight": "",
          "IngredientGridHeaders": null,
          "IngredientID": 20522,
          "IngredientName": "whole wheat hot dog bun",
          "IngredientStep": 40,
          "LanguageId": 0,
          "PostPreparation": "s, cut into thirds",
          "PrePreparation": "",
          "QuantityNum": 7,
          "QuantityText": "8",
          "QuantityUnit": "",
          "RecipeIngredientID": 4445764,
          "TrialMeasure": "",
          "TrialWeight": ""
        },
        {
          "FullMeasure": "6",
          "FullWeight": "",
          "IngredientGridHeaders": null,
          "IngredientID": 7809,
          "IngredientName": "BOCA All American Flamed Grilled Veggie Burger",
          "IngredientStep": 50,
          "LanguageId": 0,
          "PostPreparation": "s, quartered",
          "PrePreparation": "",
          "QuantityNum": 6,
          "QuantityText": "6",
          "QuantityUnit": "",
          "RecipeIngredientID": 4445763,
          "TrialMeasure": "",
          "TrialWeight": ""
        },
        {
          "FullMeasure": "3",
          "FullWeight": "",
          "IngredientGridHeaders": null,
          "IngredientID": 122,
          "IngredientName": "CLAUSSEN Kosher Dill Sandwich Slices",
          "IngredientStep": 60,
          "LanguageId": 0,
          "PostPreparation": ",  each cut into 8 small squares",
          "PrePreparation": "",
          "QuantityNum": 3,
          "QuantityText": "3",
          "QuantityUnit": "",
          "RecipeIngredientID": 4445761,
          "TrialMeasure": "",
          "TrialWeight": ""
        },
        {
          "FullMeasure": "6",
          "FullWeight": "",
          "IngredientGridHeaders": null,
          "IngredientID": 3298,
          "IngredientName": "KRAFT 2% Milk Singles",
          "IngredientStep": 70,
          "LanguageId": 0,
          "PostPreparation": ", quartered",
          "PrePreparation": "",
          "QuantityNum": 6,
          "QuantityText": "6",
          "QuantityUnit": "",
          "RecipeIngredientID": 4445759,
          "TrialMeasure": "",
          "TrialWeight": ""
        }
      ],
      "IsHealthyLiving": true,
      "KRLId": "567383",
      "KeyIngredients": [
        "Bread",
        "Cheese",
        "Onion",
        "Tomato",
        "Vegetables"
      ],
      "Keywords": "mustard,onions,pickles,hot dog buns,rolls,american cheese,BOCA Meatless Products,catsup,cheese,CLAUSSEN Pickles,KRAFT Singles,ketchup,cheese slices,meatless burgers,singles,veggie burgers,Appetizer,Nutrition and Well-Being,All Seasons",
      "LanguageId": 1,
      "LifeStyles": [
        "Low fat",
        "Generally Nutritious",
        "Diabetes Center"
      ],
      "NumberOfIngredients": 7,
      "NumberOfRatings": 0,
      "NumberOfRatingsWithComments": "0",
      "NumberOfServings": "24 servings",
      "NumberOfTrialServings": "",
      "NutritionBonus": "If you are looking for a party recipe to feed a crowd, these scrumptious low-fat appetizers fit the bill.",
      "NutritionExchangeItemId": 2,
      "NutritionGridItems": null,
      "NutritionItems": [
        {
          "DisplayOrder": 1,
          "Document": null,
          "NutritionItemID": 3,
          "NutritionItemName": "Calories",
          "Predriscriptor": "",
          "Quantity": 90,
          "Unit": "          "
        },
        {
          "DisplayOrder": 2,
          "Document": "fat_cholesterol.html",
          "NutritionItemID": 4,
          "NutritionItemName": "Total fat",
          "Predriscriptor": "",
          "Quantity": 2.5,
          "Unit": "g         "
        },
        {
          "DisplayOrder": 3,
          "Document": "fat_cholesterol.html",
          "NutritionItemID": 9,
          "NutritionItemName": "Saturated fat",
          "Predriscriptor": "",
          "Quantity": 1,
          "Unit": "g         "
        },
        {
          "DisplayOrder": 7,
          "Document": "fat_cholesterol.html",
          "NutritionItemID": 2,
          "NutritionItemName": "Cholesterol",
          "Predriscriptor": "Less than",
          "Quantity": 5,
          "Unit": "mg        "
        },
        {
          "DisplayOrder": 8,
          "Document": "sodium.html",
          "NutritionItemID": 8,
          "NutritionItemName": "Sodium",
          "Predriscriptor": "",
          "Quantity": 300,
          "Unit": "mg        "
        },
        {
          "DisplayOrder": 10,
          "Document": "carbs_sugars_fiber.html",
          "NutritionItemID": 1,
          "NutritionItemName": "Carbohydrate",
          "Predriscriptor": "",
          "Quantity": 10,
          "Unit": "g         "
        },
        {
          "DisplayOrder": 11,
          "Document": "carbs_sugars_fiber.html",
          "NutritionItemID": 7,
          "NutritionItemName": "Dietary fiber",
          "Predriscriptor": "",
          "Quantity": 2,
          "Unit": "g         "
        },
        {
          "DisplayOrder": 12,
          "Document": "carbs_sugars_fiber.html",
          "NutritionItemID": 5,
          "NutritionItemName": "Sugars",
          "Predriscriptor": "",
          "Quantity": 2,
          "Unit": "g         "
        },
        {
          "DisplayOrder": 13,
          "Document": null,
          "NutritionItemID": 6,
          "NutritionItemName": "Protein",
          "Predriscriptor": "",
          "Quantity": 7,
          "Unit": "g         "
        },
        {
          "DisplayOrder": 14,
          "Document": null,
          "NutritionItemID": 10,
          "NutritionItemName": "Vitamin A",
          "Predriscriptor": "",
          "Quantity": 0,
          "Unit": "%DV       "
        },
        {
          "DisplayOrder": 15,
          "Document": null,
          "NutritionItemID": 11,
          "NutritionItemName": "Vitamin C",
          "Predriscriptor": "",
          "Quantity": 0,
          "Unit": "%DV       "
        },
        {
          "DisplayOrder": 16,
          "Document": "dairy_and_calcium.html",
          "NutritionItemID": 12,
          "NutritionItemName": "Calcium",
          "Predriscriptor": "",
          "Quantity": 10,
          "Unit": "%DV       "
        },
        {
          "DisplayOrder": 17,
          "Document": null,
          "NutritionItemID": 13,
          "NutritionItemName": "Iron",
          "Predriscriptor": "",
          "Quantity": 6,
          "Unit": "%DV       "
        }
      ],
      "NutritionServingText": "",
      "PrepStepImage": null,
      "PreparationDescription": "Combine first 3 ingredients.$Fill buns with burgers, onion mixture, pickles and 2% Milk Singles.  Place in 13x9-inch pan sprayed with cooking spray; cover.$Bake 30 to 35 min. or until burgers are heated through (160ºF).  Let stand 5 min. before serving.",
      "PreparationPreText": "Heat oven to 350ºF.",
      "PreparationSteps": [
        {
          "Description": "Combine first 3 ingredients.",
          "PreparationStepImage": {
            "PictureFormats": [],
            "author": null,
            "id": null,
            "imageType": null,
            "mimeType": null,
            "publicationDate": null,
            "status": null,
            "title": null,
            "type": null
          },
          "Sequence": 1
        },
        {
          "Description": "Fill buns with burgers, onion mixture, pickles and 2% Milk Singles.  Place in 13x9-inch pan sprayed with cooking spray; cover.",
          "PreparationStepImage": {
            "PictureFormats": [],
            "author": null,
            "id": null,
            "imageType": null,
            "mimeType": null,
            "publicationDate": null,
            "status": null,
            "title": null,
            "type": null
          },
          "Sequence": 2
        },
        {
          "Description": "Bake 30 to 35 min. or until burgers are heated through (160ºF).  Let stand 5 min. before serving.",
          "PreparationStepImage": {
            "PictureFormats": [],
            "author": null,
            "id": null,
            "imageType": null,
            "mimeType": null,
            "publicationDate": null,
            "status": null,
            "title": null,
            "type": null
          },
          "Sequence": 3
        }
      ],
      "PreparationTime": 20,
      "Promotion": null,
      "Ratings": {
        "TotalCount": 0,
        "PageCount": 10,
        "PageNo": 1,
        "Rating": []
      },
      "RecipeDisplayFormatId": 5,
      "RecipeId": 162726,
      "RecipeName": "BOCA Mini Sandwiches",
      "RecipeType": 0,
      "RelatedData": {
        "RelatedBrands": null,
        "RelatedProducts": null,
        "RelatedRecipes": {
          "DefaultTopCount": 5,
          "Recipe": [
            {
              "AverageRating": 4,
              "HasVideo": false,
              "IsHealthyLiving": false,
              "NumberOfRatings": 2,
              "PhotoName": "Nugget_Parmigiana_Sub.jpg",
              "PhotoUrl": "http://assets.kraftfoods.com/recipe_images/opendeploy/Nugget_Parmigiana_Sub.jpg",
              "RecipeId": 50929,
              "RecipeName": "Nugget Parmigiana Sub",
              "SEOName": "nugget-parmigiana-sub-50929",
              "ThumbnailPhoto": null
            },
            {
              "AverageRating": 4.1,
              "HasVideo": false,
              "IsHealthyLiving": true,
              "NumberOfRatings": 52,
              "PhotoName": "Baked_BOCA_Penne.jpg",
              "PhotoUrl": "http://assets.kraftfoods.com/recipe_images/opendeploy/Baked_BOCA_Penne.jpg",
              "RecipeId": 57005,
              "RecipeName": "BOCA Baked Penne",
              "SEOName": "boca-baked-penne-57005",
              "ThumbnailPhoto": null
            },
            {
              "AverageRating": 4.6,
              "HasVideo": false,
              "IsHealthyLiving": true,
              "NumberOfRatings": 10,
              "PhotoName": "50491.jpg",
              "PhotoUrl": "http://assets.kraftfoods.com/recipe_images/opendeploy/50491.jpg",
              "RecipeId": 50491,
              "RecipeName": "BOCA Pasta Bake",
              "SEOName": "boca-pasta-bake-50491",
              "ThumbnailPhoto": null
            },
            {
              "AverageRating": 4.3,
              "HasVideo": false,
              "IsHealthyLiving": true,
              "NumberOfRatings": 7,
              "PhotoName": "BOCA_Sloppy_Joes.jpg",
              "PhotoUrl": "http://assets.kraftfoods.com/recipe_images/opendeploy/BOCA_Sloppy_Joes.jpg",
              "RecipeId": 62653,
              "RecipeName": "BOCA Vegetarian Sloppy Joes",
              "SEOName": "boca-vegetarian-sloppy-joes-62653",
              "ThumbnailPhoto": null
            },
            {
              "AverageRating": 5,
              "HasVideo": false,
              "IsHealthyLiving": true,
              "NumberOfRatings": 2,
              "PhotoName": "61707.jpg",
              "PhotoUrl": "http://assets.kraftfoods.com/recipe_images/opendeploy/61707.jpg",
              "RecipeId": 61707,
              "RecipeName": "BOCA Burgers with Salsa Fresca",
              "SEOName": "boca-burgers-salsa-fresca-61707",
              "ThumbnailPhoto": null
            }
          ],
          "TotalCount": 1330
        }
      },
      "RiseIngredients": [],
      "RiseTaxonomy": [],
      "Riserecipe": [
        {
          "GRIN": 567383,
          "RecipeId": 162726,
          "RecipeIndustrySector": "Retail",
          "RecipeType": "Internal"
        }
      ],
      "RomanceText": "Serve the vegetarians at your party some slider fun with these tasty mini sandwiches stuffed with veggie burgers and all the fixings.",
      "SEOName": "boca-mini-sandwiches-162726",
      "Tips": [
        {
          "RecipeId": 162726,
          "Sequence": 10,
          "TipDescription": "If bringing to a tail-gating party, assemble sandwiches as directed.  Place in 13x9-inch foil pan; cover.  Refrigerate until ready to cook. Heat grill on medium heat.  Grill sandwiches over indirect heat until burgers are heated through (160ºF). ",
          "TipID": 1,
          "TipName": "Take Along"
        }
      ],
      "TotalTime": 55,
      "TradeMarkInfo": null,
      "Video": [],
      "Yield": "Makes 24 servings."
    }
  ]
}