{
  "Metadata": {
    "PageCount": 1,
    "PageNo": 0,
    "TotalCount": 0
  },
  "Recipes": [
    {
      "AdServingKeywords": "Cheese,Dairy,Onion,Sour Cream,Tomato,Vegetables,Appetizer,Chili,All Seasons,Breakstones,Knudsen,Velveeta,Spicy",
      "AlternateLanguageRecipes": [],
      "Assets": [],
      "AverageRating": 4.3,
      "BrandId": 1,
      "Branding": null,
      "CSSSkins": null,
      "CarbCounter": null,
      "Categories": [
        {
          "CategoryID": 6,
          "CategoryName": "Appetizers/Snacks",
          "CategoryRank": 1,
          "SubCategoryID": 127,
          "SubCategoryName": "Nachos/Quesadillas",
          "SubCategoryRank": 80
        },
        {
          "CategoryID": 11,
          "CategoryName": "Primary",
          "CategoryRank": 0,
          "SubCategoryID": 96,
          "SubCategoryName": "Appetizers & Snacks",
          "SubCategoryRank": 10
        },
        {
          "CategoryID": 749,
          "CategoryName": "Snacks, Soups & Entrées",
          "CategoryRank": 3,
          "SubCategoryID": 2525,
          "SubCategoryName": "Hot",
          "SubCategoryRank": 1
        },
        {
          "CategoryID": 755,
          "CategoryName": "International Flavours",
          "CategoryRank": 9,
          "SubCategoryID": 2555,
          "SubCategoryName": "Mexican / Spanish",
          "SubCategoryRank": 1
        }
      ],
      "Classifications": [],
      "ComplimentaryRecipes": null,
      "CookingMethod": null,
      "Copyright": null,
      "Courses": [
        "Appetizers"
      ],
      "DietExchange": null,
      "DishDetails": [
        {
          "Text": "appetizers",
          "Url": "/recipes/appetizers/main.aspx"
        },
        {
          "Text": "cold appetizers",
          "Url": "/recipes/appetizers/coldappetizers.aspx"
        },
        {
          "Text": "cheese plates",
          "Url": "/recipes/appetizers/entertainingcheeseplates.aspx"
        },
        {
          "Text": "hot appetizers",
          "Url": "/recipes/appetizers/hotappetizers.aspx"
        },
        {
          "Text": "quick appetizers",
          "Url": "/recipes/appetizers/quick.aspx"
        },
        {
          "Text": "salsa recipes",
          "Url": "/recipes/appetizers/salsa-recipes/main.aspx"
        },
        {
          "Text": "seafood appetizers",
          "Url": "/recipes/dinner/seafood/appetizers/main.aspx"
        },
        {
          "Text": "dip recipes",
          "Url": "/recipes/appetizers/dip-recipes/main.aspx"
        },
        {
          "Text": "chili recipes",
          "Url": "/recipes/comfort-food/chili-recipes.aspx"
        }
      ],
      "EndDate": "/Date(-62135575200000-0600)/",
      "HasVideo": false,
      "Ingredients": [
        {
          "FullMeasure": "6 oz.",
          "FullWeight": "",
          "IngredientGridHeaders": null,
          "IngredientID": 3454,
          "IngredientName": "tortilla chips",
          "IngredientStep": 10,
          "LanguageId": 0,
          "PostPreparation": " (about 7 cups)",
          "PrePreparation": "",
          "QuantityNum": 6,
          "QuantityText": "6",
          "QuantityUnit": "oz.",
          "RecipeIngredientID": 3424950,
          "TrialMeasure": "",
          "TrialWeight": ""
        },
        {
          "FullMeasure": "1 can",
          "FullWeight": "",
          "IngredientGridHeaders": null,
          "IngredientID": 18338,
          "IngredientName": "chili",
          "IngredientStep": 20,
          "LanguageId": 0,
          "PostPreparation": " with beans",
          "PrePreparation": "(15 oz.)",
          "QuantityNum": 1,
          "QuantityText": "1",
          "QuantityUnit": "can",
          "RecipeIngredientID": 3424952,
          "TrialMeasure": "",
          "TrialWeight": ""
        },
        {
          "FullMeasure": "1/2 lb.",
          "FullWeight": "",
          "IngredientGridHeaders": null,
          "IngredientID": 754,
          "IngredientName": "VELVEETA®",
          "IngredientStep": 30,
          "LanguageId": 0,
          "PostPreparation": ", cut into 1/2-inch cubes",
          "PrePreparation": "(8 oz.)",
          "QuantityNum": 0,
          "QuantityText": "1/2",
          "QuantityUnit": "lb.",
          "RecipeIngredientID": 3424949,
          "TrialMeasure": "",
          "TrialWeight": ""
        },
        {
          "FullMeasure": "1",
          "FullWeight": "",
          "IngredientGridHeaders": null,
          "IngredientID": 1702,
          "IngredientName": "tomato",
          "IngredientStep": 40,
          "LanguageId": 0,
          "PostPreparation": ", finely chopped",
          "PrePreparation": "",
          "QuantityNum": 1,
          "QuantityText": "1",
          "QuantityUnit": "",
          "RecipeIngredientID": 3424953,
          "TrialMeasure": "",
          "TrialWeight": ""
        },
        {
          "FullMeasure": "2",
          "FullWeight": "",
          "IngredientGridHeaders": null,
          "IngredientID": 7023,
          "IngredientName": "green onions",
          "IngredientStep": 50,
          "LanguageId": 0,
          "PostPreparation": ", sliced",
          "PrePreparation": "",
          "QuantityNum": 2,
          "QuantityText": "2",
          "QuantityUnit": "",
          "RecipeIngredientID": 3424951,
          "TrialMeasure": "",
          "TrialWeight": ""
        },
        {
          "FullMeasure": "1/3 cup",
          "FullWeight": "",
          "IngredientGridHeaders": null,
          "IngredientID": 88,
          "IngredientName": "BREAKSTONE'S or KNUDSEN Sour Cream",
          "IngredientStep": 60,
          "LanguageId": 0,
          "PostPreparation": "",
          "PrePreparation": "",
          "QuantityNum": 0,
          "QuantityText": "1/3",
          "QuantityUnit": "cup",
          "RecipeIngredientID": 3424948,
          "TrialMeasure": "",
          "TrialWeight": ""
        }
      ],
      "IsHealthyLiving": false,
      "KRLId": "552450",
      "KeyIngredients": [
        "Cheese",
        "Dairy",
        "Fruit",
        "Onion",
        "Tomato",
        "Vegetables"
      ],
      "Keywords": "american cheese,BREAKSTONE'S Sour Cream,cheese,chili,KNUDSEN Sour Cream,scallions,sour cream,tomatoes,tortilla chips,VELVEETA,green onions,Appetizer,All Seasons,Spicy",
      "LanguageId": 1,
      "LifeStyles": [],
      "NumberOfIngredients": 6,
      "NumberOfRatings": 3,
      "NumberOfRatingsWithComments": "2",
      "NumberOfServings": "6 servings",
      "NumberOfTrialServings": null,
      "NutritionBonus": null,
      "NutritionExchangeItemId": 0,
      "NutritionGridItems": null,
      "NutritionItems": [
        {
          "DisplayOrder": 1,
          "Document": null,
          "NutritionItemID": 3,
          "NutritionItemName": "Calories",
          "Predriscriptor": "",
          "Quantity": 350,
          "Unit": "          "
        },
        {
          "DisplayOrder": 2,
          "Document": "fat_cholesterol.html",
          "NutritionItemID": 4,
          "NutritionItemName": "Total fat",
          "Predriscriptor": "",
          "Quantity": 19,
          "Unit": "g         "
        },
        {
          "DisplayOrder": 3,
          "Document": "fat_cholesterol.html",
          "NutritionItemID": 9,
          "NutritionItemName": "Saturated fat",
          "Predriscriptor": "",
          "Quantity": 8,
          "Unit": "g         "
        },
        {
          "DisplayOrder": 7,
          "Document": "fat_cholesterol.html",
          "NutritionItemID": 2,
          "NutritionItemName": "Cholesterol",
          "Predriscriptor": "",
          "Quantity": 45,
          "Unit": "mg        "
        },
        {
          "DisplayOrder": 8,
          "Document": "sodium.html",
          "NutritionItemID": 8,
          "NutritionItemName": "Sodium",
          "Predriscriptor": "",
          "Quantity": 1080,
          "Unit": "mg        "
        },
        {
          "DisplayOrder": 10,
          "Document": "carbs_sugars_fiber.html",
          "NutritionItemID": 1,
          "NutritionItemName": "Carbohydrate",
          "Predriscriptor": "",
          "Quantity": 33,
          "Unit": "g         "
        },
        {
          "DisplayOrder": 11,
          "Document": "carbs_sugars_fiber.html",
          "NutritionItemID": 7,
          "NutritionItemName": "Dietary fiber",
          "Predriscriptor": "",
          "Quantity": 5,
          "Unit": "g         "
        },
        {
          "DisplayOrder": 12,
          "Document": "carbs_sugars_fiber.html",
          "NutritionItemID": 5,
          "NutritionItemName": "Sugars",
          "Predriscriptor": "",
          "Quantity": 6,
          "Unit": "g         "
        },
        {
          "DisplayOrder": 13,
          "Document": null,
          "NutritionItemID": 6,
          "NutritionItemName": "Protein",
          "Predriscriptor": "",
          "Quantity": 13,
          "Unit": "g         "
        },
        {
          "DisplayOrder": 14,
          "Document": null,
          "NutritionItemID": 10,
          "NutritionItemName": "Vitamin A",
          "Predriscriptor": "",
          "Quantity": 20,
          "Unit": "%DV       "
        },
        {
          "DisplayOrder": 15,
          "Document": null,
          "NutritionItemID": 11,
          "NutritionItemName": "Vitamin C",
          "Predriscriptor": "",
          "Quantity": 6,
          "Unit": "%DV       "
        },
        {
          "DisplayOrder": 16,
          "Document": "dairy_and_calcium.html",
          "NutritionItemID": 12,
          "NutritionItemName": "Calcium",
          "Predriscriptor": "",
          "Quantity": 25,
          "Unit": "%DV       "
        },
        {
          "DisplayOrder": 17,
          "Document": null,
          "NutritionItemID": 13,
          "NutritionItemName": "Iron",
          "Predriscriptor": "",
          "Quantity": 10,
          "Unit": "%DV       "
        }
      ],
      "NutritionServingText": null,
      "PrepStepImage": null,
      "PreparationDescription": "Arrange 1/2 of the chips on large microwaveable platter; top with layers of 1/2 <u>each</u> of the chili and VELVEETA.  Repeat layers.  $Microwave on HIGH 3 to 5 min. or until VELVEETA is melted.  $Top with remaining ingredients.",
      "PreparationPreText": null,
      "PreparationSteps": [
        {
          "Description": "Arrange 1/2 of the chips on large microwaveable platter; top with layers of 1/2 <u>each</u> of the chili and VELVEETA.  Repeat layers.  ",
          "PreparationStepImage": {
            "PictureFormats": [],
            "author": null,
            "id": null,
            "imageType": null,
            "mimeType": null,
            "publicationDate": null,
            "status": null,
            "title": null,
            "type": null
          },
          "Sequence": 1
        },
        {
          "Description": "Microwave on HIGH 3 to 5 min. or until VELVEETA is melted.  ",
          "PreparationStepImage": {
            "PictureFormats": [],
            "author": null,
            "id": null,
            "imageType": null,
            "mimeType": null,
            "publicationDate": null,
            "status": null,
            "title": null,
            "type": null
          },
          "Sequence": 2
        },
        {
          "Description": "Top with remaining ingredients.",
          "PreparationStepImage": {
            "PictureFormats": [],
            "author": null,
            "id": null,
            "imageType": null,
            "mimeType": null,
            "publicationDate": null,
            "status": null,
            "title": null,
            "type": null
          },
          "Sequence": 3
        }
      ],
      "PreparationTime": 15,
      "Promotion": null,
      "Ratings": {
        "TotalCount": 3,
        "PageCount": 10,
        "PageNo": 1,
        "Rating": [
          {
            "Comment": "the nacho's sound really good andI hope it will  tast good you should really make more kids recipe's you know some kids love to cook and it is good for thier colleg and skills to get reddy for the real world like parenting and stuff like thaks for leting me share my opion.",
            "DisplayName": false,
            "RatingValue": 3,
            "SubmitDate": "/Date(1215376246000-0500)/",
            "UpdatedDate": "/Date(1215376246000-0500)/",
            "UserName": "Daylakeithy"
          },
          {
            "Comment": "",
            "DisplayName": true,
            "RatingValue": 5,
            "SubmitDate": "/Date(1144626646000-0500)/",
            "UpdatedDate": "/Date(1144626646000-0500)/",
            "UserName": "stephieleigh"
          },
          {
            "Comment": "My thirteen year old son made this and it was wonderful.  ",
            "DisplayName": true,
            "RatingValue": 5,
            "SubmitDate": "/Date(1135346444000-0600)/",
            "UpdatedDate": "/Date(1135346444000-0600)/",
            "UserName": "Judy1953"
          }
        ]
      },
      "RecipeDisplayFormatId": 5,
      "RecipeId": 90651,
      "RecipeName": "Velveeta Chili Cheese Nachos",
      "RecipeType": 0,
      "RelatedData": {
        "RelatedBrands": null,
        "RelatedProducts": null,
        "RelatedRecipes": {
          "DefaultTopCount": 5,
          "Recipe": [
            {
              "AverageRating": 4.7,
              "HasVideo": true,
              "IsHealthyLiving": false,
              "NumberOfRatings": 3,
              "PhotoName": "129412.jpg",
              "PhotoUrl": "http://assets.kraftfoods.com/recipe_images/opendeploy/129412.jpg",
              "RecipeId": 129412,
              "RecipeName": "VELVEETA® Fast n’ Tasty Loaded Nachos",
              "SEOName": "velveeta-fast-n-tasty-loaded-nachos-129412",
              "ThumbnailPhoto": null
            },
            {
              "AverageRating": 4.8,
              "HasVideo": false,
              "IsHealthyLiving": false,
              "NumberOfRatings": 10,
              "PhotoName": "114531.jpg",
              "PhotoUrl": "http://assets.kraftfoods.com/recipe_images/opendeploy/114531.jpg",
              "RecipeId": 114531,
              "RecipeName": "Cowboy Quesadillas",
              "SEOName": "cowboy-quesadillas-114531",
              "ThumbnailPhoto": null
            },
            {
              "AverageRating": 4.6,
              "HasVideo": false,
              "IsHealthyLiving": false,
              "NumberOfRatings": 126,
              "PhotoName": "Velveeta-Nacho-Bake-51783.jpg",
              "PhotoUrl": "http://assets.kraftfoods.com/recipe_images/opendeploy/Velveeta-Nacho-Bake-51783.jpg",
              "RecipeId": 90606,
              "RecipeName": "VELVEETA Nacho Bake",
              "SEOName": "velveeta-nacho-bake-90606",
              "ThumbnailPhoto": null
            },
            {
              "AverageRating": 5,
              "HasVideo": false,
              "IsHealthyLiving": false,
              "NumberOfRatings": 1,
              "PhotoName": "Velveeta-Nacho-Supreme-Skillet-63275.jpg",
              "PhotoUrl": "http://assets.kraftfoods.com/recipe_images/opendeploy/Velveeta-Nacho-Supreme-Skillet-63275.jpg",
              "RecipeId": 145229,
              "RecipeName": "VELVEETA Nacho Supreme Skillet",
              "SEOName": "velveeta-nacho-supreme-skillet-145229",
              "ThumbnailPhoto": null
            },
            {
              "AverageRating": 4.7,
              "HasVideo": false,
              "IsHealthyLiving": false,
              "NumberOfRatings": 3,
              "PhotoName": "WHEAT_THINS_Nachos.jpg",
              "PhotoUrl": "http://assets.kraftfoods.com/recipe_images/opendeploy/WHEAT_THINS_Nachos.jpg",
              "RecipeId": 66308,
              "RecipeName": "Nachos",
              "SEOName": "nachos-66308",
              "ThumbnailPhoto": null
            }
          ],
          "TotalCount": 4311
        }
      },
      "RiseIngredients": [],
      "RiseTaxonomy": [],
      "Riserecipe": [
        {
          "GRIN": 552450,
          "RecipeId": 90651,
          "RecipeIndustrySector": "Retail",
          "RecipeType": "Internal"
        }
      ],
      "RomanceText": "These family-pleasing VELVEETA Chili Cheese Nachos are so easy, even a kid could make them! (In fact, one reviewer's 13-year-old son has—to great acclaim.)",
      "SEOName": "velveeta-chili-cheese-nachos-90651",
      "Tips": [
        {
          "RecipeId": 90651,
          "Sequence": 10,
          "TipDescription": "Enjoy your favorite foods while keeping portion size in mind.",
          "TipID": 2,
          "TipName": "Size-Wise"
        },
        {
          "RecipeId": 90651,
          "Sequence": 20,
          "TipDescription": "Prepare using VELVEETA Mild Mexican Pasteurized Prepared Cheese Product with Jalapeno Peppers.",
          "TipID": 1,
          "TipName": "Substitute"
        }
      ],
      "TotalTime": 15,
      "TradeMarkInfo": null,
      "Video": [],
      "Yield": "Makes 6 servings."
    }
  ]
}