{
  "Metadata": {
    "PageCount": 1,
    "PageNo": 0,
    "TotalCount": 0
  },
  "Recipes": [
    {
      "AdServingKeywords": "Entree,Broccoli,Cheese,Chicken,Cream Cheese,Dairy,Garlic,Meat,Parmesan,Pasta/Noodles,Poultry,Vegetables,Top of Stove,Easy,One Pot,All Seasons,Dinner,Kraft Grated Cheese,Philadelphia,Timesaver,Creamy",
      "AlternateLanguageRecipes": [],
      "Assets": [
        {
          "PictureFormats": [
            {
              "rendition": "600x250",
              "url": "http://assets.kraftfoods.com/recipe_images/opendeploy/121856_600x250.jpg"
            },
            {
              "rendition": "640x428",
              "url": "http://assets.kraftfoods.com/recipe_images/opendeploy/121856_640x428.jpg"
            },
            {
              "rendition": "290x194",
              "url": "http://assets.kraftfoods.com/recipe_images/opendeploy/121856_290x194.jpg"
            }
          ],
          "author": "BulKUpload",
          "id": "2",
          "imageType": "Primary",
          "mimeType": "image/jpeg",
          "publicationDate": null,
          "status": "1",
          "title": "121856",
          "type": "image"
        },
        {
          "PictureFormats": [
            {
              "rendition": "140x90",
              "url": "http://assets.kraftfoods.com/recipe_images/opendeploy/121856_MXM_K59684V0_OR1_CR_140x90.jpg"
            }
          ],
          "author": null,
          "id": "0",
          "imageType": "Primary",
          "mimeType": "image/jpeg",
          "publicationDate": null,
          "status": "1",
          "title": "121856_MXM_K59684V0_OR1_CR",
          "type": "image"
        },
        {
          "PictureFormats": [
            {
              "rendition": "300x200",
              "url": "http://assets.kraftfoods.com/recipe_images/121856.jpg"
            }
          ],
          "author": null,
          "id": "0",
          "imageType": "LANDSCAPE",
          "mimeType": "image/jpeg",
          "publicationDate": null,
          "status": "1",
          "title": "121856.jpg",
          "type": "image"
        }
      ],
      "AverageRating": 4.3,
      "BrandId": 1,
      "Branding": null,
      "CSSSkins": null,
      "CarbCounter": null,
      "Categories": [
        {
          "CategoryID": 2,
          "CategoryName": "Poultry Entrees",
          "CategoryRank": 11,
          "SubCategoryID": 375,
          "SubCategoryName": "Skillets: Pasta",
          "SubCategoryRank": 70
        },
        {
          "CategoryID": 11,
          "CategoryName": "Primary",
          "CategoryRank": 0,
          "SubCategoryID": 97,
          "SubCategoryName": "Entrees",
          "SubCategoryRank": 50
        },
        {
          "CategoryID": 753,
          "CategoryName": "Pizza & Pasta",
          "CategoryRank": 7,
          "SubCategoryID": 2542,
          "SubCategoryName": "Creamy / Cheesy Pasta",
          "SubCategoryRank": 1
        },
        {
          "CategoryID": 753,
          "CategoryName": "Pizza & Pasta",
          "CategoryRank": 7,
          "SubCategoryID": 2543,
          "SubCategoryName": "Tomato Based Pasta",
          "SubCategoryRank": 1
        },
        {
          "CategoryID": 756,
          "CategoryName": "Main Meals (Meat / Seafood / Egg)",
          "CategoryRank": 10,
          "SubCategoryID": 2562,
          "SubCategoryName": "Chicken",
          "SubCategoryRank": 1
        },
        {
          "CategoryID": 1764,
          "CategoryName": "Philly Dinner",
          "CategoryRank": 0,
          "SubCategoryID": 16866,
          "SubCategoryName": "Spread Cream Cheese",
          "SubCategoryRank": 0
        },
        {
          "CategoryID": 1764,
          "CategoryName": "Philly Dinner",
          "CategoryRank": 0,
          "SubCategoryID": 16869,
          "SubCategoryName": "Use for All",
          "SubCategoryRank": 0
        }
      ],
      "Classifications": [],
      "ComplimentaryRecipes": null,
      "CookingMethod": null,
      "Copyright": null,
      "Courses": [
        "Main dishes"
      ],
      "DietExchange": null,
      "DishDetails": [
        {
          "Text": "chicken recipes",
          "Url": "/recipes/dinner/chicken-recipes/main.aspx"
        },
        {
          "Text": "grilled chicken recipes",
          "Url": "/recipes/dinner/chicken-recipes/grilled-chicken/main.aspx"
        },
        {
          "Text": "healthy living chicken recipes",
          "Url": "/recipes/dinner/chicken-recipes/hl/main.aspx"
        },
        {
          "Text": "slow cooker chicken recipes",
          "Url": "/recipes/dinner/chicken-recipes/slow-cooker/main.aspx"
        },
        {
          "Text": "whole chicken recipes",
          "Url": "/recipes/dinner/chicken-recipes/whole-chicken/main.aspx"
        },
        {
          "Text": "chicken breast recipes",
          "Url": "/recipes/dinner/chicken-recipes/chicken-breast/main.aspx"
        },
        {
          "Text": "chicken casseroles",
          "Url": "/recipes/dinner/chicken-recipes/casseroles/main.aspx"
        },
        {
          "Text": "chicken pasta recipes",
          "Url": "/recipes/dinner/chicken-recipes/pasta-dishes/main.aspx"
        },
        {
          "Text": "chicken salad recipes",
          "Url": "/recipes/dinner/chicken-recipes/salads/main.aspx"
        },
        {
          "Text": "chicken stir-fry recipes",
          "Url": "/recipes/dinner/chicken-recipes/stir-fry/main.aspx"
        },
        {
          "Text": "chicken wing recipes",
          "Url": "/recipes/appetizers/chicken-wing-recipes/main.aspx"
        },
        {
          "Text": "baked chicken recipes",
          "Url": "/recipes/dinner/chicken-recipes/baked-chicken/main.aspx"
        },
        {
          "Text": "bbq chicken recipes",
          "Url": "/recipes/holidays-and-entertaining/entertaining/summer/bbq-recipes/bbq-chicken-recipes/main.aspx"
        }
      ],
      "EndDate": "/Date(-62135575200000-0600)/",
      "HasVideo": false,
      "Ingredients": [
        {
          "FullMeasure": null,
          "FullWeight": null,
          "IngredientGridHeaders": null,
          "IngredientID": 71712,
          "IngredientName": "campanelle pasta, uncooked",
          "IngredientStep": 10,
          "LanguageId": 0,
          "PostPreparation": "",
          "PrePreparation": "",
          "QuantityNum": 3,
          "QuantityText": "3",
          "QuantityUnit": "cups",
          "RecipeIngredientID": 194065,
          "TrialMeasure": null,
          "TrialWeight": null
        },
        {
          "FullMeasure": null,
          "FullWeight": null,
          "IngredientGridHeaders": null,
          "IngredientID": 71713,
          "IngredientName": "cut-up broccoli rabe (3-inch pieces)",
          "IngredientStep": 20,
          "LanguageId": 0,
          "PostPreparation": "",
          "PrePreparation": "",
          "QuantityNum": 4,
          "QuantityText": "4",
          "QuantityUnit": "cups",
          "RecipeIngredientID": 184224,
          "TrialMeasure": null,
          "TrialWeight": null
        },
        {
          "FullMeasure": null,
          "FullWeight": null,
          "IngredientGridHeaders": null,
          "IngredientID": 68813,
          "IngredientName": "olive oil",
          "IngredientStep": 30,
          "LanguageId": 0,
          "PostPreparation": "",
          "PrePreparation": "",
          "QuantityNum": 1,
          "QuantityText": "1",
          "QuantityUnit": "Tbsp.",
          "RecipeIngredientID": 190978,
          "TrialMeasure": null,
          "TrialWeight": null
        },
        {
          "FullMeasure": null,
          "FullWeight": null,
          "IngredientGridHeaders": null,
          "IngredientID": 68189,
          "IngredientName": "boneless skinless chicken breasts, cut into bite-size pieces",
          "IngredientStep": 40,
          "LanguageId": 0,
          "PostPreparation": "",
          "PrePreparation": "",
          "QuantityNum": 1.5,
          "QuantityText": "1-1/2",
          "QuantityUnit": "lb.",
          "RecipeIngredientID": 185703,
          "TrialMeasure": null,
          "TrialWeight": null
        },
        {
          "FullMeasure": null,
          "FullWeight": null,
          "IngredientGridHeaders": null,
          "IngredientID": 68817,
          "IngredientName": "garlic, minced",
          "IngredientStep": 50,
          "LanguageId": 0,
          "PostPreparation": "",
          "PrePreparation": "",
          "QuantityNum": 4,
          "QuantityText": "4",
          "QuantityUnit": "cloves",
          "RecipeIngredientID": 189510,
          "TrialMeasure": null,
          "TrialWeight": null
        },
        {
          "FullMeasure": null,
          "FullWeight": null,
          "IngredientGridHeaders": null,
          "IngredientID": 69115,
          "IngredientName": "(8 oz.) PHILADELPHIA Cream Cheese Spread",
          "IngredientStep": 60,
          "LanguageId": 0,
          "PostPreparation": "",
          "PrePreparation": "",
          "QuantityNum": 1,
          "QuantityText": "1",
          "QuantityUnit": "tub",
          "RecipeIngredientID": 187743,
          "TrialMeasure": null,
          "TrialWeight": null
        },
        {
          "FullMeasure": null,
          "FullWeight": null,
          "IngredientGridHeaders": null,
          "IngredientID": 68096,
          "IngredientName": "milk",
          "IngredientStep": 70,
          "LanguageId": 0,
          "PostPreparation": "",
          "PrePreparation": "",
          "QuantityNum": 2,
          "QuantityText": "2",
          "QuantityUnit": "Tbsp.",
          "RecipeIngredientID": 190800,
          "TrialMeasure": null,
          "TrialWeight": null
        },
        {
          "FullMeasure": null,
          "FullWeight": null,
          "IngredientGridHeaders": null,
          "IngredientID": 68933,
          "IngredientName": "dried Italian seasoning",
          "IngredientStep": 80,
          "LanguageId": 0,
          "PostPreparation": "",
          "PrePreparation": "",
          "QuantityNum": 1,
          "QuantityText": "1",
          "QuantityUnit": "tsp.",
          "RecipeIngredientID": 187742,
          "TrialMeasure": null,
          "TrialWeight": null
        },
        {
          "FullMeasure": null,
          "FullWeight": null,
          "IngredientGridHeaders": null,
          "IngredientID": 68447,
          "IngredientName": "KRAFT Grated Parmesan Cheese",
          "IngredientStep": 90,
          "LanguageId": 0,
          "PostPreparation": "",
          "PrePreparation": "",
          "QuantityNum": 0.25,
          "QuantityText": "1/4",
          "QuantityUnit": "cup",
          "RecipeIngredientID": 188943,
          "TrialMeasure": null,
          "TrialWeight": null
        }
      ],
      "IsHealthyLiving": false,
      "KRLId": "565900",
      "KeyIngredients": [],
      "Keywords": "Top of Stove ,Entree,Easy,Timesaver,All Seasons,One Pot,Pasta",
      "LanguageId": 1,
      "LifeStyles": [],
      "NumberOfIngredients": 9,
      "NumberOfRatings": 3,
      "NumberOfRatingsWithComments": "3",
      "NumberOfServings": "6 servings, 1-1/3 cups each",
      "NumberOfTrialServings": null,
      "NutritionBonus": null,
      "NutritionExchangeItemId": 0,
      "NutritionGridItems": null,
      "NutritionItems": [
        {
          "DisplayOrder": 0,
          "Document": null,
          "NutritionItemID": 384,
          "NutritionItemName": "Vitamin D",
          "Predriscriptor": "",
          "Quantity": 0,
          "Unit": "%DV       "
        },
        {
          "DisplayOrder": 0,
          "Document": null,
          "NutritionItemID": 385,
          "NutritionItemName": "Vitamin E",
          "Predriscriptor": "",
          "Quantity": 8,
          "Unit": "%DV       "
        },
        {
          "DisplayOrder": 0,
          "Document": null,
          "NutritionItemID": 388,
          "NutritionItemName": "Potassium",
          "Predriscriptor": "",
          "Quantity": 5,
          "Unit": "%DV       "
        },
        {
          "DisplayOrder": 0,
          "Document": null,
          "NutritionItemID": 390,
          "NutritionItemName": "Added Sugars",
          "Predriscriptor": "",
          "Quantity": 0,
          "Unit": "g         "
        },
        {
          "DisplayOrder": 1,
          "Document": null,
          "NutritionItemID": 371,
          "NutritionItemName": "Calories",
          "Predriscriptor": "",
          "Quantity": 390,
          "Unit": "          "
        },
        {
          "DisplayOrder": 2,
          "Document": null,
          "NutritionItemID": 376,
          "NutritionItemName": "Total fat",
          "Predriscriptor": "",
          "Quantity": 15,
          "Unit": "g         "
        },
        {
          "DisplayOrder": 3,
          "Document": null,
          "NutritionItemID": 377,
          "NutritionItemName": "Saturated fat",
          "Predriscriptor": "",
          "Quantity": 7,
          "Unit": "g         "
        },
        {
          "DisplayOrder": 4,
          "Document": null,
          "NutritionItemID": 379,
          "NutritionItemName": "Polyunsaturated Fat",
          "Predriscriptor": "",
          "Quantity": 0.5,
          "Unit": "g         "
        },
        {
          "DisplayOrder": 5,
          "Document": null,
          "NutritionItemID": 378,
          "NutritionItemName": "Monounsaturated Fat",
          "Predriscriptor": "",
          "Quantity": 2,
          "Unit": "g         "
        },
        {
          "DisplayOrder": 6,
          "Document": null,
          "NutritionItemID": 380,
          "NutritionItemName": "Trans Fat",
          "Predriscriptor": "",
          "Quantity": 0,
          "Unit": "g         "
        },
        {
          "DisplayOrder": 7,
          "Document": null,
          "NutritionItemID": 381,
          "NutritionItemName": "Cholesterol",
          "Predriscriptor": "",
          "Quantity": 60,
          "Unit": "mg        "
        },
        {
          "DisplayOrder": 8,
          "Document": null,
          "NutritionItemID": 389,
          "NutritionItemName": "Sodium",
          "Predriscriptor": "",
          "Quantity": 360,
          "Unit": "mg        "
        },
        {
          "DisplayOrder": 10,
          "Document": null,
          "NutritionItemID": 373,
          "NutritionItemName": "Carbohydrate",
          "Predriscriptor": "",
          "Quantity": 34,
          "Unit": "g         "
        },
        {
          "DisplayOrder": 11,
          "Document": null,
          "NutritionItemID": 374,
          "NutritionItemName": "Dietary fiber",
          "Predriscriptor": "",
          "Quantity": 2,
          "Unit": "g         "
        },
        {
          "DisplayOrder": 12,
          "Document": null,
          "NutritionItemID": 375,
          "NutritionItemName": "Sugars",
          "Predriscriptor": "",
          "Quantity": 2,
          "Unit": "g         "
        },
        {
          "DisplayOrder": 13,
          "Document": null,
          "NutritionItemID": 372,
          "NutritionItemName": "Protein",
          "Predriscriptor": "",
          "Quantity": 26,
          "Unit": "g         "
        },
        {
          "DisplayOrder": 14,
          "Document": null,
          "NutritionItemID": 382,
          "NutritionItemName": "Vitamin A",
          "Predriscriptor": "",
          "Quantity": 25,
          "Unit": "%DV       "
        },
        {
          "DisplayOrder": 15,
          "Document": null,
          "NutritionItemID": 383,
          "NutritionItemName": "Vitamin C",
          "Predriscriptor": "",
          "Quantity": 6,
          "Unit": "%DV       "
        },
        {
          "DisplayOrder": 16,
          "Document": null,
          "NutritionItemID": 386,
          "NutritionItemName": "Calcium",
          "Predriscriptor": "",
          "Quantity": 8,
          "Unit": "%DV       "
        },
        {
          "DisplayOrder": 17,
          "Document": null,
          "NutritionItemID": 387,
          "NutritionItemName": "Iron",
          "Predriscriptor": "",
          "Quantity": 10,
          "Unit": "%DV       "
        }
      ],
      "NutritionServingText": null,
      "PrepStepImage": null,
      "PreparationDescription": "Cook pasta in large saucepan as directed on package, omitting salt and adding broccoli rabe to the boiling water for the last 3 min.$Meanwhile, heat oil in large skillet on medium-high heat.  Add chicken and garlic; cook and stir 6 to 8 min. or until chicken is done.  $Drain pasta mixture. Mix cream cheese spread, milk and Italian seasoning until blended. Add to chicken mixture along with the pasta mixture; mix well.  Cook 2 to 3 min. or until heated through, stirring frequently.  Sprinkle with Parmesan. ",
      "PreparationPreText": null,
      "PreparationSteps": [
        {
          "Description": "Cook pasta in large saucepan as directed on package, omitting salt and adding broccoli rabe to the boiling water for the last 3 min.",
          "PreparationStepImage": {
            "PictureFormats": [],
            "author": null,
            "id": null,
            "imageType": null,
            "mimeType": null,
            "publicationDate": null,
            "status": null,
            "title": null,
            "type": null
          },
          "Sequence": 1
        },
        {
          "Description": "Meanwhile, heat oil in large skillet on medium-high heat.  Add chicken and garlic; cook and stir 6 to 8 min. or until chicken is done.  ",
          "PreparationStepImage": {
            "PictureFormats": [],
            "author": null,
            "id": null,
            "imageType": null,
            "mimeType": null,
            "publicationDate": null,
            "status": null,
            "title": null,
            "type": null
          },
          "Sequence": 2
        },
        {
          "Description": "Drain pasta mixture. Mix cream cheese spread, milk and Italian seasoning until blended. Add to chicken mixture along with the pasta mixture; mix well.  Cook 2 to 3 min. or until heated through, stirring frequently.  Sprinkle with Parmesan. ",
          "PreparationStepImage": {
            "PictureFormats": [],
            "author": null,
            "id": null,
            "imageType": null,
            "mimeType": null,
            "publicationDate": null,
            "status": null,
            "title": null,
            "type": null
          },
          "Sequence": 3
        }
      ],
      "PreparationTime": 30,
      "Promotion": null,
      "Ratings": {
        "TotalCount": 3,
        "PageCount": 10,
        "PageNo": 1,
        "Rating": [
          {
            "Comment": "I actually used fresh spinach instead of broccoli rabe.  I turned pasta off and then added the spinach and let it sit in water for a few minutes.  I used ziti since I already had a box opened.  I liked this more than I thought I would.  Hubby said it was good but didn't go for seconds.",
            "DisplayName": true,
            "RatingValue": 4,
            "SubmitDate": "/Date(1358805673000-0600)/",
            "UpdatedDate": "/Date(1358805673000-0600)/",
            "UserName": "njss2000"
          },
          {
            "Comment": "I used whole wheat pasta and it was very good.  I like the recipe very much, but it was a little dry.  Next time I will use less pasta - 1 1/2 cups. It was my first time to use the cooking creme.  It's very easy and very tasty. ",
            "DisplayName": false,
            "RatingValue": 4,
            "SubmitDate": "/Date(1324602290000-0600)/",
            "UpdatedDate": "/Date(1324602290000-0600)/",
            "UserName": "gaitor2"
          },
          {
            "Comment": "Super easy and Super flavor!  My husband raved about it and insisted I keep this recipe to use often.",
            "DisplayName": true,
            "RatingValue": 5,
            "SubmitDate": "/Date(1305678490000-0500)/",
            "UpdatedDate": "/Date(1305678490000-0500)/",
            "UserName": "jmo242"
          }
        ]
      },
      "RecipeDisplayFormatId": 0,
      "RecipeId": 121856,
      "RecipeName": "Chicken Pasta with Broccoli Rabe Recipe",
      "RecipeType": 0,
      "RelatedData": {
        "RelatedBrands": null,
        "RelatedProducts": null,
        "RelatedRecipes": {
          "DefaultTopCount": 5,
          "Recipe": [
            {
              "AverageRating": 4.1,
              "HasVideo": false,
              "IsHealthyLiving": false,
              "NumberOfRatings": 8,
              "PhotoName": "128143.jpg",
              "PhotoUrl": "http://assets.kraftfoods.com/recipe_images/opendeploy/128143.jpg",
              "RecipeId": 128143,
              "RecipeName": "Chicken Sausage Pappardelle Pasta Recipe",
              "SEOName": "chicken-sausage-pappardelle-pasta-recipe-128143",
              "ThumbnailPhoto": null
            },
            {
              "AverageRating": 4.2,
              "HasVideo": false,
              "IsHealthyLiving": false,
              "NumberOfRatings": 29,
              "PhotoName": "54617-Broccoli-Chicken-Lasagna-2065.jpg",
              "PhotoUrl": "http://assets.kraftfoods.com/recipe_images/opendeploy/54617-Broccoli-Chicken-Lasagna-2065.jpg",
              "RecipeId": 54617,
              "RecipeName": "Broccoli Chicken Lasagna Recipe",
              "SEOName": "broccoli-chicken-lasagna-recipe-54617",
              "ThumbnailPhoto": null
            },
            {
              "AverageRating": 4,
              "HasVideo": false,
              "IsHealthyLiving": true,
              "NumberOfRatings": 165,
              "PhotoName": "opendeploy/112864-57aee9a8ddf3b8ba8278cf1aeb6f456a98b06d54_306x204.jpg",
              "PhotoUrl": "http://assets.kraftfoods.com/recipe_images/opendeploy/opendeploy/112864-57aee9a8ddf3b8ba8278cf1aeb6f456a98b06d54_306x204.jpg",
              "RecipeId": 112864,
              "RecipeName": "Creamy Chicken and Pasta Bake",
              "SEOName": "creamy-chicken-pasta-bake-112864",
              "ThumbnailPhoto": null
            },
            {
              "AverageRating": 4.3,
              "HasVideo": false,
              "IsHealthyLiving": true,
              "NumberOfRatings": 76,
              "PhotoName": "opendeploy/514738_1_1_retail-cd611908a700039ef3e374cbdc93d76bd9e08763_306x204.jpg",
              "PhotoUrl": "http://assets.kraftfoods.com/recipe_images/opendeploy/opendeploy/514738_1_1_retail-cd611908a700039ef3e374cbdc93d76bd9e08763_306x204.jpg",
              "RecipeId": 106244,
              "RecipeName": "Chicken Bow-Tie Pasta Salad",
              "SEOName": "chicken-bow-tie-pasta-salad-106244",
              "ThumbnailPhoto": null
            },
            {
              "AverageRating": 4,
              "HasVideo": false,
              "IsHealthyLiving": false,
              "NumberOfRatings": 297,
              "PhotoName": "108695.jpg",
              "PhotoUrl": "http://assets.kraftfoods.com/recipe_images/opendeploy/108695.jpg",
              "RecipeId": 108695,
              "RecipeName": "Shortcut Chicken Manicotti Recipe",
              "SEOName": "shortcut-chicken-manicotti-recipe-108695",
              "ThumbnailPhoto": null
            }
          ],
          "TotalCount": 3181
        }
      },
      "RiseIngredients": [
        {
          "IngredientCategory": "KRL",
          "IngredientId": 68096,
          "IngredientIndustrySector": "Retail",
          "IngredientType": "Inedible",
          "ProductId": null,
          "RecipeId": 121856
        },
        {
          "IngredientCategory": "KRL",
          "IngredientId": 68189,
          "IngredientIndustrySector": "Retail",
          "IngredientType": "Inedible",
          "ProductId": null,
          "RecipeId": 121856
        },
        {
          "IngredientCategory": "KRL",
          "IngredientId": 68447,
          "IngredientIndustrySector": "Retail",
          "IngredientType": "Inedible",
          "ProductId": "00021000051229",
          "RecipeId": 121856
        },
        {
          "IngredientCategory": "KRL",
          "IngredientId": 68813,
          "IngredientIndustrySector": "Retail",
          "IngredientType": "Inedible",
          "ProductId": null,
          "RecipeId": 121856
        },
        {
          "IngredientCategory": "KRL",
          "IngredientId": 68817,
          "IngredientIndustrySector": "Retail",
          "IngredientType": "Inedible",
          "ProductId": null,
          "RecipeId": 121856
        },
        {
          "IngredientCategory": "KRL",
          "IngredientId": 68933,
          "IngredientIndustrySector": "Retail",
          "IngredientType": "Inedible",
          "ProductId": null,
          "RecipeId": 121856
        },
        {
          "IngredientCategory": "KRL",
          "IngredientId": 69115,
          "IngredientIndustrySector": "Retail",
          "IngredientType": "KHC",
          "ProductId": "00021000007554",
          "RecipeId": 121856
        },
        {
          "IngredientCategory": "KRL",
          "IngredientId": 71712,
          "IngredientIndustrySector": "Retail",
          "IngredientType": "Inedible",
          "ProductId": null,
          "RecipeId": 121856
        },
        {
          "IngredientCategory": "KRL",
          "IngredientId": 71713,
          "IngredientIndustrySector": "Retail",
          "IngredientType": "Inedible",
          "ProductId": null,
          "RecipeId": 121856
        }
      ],
      "RiseTaxonomy": [
        {
          "ParentTaxonomyId": 54,
          "RecipeId": 121856,
          "ResourceName": "Recipe",
          "TaxonomyId": 31,
          "TaxonomyName": "Skillets, Pasta",
          "TaxonomyTypeId": 3,
          "TaxonomyTypeName": "Dish Type"
        },
        {
          "ParentTaxonomyId": 0,
          "RecipeId": 121856,
          "ResourceName": "Recipe",
          "TaxonomyId": 65,
          "TaxonomyName": "Entrées",
          "TaxonomyTypeId": 2,
          "TaxonomyTypeName": "Meal Part"
        }
      ],
      "Riserecipe": [
        {
          "GRIN": 565900,
          "RecipeId": 121856,
          "RecipeIndustrySector": "Retail",
          "RecipeType": "Internal"
        }
      ],
      "RomanceText": "Make our Chicken Pasta with Broccoli Rabe recipe for a flavorful dish. Our Chicken Pasta with Broccoli Rabe recipe might become your new favorite recipe!",
      "SEOName": "chicken-pasta-broccoli-rabe-recipe-121856",
      "Tips": [
        {
          "RecipeId": 121856,
          "Sequence": 10,
          "TipDescription": "For milder flavor, substitute broccolini or regular broccoli for the broccoli rabe.",
          "TipID": 1,
          "TipName": "Substitute"
        },
        {
          "RecipeId": 121856,
          "Sequence": 20,
          "TipDescription": "Enjoy your favorite foods while keeping portion size in mind.",
          "TipID": 2,
          "TipName": "Size Wise"
        },
        {
          "RecipeId": 121856,
          "Sequence": 30,
          "TipDescription": "Prepare as directed, omitting the oil and substituting 1/2 lb. sliced Italian sausage links for the cut-up chicken.",
          "TipID": 3,
          "TipName": "Variation"
        }
      ],
      "TotalTime": 30,
      "TradeMarkInfo": null,
      "Video": [],
      "Yield": "6 servings, 1-1/3 cups each"
    }
  ]
}