{
  "Metadata": {
    "PageCount": 1,
    "PageNo": 0,
    "TotalCount": 0
  },
  "Recipes": [
    {
      "AdServingKeywords": "Bacon,Cheddar,Cheese,Meat,Easy,All Seasons,Chili,Dinner,Lunch,Kraft Cheese,Kraft Shredded Cheese,Oscar Mayer,Spicy",
      "AlternateLanguageRecipes": [],
      "Assets": [],
      "AverageRating": 0,
      "BrandId": 1,
      "Branding": null,
      "CSSSkins": null,
      "CarbCounter": null,
      "Categories": [
        {
          "CategoryID": 11,
          "CategoryName": "Primary",
          "CategoryRank": 0,
          "SubCategoryID": 100,
          "SubCategoryName": "Soups",
          "SubCategoryRank": 100
        },
        {
          "CategoryID": 14,
          "CategoryName": "Soup/Sandwiches",
          "CategoryRank": 14,
          "SubCategoryID": 448,
          "SubCategoryName": "Chili",
          "SubCategoryRank": 20
        },
        {
          "CategoryID": 755,
          "CategoryName": "International Flavours",
          "CategoryRank": 9,
          "SubCategoryID": 2555,
          "SubCategoryName": "Mexican / Spanish",
          "SubCategoryRank": 1
        }
      ],
      "Classifications": [],
      "ComplimentaryRecipes": null,
      "CookingMethod": null,
      "Copyright": null,
      "Courses": [
        "Soups/stews"
      ],
      "DietExchange": null,
      "DishDetails": [
        {
          "Text": "chili recipes",
          "Url": "/recipes/comfort-food/chili-recipes.aspx"
        }
      ],
      "EndDate": "/Date(-62135575200000-0600)/",
      "HasVideo": false,
      "Ingredients": [
        {
          "FullMeasure": "2 slices",
          "FullWeight": "",
          "IngredientGridHeaders": null,
          "IngredientID": 578,
          "IngredientName": "OSCAR MAYER Bacon",
          "IngredientStep": 10,
          "LanguageId": 0,
          "PostPreparation": ", cut into 1/2-inch pieces",
          "PrePreparation": "",
          "QuantityNum": 2,
          "QuantityText": "2",
          "QuantityUnit": "slices",
          "RecipeIngredientID": 4131000,
          "TrialMeasure": "",
          "TrialWeight": ""
        },
        {
          "FullMeasure": "1 can",
          "FullWeight": "",
          "IngredientGridHeaders": null,
          "IngredientID": 18338,
          "IngredientName": "chili",
          "IngredientStep": 20,
          "LanguageId": 0,
          "PostPreparation": " (without beans)",
          "PrePreparation": "(15 oz.) ",
          "QuantityNum": 1,
          "QuantityText": "1",
          "QuantityUnit": "can",
          "RecipeIngredientID": 4131001,
          "TrialMeasure": "",
          "TrialWeight": ""
        },
        {
          "FullMeasure": "1/2 cup",
          "FullWeight": "",
          "IngredientGridHeaders": null,
          "IngredientID": 470,
          "IngredientName": "KRAFT Shredded Sharp Cheddar Cheese",
          "IngredientStep": 30,
          "LanguageId": 0,
          "PostPreparation": "",
          "PrePreparation": "",
          "QuantityNum": 0,
          "QuantityText": "1/2",
          "QuantityUnit": "cup",
          "RecipeIngredientID": 4130999,
          "TrialMeasure": "",
          "TrialWeight": ""
        }
      ],
      "IsHealthyLiving": false,
      "KRLId": "519651",
      "KeyIngredients": [
        "Bacon",
        "Cheese",
        "Meat",
        "Parmesan"
      ],
      "Keywords": "OSCAR MAYER Bacon,pork,bacon,cheddar cheese,cheese,chili,KRAFT Cheddar Cheese,meat,Easy,Dinner,Lunch,All Seasons,Spicy",
      "LanguageId": 1,
      "LifeStyles": [],
      "NumberOfIngredients": 3,
      "NumberOfRatings": 0,
      "NumberOfRatingsWithComments": "0",
      "NumberOfServings": "2 servings",
      "NumberOfTrialServings": "",
      "NutritionBonus": null,
      "NutritionExchangeItemId": 0,
      "NutritionGridItems": null,
      "NutritionItems": [
        {
          "DisplayOrder": 1,
          "Document": null,
          "NutritionItemID": 3,
          "NutritionItemName": "Calories",
          "Predriscriptor": "",
          "Quantity": 360,
          "Unit": "          "
        },
        {
          "DisplayOrder": 2,
          "Document": "fat_cholesterol.html",
          "NutritionItemID": 4,
          "NutritionItemName": "Total fat",
          "Predriscriptor": "",
          "Quantity": 18,
          "Unit": "g         "
        },
        {
          "DisplayOrder": 3,
          "Document": "fat_cholesterol.html",
          "NutritionItemID": 9,
          "NutritionItemName": "Saturated fat",
          "Predriscriptor": "",
          "Quantity": 9,
          "Unit": "g         "
        },
        {
          "DisplayOrder": 7,
          "Document": "fat_cholesterol.html",
          "NutritionItemID": 2,
          "NutritionItemName": "Cholesterol",
          "Predriscriptor": "",
          "Quantity": 55,
          "Unit": "mg        "
        },
        {
          "DisplayOrder": 8,
          "Document": "sodium.html",
          "NutritionItemID": 8,
          "NutritionItemName": "Sodium",
          "Predriscriptor": "",
          "Quantity": 1340,
          "Unit": "mg        "
        },
        {
          "DisplayOrder": 10,
          "Document": "carbs_sugars_fiber.html",
          "NutritionItemID": 1,
          "NutritionItemName": "Carbohydrate",
          "Predriscriptor": "",
          "Quantity": 29,
          "Unit": "g         "
        },
        {
          "DisplayOrder": 11,
          "Document": "carbs_sugars_fiber.html",
          "NutritionItemID": 7,
          "NutritionItemName": "Dietary fiber",
          "Predriscriptor": "",
          "Quantity": 8,
          "Unit": "g         "
        },
        {
          "DisplayOrder": 12,
          "Document": "carbs_sugars_fiber.html",
          "NutritionItemID": 5,
          "NutritionItemName": "Sugars",
          "Predriscriptor": "",
          "Quantity": 4,
          "Unit": "g         "
        },
        {
          "DisplayOrder": 13,
          "Document": null,
          "NutritionItemID": 6,
          "NutritionItemName": "Protein",
          "Predriscriptor": "",
          "Quantity": 22,
          "Unit": "g         "
        },
        {
          "DisplayOrder": 14,
          "Document": null,
          "NutritionItemID": 10,
          "NutritionItemName": "Vitamin A",
          "Predriscriptor": "",
          "Quantity": 20,
          "Unit": "%DV       "
        },
        {
          "DisplayOrder": 15,
          "Document": null,
          "NutritionItemID": 11,
          "NutritionItemName": "Vitamin C",
          "Predriscriptor": "",
          "Quantity": 0,
          "Unit": "%DV       "
        },
        {
          "DisplayOrder": 16,
          "Document": "dairy_and_calcium.html",
          "NutritionItemID": 12,
          "NutritionItemName": "Calcium",
          "Predriscriptor": "",
          "Quantity": 25,
          "Unit": "%DV       "
        },
        {
          "DisplayOrder": 17,
          "Document": null,
          "NutritionItemID": 13,
          "NutritionItemName": "Iron",
          "Predriscriptor": "",
          "Quantity": 20,
          "Unit": "%DV       "
        }
      ],
      "NutritionServingText": " ",
      "PrepStepImage": null,
      "PreparationDescription": "Cook and stir bacon in medium saucepan on medium heat until crisp. Remove from pan; drain on paper towels. $Add chili to saucepan; cook on medium heat until heated through, stirring frequently.  Reserve 2 Tbsp. bacon; stir remaining bacon into chili.$Serve chili topped with cheese and reserved bacon. ",
      "PreparationPreText": "",
      "PreparationSteps": [
        {
          "Description": "Cook and stir bacon in medium saucepan on medium heat until crisp. Remove from pan; drain on paper towels. ",
          "PreparationStepImage": {
            "PictureFormats": [],
            "author": null,
            "id": null,
            "imageType": null,
            "mimeType": null,
            "publicationDate": null,
            "status": null,
            "title": null,
            "type": null
          },
          "Sequence": 1
        },
        {
          "Description": "Add chili to saucepan; cook on medium heat until heated through, stirring frequently.  Reserve 2 Tbsp. bacon; stir remaining bacon into chili.",
          "PreparationStepImage": {
            "PictureFormats": [],
            "author": null,
            "id": null,
            "imageType": null,
            "mimeType": null,
            "publicationDate": null,
            "status": null,
            "title": null,
            "type": null
          },
          "Sequence": 2
        },
        {
          "Description": "Serve chili topped with cheese and reserved bacon. ",
          "PreparationStepImage": {
            "PictureFormats": [],
            "author": null,
            "id": null,
            "imageType": null,
            "mimeType": null,
            "publicationDate": null,
            "status": null,
            "title": null,
            "type": null
          },
          "Sequence": 3
        }
      ],
      "PreparationTime": 15,
      "Promotion": null,
      "Ratings": {
        "TotalCount": 0,
        "PageCount": 10,
        "PageNo": 1,
        "Rating": []
      },
      "RecipeDisplayFormatId": 5,
      "RecipeId": 161569,
      "RecipeName": "Quick & Easy Bacon & Cheddar Chili",
      "RecipeType": 0,
      "RelatedData": {
        "RelatedBrands": null,
        "RelatedProducts": null,
        "RelatedRecipes": {
          "DefaultTopCount": 5,
          "Recipe": [
            {
              "AverageRating": 4,
              "HasVideo": false,
              "IsHealthyLiving": false,
              "NumberOfRatings": 14,
              "PhotoName": "70014-Chocolate-Peanut-Butter-Oatmeal-Bread-43426.jpg",
              "PhotoUrl": "http://assets.kraftfoods.com/recipe_images/opendeploy/70014-Chocolate-Peanut-Butter-Oatmeal-Bread-43426.jpg",
              "RecipeId": 70014,
              "RecipeName": "Chocolate Peanut Butter Oatmeal Cookies Sweetened with SPLENDA®",
              "SEOName": "chocolate-peanut-butter-oatmeal-cookies-sweetened-splenda-70014",
              "ThumbnailPhoto": null
            },
            {
              "AverageRating": 4.1,
              "HasVideo": false,
              "IsHealthyLiving": false,
              "NumberOfRatings": 25,
              "PhotoName": "Super_Chunk_Oatmeal_Cookie_Mix.jpg",
              "PhotoUrl": "http://assets.kraftfoods.com/recipe_images/opendeploy/Super_Chunk_Oatmeal_Cookie_Mix.jpg",
              "RecipeId": 55690,
              "RecipeName": "Mix for Oatmeal Cookies",
              "SEOName": "mix-for-oatmeal-cookies-55690",
              "ThumbnailPhoto": null
            },
            {
              "AverageRating": 4.3,
              "HasVideo": false,
              "IsHealthyLiving": false,
              "NumberOfRatings": 21,
              "PhotoName": "Bakers-Oatmeal-Raisin-Chocolate-Chunk-Cookies-4327.jpg",
              "PhotoUrl": "http://assets.kraftfoods.com/recipe_images/opendeploy/Bakers-Oatmeal-Raisin-Chocolate-Chunk-Cookies-4327.jpg",
              "RecipeId": 55513,
              "RecipeName": "BAKER'S Oatmeal Raisin-Chocolate Chunk Cookies",
              "SEOName": "bakers-oatmeal-raisin-chocolate-chunk-cookies-55513",
              "ThumbnailPhoto": null
            },
            {
              "AverageRating": 4.7,
              "HasVideo": false,
              "IsHealthyLiving": false,
              "NumberOfRatings": 3,
              "PhotoName": "121339.jpg",
              "PhotoUrl": "http://assets.kraftfoods.com/recipe_images/opendeploy/121339.jpg",
              "RecipeId": 121339,
              "RecipeName": "Oatmeal Carmelitas",
              "SEOName": "oatmeal-carmelitas-121339",
              "ThumbnailPhoto": null
            },
            {
              "AverageRating": 4.5,
              "HasVideo": false,
              "IsHealthyLiving": false,
              "NumberOfRatings": 212,
              "PhotoName": "62843.jpg",
              "PhotoUrl": "http://assets.kraftfoods.com/recipe_images/opendeploy/62843.jpg",
              "RecipeId": 62843,
              "RecipeName": "Peanut Butter-Chocolate Oatmeal Cookies",
              "SEOName": "peanut-butter-chocolate-oatmeal-cookies-62843",
              "ThumbnailPhoto": null
            }
          ],
          "TotalCount": 5415
        }
      },
      "RiseIngredients": [],
      "RiseTaxonomy": [],
      "Riserecipe": [
        {
          "GRIN": 519651,
          "RecipeId": 161569,
          "RecipeIndustrySector": "Retail",
          "RecipeType": "Internal"
        }
      ],
      "RomanceText": "Chill out! This recipe for chili with cheddar and bacon is not only delicious, it's also quick and easy to make.",
      "SEOName": "quick-easy-bacon-cheddar-chili-161569",
      "Tips": [
        {
          "RecipeId": 161569,
          "Sequence": 10,
          "TipDescription": "Serve over hot cooked brown rice topped with chopped fresh tomatoes. ",
          "TipID": 1,
          "TipName": "Serving Suggestion"
        },
        {
          "RecipeId": 161569,
          "Sequence": 20,
          "TipDescription": "Serve with a bagged green salad tossed with your favorite KRAFT Dressing, such as Italian or Ranch. ",
          "TipID": 4518,
          "TipName": "Serving Suggestion"
        },
        {
          "RecipeId": 161569,
          "Sequence": 30,
          "TipDescription": "Prepare using reduced-sodium chili without beans.",
          "TipID": 2,
          "TipName": "Substitute"
        }
      ],
      "TotalTime": 15,
      "TradeMarkInfo": null,
      "Video": [],
      "Yield": "2 servings"
    }
  ]
}