{
  "Metadata": {
    "PageCount": 1,
    "PageNo": 0,
    "TotalCount": 0
  },
  "Recipes": [
    {
      "AdServingKeywords": "Microwaved,Appetizer,Easy,Cheese,Cream Cheese,Mozzarella,Parmesan,Pasta Sauce,Peppers,Classico,Kraft Cheese,Kraft Grated Cheese,Kraft Shredded Cheese,Philadelphia,All Seasons,Game Day,Potluck,Cheesy,Creamy,Dip",
      "AlternateLanguageRecipes": [],
      "Assets": [
        {
          "PictureFormats": [
            {
              "rendition": "640x428",
              "url": "http://assets.kraftfoods.com/recipe_images/opendeploy/104888_640x428.jpg"
            },
            {
              "rendition": "290x194",
              "url": "http://assets.kraftfoods.com/recipe_images/opendeploy/104888_290x194.jpg"
            },
            {
              "rendition": "600x250",
              "url": "http://assets.kraftfoods.com/recipe_images/opendeploy/104888_600x250.jpg"
            },
            {
              "rendition": "640x428",
              "url": "http://assets.kraftfoods.com/recipe_images/opendeploy/104888_640x428.jpg"
            }
          ],
          "author": null,
          "id": "3",
          "imageType": "Primary",
          "mimeType": "image/jpeg",
          "publicationDate": null,
          "status": "1",
          "title": "104888",
          "type": "image"
        },
        {
          "PictureFormats": [
            {
              "rendition": "300x200",
              "url": "http://assets.kraftfoods.com/recipe_images/104888.jpg"
            },
            {
              "rendition": "300x200",
              "url": "http://assets.kraftfoods.com/recipe_images/PHILLY_Cheesy_Pizza_Dip.jpg"
            }
          ],
          "author": null,
          "id": "1",
          "imageType": "LANDSCAPE",
          "mimeType": "image/jpeg",
          "publicationDate": null,
          "status": "1",
          "title": "PHILLY_Cheesy_Pizza_Dip.jpg",
          "type": "image"
        }
      ],
      "AverageRating": 4.4,
      "BrandId": 1,
      "Branding": {
        "IngredientElevation": "",
        "PromoAltText": "",
        "PromoImage": "",
        "PromoLink": "",
        "SponsorshipAltText": "",
        "SponsorshipLink": "",
        "SponsorshipLogo": "",
        "UpperRightImage": ""
      },
      "CSSSkins": [
        {
          "brand": "Phillyskin1",
          "fileName": "",
          "id": "1"
        }
      ],
      "CarbCounter": null,
      "Categories": [
        {
          "CategoryID": 6,
          "CategoryName": "Appetizers/Snacks",
          "CategoryRank": 1,
          "SubCategoryID": 126,
          "SubCategoryName": "Hot Dips",
          "SubCategoryRank": 40
        },
        {
          "CategoryID": 11,
          "CategoryName": "Primary",
          "CategoryRank": 0,
          "SubCategoryID": 96,
          "SubCategoryName": "Appetizers & Snacks",
          "SubCategoryRank": 10
        },
        {
          "CategoryID": 748,
          "CategoryName": "Finger Food, Dips & Appetisers",
          "CategoryRank": 2,
          "SubCategoryID": 2523,
          "SubCategoryName": "Hot",
          "SubCategoryRank": 1
        },
        {
          "CategoryID": 1761,
          "CategoryName": "Philly Appetizers",
          "CategoryRank": 0,
          "SubCategoryID": 16848,
          "SubCategoryName": "Brick Cream Cheese",
          "SubCategoryRank": 0
        },
        {
          "CategoryID": 1761,
          "CategoryName": "Philly Appetizers",
          "CategoryRank": 0,
          "SubCategoryID": 16853,
          "SubCategoryName": "Use for All",
          "SubCategoryRank": 0
        }
      ],
      "Classifications": [],
      "ComplimentaryRecipes": [
        {
          "AverageRating": 0,
          "HasVideo": false,
          "IsHealthyLiving": false,
          "NumberOfRatings": 0,
          "PhotoName": null,
          "PhotoUrl": null,
          "RecipeId": 63142,
          "RecipeName": null,
          "SEOName": "sausage-cheese-stuffed-mushrooms-63142",
          "ThumbnailPhoto": "opendeploy/501285_1_1_retail-05f357439c7d7faab3862b69d9cc0f80666bc5b8_306x204.jpg"
        }
      ],
      "CookingMethod": null,
      "Copyright": null,
      "Courses": [
        "Appetizers"
      ],
      "DietExchange": null,
      "DishDetails": [
        {
          "Text": "appetizers",
          "Url": "/recipes/appetizers/main.aspx"
        },
        {
          "Text": "cold appetizers",
          "Url": "/recipes/appetizers/coldappetizers.aspx"
        },
        {
          "Text": "cheese plates",
          "Url": "/recipes/appetizers/entertainingcheeseplates.aspx"
        },
        {
          "Text": "hot appetizers",
          "Url": "/recipes/appetizers/hotappetizers.aspx"
        },
        {
          "Text": "quick appetizers",
          "Url": "/recipes/appetizers/quick.aspx"
        },
        {
          "Text": "salsa recipes",
          "Url": "/recipes/appetizers/salsa-recipes/main.aspx"
        },
        {
          "Text": "seafood appetizers",
          "Url": "/recipes/dinner/seafood/appetizers/main.aspx"
        },
        {
          "Text": "dip recipes",
          "Url": "/recipes/appetizers/dip-recipes/main.aspx"
        },
        {
          "Text": "dip recipes",
          "Url": "/recipes/appetizers/dip-recipes/main.aspx"
        },
        {
          "Text": "salsa recipes",
          "Url": "/recipes/appetizers/salsa-recipes/main.aspx"
        },
        {
          "Text": "VELVEETA appetizers",
          "Url": "/recipes/appetizers/velveeta-recipes/main.aspx"
        }
      ],
      "EndDate": "/Date(-62135575200000-0600)/",
      "HasVideo": false,
      "Ingredients": [
        {
          "FullMeasure": "1  pkg.",
          "FullWeight": "",
          "IngredientGridHeaders": null,
          "IngredientID": 628,
          "IngredientName": "PHILADELPHIA Cream Cheese",
          "IngredientStep": 10,
          "LanguageId": 0,
          "PostPreparation": ", softened",
          "PrePreparation": "(8 oz.)",
          "QuantityNum": 1,
          "QuantityText": "1 ",
          "QuantityUnit": "pkg.",
          "RecipeIngredientID": 5289831,
          "TrialMeasure": "",
          "TrialWeight": ""
        },
        {
          "FullMeasure": "1/2 cup",
          "FullWeight": "",
          "IngredientGridHeaders": null,
          "IngredientID": 30139,
          "IngredientName": "CLASSICO Traditional Pizza Sauce",
          "IngredientStep": 20,
          "LanguageId": 0,
          "PostPreparation": "",
          "PrePreparation": "",
          "QuantityNum": 0,
          "QuantityText": "1/2",
          "QuantityUnit": "cup",
          "RecipeIngredientID": 5289826,
          "TrialMeasure": "",
          "TrialWeight": ""
        },
        {
          "FullMeasure": "1/2 cup",
          "FullWeight": "",
          "IngredientGridHeaders": null,
          "IngredientID": 469,
          "IngredientName": "KRAFT Shredded Mozzarella Cheese",
          "IngredientStep": 30,
          "LanguageId": 0,
          "PostPreparation": "",
          "PrePreparation": "",
          "QuantityNum": 0,
          "QuantityText": "1/2",
          "QuantityUnit": "cup",
          "RecipeIngredientID": 5289825,
          "TrialMeasure": "",
          "TrialWeight": ""
        },
        {
          "FullMeasure": "2 Tbsp.",
          "FullWeight": "",
          "IngredientGridHeaders": null,
          "IngredientID": 397,
          "IngredientName": "KRAFT Grated Parmesan Cheese",
          "IngredientStep": 40,
          "LanguageId": 0,
          "PostPreparation": "",
          "PrePreparation": "",
          "QuantityNum": 2,
          "QuantityText": "2",
          "QuantityUnit": "Tbsp.",
          "RecipeIngredientID": 5289828,
          "TrialMeasure": "",
          "TrialWeight": ""
        },
        {
          "FullMeasure": "2 Tbsp.",
          "FullWeight": "",
          "IngredientGridHeaders": null,
          "IngredientID": 5289,
          "IngredientName": "green and red pepper",
          "IngredientStep": 50,
          "LanguageId": 0,
          "PostPreparation": "s",
          "PrePreparation": "<u>each</u> chopped   ",
          "QuantityNum": 2,
          "QuantityText": "2",
          "QuantityUnit": "Tbsp.",
          "RecipeIngredientID": 5289827,
          "TrialMeasure": "",
          "TrialWeight": ""
        },
        {
          "FullMeasure": "1 tsp.",
          "FullWeight": "",
          "IngredientGridHeaders": null,
          "IngredientID": 280,
          "IngredientName": "dried Italian seasoning",
          "IngredientStep": 60,
          "LanguageId": 0,
          "PostPreparation": "",
          "PrePreparation": "",
          "QuantityNum": 1,
          "QuantityText": "1",
          "QuantityUnit": "tsp.",
          "RecipeIngredientID": 5289829,
          "TrialMeasure": "",
          "TrialWeight": ""
        },
        {
          "FullMeasure": null,
          "FullWeight": null,
          "IngredientGridHeaders": null,
          "IngredientID": 5540,
          "IngredientName": "RITZ Crackers",
          "IngredientStep": 70,
          "LanguageId": 0,
          "PostPreparation": "",
          "PrePreparation": "",
          "QuantityNum": 0,
          "QuantityText": "",
          "QuantityUnit": "",
          "RecipeIngredientID": 5289830,
          "TrialMeasure": null,
          "TrialWeight": null
        }
      ],
      "IsHealthyLiving": false,
      "KRLId": "552956",
      "KeyIngredients": [
        "Cheese",
        "Cream Cheese",
        "Mozzarella",
        "Parmesan",
        "Peppers"
      ],
      "Keywords": "mozzarella cheese,parmesan cheese,peppers,PHILADELPHIA Cream Cheese,pizza sauce,red peppers,cheese,crackers,cream cheese,green peppers,italian seasoning,KRAFT Mozzarella Cheese,KRAFT Parmesan Cheese,RITZ Crackers,bell peppers,RITZ,Microwaved,Appetizer,Easy,All Seasons,Game Day,Potluck,Dip",
      "LanguageId": 1,
      "LifeStyles": [],
      "NumberOfIngredients": 7,
      "NumberOfRatings": 74,
      "NumberOfRatingsWithComments": "63",
      "NumberOfServings": "2 cups dip or 16 servings, 2 Tbsp. dip and 5 crackers each",
      "NumberOfTrialServings": "",
      "NutritionBonus": null,
      "NutritionExchangeItemId": 0,
      "NutritionGridItems": null,
      "NutritionItems": [
        {
          "DisplayOrder": 1,
          "Document": null,
          "NutritionItemID": 3,
          "NutritionItemName": "Calories",
          "Predriscriptor": "",
          "Quantity": 150,
          "Unit": "          "
        },
        {
          "DisplayOrder": 2,
          "Document": "fat_cholesterol.html",
          "NutritionItemID": 4,
          "NutritionItemName": "Total fat",
          "Predriscriptor": "",
          "Quantity": 10,
          "Unit": "g         "
        },
        {
          "DisplayOrder": 3,
          "Document": "fat_cholesterol.html",
          "NutritionItemID": 9,
          "NutritionItemName": "Saturated fat",
          "Predriscriptor": "",
          "Quantity": 4.5,
          "Unit": "g         "
        },
        {
          "DisplayOrder": 7,
          "Document": "fat_cholesterol.html",
          "NutritionItemID": 2,
          "NutritionItemName": "Cholesterol",
          "Predriscriptor": "",
          "Quantity": 20,
          "Unit": "mg        "
        },
        {
          "DisplayOrder": 8,
          "Document": "sodium.html",
          "NutritionItemID": 8,
          "NutritionItemName": "Sodium",
          "Predriscriptor": "",
          "Quantity": 240,
          "Unit": "mg        "
        },
        {
          "DisplayOrder": 10,
          "Document": "carbs_sugars_fiber.html",
          "NutritionItemID": 1,
          "NutritionItemName": "Carbohydrate",
          "Predriscriptor": "",
          "Quantity": 11,
          "Unit": "g         "
        },
        {
          "DisplayOrder": 11,
          "Document": "carbs_sugars_fiber.html",
          "NutritionItemID": 7,
          "NutritionItemName": "Dietary fiber",
          "Predriscriptor": "Less than",
          "Quantity": 1,
          "Unit": "g         "
        },
        {
          "DisplayOrder": 12,
          "Document": "carbs_sugars_fiber.html",
          "NutritionItemID": 5,
          "NutritionItemName": "Sugars",
          "Predriscriptor": "",
          "Quantity": 2,
          "Unit": "g         "
        },
        {
          "DisplayOrder": 13,
          "Document": null,
          "NutritionItemID": 6,
          "NutritionItemName": "Protein",
          "Predriscriptor": "",
          "Quantity": 3,
          "Unit": "g         "
        },
        {
          "DisplayOrder": 14,
          "Document": null,
          "NutritionItemID": 10,
          "NutritionItemName": "Vitamin A",
          "Predriscriptor": "",
          "Quantity": 6,
          "Unit": "%DV       "
        },
        {
          "DisplayOrder": 15,
          "Document": null,
          "NutritionItemID": 11,
          "NutritionItemName": "Vitamin C",
          "Predriscriptor": "",
          "Quantity": 2,
          "Unit": "%DV       "
        },
        {
          "DisplayOrder": 16,
          "Document": "dairy_and_calcium.html",
          "NutritionItemID": 12,
          "NutritionItemName": "Calcium",
          "Predriscriptor": "",
          "Quantity": 8,
          "Unit": "%DV       "
        },
        {
          "DisplayOrder": 17,
          "Document": null,
          "NutritionItemID": 13,
          "NutritionItemName": "Iron",
          "Predriscriptor": "",
          "Quantity": 4,
          "Unit": "%DV       "
        }
      ],
      "NutritionServingText": "",
      "PrepStepImage": null,
      "PreparationDescription": "Spread cream cheese onto bottom of microwaveable 9-inch pie plate; cover with sauce.  Top with layers of all remaining ingredients except crackers.  $Microwave on HIGH 2 min. or until heated through.  $Serve with crackers.",
      "PreparationPreText": "",
      "PreparationSteps": [
        {
          "Description": "Spread cream cheese onto bottom of microwaveable 9-inch pie plate; cover with sauce.  Top with layers of all remaining ingredients except crackers.  ",
          "PreparationStepImage": {
            "PictureFormats": [],
            "author": null,
            "id": null,
            "imageType": null,
            "mimeType": null,
            "publicationDate": null,
            "status": null,
            "title": null,
            "type": null
          },
          "Sequence": 1
        },
        {
          "Description": "Microwave on HIGH 2 min. or until heated through.  ",
          "PreparationStepImage": {
            "PictureFormats": [],
            "author": null,
            "id": null,
            "imageType": null,
            "mimeType": null,
            "publicationDate": null,
            "status": null,
            "title": null,
            "type": null
          },
          "Sequence": 2
        },
        {
          "Description": "Serve with crackers.",
          "PreparationStepImage": {
            "PictureFormats": [],
            "author": null,
            "id": null,
            "imageType": null,
            "mimeType": null,
            "publicationDate": null,
            "status": null,
            "title": null,
            "type": null
          },
          "Sequence": 3
        }
      ],
      "PreparationTime": 10,
      "Promotion": null,
      "Ratings": {
        "TotalCount": 74,
        "PageCount": 10,
        "PageNo": 1,
        "Rating": [
          {
            "Comment": "was very easy to make in short amount of time family really enjoyed.",
            "DisplayName": false,
            "RatingValue": 4,
            "SubmitDate": "/Date(1391392390000-0600)/",
            "UpdatedDate": "/Date(1391392390000-0600)/",
            "UserName": "mom4265"
          },
          {
            "Comment": "expected better",
            "DisplayName": false,
            "RatingValue": 2,
            "SubmitDate": "/Date(1388535130000-0600)/",
            "UpdatedDate": "/Date(1388535130000-0600)/",
            "UserName": "lasbh9"
          },
          {
            "Comment": "Awesomely quick and easy!  Made this for football party and was surprised at the comments, since I had spent virtually no time on it.  Substituted chopped Romas for the peppers and added mini pepperoni, this will definitely be made for Superbowl gathering!",
            "DisplayName": true,
            "RatingValue": 5,
            "SubmitDate": "/Date(1358100358000-0600)/",
            "UpdatedDate": "/Date(1358100358000-0600)/",
            "UserName": "leo217"
          },
          {
            "Comment": "Everyone loves this dish! I commented below before but when I make it I dont add the Parmesan  (dont like Parm). I add the red & Green peppers, onions & pepperoni to the top...its sooo good! I would think any of your favorite pizza toppings would be great on it!",
            "DisplayName": true,
            "RatingValue": 5,
            "SubmitDate": "/Date(1257457867000-0600)/",
            "UpdatedDate": "/Date(1351971096000-0500)/",
            "UserName": "amandasmith86"
          },
          {
            "Comment": "I make this all the time... but I omit the peppers and add chopped peparoni. It is usually gone before I take it out of the oven. Yummy!",
            "DisplayName": true,
            "RatingValue": 4,
            "SubmitDate": "/Date(1326573021000-0600)/",
            "UpdatedDate": "/Date(1326573021000-0600)/",
            "UserName": "Shawnita"
          },
          {
            "Comment": "awesome recipe! I made it today for the game :)",
            "DisplayName": true,
            "RatingValue": 5,
            "SubmitDate": "/Date(1319413909000-0500)/",
            "UpdatedDate": "/Date(1319413909000-0500)/",
            "UserName": "akephart83"
          },
          {
            "Comment": "was ok. I think we expected more taste. ",
            "DisplayName": true,
            "RatingValue": 3,
            "SubmitDate": "/Date(1299345298000-0600)/",
            "UpdatedDate": "/Date(1299345298000-0600)/",
            "UserName": "TASTER1008"
          },
          {
            "Comment": "Everyone's favorite and always the first appetizer to be completely eaten. We usually leave off the peppers.",
            "DisplayName": false,
            "RatingValue": 5,
            "SubmitDate": "/Date(1296697984000-0600)/",
            "UpdatedDate": "/Date(1296697984000-0600)/",
            "UserName": "antiquer1976"
          },
          {
            "Comment": "Very easy but instead of the peppers I chopped up pepperoni and sprinkled on top",
            "DisplayName": true,
            "RatingValue": 4,
            "SubmitDate": "/Date(1292093299000-0600)/",
            "UpdatedDate": "/Date(1292093299000-0600)/",
            "UserName": "elupo0325"
          },
          {
            "Comment": "It was quick and easy to put together and I had everything one hand. Big hit with my scrapper friends!",
            "DisplayName": true,
            "RatingValue": 4,
            "SubmitDate": "/Date(1280432770000-0500)/",
            "UpdatedDate": "/Date(1280432770000-0500)/",
            "UserName": "letshinelaurie"
          }
        ]
      },
      "RecipeDisplayFormatId": 5,
      "RecipeId": 104888,
      "RecipeName": "PHILLY Cheesy Pizza Dip",
      "RecipeType": 0,
      "RelatedData": {
        "RelatedBrands": null,
        "RelatedProducts": null,
        "RelatedRecipes": {
          "DefaultTopCount": 5,
          "Recipe": [
            {
              "AverageRating": 4.6,
              "HasVideo": false,
              "IsHealthyLiving": false,
              "NumberOfRatings": 98,
              "PhotoName": "63787.jpg",
              "PhotoUrl": "http://assets.kraftfoods.com/recipe_images/opendeploy/63787.jpg",
              "RecipeId": 63787,
              "RecipeName": "PHILLY Cheesy Chili Dip",
              "SEOName": "philly-cheesy-chili-dip-63787",
              "ThumbnailPhoto": null
            },
            {
              "AverageRating": 4.5,
              "HasVideo": false,
              "IsHealthyLiving": false,
              "NumberOfRatings": 11,
              "PhotoName": "121388.jpg",
              "PhotoUrl": "http://assets.kraftfoods.com/recipe_images/opendeploy/121388.jpg",
              "RecipeId": 121388,
              "RecipeName": "Cheesy Pepperoni Pizza Dip",
              "SEOName": "cheesy-pepperoni-pizza-dip-121388",
              "ThumbnailPhoto": null
            },
            {
              "AverageRating": 4,
              "HasVideo": false,
              "IsHealthyLiving": false,
              "NumberOfRatings": 5,
              "PhotoName": "Cheesy_Pizza_Dip.jpg",
              "PhotoUrl": "http://assets.kraftfoods.com/recipe_images/opendeploy/Cheesy_Pizza_Dip.jpg",
              "RecipeId": 57272,
              "RecipeName": "Cheesy Pizza Dip",
              "SEOName": "cheesy-pizza-dip-57272",
              "ThumbnailPhoto": null
            },
            {
              "AverageRating": 4.3,
              "HasVideo": false,
              "IsHealthyLiving": false,
              "NumberOfRatings": 12,
              "PhotoName": "Cheesy_Snacking_Pizzas.jpg",
              "PhotoUrl": "http://assets.kraftfoods.com/recipe_images/opendeploy/Cheesy_Snacking_Pizzas.jpg",
              "RecipeId": 56150,
              "RecipeName": "Cheesy Pepperoni Pizza",
              "SEOName": "cheesy-pepperoni-pizza-56150",
              "ThumbnailPhoto": null
            },
            {
              "AverageRating": 4.6,
              "HasVideo": false,
              "IsHealthyLiving": false,
              "NumberOfRatings": 10,
              "PhotoName": "Layered-Pizza-Dip-62714.jpg",
              "PhotoUrl": "http://assets.kraftfoods.com/recipe_images/opendeploy/Layered-Pizza-Dip-62714.jpg",
              "RecipeId": 144644,
              "RecipeName": "Layered Pizza Dip",
              "SEOName": "layered-pizza-dip-144644",
              "ThumbnailPhoto": null
            }
          ],
          "TotalCount": 1480
        }
      },
      "RiseIngredients": [],
      "RiseTaxonomy": [],
      "Riserecipe": [
        {
          "GRIN": 552956,
          "RecipeId": 104888,
          "RecipeIndustrySector": "Retail",
          "RecipeType": "Internal"
        }
      ],
      "RomanceText": "It almost doesn't matter how you stack 'em up. If you're using pizza ingredients, everyone digs in. This saucy, cheesy dip with fresh peppers proves the point.",
      "SEOName": "philly-cheesy-pizza-dip-104888",
      "Tips": [
        {
          "RecipeId": 104888,
          "Sequence": 10,
          "TipDescription": "Place completely unwrapped package of cream cheese in microwaveable 9-inch pie plate.  Microwave on HIGH 15 sec. or just until softened; spread to cover bottom of pie plate, then continue as directed.",
          "TipID": 1,
          "TipName": "How to Soften Cream Cheese"
        },
        {
          "RecipeId": 104888,
          "Sequence": 20,
          "TipDescription": "Serve with assorted cut-up fresh vegetable dippers in addition to the crackers.",
          "TipID": 2,
          "TipName": "Serving Suggestion"
        }
      ],
      "TotalTime": 10,
      "TradeMarkInfo": null,
      "Video": [],
      "Yield": "2 cups dip or 16 servings, 2 Tbsp. dip and 5 crackers each"
    }
  ]
}