{
  "Metadata": {
    "PageCount": 1,
    "PageNo": 0,
    "TotalCount": 0
  },
  "Recipes": [
    {
      "AdServingKeywords": "Fruit,Meat,Onion,Pineapple,Pork,Spinach,Squash,Vegetables,Entree,Barbecued,Slow cooker,Easy,Dinner,All Seasons,Game Day,Stew,Kraft Barbecue Sauce",
      "AlternateLanguageRecipes": [],
      "Assets": [],
      "AverageRating": 0,
      "BrandId": 1,
      "Branding": null,
      "CSSSkins": null,
      "CarbCounter": null,
      "Categories": [
        {
          "CategoryID": 7,
          "CategoryName": "Pork/Beef Entrees",
          "CategoryRank": 10,
          "SubCategoryID": 418,
          "SubCategoryName": "Pork:  Other",
          "SubCategoryRank": 140
        },
        {
          "CategoryID": 11,
          "CategoryName": "Primary",
          "CategoryRank": 0,
          "SubCategoryID": 97,
          "SubCategoryName": "Entrees",
          "SubCategoryRank": 50
        },
        {
          "CategoryID": 756,
          "CategoryName": "Main Meals (Meat / Seafood / Egg)",
          "CategoryRank": 10,
          "SubCategoryID": 2564,
          "SubCategoryName": "Pork",
          "SubCategoryRank": 1
        }
      ],
      "Classifications": [],
      "ComplimentaryRecipes": null,
      "CookingMethod": null,
      "Copyright": null,
      "Courses": [
        "Main dishes"
      ],
      "DietExchange": null,
      "DishDetails": [
        {
          "Text": "pork recipes",
          "Url": "/recipes/dinner/top-10/pork-recipes/main.aspx"
        },
        {
          "Text": "1 bag 5 dinners",
          "Url": "/recipes/dinner/1Bag5Dinners/1bag5dinnerschickenpork.aspx"
        },
        {
          "Text": "slow cooker recipes",
          "Url": "/recipes/dinner/Planning/slow-cooker.aspx"
        },
        {
          "Text": "chicken slow cooker recipes",
          "Url": "/recipes/dinner/chicken-recipes/slow-cooker/main.aspx"
        }
      ],
      "EndDate": "/Date(-62135575200000-0600)/",
      "HasVideo": false,
      "Ingredients": [
        {
          "FullMeasure": "1",
          "FullWeight": "",
          "IngredientGridHeaders": null,
          "IngredientID": 20861,
          "IngredientName": "boneless pork shoulder",
          "IngredientStep": 10,
          "LanguageId": 0,
          "PostPreparation": " (2-1/2 lb.), cut into bite-size pieces",
          "PrePreparation": "",
          "QuantityNum": 1,
          "QuantityText": "1",
          "QuantityUnit": "",
          "RecipeIngredientID": 5728464,
          "TrialMeasure": "",
          "TrialWeight": ""
        },
        {
          "FullMeasure": "1-1/2 lb.",
          "FullWeight": "",
          "IngredientGridHeaders": null,
          "IngredientID": 7595,
          "IngredientName": "butternut squash",
          "IngredientStep": 20,
          "LanguageId": 0,
          "PostPreparation": ", peeled, cut into 1-inch pieces",
          "PrePreparation": "",
          "QuantityNum": 1,
          "QuantityText": "1-1/2",
          "QuantityUnit": "lb.",
          "RecipeIngredientID": 5728463,
          "TrialMeasure": "",
          "TrialWeight": ""
        },
        {
          "FullMeasure": "1 can",
          "FullWeight": "",
          "IngredientGridHeaders": null,
          "IngredientID": 3262,
          "IngredientName": "pineapple tidbits",
          "IngredientStep": 30,
          "LanguageId": 0,
          "PostPreparation": ", undrained",
          "PrePreparation": " (8 oz.) ",
          "QuantityNum": 1,
          "QuantityText": "1",
          "QuantityUnit": "can",
          "RecipeIngredientID": 5728460,
          "TrialMeasure": "",
          "TrialWeight": ""
        },
        {
          "FullMeasure": "1",
          "FullWeight": "",
          "IngredientGridHeaders": null,
          "IngredientID": 1370,
          "IngredientName": "onion",
          "IngredientStep": 40,
          "LanguageId": 0,
          "PostPreparation": ", chopped",
          "PrePreparation": "",
          "QuantityNum": 1,
          "QuantityText": "1",
          "QuantityUnit": "",
          "RecipeIngredientID": 5728462,
          "TrialMeasure": "",
          "TrialWeight": ""
        },
        {
          "FullMeasure": "1 bottle",
          "FullWeight": "",
          "IngredientGridHeaders": null,
          "IngredientID": 476,
          "IngredientName": "KRAFT Original Barbecue Sauce",
          "IngredientStep": 50,
          "LanguageId": 0,
          "PostPreparation": "",
          "PrePreparation": "(18 oz.)",
          "QuantityNum": 1,
          "QuantityText": "1",
          "QuantityUnit": "bottle",
          "RecipeIngredientID": 5728459,
          "TrialMeasure": "",
          "TrialWeight": ""
        },
        {
          "FullMeasure": "1 pkg.",
          "FullWeight": "",
          "IngredientGridHeaders": null,
          "IngredientID": 5007,
          "IngredientName": "baby spinach leaves",
          "IngredientStep": 60,
          "LanguageId": 0,
          "PostPreparation": "",
          "PrePreparation": " (6 oz.) ",
          "QuantityNum": 1,
          "QuantityText": "1",
          "QuantityUnit": "pkg.",
          "RecipeIngredientID": 5728461,
          "TrialMeasure": "",
          "TrialWeight": ""
        }
      ],
      "IsHealthyLiving": false,
      "KRLId": "546407",
      "KeyIngredients": [
        "Fruit",
        "Meat",
        "Onion",
        "Pineapple",
        "Pork",
        "Spinach",
        "Squash",
        "Vegetables"
      ],
      "Keywords": "onions,pineapple,pork,barbecue sauce,KRAFT Barbecue Sauce,meat,spinach,squash,bbq sauce,pork shoulder,Entree,Barbecued,Slow cooker,Easy,All Seasons,Game Day,Dinner,Stew",
      "LanguageId": 1,
      "LifeStyles": [],
      "NumberOfIngredients": 6,
      "NumberOfRatings": 0,
      "NumberOfRatingsWithComments": "0",
      "NumberOfServings": "10 servings",
      "NumberOfTrialServings": "",
      "NutritionBonus": null,
      "NutritionExchangeItemId": 0,
      "NutritionGridItems": null,
      "NutritionItems": [
        {
          "DisplayOrder": 1,
          "Document": null,
          "NutritionItemID": 3,
          "NutritionItemName": "Calories",
          "Predriscriptor": "",
          "Quantity": 360,
          "Unit": "          "
        },
        {
          "DisplayOrder": 2,
          "Document": "fat_cholesterol.html",
          "NutritionItemID": 4,
          "NutritionItemName": "Total fat",
          "Predriscriptor": "",
          "Quantity": 17,
          "Unit": "g         "
        },
        {
          "DisplayOrder": 3,
          "Document": "fat_cholesterol.html",
          "NutritionItemID": 9,
          "NutritionItemName": "Saturated fat",
          "Predriscriptor": "",
          "Quantity": 6,
          "Unit": "g         "
        },
        {
          "DisplayOrder": 7,
          "Document": "fat_cholesterol.html",
          "NutritionItemID": 2,
          "NutritionItemName": "Cholesterol",
          "Predriscriptor": "",
          "Quantity": 70,
          "Unit": "mg        "
        },
        {
          "DisplayOrder": 8,
          "Document": "sodium.html",
          "NutritionItemID": 8,
          "NutritionItemName": "Sodium",
          "Predriscriptor": "",
          "Quantity": 570,
          "Unit": "mg        "
        },
        {
          "DisplayOrder": 10,
          "Document": "carbs_sugars_fiber.html",
          "NutritionItemID": 1,
          "NutritionItemName": "Carbohydrate",
          "Predriscriptor": "",
          "Quantity": 33,
          "Unit": "g         "
        },
        {
          "DisplayOrder": 11,
          "Document": "carbs_sugars_fiber.html",
          "NutritionItemID": 7,
          "NutritionItemName": "Dietary fiber",
          "Predriscriptor": "",
          "Quantity": 2,
          "Unit": "g         "
        },
        {
          "DisplayOrder": 12,
          "Document": "carbs_sugars_fiber.html",
          "NutritionItemID": 5,
          "NutritionItemName": "Sugars",
          "Predriscriptor": "",
          "Quantity": 24,
          "Unit": "g         "
        },
        {
          "DisplayOrder": 13,
          "Document": null,
          "NutritionItemID": 6,
          "NutritionItemName": "Protein",
          "Predriscriptor": "",
          "Quantity": 20,
          "Unit": "g         "
        },
        {
          "DisplayOrder": 14,
          "Document": null,
          "NutritionItemID": 10,
          "NutritionItemName": "Vitamin A",
          "Predriscriptor": "",
          "Quantity": 150,
          "Unit": "%DV       "
        },
        {
          "DisplayOrder": 15,
          "Document": null,
          "NutritionItemID": 11,
          "NutritionItemName": "Vitamin C",
          "Predriscriptor": "",
          "Quantity": 25,
          "Unit": "%DV       "
        },
        {
          "DisplayOrder": 16,
          "Document": "dairy_and_calcium.html",
          "NutritionItemID": 12,
          "NutritionItemName": "Calcium",
          "Predriscriptor": "",
          "Quantity": 10,
          "Unit": "%DV       "
        },
        {
          "DisplayOrder": 17,
          "Document": null,
          "NutritionItemID": 13,
          "NutritionItemName": "Iron",
          "Predriscriptor": "",
          "Quantity": 10,
          "Unit": "%DV       "
        }
      ],
      "NutritionServingText": " ",
      "PrepStepImage": null,
      "PreparationDescription": "Place meat in slow cooker; top with squash, pineapple, onions and barbecue sauce.  Cover with lid.$Cook on LOW 6 to 8 hours (or on HIGH 3 to 4 hours).$Add spinach to ingredients in slow cooker; mix well. ",
      "PreparationPreText": "",
      "PreparationSteps": [
        {
          "Description": "Place meat in slow cooker; top with squash, pineapple, onions and barbecue sauce.  Cover with lid.",
          "PreparationStepImage": {
            "PictureFormats": [],
            "author": null,
            "id": null,
            "imageType": null,
            "mimeType": null,
            "publicationDate": null,
            "status": null,
            "title": null,
            "type": null
          },
          "Sequence": 1
        },
        {
          "Description": "Cook on LOW 6 to 8 hours (or on HIGH 3 to 4 hours).",
          "PreparationStepImage": {
            "PictureFormats": [],
            "author": null,
            "id": null,
            "imageType": null,
            "mimeType": null,
            "publicationDate": null,
            "status": null,
            "title": null,
            "type": null
          },
          "Sequence": 2
        },
        {
          "Description": "Add spinach to ingredients in slow cooker; mix well. ",
          "PreparationStepImage": {
            "PictureFormats": [],
            "author": null,
            "id": null,
            "imageType": null,
            "mimeType": null,
            "publicationDate": null,
            "status": null,
            "title": null,
            "type": null
          },
          "Sequence": 3
        }
      ],
      "PreparationTime": 20,
      "Promotion": null,
      "Ratings": {
        "TotalCount": 0,
        "PageCount": 10,
        "PageNo": 1,
        "Rating": []
      },
      "RecipeDisplayFormatId": 5,
      "RecipeId": 180397,
      "RecipeName": "Hawaiian Pineapple-Pork Stew",
      "RecipeType": 0,
      "RelatedData": {
        "RelatedBrands": null,
        "RelatedProducts": null,
        "RelatedRecipes": {
          "DefaultTopCount": 5,
          "Recipe": [
            {
              "AverageRating": 4.6,
              "HasVideo": false,
              "IsHealthyLiving": true,
              "NumberOfRatings": 5,
              "PhotoName": "Hawaiian-BBQ-Pork-Sliders-62824.jpg",
              "PhotoUrl": "http://assets.kraftfoods.com/recipe_images/opendeploy/Hawaiian-BBQ-Pork-Sliders-62824.jpg",
              "RecipeId": 138599,
              "RecipeName": "Hawaiian BBQ Pork Sliders",
              "SEOName": "hawaiian-bbq-pork-sliders-138599",
              "ThumbnailPhoto": null
            },
            {
              "AverageRating": 4,
              "HasVideo": false,
              "IsHealthyLiving": false,
              "NumberOfRatings": 1,
              "PhotoName": "Grilled-Hawaiian-Quesadillas-53153.jpg",
              "PhotoUrl": "http://assets.kraftfoods.com/recipe_images/opendeploy/Grilled-Hawaiian-Quesadillas-53153.jpg",
              "RecipeId": 112897,
              "RecipeName": "Grilled Hawaiian Quesadillas",
              "SEOName": "grilled-hawaiian-quesadillas-112897",
              "ThumbnailPhoto": null
            },
            {
              "AverageRating": 4.4,
              "HasVideo": false,
              "IsHealthyLiving": false,
              "NumberOfRatings": 9,
              "PhotoName": "Hawaiian-Ham-n-Cheese-1165.jpg",
              "PhotoUrl": "http://assets.kraftfoods.com/recipe_images/opendeploy/Hawaiian-Ham-n-Cheese-1165.jpg",
              "RecipeId": 54538,
              "RecipeName": "Hawaiian Ham & Cheese",
              "SEOName": "hawaiian-ham-cheese-54538",
              "ThumbnailPhoto": null
            },
            {
              "AverageRating": 5,
              "HasVideo": false,
              "IsHealthyLiving": true,
              "NumberOfRatings": 3,
              "PhotoName": "Spicy_Pineapple_Beef_Stew.jpg",
              "PhotoUrl": "http://assets.kraftfoods.com/recipe_images/opendeploy/Spicy_Pineapple_Beef_Stew.jpg",
              "RecipeId": 70402,
              "RecipeName": "Spicy Pineapple-Beef Stew",
              "SEOName": "spicy-pineapple-beef-stew-70402",
              "ThumbnailPhoto": null
            },
            {
              "AverageRating": 4.7,
              "HasVideo": false,
              "IsHealthyLiving": false,
              "NumberOfRatings": 32,
              "PhotoName": "104835.jpg",
              "PhotoUrl": "http://assets.kraftfoods.com/recipe_images/opendeploy/104835.jpg",
              "RecipeId": 104835,
              "RecipeName": "Cheesy Hawaiian Dip",
              "SEOName": "cheesy-hawaiian-dip-104835",
              "ThumbnailPhoto": null
            }
          ],
          "TotalCount": 1589
        }
      },
      "RiseIngredients": [],
      "RiseTaxonomy": [],
      "Riserecipe": [
        {
          "GRIN": 546407,
          "RecipeId": 180397,
          "RecipeIndustrySector": "Retail",
          "RecipeType": "Internal"
        }
      ],
      "RomanceText": "When you toss pineapple, butternut squash, pork, onions and BBQ sauce in the slow cooker, yumminess will naturally emerge. This stew is case in point.",
      "SEOName": "hawaiian-pineapple-pork-stew-180397",
      "Tips": [
        {
          "RecipeId": 180397,
          "Sequence": 10,
          "TipDescription": "Serve over hot cooked grits, rice, noodles or polenta. Garnish with sliced green onions.",
          "TipID": 3,
          "TipName": "Serving Suggestion"
        },
        {
          "RecipeId": 180397,
          "Sequence": 20,
          "TipDescription": "Substitute peeled sweet potatoes for the squash.",
          "TipID": 5,
          "TipName": "Substitute"
        }
      ],
      "TotalTime": 380,
      "TradeMarkInfo": null,
      "Video": [],
      "Yield": "10 servings"
    }
  ]
}