{
  "Metadata": {
    "PageCount": 1,
    "PageNo": 0,
    "TotalCount": 0
  },
  "Recipes": [
    {
      "AdServingKeywords": "Beans / Legumes,Berries,Cheese,Chicken,Corn,Cranberry,Fruit,Garlic,Jalapeno,Meat,Monterey Jack,Onion,Peppers,Poultry,Spinach,Squash,Tomato,Vegetables,Dinner,Lunch,Kraft Cheese,Kraft Shredded Cheese,Taco Bell®",
      "AlternateLanguageRecipes": [],
      "Assets": [],
      "AverageRating": 0,
      "BrandId": 1,
      "Branding": null,
      "CSSSkins": null,
      "CarbCounter": null,
      "Categories": [
        {
          "CategoryID": 11,
          "CategoryName": "Primary",
          "CategoryRank": 0,
          "SubCategoryID": 100,
          "SubCategoryName": "Soups",
          "SubCategoryRank": 100
        },
        {
          "CategoryID": 14,
          "CategoryName": "Soup/Sandwiches",
          "CategoryRank": 14,
          "SubCategoryID": 448,
          "SubCategoryName": "Chili",
          "SubCategoryRank": 20
        },
        {
          "CategoryID": 755,
          "CategoryName": "International Flavours",
          "CategoryRank": 9,
          "SubCategoryID": 2555,
          "SubCategoryName": "Mexican / Spanish",
          "SubCategoryRank": 1
        }
      ],
      "Classifications": [],
      "ComplimentaryRecipes": null,
      "CookingMethod": null,
      "Copyright": null,
      "Courses": [
        "Soups/stews"
      ],
      "DietExchange": null,
      "DishDetails": [
        {
          "Text": "chicken recipes",
          "Url": "/recipes/dinner/chicken-recipes/main.aspx"
        },
        {
          "Text": "grilled chicken recipes",
          "Url": "/recipes/dinner/chicken-recipes/grilled-chicken/main.aspx"
        },
        {
          "Text": "healthy living chicken recipes",
          "Url": "/recipes/dinner/chicken-recipes/hl/main.aspx"
        },
        {
          "Text": "slow cooker chicken recipes",
          "Url": "/recipes/dinner/chicken-recipes/slow-cooker/main.aspx"
        },
        {
          "Text": "whole chicken recipes",
          "Url": "/recipes/dinner/chicken-recipes/whole-chicken/main.aspx"
        },
        {
          "Text": "chicken breast recipes",
          "Url": "/recipes/dinner/chicken-recipes/chicken-breast/main.aspx"
        },
        {
          "Text": "chicken casseroles",
          "Url": "/recipes/dinner/chicken-recipes/casseroles/main.aspx"
        },
        {
          "Text": "chicken pasta recipes",
          "Url": "/recipes/dinner/chicken-recipes/pasta-dishes/main.aspx"
        },
        {
          "Text": "chicken salad recipes",
          "Url": "/recipes/dinner/chicken-recipes/salads/main.aspx"
        },
        {
          "Text": "chicken stir-fry recipes",
          "Url": "/recipes/dinner/chicken-recipes/stir-fry/main.aspx"
        },
        {
          "Text": "chicken wing recipes",
          "Url": "/recipes/appetizers/chicken-wing-recipes/main.aspx"
        },
        {
          "Text": "baked chicken recipes",
          "Url": "/recipes/dinner/chicken-recipes/baked-chicken/main.aspx"
        },
        {
          "Text": "bbq chicken recipes",
          "Url": "/recipes/holidays-and-entertaining/entertaining/summer/bbq-recipes/bbq-chicken-recipes/main.aspx"
        }
      ],
      "EndDate": "/Date(-62135575200000-0600)/",
      "HasVideo": false,
      "Ingredients": [
        {
          "FullMeasure": "1 lb.",
          "FullWeight": "",
          "IngredientGridHeaders": null,
          "IngredientID": 20146,
          "IngredientName": "boneless skinless chicken thigh",
          "IngredientStep": 10,
          "LanguageId": 0,
          "PostPreparation": "s, cut into 1-inch pieces",
          "PrePreparation": "",
          "QuantityNum": 1,
          "QuantityText": "1",
          "QuantityUnit": "lb.",
          "RecipeIngredientID": 6363730,
          "TrialMeasure": "",
          "TrialWeight": ""
        },
        {
          "FullMeasure": "1 jar",
          "FullWeight": "",
          "IngredientGridHeaders": null,
          "IngredientID": 1826,
          "IngredientName": "TACO BELL® Thick & Chunky Salsa",
          "IngredientStep": 20,
          "LanguageId": 0,
          "PostPreparation": "",
          "PrePreparation": "(16 oz.)",
          "QuantityNum": 1,
          "QuantityText": "1",
          "QuantityUnit": "jar",
          "RecipeIngredientID": 6363737,
          "TrialMeasure": "",
          "TrialWeight": ""
        },
        {
          "FullMeasure": "1 can",
          "FullWeight": "",
          "IngredientGridHeaders": null,
          "IngredientID": 817,
          "IngredientName": "black beans",
          "IngredientStep": 30,
          "LanguageId": 0,
          "PostPreparation": ", rinsed",
          "PrePreparation": "(15 oz.)",
          "QuantityNum": 1,
          "QuantityText": "1",
          "QuantityUnit": "can",
          "RecipeIngredientID": 6363736,
          "TrialMeasure": "",
          "TrialWeight": ""
        },
        {
          "FullMeasure": "1 can",
          "FullWeight": "",
          "IngredientGridHeaders": null,
          "IngredientID": 1705,
          "IngredientName": "tomato sauce",
          "IngredientStep": 40,
          "LanguageId": 0,
          "PostPreparation": "",
          "PrePreparation": "(15 oz.)",
          "QuantityNum": 1,
          "QuantityText": "1",
          "QuantityUnit": "can",
          "RecipeIngredientID": 6363735,
          "TrialMeasure": "",
          "TrialWeight": ""
        },
        {
          "FullMeasure": "1-1/4 cups",
          "FullWeight": "",
          "IngredientGridHeaders": null,
          "IngredientID": 9786,
          "IngredientName": "fat-free reduced-sodium chicken broth",
          "IngredientStep": 50,
          "LanguageId": 0,
          "PostPreparation": "",
          "PrePreparation": "",
          "QuantityNum": 1,
          "QuantityText": "1-1/4",
          "QuantityUnit": "cups",
          "RecipeIngredientID": 6363726,
          "TrialMeasure": "",
          "TrialWeight": ""
        },
        {
          "FullMeasure": "1 cup",
          "FullWeight": "",
          "IngredientGridHeaders": null,
          "IngredientID": 7595,
          "IngredientName": "butternut squash",
          "IngredientStep": 60,
          "LanguageId": 0,
          "PostPreparation": " (3/4 inch pieces)",
          "PrePreparation": "cut-up peeled",
          "QuantityNum": 1,
          "QuantityText": "1",
          "QuantityUnit": "cup",
          "RecipeIngredientID": 6363734,
          "TrialMeasure": "",
          "TrialWeight": ""
        },
        {
          "FullMeasure": "1",
          "FullWeight": "",
          "IngredientGridHeaders": null,
          "IngredientID": 1370,
          "IngredientName": "onion",
          "IngredientStep": 70,
          "LanguageId": 0,
          "PostPreparation": ", chopped",
          "PrePreparation": "",
          "QuantityNum": 1,
          "QuantityText": "1",
          "QuantityUnit": "",
          "RecipeIngredientID": 6363728,
          "TrialMeasure": "",
          "TrialWeight": ""
        },
        {
          "FullMeasure": "1/2 cup",
          "FullWeight": "",
          "IngredientGridHeaders": null,
          "IngredientID": 1142,
          "IngredientName": "frozen corn",
          "IngredientStep": 80,
          "LanguageId": 0,
          "PostPreparation": "",
          "PrePreparation": "",
          "QuantityNum": 0,
          "QuantityText": "1/2",
          "QuantityUnit": "cup",
          "RecipeIngredientID": 6363732,
          "TrialMeasure": "",
          "TrialWeight": ""
        },
        {
          "FullMeasure": "1/2 cup",
          "FullWeight": "",
          "IngredientGridHeaders": null,
          "IngredientID": 1045,
          "IngredientName": "dried cranberries",
          "IngredientStep": 90,
          "LanguageId": 0,
          "PostPreparation": "",
          "PrePreparation": "",
          "QuantityNum": 0,
          "QuantityText": "1/2",
          "QuantityUnit": "cup",
          "RecipeIngredientID": 6363733,
          "TrialMeasure": "",
          "TrialWeight": ""
        },
        {
          "FullMeasure": "1",
          "FullWeight": "",
          "IngredientGridHeaders": null,
          "IngredientID": 1104,
          "IngredientName": "fresh jalapeño pepper",
          "IngredientStep": 100,
          "LanguageId": 0,
          "PostPreparation": ", seeded, finely chopped",
          "PrePreparation": "",
          "QuantityNum": 1,
          "QuantityText": "1",
          "QuantityUnit": "",
          "RecipeIngredientID": 6363729,
          "TrialMeasure": "",
          "TrialWeight": ""
        },
        {
          "FullMeasure": "1 clove",
          "FullWeight": "",
          "IngredientGridHeaders": null,
          "IngredientID": 1175,
          "IngredientName": "garlic",
          "IngredientStep": 110,
          "LanguageId": 0,
          "PostPreparation": ", minced",
          "PrePreparation": "",
          "QuantityNum": 1,
          "QuantityText": "1",
          "QuantityUnit": "clove",
          "RecipeIngredientID": 6363724,
          "TrialMeasure": "",
          "TrialWeight": ""
        },
        {
          "FullMeasure": "1 Tbsp.",
          "FullWeight": "",
          "IngredientGridHeaders": null,
          "IngredientID": 902,
          "IngredientName": "chili powder",
          "IngredientStep": 120,
          "LanguageId": 0,
          "PostPreparation": "",
          "PrePreparation": "",
          "QuantityNum": 1,
          "QuantityText": "1",
          "QuantityUnit": "Tbsp.",
          "RecipeIngredientID": 6363725,
          "TrialMeasure": "",
          "TrialWeight": ""
        },
        {
          "FullMeasure": "2 cups",
          "FullWeight": "",
          "IngredientGridHeaders": null,
          "IngredientID": 5007,
          "IngredientName": "baby spinach leaves",
          "IngredientStep": 130,
          "LanguageId": 0,
          "PostPreparation": "",
          "PrePreparation": "loosely packed",
          "QuantityNum": 2,
          "QuantityText": "2",
          "QuantityUnit": "cups",
          "RecipeIngredientID": 6363727,
          "TrialMeasure": "",
          "TrialWeight": ""
        },
        {
          "FullMeasure": "1 cup",
          "FullWeight": "",
          "IngredientGridHeaders": null,
          "IngredientID": 6505,
          "IngredientName": "KRAFT Shredded Monterey Jack Cheese with Jalapeno Peppers",
          "IngredientStep": 140,
          "LanguageId": 0,
          "PostPreparation": "",
          "PrePreparation": "",
          "QuantityNum": 1,
          "QuantityText": "1",
          "QuantityUnit": "cup",
          "RecipeIngredientID": 6363731,
          "TrialMeasure": "",
          "TrialWeight": ""
        }
      ],
      "IsHealthyLiving": false,
      "KRLId": "570518",
      "KeyIngredients": [
        "Beans / Legumes",
        "Berries",
        "Cheese",
        "Chicken",
        "Corn",
        "Cranberry",
        "Fruit",
        "Garlic",
        "Jalapeno",
        "Meat",
        "Onion",
        "Peppers",
        "Poultry",
        "Spinach",
        "Squash",
        "Tomato",
        "Vegetables"
      ],
      "Keywords": "onions,peppers,beans,cheese,chicken,chicken broth or bouillon,chili powder,corn,dried fruit,hot peppers,jalapeno peppers,KRAFT Monterey Jack Cheese,meat,Monterey Jack cheese,salsa,spinach,squash,tomato sauce,chile peppers,TACO BELL Salsa,black beans,garlic,TACO BELL,cranberries-dried,pepper cheese,broth,chicken thighs,Dinner,Lunch",
      "LanguageId": 1,
      "LifeStyles": [],
      "NumberOfIngredients": 14,
      "NumberOfRatings": 0,
      "NumberOfRatingsWithComments": "0",
      "NumberOfServings": "6 servings ",
      "NumberOfTrialServings": "",
      "NutritionBonus": null,
      "NutritionExchangeItemId": 0,
      "NutritionGridItems": null,
      "NutritionItems": [
        {
          "DisplayOrder": 1,
          "Document": null,
          "NutritionItemID": 3,
          "NutritionItemName": "Calories",
          "Predriscriptor": "",
          "Quantity": 350,
          "Unit": "          "
        },
        {
          "DisplayOrder": 2,
          "Document": "fat_cholesterol.html",
          "NutritionItemID": 4,
          "NutritionItemName": "Total fat",
          "Predriscriptor": "",
          "Quantity": 11,
          "Unit": "g         "
        },
        {
          "DisplayOrder": 3,
          "Document": "fat_cholesterol.html",
          "NutritionItemID": 9,
          "NutritionItemName": "Saturated fat",
          "Predriscriptor": "",
          "Quantity": 4.5,
          "Unit": "g         "
        },
        {
          "DisplayOrder": 7,
          "Document": "fat_cholesterol.html",
          "NutritionItemID": 2,
          "NutritionItemName": "Cholesterol",
          "Predriscriptor": "",
          "Quantity": 85,
          "Unit": "mg        "
        },
        {
          "DisplayOrder": 8,
          "Document": "sodium.html",
          "NutritionItemID": 8,
          "NutritionItemName": "Sodium",
          "Predriscriptor": "",
          "Quantity": 1280,
          "Unit": "mg        "
        },
        {
          "DisplayOrder": 10,
          "Document": "carbs_sugars_fiber.html",
          "NutritionItemID": 1,
          "NutritionItemName": "Carbohydrate",
          "Predriscriptor": "",
          "Quantity": 39,
          "Unit": "g         "
        },
        {
          "DisplayOrder": 11,
          "Document": "carbs_sugars_fiber.html",
          "NutritionItemID": 7,
          "NutritionItemName": "Dietary fiber",
          "Predriscriptor": "",
          "Quantity": 9,
          "Unit": "g         "
        },
        {
          "DisplayOrder": 12,
          "Document": "carbs_sugars_fiber.html",
          "NutritionItemID": 5,
          "NutritionItemName": "Sugars",
          "Predriscriptor": "",
          "Quantity": 16,
          "Unit": "g         "
        },
        {
          "DisplayOrder": 13,
          "Document": null,
          "NutritionItemID": 6,
          "NutritionItemName": "Protein",
          "Predriscriptor": "",
          "Quantity": 25,
          "Unit": "g         "
        },
        {
          "DisplayOrder": 14,
          "Document": null,
          "NutritionItemID": 10,
          "NutritionItemName": "Vitamin A",
          "Predriscriptor": "",
          "Quantity": 90,
          "Unit": "%DV       "
        },
        {
          "DisplayOrder": 15,
          "Document": null,
          "NutritionItemID": 11,
          "NutritionItemName": "Vitamin C",
          "Predriscriptor": "",
          "Quantity": 25,
          "Unit": "%DV       "
        },
        {
          "DisplayOrder": 16,
          "Document": "dairy_and_calcium.html",
          "NutritionItemID": 12,
          "NutritionItemName": "Calcium",
          "Predriscriptor": "",
          "Quantity": 20,
          "Unit": "%DV       "
        },
        {
          "DisplayOrder": 17,
          "Document": null,
          "NutritionItemID": 13,
          "NutritionItemName": "Iron",
          "Predriscriptor": "",
          "Quantity": 20,
          "Unit": "%DV       "
        }
      ],
      "NutritionServingText": " ",
      "PrepStepImage": null,
      "PreparationDescription": "Place all ingredients, except spinach and cheese, in slow cooker. Cover with lid.$Cook on LOW 8 to 9 hours (or on HIGH 4 to 5 hours). $Stir in spinach until wilted just before serving. Serve sprinkled with cheese.",
      "PreparationPreText": "",
      "PreparationSteps": [
        {
          "Description": "Place all ingredients, except spinach and cheese, in slow cooker. Cover with lid.",
          "PreparationStepImage": {
            "PictureFormats": [],
            "author": null,
            "id": null,
            "imageType": null,
            "mimeType": null,
            "publicationDate": null,
            "status": null,
            "title": null,
            "type": null
          },
          "Sequence": 1
        },
        {
          "Description": "Cook on LOW 8 to 9 hours (or on HIGH 4 to 5 hours). ",
          "PreparationStepImage": {
            "PictureFormats": [],
            "author": null,
            "id": null,
            "imageType": null,
            "mimeType": null,
            "publicationDate": null,
            "status": null,
            "title": null,
            "type": null
          },
          "Sequence": 2
        },
        {
          "Description": "Stir in spinach until wilted just before serving. Serve sprinkled with cheese.",
          "PreparationStepImage": {
            "PictureFormats": [],
            "author": null,
            "id": null,
            "imageType": null,
            "mimeType": null,
            "publicationDate": null,
            "status": null,
            "title": null,
            "type": null
          },
          "Sequence": 3
        }
      ],
      "PreparationTime": 15,
      "Promotion": null,
      "Ratings": {
        "TotalCount": 0,
        "PageCount": 10,
        "PageNo": 1,
        "Rating": []
      },
      "RecipeDisplayFormatId": 5,
      "RecipeId": 204499,
      "RecipeName": "Slow-Cooker Veggie & Black Bean Chicken Chili",
      "RecipeType": 0,
      "RelatedData": {
        "RelatedBrands": null,
        "RelatedProducts": null,
        "RelatedRecipes": {
          "DefaultTopCount": 5,
          "Recipe": [
            {
              "AverageRating": 4.4,
              "HasVideo": false,
              "IsHealthyLiving": true,
              "NumberOfRatings": 180,
              "PhotoName": "112395.jpg",
              "PhotoUrl": "http://assets.kraftfoods.com/recipe_images/opendeploy/112395.jpg",
              "RecipeId": 112395,
              "RecipeName": "Slow-Cooker Chunky Chicken Chili",
              "SEOName": "slow-cooker-chunky-chicken-chili-112395",
              "ThumbnailPhoto": null
            },
            {
              "AverageRating": 4,
              "HasVideo": false,
              "IsHealthyLiving": false,
              "NumberOfRatings": 13,
              "PhotoName": "168211_MXM_65537v0E_WP.jpg",
              "PhotoUrl": "http://assets.kraftfoods.com/recipe_images/opendeploy/168211_MXM_65537v0E_WP.jpg",
              "RecipeId": 168211,
              "RecipeName": "Slow-Cooker Enchilada Lasagna",
              "SEOName": "slow-cooker-enchilada-lasagna-168211",
              "ThumbnailPhoto": null
            },
            {
              "AverageRating": 4.8,
              "HasVideo": false,
              "IsHealthyLiving": false,
              "NumberOfRatings": 5,
              "PhotoName": "185163.jpg",
              "PhotoUrl": "http://assets.kraftfoods.com/recipe_images/opendeploy/185163.jpg",
              "RecipeId": 185163,
              "RecipeName": "Slow-Cooker Buffalo Chicken Chili",
              "SEOName": "slow-cooker-buffalo-chicken-chili-185163",
              "ThumbnailPhoto": null
            },
            {
              "AverageRating": 4.5,
              "HasVideo": false,
              "IsHealthyLiving": true,
              "NumberOfRatings": 119,
              "PhotoName": "56214.jpg",
              "PhotoUrl": "http://assets.kraftfoods.com/recipe_images/opendeploy/56214.jpg",
              "RecipeId": 56214,
              "RecipeName": "Quick Turkey Chili",
              "SEOName": "quick-turkey-chili-56214",
              "ThumbnailPhoto": null
            },
            {
              "AverageRating": 4,
              "HasVideo": false,
              "IsHealthyLiving": false,
              "NumberOfRatings": 1,
              "PhotoName": "Slow-Cooker-Chicken-Enchilada-Tortilla-Soup-64952.jpg",
              "PhotoUrl": "http://assets.kraftfoods.com/recipe_images/opendeploy/Slow-Cooker-Chicken-Enchilada-Tortilla-Soup-64952.jpg",
              "RecipeId": 161954,
              "RecipeName": "Slow-Cooker Chicken Enchilada Soup",
              "SEOName": "slow-cooker-chicken-enchilada-soup-161954",
              "ThumbnailPhoto": null
            }
          ],
          "TotalCount": 2209
        }
      },
      "RiseIngredients": [],
      "RiseTaxonomy": [],
      "Riserecipe": [
        {
          "GRIN": 570518,
          "RecipeId": 204499,
          "RecipeIndustrySector": "Retail",
          "RecipeType": "Internal"
        }
      ],
      "RomanceText": "Try a black bean chicken chili that's loaded with veggies. This Slow-Cooker Veggie & Black Bean Chicken Chili is a great option for busy weeknights.",
      "SEOName": "slow-cooker-veggie-black-bean-chicken-chili-204499",
      "Tips": [
        {
          "RecipeId": 204499,
          "Sequence": 10,
          "TipDescription": "When handling fresh chile peppers, be sure to wear disposable rubber or clear plastic gloves to avoid irritating your skin.  Never touch your eyes, nose or mouth when handling the peppers. If you've forgotten to wear the gloves and feel a burning sensation in your hands, apply a baking soda and water paste to the affected area.  After rinsing the paste off, you should feel some relief. ",
          "TipID": 1023,
          "TipName": "How to Handle Fresh Chile Peppers"
        },
        {
          "RecipeId": 204499,
          "Sequence": 20,
          "TipDescription": "Add additional chicken broth, 1/4 cup at a time, for a saucier chili.",
          "TipID": 1,
          "TipName": "Serving Suggestion"
        }
      ],
      "TotalTime": 495,
      "TradeMarkInfo": "TACO BELL® and Logo are trademarks owned and licensed by Taco Bell Corp.",
      "Video": [],
      "Yield": "6 servings "
    }
  ]
}