{
  "Metadata": {
    "PageCount": 1,
    "PageNo": 0,
    "TotalCount": 0
  },
  "Recipes": [
    {
      "AdServingKeywords": "Bacon,Cheddar,Cheese,Dairy,Eggs,Garlic,Jalapeno,Meat,Onion,Peppers,Vegetables,Appetizer,Kraft Cheese,Kraft Shredded Cheese,Oscar Mayer,Taco Bell®",
      "AlternateLanguageRecipes": [],
      "Assets": [],
      "AverageRating": 0,
      "BrandId": 1,
      "Branding": null,
      "CSSSkins": null,
      "CarbCounter": null,
      "Categories": [
        {
          "CategoryID": 6,
          "CategoryName": "Appetizers/Snacks",
          "CategoryRank": 1,
          "SubCategoryID": 23,
          "SubCategoryName": "Other Hot Appetizers",
          "SubCategoryRank": 90
        },
        {
          "CategoryID": 6,
          "CategoryName": "Appetizers/Snacks",
          "CategoryRank": 1,
          "SubCategoryID": 1955,
          "SubCategoryName": "Finger Foods, Hot",
          "SubCategoryRank": 0
        },
        {
          "CategoryID": 11,
          "CategoryName": "Primary",
          "CategoryRank": 0,
          "SubCategoryID": 96,
          "SubCategoryName": "Appetizers & Snacks",
          "SubCategoryRank": 10
        },
        {
          "CategoryID": 748,
          "CategoryName": "Finger Food, Dips & Appetisers",
          "CategoryRank": 2,
          "SubCategoryID": 2523,
          "SubCategoryName": "Hot",
          "SubCategoryRank": 1
        }
      ],
      "Classifications": [],
      "ComplimentaryRecipes": null,
      "CookingMethod": null,
      "Copyright": null,
      "Courses": [
        "Appetizers"
      ],
      "DietExchange": null,
      "DishDetails": [
        {
          "Text": "appetizers",
          "Url": "/recipes/appetizers/main.aspx"
        },
        {
          "Text": "cold appetizers",
          "Url": "/recipes/appetizers/coldappetizers.aspx"
        },
        {
          "Text": "cheese plates",
          "Url": "/recipes/appetizers/entertainingcheeseplates.aspx"
        },
        {
          "Text": "hot appetizers",
          "Url": "/recipes/appetizers/hotappetizers.aspx"
        },
        {
          "Text": "quick appetizers",
          "Url": "/recipes/appetizers/quick.aspx"
        },
        {
          "Text": "salsa recipes",
          "Url": "/recipes/appetizers/salsa-recipes/main.aspx"
        },
        {
          "Text": "seafood appetizers",
          "Url": "/recipes/dinner/seafood/appetizers/main.aspx"
        },
        {
          "Text": "dip recipes",
          "Url": "/recipes/appetizers/dip-recipes/main.aspx"
        }
      ],
      "EndDate": "/Date(-62135575200000-0600)/",
      "HasVideo": false,
      "Ingredients": [
        {
          "FullMeasure": "3-1/4 cups",
          "FullWeight": "",
          "IngredientGridHeaders": null,
          "IngredientID": 1366,
          "IngredientName": "oil",
          "IngredientStep": 10,
          "LanguageId": 0,
          "PostPreparation": ", divided",
          "PrePreparation": "",
          "QuantityNum": 3,
          "QuantityText": "3-1/4",
          "QuantityUnit": "cups",
          "RecipeIngredientID": 6377694,
          "TrialMeasure": "",
          "TrialWeight": ""
        },
        {
          "FullMeasure": "1/3 cup",
          "FullWeight": "",
          "IngredientGridHeaders": null,
          "IngredientID": 1370,
          "IngredientName": "onion",
          "IngredientStep": 20,
          "LanguageId": 0,
          "PostPreparation": "s",
          "PrePreparation": "chopped",
          "QuantityNum": 0,
          "QuantityText": "1/3",
          "QuantityUnit": "cup",
          "RecipeIngredientID": 6377698,
          "TrialMeasure": "",
          "TrialWeight": ""
        },
        {
          "FullMeasure": "1/3 cup",
          "FullWeight": "",
          "IngredientGridHeaders": null,
          "IngredientID": 20477,
          "IngredientName": "pickled jalapeño nacho slice",
          "IngredientStep": 30,
          "LanguageId": 0,
          "PostPreparation": "s",
          "PrePreparation": "chopped drained",
          "QuantityNum": 0,
          "QuantityText": "1/3",
          "QuantityUnit": "cup",
          "RecipeIngredientID": 6377701,
          "TrialMeasure": "",
          "TrialWeight": ""
        },
        {
          "FullMeasure": "1 clove",
          "FullWeight": "",
          "IngredientGridHeaders": null,
          "IngredientID": 1175,
          "IngredientName": "garlic",
          "IngredientStep": 40,
          "LanguageId": 0,
          "PostPreparation": ", minced",
          "PrePreparation": "",
          "QuantityNum": 1,
          "QuantityText": "1",
          "QuantityUnit": "clove",
          "RecipeIngredientID": 6377693,
          "TrialMeasure": "",
          "TrialWeight": ""
        },
        {
          "FullMeasure": "3/4 cup",
          "FullWeight": "",
          "IngredientGridHeaders": null,
          "IngredientID": 1080,
          "IngredientName": "flour",
          "IngredientStep": 50,
          "LanguageId": 0,
          "PostPreparation": ", divided",
          "PrePreparation": "",
          "QuantityNum": 0,
          "QuantityText": "3/4",
          "QuantityUnit": "cup",
          "RecipeIngredientID": 6377699,
          "TrialMeasure": "",
          "TrialWeight": ""
        },
        {
          "FullMeasure": "1-1/2 cups",
          "FullWeight": "",
          "IngredientGridHeaders": null,
          "IngredientID": 1345,
          "IngredientName": "milk",
          "IngredientStep": 60,
          "LanguageId": 0,
          "PostPreparation": "",
          "PrePreparation": "",
          "QuantityNum": 1,
          "QuantityText": "1-1/2",
          "QuantityUnit": "cups",
          "RecipeIngredientID": 6377695,
          "TrialMeasure": "",
          "TrialWeight": ""
        },
        {
          "FullMeasure": "1 pkg.",
          "FullWeight": "",
          "IngredientGridHeaders": null,
          "IngredientID": 28908,
          "IngredientName": "KRAFT Shredded Jalapeño Cheese",
          "IngredientStep": 70,
          "LanguageId": 0,
          "PostPreparation": "",
          "PrePreparation": "(8 oz.)",
          "QuantityNum": 1,
          "QuantityText": "1",
          "QuantityUnit": "pkg.",
          "RecipeIngredientID": 6377692,
          "TrialMeasure": "",
          "TrialWeight": ""
        },
        {
          "FullMeasure": "6 slices",
          "FullWeight": "",
          "IngredientGridHeaders": null,
          "IngredientID": 21298,
          "IngredientName": "OSCAR MAYER Natural Smoked Uncured Bacon",
          "IngredientStep": 80,
          "LanguageId": 0,
          "PostPreparation": ", cooked, crumbled",
          "PrePreparation": "",
          "QuantityNum": 6,
          "QuantityText": "6",
          "QuantityUnit": "slices",
          "RecipeIngredientID": 6377691,
          "TrialMeasure": "",
          "TrialWeight": ""
        },
        {
          "FullMeasure": "2",
          "FullWeight": "",
          "IngredientGridHeaders": null,
          "IngredientID": 1060,
          "IngredientName": "egg",
          "IngredientStep": 90,
          "LanguageId": 0,
          "PostPreparation": "s",
          "PrePreparation": "",
          "QuantityNum": 2,
          "QuantityText": "2",
          "QuantityUnit": "",
          "RecipeIngredientID": 6377696,
          "TrialMeasure": "",
          "TrialWeight": ""
        },
        {
          "FullMeasure": "1 cup",
          "FullWeight": "",
          "IngredientGridHeaders": null,
          "IngredientID": 20139,
          "IngredientName": "panko bread crumbs",
          "IngredientStep": 100,
          "LanguageId": 0,
          "PostPreparation": "",
          "PrePreparation": "",
          "QuantityNum": 1,
          "QuantityText": "1",
          "QuantityUnit": "cup",
          "RecipeIngredientID": 6377700,
          "TrialMeasure": "",
          "TrialWeight": ""
        },
        {
          "FullMeasure": "1/2 cup",
          "FullWeight": "",
          "IngredientGridHeaders": null,
          "IngredientID": 1826,
          "IngredientName": "TACO BELL® Thick & Chunky Salsa",
          "IngredientStep": 110,
          "LanguageId": 0,
          "PostPreparation": "",
          "PrePreparation": "",
          "QuantityNum": 0,
          "QuantityText": "1/2",
          "QuantityUnit": "cup",
          "RecipeIngredientID": 6377697,
          "TrialMeasure": "",
          "TrialWeight": ""
        }
      ],
      "IsHealthyLiving": false,
      "KRLId": "579089",
      "KeyIngredients": [
        "Bacon",
        "Dairy",
        "Eggs",
        "Garlic",
        "Jalapeno",
        "Meat",
        "Onion",
        "Peppers",
        "Vegetables"
      ],
      "Keywords": "oil,onions,OSCAR MAYER,OSCAR MAYER Bacon,bacon,bread crumbs,cheddar cheese,cheese,eggs,jalapeno peppers,milk,salsa,TACO BELL Salsa,flour,garlic,TACO BELL,KRAFT Cheese,cheese - shredded,panko,Appetizer",
      "LanguageId": 1,
      "LifeStyles": [],
      "NumberOfIngredients": 11,
      "NumberOfRatings": 0,
      "NumberOfRatingsWithComments": "0",
      "NumberOfServings": "12 servings",
      "NumberOfTrialServings": "",
      "NutritionBonus": null,
      "NutritionExchangeItemId": 0,
      "NutritionGridItems": null,
      "NutritionItems": [
        {
          "DisplayOrder": 1,
          "Document": null,
          "NutritionItemID": 3,
          "NutritionItemName": "Calories",
          "Predriscriptor": "",
          "Quantity": 240,
          "Unit": "          "
        },
        {
          "DisplayOrder": 2,
          "Document": "fat_cholesterol.html",
          "NutritionItemID": 4,
          "NutritionItemName": "Total fat",
          "Predriscriptor": "",
          "Quantity": 18,
          "Unit": "g         "
        },
        {
          "DisplayOrder": 3,
          "Document": "fat_cholesterol.html",
          "NutritionItemID": 9,
          "NutritionItemName": "Saturated fat",
          "Predriscriptor": "",
          "Quantity": 6,
          "Unit": "g         "
        },
        {
          "DisplayOrder": 7,
          "Document": "fat_cholesterol.html",
          "NutritionItemID": 2,
          "NutritionItemName": "Cholesterol",
          "Predriscriptor": "",
          "Quantity": 40,
          "Unit": "mg        "
        },
        {
          "DisplayOrder": 8,
          "Document": "sodium.html",
          "NutritionItemID": 8,
          "NutritionItemName": "Sodium",
          "Predriscriptor": "",
          "Quantity": 350,
          "Unit": "mg        "
        },
        {
          "DisplayOrder": 10,
          "Document": "carbs_sugars_fiber.html",
          "NutritionItemID": 1,
          "NutritionItemName": "Carbohydrate",
          "Predriscriptor": "",
          "Quantity": 11,
          "Unit": "g         "
        },
        {
          "DisplayOrder": 11,
          "Document": "carbs_sugars_fiber.html",
          "NutritionItemID": 7,
          "NutritionItemName": "Dietary fiber",
          "Predriscriptor": "Less than",
          "Quantity": 1,
          "Unit": "g         "
        },
        {
          "DisplayOrder": 12,
          "Document": "carbs_sugars_fiber.html",
          "NutritionItemID": 5,
          "NutritionItemName": "Sugars",
          "Predriscriptor": "",
          "Quantity": 3,
          "Unit": "g         "
        },
        {
          "DisplayOrder": 13,
          "Document": null,
          "NutritionItemID": 6,
          "NutritionItemName": "Protein",
          "Predriscriptor": "",
          "Quantity": 8,
          "Unit": "g         "
        },
        {
          "DisplayOrder": 14,
          "Document": null,
          "NutritionItemID": 10,
          "NutritionItemName": "Vitamin A",
          "Predriscriptor": "",
          "Quantity": 4,
          "Unit": "%DV       "
        },
        {
          "DisplayOrder": 15,
          "Document": null,
          "NutritionItemID": 11,
          "NutritionItemName": "Vitamin C",
          "Predriscriptor": "",
          "Quantity": 0,
          "Unit": "%DV       "
        },
        {
          "DisplayOrder": 16,
          "Document": "dairy_and_calcium.html",
          "NutritionItemID": 12,
          "NutritionItemName": "Calcium",
          "Predriscriptor": "",
          "Quantity": 20,
          "Unit": "%DV       "
        },
        {
          "DisplayOrder": 17,
          "Document": null,
          "NutritionItemID": 13,
          "NutritionItemName": "Iron",
          "Predriscriptor": "",
          "Quantity": 4,
          "Unit": "%DV       "
        }
      ],
      "NutritionServingText": " ",
      "PrepStepImage": null,
      "PreparationDescription": "Heat 3 Tbsp. oil in medium saucepan on medium-low heat. Add onions; cook 4 to 6 min. or until crisp-tender, stirring occasionally.  Add chopped nacho slices and garlic; cook and stir 3 min. $Whisk in 6 Tbsp. flour until blended.  Stir in milk.  Bring to boil on medium heat, stirring constantly. Cook on medium-low heat 2 to 3 min. or until thickened, stirring constantly. Remove from heat. $Add cheese; stir until melted.  Stir in bacon; spread onto bottom of shallow dish. Refrigerate 3 to 4 hours or until firm. $Roll cheese mixture into 36 balls, using about 1 Tbsp. cheese mixture for each ball. Whisk eggs in small bowl until blended. Place bread crumbs and remaining flour in 2 separate bowls. Add cheese balls, 1 at a time, to flour, then eggs, then bread crumbs, turning to evenly coat each cheese ball with each ingredient. Refrigerate 30 min. $Heat remaining oil to 350ºF in medium saucepan on medium heat. Add cheese balls, in small batches; cook 2 to 3 min. or until golden brown. Remove from oil with slotted spoon; drain on paper towels. $Serve with salsa.",
      "PreparationPreText": "",
      "PreparationSteps": [
        {
          "Description": "Heat 3 Tbsp. oil in medium saucepan on medium-low heat. Add onions; cook 4 to 6 min. or until crisp-tender, stirring occasionally.  Add chopped nacho slices and garlic; cook and stir 3 min. ",
          "PreparationStepImage": {
            "PictureFormats": [],
            "author": null,
            "id": null,
            "imageType": null,
            "mimeType": null,
            "publicationDate": null,
            "status": null,
            "title": null,
            "type": null
          },
          "Sequence": 1
        },
        {
          "Description": "Whisk in 6 Tbsp. flour until blended.  Stir in milk.  Bring to boil on medium heat, stirring constantly. Cook on medium-low heat 2 to 3 min. or until thickened, stirring constantly. Remove from heat. ",
          "PreparationStepImage": {
            "PictureFormats": [],
            "author": null,
            "id": null,
            "imageType": null,
            "mimeType": null,
            "publicationDate": null,
            "status": null,
            "title": null,
            "type": null
          },
          "Sequence": 2
        },
        {
          "Description": "Add cheese; stir until melted.  Stir in bacon; spread onto bottom of shallow dish. Refrigerate 3 to 4 hours or until firm. ",
          "PreparationStepImage": {
            "PictureFormats": [],
            "author": null,
            "id": null,
            "imageType": null,
            "mimeType": null,
            "publicationDate": null,
            "status": null,
            "title": null,
            "type": null
          },
          "Sequence": 3
        },
        {
          "Description": "Roll cheese mixture into 36 balls, using about 1 Tbsp. cheese mixture for each ball. Whisk eggs in small bowl until blended. Place bread crumbs and remaining flour in 2 separate bowls. Add cheese balls, 1 at a time, to flour, then eggs, then bread crumbs, turning to evenly coat each cheese ball with each ingredient. Refrigerate 30 min. ",
          "PreparationStepImage": {
            "PictureFormats": [],
            "author": null,
            "id": null,
            "imageType": null,
            "mimeType": null,
            "publicationDate": null,
            "status": null,
            "title": null,
            "type": null
          },
          "Sequence": 4
        },
        {
          "Description": "Heat remaining oil to 350ºF in medium saucepan on medium heat. Add cheese balls, in small batches; cook 2 to 3 min. or until golden brown. Remove from oil with slotted spoon; drain on paper towels. ",
          "PreparationStepImage": {
            "PictureFormats": [],
            "author": null,
            "id": null,
            "imageType": null,
            "mimeType": null,
            "publicationDate": null,
            "status": null,
            "title": null,
            "type": null
          },
          "Sequence": 5
        },
        {
          "Description": "Serve with salsa.",
          "PreparationStepImage": {
            "PictureFormats": [],
            "author": null,
            "id": null,
            "imageType": null,
            "mimeType": null,
            "publicationDate": null,
            "status": null,
            "title": null,
            "type": null
          },
          "Sequence": 6
        }
      ],
      "PreparationTime": 60,
      "Promotion": null,
      "Ratings": {
        "TotalCount": 0,
        "PageCount": 10,
        "PageNo": 1,
        "Rating": []
      },
      "RecipeDisplayFormatId": 5,
      "RecipeId": 208935,
      "RecipeName": "Jalapeño-Bacon Croquettes",
      "RecipeType": 0,
      "RelatedData": {
        "RelatedBrands": null,
        "RelatedProducts": null,
        "RelatedRecipes": {
          "DefaultTopCount": 5,
          "Recipe": [
            {
              "AverageRating": 4,
              "HasVideo": false,
              "IsHealthyLiving": false,
              "NumberOfRatings": 7,
              "PhotoName": "120306.jpg",
              "PhotoUrl": "http://assets.kraftfoods.com/recipe_images/opendeploy/120306.jpg",
              "RecipeId": 120306,
              "RecipeName": "Potato & Cheese Croquettes",
              "SEOName": "potato-cheese-croquettes-120306",
              "ThumbnailPhoto": null
            },
            {
              "AverageRating": 5,
              "HasVideo": false,
              "IsHealthyLiving": false,
              "NumberOfRatings": 2,
              "PhotoName": "Tuna-Croquettes-45865.jpg",
              "PhotoUrl": "http://assets.kraftfoods.com/recipe_images/opendeploy/Tuna-Croquettes-45865.jpg",
              "RecipeId": 74857,
              "RecipeName": "Tuna Croquettes",
              "SEOName": "tuna-croquettes-74857",
              "ThumbnailPhoto": null
            },
            {
              "AverageRating": 4.1,
              "HasVideo": true,
              "IsHealthyLiving": false,
              "NumberOfRatings": 13,
              "PhotoName": "169496.jpg",
              "PhotoUrl": "http://assets.kraftfoods.com/recipe_images/opendeploy/169496.jpg",
              "RecipeId": 169496,
              "RecipeName": "Bacon-Wrapped Jalapeño Peppers",
              "SEOName": "bacon-wrapped-jalapeno-peppers-169496",
              "ThumbnailPhoto": null
            },
            {
              "AverageRating": 4.5,
              "HasVideo": false,
              "IsHealthyLiving": false,
              "NumberOfRatings": 6,
              "PhotoName": "176447.jpg",
              "PhotoUrl": "http://assets.kraftfoods.com/recipe_images/opendeploy/176447.jpg",
              "RecipeId": 176447,
              "RecipeName": "VELVEETA® Grilled Jalapeño Peppers",
              "SEOName": "velveeta-grilled-jalapeno-peppers-176447",
              "ThumbnailPhoto": null
            },
            {
              "AverageRating": 4.5,
              "HasVideo": false,
              "IsHealthyLiving": false,
              "NumberOfRatings": 115,
              "PhotoName": "53897.jpg",
              "PhotoUrl": "http://assets.kraftfoods.com/recipe_images/opendeploy/53897.jpg",
              "RecipeId": 53897,
              "RecipeName": "Stuffed Jalapeños with Bacon and Cheese",
              "SEOName": "stuffed-jalapenos-bacon-cheese-53897",
              "ThumbnailPhoto": null
            }
          ],
          "TotalCount": 744
        }
      },
      "RiseIngredients": [],
      "RiseTaxonomy": [],
      "Riserecipe": [
        {
          "GRIN": 579089,
          "RecipeId": 208935,
          "RecipeIndustrySector": "Retail",
          "RecipeType": "Internal"
        }
      ],
      "RomanceText": "Make your next gathering one to remember with Jalapeño-Bacon Croquettes. Everyone simply adores the delectable taste of our Jalapeño-Bacon Croquettes.",
      "SEOName": "jalapeno-bacon-croquettes-208935",
      "Tips": [
        {
          "RecipeId": 208935,
          "Sequence": 10,
          "TipDescription": "For best results, reheat oil to desired temperature before adding next batch of croquettes to hot oil to cook. ",
          "TipID": 3,
          "TipName": "Food Facts"
        },
        {
          "RecipeId": 208935,
          "Sequence": 20,
          "TipDescription": "Enjoy eating appetizers at a social occasion, but be mindful of portion size so you don’t overdo it on calories. ",
          "TipID": 4,
          "TipName": "Size Wise"
        },
        {
          "RecipeId": 208935,
          "Sequence": 30,
          "TipDescription": "Cover baking sheet with clean kitchen towel. Spread cooked croquettes onto towel. Place in warm oven until ready to serve. ",
          "TipID": 1,
          "TipName": "How to Keep Cooked Croquettes Warm"
        },
        {
          "RecipeId": 208935,
          "Sequence": 40,
          "TipDescription": "For even more heat, prepare using KRAFT Shredded Hot Habanero Cheese.",
          "TipID": 2,
          "TipName": "Special Extra"
        }
      ],
      "TotalTime": 330,
      "TradeMarkInfo": "TACO BELL® and Logo are trademarks owned and licensed by Taco Bell Corp.",
      "Video": [],
      "Yield": "12 servings"
    }
  ]
}