{
  "Metadata": {
    "PageCount": 1,
    "PageNo": 0,
    "TotalCount": 0
  },
  "Recipes": [
    {
      "AdServingKeywords": "Bacon,Cheese,Dairy,Frozen Potatoes,Meat,Onion,Sour Cream,Swiss,Vegetables,Vinegar,Side Dish,Baked,Easy,Casserole,All Seasons,Christmas,Thanksgiving,Breakstones,Heinz Vinegar,Knudsen,Kraft Cheese,Kraft Shredded Cheese,Ore-Ida,Oscar Mayer,Cooking for a Crowd",
      "AlternateLanguageRecipes": [],
      "Assets": [
        {
          "PictureFormats": [
            {
              "rendition": "290x194",
              "url": "http://assets.kraftfoods.com/recipe_images/opendeploy/162251_290x194.jpg"
            },
            {
              "rendition": "600x250",
              "url": "http://assets.kraftfoods.com/recipe_images/opendeploy/162251_600x250.jpg"
            },
            {
              "rendition": "640x428",
              "url": "http://assets.kraftfoods.com/recipe_images/opendeploy/162251_640x428.jpg"
            }
          ],
          "author": null,
          "id": "2",
          "imageType": "Primary",
          "mimeType": "image/jpeg",
          "publicationDate": null,
          "status": "1",
          "title": "162251",
          "type": "image"
        },
        {
          "PictureFormats": [
            {
              "rendition": "140x90",
              "url": "http://assets.kraftfoods.com/recipe_images/opendeploy/162251_MXM_K64248v0_OR1_V_140x90.jpg"
            },
            {
              "rendition": "300x250",
              "url": "http://assets.kraftfoods.com/recipe_images/opendeploy/162251_MXM_K64248v0_OR1_V_300x250.jpg"
            },
            {
              "rendition": "960x300",
              "url": "http://assets.kraftfoods.com/recipe_images/opendeploy/162251_MXM_K64248v0_OR1_V_960x300.jpg"
            },
            {
              "rendition": "600x250",
              "url": "http://assets.kraftfoods.com/recipe_images/opendeploy/162251_MXM_K64248v0_OR1_V_600x250.jpg"
            },
            {
              "rendition": "640x428",
              "url": "http://assets.kraftfoods.com/recipe_images/opendeploy/162251_MXM_K64248v0_OR1_V_640x428.jpg"
            }
          ],
          "author": null,
          "id": "4",
          "imageType": "Primary",
          "mimeType": "image/jpeg",
          "publicationDate": null,
          "status": "1",
          "title": "162251_MXM_K64248v0_OR1_V",
          "type": "image"
        },
        {
          "PictureFormats": [
            {
              "rendition": "300x200",
              "url": "http://assets.kraftfoods.com/recipe_images/162251_MXM_K64248v0_OR1_V.jpg"
            },
            {
              "rendition": "300x200",
              "url": "http://assets.kraftfoods.com/recipe_images/162251.jpg"
            }
          ],
          "author": null,
          "id": "1",
          "imageType": "LANDSCAPE",
          "mimeType": "image/jpeg",
          "publicationDate": null,
          "status": "1",
          "title": "162251.jpg",
          "type": "image"
        }
      ],
      "AverageRating": 5,
      "BrandId": 1,
      "Branding": null,
      "CSSSkins": null,
      "CarbCounter": null,
      "Categories": [
        {
          "CategoryID": 9,
          "CategoryName": "Salads/Side Dishes",
          "CategoryRank": 13,
          "SubCategoryID": 429,
          "SubCategoryName": "Potato Side Dishes",
          "SubCategoryRank": 120
        },
        {
          "CategoryID": 11,
          "CategoryName": "Primary",
          "CategoryRank": 0,
          "SubCategoryID": 99,
          "SubCategoryName": "Side Dishes",
          "SubCategoryRank": 90
        },
        {
          "CategoryID": 757,
          "CategoryName": "Vegetables & Vegetarian Meals",
          "CategoryRank": 11,
          "SubCategoryID": 2571,
          "SubCategoryName": "Side / Other",
          "SubCategoryRank": 1
        }
      ],
      "Classifications": [],
      "ComplimentaryRecipes": null,
      "CookingMethod": null,
      "Copyright": null,
      "Courses": [
        "Salads & sides"
      ],
      "DietExchange": null,
      "DishDetails": [
        {
          "Text": "casseroles",
          "Url": "/recipes/dinner/casserole-recipes/main.aspx"
        },
        {
          "Text": "chicken casseroles",
          "Url": "/recipes/dinner/chicken-recipes/casseroles/main.aspx"
        },
        {
          "Text": "seafood casseroles",
          "Url": "/recipes/dinner/seafood/casseroles/main.aspx"
        }
      ],
      "EndDate": "/Date(-62135575200000-0600)/",
      "HasVideo": false,
      "Ingredients": [
        {
          "FullMeasure": "1 can",
          "FullWeight": "",
          "IngredientGridHeaders": null,
          "IngredientID": 4830,
          "IngredientName": "condensed cream of potato soup",
          "IngredientStep": 10,
          "LanguageId": 0,
          "PostPreparation": "",
          "PrePreparation": "(10-3/4 oz.)",
          "QuantityNum": 1,
          "QuantityText": "1",
          "QuantityUnit": "can",
          "RecipeIngredientID": 6529682,
          "TrialMeasure": "",
          "TrialWeight": ""
        },
        {
          "FullMeasure": "1-1/2 cups",
          "FullWeight": "",
          "IngredientGridHeaders": null,
          "IngredientID": 88,
          "IngredientName": "BREAKSTONE'S or KNUDSEN Sour Cream",
          "IngredientStep": 20,
          "LanguageId": 0,
          "PostPreparation": "",
          "PrePreparation": "",
          "QuantityNum": 1,
          "QuantityText": "1-1/2",
          "QuantityUnit": "cups",
          "RecipeIngredientID": 6529684,
          "TrialMeasure": "",
          "TrialWeight": ""
        },
        {
          "FullMeasure": "3 Tbsp.",
          "FullWeight": "",
          "IngredientGridHeaders": null,
          "IngredientID": 1754,
          "IngredientName": "HEINZ Distilled White Vinegar",
          "IngredientStep": 30,
          "LanguageId": 0,
          "PostPreparation": "",
          "PrePreparation": "",
          "QuantityNum": 3,
          "QuantityText": "3",
          "QuantityUnit": "Tbsp.",
          "RecipeIngredientID": 6529683,
          "TrialMeasure": "",
          "TrialWeight": ""
        },
        {
          "FullMeasure": "1 pkg.",
          "FullWeight": "",
          "IngredientGridHeaders": null,
          "IngredientID": 1129,
          "IngredientName": "ORE-IDA Diced Hash Brown Potatoes",
          "IngredientStep": 40,
          "LanguageId": 0,
          "PostPreparation": ", thawed",
          "PrePreparation": "(32 oz.)",
          "QuantityNum": 1,
          "QuantityText": "1",
          "QuantityUnit": "pkg.",
          "RecipeIngredientID": 6529681,
          "TrialMeasure": "",
          "TrialWeight": ""
        },
        {
          "FullMeasure": "1 pkg.",
          "FullWeight": "",
          "IngredientGridHeaders": null,
          "IngredientID": 471,
          "IngredientName": "KRAFT Shredded Swiss Cheese",
          "IngredientStep": 50,
          "LanguageId": 0,
          "PostPreparation": "",
          "PrePreparation": "(8 oz.)",
          "QuantityNum": 1,
          "QuantityText": "1",
          "QuantityUnit": "pkg.",
          "RecipeIngredientID": 6529680,
          "TrialMeasure": "",
          "TrialWeight": ""
        },
        {
          "FullMeasure": "8 slices",
          "FullWeight": "",
          "IngredientGridHeaders": null,
          "IngredientID": 578,
          "IngredientName": "OSCAR MAYER Bacon",
          "IngredientStep": 60,
          "LanguageId": 0,
          "PostPreparation": ", crumbled, divided",
          "PrePreparation": "cooked",
          "QuantityNum": 7,
          "QuantityText": "8",
          "QuantityUnit": "slices",
          "RecipeIngredientID": 6529679,
          "TrialMeasure": "",
          "TrialWeight": ""
        },
        {
          "FullMeasure": "6",
          "FullWeight": "",
          "IngredientGridHeaders": null,
          "IngredientID": 7023,
          "IngredientName": "green onions",
          "IngredientStep": 70,
          "LanguageId": 0,
          "PostPreparation": ", sliced, divided",
          "PrePreparation": "",
          "QuantityNum": 6,
          "QuantityText": "6",
          "QuantityUnit": "",
          "RecipeIngredientID": 6529678,
          "TrialMeasure": "",
          "TrialWeight": ""
        },
        {
          "FullMeasure": "2 cups",
          "FullWeight": "",
          "IngredientGridHeaders": null,
          "IngredientID": 226,
          "IngredientName": "french-fried onions",
          "IngredientStep": 80,
          "LanguageId": 0,
          "PostPreparation": "",
          "PrePreparation": "",
          "QuantityNum": 2,
          "QuantityText": "2",
          "QuantityUnit": "cups",
          "RecipeIngredientID": 6529685,
          "TrialMeasure": "",
          "TrialWeight": ""
        }
      ],
      "IsHealthyLiving": false,
      "KRLId": "571596",
      "KeyIngredients": [
        "Bacon",
        "Cheese",
        "Dairy",
        "Meat",
        "Onion",
        "Potato",
        "Vegetables"
      ],
      "Keywords": "onions,OSCAR MAYER Bacon,pork,potato soup,potatoes,bacon,BREAKSTONE'S Sour Cream,cheese,french fried onions,hash browns,KNUDSEN Sour Cream,KRAFT Swiss Cheese,meat,scallions,sour cream,swiss cheese,vinegar,green onions,soup-canned,Side Dish,Baked,Easy,All Seasons,Christmas,Thanksgiving,Casserole,Cooking for a Crowd",
      "LanguageId": 1,
      "LifeStyles": [],
      "NumberOfIngredients": 8,
      "NumberOfRatings": 4,
      "NumberOfRatingsWithComments": "3",
      "NumberOfServings": "16 servings, 1/2 cup each",
      "NumberOfTrialServings": "",
      "NutritionBonus": null,
      "NutritionExchangeItemId": 0,
      "NutritionGridItems": null,
      "NutritionItems": [
        {
          "DisplayOrder": 1,
          "Document": null,
          "NutritionItemID": 3,
          "NutritionItemName": "Calories",
          "Predriscriptor": "",
          "Quantity": 220,
          "Unit": "          "
        },
        {
          "DisplayOrder": 2,
          "Document": "fat_cholesterol.html",
          "NutritionItemID": 4,
          "NutritionItemName": "Total fat",
          "Predriscriptor": "",
          "Quantity": 14,
          "Unit": "g         "
        },
        {
          "DisplayOrder": 3,
          "Document": "fat_cholesterol.html",
          "NutritionItemID": 9,
          "NutritionItemName": "Saturated fat",
          "Predriscriptor": "",
          "Quantity": 7,
          "Unit": "g         "
        },
        {
          "DisplayOrder": 7,
          "Document": "fat_cholesterol.html",
          "NutritionItemID": 2,
          "NutritionItemName": "Cholesterol",
          "Predriscriptor": "",
          "Quantity": 35,
          "Unit": "mg        "
        },
        {
          "DisplayOrder": 8,
          "Document": "sodium.html",
          "NutritionItemID": 8,
          "NutritionItemName": "Sodium",
          "Predriscriptor": "",
          "Quantity": 310,
          "Unit": "mg        "
        },
        {
          "DisplayOrder": 10,
          "Document": "carbs_sugars_fiber.html",
          "NutritionItemID": 1,
          "NutritionItemName": "Carbohydrate",
          "Predriscriptor": "",
          "Quantity": 18,
          "Unit": "g         "
        },
        {
          "DisplayOrder": 11,
          "Document": "carbs_sugars_fiber.html",
          "NutritionItemID": 7,
          "NutritionItemName": "Dietary fiber",
          "Predriscriptor": "",
          "Quantity": 2,
          "Unit": "g         "
        },
        {
          "DisplayOrder": 12,
          "Document": "carbs_sugars_fiber.html",
          "NutritionItemID": 5,
          "NutritionItemName": "Sugars",
          "Predriscriptor": "",
          "Quantity": 2,
          "Unit": "g         "
        },
        {
          "DisplayOrder": 13,
          "Document": null,
          "NutritionItemID": 6,
          "NutritionItemName": "Protein",
          "Predriscriptor": "",
          "Quantity": 7,
          "Unit": "g         "
        },
        {
          "DisplayOrder": 14,
          "Document": null,
          "NutritionItemID": 10,
          "NutritionItemName": "Vitamin A",
          "Predriscriptor": "",
          "Quantity": 8,
          "Unit": "%DV       "
        },
        {
          "DisplayOrder": 15,
          "Document": null,
          "NutritionItemID": 11,
          "NutritionItemName": "Vitamin C",
          "Predriscriptor": "",
          "Quantity": 2,
          "Unit": "%DV       "
        },
        {
          "DisplayOrder": 16,
          "Document": "dairy_and_calcium.html",
          "NutritionItemID": 12,
          "NutritionItemName": "Calcium",
          "Predriscriptor": "",
          "Quantity": 15,
          "Unit": "%DV       "
        },
        {
          "DisplayOrder": 17,
          "Document": null,
          "NutritionItemID": 13,
          "NutritionItemName": "Iron",
          "Predriscriptor": "",
          "Quantity": 0,
          "Unit": "%DV       "
        }
      ],
      "NutritionServingText": " ",
      "PrepStepImage": null,
      "PreparationDescription": "Mix soup, sour cream and vinegar in large bowl until blended.  Add hash browns, cheese, half the bacon and 1/2 cup green onions; mix lightly.$Spoon into 13x9-inch baking dish sprayed with cooking spray.  $Bake 50 min. or until heated through, topping with French fried onions after 20 min.  Sprinkle with remaining bacon and green onions.",
      "PreparationPreText": "Heat oven to 350ºF.",
      "PreparationSteps": [
        {
          "Description": "Mix soup, sour cream and vinegar in large bowl until blended.  Add hash browns, cheese, half the bacon and 1/2 cup green onions; mix lightly.",
          "PreparationStepImage": {
            "PictureFormats": [],
            "author": null,
            "id": null,
            "imageType": null,
            "mimeType": null,
            "publicationDate": null,
            "status": null,
            "title": null,
            "type": null
          },
          "Sequence": 1
        },
        {
          "Description": "Spoon into 13x9-inch baking dish sprayed with cooking spray.  ",
          "PreparationStepImage": {
            "PictureFormats": [],
            "author": null,
            "id": null,
            "imageType": null,
            "mimeType": null,
            "publicationDate": null,
            "status": null,
            "title": null,
            "type": null
          },
          "Sequence": 2
        },
        {
          "Description": "Bake 50 min. or until heated through, topping with French fried onions after 20 min.  Sprinkle with remaining bacon and green onions.",
          "PreparationStepImage": {
            "PictureFormats": [],
            "author": null,
            "id": null,
            "imageType": null,
            "mimeType": null,
            "publicationDate": null,
            "status": null,
            "title": null,
            "type": null
          },
          "Sequence": 3
        }
      ],
      "PreparationTime": 15,
      "Promotion": null,
      "Ratings": {
        "TotalCount": 4,
        "PageCount": 10,
        "PageNo": 1,
        "Rating": [
          {
            "Comment": "I added smoked sausage to mine but it was hard to keep lit.",
            "DisplayName": true,
            "RatingValue": 5,
            "SubmitDate": "/Date(1444158862000-0500)/",
            "UpdatedDate": "/Date(1444158862000-0500)/",
            "UserName": "2umestone"
          },
          {
            "Comment": "I was surprised to see this one wasn't rated yet.  It was delicious and easy to make.  The taste was fabulous, and it definitely has that German flair to it.  A great side for kielbasi or any other German or meat dish.  My whole family loved it, even my picky daughter.  ",
            "DisplayName": true,
            "RatingValue": 5,
            "SubmitDate": "/Date(1427413690000-0500)/",
            "UpdatedDate": "/Date(1427413690000-0500)/",
            "UserName": "cpalusz"
          },
          {
            "Comment": "My family doesn't eat Swiss so I used half mozzarella and half cheddar cheese. I think I would swap out the white vinegar with apple cider vinegar next time and yes there will be a next time. I also suggest making this and dividing it between two 8x8 baking pans and freezing one and baking the other as this is a LARGE casserole. Very good.",
            "DisplayName": true,
            "RatingValue": 5,
            "SubmitDate": "/Date(1425933053000-0500)/",
            "UpdatedDate": "/Date(1425933053000-0500)/",
            "UserName": "dasch11"
          }
        ]
      },
      "RecipeDisplayFormatId": 5,
      "RecipeId": 162251,
      "RecipeName": "Easy German Potato Casserole",
      "RecipeType": 0,
      "RelatedData": {
        "RelatedBrands": null,
        "RelatedProducts": null,
        "RelatedRecipes": {
          "DefaultTopCount": 5,
          "Recipe": [
            {
              "AverageRating": 4.4,
              "HasVideo": false,
              "IsHealthyLiving": false,
              "NumberOfRatings": 28,
              "PhotoName": "opendeploy/505972_1_1_retail-05116d4eba2f1341e347e311ce682cf03bd38771_306x204.jpg",
              "PhotoUrl": "http://assets.kraftfoods.com/recipe_images/opendeploy/opendeploy/505972_1_1_retail-05116d4eba2f1341e347e311ce682cf03bd38771_306x204.jpg",
              "RecipeId": 52491,
              "RecipeName": "Hot German Potato Salad",
              "SEOName": "hot-german-potato-salad-52491",
              "ThumbnailPhoto": null
            },
            {
              "AverageRating": 4.5,
              "HasVideo": false,
              "IsHealthyLiving": false,
              "NumberOfRatings": 42,
              "PhotoName": "90368.jpg",
              "PhotoUrl": "http://assets.kraftfoods.com/recipe_images/opendeploy/90368.jpg",
              "RecipeId": 90368,
              "RecipeName": "So-Easy German Chocolate Cake",
              "SEOName": "so-easy-german-chocolate-cake-90368",
              "ThumbnailPhoto": null
            },
            {
              "AverageRating": 4.4,
              "HasVideo": false,
              "IsHealthyLiving": false,
              "NumberOfRatings": 7,
              "PhotoName": "74428.jpg",
              "PhotoUrl": "http://assets.kraftfoods.com/recipe_images/opendeploy/74428.jpg",
              "RecipeId": 74428,
              "RecipeName": "Mom's Easy Cake Recipe",
              "SEOName": "moms-easy-cake-recipe-74428",
              "ThumbnailPhoto": null
            },
            {
              "AverageRating": 4.5,
              "HasVideo": false,
              "IsHealthyLiving": false,
              "NumberOfRatings": 2,
              "PhotoName": "German_Chocolate_Smores.jpg",
              "PhotoUrl": "http://assets.kraftfoods.com/recipe_images/opendeploy/German_Chocolate_Smores.jpg",
              "RecipeId": 56889,
              "RecipeName": "German Chocolate S'mores",
              "SEOName": "german-chocolate-smores-56889",
              "ThumbnailPhoto": null
            },
            {
              "AverageRating": 4.7,
              "HasVideo": false,
              "IsHealthyLiving": false,
              "NumberOfRatings": 35,
              "PhotoName": "53365.jpg",
              "PhotoUrl": "http://assets.kraftfoods.com/recipe_images/opendeploy/53365.jpg",
              "RecipeId": 53365,
              "RecipeName": "Frozen German Sweet Chocolate Pie",
              "SEOName": "frozen-german-sweet-chocolate-pie-53365",
              "ThumbnailPhoto": null
            }
          ],
          "TotalCount": 4318
        }
      },
      "RiseIngredients": [],
      "RiseTaxonomy": [],
      "Riserecipe": [
        {
          "GRIN": 571596,
          "RecipeId": 162251,
          "RecipeIndustrySector": "Retail",
          "RecipeType": "Internal"
        }
      ],
      "RomanceText": "Frozen Southern-style hash browns and cooked bacon make this Easy German Potato Casserole a snap to prepare.",
      "SEOName": "easy-german-potato-casserole-162251",
      "Tips": [
        {
          "RecipeId": 162251,
          "Sequence": 10,
          "TipDescription": "You'll know it's a special occasion when you get to enjoy a serving of this delicious casserole. ",
          "TipID": 2,
          "TipName": "Size Wise"
        },
        {
          "RecipeId": 162251,
          "Sequence": 20,
          "TipDescription": "Prepare using any other white KRAFT Cheese, such as KRAFT Shredded Mozzarella Cheese or KRAFT Shredded Italian* Five Cheese with a TOUCH OF PHILADELPHIA.",
          "TipID": 1,
          "TipName": "Substitute"
        }
      ],
      "TotalTime": 65,
      "TradeMarkInfo": "*  Made with quality cheeses crafted in the USA.",
      "Video": [],
      "Yield": "16 servings, 1/2 cup each"
    }
  ]
}