{
  "Metadata": {
    "PageCount": 1,
    "PageNo": 0,
    "TotalCount": 0
  },
  "Recipes": [
    {
      "AdServingKeywords": "Drinks,Easy,Banana,Dairy,Fruit,Lemon,Yogurt,Kool-Aid,Kid-Friendly,Kids Can Cook,Quick and Easy,All Seasons,Creamy,Smoothies and Shakes",
      "AlternateLanguageRecipes": [],
      "Assets": [
        {
          "PictureFormats": [
            {
              "rendition": "300x200",
              "url": "http://assets.kraftfoods.com/recipe_images/Banana_Yogurt_Smoothie1.jpg"
            }
          ],
          "author": null,
          "id": "0",
          "imageType": "DEFAULT",
          "mimeType": null,
          "publicationDate": null,
          "status": "1",
          "title": "Banana_Yogurt_Smoothie1.jpg",
          "type": "image"
        }
      ],
      "AverageRating": 4.7,
      "BrandId": 1,
      "Branding": null,
      "CSSSkins": [],
      "CarbCounter": null,
      "Categories": [
        {
          "CategoryID": 5,
          "CategoryName": "Beverages",
          "CategoryRank": 2,
          "SubCategoryID": 134,
          "SubCategoryName": "Shakes/Smoothies",
          "SubCategoryRank": 60
        },
        {
          "CategoryID": 11,
          "CategoryName": "Primary",
          "CategoryRank": 0,
          "SubCategoryID": 104,
          "SubCategoryName": "Beverages",
          "SubCategoryRank": 20
        },
        {
          "CategoryID": 747,
          "CategoryName": "Beverages",
          "CategoryRank": 1,
          "SubCategoryID": 2521,
          "SubCategoryName": "Chilled",
          "SubCategoryRank": 1
        },
        {
          "CategoryID": 747,
          "CategoryName": "Beverages",
          "CategoryRank": 1,
          "SubCategoryID": 2522,
          "SubCategoryName": "Mocktails",
          "SubCategoryRank": 1
        }
      ],
      "Classifications": [],
      "ComplimentaryRecipes": [
        {
          "AverageRating": 0,
          "HasVideo": false,
          "IsHealthyLiving": false,
          "NumberOfRatings": 0,
          "PhotoName": null,
          "PhotoUrl": null,
          "RecipeId": 56093,
          "RecipeName": null,
          "SEOName": "apple-muffins-56093",
          "ThumbnailPhoto": "Apple_Cinnamon_Muffins.jpg"
        }
      ],
      "CookingMethod": null,
      "Copyright": null,
      "Courses": [
        "Beverages"
      ],
      "DietExchange": null,
      "DishDetails": [],
      "EndDate": "/Date(-62135575200000-0600)/",
      "HasVideo": false,
      "Ingredients": [
        {
          "FullMeasure": null,
          "FullWeight": null,
          "IngredientGridHeaders": null,
          "IngredientID": 3519,
          "IngredientName": "KOOL-AID Orange Flavor Sugar-Sweetened Drink Mix",
          "IngredientStep": 10,
          "LanguageId": 0,
          "PostPreparation": "",
          "PrePreparation": "",
          "QuantityNum": 0,
          "QuantityText": "",
          "QuantityUnit": "",
          "RecipeIngredientID": 4581804,
          "TrialMeasure": null,
          "TrialWeight": null
        },
        {
          "FullMeasure": "2 cups",
          "FullWeight": "",
          "IngredientGridHeaders": null,
          "IngredientID": 1345,
          "IngredientName": "milk",
          "IngredientStep": 20,
          "LanguageId": 0,
          "PostPreparation": "",
          "PrePreparation": "",
          "QuantityNum": 2,
          "QuantityText": "2",
          "QuantityUnit": "cups",
          "RecipeIngredientID": 4581805,
          "TrialMeasure": "",
          "TrialWeight": ""
        },
        {
          "FullMeasure": "1 container",
          "FullWeight": "",
          "IngredientGridHeaders": null,
          "IngredientID": 20074,
          "IngredientName": "lemon low-fat yogurt",
          "IngredientStep": 30,
          "LanguageId": 0,
          "PostPreparation": "",
          "PrePreparation": "(6 oz.) ",
          "QuantityNum": 1,
          "QuantityText": "1",
          "QuantityUnit": "container",
          "RecipeIngredientID": 4581807,
          "TrialMeasure": "",
          "TrialWeight": ""
        },
        {
          "FullMeasure": "1",
          "FullWeight": "",
          "IngredientGridHeaders": null,
          "IngredientID": 8755,
          "IngredientName": "banana",
          "IngredientStep": 40,
          "LanguageId": 0,
          "PostPreparation": ", cut into chunks",
          "PrePreparation": "",
          "QuantityNum": 1,
          "QuantityText": "1",
          "QuantityUnit": "",
          "RecipeIngredientID": 4581806,
          "TrialMeasure": "",
          "TrialWeight": ""
        }
      ],
      "IsHealthyLiving": false,
      "KRLId": "500708",
      "KeyIngredients": [
        "Banana",
        "Dairy",
        "Fruit",
        "Lemon",
        "Yogurt"
      ],
      "Keywords": "orange KOOL-AID,bananas,KOOL-AID Sweetened,milk,yogurt,drink mix-sweetened,Drinks,Easy,Kid-Friendly,Kids Can Cook,Quick and Easy,All Seasons,Smoothies and Shakes",
      "LanguageId": 1,
      "LifeStyles": [],
      "NumberOfIngredients": 4,
      "NumberOfRatings": 11,
      "NumberOfRatingsWithComments": "6",
      "NumberOfServings": "4 servings, about 1 cup each",
      "NumberOfTrialServings": "",
      "NutritionBonus": null,
      "NutritionExchangeItemId": 0,
      "NutritionGridItems": null,
      "NutritionItems": [
        {
          "DisplayOrder": 1,
          "Document": null,
          "NutritionItemID": 3,
          "NutritionItemName": "Calories",
          "Predriscriptor": "",
          "Quantity": 130,
          "Unit": "          "
        },
        {
          "DisplayOrder": 2,
          "Document": "fat_cholesterol.html",
          "NutritionItemID": 4,
          "NutritionItemName": "Total fat",
          "Predriscriptor": "",
          "Quantity": 3,
          "Unit": "g         "
        },
        {
          "DisplayOrder": 3,
          "Document": "fat_cholesterol.html",
          "NutritionItemID": 9,
          "NutritionItemName": "Saturated fat",
          "Predriscriptor": "",
          "Quantity": 2,
          "Unit": "g         "
        },
        {
          "DisplayOrder": 7,
          "Document": "fat_cholesterol.html",
          "NutritionItemID": 2,
          "NutritionItemName": "Cholesterol",
          "Predriscriptor": "",
          "Quantity": 10,
          "Unit": "mg        "
        },
        {
          "DisplayOrder": 8,
          "Document": "sodium.html",
          "NutritionItemID": 8,
          "NutritionItemName": "Sodium",
          "Predriscriptor": "",
          "Quantity": 85,
          "Unit": "mg        "
        },
        {
          "DisplayOrder": 10,
          "Document": "carbs_sugars_fiber.html",
          "NutritionItemID": 1,
          "NutritionItemName": "Carbohydrate",
          "Predriscriptor": "",
          "Quantity": 20,
          "Unit": "g         "
        },
        {
          "DisplayOrder": 11,
          "Document": "carbs_sugars_fiber.html",
          "NutritionItemID": 7,
          "NutritionItemName": "Dietary fiber",
          "Predriscriptor": "Less than",
          "Quantity": 1,
          "Unit": "g         "
        },
        {
          "DisplayOrder": 12,
          "Document": "carbs_sugars_fiber.html",
          "NutritionItemID": 5,
          "NutritionItemName": "Sugars",
          "Predriscriptor": "",
          "Quantity": 18,
          "Unit": "g         "
        },
        {
          "DisplayOrder": 13,
          "Document": null,
          "NutritionItemID": 6,
          "NutritionItemName": "Protein",
          "Predriscriptor": "",
          "Quantity": 6,
          "Unit": "g         "
        },
        {
          "DisplayOrder": 14,
          "Document": null,
          "NutritionItemID": 10,
          "NutritionItemName": "Vitamin A",
          "Predriscriptor": "",
          "Quantity": 6,
          "Unit": "%DV       "
        },
        {
          "DisplayOrder": 15,
          "Document": null,
          "NutritionItemID": 11,
          "NutritionItemName": "Vitamin C",
          "Predriscriptor": "",
          "Quantity": 6,
          "Unit": "%DV       "
        },
        {
          "DisplayOrder": 16,
          "Document": "dairy_and_calcium.html",
          "NutritionItemID": 12,
          "NutritionItemName": "Calcium",
          "Predriscriptor": "",
          "Quantity": 20,
          "Unit": "%DV       "
        },
        {
          "DisplayOrder": 17,
          "Document": null,
          "NutritionItemID": 13,
          "NutritionItemName": "Iron",
          "Predriscriptor": "",
          "Quantity": 0,
          "Unit": "%DV       "
        }
      ],
      "NutritionServingText": " ",
      "PrepStepImage": null,
      "PreparationDescription": "Measure drink mix to 1-qt. line in cap; pour into blender. $Add remaining ingredients; blend until smooth.$Serve immediately.",
      "PreparationPreText": "",
      "PreparationSteps": [
        {
          "Description": "Measure drink mix to 1-qt. line in cap; pour into blender. ",
          "PreparationStepImage": {
            "PictureFormats": [],
            "author": null,
            "id": null,
            "imageType": null,
            "mimeType": null,
            "publicationDate": null,
            "status": null,
            "title": null,
            "type": null
          },
          "Sequence": 1
        },
        {
          "Description": "Add remaining ingredients; blend until smooth.",
          "PreparationStepImage": {
            "PictureFormats": [],
            "author": null,
            "id": null,
            "imageType": null,
            "mimeType": null,
            "publicationDate": null,
            "status": null,
            "title": null,
            "type": null
          },
          "Sequence": 2
        },
        {
          "Description": "Serve immediately.",
          "PreparationStepImage": {
            "PictureFormats": [],
            "author": null,
            "id": null,
            "imageType": null,
            "mimeType": null,
            "publicationDate": null,
            "status": null,
            "title": null,
            "type": null
          },
          "Sequence": 3
        }
      ],
      "PreparationTime": 5,
      "Promotion": null,
      "Ratings": {
        "TotalCount": 11,
        "PageCount": 10,
        "PageNo": 1,
        "Rating": [
          {
            "Comment": "I used plain yogurt and a dash of Splenda and threw in some frozen raspberries and it came out great!",
            "DisplayName": true,
            "RatingValue": 4,
            "SubmitDate": "/Date(1213537881000-0500)/",
            "UpdatedDate": "/Date(1213537881000-0500)/",
            "UserName": "MRodri1"
          },
          {
            "Comment": "",
            "DisplayName": true,
            "RatingValue": 5,
            "SubmitDate": "/Date(1123369341000-0500)/",
            "UpdatedDate": "/Date(1123369341000-0500)/",
            "UserName": "ladybird123abc"
          },
          {
            "Comment": "it was very good my kids usually don't drink smoothies but they loved this one so I give it a very high rating. 5 stars.",
            "DisplayName": true,
            "RatingValue": 5,
            "SubmitDate": "/Date(1105161255000-0600)/",
            "UpdatedDate": "/Date(1105161255000-0600)/",
            "UserName": "cookingmomof2"
          },
          {
            "Comment": "",
            "DisplayName": true,
            "RatingValue": 5,
            "SubmitDate": "/Date(1101369418000-0600)/",
            "UpdatedDate": "/Date(1101369418000-0600)/",
            "UserName": "kristin_tx"
          },
          {
            "Comment": "It was Excellent!!! I loved it!!! I put bananas and strawberries with strawberry and banana yogurt it was very good! I will make this again",
            "DisplayName": false,
            "RatingValue": 5,
            "SubmitDate": "/Date(1067478368000-0500)/",
            "UpdatedDate": "/Date(1067478368000-0500)/",
            "UserName": "angel_05"
          },
          {
            "Comment": "",
            "DisplayName": true,
            "RatingValue": 5,
            "SubmitDate": "/Date(1056592354000-0500)/",
            "UpdatedDate": "/Date(1056592354000-0500)/",
            "UserName": "cmw10208"
          },
          {
            "Comment": "Easy and good!",
            "DisplayName": false,
            "RatingValue": 5,
            "SubmitDate": "/Date(1035389315000-0500)/",
            "UpdatedDate": "/Date(1035389315000-0500)/",
            "UserName": "grafixdeziner"
          },
          {
            "Comment": "I just made these smoothies and i loved them!! So did my mom and dad. I used bananas and stawberry yogert along with strawberry kool-aid!!! I loved these so much and I WILL be making these again!!!",
            "DisplayName": false,
            "RatingValue": 5,
            "SubmitDate": "/Date(1032719286000-0500)/",
            "UpdatedDate": "/Date(1032719286000-0500)/",
            "UserName": "vosser"
          },
          {
            "Comment": "this smoothe Recipe mind be  good with out the yogurt.  try with Chocolate and ban- ana's. ",
            "DisplayName": true,
            "RatingValue": 3,
            "SubmitDate": "/Date(1031190210000-0500)/",
            "UpdatedDate": "/Date(1031190210000-0500)/",
            "UserName": "ytkathy"
          },
          {
            "Comment": "",
            "DisplayName": true,
            "RatingValue": 5,
            "SubmitDate": "/Date(1016483830000-0500)/",
            "UpdatedDate": "/Date(1016483830000-0500)/",
            "UserName": "ashleyrules_39"
          }
        ]
      },
      "RecipeDisplayFormatId": 5,
      "RecipeId": 54726,
      "RecipeName": "Banana-Yogurt Smoothie",
      "RecipeType": 0,
      "RelatedData": {
        "RelatedBrands": null,
        "RelatedProducts": null,
        "RelatedRecipes": {
          "DefaultTopCount": 5,
          "Recipe": [
            {
              "AverageRating": 4.5,
              "HasVideo": false,
              "IsHealthyLiving": true,
              "NumberOfRatings": 51,
              "PhotoName": "51705.jpg",
              "PhotoUrl": "http://assets.kraftfoods.com/recipe_images/opendeploy/51705.jpg",
              "RecipeId": 51705,
              "RecipeName": "Strawberry-Banana Yogurt Smoothie",
              "SEOName": "strawberry-banana-yogurt-smoothie-51705",
              "ThumbnailPhoto": null
            },
            {
              "AverageRating": 5,
              "HasVideo": false,
              "IsHealthyLiving": true,
              "NumberOfRatings": 1,
              "PhotoName": "opendeploy/137359-49de6d13b94423e935886f87cc4c01fdbf561156_306x204.jpg",
              "PhotoUrl": "http://assets.kraftfoods.com/recipe_images/opendeploy/opendeploy/137359-49de6d13b94423e935886f87cc4c01fdbf561156_306x204.jpg",
              "RecipeId": 137359,
              "RecipeName": "Apple-Oatmeal Smoothie",
              "SEOName": "apple-oatmeal-smoothie-137359",
              "ThumbnailPhoto": null
            },
            {
              "AverageRating": 4.5,
              "HasVideo": false,
              "IsHealthyLiving": true,
              "NumberOfRatings": 25,
              "PhotoName": "Banana_Berry_Smoothie.jpg",
              "PhotoUrl": "http://assets.kraftfoods.com/recipe_images/opendeploy/Banana_Berry_Smoothie.jpg",
              "RecipeId": 55043,
              "RecipeName": "Banana-Berry Smoothie",
              "SEOName": "banana-berry-smoothie-55043",
              "ThumbnailPhoto": null
            },
            {
              "AverageRating": 5,
              "HasVideo": false,
              "IsHealthyLiving": false,
              "NumberOfRatings": 1,
              "PhotoName": "165242.jpg",
              "PhotoUrl": "http://assets.kraftfoods.com/recipe_images/opendeploy/165242.jpg",
              "RecipeId": 165242,
              "RecipeName": "Mocha Coconut Morning Smoothie",
              "SEOName": "mocha-coconut-morning-smoothie-165242",
              "ThumbnailPhoto": null
            },
            {
              "AverageRating": 5,
              "HasVideo": false,
              "IsHealthyLiving": false,
              "NumberOfRatings": 1,
              "PhotoName": "180803.jpg",
              "PhotoUrl": "http://assets.kraftfoods.com/recipe_images/opendeploy/180803.jpg",
              "RecipeId": 180803,
              "RecipeName": "Mixed-Berry Smoothie Pops",
              "SEOName": "mixed-berry-smoothie-pops-180803",
              "ThumbnailPhoto": null
            }
          ],
          "TotalCount": 330
        }
      },
      "RiseIngredients": [],
      "RiseTaxonomy": [],
      "Riserecipe": [
        {
          "GRIN": 500708,
          "RecipeId": 54726,
          "RecipeIndustrySector": "Retail",
          "RecipeType": "Internal"
        }
      ],
      "RomanceText": "Fruity soft drink mix adds extra color and flavor to this creamy blender beverage. Serve it at breakfast or for a snack.",
      "SEOName": "banana-yogurt-smoothie-54726",
      "Tips": [
        {
          "RecipeId": 54726,
          "Sequence": 10,
          "TipDescription": "To quickly clean your blender, fill half full with water.  Add a few drops dishwashing liquid; blend 30 sec. Pour out water, remove blender bottom and blade and rinse carefully in hot water.",
          "TipID": 1,
          "TipName": "Easy Cleanup"
        }
      ],
      "TotalTime": 5,
      "TradeMarkInfo": null,
      "Video": [],
      "Yield": "4 servings, about 1 cup each"
    }
  ]
}