{
  "Metadata": {
    "PageCount": 1,
    "PageNo": 0,
    "TotalCount": 0
  },
  "Recipes": [
    {
      "AdServingKeywords": "Entree,Beef,Cheddar,Cheese,Dairy,Ground Beef,Meat,Sour Cream,Easy,Top of Stove,All Seasons,Dinner,Meatball,Skillet Dish,Breakstones,Knudsen,Kraft Cheese,Kraft Salad Dressing,Kraft Shredded Cheese,Kid-Friendly,Cheesy",
      "AlternateLanguageRecipes": [],
      "Assets": [
        {
          "PictureFormats": [
            {
              "rendition": "290x194",
              "url": "http://assets.kraftfoods.com/recipe_images/opendeploy/95147_290x194.jpg"
            },
            {
              "rendition": "640x428",
              "url": "http://assets.kraftfoods.com/recipe_images/opendeploy/95147_640x428.jpg"
            },
            {
              "rendition": "600x250",
              "url": "http://assets.kraftfoods.com/recipe_images/opendeploy/95147_600x250.jpg"
            }
          ],
          "author": "BulKUpload",
          "id": "2",
          "imageType": "Primary",
          "mimeType": "image/jpeg",
          "publicationDate": null,
          "status": "1",
          "title": "95147",
          "type": "image"
        },
        {
          "PictureFormats": [
            {
              "rendition": "140x90",
              "url": "http://assets.kraftfoods.com/recipe_images/opendeploy/95147_KRL_K52159V1_OR1_OH_140x90.jpg"
            },
            {
              "rendition": "300x250",
              "url": "http://assets.kraftfoods.com/recipe_images/opendeploy/95147_KRL_K52159V1_OR1_OH_300x250.jpg"
            },
            {
              "rendition": "960x300",
              "url": "http://assets.kraftfoods.com/recipe_images/opendeploy/95147_KRL_K52159V1_OR1_OH_960x300.jpg"
            }
          ],
          "author": null,
          "id": "2",
          "imageType": "Primary",
          "mimeType": "image/jpeg",
          "publicationDate": null,
          "status": "1",
          "title": "95147_KRL_K52159V1_OR1_OH",
          "type": "image"
        },
        {
          "PictureFormats": [
            {
              "rendition": "300x200",
              "url": "http://assets.kraftfoods.com/recipe_images/95147.jpg"
            }
          ],
          "author": "BulKUpload",
          "id": "0",
          "imageType": "LANDSCAPE",
          "mimeType": "image/jpeg",
          "publicationDate": null,
          "status": "1",
          "title": "95147.jpg",
          "type": "image"
        }
      ],
      "AverageRating": 3.8,
      "BrandId": 1,
      "Branding": null,
      "CSSSkins": null,
      "CarbCounter": null,
      "Categories": [
        {
          "CategoryID": 7,
          "CategoryName": "Pork/Beef Entrees",
          "CategoryRank": 10,
          "SubCategoryID": 454,
          "SubCategoryName": "Ground Beef: Skillets",
          "SubCategoryRank": 70
        },
        {
          "CategoryID": 11,
          "CategoryName": "Primary",
          "CategoryRank": 0,
          "SubCategoryID": 97,
          "SubCategoryName": "Entrees",
          "SubCategoryRank": 50
        },
        {
          "CategoryID": 755,
          "CategoryName": "International Flavours",
          "CategoryRank": 9,
          "SubCategoryID": 2555,
          "SubCategoryName": "Mexican / Spanish",
          "SubCategoryRank": 1
        },
        {
          "CategoryID": 756,
          "CategoryName": "Main Meals (Meat / Seafood / Egg)",
          "CategoryRank": 10,
          "SubCategoryID": 2563,
          "SubCategoryName": "Beef",
          "SubCategoryRank": 1
        }
      ],
      "Classifications": [],
      "ComplimentaryRecipes": null,
      "CookingMethod": null,
      "Copyright": null,
      "Courses": [
        "Main dishes"
      ],
      "DietExchange": null,
      "DishDetails": [
        {
          "Text": "ground beef recipes",
          "Url": "/recipes/dinner/ground-beef-recipes/main.aspx"
        },
        {
          "Text": "top 10 beef recipes",
          "Url": "/recipes/dinner/top-10/beef-recipes/main.aspx"
        },
        {
          "Text": "1 bag 5 dinners",
          "Url": "/recipes/dinner/1Bag5Dinners/1bag5dinnerschickenbeef.aspx"
        }
      ],
      "EndDate": "/Date(-62135575200000-0600)/",
      "HasVideo": false,
      "Ingredients": [
        {
          "FullMeasure": "1 lb.",
          "FullWeight": "",
          "IngredientGridHeaders": null,
          "IngredientID": 20536,
          "IngredientName": "lean ground beef",
          "IngredientStep": 10,
          "LanguageId": 0,
          "PostPreparation": "",
          "PrePreparation": "",
          "QuantityNum": 1,
          "QuantityText": "1",
          "QuantityUnit": "lb.",
          "RecipeIngredientID": 4383897,
          "TrialMeasure": "",
          "TrialWeight": ""
        },
        {
          "FullMeasure": "10",
          "FullWeight": "",
          "IngredientGridHeaders": null,
          "IngredientID": 19140,
          "IngredientName": "saltine crackers",
          "IngredientStep": 20,
          "LanguageId": 0,
          "PostPreparation": ", crushed (about 1/2 cup)",
          "PrePreparation": "",
          "QuantityNum": 10,
          "QuantityText": "10",
          "QuantityUnit": "",
          "RecipeIngredientID": 4383896,
          "TrialMeasure": "",
          "TrialWeight": ""
        },
        {
          "FullMeasure": "1/4 cup",
          "FullWeight": "",
          "IngredientGridHeaders": null,
          "IngredientID": 499,
          "IngredientName": "KRAFT Zesty Italian Dressing",
          "IngredientStep": 30,
          "LanguageId": 0,
          "PostPreparation": ", divided",
          "PrePreparation": "",
          "QuantityNum": 0,
          "QuantityText": "1/4",
          "QuantityUnit": "cup",
          "RecipeIngredientID": 4383895,
          "TrialMeasure": "",
          "TrialWeight": ""
        },
        {
          "FullMeasure": "1",
          "FullWeight": "",
          "IngredientGridHeaders": null,
          "IngredientID": 2052,
          "IngredientName": "beef bouillon",
          "IngredientStep": 40,
          "LanguageId": 0,
          "PostPreparation": " cube, dissolved in 1/2 cup boiling water",
          "PrePreparation": "",
          "QuantityNum": 1,
          "QuantityText": "1",
          "QuantityUnit": "",
          "RecipeIngredientID": 4383893,
          "TrialMeasure": "",
          "TrialWeight": ""
        },
        {
          "FullMeasure": "1/2 cup",
          "FullWeight": "",
          "IngredientGridHeaders": null,
          "IngredientID": 88,
          "IngredientName": "BREAKSTONE'S or KNUDSEN Sour Cream",
          "IngredientStep": 50,
          "LanguageId": 0,
          "PostPreparation": "",
          "PrePreparation": "",
          "QuantityNum": 0,
          "QuantityText": "1/2",
          "QuantityUnit": "cup",
          "RecipeIngredientID": 4383892,
          "TrialMeasure": "",
          "TrialWeight": ""
        },
        {
          "FullMeasure": "1 cup",
          "FullWeight": "",
          "IngredientGridHeaders": null,
          "IngredientID": 461,
          "IngredientName": "KRAFT Shredded Cheddar Cheese",
          "IngredientStep": 60,
          "LanguageId": 0,
          "PostPreparation": "",
          "PrePreparation": "",
          "QuantityNum": 1,
          "QuantityText": "1",
          "QuantityUnit": "cup",
          "RecipeIngredientID": 4383894,
          "TrialMeasure": "",
          "TrialWeight": ""
        }
      ],
      "IsHealthyLiving": false,
      "KRLId": "555330",
      "KeyIngredients": [
        "Beef",
        "Cheddar",
        "Cheese",
        "Dairy",
        "Meat"
      ],
      "Keywords": "beef,beef broth or bouillon,bouillon,BREAKSTONE'S Sour Cream,cheddar cheese,cheese,crackers,dressing,ground beef,hamburger meat,italian dressing,KNUDSEN Sour Cream,KRAFT Cheddar Cheese,KRAFT Dressing,salad dressing,sour cream,PREMIUM Crackers,saltine crackers,Entree,Top of Stove,Easy,Meatball,Skillet Dish,All Seasons,Dinner,Kid-Friendly,Cheesy",
      "LanguageId": 1,
      "LifeStyles": [],
      "NumberOfIngredients": 6,
      "NumberOfRatings": 96,
      "NumberOfRatingsWithComments": "80",
      "NumberOfServings": "4 servings",
      "NumberOfTrialServings": "",
      "NutritionBonus": null,
      "NutritionExchangeItemId": 0,
      "NutritionGridItems": null,
      "NutritionItems": [
        {
          "DisplayOrder": 1,
          "Document": null,
          "NutritionItemID": 3,
          "NutritionItemName": "Calories",
          "Predriscriptor": "",
          "Quantity": 420,
          "Unit": "          "
        },
        {
          "DisplayOrder": 2,
          "Document": "fat_cholesterol.html",
          "NutritionItemID": 4,
          "NutritionItemName": "Total fat",
          "Predriscriptor": "",
          "Quantity": 28,
          "Unit": "g         "
        },
        {
          "DisplayOrder": 3,
          "Document": "fat_cholesterol.html",
          "NutritionItemID": 9,
          "NutritionItemName": "Saturated fat",
          "Predriscriptor": "",
          "Quantity": 13,
          "Unit": "g         "
        },
        {
          "DisplayOrder": 7,
          "Document": "fat_cholesterol.html",
          "NutritionItemID": 2,
          "NutritionItemName": "Cholesterol",
          "Predriscriptor": "",
          "Quantity": 115,
          "Unit": "mg        "
        },
        {
          "DisplayOrder": 8,
          "Document": "sodium.html",
          "NutritionItemID": 8,
          "NutritionItemName": "Sodium",
          "Predriscriptor": "",
          "Quantity": 720,
          "Unit": "mg        "
        },
        {
          "DisplayOrder": 10,
          "Document": "carbs_sugars_fiber.html",
          "NutritionItemID": 1,
          "NutritionItemName": "Carbohydrate",
          "Predriscriptor": "",
          "Quantity": 10,
          "Unit": "g         "
        },
        {
          "DisplayOrder": 11,
          "Document": "carbs_sugars_fiber.html",
          "NutritionItemID": 7,
          "NutritionItemName": "Dietary fiber",
          "Predriscriptor": "",
          "Quantity": 0,
          "Unit": "g         "
        },
        {
          "DisplayOrder": 12,
          "Document": "carbs_sugars_fiber.html",
          "NutritionItemID": 5,
          "NutritionItemName": "Sugars",
          "Predriscriptor": "",
          "Quantity": 2,
          "Unit": "g         "
        },
        {
          "DisplayOrder": 13,
          "Document": null,
          "NutritionItemID": 6,
          "NutritionItemName": "Protein",
          "Predriscriptor": "",
          "Quantity": 30,
          "Unit": "g         "
        },
        {
          "DisplayOrder": 14,
          "Document": null,
          "NutritionItemID": 10,
          "NutritionItemName": "Vitamin A",
          "Predriscriptor": "",
          "Quantity": 10,
          "Unit": "%DV       "
        },
        {
          "DisplayOrder": 15,
          "Document": null,
          "NutritionItemID": 11,
          "NutritionItemName": "Vitamin C",
          "Predriscriptor": "",
          "Quantity": 0,
          "Unit": "%DV       "
        },
        {
          "DisplayOrder": 16,
          "Document": "dairy_and_calcium.html",
          "NutritionItemID": 12,
          "NutritionItemName": "Calcium",
          "Predriscriptor": "",
          "Quantity": 25,
          "Unit": "%DV       "
        },
        {
          "DisplayOrder": 17,
          "Document": null,
          "NutritionItemID": 13,
          "NutritionItemName": "Iron",
          "Predriscriptor": "",
          "Quantity": 15,
          "Unit": "%DV       "
        }
      ],
      "NutritionServingText": "",
      "PrepStepImage": null,
      "PreparationDescription": "Mix meat, cracker crumbs and 2 Tbsp. of the dressing until blended.  Shape into 32 (1-inch) balls.$Heat remaining dressing in nonstick skillet on medium-high heat.  Add meatballs; cook 8 min. or until browned, turning occasionally.  Add bouillon; simmer 5 min. or until meatballs are cooked through (160°F).$Stir in sour cream; cook 30 sec. or until heated through but not simmering, stirring frequently.  Remove from heat.  Sprinkle with cheese; cover.  Remove from heat; let stand 5 min. or until cheese is melted.",
      "PreparationPreText": "",
      "PreparationSteps": [
        {
          "Description": "Mix meat, cracker crumbs and 2 Tbsp. of the dressing until blended.  Shape into 32 (1-inch) balls.",
          "PreparationStepImage": {
            "PictureFormats": [],
            "author": null,
            "id": null,
            "imageType": null,
            "mimeType": null,
            "publicationDate": null,
            "status": null,
            "title": null,
            "type": null
          },
          "Sequence": 1
        },
        {
          "Description": "Heat remaining dressing in nonstick skillet on medium-high heat.  Add meatballs; cook 8 min. or until browned, turning occasionally.  Add bouillon; simmer 5 min. or until meatballs are cooked through (160°F).",
          "PreparationStepImage": {
            "PictureFormats": [],
            "author": null,
            "id": null,
            "imageType": null,
            "mimeType": null,
            "publicationDate": null,
            "status": null,
            "title": null,
            "type": null
          },
          "Sequence": 2
        },
        {
          "Description": "Stir in sour cream; cook 30 sec. or until heated through but not simmering, stirring frequently.  Remove from heat.  Sprinkle with cheese; cover.  Remove from heat; let stand 5 min. or until cheese is melted.",
          "PreparationStepImage": {
            "PictureFormats": [],
            "author": null,
            "id": null,
            "imageType": null,
            "mimeType": null,
            "publicationDate": null,
            "status": null,
            "title": null,
            "type": null
          },
          "Sequence": 3
        }
      ],
      "PreparationTime": 30,
      "Promotion": null,
      "Ratings": {
        "TotalCount": 96,
        "PageCount": 10,
        "PageNo": 1,
        "Rating": [
          {
            "Comment": "this dish was so yummy, not to mention easy to make.  it was so rich that i am not sure i will put cheese on the top next time...or maybe i will!",
            "DisplayName": true,
            "RatingValue": 5,
            "SubmitDate": "/Date(1429642425000-0500)/",
            "UpdatedDate": "/Date(1429642425000-0500)/",
            "UserName": "phyld"
          },
          {
            "Comment": "This came out way better than I expected! I made the meat balls as called for,but I seasoned the meat with salt,pepper,garlic and dried basil. I used a full cup of beef broth. used velvita instead of shredded chz. and thickend the sauce up with flower. I wanted a creamy scuace rather than just cheesey. To my surprie it tasted jus like home made beef stroganof(spellign?) I loved it!",
            "DisplayName": true,
            "RatingValue": 4,
            "SubmitDate": "/Date(1327032670000-0600)/",
            "UpdatedDate": "/Date(1327032670000-0600)/",
            "UserName": "lil_tita"
          },
          {
            "Comment": "",
            "DisplayName": true,
            "RatingValue": 5,
            "SubmitDate": "/Date(1307927773000-0500)/",
            "UpdatedDate": "/Date(1307927773000-0500)/",
            "UserName": "krys78628"
          },
          {
            "Comment": "I made this with frozen vegetarian meatballs and canned vegetable stock, which cuts down on calories and prep time. My fiance loved it because it tasted so good; I loved it because it was such an easy meal to make.",
            "DisplayName": true,
            "RatingValue": 5,
            "SubmitDate": "/Date(1287009243000-0500)/",
            "UpdatedDate": "/Date(1287009243000-0500)/",
            "UserName": "brittneyreed"
          },
          {
            "Comment": "",
            "DisplayName": false,
            "RatingValue": 4,
            "SubmitDate": "/Date(1279732542000-0500)/",
            "UpdatedDate": "/Date(1279732542000-0500)/",
            "UserName": "jocelynjm"
          },
          {
            "Comment": "Yummy! I used ground chicken to make the meatballs and added a little light cream cheese and parmesan with the sour cream and fresh basil at the end.  Will definitely make again!",
            "DisplayName": false,
            "RatingValue": 5,
            "SubmitDate": "/Date(1247674569000-0500)/",
            "UpdatedDate": "/Date(1247674569000-0500)/",
            "UserName": "slyttle01"
          },
          {
            "Comment": "My family and I really liked the flavor of it, but the looks of it didn't turn out the best.  But it did taste good.",
            "DisplayName": false,
            "RatingValue": 4,
            "SubmitDate": "/Date(1245429830000-0500)/",
            "UpdatedDate": "/Date(1245429830000-0500)/",
            "UserName": "voigtc1"
          },
          {
            "Comment": "I ACTUALLY THOUGHT THE FLAVOR WAS GOOD, BUT MY HUSBAND HATED IT!",
            "DisplayName": true,
            "RatingValue": 3,
            "SubmitDate": "/Date(1243372771000-0500)/",
            "UpdatedDate": "/Date(1243372771000-0500)/",
            "UserName": "yecats27"
          },
          {
            "Comment": "Not a winner for my family. I thought it was ok, but my husband and kids did not like it at all. It needs more of a sauce to coat the pasta. I loved the flavor the dressing gave it, but maybe add a can of cream of mushroom soup or something for some sauce. I will not make this again. It was a little like dry beef stroganof, only my family likes stroganof.",
            "DisplayName": true,
            "RatingValue": 2,
            "SubmitDate": "/Date(1237429442000-0500)/",
            "UpdatedDate": "/Date(1237429442000-0500)/",
            "UserName": "pmaynes"
          },
          {
            "Comment": "Made this for dinner.  It was very good.  The whole family loved it.  You could use the regular italian dressing if you don't like the zesty.",
            "DisplayName": false,
            "RatingValue": 3,
            "SubmitDate": "/Date(1232588247000-0600)/",
            "UpdatedDate": "/Date(1232588247000-0600)/",
            "UserName": "mariestout01"
          }
        ]
      },
      "RecipeDisplayFormatId": 5,
      "RecipeId": 95147,
      "RecipeName": "Cheesy Meatball Skillet",
      "RecipeType": 0,
      "RelatedData": {
        "RelatedBrands": null,
        "RelatedProducts": null,
        "RelatedRecipes": {
          "DefaultTopCount": 5,
          "Recipe": [
            {
              "AverageRating": 4.3,
              "HasVideo": false,
              "IsHealthyLiving": false,
              "NumberOfRatings": 148,
              "PhotoName": "107290.jpg",
              "PhotoUrl": "http://assets.kraftfoods.com/recipe_images/opendeploy/107290.jpg",
              "RecipeId": 107290,
              "RecipeName": "Cheesy Volcano Meatballs",
              "SEOName": "cheesy-volcano-meatballs-107290",
              "ThumbnailPhoto": null
            },
            {
              "AverageRating": 4.4,
              "HasVideo": false,
              "IsHealthyLiving": false,
              "NumberOfRatings": 72,
              "PhotoName": "opendeploy/505365_1_1_retail-79a056fffb2d5abb33de30ee16d303fb61b22277_306x204.jpg",
              "PhotoUrl": "http://assets.kraftfoods.com/recipe_images/opendeploy/opendeploy/505365_1_1_retail-79a056fffb2d5abb33de30ee16d303fb61b22277_306x204.jpg",
              "RecipeId": 94448,
              "RecipeName": "Easy Cheesy Meatballs",
              "SEOName": "easy-cheesy-meatballs-94448",
              "ThumbnailPhoto": null
            },
            {
              "AverageRating": 4,
              "HasVideo": false,
              "IsHealthyLiving": false,
              "NumberOfRatings": 4,
              "PhotoName": "150620.jpg",
              "PhotoUrl": "http://assets.kraftfoods.com/recipe_images/opendeploy/150620.jpg",
              "RecipeId": 150620,
              "RecipeName": "Speedy Sausage Meatball Skillet",
              "SEOName": "speedy-sausage-meatball-skillet-150620",
              "ThumbnailPhoto": null
            },
            {
              "AverageRating": 4.2,
              "HasVideo": false,
              "IsHealthyLiving": false,
              "NumberOfRatings": 5,
              "PhotoName": "opendeploy/569801_1_1_retail-14ceadaf9357504a0f0fb8fa1f23a3eef132cb62_306x204.jpg",
              "PhotoUrl": "http://assets.kraftfoods.com/recipe_images/opendeploy/opendeploy/569801_1_1_retail-14ceadaf9357504a0f0fb8fa1f23a3eef132cb62_306x204.jpg",
              "RecipeId": 144664,
              "RecipeName": "Simple Meatball & Noodle Skillet",
              "SEOName": "simple-meatball-noodle-skillet-144664",
              "ThumbnailPhoto": null
            },
            {
              "AverageRating": 4.1,
              "HasVideo": false,
              "IsHealthyLiving": false,
              "NumberOfRatings": 66,
              "PhotoName": "63810.jpg",
              "PhotoUrl": "http://assets.kraftfoods.com/recipe_images/opendeploy/63810.jpg",
              "RecipeId": 63810,
              "RecipeName": "Swedish Meatballs",
              "SEOName": "swedish-meatballs-63810",
              "ThumbnailPhoto": null
            }
          ],
          "TotalCount": 1828
        }
      },
      "RiseIngredients": [],
      "RiseTaxonomy": [],
      "Riserecipe": [
        {
          "GRIN": 555330,
          "RecipeId": 95147,
          "RecipeIndustrySector": "Retail",
          "RecipeType": "Internal"
        }
      ],
      "RomanceText": "Combining a few classic ingredients—including sour cream and shredded Cheddar—makes this Cheesy Meatball Skillet a saucy dish to remember.",
      "SEOName": "cheesy-meatball-skillet-95147",
      "Tips": [
        {
          "RecipeId": 95147,
          "Sequence": 10,
          "TipDescription": "You'll save 80 calories and 10g of fat, including 4g of saturated fat, per serving by preparing with extra-lean ground beef, KRAFT Lite Zesty Italian Dressing, BREAKSTONE'S Reduced Fat or KNUDSEN Light Sour Cream, and KRAFT 2% Milk Shredded Cheddar Cheese.",
          "TipID": 3,
          "TipName": "Healthy Living"
        },
        {
          "RecipeId": 95147,
          "Sequence": 20,
          "TipDescription": "Add a dash of A.1. Steak Sauce to the meat mixture before shaping into balls.",
          "TipID": 1,
          "TipName": "Special Extra"
        },
        {
          "RecipeId": 95147,
          "Sequence": 30,
          "TipDescription": "Serve with cooked rotini, and hot steamed broccoli or cooked peas. ",
          "TipID": 2,
          "TipName": "Serving Suggestion"
        }
      ],
      "TotalTime": 30,
      "TradeMarkInfo": null,
      "Video": [],
      "Yield": "4 servings"
    }
  ]
}