{
  "Metadata": {
    "PageCount": 1,
    "PageNo": 0,
    "TotalCount": 0
  },
  "Recipes": [
    {
      "AdServingKeywords": "",
      "AlternateLanguageRecipes": [],
      "Assets": [
        {
          "PictureFormats": [
            {
              "rendition": "290x194",
              "url": "http://assets.kraftfoods.com/recipe_images/opendeploy/583200_1_1_retail-804b823ff2d262085f19197cca6d2cc0022cda2c_291x194.jpg"
            },
            {
              "rendition": "306x204",
              "url": "http://assets.kraftfoods.com/recipe_images/opendeploy/583200_1_1_retail-804b823ff2d262085f19197cca6d2cc0022cda2c_306x204.jpg"
            },
            {
              "rendition": "640x428",
              "url": "http://assets.kraftfoods.com/recipe_images/opendeploy/583200_1_1_retail-804b823ff2d262085f19197cca6d2cc0022cda2c_642x428.jpg"
            }
          ],
          "author": "Kraft",
          "id": "2",
          "imageType": "Primary",
          "mimeType": "image/jpeg",
          "publicationDate": null,
          "status": "1",
          "title": "583200_1_1_retail-804b823ff2d262085f19197cca6d2cc0022cda2c",
          "type": "image"
        },
        {
          "PictureFormats": [
            {
              "rendition": "290x194",
              "url": "http://assets.kraftfoods.com/recipe_images/opendeploy/583200_1_1_retail-3aa6f831f06f0cfc7235c97c7cfa3934343af2a9_291x194.jpg"
            },
            {
              "rendition": "306x204",
              "url": "http://assets.kraftfoods.com/recipe_images/opendeploy/583200_1_1_retail-3aa6f831f06f0cfc7235c97c7cfa3934343af2a9_306x204.jpg"
            },
            {
              "rendition": "640x428",
              "url": "http://assets.kraftfoods.com/recipe_images/opendeploy/583200_1_1_retail-3aa6f831f06f0cfc7235c97c7cfa3934343af2a9_642x428.jpg"
            }
          ],
          "author": "Kraft",
          "id": "2",
          "imageType": "Alternate",
          "mimeType": "image/jpeg",
          "publicationDate": null,
          "status": "1",
          "title": "583200_1_1_retail-3aa6f831f06f0cfc7235c97c7cfa3934343af2a9",
          "type": "image"
        }
      ],
      "AverageRating": 0,
      "BrandId": 1,
      "Branding": null,
      "CSSSkins": null,
      "CarbCounter": null,
      "Categories": [],
      "Classifications": [],
      "ComplimentaryRecipes": null,
      "CookingMethod": null,
      "Copyright": null,
      "Courses": [],
      "DietExchange": null,
      "DishDetails": null,
      "EndDate": "/Date(-62135575200000-0600)/",
      "HasVideo": false,
      "Ingredients": [
        {
          "FullMeasure": null,
          "FullWeight": null,
          "IngredientGridHeaders": null,
          "IngredientID": 67994,
          "IngredientName": "butter",
          "IngredientStep": 10,
          "LanguageId": 0,
          "PostPreparation": "",
          "PrePreparation": "",
          "QuantityNum": 2,
          "QuantityText": "2",
          "QuantityUnit": "Tbsp.",
          "RecipeIngredientID": 461163,
          "TrialMeasure": null,
          "TrialWeight": null
        },
        {
          "FullMeasure": null,
          "FullWeight": null,
          "IngredientGridHeaders": null,
          "IngredientID": 69077,
          "IngredientName": "JET-PUFFED Miniature Marshmallows, divided",
          "IngredientStep": 20,
          "LanguageId": 0,
          "PostPreparation": "",
          "PrePreparation": "",
          "QuantityNum": 2.75,
          "QuantityText": "2-3/4",
          "QuantityUnit": "cups",
          "RecipeIngredientID": 461164,
          "TrialMeasure": null,
          "TrialWeight": null
        },
        {
          "FullMeasure": null,
          "FullWeight": null,
          "IngredientGridHeaders": null,
          "IngredientID": 73303,
          "IngredientName": "red gel food coloring",
          "IngredientStep": 30,
          "LanguageId": 0,
          "PostPreparation": "",
          "PrePreparation": "",
          "QuantityNum": 0.25,
          "QuantityText": "1/4",
          "QuantityUnit": "tsp.",
          "RecipeIngredientID": 461165,
          "TrialMeasure": null,
          "TrialWeight": null
        },
        {
          "FullMeasure": null,
          "FullWeight": null,
          "IngredientGridHeaders": null,
          "IngredientID": 72668,
          "IngredientName": "KELLOGG’S® RICE KRISPIES® cereal",
          "IngredientStep": 40,
          "LanguageId": 0,
          "PostPreparation": "",
          "PrePreparation": "",
          "QuantityNum": 3,
          "QuantityText": "3",
          "QuantityUnit": "cups",
          "RecipeIngredientID": 461166,
          "TrialMeasure": null,
          "TrialWeight": null
        },
        {
          "FullMeasure": null,
          "FullWeight": null,
          "IngredientGridHeaders": null,
          "IngredientID": 69126,
          "IngredientName": "BAKER'S White Chocolate",
          "IngredientStep": 50,
          "LanguageId": 0,
          "PostPreparation": "",
          "PrePreparation": "",
          "QuantityNum": 1.5,
          "QuantityText": "1-1/2",
          "QuantityUnit": "oz.",
          "RecipeIngredientID": 461167,
          "TrialMeasure": null,
          "TrialWeight": null
        }
      ],
      "IsHealthyLiving": false,
      "KRLId": "583200",
      "KeyIngredients": [],
      "Keywords": "",
      "LanguageId": 1,
      "LifeStyles": [],
      "NumberOfIngredients": 5,
      "NumberOfRatings": 0,
      "NumberOfRatingsWithComments": "0",
      "NumberOfServings": "8 servings",
      "NumberOfTrialServings": null,
      "NutritionBonus": null,
      "NutritionExchangeItemId": 0,
      "NutritionGridItems": null,
      "NutritionItems": [
        {
          "DisplayOrder": 0,
          "Document": null,
          "NutritionItemID": 371,
          "NutritionItemName": "Calories",
          "Predriscriptor": "",
          "Quantity": 170,
          "Unit": "          "
        },
        {
          "DisplayOrder": 0,
          "Document": null,
          "NutritionItemID": 372,
          "NutritionItemName": "Protein",
          "Predriscriptor": "",
          "Quantity": 2,
          "Unit": "g         "
        },
        {
          "DisplayOrder": 0,
          "Document": null,
          "NutritionItemID": 373,
          "NutritionItemName": "Carbohydrate",
          "Predriscriptor": "",
          "Quantity": 30,
          "Unit": "g         "
        },
        {
          "DisplayOrder": 0,
          "Document": null,
          "NutritionItemID": 374,
          "NutritionItemName": "Dietary fiber",
          "Predriscriptor": "",
          "Quantity": 0,
          "Unit": "g         "
        },
        {
          "DisplayOrder": 0,
          "Document": null,
          "NutritionItemID": 375,
          "NutritionItemName": "Sugars",
          "Predriscriptor": "",
          "Quantity": 16,
          "Unit": "g         "
        },
        {
          "DisplayOrder": 0,
          "Document": null,
          "NutritionItemID": 376,
          "NutritionItemName": "Total fat",
          "Predriscriptor": "",
          "Quantity": 4.5,
          "Unit": "g         "
        },
        {
          "DisplayOrder": 0,
          "Document": null,
          "NutritionItemID": 377,
          "NutritionItemName": "Saturated fat",
          "Predriscriptor": "",
          "Quantity": 3,
          "Unit": "g         "
        },
        {
          "DisplayOrder": 0,
          "Document": null,
          "NutritionItemID": 378,
          "NutritionItemName": "Monounsaturated Fat",
          "Predriscriptor": "",
          "Quantity": 0.5,
          "Unit": "g         "
        },
        {
          "DisplayOrder": 0,
          "Document": null,
          "NutritionItemID": 379,
          "NutritionItemName": "Polyunsaturated Fat",
          "Predriscriptor": "",
          "Quantity": 0,
          "Unit": "g         "
        },
        {
          "DisplayOrder": 0,
          "Document": null,
          "NutritionItemID": 380,
          "NutritionItemName": "Trans Fat",
          "Predriscriptor": "",
          "Quantity": 0,
          "Unit": "g         "
        },
        {
          "DisplayOrder": 0,
          "Document": null,
          "NutritionItemID": 381,
          "NutritionItemName": "Cholesterol",
          "Predriscriptor": "",
          "Quantity": 10,
          "Unit": "mg        "
        },
        {
          "DisplayOrder": 0,
          "Document": null,
          "NutritionItemID": 382,
          "NutritionItemName": "Vitamin A",
          "Predriscriptor": "",
          "Quantity": 15,
          "Unit": "%DV       "
        },
        {
          "DisplayOrder": 0,
          "Document": null,
          "NutritionItemID": 383,
          "NutritionItemName": "Vitamin C",
          "Predriscriptor": "",
          "Quantity": 8,
          "Unit": "%DV       "
        },
        {
          "DisplayOrder": 0,
          "Document": null,
          "NutritionItemID": 384,
          "NutritionItemName": "Vitamin D",
          "Predriscriptor": "",
          "Quantity": 4,
          "Unit": "%DV       "
        },
        {
          "DisplayOrder": 0,
          "Document": null,
          "NutritionItemID": 385,
          "NutritionItemName": "Vitamin E",
          "Predriscriptor": "",
          "Quantity": 30,
          "Unit": "%DV       "
        },
        {
          "DisplayOrder": 0,
          "Document": null,
          "NutritionItemID": 386,
          "NutritionItemName": "Calcium",
          "Predriscriptor": "",
          "Quantity": 0,
          "Unit": "%DV       "
        },
        {
          "DisplayOrder": 0,
          "Document": null,
          "NutritionItemID": 387,
          "NutritionItemName": "Iron",
          "Predriscriptor": "",
          "Quantity": 20,
          "Unit": "%DV       "
        },
        {
          "DisplayOrder": 0,
          "Document": null,
          "NutritionItemID": 388,
          "NutritionItemName": "Potassium",
          "Predriscriptor": "",
          "Quantity": 0,
          "Unit": "%DV       "
        },
        {
          "DisplayOrder": 0,
          "Document": null,
          "NutritionItemID": 389,
          "NutritionItemName": "Sodium",
          "Predriscriptor": "",
          "Quantity": 100,
          "Unit": "mg        "
        },
        {
          "DisplayOrder": 0,
          "Document": null,
          "NutritionItemID": 390,
          "NutritionItemName": "Added Sugars",
          "Predriscriptor": "",
          "Quantity": 4,
          "Unit": "g         "
        }
      ],
      "NutritionServingText": null,
      "PrepStepImage": null,
      "PreparationDescription": "Microwave butter in large microwaveable bowl on HIGH 45 sec. or until melted. Add 2-1/4 cups marshmallows; toss to coat. Microwave 1 min. or until marshmallows are completely melted and mixture is well blended, stirring after 45 sec. Stir in food coloring.  Add cereal; mix well.  $Press cereal mixture onto bottom of 8-inch round pan sprayed with cooking spray.  Cool 15 min.$Remove cereal mixture from pan; place, top side down, on cutting board.  Cut into 8 wedges. $Melt chocolate as directed on package; spoon into resealable plastic bag.  Cut small piece off one bottom corner of bag.  Use to squeeze small dab of chocolate onto pointed end of each wedge; top with marshmallow, pressing into chocolate to secure.   Squeeze remaining chocolate into line at base of each wedge; top with remaining marshmallows as shown in photo. ",
      "PreparationPreText": null,
      "PreparationSteps": [
        {
          "Description": "Microwave butter in large microwaveable bowl on HIGH 45 sec. or until melted. Add 2-1/4 cups marshmallows; toss to coat. Microwave 1 min. or until marshmallows are completely melted and mixture is well blended, stirring after 45 sec. Stir in food coloring.  Add cereal; mix well.  ",
          "PreparationStepImage": {
            "PictureFormats": [],
            "author": null,
            "id": null,
            "imageType": null,
            "mimeType": null,
            "publicationDate": null,
            "status": null,
            "title": null,
            "type": null
          },
          "Sequence": 1
        },
        {
          "Description": "Press cereal mixture onto bottom of 8-inch round pan sprayed with cooking spray.  Cool 15 min.",
          "PreparationStepImage": {
            "PictureFormats": [],
            "author": null,
            "id": null,
            "imageType": null,
            "mimeType": null,
            "publicationDate": null,
            "status": null,
            "title": null,
            "type": null
          },
          "Sequence": 2
        },
        {
          "Description": "Remove cereal mixture from pan; place, top side down, on cutting board.  Cut into 8 wedges. ",
          "PreparationStepImage": {
            "PictureFormats": [],
            "author": null,
            "id": null,
            "imageType": null,
            "mimeType": null,
            "publicationDate": null,
            "status": null,
            "title": null,
            "type": null
          },
          "Sequence": 3
        },
        {
          "Description": "Melt chocolate as directed on package; spoon into resealable plastic bag.  Cut small piece off one bottom corner of bag.  Use to squeeze small dab of chocolate onto pointed end of each wedge; top with marshmallow, pressing into chocolate to secure.   Squeeze remaining chocolate into line at base of each wedge; top with remaining marshmallows as shown in photo. ",
          "PreparationStepImage": {
            "PictureFormats": [],
            "author": null,
            "id": null,
            "imageType": null,
            "mimeType": null,
            "publicationDate": null,
            "status": null,
            "title": null,
            "type": null
          },
          "Sequence": 4
        }
      ],
      "PreparationTime": 20,
      "Promotion": null,
      "Ratings": {
        "TotalCount": 0,
        "PageCount": 10,
        "PageNo": 1,
        "Rating": []
      },
      "RecipeDisplayFormatId": 0,
      "RecipeId": 210855,
      "RecipeName": "Santa Hat RICE KRISPIES TREATS®",
      "RecipeType": 0,
      "RelatedData": {
        "RelatedBrands": null,
        "RelatedProducts": null,
        "RelatedRecipes": {
          "DefaultTopCount": 5,
          "Recipe": [
            {
              "AverageRating": 4.6,
              "HasVideo": false,
              "IsHealthyLiving": false,
              "NumberOfRatings": 5,
              "PhotoName": "Chocolate-Caramel-Crispy-Treats-62794.jpg",
              "PhotoUrl": "http://assets.kraftfoods.com/recipe_images/opendeploy/Chocolate-Caramel-Crispy-Treats-62794.jpg",
              "RecipeId": 144715,
              "RecipeName": "Chocolate-Caramel RICE KRISPIES® TREATS™",
              "SEOName": "chocolate-caramel-rice-krispies-treats-144715",
              "ThumbnailPhoto": null
            },
            {
              "AverageRating": 5,
              "HasVideo": false,
              "IsHealthyLiving": false,
              "NumberOfRatings": 3,
              "PhotoName": "Oreo-Crispy-Treat-Pops-59542.jpg",
              "PhotoUrl": "http://assets.kraftfoods.com/recipe_images/opendeploy/Oreo-Crispy-Treat-Pops-59542.jpg",
              "RecipeId": 130636,
              "RecipeName": "OREO RICE KRISPIES® TREATS™ Pops",
              "SEOName": "oreo-rice-krispies-treats-pops-130636",
              "ThumbnailPhoto": null
            },
            {
              "AverageRating": 4.6,
              "HasVideo": false,
              "IsHealthyLiving": false,
              "NumberOfRatings": 58,
              "PhotoName": "51559.jpg",
              "PhotoUrl": "http://assets.kraftfoods.com/recipe_images/opendeploy/51559.jpg",
              "RecipeId": 51559,
              "RecipeName": "Frosted Peanut Butter RICE KRISPIES TREATS®",
              "SEOName": "frosted-peanut-butter-rice-krispies-treats-51559",
              "ThumbnailPhoto": null
            },
            {
              "AverageRating": 5,
              "HasVideo": false,
              "IsHealthyLiving": false,
              "NumberOfRatings": 1,
              "PhotoName": "185707.jpg",
              "PhotoUrl": "http://assets.kraftfoods.com/recipe_images/opendeploy/185707.jpg",
              "RecipeId": 185707,
              "RecipeName": "RICE KRISPIES TREATS® Mini \"Cupcakes\"",
              "SEOName": "rice-krispies-treats-mini-cupcakes-185707",
              "ThumbnailPhoto": null
            },
            {
              "AverageRating": 5,
              "HasVideo": false,
              "IsHealthyLiving": false,
              "NumberOfRatings": 1,
              "PhotoName": "175572_CPB_61189v7E_WP.jpg",
              "PhotoUrl": "http://assets.kraftfoods.com/recipe_images/opendeploy/175572_CPB_61189v7E_WP.jpg",
              "RecipeId": 175572,
              "RecipeName": "JELL-O Easter Egg RICE KRISPIES® TREATS™",
              "SEOName": "jell-o-easter-egg-rice-krispies-treats-175572",
              "ThumbnailPhoto": null
            }
          ],
          "TotalCount": 461
        }
      },
      "RiseIngredients": [
        {
          "IngredientCategory": "KRL",
          "IngredientId": 67994,
          "IngredientIndustrySector": "Retail",
          "IngredientType": "Inedible",
          "ProductId": null,
          "RecipeId": 210855
        },
        {
          "IngredientCategory": "KRL",
          "IngredientId": 69077,
          "IngredientIndustrySector": "Retail",
          "IngredientType": "Inedible",
          "ProductId": "00600699660761",
          "RecipeId": 210855
        },
        {
          "IngredientCategory": "KRL",
          "IngredientId": 69126,
          "IngredientIndustrySector": "Retail",
          "IngredientType": "KHC",
          "ProductId": "00043000252208",
          "RecipeId": 210855
        },
        {
          "IngredientCategory": "KRL",
          "IngredientId": 72668,
          "IngredientIndustrySector": "Retail",
          "IngredientType": "KHC",
          "ProductId": null,
          "RecipeId": 210855
        },
        {
          "IngredientCategory": "KRL",
          "IngredientId": 73303,
          "IngredientIndustrySector": "Retail",
          "IngredientType": "KHC",
          "ProductId": null,
          "RecipeId": 210855
        }
      ],
      "RiseTaxonomy": [
        {
          "ParentTaxonomyId": 0,
          "RecipeId": 210855,
          "ResourceName": "Recipe",
          "TaxonomyId": 63,
          "TaxonomyName": "Desserts",
          "TaxonomyTypeId": 2,
          "TaxonomyTypeName": "Meal Part"
        },
        {
          "ParentTaxonomyId": 39,
          "RecipeId": 210855,
          "ResourceName": "Recipe",
          "TaxonomyId": 110,
          "TaxonomyName": "No Bake Bars",
          "TaxonomyTypeId": 3,
          "TaxonomyTypeName": "Dish Type"
        }
      ],
      "Riserecipe": [
        {
          "GRIN": 583200,
          "RecipeId": 210855,
          "RecipeIndustrySector": "Retail",
          "RecipeType": "Internal"
        }
      ],
      "RomanceText": "Up your desserts game this holiday season with these Santa Hat RICE KRISPIES TREATS®. The kids will love to help you make these fun Santa Hat RICE KRISPIES TREATS®!",
      "SEOName": "santa-hat-rice-krispies-treats-210855",
      "Tips": [
        {
          "RecipeId": 210855,
          "Sequence": 1,
          "TipDescription": "Enjoy a serving of this classic recipe at your next holiday party. ",
          "TipID": 1,
          "TipName": "Size Wise"
        },
        {
          "RecipeId": 210855,
          "Sequence": 3,
          "TipDescription": "For a minty flavor, prepare using JET-PUFFED Peppermint MALLOWS Mini Marshmallows.",
          "TipID": 2,
          "TipName": "Special Extra"
        }
      ],
      "TotalTime": 35,
      "TradeMarkInfo": "Kellogg's® Rice Krispies® cereal is a product of Kellogg Company.",
      "Video": [],
      "Yield": "8 servings"
    }
  ]
}