{
  "Metadata": {
    "PageCount": 1,
    "PageNo": 0,
    "TotalCount": 0
  },
  "Recipes": [
    {
      "AdServingKeywords": "Microwaved,Appetizer,Easy,Cheese,Cream Cheese,Peppers,Ro*tel,Spinach,Tomato,Vegetables,Philadelphia,Velveeta,Quick and Easy,All Seasons,Spicy,Dip",
      "AlternateLanguageRecipes": [],
      "Assets": [
        {
          "PictureFormats": [
            {
              "rendition": "640x428",
              "url": "http://assets.kraftfoods.com/recipe_images/opendeploy/74730_640x428.jpg"
            },
            {
              "rendition": "290x194",
              "url": "http://assets.kraftfoods.com/recipe_images/opendeploy/74730_290x194.jpg"
            },
            {
              "rendition": "600x250",
              "url": "http://assets.kraftfoods.com/recipe_images/opendeploy/74730_600x250.jpg"
            },
            {
              "rendition": "640x428",
              "url": "http://assets.kraftfoods.com/recipe_images/opendeploy/74730_640x428.jpg"
            }
          ],
          "author": null,
          "id": "3",
          "imageType": "Primary",
          "mimeType": "image/jpeg",
          "publicationDate": null,
          "status": "1",
          "title": "74730",
          "type": "image"
        },
        {
          "PictureFormats": [
            {
              "rendition": "300x200",
              "url": "http://assets.kraftfoods.com/recipe_images/74730.jpg"
            },
            {
              "rendition": "300x200",
              "url": "http://assets.kraftfoods.com/recipe_images/74730_KFT_46336v0E_WP.jpg"
            }
          ],
          "author": null,
          "id": "1",
          "imageType": "LANDSCAPE",
          "mimeType": "image/jpeg",
          "publicationDate": null,
          "status": "1",
          "title": "74730_KFT_46336v0E_WP.jpg",
          "type": "image"
        }
      ],
      "AverageRating": 4.6,
      "BrandId": 1,
      "Branding": {
        "IngredientElevation": "",
        "PromoAltText": "",
        "PromoImage": "",
        "PromoLink": "",
        "SponsorshipAltText": "",
        "SponsorshipLink": "http://ad.doubleclick.net/ddm/clk/284742430;111595665;i",
        "SponsorshipLogo": "http://www.kraftrecipes.com/-/media/images/kr/tagging/qfa-logo-50.jpg",
        "UpperRightImage": ""
      },
      "CSSSkins": [
        {
          "brand": "VelRotel-logo-101314",
          "fileName": "",
          "id": "1"
        }
      ],
      "CarbCounter": null,
      "Categories": [
        {
          "CategoryID": 6,
          "CategoryName": "Appetizers/Snacks",
          "CategoryRank": 1,
          "SubCategoryID": 445,
          "SubCategoryName": "Mexican Dips",
          "SubCategoryRank": 70
        },
        {
          "CategoryID": 11,
          "CategoryName": "Primary",
          "CategoryRank": 0,
          "SubCategoryID": 96,
          "SubCategoryName": "Appetizers & Snacks",
          "SubCategoryRank": 10
        },
        {
          "CategoryID": 748,
          "CategoryName": "Finger Food, Dips & Appetisers",
          "CategoryRank": 2,
          "SubCategoryID": 2523,
          "SubCategoryName": "Hot",
          "SubCategoryRank": 1
        },
        {
          "CategoryID": 748,
          "CategoryName": "Finger Food, Dips & Appetisers",
          "CategoryRank": 2,
          "SubCategoryID": 2524,
          "SubCategoryName": "Cold",
          "SubCategoryRank": 1
        },
        {
          "CategoryID": 755,
          "CategoryName": "International Flavours",
          "CategoryRank": 9,
          "SubCategoryID": 2555,
          "SubCategoryName": "Mexican / Spanish",
          "SubCategoryRank": 1
        },
        {
          "CategoryID": 1761,
          "CategoryName": "Philly Appetizers",
          "CategoryRank": 0,
          "SubCategoryID": 16848,
          "SubCategoryName": "Brick Cream Cheese",
          "SubCategoryRank": 0
        },
        {
          "CategoryID": 1761,
          "CategoryName": "Philly Appetizers",
          "CategoryRank": 0,
          "SubCategoryID": 16853,
          "SubCategoryName": "Use for All",
          "SubCategoryRank": 0
        }
      ],
      "Classifications": [],
      "ComplimentaryRecipes": null,
      "CookingMethod": null,
      "Copyright": null,
      "Courses": [
        "Appetizers"
      ],
      "DietExchange": null,
      "DishDetails": [
        {
          "Text": "appetizers",
          "Url": "/recipes/appetizers/main.aspx"
        },
        {
          "Text": "cold appetizers",
          "Url": "/recipes/appetizers/coldappetizers.aspx"
        },
        {
          "Text": "cheese plates",
          "Url": "/recipes/appetizers/entertainingcheeseplates.aspx"
        },
        {
          "Text": "hot appetizers",
          "Url": "/recipes/appetizers/hotappetizers.aspx"
        },
        {
          "Text": "quick appetizers",
          "Url": "/recipes/appetizers/quick.aspx"
        },
        {
          "Text": "salsa recipes",
          "Url": "/recipes/appetizers/salsa-recipes/main.aspx"
        },
        {
          "Text": "seafood appetizers",
          "Url": "/recipes/dinner/seafood/appetizers/main.aspx"
        },
        {
          "Text": "dip recipes",
          "Url": "/recipes/appetizers/dip-recipes/main.aspx"
        },
        {
          "Text": "dip recipes",
          "Url": "/recipes/appetizers/dip-recipes/main.aspx"
        },
        {
          "Text": "salsa recipes",
          "Url": "/recipes/appetizers/salsa-recipes/main.aspx"
        },
        {
          "Text": "VELVEETA appetizers",
          "Url": "/recipes/appetizers/velveeta-recipes/main.aspx"
        }
      ],
      "EndDate": "/Date(-62135575200000-0600)/",
      "HasVideo": false,
      "Ingredients": [
        {
          "FullMeasure": null,
          "FullWeight": null,
          "IngredientGridHeaders": null,
          "IngredientID": 68127,
          "IngredientName": "(10 oz.) frozen chopped spinach",
          "IngredientStep": 10,
          "LanguageId": 0,
          "PostPreparation": "",
          "PrePreparation": "",
          "QuantityNum": 1,
          "QuantityText": "1",
          "QuantityUnit": "pkg.",
          "RecipeIngredientID": 31972,
          "TrialMeasure": null,
          "TrialWeight": null
        },
        {
          "FullMeasure": null,
          "FullWeight": null,
          "IngredientGridHeaders": null,
          "IngredientID": 72302,
          "IngredientName": "(16 oz.) VELVEETA, cut into 1/2-inch cubes",
          "IngredientStep": 20,
          "LanguageId": 0,
          "PostPreparation": "",
          "PrePreparation": "",
          "QuantityNum": 1,
          "QuantityText": "1",
          "QuantityUnit": "lb.",
          "RecipeIngredientID": 33709,
          "TrialMeasure": null,
          "TrialWeight": null
        },
        {
          "FullMeasure": null,
          "FullWeight": null,
          "IngredientGridHeaders": null,
          "IngredientID": 69788,
          "IngredientName": "(10 oz.) RO*TEL Diced Tomatoes & Green Chilies, drained",
          "IngredientStep": 30,
          "LanguageId": 0,
          "PostPreparation": "",
          "PrePreparation": "",
          "QuantityNum": 1,
          "QuantityText": "1",
          "QuantityUnit": "can",
          "RecipeIngredientID": 31872,
          "TrialMeasure": null,
          "TrialWeight": null
        },
        {
          "FullMeasure": null,
          "FullWeight": null,
          "IngredientGridHeaders": null,
          "IngredientID": 68324,
          "IngredientName": "(8 oz.) PHILADELPHIA Cream Cheese, cubed",
          "IngredientStep": 40,
          "LanguageId": 0,
          "PostPreparation": "",
          "PrePreparation": "",
          "QuantityNum": 1,
          "QuantityText": "1",
          "QuantityUnit": "pkg.",
          "RecipeIngredientID": 38579,
          "TrialMeasure": null,
          "TrialWeight": null
        }
      ],
      "IsHealthyLiving": false,
      "KRLId": "550510",
      "KeyIngredients": [],
      "Keywords": "Microwaved,Appetizer,Easy,Quick and Easy,All Seasons,Dip",
      "LanguageId": 1,
      "LifeStyles": [],
      "NumberOfIngredients": 4,
      "NumberOfRatings": 79,
      "NumberOfRatingsWithComments": "61",
      "NumberOfServings": "38 servings, 2 Tbsp. each",
      "NumberOfTrialServings": null,
      "NutritionBonus": null,
      "NutritionExchangeItemId": 0,
      "NutritionGridItems": null,
      "NutritionItems": [
        {
          "DisplayOrder": 0,
          "Document": null,
          "NutritionItemID": 388,
          "NutritionItemName": "Potassium",
          "Predriscriptor": "",
          "Quantity": 0,
          "Unit": "%DV       "
        },
        {
          "DisplayOrder": 0,
          "Document": null,
          "NutritionItemID": 390,
          "NutritionItemName": "Added Sugars",
          "Predriscriptor": "",
          "Quantity": 0,
          "Unit": "g         "
        },
        {
          "DisplayOrder": 1,
          "Document": null,
          "NutritionItemID": 371,
          "NutritionItemName": "Calories",
          "Predriscriptor": "",
          "Quantity": 50,
          "Unit": "          "
        },
        {
          "DisplayOrder": 2,
          "Document": null,
          "NutritionItemID": 376,
          "NutritionItemName": "Total fat",
          "Predriscriptor": "",
          "Quantity": 3.5,
          "Unit": "g         "
        },
        {
          "DisplayOrder": 3,
          "Document": null,
          "NutritionItemID": 377,
          "NutritionItemName": "Saturated fat",
          "Predriscriptor": "",
          "Quantity": 2.5,
          "Unit": "g         "
        },
        {
          "DisplayOrder": 6,
          "Document": null,
          "NutritionItemID": 380,
          "NutritionItemName": "Trans Fat",
          "Predriscriptor": "",
          "Quantity": 0,
          "Unit": "g         "
        },
        {
          "DisplayOrder": 7,
          "Document": null,
          "NutritionItemID": 381,
          "NutritionItemName": "Cholesterol",
          "Predriscriptor": "",
          "Quantity": 15,
          "Unit": "mg        "
        },
        {
          "DisplayOrder": 8,
          "Document": null,
          "NutritionItemID": 389,
          "NutritionItemName": "Sodium",
          "Predriscriptor": "",
          "Quantity": 240,
          "Unit": "mg        "
        },
        {
          "DisplayOrder": 10,
          "Document": null,
          "NutritionItemID": 373,
          "NutritionItemName": "Carbohydrate",
          "Predriscriptor": "",
          "Quantity": 2,
          "Unit": "g         "
        },
        {
          "DisplayOrder": 11,
          "Document": null,
          "NutritionItemID": 374,
          "NutritionItemName": "Dietary fiber",
          "Predriscriptor": "",
          "Quantity": 0,
          "Unit": "g         "
        },
        {
          "DisplayOrder": 12,
          "Document": null,
          "NutritionItemID": 375,
          "NutritionItemName": "Sugars",
          "Predriscriptor": "",
          "Quantity": 2,
          "Unit": "g         "
        },
        {
          "DisplayOrder": 13,
          "Document": null,
          "NutritionItemID": 372,
          "NutritionItemName": "Protein",
          "Predriscriptor": "",
          "Quantity": 2,
          "Unit": "g         "
        },
        {
          "DisplayOrder": 14,
          "Document": null,
          "NutritionItemID": 382,
          "NutritionItemName": "Vitamin A",
          "Predriscriptor": "",
          "Quantity": 45,
          "Unit": "%DV       "
        },
        {
          "DisplayOrder": 15,
          "Document": null,
          "NutritionItemID": 383,
          "NutritionItemName": "Vitamin C",
          "Predriscriptor": "",
          "Quantity": 0,
          "Unit": "%DV       "
        },
        {
          "DisplayOrder": 16,
          "Document": null,
          "NutritionItemID": 386,
          "NutritionItemName": "Calcium",
          "Predriscriptor": "",
          "Quantity": 8,
          "Unit": "%DV       "
        },
        {
          "DisplayOrder": 17,
          "Document": null,
          "NutritionItemID": 387,
          "NutritionItemName": "Iron",
          "Predriscriptor": "",
          "Quantity": 2,
          "Unit": "%DV       "
        }
      ],
      "NutritionServingText": null,
      "PrepStepImage": null,
      "PreparationDescription": "Place spinach in large microwaveable bowl.   Microwave on HIGH 5 min.$Add remaining ingredients; mix well.  $Microwave 5 min. or until VELVEETA is completely melted and mixture is well blended, stirring after 3 min.",
      "PreparationPreText": null,
      "PreparationSteps": [
        {
          "Description": "Place spinach in large microwaveable bowl.   Microwave on HIGH 5 min.",
          "PreparationStepImage": {
            "PictureFormats": [],
            "author": null,
            "id": null,
            "imageType": null,
            "mimeType": null,
            "publicationDate": null,
            "status": null,
            "title": null,
            "type": null
          },
          "Sequence": 1
        },
        {
          "Description": "Add remaining ingredients; mix well.  ",
          "PreparationStepImage": {
            "PictureFormats": [],
            "author": null,
            "id": null,
            "imageType": null,
            "mimeType": null,
            "publicationDate": null,
            "status": null,
            "title": null,
            "type": null
          },
          "Sequence": 2
        },
        {
          "Description": "Microwave 5 min. or until VELVEETA is completely melted and mixture is well blended, stirring after 3 min.",
          "PreparationStepImage": {
            "PictureFormats": [],
            "author": null,
            "id": null,
            "imageType": null,
            "mimeType": null,
            "publicationDate": null,
            "status": null,
            "title": null,
            "type": null
          },
          "Sequence": 3
        }
      ],
      "PreparationTime": 15,
      "Promotion": null,
      "Ratings": {
        "TotalCount": 79,
        "PageCount": 10,
        "PageNo": 1,
        "Rating": [
          {
            "Comment": "",
            "DisplayName": true,
            "RatingValue": 5,
            "SubmitDate": "/Date(1357070349000-0600)/",
            "UpdatedDate": "/Date(1357070349000-0600)/",
            "UserName": "sarah30000"
          },
          {
            "Comment": "I made this on Thanksgiving this year and used the hot rotel, and it was fantastic!! Super easy to make, and it makes A LOT! We were left with quite a bit of this dip (because of the non-spinach eaters), and ended up using the last of it on baked potatoes. Yum!",
            "DisplayName": true,
            "RatingValue": 5,
            "SubmitDate": "/Date(1355148180000-0600)/",
            "UpdatedDate": "/Date(1355148180000-0600)/",
            "UserName": "larrystwin"
          },
          {
            "Comment": "Great appetizer!!!  My new version of 'rotel dip' --- great with or w.o spinach... ",
            "DisplayName": true,
            "RatingValue": 5,
            "SubmitDate": "/Date(1342454113000-0500)/",
            "UpdatedDate": "/Date(1342454113000-0500)/",
            "UserName": "AbigailElizabeth"
          },
          {
            "Comment": "I made this over the summer for a family dinner, and everyone loved it! My mother has requested I make this for Christmas, and I plan on it! Soooo yummy! ",
            "DisplayName": true,
            "RatingValue": 5,
            "SubmitDate": "/Date(1321547516000-0600)/",
            "UpdatedDate": "/Date(1321547516000-0600)/",
            "UserName": "jenrckn"
          },
          {
            "Comment": "I made this for work for our Thanksgiving lunch yesterday.  It was all gone by the end and lots of people told me it was yummy.  I tried a little bit of it and it was good.  I was suprised that the original rotel wasn't that spicy, I think I am going to do again for my family and I know my 3 kids won't have a problem with the very mild spiciness.  I served with tositos scoops.",
            "DisplayName": true,
            "RatingValue": 5,
            "SubmitDate": "/Date(1321541341000-0600)/",
            "UpdatedDate": "/Date(1321541341000-0600)/",
            "UserName": "jyknisley"
          },
          {
            "Comment": "I was actually planning to make a spinach artichoke dip, but found this recipe and it looked really quick and easy. It was delicious! Everyone loved it. I made a spinach artichoke dip a few weeks later and it wasn't nearly as good as this recipe.",
            "DisplayName": true,
            "RatingValue": 5,
            "SubmitDate": "/Date(1302128180000-0500)/",
            "UpdatedDate": "/Date(1302128180000-0500)/",
            "UserName": "Kerrie518"
          },
          {
            "Comment": "I made this dip for a small party; it was a hit - everyone loved and raved about it.  It was so simple to make!  Will definetly make this again for our next party.  ",
            "DisplayName": false,
            "RatingValue": 5,
            "SubmitDate": "/Date(1301328775000-0500)/",
            "UpdatedDate": "/Date(1301328775000-0500)/",
            "UserName": "KJSCHNURIGER"
          },
          {
            "Comment": "When ever we have a get together with friends they request either this one or Velveeta Chili Cheese dip, they both go over very well.",
            "DisplayName": true,
            "RatingValue": 5,
            "SubmitDate": "/Date(1297020552000-0600)/",
            "UpdatedDate": "/Date(1297020552000-0600)/",
            "UserName": "vledinger"
          },
          {
            "Comment": "I made this for my party by the end of the party everyone was asking for the recipe! This is my new go to dip.. :)",
            "DisplayName": true,
            "RatingValue": 5,
            "SubmitDate": "/Date(1291166243000-0600)/",
            "UpdatedDate": "/Date(1291166243000-0600)/",
            "UserName": "labelladiva"
          },
          {
            "Comment": "My Husband loved it said best he has ever had",
            "DisplayName": true,
            "RatingValue": 5,
            "SubmitDate": "/Date(1271089347000-0500)/",
            "UpdatedDate": "/Date(1271089347000-0500)/",
            "UserName": "talta72"
          }
        ]
      },
      "RecipeDisplayFormatId": 0,
      "RecipeId": 74730,
      "RecipeName": "VELVEETA® Spicy Spinach Dip",
      "RecipeType": 0,
      "RelatedData": {
        "RelatedBrands": null,
        "RelatedProducts": null,
        "RelatedRecipes": {
          "DefaultTopCount": 5,
          "Recipe": [
            {
              "AverageRating": 4,
              "HasVideo": false,
              "IsHealthyLiving": false,
              "NumberOfRatings": 1,
              "PhotoName": "170718_CAF_66439v0E_WP.jpg",
              "PhotoUrl": "http://assets.kraftfoods.com/recipe_images/opendeploy/170718_CAF_66439v0E_WP.jpg",
              "RecipeId": 170718,
              "RecipeName": "Spicy Bacon and Spinach Baked Queso",
              "SEOName": "spicy-bacon-spinach-baked-queso-170718",
              "ThumbnailPhoto": null
            },
            {
              "AverageRating": 5,
              "HasVideo": true,
              "IsHealthyLiving": false,
              "NumberOfRatings": 1,
              "PhotoName": "opendeploy/574809_1_1_retail-6b37c5e06fb2ff27b520f8a954f2cafdb14cebfa_306x204.jpg",
              "PhotoUrl": "http://assets.kraftfoods.com/recipe_images/opendeploy/opendeploy/574809_1_1_retail-6b37c5e06fb2ff27b520f8a954f2cafdb14cebfa_306x204.jpg",
              "RecipeId": 178363,
              "RecipeName": "3-Step Spicy Bacon and Spinach Sliders",
              "SEOName": "3-step-spicy-bacon-spinach-sliders-178363",
              "ThumbnailPhoto": null
            },
            {
              "AverageRating": 4.5,
              "HasVideo": false,
              "IsHealthyLiving": false,
              "NumberOfRatings": 21,
              "PhotoName": "75479.jpg",
              "PhotoUrl": "http://assets.kraftfoods.com/recipe_images/opendeploy/75479.jpg",
              "RecipeId": 75479,
              "RecipeName": "VELVEETA® Spicy Chili Dip",
              "SEOName": "velveeta-spicy-chili-dip-75479",
              "ThumbnailPhoto": null
            },
            {
              "AverageRating": 4.4,
              "HasVideo": false,
              "IsHealthyLiving": false,
              "NumberOfRatings": 7,
              "PhotoName": "98344.jpg",
              "PhotoUrl": "http://assets.kraftfoods.com/recipe_images/opendeploy/98344.jpg",
              "RecipeId": 98344,
              "RecipeName": "VELVEETA® Spicy Buffalo Beer Dip",
              "SEOName": "velveeta-spicy-buffalo-beer-dip-98344",
              "ThumbnailPhoto": null
            },
            {
              "AverageRating": 4.6,
              "HasVideo": false,
              "IsHealthyLiving": false,
              "NumberOfRatings": 104,
              "PhotoName": "74946.jpg",
              "PhotoUrl": "http://assets.kraftfoods.com/recipe_images/opendeploy/74946.jpg",
              "RecipeId": 74946,
              "RecipeName": "VELVEETA® Spicy Cheeseburger Dip",
              "SEOName": "velveeta-spicy-cheeseburger-dip-74946",
              "ThumbnailPhoto": null
            }
          ],
          "TotalCount": 1197
        }
      },
      "RiseIngredients": [
        {
          "IngredientCategory": "KRL",
          "IngredientId": 68127,
          "IngredientIndustrySector": "Retail",
          "IngredientType": "Inedible",
          "ProductId": null,
          "RecipeId": 74730
        },
        {
          "IngredientCategory": "KRL",
          "IngredientId": 68324,
          "IngredientIndustrySector": "Retail",
          "IngredientType": "KHC",
          "ProductId": "00068100897210",
          "RecipeId": 74730
        },
        {
          "IngredientCategory": "KRL",
          "IngredientId": 69788,
          "IngredientIndustrySector": "Retail",
          "IngredientType": "KHC",
          "ProductId": null,
          "RecipeId": 74730
        },
        {
          "IngredientCategory": "KRL",
          "IngredientId": 72302,
          "IngredientIndustrySector": "Retail",
          "IngredientType": "KHC",
          "ProductId": "00021000616909",
          "RecipeId": 74730
        }
      ],
      "RiseTaxonomy": [
        {
          "ParentTaxonomyId": 0,
          "RecipeId": 74730,
          "ResourceName": "Recipe",
          "TaxonomyId": 60,
          "TaxonomyName": "Appetizers",
          "TaxonomyTypeId": 2,
          "TaxonomyTypeName": "Meal Part"
        },
        {
          "ParentTaxonomyId": 47,
          "RecipeId": 74730,
          "ResourceName": "Recipe",
          "TaxonomyId": 184,
          "TaxonomyName": "Dips, Hot",
          "TaxonomyTypeId": 3,
          "TaxonomyTypeName": "Dish Type"
        },
        {
          "ParentTaxonomyId": 0,
          "RecipeId": 74730,
          "ResourceName": "Recipe",
          "TaxonomyId": 304,
          "TaxonomyName": "Christmas",
          "TaxonomyTypeId": 5,
          "TaxonomyTypeName": "Occasion-Theme"
        },
        {
          "ParentTaxonomyId": 0,
          "RecipeId": 74730,
          "ResourceName": "Recipe",
          "TaxonomyId": 318,
          "TaxonomyName": "New Years",
          "TaxonomyTypeId": 5,
          "TaxonomyTypeName": "Occasion-Theme"
        }
      ],
      "Riserecipe": [
        {
          "GRIN": 550510,
          "RecipeId": 74730,
          "RecipeIndustrySector": "Retail",
          "RecipeType": "Internal"
        }
      ],
      "RomanceText": "Add some kick to this spicy spinach dip with diced tomatoes and green chilies. VELVEETA® Spicy Spinach Dip is a fabulous way to entertain with flair.",
      "SEOName": "velveeta-spicy-spinach-dip-74730",
      "Tips": [
        {
          "RecipeId": 74730,
          "Sequence": 10,
          "TipDescription": "If your guests like a little extra heat, fire up their taste buds by preparing this creamy, zesty recipe with RO*TEL Hot Diced Tomatoes and Green Chilies, and Jalapeno VELVEETA.",
          "TipID": 1,
          "TipName": "FROM OUR PARTNERS AT RO*TEL"
        },
        {
          "RecipeId": 74730,
          "Sequence": 20,
          "TipDescription": "Prepare using 2% Milk VELVEETA and PHILADELPHIA Neufchatel Cheese.",
          "TipID": 2,
          "TipName": "Variation"
        },
        {
          "RecipeId": 74730,
          "Sequence": 30,
          "TipDescription": "Cut ingredients in half.  Mix in 1-qt. microwaveable bowl.  Microwave on HIGH 3 to 4 min. or until VELVEETA is completely melted and mixture is well blended, stirring after 2 min.  Serve as directed.  Makes 12 servings, 2 Tbsp. each.",
          "TipID": 3,
          "TipName": "To Halve"
        },
        {
          "RecipeId": 74730,
          "Sequence": 40,
          "TipDescription": "Hot dips should be discarded after sitting at room temperature for 2 hours or longer.",
          "TipID": 4,
          "TipName": "Keeping it Safe"
        },
        {
          "RecipeId": 74730,
          "Sequence": 50,
          "TipDescription": "Cut VELVEETA (the whole loaf) into 1/2-inch-thick slices. Then, cut each slice crosswise in both directions to make cubes.",
          "TipID": 5,
          "TipName": "How to Cut Up the VELVEETA"
        },
        {
          "RecipeId": 74730,
          "Sequence": 60,
          "TipDescription": "Serve with cut-up vegetables and/or tortilla chips.",
          "TipID": 6,
          "TipName": "Serving Suggestion"
        }
      ],
      "TotalTime": 15,
      "TradeMarkInfo": "Ro*Tel is a product of ConAgra Foods, Inc.",
      "Video": [],
      "Yield": "38 servings, 2 Tbsp. each"
    }
  ]
}