{
  "Metadata": {
    "PageCount": 1,
    "PageNo": 0,
    "TotalCount": 0
  },
  "Recipes": [
    {
      "AdServingKeywords": "Entree,Bacon,Cheese,Eggs,Meat,Top of Stove,Easy,Breakfast/Brunch,All Seasons,Kraft Singles,Oscar Mayer",
      "AlternateLanguageRecipes": [
        {
          "LanguageId": "2",
          "RecipeId": "167309",
          "SiteId": "1"
        },
        {
          "LanguageId": "2",
          "RecipeId": "167309",
          "SiteId": "90"
        }
      ],
      "Assets": [
        {
          "PictureFormats": [
            {
              "rendition": "290x194",
              "url": "http://assets.kraftfoods.com/recipe_images/opendeploy/Stuffed-French-Toast-Melt-65006_290x194.jpg"
            },
            {
              "rendition": "600x250",
              "url": "http://assets.kraftfoods.com/recipe_images/opendeploy/Stuffed-French-Toast-Melt-65006_600x250.jpg"
            },
            {
              "rendition": "640x428",
              "url": "http://assets.kraftfoods.com/recipe_images/opendeploy/Stuffed-French-Toast-Melt-65006_640x428.jpg"
            }
          ],
          "author": null,
          "id": "2",
          "imageType": "Primary",
          "mimeType": "image/jpeg",
          "publicationDate": null,
          "status": "1",
          "title": "Stuffed-French-Toast-Melt-65006",
          "type": "image"
        },
        {
          "PictureFormats": [
            {
              "rendition": "300x200",
              "url": "http://assets.kraftfoods.com/recipe_images/165997.jpg"
            }
          ],
          "author": "BulKUpload",
          "id": "0",
          "imageType": "LANDSCAPE",
          "mimeType": "image/jpeg",
          "publicationDate": null,
          "status": "1",
          "title": "165997.jpg",
          "type": "image"
        }
      ],
      "AverageRating": 0,
      "BrandId": 1,
      "Branding": null,
      "CSSSkins": null,
      "CarbCounter": null,
      "Categories": [
        {
          "CategoryID": 1,
          "CategoryName": "Breakfast/Brunch",
          "CategoryRank": 4,
          "SubCategoryID": 137,
          "SubCategoryName": "Sandwiches/Breakfast Bars",
          "SubCategoryRank": 60
        },
        {
          "CategoryID": 11,
          "CategoryName": "Primary",
          "CategoryRank": 0,
          "SubCategoryID": 97,
          "SubCategoryName": "Entrees",
          "SubCategoryRank": 50
        },
        {
          "CategoryID": 750,
          "CategoryName": "Breakfast, Brunch & Lunch",
          "CategoryRank": 4,
          "SubCategoryID": 2529,
          "SubCategoryName": "Savoury",
          "SubCategoryRank": 1
        },
        {
          "CategoryID": 751,
          "CategoryName": "Breads, Sandwiches, Wraps & Burgers",
          "CategoryRank": 5,
          "SubCategoryID": 2531,
          "SubCategoryName": "Fresh",
          "SubCategoryRank": 1
        },
        {
          "CategoryID": 751,
          "CategoryName": "Breads, Sandwiches, Wraps & Burgers",
          "CategoryRank": 5,
          "SubCategoryID": 2532,
          "SubCategoryName": "Toasted / Grilled / Cooked",
          "SubCategoryRank": 1
        },
        {
          "CategoryID": 751,
          "CategoryName": "Breads, Sandwiches, Wraps & Burgers",
          "CategoryRank": 5,
          "SubCategoryID": 2533,
          "SubCategoryName": "Specialty",
          "SubCategoryRank": 1
        }
      ],
      "Classifications": [],
      "ComplimentaryRecipes": null,
      "CookingMethod": null,
      "Copyright": null,
      "Courses": [
        "Breakfast/brunch"
      ],
      "DietExchange": null,
      "DishDetails": [
        {
          "Text": "breakfast and brunch",
          "Url": "/recipes/breakfast-and-brunch/main.aspx"
        },
        {
          "Text": "kid friendly breakfasts",
          "Url": "/recipes/kid-friendly/getgoingbreakfasts.aspx"
        },
        {
          "Text": "kraft kitchen favorites",
          "Url": "/recipes/breakfast-and-brunch/kke-favorites.aspx"
        },
        {
          "Text": "pancake recipes",
          "Url": "/recipes/breakfast-and-brunch/pancake-recipes/main.aspx"
        },
        {
          "Text": "all about eggs",
          "Url": "/recipes/breakfast-and-brunch/all-about-eggs.aspx"
        },
        {
          "Text": "banana bread recipes",
          "Url": "/recipes/breakfast-and-brunch/banana-bread/main.aspx"
        },
        {
          "Text": "healthy living breakfast recipes",
          "Url": "/healthy-living-ideas/diabetes-center/recipes/breakfast-recipes.aspx"
        },
        {
          "Text": "breakfast sandwiches",
          "Url": "/recipes/sandwich-recipes/breakfast-sandwiches.aspx"
        }
      ],
      "EndDate": "/Date(-62135575200000-0600)/",
      "HasVideo": false,
      "Ingredients": [
        {
          "FullMeasure": null,
          "FullWeight": null,
          "IngredientGridHeaders": null,
          "IngredientID": 68794,
          "IngredientName": "eggs",
          "IngredientStep": 10,
          "LanguageId": 0,
          "PostPreparation": "",
          "PrePreparation": "",
          "QuantityNum": 2,
          "QuantityText": "2",
          "QuantityUnit": "",
          "RecipeIngredientID": 253720,
          "TrialMeasure": null,
          "TrialWeight": null
        },
        {
          "FullMeasure": null,
          "FullWeight": null,
          "IngredientGridHeaders": null,
          "IngredientID": 68101,
          "IngredientName": "maple-flavored or pancake syrup, divided",
          "IngredientStep": 20,
          "LanguageId": 0,
          "PostPreparation": "",
          "PrePreparation": "",
          "QuantityNum": 0.25,
          "QuantityText": "1/4",
          "QuantityUnit": "cup",
          "RecipeIngredientID": 252845,
          "TrialMeasure": null,
          "TrialWeight": null
        },
        {
          "FullMeasure": null,
          "FullWeight": null,
          "IngredientGridHeaders": null,
          "IngredientID": 67716,
          "IngredientName": "white bread",
          "IngredientStep": 30,
          "LanguageId": 0,
          "PostPreparation": "",
          "PrePreparation": "",
          "QuantityNum": 4,
          "QuantityText": "4",
          "QuantityUnit": "slices",
          "RecipeIngredientID": 253238,
          "TrialMeasure": null,
          "TrialWeight": null
        },
        {
          "FullMeasure": null,
          "FullWeight": null,
          "IngredientGridHeaders": null,
          "IngredientID": 68221,
          "IngredientName": "KRAFT Singles",
          "IngredientStep": 40,
          "LanguageId": 0,
          "PostPreparation": "",
          "PrePreparation": "",
          "QuantityNum": 2,
          "QuantityText": "2",
          "QuantityUnit": "",
          "RecipeIngredientID": 254755,
          "TrialMeasure": null,
          "TrialWeight": null
        },
        {
          "FullMeasure": null,
          "FullWeight": null,
          "IngredientGridHeaders": null,
          "IngredientID": 68655,
          "IngredientName": "cooked OSCAR MAYER Bacon, broken in half",
          "IngredientStep": 50,
          "LanguageId": 0,
          "PostPreparation": "",
          "PrePreparation": "",
          "QuantityNum": 2,
          "QuantityText": "2",
          "QuantityUnit": "slices",
          "RecipeIngredientID": 251931,
          "TrialMeasure": null,
          "TrialWeight": null
        }
      ],
      "IsHealthyLiving": false,
      "KRLId": "572505",
      "KeyIngredients": [],
      "Keywords": "Entree,Top of Stove,Easy,All Seasons,Breakfast/Brunch",
      "LanguageId": 1,
      "LifeStyles": [],
      "NumberOfIngredients": 5,
      "NumberOfRatings": 0,
      "NumberOfRatingsWithComments": "0",
      "NumberOfServings": "2 servings",
      "NumberOfTrialServings": null,
      "NutritionBonus": null,
      "NutritionExchangeItemId": 0,
      "NutritionGridItems": null,
      "NutritionItems": [
        {
          "DisplayOrder": 0,
          "Document": null,
          "NutritionItemID": 384,
          "NutritionItemName": "Vitamin D",
          "Predriscriptor": "",
          "Quantity": 6,
          "Unit": "%DV       "
        },
        {
          "DisplayOrder": 0,
          "Document": null,
          "NutritionItemID": 385,
          "NutritionItemName": "Vitamin E",
          "Predriscriptor": "",
          "Quantity": 4,
          "Unit": "%DV       "
        },
        {
          "DisplayOrder": 0,
          "Document": null,
          "NutritionItemID": 388,
          "NutritionItemName": "Potassium",
          "Predriscriptor": "",
          "Quantity": 2,
          "Unit": "%DV       "
        },
        {
          "DisplayOrder": 0,
          "Document": null,
          "NutritionItemID": 390,
          "NutritionItemName": "Added Sugars",
          "Predriscriptor": "",
          "Quantity": 9,
          "Unit": "g         "
        },
        {
          "DisplayOrder": 1,
          "Document": null,
          "NutritionItemID": 371,
          "NutritionItemName": "Calories",
          "Predriscriptor": "",
          "Quantity": 520,
          "Unit": "          "
        },
        {
          "DisplayOrder": 2,
          "Document": null,
          "NutritionItemID": 376,
          "NutritionItemName": "Total fat",
          "Predriscriptor": "",
          "Quantity": 17,
          "Unit": "g         "
        },
        {
          "DisplayOrder": 3,
          "Document": null,
          "NutritionItemID": 377,
          "NutritionItemName": "Saturated fat",
          "Predriscriptor": "",
          "Quantity": 6,
          "Unit": "g         "
        },
        {
          "DisplayOrder": 4,
          "Document": null,
          "NutritionItemID": 379,
          "NutritionItemName": "Polyunsaturated Fat",
          "Predriscriptor": "",
          "Quantity": 2.5,
          "Unit": "g         "
        },
        {
          "DisplayOrder": 5,
          "Document": null,
          "NutritionItemID": 378,
          "NutritionItemName": "Monounsaturated Fat",
          "Predriscriptor": "",
          "Quantity": 4.5,
          "Unit": "g         "
        },
        {
          "DisplayOrder": 6,
          "Document": null,
          "NutritionItemID": 380,
          "NutritionItemName": "Trans Fat",
          "Predriscriptor": "",
          "Quantity": 1,
          "Unit": "g         "
        },
        {
          "DisplayOrder": 7,
          "Document": null,
          "NutritionItemID": 381,
          "NutritionItemName": "Cholesterol",
          "Predriscriptor": "",
          "Quantity": 210,
          "Unit": "mg        "
        },
        {
          "DisplayOrder": 8,
          "Document": null,
          "NutritionItemID": 389,
          "NutritionItemName": "Sodium",
          "Predriscriptor": "",
          "Quantity": 910,
          "Unit": "mg        "
        },
        {
          "DisplayOrder": 10,
          "Document": null,
          "NutritionItemID": 373,
          "NutritionItemName": "Carbohydrate",
          "Predriscriptor": "",
          "Quantity": 72,
          "Unit": "g         "
        },
        {
          "DisplayOrder": 11,
          "Document": null,
          "NutritionItemID": 374,
          "NutritionItemName": "Dietary fiber",
          "Predriscriptor": "",
          "Quantity": 1,
          "Unit": "g         "
        },
        {
          "DisplayOrder": 12,
          "Document": null,
          "NutritionItemID": 375,
          "NutritionItemName": "Sugars",
          "Predriscriptor": "",
          "Quantity": 16,
          "Unit": "g         "
        },
        {
          "DisplayOrder": 13,
          "Document": null,
          "NutritionItemID": 372,
          "NutritionItemName": "Protein",
          "Predriscriptor": "",
          "Quantity": 12,
          "Unit": "g         "
        },
        {
          "DisplayOrder": 14,
          "Document": null,
          "NutritionItemID": 382,
          "NutritionItemName": "Vitamin A",
          "Predriscriptor": "",
          "Quantity": 15,
          "Unit": "%DV       "
        },
        {
          "DisplayOrder": 15,
          "Document": null,
          "NutritionItemID": 383,
          "NutritionItemName": "Vitamin C",
          "Predriscriptor": "",
          "Quantity": 4,
          "Unit": "%DV       "
        },
        {
          "DisplayOrder": 16,
          "Document": null,
          "NutritionItemID": 386,
          "NutritionItemName": "Calcium",
          "Predriscriptor": "",
          "Quantity": 40,
          "Unit": "%DV       "
        },
        {
          "DisplayOrder": 17,
          "Document": null,
          "NutritionItemID": 387,
          "NutritionItemName": "Iron",
          "Predriscriptor": "",
          "Quantity": 25,
          "Unit": "%DV       "
        }
      ],
      "NutritionServingText": null,
      "PrepStepImage": null,
      "PreparationDescription": "Heat medium nonstick skillet on medium heat.  Meanwhile, whisk eggs and 1 Tbsp. syrup in pie plate until blended.$Fill bread slices with Singles and bacon to make 2 sandwiches. Dip, 1 at a time, in egg mixture, turning to evenly moisten both sides of each sandwich.$Cook 2 min. on each side or until Singles are melted and sandwiches are golden brown on both sides.$Cut each sandwich into 3 sticks.  Serve as dippers with remaining syrup. \n",
      "PreparationPreText": null,
      "PreparationSteps": [
        {
          "Description": "Heat medium nonstick skillet on medium heat.  Meanwhile, whisk eggs and 1 Tbsp. syrup in pie plate until blended.",
          "PreparationStepImage": {
            "PictureFormats": [],
            "author": null,
            "id": null,
            "imageType": null,
            "mimeType": null,
            "publicationDate": null,
            "status": null,
            "title": null,
            "type": null
          },
          "Sequence": 1
        },
        {
          "Description": "Fill bread slices with Singles and bacon to make 2 sandwiches. Dip, 1 at a time, in egg mixture, turning to evenly moisten both sides of each sandwich.",
          "PreparationStepImage": {
            "PictureFormats": [],
            "author": null,
            "id": null,
            "imageType": null,
            "mimeType": null,
            "publicationDate": null,
            "status": null,
            "title": null,
            "type": null
          },
          "Sequence": 2
        },
        {
          "Description": "Cook 2 min. on each side or until Singles are melted and sandwiches are golden brown on both sides.",
          "PreparationStepImage": {
            "PictureFormats": [],
            "author": null,
            "id": null,
            "imageType": null,
            "mimeType": null,
            "publicationDate": null,
            "status": null,
            "title": null,
            "type": null
          },
          "Sequence": 3
        },
        {
          "Description": "Cut each sandwich into 3 sticks.  Serve as dippers with remaining syrup. \n",
          "PreparationStepImage": {
            "PictureFormats": [],
            "author": null,
            "id": null,
            "imageType": null,
            "mimeType": null,
            "publicationDate": null,
            "status": null,
            "title": null,
            "type": null
          },
          "Sequence": 4
        }
      ],
      "PreparationTime": 10,
      "Promotion": null,
      "Ratings": {
        "TotalCount": 0,
        "PageCount": 10,
        "PageNo": 1,
        "Rating": []
      },
      "RecipeDisplayFormatId": 0,
      "RecipeId": 165997,
      "RecipeName": "Stuffed French Toast Melt",
      "RecipeType": 0,
      "RelatedData": {
        "RelatedBrands": null,
        "RelatedProducts": null,
        "RelatedRecipes": {
          "DefaultTopCount": 5,
          "Recipe": [
            {
              "AverageRating": 4.2,
              "HasVideo": false,
              "IsHealthyLiving": false,
              "NumberOfRatings": 91,
              "PhotoName": "91430.jpg",
              "PhotoUrl": "http://assets.kraftfoods.com/recipe_images/opendeploy/91430.jpg",
              "RecipeId": 91430,
              "RecipeName": "Ham and Cheese Stuffed French Toast",
              "SEOName": "ham-cheese-stuffed-french-toast-91430",
              "ThumbnailPhoto": null
            },
            {
              "AverageRating": 5,
              "HasVideo": false,
              "IsHealthyLiving": false,
              "NumberOfRatings": 1,
              "PhotoName": "155708.jpg",
              "PhotoUrl": "http://assets.kraftfoods.com/recipe_images/opendeploy/155708.jpg",
              "RecipeId": 155708,
              "RecipeName": "Chocolate-Stuffed French Toast Brunch Bake",
              "SEOName": "chocolate-stuffed-french-toast-brunch-bake-155708",
              "ThumbnailPhoto": null
            },
            {
              "AverageRating": 4.6,
              "HasVideo": true,
              "IsHealthyLiving": false,
              "NumberOfRatings": 44,
              "PhotoName": "120728.jpg",
              "PhotoUrl": "http://assets.kraftfoods.com/recipe_images/opendeploy/120728.jpg",
              "RecipeId": 120728,
              "RecipeName": "Stuffed Overnight French Toast",
              "SEOName": "stuffed-overnight-french-toast-120728",
              "ThumbnailPhoto": null
            },
            {
              "AverageRating": 4.2,
              "HasVideo": false,
              "IsHealthyLiving": false,
              "NumberOfRatings": 15,
              "PhotoName": "50806.jpg",
              "PhotoUrl": "http://assets.kraftfoods.com/recipe_images/opendeploy/50806.jpg",
              "RecipeId": 50806,
              "RecipeName": "Gorgonzola-Stuffed Bread",
              "SEOName": "gorgonzola-stuffed-bread-50806",
              "ThumbnailPhoto": null
            },
            {
              "AverageRating": 4.1,
              "HasVideo": false,
              "IsHealthyLiving": false,
              "NumberOfRatings": 372,
              "PhotoName": "opendeploy/90101-e6a2722347f594ced704da6073dc563c5bcb6c85_306x204.jpg",
              "PhotoUrl": "http://assets.kraftfoods.com/recipe_images/opendeploy/opendeploy/90101-e6a2722347f594ced704da6073dc563c5bcb6c85_306x204.jpg",
              "RecipeId": 90101,
              "RecipeName": "French Onion-Pork Chop Skillet",
              "SEOName": "french-onion-pork-chop-skillet-90101",
              "ThumbnailPhoto": null
            }
          ],
          "TotalCount": 2923
        }
      },
      "RiseIngredients": [
        {
          "IngredientCategory": "KRL",
          "IngredientId": 67716,
          "IngredientIndustrySector": "Retail",
          "IngredientType": "Inedible",
          "ProductId": null,
          "RecipeId": 165997
        },
        {
          "IngredientCategory": "KRL",
          "IngredientId": 68101,
          "IngredientIndustrySector": "Retail",
          "IngredientType": "Inedible",
          "ProductId": null,
          "RecipeId": 165997
        },
        {
          "IngredientCategory": "KRL",
          "IngredientId": 68221,
          "IngredientIndustrySector": "Retail",
          "IngredientType": "KHC",
          "ProductId": "00021000604647",
          "RecipeId": 165997
        },
        {
          "IngredientCategory": "KRL",
          "IngredientId": 68655,
          "IngredientIndustrySector": "Retail",
          "IngredientType": "Inedible",
          "ProductId": "00044700071205",
          "RecipeId": 165997
        },
        {
          "IngredientCategory": "KRL",
          "IngredientId": 68794,
          "IngredientIndustrySector": "Retail",
          "IngredientType": "Inedible",
          "ProductId": null,
          "RecipeId": 165997
        }
      ],
      "RiseTaxonomy": [
        {
          "ParentTaxonomyId": 0,
          "RecipeId": 165997,
          "ResourceName": "Recipe",
          "TaxonomyId": 65,
          "TaxonomyName": "Entrées",
          "TaxonomyTypeId": 2,
          "TaxonomyTypeName": "Meal Part"
        },
        {
          "ParentTaxonomyId": 48,
          "RecipeId": 165997,
          "ResourceName": "Recipe",
          "TaxonomyId": 202,
          "TaxonomyName": "French Toast, prepared",
          "TaxonomyTypeId": 3,
          "TaxonomyTypeName": "Dish Type"
        }
      ],
      "Riserecipe": [
        {
          "GRIN": 572505,
          "RecipeId": 165997,
          "RecipeIndustrySector": "Retail",
          "RecipeType": "Internal"
        }
      ],
      "RomanceText": "Kick the day off with a sweet treat using our Stuffed French Toast Melt recipe. Sweet maple syrup meets cheesy bacon for a tasty stuffed French toast.",
      "SEOName": "stuffed-french-toast-melt-165997",
      "Tips": [
        {
          "RecipeId": 165997,
          "Sequence": 20,
          "TipDescription": "Let the kids help make these fun-to-eat sandwich sticks.",
          "TipID": 1,
          "TipName": "Family Fun"
        }
      ],
      "TotalTime": 10,
      "TradeMarkInfo": null,
      "Video": [],
      "Yield": "2 servings"
    }
  ]
}