{
  "Metadata": {
    "PageCount": 1,
    "PageNo": 0,
    "TotalCount": 0
  },
  "Recipes": [
    {
      "AdServingKeywords": "Nuts,Potato,Vegetables,All Seasons,Planters",
      "AlternateLanguageRecipes": [],
      "Assets": [
        {
          "PictureFormats": [
            {
              "rendition": "640x428",
              "url": "http://assets.kraftfoods.com/recipe_images/opendeploy/185797_640x428.jpg"
            },
            {
              "rendition": "600x250",
              "url": "http://assets.kraftfoods.com/recipe_images/opendeploy/185797_600x250.jpg"
            },
            {
              "rendition": "290x194",
              "url": "http://assets.kraftfoods.com/recipe_images/opendeploy/185797_290x194.jpg"
            }
          ],
          "author": null,
          "id": "2",
          "imageType": "Primary",
          "mimeType": "image/jpeg",
          "publicationDate": null,
          "status": "1",
          "title": "185797",
          "type": "image"
        },
        {
          "PictureFormats": [
            {
              "rendition": "300x200",
              "url": "http://assets.kraftfoods.com/recipe_images/185797.jpg"
            }
          ],
          "author": null,
          "id": "0",
          "imageType": "LANDSCAPE",
          "mimeType": "image/jpeg",
          "publicationDate": null,
          "status": "1",
          "title": "185797.jpg",
          "type": "image"
        }
      ],
      "AverageRating": 4,
      "BrandId": 1,
      "Branding": null,
      "CSSSkins": null,
      "CarbCounter": null,
      "Categories": [],
      "Classifications": [],
      "ComplimentaryRecipes": null,
      "CookingMethod": null,
      "Copyright": null,
      "Courses": [],
      "DietExchange": null,
      "DishDetails": [],
      "EndDate": "/Date(-62135575200000-0600)/",
      "HasVideo": false,
      "Ingredients": [
        {
          "FullMeasure": "3 cans",
          "FullWeight": "",
          "IngredientGridHeaders": null,
          "IngredientID": 19894,
          "IngredientName": "sweet potato",
          "IngredientStep": 10,
          "LanguageId": 0,
          "PostPreparation": "es (you can use 6 pounds of baked sweet potatoes if preferred)",
          "PrePreparation": "(2 lb. each)",
          "QuantityNum": 3,
          "QuantityText": "3",
          "QuantityUnit": "cans",
          "RecipeIngredientID": 5249000,
          "TrialMeasure": "",
          "TrialWeight": ""
        },
        {
          "FullMeasure": "1 stick",
          "FullWeight": "",
          "IngredientGridHeaders": null,
          "IngredientID": 863,
          "IngredientName": "butter",
          "IngredientStep": 20,
          "LanguageId": 0,
          "PostPreparation": ", melted",
          "PrePreparation": "",
          "QuantityNum": 1,
          "QuantityText": "1",
          "QuantityUnit": "stick",
          "RecipeIngredientID": 5248986,
          "TrialMeasure": "",
          "TrialWeight": ""
        },
        {
          "FullMeasure": "3/4 cup",
          "FullWeight": "",
          "IngredientGridHeaders": null,
          "IngredientID": 1300,
          "IngredientName": "light brown sugar",
          "IngredientStep": 30,
          "LanguageId": 0,
          "PostPreparation": "",
          "PrePreparation": "",
          "QuantityNum": 0,
          "QuantityText": "3/4",
          "QuantityUnit": "cup",
          "RecipeIngredientID": 5248996,
          "TrialMeasure": "",
          "TrialWeight": ""
        },
        {
          "FullMeasure": "1/2 cup",
          "FullWeight": "",
          "IngredientGridHeaders": null,
          "IngredientID": 1845,
          "IngredientName": "sugar",
          "IngredientStep": 40,
          "LanguageId": 0,
          "PostPreparation": "",
          "PrePreparation": "white",
          "QuantityNum": 0,
          "QuantityText": "1/2",
          "QuantityUnit": "cup",
          "RecipeIngredientID": 5248995,
          "TrialMeasure": "",
          "TrialWeight": ""
        },
        {
          "FullMeasure": "1/4 cup",
          "FullWeight": "",
          "IngredientGridHeaders": null,
          "IngredientID": 18356,
          "IngredientName": "maple syrup",
          "IngredientStep": 50,
          "LanguageId": 0,
          "PostPreparation": "",
          "PrePreparation": "",
          "QuantityNum": 0,
          "QuantityText": "1/4",
          "QuantityUnit": "cup",
          "RecipeIngredientID": 5248999,
          "TrialMeasure": "",
          "TrialWeight": ""
        },
        {
          "FullMeasure": "1/2 tsp.",
          "FullWeight": "",
          "IngredientGridHeaders": null,
          "IngredientID": 1218,
          "IngredientName": "ground cinnamon",
          "IngredientStep": 60,
          "LanguageId": 0,
          "PostPreparation": "",
          "PrePreparation": "",
          "QuantityNum": 0,
          "QuantityText": "1/2",
          "QuantityUnit": "tsp.",
          "RecipeIngredientID": 5248989,
          "TrialMeasure": "",
          "TrialWeight": ""
        },
        {
          "FullMeasure": "1/2 tsp.",
          "FullWeight": "",
          "IngredientGridHeaders": null,
          "IngredientID": 1585,
          "IngredientName": "salt",
          "IngredientStep": 70,
          "LanguageId": 0,
          "PostPreparation": "",
          "PrePreparation": "",
          "QuantityNum": 0,
          "QuantityText": "1/2",
          "QuantityUnit": "tsp.",
          "RecipeIngredientID": 5248987,
          "TrialMeasure": "",
          "TrialWeight": ""
        },
        {
          "FullMeasure": "1 Tbsp.",
          "FullWeight": "",
          "IngredientGridHeaders": null,
          "IngredientID": 1731,
          "IngredientName": "vanilla",
          "IngredientStep": 80,
          "LanguageId": 0,
          "PostPreparation": "",
          "PrePreparation": "",
          "QuantityNum": 1,
          "QuantityText": "1",
          "QuantityUnit": "Tbsp.",
          "RecipeIngredientID": 5248993,
          "TrialMeasure": "",
          "TrialWeight": ""
        },
        {
          "FullMeasure": "1/4 tsp.",
          "FullWeight": "",
          "IngredientGridHeaders": null,
          "IngredientID": 5492,
          "IngredientName": "maple extract",
          "IngredientStep": 90,
          "LanguageId": 0,
          "PostPreparation": "",
          "PrePreparation": "",
          "QuantityNum": 0,
          "QuantityText": "1/4",
          "QuantityUnit": "tsp.",
          "RecipeIngredientID": 5248988,
          "TrialMeasure": "",
          "TrialWeight": ""
        },
        {
          "FullMeasure": "1/4 tsp.",
          "FullWeight": "",
          "IngredientGridHeaders": null,
          "IngredientID": 0,
          "IngredientName": "TOPPING",
          "IngredientStep": 100,
          "LanguageId": 0,
          "PostPreparation": "",
          "PrePreparation": "",
          "QuantityNum": 0,
          "QuantityText": "",
          "QuantityUnit": "",
          "RecipeIngredientID": 0,
          "TrialMeasure": "",
          "TrialWeight": ""
        },
        {
          "FullMeasure": "1/2 cup",
          "FullWeight": "",
          "IngredientGridHeaders": null,
          "IngredientID": 859,
          "IngredientName": "brown sugar",
          "IngredientStep": 110,
          "LanguageId": 0,
          "PostPreparation": "",
          "PrePreparation": "",
          "QuantityNum": 0,
          "QuantityText": "1/2",
          "QuantityUnit": "cup",
          "RecipeIngredientID": 5248997,
          "TrialMeasure": "",
          "TrialWeight": ""
        },
        {
          "FullMeasure": "2 Tbsp.",
          "FullWeight": "",
          "IngredientGridHeaders": null,
          "IngredientID": 1845,
          "IngredientName": "sugar",
          "IngredientStep": 120,
          "LanguageId": 0,
          "PostPreparation": "",
          "PrePreparation": "",
          "QuantityNum": 2,
          "QuantityText": "2",
          "QuantityUnit": "Tbsp.",
          "RecipeIngredientID": 5248992,
          "TrialMeasure": "",
          "TrialWeight": ""
        },
        {
          "FullMeasure": "6 Tbsp.",
          "FullWeight": "",
          "IngredientGridHeaders": null,
          "IngredientID": 863,
          "IngredientName": "butter",
          "IngredientStep": 130,
          "LanguageId": 0,
          "PostPreparation": ", melted",
          "PrePreparation": "",
          "QuantityNum": 6,
          "QuantityText": "6",
          "QuantityUnit": "Tbsp.",
          "RecipeIngredientID": 5248991,
          "TrialMeasure": "",
          "TrialWeight": ""
        },
        {
          "FullMeasure": "1/2 cup",
          "FullWeight": "",
          "IngredientGridHeaders": null,
          "IngredientID": 5528,
          "IngredientName": "PLANTERS Pecans",
          "IngredientStep": 140,
          "LanguageId": 0,
          "PostPreparation": "",
          "PrePreparation": "chopped",
          "QuantityNum": 0,
          "QuantityText": "1/2",
          "QuantityUnit": "cup",
          "RecipeIngredientID": 5248994,
          "TrialMeasure": "",
          "TrialWeight": ""
        },
        {
          "FullMeasure": "1 tsp.",
          "FullWeight": "",
          "IngredientGridHeaders": null,
          "IngredientID": 1731,
          "IngredientName": "vanilla",
          "IngredientStep": 150,
          "LanguageId": 0,
          "PostPreparation": "",
          "PrePreparation": "",
          "QuantityNum": 1,
          "QuantityText": "1",
          "QuantityUnit": "tsp.",
          "RecipeIngredientID": 5248990,
          "TrialMeasure": "",
          "TrialWeight": ""
        },
        {
          "FullMeasure": "1 cup",
          "FullWeight": "",
          "IngredientGridHeaders": null,
          "IngredientID": 1080,
          "IngredientName": "flour",
          "IngredientStep": 160,
          "LanguageId": 0,
          "PostPreparation": "",
          "PrePreparation": "plush 2 tbsp.",
          "QuantityNum": 1,
          "QuantityText": "1",
          "QuantityUnit": "cup",
          "RecipeIngredientID": 5248998,
          "TrialMeasure": "",
          "TrialWeight": ""
        }
      ],
      "IsHealthyLiving": false,
      "KRLId": "576603",
      "KeyIngredients": [
        "Nuts",
        "Potato",
        "Vegetables"
      ],
      "Keywords": "nuts,pecans,potatoes,brown sugar,cinnamon,extract,maple syrup,sugar,sweet potatoes,vanilla,butter,flour,PLANTERS Pecans,salt,Planters,All Seasons",
      "LanguageId": 1,
      "LifeStyles": [],
      "NumberOfIngredients": 15,
      "NumberOfRatings": 1,
      "NumberOfRatingsWithComments": "0",
      "NumberOfServings": "16 servings",
      "NumberOfTrialServings": null,
      "NutritionBonus": null,
      "NutritionExchangeItemId": 0,
      "NutritionGridItems": null,
      "NutritionItems": [],
      "NutritionServingText": null,
      "PrepStepImage": null,
      "PreparationDescription": "Preheat oven 350 Degrees and spray a casserole dish with non-stick spray.$Drain the cans of sweet potatoes and place them in a large mixing bowl. Using a hand held mixer, mix the sweet potatoes until smooth (potatoes will still be slightly lumpy). $Add the butter, both sugars, maple syrup, cinnamon, salt, and both extracts and blend well with the mixer. Pour inside the casserole dish and smooth the top. $In a separate bowl, pour the brown sugar, sugar, pecans, vanilla extract, melted butter, and stir. Next, sprinkle in the flour and stir until clumpy and crumbly. Allow to sit for 5 minutes. Now sprinkle the sweet potato casserole with the topping and bake for 25 minutes. ",
      "PreparationPreText": "",
      "PreparationSteps": [
        {
          "Description": "Preheat oven 350 Degrees and spray a casserole dish with non-stick spray.",
          "PreparationStepImage": {
            "PictureFormats": [],
            "author": null,
            "id": null,
            "imageType": null,
            "mimeType": null,
            "publicationDate": null,
            "status": null,
            "title": null,
            "type": null
          },
          "Sequence": 1
        },
        {
          "Description": "Drain the cans of sweet potatoes and place them in a large mixing bowl. Using a hand held mixer, mix the sweet potatoes until smooth (potatoes will still be slightly lumpy). ",
          "PreparationStepImage": {
            "PictureFormats": [],
            "author": null,
            "id": null,
            "imageType": null,
            "mimeType": null,
            "publicationDate": null,
            "status": null,
            "title": null,
            "type": null
          },
          "Sequence": 2
        },
        {
          "Description": "Add the butter, both sugars, maple syrup, cinnamon, salt, and both extracts and blend well with the mixer. Pour inside the casserole dish and smooth the top. ",
          "PreparationStepImage": {
            "PictureFormats": [],
            "author": null,
            "id": null,
            "imageType": null,
            "mimeType": null,
            "publicationDate": null,
            "status": null,
            "title": null,
            "type": null
          },
          "Sequence": 3
        },
        {
          "Description": "In a separate bowl, pour the brown sugar, sugar, pecans, vanilla extract, melted butter, and stir. Next, sprinkle in the flour and stir until clumpy and crumbly. Allow to sit for 5 minutes. Now sprinkle the sweet potato casserole with the topping and bake for 25 minutes. ",
          "PreparationStepImage": {
            "PictureFormats": [],
            "author": null,
            "id": null,
            "imageType": null,
            "mimeType": null,
            "publicationDate": null,
            "status": null,
            "title": null,
            "type": null
          },
          "Sequence": 4
        }
      ],
      "PreparationTime": 5,
      "Promotion": {
        "IngredientElevation": "",
        "PromoAltText": "Recipe and photo by Nicole Nared-Washington, Brown Sugar",
        "PromoImage": "",
        "PromoLink": "",
        "SponsorshipAltText": "",
        "SponsorshipLink": "",
        "SponsorshipLogo": "",
        "UpperRightImage": ""
      },
      "Ratings": {
        "TotalCount": 1,
        "PageCount": 10,
        "PageNo": 1,
        "Rating": []
      },
      "RecipeDisplayFormatId": 5,
      "RecipeId": 185797,
      "RecipeName": "The Easiest Sweet Potato Casserole",
      "RecipeType": 0,
      "RelatedData": {
        "RelatedBrands": null,
        "RelatedProducts": null,
        "RelatedRecipes": {
          "DefaultTopCount": 5,
          "Recipe": [
            {
              "AverageRating": 4.6,
              "HasVideo": false,
              "IsHealthyLiving": false,
              "NumberOfRatings": 101,
              "PhotoName": "Mallow_Topped_Sweet_Potato_Bake.jpg",
              "PhotoUrl": "http://assets.kraftfoods.com/recipe_images/opendeploy/Mallow_Topped_Sweet_Potato_Bake.jpg",
              "RecipeId": 55659,
              "RecipeName": "Mallow-Topped Sweet Potato Casserole",
              "SEOName": "mallow-topped-sweet-potato-casserole-55659",
              "ThumbnailPhoto": null
            },
            {
              "AverageRating": 4.2,
              "HasVideo": false,
              "IsHealthyLiving": false,
              "NumberOfRatings": 54,
              "PhotoName": "opendeploy/547254_1_1_retail-c237e98ec579a06ea885e8d655e8826c345a0466_306x204.jpg",
              "PhotoUrl": "http://assets.kraftfoods.com/recipe_images/opendeploy/opendeploy/547254_1_1_retail-c237e98ec579a06ea885e8d655e8826c345a0466_306x204.jpg",
              "RecipeId": 66262,
              "RecipeName": "Sweet Potato Streusel",
              "SEOName": "sweet-potato-streusel-66262",
              "ThumbnailPhoto": null
            },
            {
              "AverageRating": 4.6,
              "HasVideo": false,
              "IsHealthyLiving": false,
              "NumberOfRatings": 228,
              "PhotoName": "52838.jpg",
              "PhotoUrl": "http://assets.kraftfoods.com/recipe_images/opendeploy/52838.jpg",
              "RecipeId": 52838,
              "RecipeName": "Oat-Topped Sweet Potato Crisp",
              "SEOName": "oat-topped-sweet-potato-crisp-52838",
              "ThumbnailPhoto": null
            },
            {
              "AverageRating": 4,
              "HasVideo": false,
              "IsHealthyLiving": false,
              "NumberOfRatings": 1,
              "PhotoName": "Mashed_Potato_Duo.jpg",
              "PhotoUrl": "http://assets.kraftfoods.com/recipe_images/opendeploy/Mashed_Potato_Duo.jpg",
              "RecipeId": 107913,
              "RecipeName": "Mashed Potato Duo",
              "SEOName": "mashed-potato-duo-107913",
              "ThumbnailPhoto": null
            },
            {
              "AverageRating": 4,
              "HasVideo": true,
              "IsHealthyLiving": false,
              "NumberOfRatings": 1,
              "PhotoName": "181846.jpg",
              "PhotoUrl": "http://assets.kraftfoods.com/recipe_images/opendeploy/181846.jpg",
              "RecipeId": 181846,
              "RecipeName": "Holiday Sweet Potato Casserole",
              "SEOName": "holiday-sweet-potato-casserole-181846",
              "ThumbnailPhoto": null
            }
          ],
          "TotalCount": 5054
        }
      },
      "RiseIngredients": [],
      "RiseTaxonomy": [],
      "Riserecipe": [
        {
          "GRIN": 576603,
          "RecipeId": 185797,
          "RecipeIndustrySector": "Retail",
          "RecipeType": "Internal"
        }
      ],
      "RomanceText": "What makes this sweet potato casserole so easy, you might ask? Using canned sweet taters is part of it. Five minutes of prep time helps, too.",
      "SEOName": "the-easiest-sweet-potato-casserole-185797",
      "Tips": [],
      "TotalTime": 30,
      "TradeMarkInfo": null,
      "Video": [],
      "Yield": "16 servings"
    }
  ]
}