{
  "Metadata": {
    "PageCount": 1,
    "PageNo": 0,
    "TotalCount": 0
  },
  "Recipes": [
    {
      "AdServingKeywords": "Sandwich,Beef,Cheese,Lettuce,Meat,Dinner,Lunch,All Seasons,Kid-Friendly,Kraft Barbecue Sauce,Kraft Singles,Oscar Mayer",
      "AlternateLanguageRecipes": [],
      "Assets": [
        {
          "PictureFormats": [
            {
              "rendition": "140x90",
              "url": "http://assets.kraftfoods.com/recipe_images/opendeploy/111241_KRL_K55517V0_OR1_FO_140x90.jpg"
            },
            {
              "rendition": "290x194",
              "url": "http://assets.kraftfoods.com/recipe_images/opendeploy/111241_KRL_K55517V0_OR1_FO_290x194.jpg"
            },
            {
              "rendition": "300x250",
              "url": "http://assets.kraftfoods.com/recipe_images/opendeploy/111241_KRL_K55517V0_OR1_FO_300x250.jpg"
            },
            {
              "rendition": "600x250",
              "url": "http://assets.kraftfoods.com/recipe_images/opendeploy/111241_KRL_K55517V0_OR1_FO_600x250.jpg"
            },
            {
              "rendition": "640x428",
              "url": "http://assets.kraftfoods.com/recipe_images/opendeploy/111241_KRL_K55517V0_OR1_FO_640x428.jpg"
            },
            {
              "rendition": "960x300",
              "url": "http://assets.kraftfoods.com/recipe_images/opendeploy/111241_KRL_K55517V0_OR1_FO_960x300.jpg"
            }
          ],
          "author": null,
          "id": "5",
          "imageType": "Primary",
          "mimeType": "image/jpeg",
          "publicationDate": null,
          "status": "1",
          "title": "111241_KRL_K55517V0_OR1_FO",
          "type": "image"
        },
        {
          "PictureFormats": [
            {
              "rendition": "300x200",
              "url": "http://assets.kraftfoods.com/recipe_images/Be-My-BBQ-Beef-55717.jpg"
            }
          ],
          "author": null,
          "id": "0",
          "imageType": "LANDSCAPE",
          "mimeType": null,
          "publicationDate": null,
          "status": "1",
          "title": "Be-My-BBQ-Beef-55717.jpg",
          "type": "image"
        }
      ],
      "AverageRating": 3.3,
      "BrandId": 1,
      "Branding": null,
      "CSSSkins": null,
      "CarbCounter": "2",
      "Categories": [
        {
          "CategoryID": 11,
          "CategoryName": "Primary",
          "CategoryRank": 0,
          "SubCategoryID": 105,
          "SubCategoryName": "Sandwiches",
          "SubCategoryRank": 80
        },
        {
          "CategoryID": 14,
          "CategoryName": "Soup/Sandwiches",
          "CategoryRank": 14,
          "SubCategoryID": 159,
          "SubCategoryName": "Cold Sandwiches",
          "SubCategoryRank": 40
        },
        {
          "CategoryID": 751,
          "CategoryName": "Breads, Sandwiches, Wraps & Burgers",
          "CategoryRank": 5,
          "SubCategoryID": 2531,
          "SubCategoryName": "Fresh",
          "SubCategoryRank": 1
        }
      ],
      "Classifications": [
        {
          "ClassficationId": 7,
          "ClassificationName": "Good source of calcium"
        },
        {
          "ClassficationId": 13,
          "ClassificationName": "Good source of vitamin A or C"
        },
        {
          "ClassficationId": 14,
          "ClassificationName": "Generally Nutritious"
        },
        {
          "ClassficationId": 119,
          "ClassificationName": "Diabetes Center"
        }
      ],
      "ComplimentaryRecipes": null,
      "CookingMethod": null,
      "Copyright": null,
      "Courses": [
        "Sandwiches"
      ],
      "DietExchange": "2 Starch,2 Meat (L)",
      "DishDetails": [
        {
          "Text": "ground beef recipes",
          "Url": "/recipes/dinner/ground-beef-recipes/main.aspx"
        },
        {
          "Text": "top 10 beef recipes",
          "Url": "/recipes/dinner/top-10/beef-recipes/main.aspx"
        },
        {
          "Text": "1 bag 5 dinners",
          "Url": "/recipes/dinner/1Bag5Dinners/1bag5dinnerschickenbeef.aspx"
        }
      ],
      "EndDate": "/Date(-62135575200000-0600)/",
      "HasVideo": false,
      "Ingredients": [
        {
          "FullMeasure": "6 slices",
          "FullWeight": "",
          "IngredientGridHeaders": null,
          "IngredientID": 9572,
          "IngredientName": "OSCAR MAYER Deli Fresh Slow Roasted Roast Beef",
          "IngredientStep": 10,
          "LanguageId": 0,
          "PostPreparation": ", cut into thin strips",
          "PrePreparation": "",
          "QuantityNum": 6,
          "QuantityText": "6",
          "QuantityUnit": "slices",
          "RecipeIngredientID": 5131941,
          "TrialMeasure": "",
          "TrialWeight": ""
        },
        {
          "FullMeasure": "1 Tbsp.",
          "FullWeight": "",
          "IngredientGridHeaders": null,
          "IngredientID": 4866,
          "IngredientName": "KRAFT Sweet Honey Barbecue Sauce",
          "IngredientStep": 20,
          "LanguageId": 0,
          "PostPreparation": "",
          "PrePreparation": "",
          "QuantityNum": 1,
          "QuantityText": "1",
          "QuantityUnit": "Tbsp.",
          "RecipeIngredientID": 5131940,
          "TrialMeasure": "",
          "TrialWeight": ""
        },
        {
          "FullMeasure": "1",
          "FullWeight": "",
          "IngredientGridHeaders": null,
          "IngredientID": 20283,
          "IngredientName": "whole wheat hamburger bun",
          "IngredientStep": 30,
          "LanguageId": 0,
          "PostPreparation": "",
          "PrePreparation": "",
          "QuantityNum": 1,
          "QuantityText": "1",
          "QuantityUnit": "",
          "RecipeIngredientID": 5131944,
          "TrialMeasure": "",
          "TrialWeight": ""
        },
        {
          "FullMeasure": "1",
          "FullWeight": "",
          "IngredientGridHeaders": null,
          "IngredientID": 1298,
          "IngredientName": "lettuce leaf",
          "IngredientStep": 40,
          "LanguageId": 0,
          "PostPreparation": "",
          "PrePreparation": "",
          "QuantityNum": 1,
          "QuantityText": "1",
          "QuantityUnit": "",
          "RecipeIngredientID": 5131943,
          "TrialMeasure": "",
          "TrialWeight": ""
        },
        {
          "FullMeasure": "1",
          "FullWeight": "",
          "IngredientGridHeaders": null,
          "IngredientID": 3298,
          "IngredientName": "KRAFT 2% Milk Singles",
          "IngredientStep": 50,
          "LanguageId": 0,
          "PostPreparation": "",
          "PrePreparation": "",
          "QuantityNum": 1,
          "QuantityText": "1",
          "QuantityUnit": "",
          "RecipeIngredientID": 5131942,
          "TrialMeasure": "",
          "TrialWeight": ""
        }
      ],
      "IsHealthyLiving": true,
      "KRLId": "559996",
      "KeyIngredients": [
        "Beef",
        "Bread",
        "Cheese",
        "Lettuce",
        "Meat"
      ],
      "Keywords": "OSCAR MAYER,rolls,american cheese,barbecue sauce,beef,bread,cheese,cold cuts,hamburger buns,KRAFT Barbecue Sauce,KRAFT Singles,lettuce,meat,cheese slices,bbq sauce,singles,buns,OSCAR MAYER Roast Beef,Deli Fresh,Sandwich,Dinner,Lunch,All Seasons,Kid-Friendly",
      "LanguageId": 1,
      "LifeStyles": [
        "Good source of calcium",
        "Good source of vitamin A or C",
        "Generally Nutritious",
        "Diabetes Center"
      ],
      "NumberOfIngredients": 5,
      "NumberOfRatings": 3,
      "NumberOfRatingsWithComments": "2",
      "NumberOfServings": "1 serving",
      "NumberOfTrialServings": "",
      "NutritionBonus": "The Singles make this bbq beef sandwich an excellent source of calcium.  And topping with some lettuce makes it a good source of vitamin A too.",
      "NutritionExchangeItemId": 1,
      "NutritionGridItems": null,
      "NutritionItems": [
        {
          "DisplayOrder": 1,
          "Document": null,
          "NutritionItemID": 3,
          "NutritionItemName": "Calories",
          "Predriscriptor": "",
          "Quantity": 250,
          "Unit": "          "
        },
        {
          "DisplayOrder": 2,
          "Document": "fat_cholesterol.html",
          "NutritionItemID": 4,
          "NutritionItemName": "Total fat",
          "Predriscriptor": "",
          "Quantity": 7,
          "Unit": "g         "
        },
        {
          "DisplayOrder": 3,
          "Document": "fat_cholesterol.html",
          "NutritionItemID": 9,
          "NutritionItemName": "Saturated fat",
          "Predriscriptor": "",
          "Quantity": 3,
          "Unit": "g         "
        },
        {
          "DisplayOrder": 7,
          "Document": "fat_cholesterol.html",
          "NutritionItemID": 2,
          "NutritionItemName": "Cholesterol",
          "Predriscriptor": "",
          "Quantity": 35,
          "Unit": "mg        "
        },
        {
          "DisplayOrder": 8,
          "Document": "sodium.html",
          "NutritionItemID": 8,
          "NutritionItemName": "Sodium",
          "Predriscriptor": "",
          "Quantity": 1130,
          "Unit": "mg        "
        },
        {
          "DisplayOrder": 10,
          "Document": "carbs_sugars_fiber.html",
          "NutritionItemID": 1,
          "NutritionItemName": "Carbohydrate",
          "Predriscriptor": "",
          "Quantity": 29,
          "Unit": "g         "
        },
        {
          "DisplayOrder": 11,
          "Document": "carbs_sugars_fiber.html",
          "NutritionItemID": 7,
          "NutritionItemName": "Dietary fiber",
          "Predriscriptor": "",
          "Quantity": 2,
          "Unit": "g         "
        },
        {
          "DisplayOrder": 12,
          "Document": "carbs_sugars_fiber.html",
          "NutritionItemID": 5,
          "NutritionItemName": "Sugars",
          "Predriscriptor": "",
          "Quantity": 9,
          "Unit": "g         "
        },
        {
          "DisplayOrder": 13,
          "Document": null,
          "NutritionItemID": 6,
          "NutritionItemName": "Protein",
          "Predriscriptor": "",
          "Quantity": 18,
          "Unit": "g         "
        },
        {
          "DisplayOrder": 14,
          "Document": null,
          "NutritionItemID": 10,
          "NutritionItemName": "Vitamin A",
          "Predriscriptor": "",
          "Quantity": 20,
          "Unit": "%DV       "
        },
        {
          "DisplayOrder": 15,
          "Document": null,
          "NutritionItemID": 11,
          "NutritionItemName": "Vitamin C",
          "Predriscriptor": "",
          "Quantity": 20,
          "Unit": "%DV       "
        },
        {
          "DisplayOrder": 16,
          "Document": "dairy_and_calcium.html",
          "NutritionItemID": 12,
          "NutritionItemName": "Calcium",
          "Predriscriptor": "",
          "Quantity": 25,
          "Unit": "%DV       "
        },
        {
          "DisplayOrder": 17,
          "Document": null,
          "NutritionItemID": 13,
          "NutritionItemName": "Iron",
          "Predriscriptor": "",
          "Quantity": 20,
          "Unit": "%DV       "
        }
      ],
      "NutritionServingText": " ",
      "PrepStepImage": null,
      "PreparationDescription": "Toss meat with barbecue sauce. $Fill bun with lettuce, meat and 2% Milk Singles. ",
      "PreparationPreText": "",
      "PreparationSteps": [
        {
          "Description": "Toss meat with barbecue sauce. ",
          "PreparationStepImage": {
            "PictureFormats": [],
            "author": null,
            "id": null,
            "imageType": null,
            "mimeType": null,
            "publicationDate": null,
            "status": null,
            "title": null,
            "type": null
          },
          "Sequence": 1
        },
        {
          "Description": "Fill bun with lettuce, meat and 2% Milk Singles. ",
          "PreparationStepImage": {
            "PictureFormats": [],
            "author": null,
            "id": null,
            "imageType": null,
            "mimeType": null,
            "publicationDate": null,
            "status": null,
            "title": null,
            "type": null
          },
          "Sequence": 2
        }
      ],
      "PreparationTime": 5,
      "Promotion": null,
      "Ratings": {
        "TotalCount": 3,
        "PageCount": 10,
        "PageNo": 1,
        "Rating": [
          {
            "Comment": "",
            "DisplayName": false,
            "RatingValue": 5,
            "SubmitDate": "/Date(1379773126000-0500)/",
            "UpdatedDate": "/Date(1379773126000-0500)/",
            "UserName": "Nixjem"
          },
          {
            "Comment": "Too much sodium!",
            "DisplayName": false,
            "RatingValue": 1,
            "SubmitDate": "/Date(1284657828000-0500)/",
            "UpdatedDate": "/Date(1284657828000-0500)/",
            "UserName": "julietipton"
          },
          {
            "Comment": "This sandwich is very easy to put together.  I don't have any children, but my husband loves it!",
            "DisplayName": true,
            "RatingValue": 4,
            "SubmitDate": "/Date(1267212834000-0600)/",
            "UpdatedDate": "/Date(1267212834000-0600)/",
            "UserName": "ashhrmn01"
          }
        ]
      },
      "RecipeDisplayFormatId": 5,
      "RecipeId": 111241,
      "RecipeName": "Be-My-BBQ Beef",
      "RecipeType": 0,
      "RelatedData": {
        "RelatedBrands": null,
        "RelatedProducts": null,
        "RelatedRecipes": {
          "DefaultTopCount": 5,
          "Recipe": [
            {
              "AverageRating": 5,
              "HasVideo": false,
              "IsHealthyLiving": true,
              "NumberOfRatings": 1,
              "PhotoName": "171609_SF_4439v5E_WP.jpg",
              "PhotoUrl": "http://assets.kraftfoods.com/recipe_images/opendeploy/171609_SF_4439v5E_WP.jpg",
              "RecipeId": 171609,
              "RecipeName": "BBQ Beef Stew",
              "SEOName": "bbq-beef-stew-171609",
              "ThumbnailPhoto": null
            },
            {
              "AverageRating": 5,
              "HasVideo": false,
              "IsHealthyLiving": false,
              "NumberOfRatings": 1,
              "PhotoName": "176053.jpg",
              "PhotoUrl": "http://assets.kraftfoods.com/recipe_images/opendeploy/176053.jpg",
              "RecipeId": 176053,
              "RecipeName": "Spicy Honey BBQ Beef Steak Dinner",
              "SEOName": "spicy-honey-bbq-beef-steak-dinner-176053",
              "ThumbnailPhoto": null
            },
            {
              "AverageRating": 4.4,
              "HasVideo": false,
              "IsHealthyLiving": false,
              "NumberOfRatings": 7,
              "PhotoName": "118050.jpg",
              "PhotoUrl": "http://assets.kraftfoods.com/recipe_images/opendeploy/118050.jpg",
              "RecipeId": 118050,
              "RecipeName": "BBQ Beef Brisket",
              "SEOName": "bbq-beef-brisket-118050",
              "ThumbnailPhoto": null
            },
            {
              "AverageRating": 4.3,
              "HasVideo": false,
              "IsHealthyLiving": true,
              "NumberOfRatings": 6,
              "PhotoName": "150566.jpg",
              "PhotoUrl": "http://assets.kraftfoods.com/recipe_images/opendeploy/150566.jpg",
              "RecipeId": 150566,
              "RecipeName": "BBQ Slow-Cooker Beef Brisket",
              "SEOName": "bbq-slow-cooker-beef-brisket-150566",
              "ThumbnailPhoto": null
            },
            {
              "AverageRating": 4.6,
              "HasVideo": false,
              "IsHealthyLiving": false,
              "NumberOfRatings": 16,
              "PhotoName": "BBQ-Beef-Cornbread-Pie-63019.jpg",
              "PhotoUrl": "http://assets.kraftfoods.com/recipe_images/opendeploy/BBQ-Beef-Cornbread-Pie-63019.jpg",
              "RecipeId": 145643,
              "RecipeName": "BBQ Beef-Cornbread Pie",
              "SEOName": "bbq-beef-cornbread-pie-145643",
              "ThumbnailPhoto": null
            }
          ],
          "TotalCount": 1616
        }
      },
      "RiseIngredients": [],
      "RiseTaxonomy": [],
      "Riserecipe": [
        {
          "GRIN": 559996,
          "RecipeId": 111241,
          "RecipeIndustrySector": "Retail",
          "RecipeType": "Internal"
        }
      ],
      "RomanceText": "It takes just minutes to put together, but this sandwich, with roast beef, cheese and BBQ sauce, really hits the spot!",
      "SEOName": "be-my-bbq-beef-111241",
      "Tips": [
        {
          "RecipeId": 111241,
          "Sequence": 10,
          "TipDescription": "Serve with orange wedges, bear-shaped graham snacks and CAPRI SUN 100% Juice Fruit Punch.   ",
          "TipID": 4,
          "TipName": "Serving Suggestion"
        },
        {
          "RecipeId": 111241,
          "Sequence": 20,
          "TipDescription": "To serve warm, omit lettuce. Place on microwaveable plate. Microwave on HIGH 30 sec. or just until warmed. \r\n",
          "TipID": 2,
          "TipName": "Variation  "
        }
      ],
      "TotalTime": 5,
      "TradeMarkInfo": null,
      "Video": [],
      "Yield": "1 serving"
    }
  ]
}