{
  "Metadata": {
    "PageCount": 1,
    "PageNo": 0,
    "TotalCount": 0
  },
  "Recipes": [
    {
      "AdServingKeywords": "Chocolate,Dairy,Slow cooker,All Seasons,Cake,Bakers,Calumet,Cool Whip",
      "AlternateLanguageRecipes": [],
      "Assets": [
        {
          "PictureFormats": [
            {
              "rendition": "300x200",
              "url": "http://assets.kraftfoods.com/recipe_images/171708_TMB_66740v0_CR.jpg"
            }
          ],
          "author": null,
          "id": "0",
          "imageType": "LANDSCAPE",
          "mimeType": null,
          "publicationDate": null,
          "status": "1",
          "title": "171708_TMB_66740v0_CR.jpg",
          "type": "image"
        }
      ],
      "AverageRating": 0,
      "BrandId": 1,
      "Branding": null,
      "CSSSkins": null,
      "CarbCounter": null,
      "Categories": [],
      "Classifications": [],
      "ComplimentaryRecipes": null,
      "CookingMethod": null,
      "Copyright": null,
      "Courses": [],
      "DietExchange": null,
      "DishDetails": [
        {
          "Text": "slow cooker recipes",
          "Url": "/recipes/dinner/Planning/slow-cooker.aspx"
        },
        {
          "Text": "chicken slow cooker recipes",
          "Url": "/recipes/dinner/chicken-recipes/slow-cooker/main.aspx"
        }
      ],
      "EndDate": "/Date(-62135575200000-0600)/",
      "HasVideo": false,
      "Ingredients": [
        {
          "FullMeasure": null,
          "FullWeight": null,
          "IngredientGridHeaders": null,
          "IngredientID": 68174,
          "IngredientName": "sugar",
          "IngredientStep": 10,
          "LanguageId": 0,
          "PostPreparation": "",
          "PrePreparation": "",
          "QuantityNum": 2,
          "QuantityText": "2",
          "QuantityUnit": "cups",
          "RecipeIngredientID": 320301,
          "TrialMeasure": null,
          "TrialWeight": null
        },
        {
          "FullMeasure": null,
          "FullWeight": null,
          "IngredientGridHeaders": null,
          "IngredientID": 71079,
          "IngredientName": "all-purpose flour",
          "IngredientStep": 20,
          "LanguageId": 0,
          "PostPreparation": "",
          "PrePreparation": "",
          "QuantityNum": 2,
          "QuantityText": "2",
          "QuantityUnit": "cups",
          "RecipeIngredientID": 321763,
          "TrialMeasure": null,
          "TrialWeight": null
        },
        {
          "FullMeasure": null,
          "FullWeight": null,
          "IngredientGridHeaders": null,
          "IngredientID": 69722,
          "IngredientName": "plus 1/2 cup unsweetened cocoa powder",
          "IngredientStep": 30,
          "LanguageId": 0,
          "PostPreparation": "",
          "PrePreparation": "",
          "QuantityNum": 6,
          "QuantityText": "6",
          "QuantityUnit": "Tbsp.",
          "RecipeIngredientID": 318351,
          "TrialMeasure": null,
          "TrialWeight": null
        },
        {
          "FullMeasure": null,
          "FullWeight": null,
          "IngredientGridHeaders": null,
          "IngredientID": 68512,
          "IngredientName": "CALUMET Baking Powder",
          "IngredientStep": 40,
          "LanguageId": 0,
          "PostPreparation": "",
          "PrePreparation": "",
          "QuantityNum": 4,
          "QuantityText": "4",
          "QuantityUnit": "tsp.",
          "RecipeIngredientID": 319875,
          "TrialMeasure": null,
          "TrialWeight": null
        },
        {
          "FullMeasure": null,
          "FullWeight": null,
          "IngredientGridHeaders": null,
          "IngredientID": 67861,
          "IngredientName": "salt",
          "IngredientStep": 50,
          "LanguageId": 0,
          "PostPreparation": "",
          "PrePreparation": "",
          "QuantityNum": 1,
          "QuantityText": "1",
          "QuantityUnit": "tsp.",
          "RecipeIngredientID": 316167,
          "TrialMeasure": null,
          "TrialWeight": null
        },
        {
          "FullMeasure": null,
          "FullWeight": null,
          "IngredientGridHeaders": null,
          "IngredientID": 68096,
          "IngredientName": "milk",
          "IngredientStep": 60,
          "LanguageId": 0,
          "PostPreparation": "",
          "PrePreparation": "",
          "QuantityNum": 1,
          "QuantityText": "1",
          "QuantityUnit": "cup",
          "RecipeIngredientID": 321401,
          "TrialMeasure": null,
          "TrialWeight": null
        },
        {
          "FullMeasure": null,
          "FullWeight": null,
          "IngredientGridHeaders": null,
          "IngredientID": 67994,
          "IngredientName": "butter, melted",
          "IngredientStep": 70,
          "LanguageId": 0,
          "PostPreparation": "",
          "PrePreparation": "",
          "QuantityNum": 4,
          "QuantityText": "4",
          "QuantityUnit": "Tbsp.",
          "RecipeIngredientID": 317354,
          "TrialMeasure": null,
          "TrialWeight": null
        },
        {
          "FullMeasure": null,
          "FullWeight": null,
          "IngredientGridHeaders": null,
          "IngredientID": 68636,
          "IngredientName": "vanilla extract",
          "IngredientStep": 80,
          "LanguageId": 0,
          "PostPreparation": "",
          "PrePreparation": "",
          "QuantityNum": 1,
          "QuantityText": "1",
          "QuantityUnit": "tsp.",
          "RecipeIngredientID": 319278,
          "TrialMeasure": null,
          "TrialWeight": null
        },
        {
          "FullMeasure": null,
          "FullWeight": null,
          "IngredientGridHeaders": null,
          "IngredientID": 69126,
          "IngredientName": "(4 oz.) BAKER'S White Chocolate, coarsely chopped",
          "IngredientStep": 90,
          "LanguageId": 0,
          "PostPreparation": "",
          "PrePreparation": "",
          "QuantityNum": 1,
          "QuantityText": "1",
          "QuantityUnit": "pkg.",
          "RecipeIngredientID": 320641,
          "TrialMeasure": null,
          "TrialWeight": null
        },
        {
          "FullMeasure": null,
          "FullWeight": null,
          "IngredientGridHeaders": null,
          "IngredientID": 69101,
          "IngredientName": "(4 oz.) BAKER'S GERMAN'S Sweet Chocolate, coarsely chopped",
          "IngredientStep": 100,
          "LanguageId": 0,
          "PostPreparation": "",
          "PrePreparation": "",
          "QuantityNum": 1,
          "QuantityText": "1",
          "QuantityUnit": "pkg.",
          "RecipeIngredientID": 318920,
          "TrialMeasure": null,
          "TrialWeight": null
        },
        {
          "FullMeasure": null,
          "FullWeight": null,
          "IngredientGridHeaders": null,
          "IngredientID": 68563,
          "IngredientName": "brown sugar",
          "IngredientStep": 110,
          "LanguageId": 0,
          "PostPreparation": "",
          "PrePreparation": "",
          "QuantityNum": 1.5,
          "QuantityText": "1-1/2",
          "QuantityUnit": "cups",
          "RecipeIngredientID": 320302,
          "TrialMeasure": null,
          "TrialWeight": null
        },
        {
          "FullMeasure": null,
          "FullWeight": null,
          "IngredientGridHeaders": null,
          "IngredientID": 68791,
          "IngredientName": "boiling water",
          "IngredientStep": 120,
          "LanguageId": 0,
          "PostPreparation": "",
          "PrePreparation": "",
          "QuantityNum": 3,
          "QuantityText": "3",
          "QuantityUnit": "cups",
          "RecipeIngredientID": 318734,
          "TrialMeasure": null,
          "TrialWeight": null
        },
        {
          "FullMeasure": null,
          "FullWeight": null,
          "IngredientGridHeaders": null,
          "IngredientID": 67974,
          "IngredientName": "COOL WHIP Whipped Topping",
          "IngredientStep": 130,
          "LanguageId": 0,
          "PostPreparation": "",
          "PrePreparation": "",
          "QuantityNum": 0,
          "QuantityText": "",
          "QuantityUnit": "",
          "RecipeIngredientID": 316805,
          "TrialMeasure": null,
          "TrialWeight": null
        }
      ],
      "IsHealthyLiving": false,
      "KRLId": "574369",
      "KeyIngredients": [],
      "Keywords": "Slow cooker,All Seasons,Cake",
      "LanguageId": 1,
      "LifeStyles": [],
      "NumberOfIngredients": 13,
      "NumberOfRatings": 0,
      "NumberOfRatingsWithComments": "0",
      "NumberOfServings": "8 servings",
      "NumberOfTrialServings": null,
      "NutritionBonus": null,
      "NutritionExchangeItemId": 0,
      "NutritionGridItems": null,
      "NutritionItems": [],
      "NutritionServingText": null,
      "PrepStepImage": null,
      "PreparationDescription": "Place 3 cups of water on the stove and begin to heat to boiling.$Line slow cooker with a liner or spray lightly with cooking spray. Combine the sugar, flour, 6 tbsp cocoa powder, baking powder and salt in the slow cooker, mix.$Stir in milk, melted butter, vanilla and BAKER'S Chocolate until combined and spread the batter so that it is evenly distributed on the bottom of the slow cooker.$Mix together brown sugar and ½ cup cocoa powder and pour on top of the batter.$Pour the boiling water over the top and let it soak in - do not stir.$Cover and cook on High for approximately 2½ hours.$Turn off heat, remove lid and let sit 20-30 minutes before serving. Scoop out a serving and top with COOL WHIP Whipped Topping.",
      "PreparationPreText": "",
      "PreparationSteps": [
        {
          "Description": "Place 3 cups of water on the stove and begin to heat to boiling.",
          "PreparationStepImage": {
            "PictureFormats": [],
            "author": null,
            "id": null,
            "imageType": null,
            "mimeType": null,
            "publicationDate": null,
            "status": null,
            "title": null,
            "type": null
          },
          "Sequence": 1
        },
        {
          "Description": "Line slow cooker with a liner or spray lightly with cooking spray. Combine the sugar, flour, 6 tbsp cocoa powder, baking powder and salt in the slow cooker, mix.",
          "PreparationStepImage": {
            "PictureFormats": [],
            "author": null,
            "id": null,
            "imageType": null,
            "mimeType": null,
            "publicationDate": null,
            "status": null,
            "title": null,
            "type": null
          },
          "Sequence": 2
        },
        {
          "Description": "Stir in milk, melted butter, vanilla and BAKER'S Chocolate until combined and spread the batter so that it is evenly distributed on the bottom of the slow cooker.",
          "PreparationStepImage": {
            "PictureFormats": [],
            "author": null,
            "id": null,
            "imageType": null,
            "mimeType": null,
            "publicationDate": null,
            "status": null,
            "title": null,
            "type": null
          },
          "Sequence": 3
        },
        {
          "Description": "Mix together brown sugar and ½ cup cocoa powder and pour on top of the batter.",
          "PreparationStepImage": {
            "PictureFormats": [],
            "author": null,
            "id": null,
            "imageType": null,
            "mimeType": null,
            "publicationDate": null,
            "status": null,
            "title": null,
            "type": null
          },
          "Sequence": 4
        },
        {
          "Description": "Pour the boiling water over the top and let it soak in - do not stir.",
          "PreparationStepImage": {
            "PictureFormats": [],
            "author": null,
            "id": null,
            "imageType": null,
            "mimeType": null,
            "publicationDate": null,
            "status": null,
            "title": null,
            "type": null
          },
          "Sequence": 5
        },
        {
          "Description": "Cover and cook on High for approximately 2½ hours.",
          "PreparationStepImage": {
            "PictureFormats": [],
            "author": null,
            "id": null,
            "imageType": null,
            "mimeType": null,
            "publicationDate": null,
            "status": null,
            "title": null,
            "type": null
          },
          "Sequence": 6
        },
        {
          "Description": "Turn off heat, remove lid and let sit 20-30 minutes before serving. Scoop out a serving and top with COOL WHIP Whipped Topping.",
          "PreparationStepImage": {
            "PictureFormats": [],
            "author": null,
            "id": null,
            "imageType": null,
            "mimeType": null,
            "publicationDate": null,
            "status": null,
            "title": null,
            "type": null
          },
          "Sequence": 7
        }
      ],
      "PreparationTime": 10,
      "Promotion": {
        "IngredientElevation": "",
        "PromoAltText": "Recipe and photo by Blogger, Xenia Sundell",
        "PromoImage": "",
        "PromoLink": "",
        "SponsorshipAltText": "",
        "SponsorshipLink": "",
        "SponsorshipLogo": "",
        "UpperRightImage": ""
      },
      "Ratings": {
        "TotalCount": 0,
        "PageCount": 10,
        "PageNo": 1,
        "Rating": []
      },
      "RecipeDisplayFormatId": 0,
      "RecipeId": 171708,
      "RecipeName": "Slow Cooker Chocolate Lava Cake",
      "RecipeType": 0,
      "RelatedData": {
        "RelatedBrands": null,
        "RelatedProducts": null,
        "RelatedRecipes": {
          "DefaultTopCount": 5,
          "Recipe": [
            {
              "AverageRating": 4.1,
              "HasVideo": true,
              "IsHealthyLiving": false,
              "NumberOfRatings": 31,
              "PhotoName": "opendeploy/155588-421a9a0104df17a1a4aa535d56129921e022e3d8_306x204.jpg",
              "PhotoUrl": "http://assets.kraftfoods.com/recipe_images/opendeploy/opendeploy/155588-421a9a0104df17a1a4aa535d56129921e022e3d8_306x204.jpg",
              "RecipeId": 155588,
              "RecipeName": "Slow-Cooker Double Chocolate Cake",
              "SEOName": "slow-cooker-double-chocolate-cake-155588",
              "ThumbnailPhoto": null
            },
            {
              "AverageRating": 4.8,
              "HasVideo": true,
              "IsHealthyLiving": false,
              "NumberOfRatings": 777,
              "PhotoName": "69182.jpg",
              "PhotoUrl": "http://assets.kraftfoods.com/recipe_images/opendeploy/69182.jpg",
              "RecipeId": 69182,
              "RecipeName": "Chocolate Molten Lava Cakes",
              "SEOName": "chocolate-molten-lava-cakes-69182",
              "ThumbnailPhoto": null
            },
            {
              "AverageRating": 5,
              "HasVideo": false,
              "IsHealthyLiving": false,
              "NumberOfRatings": 1,
              "PhotoName": "161946.jpg",
              "PhotoUrl": "http://assets.kraftfoods.com/recipe_images/opendeploy/161946.jpg",
              "RecipeId": 161946,
              "RecipeName": "Slow-Cooker Chocolate Chip Marshmallow Cookie",
              "SEOName": "slow-cooker-chocolate-chip-marshmallow-cookie-161946",
              "ThumbnailPhoto": null
            },
            {
              "AverageRating": 4,
              "HasVideo": false,
              "IsHealthyLiving": false,
              "NumberOfRatings": 2,
              "PhotoName": "Chocolate_Lava_Sundaes.jpg",
              "PhotoUrl": "http://assets.kraftfoods.com/recipe_images/opendeploy/Chocolate_Lava_Sundaes.jpg",
              "RecipeId": 109569,
              "RecipeName": "Chocolate Lava Sundaes",
              "SEOName": "chocolate-lava-sundaes-109569",
              "ThumbnailPhoto": null
            },
            {
              "AverageRating": 4,
              "HasVideo": false,
              "IsHealthyLiving": false,
              "NumberOfRatings": 4,
              "PhotoName": "172027.jpg",
              "PhotoUrl": "http://assets.kraftfoods.com/recipe_images/opendeploy/172027.jpg",
              "RecipeId": 172027,
              "RecipeName": "Slow-Cooker Shredded Chicken Tacos",
              "SEOName": "slow-cooker-shredded-chicken-tacos-172027",
              "ThumbnailPhoto": null
            }
          ],
          "TotalCount": 1846
        }
      },
      "RiseIngredients": [
        {
          "IngredientCategory": "KRL",
          "IngredientId": 67861,
          "IngredientIndustrySector": "Retail",
          "IngredientType": "Inedible",
          "ProductId": null,
          "RecipeId": 171708
        },
        {
          "IngredientCategory": "KRL",
          "IngredientId": 67974,
          "IngredientIndustrySector": "Retail",
          "IngredientType": "Inedible",
          "ProductId": "00043000009536",
          "RecipeId": 171708
        },
        {
          "IngredientCategory": "KRL",
          "IngredientId": 67994,
          "IngredientIndustrySector": "Retail",
          "IngredientType": "Inedible",
          "ProductId": null,
          "RecipeId": 171708
        },
        {
          "IngredientCategory": "KRL",
          "IngredientId": 68096,
          "IngredientIndustrySector": "Retail",
          "IngredientType": "Inedible",
          "ProductId": null,
          "RecipeId": 171708
        },
        {
          "IngredientCategory": "KRL",
          "IngredientId": 68174,
          "IngredientIndustrySector": "Retail",
          "IngredientType": "Inedible",
          "ProductId": null,
          "RecipeId": 171708
        },
        {
          "IngredientCategory": "KRL",
          "IngredientId": 68512,
          "IngredientIndustrySector": "Retail",
          "IngredientType": "Inedible",
          "ProductId": "00043000289303",
          "RecipeId": 171708
        },
        {
          "IngredientCategory": "KRL",
          "IngredientId": 68563,
          "IngredientIndustrySector": "Retail",
          "IngredientType": "Inedible",
          "ProductId": null,
          "RecipeId": 171708
        },
        {
          "IngredientCategory": "KRL",
          "IngredientId": 68636,
          "IngredientIndustrySector": "Retail",
          "IngredientType": "Inedible",
          "ProductId": null,
          "RecipeId": 171708
        },
        {
          "IngredientCategory": "KRL",
          "IngredientId": 68791,
          "IngredientIndustrySector": "Retail",
          "IngredientType": "Generic",
          "ProductId": null,
          "RecipeId": 171708
        },
        {
          "IngredientCategory": "KRL",
          "IngredientId": 69101,
          "IngredientIndustrySector": "Retail",
          "IngredientType": "KHC",
          "ProductId": "00043000252352",
          "RecipeId": 171708
        },
        {
          "IngredientCategory": "KRL",
          "IngredientId": 69126,
          "IngredientIndustrySector": "Retail",
          "IngredientType": "KHC",
          "ProductId": "00043000252208",
          "RecipeId": 171708
        },
        {
          "IngredientCategory": "KRL",
          "IngredientId": 69722,
          "IngredientIndustrySector": "Retail",
          "IngredientType": "Inedible",
          "ProductId": null,
          "RecipeId": 171708
        },
        {
          "IngredientCategory": "KRL",
          "IngredientId": 71079,
          "IngredientIndustrySector": "Retail",
          "IngredientType": "Inedible",
          "ProductId": null,
          "RecipeId": 171708
        }
      ],
      "RiseTaxonomy": [],
      "Riserecipe": [
        {
          "GRIN": 574369,
          "RecipeId": 171708,
          "RecipeIndustrySector": "Retail",
          "RecipeType": "Internal"
        }
      ],
      "RomanceText": "Chocolate lava cake is one sure way to wow the crowd. And this slow-cooker recipe is one of the easiest ways to make it!",
      "SEOName": "slow-cooker-chocolate-lava-cake-171708",
      "Tips": [],
      "TotalTime": 160,
      "TradeMarkInfo": null,
      "Video": [],
      "Yield": "8 servings"
    }
  ]
}