{
  "Metadata": {
    "PageCount": 1,
    "PageNo": 0,
    "TotalCount": 0
  },
  "Recipes": [
    {
      "AdServingKeywords": "Entree,Cheese,Chicken,Eggs,Meat,Poultry,Swiss,All Seasons,Dinner,Grey Poupon,Kraft Cheese,Kraft Deli Fresh",
      "AlternateLanguageRecipes": [],
      "Assets": [
        {
          "PictureFormats": [
            {
              "rendition": "300x200",
              "url": "http://assets.kraftfoods.com/recipe_images/Dijon_Chicken_Elegant.jpg"
            }
          ],
          "author": null,
          "id": "0",
          "imageType": "DEFAULT",
          "mimeType": null,
          "publicationDate": null,
          "status": "1",
          "title": "Dijon_Chicken_Elegant.jpg",
          "type": "image"
        }
      ],
      "AverageRating": 3.9,
      "BrandId": 1,
      "Branding": null,
      "CSSSkins": null,
      "CarbCounter": null,
      "Categories": [
        {
          "CategoryID": 2,
          "CategoryName": "Poultry Entrees",
          "CategoryRank": 11,
          "SubCategoryID": 379,
          "SubCategoryName": "Baked",
          "SubCategoryRank": 10
        },
        {
          "CategoryID": 11,
          "CategoryName": "Primary",
          "CategoryRank": 0,
          "SubCategoryID": 97,
          "SubCategoryName": "Entrees",
          "SubCategoryRank": 50
        },
        {
          "CategoryID": 756,
          "CategoryName": "Main Meals (Meat / Seafood / Egg)",
          "CategoryRank": 10,
          "SubCategoryID": 2562,
          "SubCategoryName": "Chicken",
          "SubCategoryRank": 1
        }
      ],
      "Classifications": [],
      "ComplimentaryRecipes": null,
      "CookingMethod": null,
      "Copyright": null,
      "Courses": [
        "Main dishes"
      ],
      "DietExchange": null,
      "DishDetails": [
        {
          "Text": "chicken recipes",
          "Url": "/recipes/dinner/chicken-recipes/main.aspx"
        },
        {
          "Text": "grilled chicken recipes",
          "Url": "/recipes/dinner/chicken-recipes/grilled-chicken/main.aspx"
        },
        {
          "Text": "healthy living chicken recipes",
          "Url": "/recipes/dinner/chicken-recipes/hl/main.aspx"
        },
        {
          "Text": "slow cooker chicken recipes",
          "Url": "/recipes/dinner/chicken-recipes/slow-cooker/main.aspx"
        },
        {
          "Text": "whole chicken recipes",
          "Url": "/recipes/dinner/chicken-recipes/whole-chicken/main.aspx"
        },
        {
          "Text": "chicken breast recipes",
          "Url": "/recipes/dinner/chicken-recipes/chicken-breast/main.aspx"
        },
        {
          "Text": "chicken casseroles",
          "Url": "/recipes/dinner/chicken-recipes/casseroles/main.aspx"
        },
        {
          "Text": "chicken pasta recipes",
          "Url": "/recipes/dinner/chicken-recipes/pasta-dishes/main.aspx"
        },
        {
          "Text": "chicken salad recipes",
          "Url": "/recipes/dinner/chicken-recipes/salads/main.aspx"
        },
        {
          "Text": "chicken stir-fry recipes",
          "Url": "/recipes/dinner/chicken-recipes/stir-fry/main.aspx"
        },
        {
          "Text": "chicken wing recipes",
          "Url": "/recipes/appetizers/chicken-wing-recipes/main.aspx"
        },
        {
          "Text": "baked chicken recipes",
          "Url": "/recipes/dinner/chicken-recipes/baked-chicken/main.aspx"
        },
        {
          "Text": "bbq chicken recipes",
          "Url": "/recipes/holidays-and-entertaining/entertaining/summer/bbq-recipes/bbq-chicken-recipes/main.aspx"
        }
      ],
      "EndDate": "/Date(-62135575200000-0600)/",
      "HasVideo": false,
      "Ingredients": [
        {
          "FullMeasure": null,
          "FullWeight": null,
          "IngredientGridHeaders": null,
          "IngredientID": 68882,
          "IngredientName": "GREY POUPON Dijon Mustard",
          "IngredientStep": 10,
          "LanguageId": 0,
          "PostPreparation": "",
          "PrePreparation": "",
          "QuantityNum": 0.25,
          "QuantityText": "1/4",
          "QuantityUnit": "cup",
          "RecipeIngredientID": 113421,
          "TrialMeasure": null,
          "TrialWeight": null
        },
        {
          "FullMeasure": null,
          "FullWeight": null,
          "IngredientGridHeaders": null,
          "IngredientID": 69197,
          "IngredientName": "dill weed",
          "IngredientStep": 20,
          "LanguageId": 0,
          "PostPreparation": "",
          "PrePreparation": "",
          "QuantityNum": 1,
          "QuantityText": "1",
          "QuantityUnit": "tsp.",
          "RecipeIngredientID": 118948,
          "TrialMeasure": null,
          "TrialWeight": null
        },
        {
          "FullMeasure": null,
          "FullWeight": null,
          "IngredientGridHeaders": null,
          "IngredientID": 72876,
          "IngredientName": "boneless skinless chicken breasts (2 lb.), pounded to 1/2-inch thickness",
          "IngredientStep": 30,
          "LanguageId": 0,
          "PostPreparation": "",
          "PrePreparation": "",
          "QuantityNum": 8,
          "QuantityText": "8",
          "QuantityUnit": "small",
          "RecipeIngredientID": 116898,
          "TrialMeasure": null,
          "TrialWeight": null
        },
        {
          "FullMeasure": null,
          "FullWeight": null,
          "IngredientGridHeaders": null,
          "IngredientID": 70133,
          "IngredientName": "KRAFT Big Slice Swiss Cheese Slices, cut in half",
          "IngredientStep": 40,
          "LanguageId": 0,
          "PostPreparation": "",
          "PrePreparation": "",
          "QuantityNum": 4,
          "QuantityText": "4",
          "QuantityUnit": "",
          "RecipeIngredientID": 116450,
          "TrialMeasure": null,
          "TrialWeight": null
        },
        {
          "FullMeasure": null,
          "FullWeight": null,
          "IngredientGridHeaders": null,
          "IngredientID": 68624,
          "IngredientName": "(17.3 oz.) frozen puff pastry sheets (2 sheets), thawed",
          "IngredientStep": 50,
          "LanguageId": 0,
          "PostPreparation": "",
          "PrePreparation": "",
          "QuantityNum": 1,
          "QuantityText": "1",
          "QuantityUnit": "pkg.",
          "RecipeIngredientID": 121852,
          "TrialMeasure": null,
          "TrialWeight": null
        },
        {
          "FullMeasure": null,
          "FullWeight": null,
          "IngredientGridHeaders": null,
          "IngredientID": 68645,
          "IngredientName": "egg white",
          "IngredientStep": 60,
          "LanguageId": 0,
          "PostPreparation": "",
          "PrePreparation": "",
          "QuantityNum": 1,
          "QuantityText": "1",
          "QuantityUnit": "",
          "RecipeIngredientID": 119346,
          "TrialMeasure": null,
          "TrialWeight": null
        },
        {
          "FullMeasure": null,
          "FullWeight": null,
          "IngredientGridHeaders": null,
          "IngredientID": 68791,
          "IngredientName": "cold water",
          "IngredientStep": 70,
          "LanguageId": 0,
          "PostPreparation": "",
          "PrePreparation": "",
          "QuantityNum": 1,
          "QuantityText": "1",
          "QuantityUnit": "Tbsp.",
          "RecipeIngredientID": 117629,
          "TrialMeasure": null,
          "TrialWeight": null
        }
      ],
      "IsHealthyLiving": false,
      "KRLId": "508930",
      "KeyIngredients": [],
      "Keywords": "Entree,Dinner,All Seasons",
      "LanguageId": 1,
      "LifeStyles": [],
      "NumberOfIngredients": 7,
      "NumberOfRatings": 9,
      "NumberOfRatingsWithComments": "8",
      "NumberOfServings": "Makes 8 servings.",
      "NumberOfTrialServings": null,
      "NutritionBonus": null,
      "NutritionExchangeItemId": 0,
      "NutritionGridItems": null,
      "NutritionItems": [
        {
          "DisplayOrder": 1,
          "Document": null,
          "NutritionItemID": 371,
          "NutritionItemName": "Calories",
          "Predriscriptor": "",
          "Quantity": 530,
          "Unit": "          "
        },
        {
          "DisplayOrder": 2,
          "Document": null,
          "NutritionItemID": 376,
          "NutritionItemName": "Total fat",
          "Predriscriptor": "",
          "Quantity": 30,
          "Unit": "g         "
        },
        {
          "DisplayOrder": 3,
          "Document": null,
          "NutritionItemID": 377,
          "NutritionItemName": "Saturated fat",
          "Predriscriptor": "",
          "Quantity": 9,
          "Unit": "g         "
        },
        {
          "DisplayOrder": 4,
          "Document": null,
          "NutritionItemID": 379,
          "NutritionItemName": "Polyunsaturated Fat",
          "Predriscriptor": "",
          "Quantity": 3.5,
          "Unit": "g         "
        },
        {
          "DisplayOrder": 5,
          "Document": null,
          "NutritionItemID": 378,
          "NutritionItemName": "Monounsaturated Fat",
          "Predriscriptor": "",
          "Quantity": 14,
          "Unit": "g         "
        },
        {
          "DisplayOrder": 6,
          "Document": null,
          "NutritionItemID": 380,
          "NutritionItemName": "Trans Fat",
          "Predriscriptor": "",
          "Quantity": 0,
          "Unit": "g         "
        },
        {
          "DisplayOrder": 7,
          "Document": null,
          "NutritionItemID": 381,
          "NutritionItemName": "Cholesterol",
          "Predriscriptor": "",
          "Quantity": 75,
          "Unit": "mg        "
        },
        {
          "DisplayOrder": 8,
          "Document": null,
          "NutritionItemID": 389,
          "NutritionItemName": "Sodium",
          "Predriscriptor": "",
          "Quantity": 420,
          "Unit": "mg        "
        },
        {
          "DisplayOrder": 10,
          "Document": null,
          "NutritionItemID": 373,
          "NutritionItemName": "Carbohydrate",
          "Predriscriptor": "",
          "Quantity": 29,
          "Unit": "g         "
        },
        {
          "DisplayOrder": 11,
          "Document": null,
          "NutritionItemID": 374,
          "NutritionItemName": "Dietary fiber",
          "Predriscriptor": "",
          "Quantity": 1,
          "Unit": "g         "
        },
        {
          "DisplayOrder": 12,
          "Document": null,
          "NutritionItemID": 375,
          "NutritionItemName": "Sugars",
          "Predriscriptor": "",
          "Quantity": 2,
          "Unit": "g         "
        },
        {
          "DisplayOrder": 13,
          "Document": null,
          "NutritionItemID": 372,
          "NutritionItemName": "Protein",
          "Predriscriptor": "",
          "Quantity": 33,
          "Unit": "g         "
        },
        {
          "DisplayOrder": 14,
          "Document": null,
          "NutritionItemID": 382,
          "NutritionItemName": "Vitamin A",
          "Predriscriptor": "",
          "Quantity": 4,
          "Unit": "%DV       "
        },
        {
          "DisplayOrder": 15,
          "Document": null,
          "NutritionItemID": 383,
          "NutritionItemName": "Vitamin C",
          "Predriscriptor": "",
          "Quantity": 0,
          "Unit": "%DV       "
        },
        {
          "DisplayOrder": 16,
          "Document": null,
          "NutritionItemID": 386,
          "NutritionItemName": "Calcium",
          "Predriscriptor": "",
          "Quantity": 10,
          "Unit": "%DV       "
        },
        {
          "DisplayOrder": 17,
          "Document": null,
          "NutritionItemID": 387,
          "NutritionItemName": "Iron",
          "Predriscriptor": "",
          "Quantity": 15,
          "Unit": "%DV       "
        }
      ],
      "NutritionServingText": null,
      "PrepStepImage": null,
      "PreparationDescription": "Mix mustard and dill; spread onto chicken.  Top with cheese; roll up, starting at one short end of each.$Roll each pastry sheet on lightly floured surface to 12-inch square; cut into 4 (6-inch) squares.  Whisk egg white and water until blended; brush onto edges of squares.  Top with chicken.  Bring corners of each pastry square together over chicken; press together to seal.  Place, seam-sides down, on baking sheet sprayed with cooking spray.  Brush with remaining egg.$Bake 30 min. or until pastry is lightly browned and chicken is done (165°F).  ",
      "PreparationPreText": "Heat oven to 375ºF",
      "PreparationSteps": [
        {
          "Description": "Mix mustard and dill; spread onto chicken.  Top with cheese; roll up, starting at one short end of each.",
          "PreparationStepImage": {
            "PictureFormats": [],
            "author": null,
            "id": null,
            "imageType": null,
            "mimeType": null,
            "publicationDate": null,
            "status": null,
            "title": null,
            "type": null
          },
          "Sequence": 1
        },
        {
          "Description": "Roll each pastry sheet on lightly floured surface to 12-inch square; cut into 4 (6-inch) squares.  Whisk egg white and water until blended; brush onto edges of squares.  Top with chicken.  Bring corners of each pastry square together over chicken; press together to seal.  Place, seam-sides down, on baking sheet sprayed with cooking spray.  Brush with remaining egg.",
          "PreparationStepImage": {
            "PictureFormats": [],
            "author": null,
            "id": null,
            "imageType": null,
            "mimeType": null,
            "publicationDate": null,
            "status": null,
            "title": null,
            "type": null
          },
          "Sequence": 2
        },
        {
          "Description": "Bake 30 min. or until pastry is lightly browned and chicken is done (165°F).  ",
          "PreparationStepImage": {
            "PictureFormats": [],
            "author": null,
            "id": null,
            "imageType": null,
            "mimeType": null,
            "publicationDate": null,
            "status": null,
            "title": null,
            "type": null
          },
          "Sequence": 3
        }
      ],
      "PreparationTime": 30,
      "Promotion": null,
      "Ratings": {
        "TotalCount": 9,
        "PageCount": 10,
        "PageNo": 1,
        "Rating": [
          {
            "Comment": "",
            "DisplayName": true,
            "RatingValue": 5,
            "SubmitDate": "/Date(1243470367000-0500)/",
            "UpdatedDate": "/Date(1243470367000-0500)/",
            "UserName": "Lizzard_bag"
          },
          {
            "Comment": "The juices from the chicken seemed to keep the pastry shell somewhat doughy.  It might be better with some different seasonings too - I'm not a big dill fan.  ",
            "DisplayName": false,
            "RatingValue": 2,
            "SubmitDate": "/Date(1141174215000-0600)/",
            "UpdatedDate": "/Date(1141174215000-0600)/",
            "UserName": "babe9c"
          },
          {
            "Comment": "I made this recipe and it was excellent.  I made it with whole pieces of chicken breast and little chicken nuggets for my daughter.  It was excellent.  Although I thought it was too much mustard and my husband didn't think there was enough.  Maybe next time I will use less and heat up some left over sauce for the side?  It is still highly reccomended!!!",
            "DisplayName": true,
            "RatingValue": 4,
            "SubmitDate": "/Date(1127263265000-0500)/",
            "UpdatedDate": "/Date(1127263265000-0500)/",
            "UserName": "fullflavorfrontierjerky"
          },
          {
            "Comment": "I found that the pastry browned before the chicken was fully cooked.... taste was a little bland, I think I'd use mozzerella cheese instead...I'd make it again with a few changes......",
            "DisplayName": true,
            "RatingValue": 3,
            "SubmitDate": "/Date(1107569822000-0600)/",
            "UpdatedDate": "/Date(1107569822000-0600)/",
            "UserName": "emmy125"
          },
          {
            "Comment": "Excellent dish and relatively easy to make -- I did all the prep work early in the day and then baked it right before dinner and it turned out great.  I would definitely make this dinner when entertaining.",
            "DisplayName": true,
            "RatingValue": 5,
            "SubmitDate": "/Date(1105579811000-0600)/",
            "UpdatedDate": "/Date(1105579811000-0600)/",
            "UserName": "Plmsk"
          },
          {
            "Comment": "A beautiful, impressive dish! I will use Honey Mustard instead of straight Dijon next time. Not everyone likes the strong mustard taste. Good dish, could be great with something other than Dijon mustard. It's relatively easy and the puff pastry looks amazing. I recommend it!",
            "DisplayName": true,
            "RatingValue": 3,
            "SubmitDate": "/Date(1105442482000-0600)/",
            "UpdatedDate": "/Date(1105442482000-0600)/",
            "UserName": "eslang"
          },
          {
            "Comment": "This is an easy recipe to make.  It just takes a little time b/c of the pounding and rolling, etc.  But, I served it at a dinner party along w/ Kraft's Winter Salad and a rice pilaf(also from Kraft) and it went over very well.  It is attractive as well as tasty.  The bottom did get a little soggy on the pan but you couldn't tell when served in look or taste.",
            "DisplayName": true,
            "RatingValue": 4,
            "SubmitDate": "/Date(1072303737000-0600)/",
            "UpdatedDate": "/Date(1072303737000-0600)/",
            "UserName": "pricpaig"
          },
          {
            "Comment": "This was very good and pretty easy to make. My husband loved it. ",
            "DisplayName": false,
            "RatingValue": 4,
            "SubmitDate": "/Date(1039546751000-0600)/",
            "UpdatedDate": "/Date(1039546751000-0600)/",
            "UserName": "tinaraerich"
          },
          {
            "Comment": "Yum! Flakey, warm, rich goodness. Dill and swiss add that something extra that many recipes lack. Absolutely fantastic on a crisp autumn or snowy winter eve. Actually keep puff pastry on had for this very reason. ",
            "DisplayName": false,
            "RatingValue": 5,
            "SubmitDate": "/Date(1034793114000-0500)/",
            "UpdatedDate": "/Date(1034793114000-0500)/",
            "UserName": "jimmyste"
          }
        ]
      },
      "RecipeDisplayFormatId": 0,
      "RecipeId": 53522,
      "RecipeName": "Dijon Chicken Elegant",
      "RecipeType": 0,
      "RelatedData": {
        "RelatedBrands": null,
        "RelatedProducts": null,
        "RelatedRecipes": {
          "DefaultTopCount": 5,
          "Recipe": [
            {
              "AverageRating": 5,
              "HasVideo": false,
              "IsHealthyLiving": false,
              "NumberOfRatings": 1,
              "PhotoName": "163328.jpg",
              "PhotoUrl": "http://assets.kraftfoods.com/recipe_images/opendeploy/163328.jpg",
              "RecipeId": 163328,
              "RecipeName": "Herbed Chicken Dijon",
              "SEOName": "herbed-chicken-dijon-163328",
              "ThumbnailPhoto": null
            },
            {
              "AverageRating": 4,
              "HasVideo": false,
              "IsHealthyLiving": true,
              "NumberOfRatings": 105,
              "PhotoName": "Chicken_Poupon.jpg",
              "PhotoUrl": "http://assets.kraftfoods.com/recipe_images/opendeploy/Chicken_Poupon.jpg",
              "RecipeId": 56842,
              "RecipeName": "GREY POUPON Classic Chicken Dijon",
              "SEOName": "grey-poupon-classic-chicken-dijon-56842",
              "ThumbnailPhoto": null
            },
            {
              "AverageRating": 4,
              "HasVideo": false,
              "IsHealthyLiving": false,
              "NumberOfRatings": 4,
              "PhotoName": "Dijon_Corn_Bread_Stuffed_Chicken.jpg",
              "PhotoUrl": "http://assets.kraftfoods.com/recipe_images/opendeploy/Dijon_Corn_Bread_Stuffed_Chicken.jpg",
              "RecipeId": 56656,
              "RecipeName": "Dijon-Corn Bread Stuffed Chicken",
              "SEOName": "dijon-corn-bread-stuffed-chicken-56656",
              "ThumbnailPhoto": null
            },
            {
              "AverageRating": 4,
              "HasVideo": false,
              "IsHealthyLiving": true,
              "NumberOfRatings": 2,
              "PhotoName": "Toasted_Pecan_And_Grilled_Chicken_Dijon.jpg",
              "PhotoUrl": "http://assets.kraftfoods.com/recipe_images/opendeploy/Toasted_Pecan_And_Grilled_Chicken_Dijon.jpg",
              "RecipeId": 56354,
              "RecipeName": "Toasted Pecan and Grilled Chicken Dijon Salad",
              "SEOName": "toasted-pecan-grilled-chicken-dijon-salad-56354",
              "ThumbnailPhoto": null
            },
            {
              "AverageRating": 4.2,
              "HasVideo": true,
              "IsHealthyLiving": false,
              "NumberOfRatings": 96,
              "PhotoName": "Mushroom-Chicken-Dijon-Wine-3395.jpg",
              "PhotoUrl": "http://assets.kraftfoods.com/recipe_images/opendeploy/Mushroom-Chicken-Dijon-Wine-3395.jpg",
              "RecipeId": 56404,
              "RecipeName": "Mushroom Chicken in Dijon-Wine Sauce",
              "SEOName": "mushroom-chicken-in-dijon-wine-sauce-56404",
              "ThumbnailPhoto": null
            }
          ],
          "TotalCount": 1599
        }
      },
      "RiseIngredients": [
        {
          "IngredientCategory": "KRL",
          "IngredientId": 68624,
          "IngredientIndustrySector": "Retail",
          "IngredientType": "Inedible",
          "ProductId": null,
          "RecipeId": 53522
        },
        {
          "IngredientCategory": "KRL",
          "IngredientId": 68645,
          "IngredientIndustrySector": "Retail",
          "IngredientType": "Inedible",
          "ProductId": null,
          "RecipeId": 53522
        },
        {
          "IngredientCategory": "KRL",
          "IngredientId": 68791,
          "IngredientIndustrySector": "Retail",
          "IngredientType": "Generic",
          "ProductId": null,
          "RecipeId": 53522
        },
        {
          "IngredientCategory": "KRL",
          "IngredientId": 68882,
          "IngredientIndustrySector": "Retail",
          "IngredientType": "KHC",
          "ProductId": "00054400015034",
          "RecipeId": 53522
        },
        {
          "IngredientCategory": "KRL",
          "IngredientId": 69197,
          "IngredientIndustrySector": "Retail",
          "IngredientType": "Inedible",
          "ProductId": null,
          "RecipeId": 53522
        },
        {
          "IngredientCategory": "KRL",
          "IngredientId": 70133,
          "IngredientIndustrySector": "Retail",
          "IngredientType": "KHC",
          "ProductId": "00021000018505",
          "RecipeId": 53522
        },
        {
          "IngredientCategory": "KRL",
          "IngredientId": 72876,
          "IngredientIndustrySector": "Retail",
          "IngredientType": "Inedible",
          "ProductId": null,
          "RecipeId": 53522
        }
      ],
      "RiseTaxonomy": [],
      "Riserecipe": [
        {
          "GRIN": 508930,
          "RecipeId": 53522,
          "RecipeIndustrySector": "Retail",
          "RecipeType": "Internal"
        }
      ],
      "RomanceText": "Chicken breasts are rolled around Dijon mustard, dill weed and Swiss cheese and then baked in a puff pastry for an extra-special entrée.",
      "SEOName": "dijon-chicken-elegant-53522",
      "Tips": [
        {
          "RecipeId": 53522,
          "Sequence": 10,
          "TipDescription": "For added color and texture, serve with a mixed green salad tossed with your favorite KRAFT Light Dressing.",
          "TipID": 1,
          "TipName": "Serving Suggestion"
        },
        {
          "RecipeId": 53522,
          "Sequence": 20,
          "TipDescription": "Substitute 1 Tbsp. chopped fresh dill for the dill weed.",
          "TipID": 2,
          "TipName": "Substitute"
        },
        {
          "RecipeId": 53522,
          "Sequence": 30,
          "TipDescription": "Cut each rolled chicken breast crosswise into 4 equal slices.  Cut each pastry sheet into 16 (3-inch) squares.  Prepare as directed, reducing baking time to 25 min. or until pastry is lightly browned and chicken is done.  Makes 32 appetizer servings.",
          "TipID": 3,
          "TipName": "Dijon Chicken Elegant Appetizers"
        }
      ],
      "TotalTime": 60,
      "TradeMarkInfo": null,
      "Video": [],
      "Yield": "Makes 8 servings."
    }
  ]
}