{
  "Metadata": {
    "PageCount": 1,
    "PageNo": 0,
    "TotalCount": 0
  },
  "Recipes": [
    {
      "AdServingKeywords": "Avocado,Bacon,Cheese,Fruit,Meat,Tomato,Vegetables,Sandwich,Grilled,Easy,OscarMayerBranding,Dinner,Lunch,All Seasons,Grilled Cheese,Kraft Singles,Miracle Whip,Oscar Mayer,Taco Bell®,Spicy,Cooking for One or Two,Quick and Easy",
      "AlternateLanguageRecipes": [],
      "Assets": [
        {
          "PictureFormats": [
            {
              "rendition": "290x194",
              "url": "http://assets.kraftfoods.com/recipe_images/opendeploy/125462_290x194.jpg"
            },
            {
              "rendition": "640x428",
              "url": "http://assets.kraftfoods.com/recipe_images/opendeploy/125462_640x428.jpg"
            },
            {
              "rendition": "600x250",
              "url": "http://assets.kraftfoods.com/recipe_images/opendeploy/125462_600x250.jpg"
            }
          ],
          "author": "BulKUpload",
          "id": "2",
          "imageType": "Primary",
          "mimeType": "image/jpeg",
          "publicationDate": null,
          "status": "1",
          "title": "125462",
          "type": "image"
        },
        {
          "PictureFormats": [
            {
              "rendition": "140x90",
              "url": "http://assets.kraftfoods.com/recipe_images/opendeploy/125462_MXM_K60478V1_OR1_CR_140x90.jpg"
            },
            {
              "rendition": "300x250",
              "url": "http://assets.kraftfoods.com/recipe_images/opendeploy/125462_MXM_K60478V1_OR1_CR_300x250.jpg"
            },
            {
              "rendition": "960x300",
              "url": "http://assets.kraftfoods.com/recipe_images/opendeploy/125462_MXM_K60478V1_OR1_CR_960x300.jpg"
            }
          ],
          "author": null,
          "id": "2",
          "imageType": "Primary",
          "mimeType": "image/jpeg",
          "publicationDate": null,
          "status": "1",
          "title": "125462_MXM_K60478V1_OR1_CR",
          "type": "image"
        },
        {
          "PictureFormats": [
            {
              "rendition": "300x200",
              "url": "http://assets.kraftfoods.com/recipe_images/125462.jpg"
            }
          ],
          "author": "BulKUpload",
          "id": "0",
          "imageType": "LANDSCAPE",
          "mimeType": "image/jpeg",
          "publicationDate": null,
          "status": "1",
          "title": "125462.jpg",
          "type": "image"
        }
      ],
      "AverageRating": 4.7,
      "BrandId": 1,
      "Branding": {
        "IngredientElevation": "",
        "PromoAltText": "",
        "PromoImage": "",
        "PromoLink": "",
        "SponsorshipAltText": "",
        "SponsorshipLink": "",
        "SponsorshipLogo": "",
        "UpperRightImage": ""
      },
      "CSSSkins": [
        {
          "brand": "OscarMayerBranding",
          "fileName": "",
          "id": "1"
        }
      ],
      "CarbCounter": null,
      "Categories": [
        {
          "CategoryID": 11,
          "CategoryName": "Primary",
          "CategoryRank": 0,
          "SubCategoryID": 105,
          "SubCategoryName": "Sandwiches",
          "SubCategoryRank": 80
        },
        {
          "CategoryID": 14,
          "CategoryName": "Soup/Sandwiches",
          "CategoryRank": 14,
          "SubCategoryID": 160,
          "SubCategoryName": "Hot Sandwiches",
          "SubCategoryRank": 70
        },
        {
          "CategoryID": 751,
          "CategoryName": "Breads, Sandwiches, Wraps & Burgers",
          "CategoryRank": 5,
          "SubCategoryID": 2532,
          "SubCategoryName": "Toasted / Grilled / Cooked",
          "SubCategoryRank": 1
        }
      ],
      "Classifications": [],
      "ComplimentaryRecipes": null,
      "CookingMethod": null,
      "Copyright": null,
      "Courses": [
        "Sandwiches"
      ],
      "DietExchange": null,
      "DishDetails": [],
      "EndDate": "/Date(-62135575200000-0600)/",
      "HasVideo": false,
      "Ingredients": [
        {
          "FullMeasure": null,
          "FullWeight": null,
          "IngredientGridHeaders": null,
          "IngredientID": 72056,
          "IngredientName": "Texas toast white sandwich bread",
          "IngredientStep": 10,
          "LanguageId": 0,
          "PostPreparation": "",
          "PrePreparation": "",
          "QuantityNum": 4,
          "QuantityText": "4",
          "QuantityUnit": "slices",
          "RecipeIngredientID": 204216,
          "TrialMeasure": null,
          "TrialWeight": null
        },
        {
          "FullMeasure": null,
          "FullWeight": null,
          "IngredientGridHeaders": null,
          "IngredientID": 68221,
          "IngredientName": "KRAFT Singles",
          "IngredientStep": 20,
          "LanguageId": 0,
          "PostPreparation": "",
          "PrePreparation": "",
          "QuantityNum": 2,
          "QuantityText": "2",
          "QuantityUnit": "",
          "RecipeIngredientID": 207875,
          "TrialMeasure": null,
          "TrialWeight": null
        },
        {
          "FullMeasure": null,
          "FullWeight": null,
          "IngredientGridHeaders": null,
          "IngredientID": 68655,
          "IngredientName": "cooked OSCAR MAYER Bacon",
          "IngredientStep": 30,
          "LanguageId": 0,
          "PostPreparation": "",
          "PrePreparation": "",
          "QuantityNum": 4,
          "QuantityText": "4",
          "QuantityUnit": "slices",
          "RecipeIngredientID": 205717,
          "TrialMeasure": null,
          "TrialWeight": null
        },
        {
          "FullMeasure": null,
          "FullWeight": null,
          "IngredientGridHeaders": null,
          "IngredientID": 69214,
          "IngredientName": "tomato, cut into 4 slices",
          "IngredientStep": 40,
          "LanguageId": 0,
          "PostPreparation": "",
          "PrePreparation": "",
          "QuantityNum": 1,
          "QuantityText": "1",
          "QuantityUnit": "",
          "RecipeIngredientID": 205146,
          "TrialMeasure": null,
          "TrialWeight": null
        },
        {
          "FullMeasure": null,
          "FullWeight": null,
          "IngredientGridHeaders": null,
          "IngredientID": 68944,
          "IngredientName": "thin  avocado slices",
          "IngredientStep": 50,
          "LanguageId": 0,
          "PostPreparation": "",
          "PrePreparation": "",
          "QuantityNum": 6,
          "QuantityText": "6",
          "QuantityUnit": "",
          "RecipeIngredientID": 205474,
          "TrialMeasure": null,
          "TrialWeight": null
        },
        {
          "FullMeasure": null,
          "FullWeight": null,
          "IngredientGridHeaders": null,
          "IngredientID": 69177,
          "IngredientName": "margarine, softened",
          "IngredientStep": 60,
          "LanguageId": 0,
          "PostPreparation": "",
          "PrePreparation": "",
          "QuantityNum": 2,
          "QuantityText": "2",
          "QuantityUnit": "tsp.",
          "RecipeIngredientID": 204961,
          "TrialMeasure": null,
          "TrialWeight": null
        },
        {
          "FullMeasure": null,
          "FullWeight": null,
          "IngredientGridHeaders": null,
          "IngredientID": 69057,
          "IngredientName": "MIRACLE WHIP Dressing",
          "IngredientStep": 70,
          "LanguageId": 0,
          "PostPreparation": "",
          "PrePreparation": "",
          "QuantityNum": 2,
          "QuantityText": "2",
          "QuantityUnit": "Tbsp.",
          "RecipeIngredientID": 205859,
          "TrialMeasure": null,
          "TrialWeight": null
        },
        {
          "FullMeasure": null,
          "FullWeight": null,
          "IngredientGridHeaders": null,
          "IngredientID": 68165,
          "IngredientName": "TACO BELL® Thick & Chunky Salsa",
          "IngredientStep": 80,
          "LanguageId": 0,
          "PostPreparation": "",
          "PrePreparation": "",
          "QuantityNum": 2,
          "QuantityText": "2",
          "QuantityUnit": "Tbsp.",
          "RecipeIngredientID": 207035,
          "TrialMeasure": null,
          "TrialWeight": null
        }
      ],
      "IsHealthyLiving": false,
      "KRLId": "566912",
      "KeyIngredients": [],
      "Keywords": "Sandwich,Grilled,Easy,Dinner,Lunch,All Seasons,Grilled Cheese,Cooking for One or Two,Quick and Easy,Spicy",
      "LanguageId": 1,
      "LifeStyles": [],
      "NumberOfIngredients": 8,
      "NumberOfRatings": 9,
      "NumberOfRatingsWithComments": "9",
      "NumberOfServings": "2 servings",
      "NumberOfTrialServings": null,
      "NutritionBonus": null,
      "NutritionExchangeItemId": 0,
      "NutritionGridItems": null,
      "NutritionItems": [
        {
          "DisplayOrder": 0,
          "Document": null,
          "NutritionItemID": 384,
          "NutritionItemName": "Vitamin D",
          "Predriscriptor": "",
          "Quantity": 2,
          "Unit": "%DV       "
        },
        {
          "DisplayOrder": 0,
          "Document": null,
          "NutritionItemID": 385,
          "NutritionItemName": "Vitamin E",
          "Predriscriptor": "",
          "Quantity": 8,
          "Unit": "%DV       "
        },
        {
          "DisplayOrder": 0,
          "Document": null,
          "NutritionItemID": 388,
          "NutritionItemName": "Potassium",
          "Predriscriptor": "",
          "Quantity": 5,
          "Unit": "%DV       "
        },
        {
          "DisplayOrder": 0,
          "Document": null,
          "NutritionItemID": 390,
          "NutritionItemName": "Added Sugars",
          "Predriscriptor": "",
          "Quantity": 0,
          "Unit": "g         "
        },
        {
          "DisplayOrder": 1,
          "Document": null,
          "NutritionItemID": 371,
          "NutritionItemName": "Calories",
          "Predriscriptor": "",
          "Quantity": 410,
          "Unit": "          "
        },
        {
          "DisplayOrder": 2,
          "Document": null,
          "NutritionItemID": 376,
          "NutritionItemName": "Total fat",
          "Predriscriptor": "",
          "Quantity": 18,
          "Unit": "g         "
        },
        {
          "DisplayOrder": 3,
          "Document": null,
          "NutritionItemID": 377,
          "NutritionItemName": "Saturated fat",
          "Predriscriptor": "",
          "Quantity": 5,
          "Unit": "g         "
        },
        {
          "DisplayOrder": 4,
          "Document": null,
          "NutritionItemID": 379,
          "NutritionItemName": "Polyunsaturated Fat",
          "Predriscriptor": "",
          "Quantity": 3,
          "Unit": "g         "
        },
        {
          "DisplayOrder": 5,
          "Document": null,
          "NutritionItemID": 378,
          "NutritionItemName": "Monounsaturated Fat",
          "Predriscriptor": "",
          "Quantity": 4,
          "Unit": "g         "
        },
        {
          "DisplayOrder": 6,
          "Document": null,
          "NutritionItemID": 380,
          "NutritionItemName": "Trans Fat",
          "Predriscriptor": "",
          "Quantity": 1,
          "Unit": "g         "
        },
        {
          "DisplayOrder": 7,
          "Document": null,
          "NutritionItemID": 381,
          "NutritionItemName": "Cholesterol",
          "Predriscriptor": "",
          "Quantity": 25,
          "Unit": "mg        "
        },
        {
          "DisplayOrder": 8,
          "Document": null,
          "NutritionItemID": 389,
          "NutritionItemName": "Sodium",
          "Predriscriptor": "",
          "Quantity": 880,
          "Unit": "mg        "
        },
        {
          "DisplayOrder": 10,
          "Document": null,
          "NutritionItemID": 373,
          "NutritionItemName": "Carbohydrate",
          "Predriscriptor": "",
          "Quantity": 48,
          "Unit": "g         "
        },
        {
          "DisplayOrder": 11,
          "Document": null,
          "NutritionItemID": 374,
          "NutritionItemName": "Dietary fiber",
          "Predriscriptor": "",
          "Quantity": 4,
          "Unit": "g         "
        },
        {
          "DisplayOrder": 12,
          "Document": null,
          "NutritionItemID": 375,
          "NutritionItemName": "Sugars",
          "Predriscriptor": "",
          "Quantity": 10,
          "Unit": "g         "
        },
        {
          "DisplayOrder": 13,
          "Document": null,
          "NutritionItemID": 372,
          "NutritionItemName": "Protein",
          "Predriscriptor": "",
          "Quantity": 11,
          "Unit": "g         "
        },
        {
          "DisplayOrder": 14,
          "Document": null,
          "NutritionItemID": 382,
          "NutritionItemName": "Vitamin A",
          "Predriscriptor": "",
          "Quantity": 30,
          "Unit": "%DV       "
        },
        {
          "DisplayOrder": 15,
          "Document": null,
          "NutritionItemID": 383,
          "NutritionItemName": "Vitamin C",
          "Predriscriptor": "",
          "Quantity": 10,
          "Unit": "%DV       "
        },
        {
          "DisplayOrder": 16,
          "Document": null,
          "NutritionItemID": 386,
          "NutritionItemName": "Calcium",
          "Predriscriptor": "",
          "Quantity": 15,
          "Unit": "%DV       "
        },
        {
          "DisplayOrder": 17,
          "Document": null,
          "NutritionItemID": 387,
          "NutritionItemName": "Iron",
          "Predriscriptor": "",
          "Quantity": 15,
          "Unit": "%DV       "
        }
      ],
      "NutritionServingText": null,
      "PrepStepImage": null,
      "PreparationDescription": "Fill bread slices with Singles, bacon, tomatoes and avocados to make 2 sandwiches.  Spread outsides of sandwiches with margarine.$Grill 2 to 3 min. on each side or until Singles are melted and sandwiches are grill marked. Meanwhile, mix dressing and salsa. $Serve sandwiches with dressing mixture.",
      "PreparationPreText": "Heat greased grill to medium-low heat.",
      "PreparationSteps": [
        {
          "Description": "Fill bread slices with Singles, bacon, tomatoes and avocados to make 2 sandwiches.  Spread outsides of sandwiches with margarine.",
          "PreparationStepImage": {
            "PictureFormats": [],
            "author": null,
            "id": null,
            "imageType": null,
            "mimeType": null,
            "publicationDate": null,
            "status": null,
            "title": null,
            "type": null
          },
          "Sequence": 1
        },
        {
          "Description": "Grill 2 to 3 min. on each side or until Singles are melted and sandwiches are grill marked. Meanwhile, mix dressing and salsa. ",
          "PreparationStepImage": {
            "PictureFormats": [],
            "author": null,
            "id": null,
            "imageType": null,
            "mimeType": null,
            "publicationDate": null,
            "status": null,
            "title": null,
            "type": null
          },
          "Sequence": 2
        },
        {
          "Description": "Serve sandwiches with dressing mixture.",
          "PreparationStepImage": {
            "PictureFormats": [],
            "author": null,
            "id": null,
            "imageType": null,
            "mimeType": null,
            "publicationDate": null,
            "status": null,
            "title": null,
            "type": null
          },
          "Sequence": 3
        }
      ],
      "PreparationTime": 20,
      "Promotion": null,
      "Ratings": {
        "TotalCount": 9,
        "PageCount": 10,
        "PageNo": 1,
        "Rating": [
          {
            "Comment": "A really great tasting sandwich I love this with a tossed green salad.",
            "DisplayName": true,
            "RatingValue": 5,
            "SubmitDate": "/Date(1428775683000-0500)/",
            "UpdatedDate": "/Date(1428775683000-0500)/",
            "UserName": "kmburke12"
          },
          {
            "Comment": "The dressing mixture you dip into is excellent!",
            "DisplayName": false,
            "RatingValue": 5,
            "SubmitDate": "/Date(1389054397000-0600)/",
            "UpdatedDate": "/Date(1389054397000-0600)/",
            "UserName": "nelsonbd"
          },
          {
            "Comment": "Good but you HAVE to secure the sandwiches with skewers in order to flip them on the grill. ",
            "DisplayName": true,
            "RatingValue": 4,
            "SubmitDate": "/Date(1371738072000-0500)/",
            "UpdatedDate": "/Date(1371738072000-0500)/",
            "UserName": "clancyross"
          },
          {
            "Comment": "This was definitely a keeper! ",
            "DisplayName": true,
            "RatingValue": 4,
            "SubmitDate": "/Date(1343488473000-0500)/",
            "UpdatedDate": "/Date(1343488473000-0500)/",
            "UserName": "graphicbutterfly"
          },
          {
            "Comment": "My husband really enjoyed this sandwich. I had to modify it a bit for myself as I'm not a big avocado fan.",
            "DisplayName": true,
            "RatingValue": 4,
            "SubmitDate": "/Date(1314219773000-0500)/",
            "UpdatedDate": "/Date(1314219773000-0500)/",
            "UserName": "chica4christ00"
          },
          {
            "Comment": "Wonderful easy meal. My husband and I loved it and made double to bring to work the next day! It was great!",
            "DisplayName": true,
            "RatingValue": 5,
            "SubmitDate": "/Date(1312476862000-0500)/",
            "UpdatedDate": "/Date(1312476862000-0500)/",
            "UserName": "rebeccaod"
          },
          {
            "Comment": "This is delicious! The sauce sounded a little weird, but that's what really takes the sandwich from good to amazing! A little sweet and a little zingy. Even the kids liked it so I'll definitely be making this again - it's my new favorite!",
            "DisplayName": true,
            "RatingValue": 5,
            "SubmitDate": "/Date(1312421037000-0500)/",
            "UpdatedDate": "/Date(1312421037000-0500)/",
            "UserName": "Tate's Mom"
          },
          {
            "Comment": "Very yummy and great for summer dinner or lunch. But I still prefer mayo vs salad dressing, it's way tastier.",
            "DisplayName": true,
            "RatingValue": 5,
            "SubmitDate": "/Date(1312320155000-0500)/",
            "UpdatedDate": "/Date(1312320155000-0500)/",
            "UserName": "lala2131008"
          },
          {
            "Comment": "Quick and easy after a long day at work.  I was a little hesistant about the dip, but it definitely made this sandwich a winner.  I used sharp cheddar cheese and will definitely make this again again.",
            "DisplayName": true,
            "RatingValue": 5,
            "SubmitDate": "/Date(1312253398000-0500)/",
            "UpdatedDate": "/Date(1312253398000-0500)/",
            "UserName": "liltowsongirl02"
          }
        ]
      },
      "RecipeDisplayFormatId": 0,
      "RecipeId": 125462,
      "RecipeName": "Avocado-Bacon Grilled Cheese",
      "RecipeType": 0,
      "RelatedData": {
        "RelatedBrands": null,
        "RelatedProducts": null,
        "RelatedRecipes": {
          "DefaultTopCount": 5,
          "Recipe": [
            {
              "AverageRating": 5,
              "HasVideo": false,
              "IsHealthyLiving": false,
              "NumberOfRatings": 5,
              "PhotoName": "opendeploy/562619_1_1_retail-490895db479d537722cad69792492a0ea434e272_306x204.jpg",
              "PhotoUrl": "http://assets.kraftfoods.com/recipe_images/opendeploy/opendeploy/562619_1_1_retail-490895db479d537722cad69792492a0ea434e272_306x204.jpg",
              "RecipeId": 114504,
              "RecipeName": "Cabo Beach Cheeseburger",
              "SEOName": "cabo-beach-cheeseburger-114504",
              "ThumbnailPhoto": null
            },
            {
              "AverageRating": 4.9,
              "HasVideo": false,
              "IsHealthyLiving": false,
              "NumberOfRatings": 21,
              "PhotoName": "62803.jpg",
              "PhotoUrl": "http://assets.kraftfoods.com/recipe_images/opendeploy/62803.jpg",
              "RecipeId": 62803,
              "RecipeName": "Classic California Cobb",
              "SEOName": "classic-california-cobb-62803",
              "ThumbnailPhoto": null
            },
            {
              "AverageRating": 4.5,
              "HasVideo": false,
              "IsHealthyLiving": false,
              "NumberOfRatings": 43,
              "PhotoName": "Cobb_Salad.jpg",
              "PhotoUrl": "http://assets.kraftfoods.com/recipe_images/opendeploy/Cobb_Salad.jpg",
              "RecipeId": 55635,
              "RecipeName": "Cobb Salad",
              "SEOName": "cobb-salad-55635",
              "ThumbnailPhoto": null
            },
            {
              "AverageRating": 5,
              "HasVideo": false,
              "IsHealthyLiving": false,
              "NumberOfRatings": 2,
              "PhotoName": "opendeploy/556630_1_1_retail-518aaf4b1a53b18d480a920fd745e611f195332d_306x204.jpg",
              "PhotoUrl": "http://assets.kraftfoods.com/recipe_images/opendeploy/opendeploy/556630_1_1_retail-518aaf4b1a53b18d480a920fd745e611f195332d_306x204.jpg",
              "RecipeId": 113130,
              "RecipeName": "Avocado, Bacon, Ham & Cheese Sandwich",
              "SEOName": "avocado-bacon-ham-cheese-sandwich-113130",
              "ThumbnailPhoto": null
            },
            {
              "AverageRating": 5,
              "HasVideo": false,
              "IsHealthyLiving": false,
              "NumberOfRatings": 1,
              "PhotoName": "Jack-Guac-Jibarito-54360.jpg",
              "PhotoUrl": "http://assets.kraftfoods.com/recipe_images/opendeploy/Jack-Guac-Jibarito-54360.jpg",
              "RecipeId": 139051,
              "RecipeName": "Jack & Guac Jibarito",
              "SEOName": "jack-guac-jibarito-139051",
              "ThumbnailPhoto": null
            }
          ],
          "TotalCount": 4943
        }
      },
      "RiseIngredients": [
        {
          "IngredientCategory": "KRL",
          "IngredientId": 68165,
          "IngredientIndustrySector": "Retail",
          "IngredientType": "KHC",
          "ProductId": "00021000046959",
          "RecipeId": 125462
        },
        {
          "IngredientCategory": "KRL",
          "IngredientId": 68221,
          "IngredientIndustrySector": "Retail",
          "IngredientType": "KHC",
          "ProductId": "00021000604647",
          "RecipeId": 125462
        },
        {
          "IngredientCategory": "KRL",
          "IngredientId": 68655,
          "IngredientIndustrySector": "Retail",
          "IngredientType": "Inedible",
          "ProductId": "00044700071205",
          "RecipeId": 125462
        },
        {
          "IngredientCategory": "KRL",
          "IngredientId": 68944,
          "IngredientIndustrySector": "Retail",
          "IngredientType": "Inedible",
          "ProductId": null,
          "RecipeId": 125462
        },
        {
          "IngredientCategory": "KRL",
          "IngredientId": 69057,
          "IngredientIndustrySector": "Retail",
          "IngredientType": "Inedible",
          "ProductId": "00021000026494",
          "RecipeId": 125462
        },
        {
          "IngredientCategory": "KRL",
          "IngredientId": 69177,
          "IngredientIndustrySector": "Retail",
          "IngredientType": "Inedible",
          "ProductId": null,
          "RecipeId": 125462
        },
        {
          "IngredientCategory": "KRL",
          "IngredientId": 69214,
          "IngredientIndustrySector": "Retail",
          "IngredientType": "Inedible",
          "ProductId": null,
          "RecipeId": 125462
        },
        {
          "IngredientCategory": "KRL",
          "IngredientId": 72056,
          "IngredientIndustrySector": "Retail",
          "IngredientType": "Inedible",
          "ProductId": null,
          "RecipeId": 125462
        }
      ],
      "RiseTaxonomy": [
        {
          "ParentTaxonomyId": 0,
          "RecipeId": 125462,
          "ResourceName": "Recipe",
          "TaxonomyId": 65,
          "TaxonomyName": "Entrées",
          "TaxonomyTypeId": 2,
          "TaxonomyTypeName": "Meal Part"
        },
        {
          "ParentTaxonomyId": 43,
          "RecipeId": 125462,
          "ResourceName": "Recipe",
          "TaxonomyId": 149,
          "TaxonomyName": "Grilled Cheese",
          "TaxonomyTypeId": 3,
          "TaxonomyTypeName": "Dish Type"
        },
        {
          "ParentTaxonomyId": 0,
          "RecipeId": 125462,
          "ResourceName": "Recipe",
          "TaxonomyId": 302,
          "TaxonomyName": "BBQ/Grilling",
          "TaxonomyTypeId": 5,
          "TaxonomyTypeName": "Occasion-Theme"
        }
      ],
      "Riserecipe": [
        {
          "GRIN": 566912,
          "RecipeId": 125462,
          "RecipeIndustrySector": "Retail",
          "RecipeType": "Internal"
        }
      ],
      "RomanceText": "Bring on the bacon with our delicious Avocado-Bacon Grilled Cheese! Add a little zing to your lunchtime bacon grilled cheese sandwich with chunky salsa.",
      "SEOName": "avocado-bacon-grilled-cheese-125462",
      "Tips": [
        {
          "RecipeId": 125462,
          "Sequence": 10,
          "TipDescription": "Serve with a cold glass of milk and a mixed green salad tossed with your favorite KRAFT Lite Dressing, such as CATALINA.",
          "TipID": 1,
          "TipName": "Serving Suggestion"
        },
        {
          "RecipeId": 125462,
          "Sequence": 20,
          "TipDescription": "Prepare using KRAFT 2% Milk Singles and MIRACLE WHIP Light Dressing.",
          "TipID": 2,
          "TipName": "Variation"
        },
        {
          "RecipeId": 125462,
          "Sequence": 30,
          "TipDescription": "Texas toast sandwich bread is a thick-cut bread.",
          "TipID": 3,
          "TipName": "Food Facts"
        }
      ],
      "TotalTime": 20,
      "TradeMarkInfo": "TACO BELL® and Logo are trademarks owned and licensed by Taco Bell Corp.",
      "Video": [],
      "Yield": "2 servings"
    }
  ]
}