{
  "Metadata": {
    "PageCount": 1,
    "PageNo": 0,
    "TotalCount": 0
  },
  "Recipes": [
    {
      "AdServingKeywords": "Bacon,Cheese,Cream Cheese,Meat,Onion,Vegetables,Appetizer,All Seasons,Oscar Mayer,Philadelphia,Velveeta",
      "AlternateLanguageRecipes": [],
      "Assets": [],
      "AverageRating": 0,
      "BrandId": 1,
      "Branding": null,
      "CSSSkins": null,
      "CarbCounter": null,
      "Categories": [
        {
          "CategoryID": 6,
          "CategoryName": "Appetizers/Snacks",
          "CategoryRank": 1,
          "SubCategoryID": 128,
          "SubCategoryName": "Spreads & Cheeseballs",
          "SubCategoryRank": 120
        },
        {
          "CategoryID": 11,
          "CategoryName": "Primary",
          "CategoryRank": 0,
          "SubCategoryID": 96,
          "SubCategoryName": "Appetizers & Snacks",
          "SubCategoryRank": 10
        },
        {
          "CategoryID": 748,
          "CategoryName": "Finger Food, Dips & Appetisers",
          "CategoryRank": 2,
          "SubCategoryID": 2524,
          "SubCategoryName": "Cold",
          "SubCategoryRank": 1
        }
      ],
      "Classifications": [],
      "ComplimentaryRecipes": null,
      "CookingMethod": null,
      "Copyright": null,
      "Courses": [
        "Appetizers"
      ],
      "DietExchange": null,
      "DishDetails": [
        {
          "Text": "appetizers",
          "Url": "/recipes/appetizers/main.aspx"
        },
        {
          "Text": "cold appetizers",
          "Url": "/recipes/appetizers/coldappetizers.aspx"
        },
        {
          "Text": "cheese plates",
          "Url": "/recipes/appetizers/entertainingcheeseplates.aspx"
        },
        {
          "Text": "hot appetizers",
          "Url": "/recipes/appetizers/hotappetizers.aspx"
        },
        {
          "Text": "quick appetizers",
          "Url": "/recipes/appetizers/quick.aspx"
        },
        {
          "Text": "salsa recipes",
          "Url": "/recipes/appetizers/salsa-recipes/main.aspx"
        },
        {
          "Text": "seafood appetizers",
          "Url": "/recipes/dinner/seafood/appetizers/main.aspx"
        },
        {
          "Text": "dip recipes",
          "Url": "/recipes/appetizers/dip-recipes/main.aspx"
        }
      ],
      "EndDate": "/Date(-62135575200000-0600)/",
      "HasVideo": false,
      "Ingredients": [
        {
          "FullMeasure": "1/4 lb.",
          "FullWeight": "",
          "IngredientGridHeaders": null,
          "IngredientID": 754,
          "IngredientName": "VELVEETA®",
          "IngredientStep": 10,
          "LanguageId": 0,
          "PostPreparation": ", cut into 1/2-inch cubes",
          "PrePreparation": "(4 oz.)",
          "QuantityNum": 0,
          "QuantityText": "1/4",
          "QuantityUnit": "lb.",
          "RecipeIngredientID": 4401964,
          "TrialMeasure": "",
          "TrialWeight": ""
        },
        {
          "FullMeasure": "4 oz.",
          "FullWeight": "",
          "IngredientGridHeaders": null,
          "IngredientID": 628,
          "IngredientName": "PHILADELPHIA Cream Cheese",
          "IngredientStep": 20,
          "LanguageId": 0,
          "PostPreparation": ", softened",
          "PrePreparation": "(1/2 of  8-oz. pkg.)",
          "QuantityNum": 4,
          "QuantityText": "4",
          "QuantityUnit": "oz.",
          "RecipeIngredientID": 4401966,
          "TrialMeasure": "",
          "TrialWeight": ""
        },
        {
          "FullMeasure": "4 slices",
          "FullWeight": "",
          "IngredientGridHeaders": null,
          "IngredientID": 578,
          "IngredientName": "OSCAR MAYER Bacon",
          "IngredientStep": 30,
          "LanguageId": 0,
          "PostPreparation": ", cooked, crumbled",
          "PrePreparation": "",
          "QuantityNum": 4,
          "QuantityText": "4",
          "QuantityUnit": "slices",
          "RecipeIngredientID": 4401968,
          "TrialMeasure": "",
          "TrialWeight": ""
        },
        {
          "FullMeasure": "3 Tbsp.",
          "FullWeight": "",
          "IngredientGridHeaders": null,
          "IngredientID": 1529,
          "IngredientName": "red onion",
          "IngredientStep": 40,
          "LanguageId": 0,
          "PostPreparation": "s",
          "PrePreparation": "finely chopped",
          "QuantityNum": 3,
          "QuantityText": "3",
          "QuantityUnit": "Tbsp.",
          "RecipeIngredientID": 4401967,
          "TrialMeasure": "",
          "TrialWeight": ""
        },
        {
          "FullMeasure": "1/4 cup",
          "FullWeight": "",
          "IngredientGridHeaders": null,
          "IngredientID": 1119,
          "IngredientName": "fresh parsley",
          "IngredientStep": 50,
          "LanguageId": 0,
          "PostPreparation": ", divided",
          "PrePreparation": "chopped",
          "QuantityNum": 0,
          "QuantityText": "1/4",
          "QuantityUnit": "cup",
          "RecipeIngredientID": 4401965,
          "TrialMeasure": "",
          "TrialWeight": ""
        },
        {
          "FullMeasure": "1/2 tsp.",
          "FullWeight": "",
          "IngredientGridHeaders": null,
          "IngredientID": 1388,
          "IngredientName": "paprika",
          "IngredientStep": 60,
          "LanguageId": 0,
          "PostPreparation": "",
          "PrePreparation": "",
          "QuantityNum": 0,
          "QuantityText": "1/2",
          "QuantityUnit": "tsp.",
          "RecipeIngredientID": 4401963,
          "TrialMeasure": "",
          "TrialWeight": ""
        }
      ],
      "IsHealthyLiving": false,
      "KRLId": "564511",
      "KeyIngredients": [
        "Bacon",
        "Cheese",
        "Cream Cheese",
        "Meat",
        "Onion",
        "Vegetables"
      ],
      "Keywords": "onions,OSCAR MAYER Bacon,paprika,PHILADELPHIA Cream Cheese,pork,american cheese,bacon,cheese,cream cheese,meat,VELVEETA,parsley,Appetizer,All Seasons",
      "LanguageId": 1,
      "LifeStyles": [],
      "NumberOfIngredients": 6,
      "NumberOfRatings": 0,
      "NumberOfRatingsWithComments": "0",
      "NumberOfServings": "1-1/4 cups or 10 servings, 2 Tbsp. each",
      "NumberOfTrialServings": "",
      "NutritionBonus": null,
      "NutritionExchangeItemId": 0,
      "NutritionGridItems": null,
      "NutritionItems": [
        {
          "DisplayOrder": 1,
          "Document": null,
          "NutritionItemID": 3,
          "NutritionItemName": "Calories",
          "Predriscriptor": "",
          "Quantity": 90,
          "Unit": "          "
        },
        {
          "DisplayOrder": 2,
          "Document": "fat_cholesterol.html",
          "NutritionItemID": 4,
          "NutritionItemName": "Total fat",
          "Predriscriptor": "",
          "Quantity": 7,
          "Unit": "g         "
        },
        {
          "DisplayOrder": 3,
          "Document": "fat_cholesterol.html",
          "NutritionItemID": 9,
          "NutritionItemName": "Saturated fat",
          "Predriscriptor": "",
          "Quantity": 4,
          "Unit": "g         "
        },
        {
          "DisplayOrder": 7,
          "Document": "fat_cholesterol.html",
          "NutritionItemID": 2,
          "NutritionItemName": "Cholesterol",
          "Predriscriptor": "",
          "Quantity": 25,
          "Unit": "mg        "
        },
        {
          "DisplayOrder": 8,
          "Document": "sodium.html",
          "NutritionItemID": 8,
          "NutritionItemName": "Sodium",
          "Predriscriptor": "",
          "Quantity": 250,
          "Unit": "mg        "
        },
        {
          "DisplayOrder": 10,
          "Document": "carbs_sugars_fiber.html",
          "NutritionItemID": 1,
          "NutritionItemName": "Carbohydrate",
          "Predriscriptor": "",
          "Quantity": 2,
          "Unit": "g         "
        },
        {
          "DisplayOrder": 11,
          "Document": "carbs_sugars_fiber.html",
          "NutritionItemID": 7,
          "NutritionItemName": "Dietary fiber",
          "Predriscriptor": "",
          "Quantity": 0,
          "Unit": "g         "
        },
        {
          "DisplayOrder": 12,
          "Document": "carbs_sugars_fiber.html",
          "NutritionItemID": 5,
          "NutritionItemName": "Sugars",
          "Predriscriptor": "",
          "Quantity": 2,
          "Unit": "g         "
        },
        {
          "DisplayOrder": 13,
          "Document": null,
          "NutritionItemID": 6,
          "NutritionItemName": "Protein",
          "Predriscriptor": "",
          "Quantity": 3,
          "Unit": "g         "
        },
        {
          "DisplayOrder": 14,
          "Document": null,
          "NutritionItemID": 10,
          "NutritionItemName": "Vitamin A",
          "Predriscriptor": "",
          "Quantity": 8,
          "Unit": "%DV       "
        },
        {
          "DisplayOrder": 15,
          "Document": null,
          "NutritionItemID": 11,
          "NutritionItemName": "Vitamin C",
          "Predriscriptor": "",
          "Quantity": 4,
          "Unit": "%DV       "
        },
        {
          "DisplayOrder": 16,
          "Document": "dairy_and_calcium.html",
          "NutritionItemID": 12,
          "NutritionItemName": "Calcium",
          "Predriscriptor": "",
          "Quantity": 10,
          "Unit": "%DV       "
        },
        {
          "DisplayOrder": 17,
          "Document": null,
          "NutritionItemID": 13,
          "NutritionItemName": "Iron",
          "Predriscriptor": "",
          "Quantity": 0,
          "Unit": "%DV       "
        }
      ],
      "NutritionServingText": " ",
      "PrepStepImage": null,
      "PreparationDescription": "Process VELVEETA and cream cheese in food processor until well blended; transfer to medium bowl.  Stir in bacon, onions and 2 Tbsp. parsley.  Place on large piece of plastic wrap.$Roll into log; wrap tightly in plastic wrap.  Refrigerate 2 hours or until firm.$Remove plastic wrap. Roll log in remaining parsley; sprinkle with paprika.  ",
      "PreparationPreText": "",
      "PreparationSteps": [
        {
          "Description": "Process VELVEETA and cream cheese in food processor until well blended; transfer to medium bowl.  Stir in bacon, onions and 2 Tbsp. parsley.  Place on large piece of plastic wrap.",
          "PreparationStepImage": {
            "PictureFormats": [],
            "author": null,
            "id": null,
            "imageType": null,
            "mimeType": null,
            "publicationDate": null,
            "status": null,
            "title": null,
            "type": null
          },
          "Sequence": 1
        },
        {
          "Description": "Roll into log; wrap tightly in plastic wrap.  Refrigerate 2 hours or until firm.",
          "PreparationStepImage": {
            "PictureFormats": [],
            "author": null,
            "id": null,
            "imageType": null,
            "mimeType": null,
            "publicationDate": null,
            "status": null,
            "title": null,
            "type": null
          },
          "Sequence": 2
        },
        {
          "Description": "Remove plastic wrap. Roll log in remaining parsley; sprinkle with paprika.  ",
          "PreparationStepImage": {
            "PictureFormats": [],
            "author": null,
            "id": null,
            "imageType": null,
            "mimeType": null,
            "publicationDate": null,
            "status": null,
            "title": null,
            "type": null
          },
          "Sequence": 3
        }
      ],
      "PreparationTime": 10,
      "Promotion": null,
      "Ratings": {
        "TotalCount": 0,
        "PageCount": 10,
        "PageNo": 1,
        "Rating": []
      },
      "RecipeDisplayFormatId": 5,
      "RecipeId": 156284,
      "RecipeName": "Bacon Cheese Log Appetizer",
      "RecipeType": 0,
      "RelatedData": {
        "RelatedBrands": null,
        "RelatedProducts": null,
        "RelatedRecipes": {
          "DefaultTopCount": 5,
          "Recipe": [
            {
              "AverageRating": 4,
              "HasVideo": false,
              "IsHealthyLiving": true,
              "NumberOfRatings": 42,
              "PhotoName": "52908.jpg",
              "PhotoUrl": "http://assets.kraftfoods.com/recipe_images/opendeploy/52908.jpg",
              "RecipeId": 52908,
              "RecipeName": "Ants on a Log",
              "SEOName": "ants-on-a-log-52908",
              "ThumbnailPhoto": null
            },
            {
              "AverageRating": 4,
              "HasVideo": false,
              "IsHealthyLiving": false,
              "NumberOfRatings": 1,
              "PhotoName": "Cheese_and_Dill_Log.jpg",
              "PhotoUrl": "http://assets.kraftfoods.com/recipe_images/opendeploy/Cheese_and_Dill_Log.jpg",
              "RecipeId": 51429,
              "RecipeName": "Cheese and Dill Log",
              "SEOName": "cheese-dill-log-51429",
              "ThumbnailPhoto": null
            },
            {
              "AverageRating": 4.8,
              "HasVideo": false,
              "IsHealthyLiving": false,
              "NumberOfRatings": 4,
              "PhotoName": "57122.jpg",
              "PhotoUrl": "http://assets.kraftfoods.com/recipe_images/opendeploy/57122.jpg",
              "RecipeId": 57122,
              "RecipeName": "Nutty Cheese Log",
              "SEOName": "nutty-cheese-log-57122",
              "ThumbnailPhoto": null
            },
            {
              "AverageRating": 4.5,
              "HasVideo": true,
              "IsHealthyLiving": false,
              "NumberOfRatings": 397,
              "PhotoName": "62581.jpg",
              "PhotoUrl": "http://assets.kraftfoods.com/recipe_images/opendeploy/62581.jpg",
              "RecipeId": 62581,
              "RecipeName": "Make-Ahead Spinach Phyllo Roll-Ups",
              "SEOName": "make-ahead-spinach-phyllo-roll-ups-62581",
              "ThumbnailPhoto": null
            },
            {
              "AverageRating": 4.3,
              "HasVideo": false,
              "IsHealthyLiving": false,
              "NumberOfRatings": 95,
              "PhotoName": "75334.jpg",
              "PhotoUrl": "http://assets.kraftfoods.com/recipe_images/opendeploy/75334.jpg",
              "RecipeId": 75334,
              "RecipeName": "Seasoned Pizza Rolls",
              "SEOName": "seasoned-pizza-rolls-75334",
              "ThumbnailPhoto": null
            }
          ],
          "TotalCount": 4417
        }
      },
      "RiseIngredients": [],
      "RiseTaxonomy": [],
      "Riserecipe": [
        {
          "GRIN": 564511,
          "RecipeId": 156284,
          "RecipeIndustrySector": "Retail",
          "RecipeType": "Internal"
        }
      ],
      "RomanceText": "When in doubt, serve something that's guaranteed to please everyone! This appetizer is made with herbed cheese and crispy crumbled bacon.",
      "SEOName": "bacon-cheese-log-appetizer-156284",
      "Tips": [
        {
          "RecipeId": 156284,
          "Sequence": 10,
          "TipDescription": "Prepare using 2% Milk VELVEETA and PHILADELPHIA Neufchatel Cheese.",
          "TipID": 2,
          "TipName": "Variation  "
        },
        {
          "RecipeId": 156284,
          "Sequence": 20,
          "TipDescription": "Refrigerate leftovers.  Use as a topper for hot baked potatoes.",
          "TipID": 1,
          "TipName": "Creative Leftovers"
        },
        {
          "RecipeId": 156284,
          "Sequence": 30,
          "TipDescription": "Serve with assorted crackers.",
          "TipID": 3,
          "TipName": "Serving Suggestion"
        }
      ],
      "TotalTime": 130,
      "TradeMarkInfo": null,
      "Video": [],
      "Yield": "Makes 1-1/4 cups or 10 servings, 2 Tbsp. each."
    }
  ]
}