{
  "Metadata": {
    "PageCount": 1,
    "PageNo": 0,
    "TotalCount": 0
  },
  "Recipes": [
    {
      "AdServingKeywords": "Appetizer,Bacon,Cheddar,Cheese,Cream Cheese,Lettuce,Meat,Poultry,Tomato,Turkey,Vegetables,Intermediate,Asian,All Seasons,Kraft Cheese,Kraft Deli Fresh,Oscar Mayer,Philadelphia",
      "AlternateLanguageRecipes": [],
      "Assets": [
        {
          "PictureFormats": [
            {
              "rendition": "300x200",
              "url": "http://assets.kraftfoods.com/recipe_images/177789_KFT_67064v0E_WP.jpg"
            }
          ],
          "author": null,
          "id": "0",
          "imageType": "LANDSCAPE",
          "mimeType": null,
          "publicationDate": null,
          "status": "1",
          "title": "177789_KFT_67064v0E_WP.jpg",
          "type": "image"
        }
      ],
      "AverageRating": 0,
      "BrandId": 1,
      "Branding": null,
      "CSSSkins": null,
      "CarbCounter": null,
      "Categories": [
        {
          "CategoryID": 6,
          "CategoryName": "Appetizers/Snacks",
          "CategoryRank": 1,
          "SubCategoryID": 443,
          "SubCategoryName": "Kabobs/Roll-Ups",
          "SubCategoryRank": 50
        },
        {
          "CategoryID": 11,
          "CategoryName": "Primary",
          "CategoryRank": 0,
          "SubCategoryID": 96,
          "SubCategoryName": "Appetizers & Snacks",
          "SubCategoryRank": 10
        },
        {
          "CategoryID": 751,
          "CategoryName": "Breads, Sandwiches, Wraps & Burgers",
          "CategoryRank": 5,
          "SubCategoryID": 2533,
          "SubCategoryName": "Specialty",
          "SubCategoryRank": 1
        },
        {
          "CategoryID": 756,
          "CategoryName": "Main Meals (Meat / Seafood / Egg)",
          "CategoryRank": 10,
          "SubCategoryID": 2562,
          "SubCategoryName": "Chicken",
          "SubCategoryRank": 1
        },
        {
          "CategoryID": 756,
          "CategoryName": "Main Meals (Meat / Seafood / Egg)",
          "CategoryRank": 10,
          "SubCategoryID": 2563,
          "SubCategoryName": "Beef",
          "SubCategoryRank": 1
        },
        {
          "CategoryID": 756,
          "CategoryName": "Main Meals (Meat / Seafood / Egg)",
          "CategoryRank": 10,
          "SubCategoryID": 2564,
          "SubCategoryName": "Pork",
          "SubCategoryRank": 1
        },
        {
          "CategoryID": 1761,
          "CategoryName": "Philly Appetizers",
          "CategoryRank": 0,
          "SubCategoryID": 16849,
          "SubCategoryName": "Spread Cream Cheese",
          "SubCategoryRank": 0
        },
        {
          "CategoryID": 1761,
          "CategoryName": "Philly Appetizers",
          "CategoryRank": 0,
          "SubCategoryID": 16853,
          "SubCategoryName": "Use for All",
          "SubCategoryRank": 0
        }
      ],
      "Classifications": [],
      "ComplimentaryRecipes": [
        {
          "AverageRating": 0,
          "HasVideo": false,
          "IsHealthyLiving": false,
          "NumberOfRatings": 0,
          "PhotoName": null,
          "PhotoUrl": null,
          "RecipeId": 60552,
          "RecipeName": null,
          "SEOName": "crunchy-asian-salad-60552",
          "ThumbnailPhoto": "opendeploy/60552-51e0d3dbd930a5d087ccffea8e0b212cbc11a568_306x204.jpg"
        }
      ],
      "CookingMethod": null,
      "Copyright": null,
      "Courses": [
        "Appetizers"
      ],
      "DietExchange": null,
      "DishDetails": [
        {
          "Text": "appetizers",
          "Url": "/recipes/appetizers/main.aspx"
        },
        {
          "Text": "cold appetizers",
          "Url": "/recipes/appetizers/coldappetizers.aspx"
        },
        {
          "Text": "cheese plates",
          "Url": "/recipes/appetizers/entertainingcheeseplates.aspx"
        },
        {
          "Text": "hot appetizers",
          "Url": "/recipes/appetizers/hotappetizers.aspx"
        },
        {
          "Text": "quick appetizers",
          "Url": "/recipes/appetizers/quick.aspx"
        },
        {
          "Text": "salsa recipes",
          "Url": "/recipes/appetizers/salsa-recipes/main.aspx"
        },
        {
          "Text": "seafood appetizers",
          "Url": "/recipes/dinner/seafood/appetizers/main.aspx"
        },
        {
          "Text": "dip recipes",
          "Url": "/recipes/appetizers/dip-recipes/main.aspx"
        }
      ],
      "EndDate": "/Date(-62135575200000-0600)/",
      "HasVideo": false,
      "Ingredients": [
        {
          "FullMeasure": "2 cups",
          "FullWeight": "",
          "IngredientGridHeaders": null,
          "IngredientID": 26076,
          "IngredientName": "short-grain white rice",
          "IngredientStep": 10,
          "LanguageId": 0,
          "PostPreparation": "",
          "PrePreparation": "hot cooked",
          "QuantityNum": 2,
          "QuantityText": "2",
          "QuantityUnit": "cups",
          "RecipeIngredientID": 6478246,
          "TrialMeasure": "",
          "TrialWeight": ""
        },
        {
          "FullMeasure": "1 Tbsp.",
          "FullWeight": "",
          "IngredientGridHeaders": null,
          "IngredientID": 31925,
          "IngredientName": "seasoned rice vinegar",
          "IngredientStep": 20,
          "LanguageId": 0,
          "PostPreparation": "",
          "PrePreparation": "",
          "QuantityNum": 1,
          "QuantityText": "1",
          "QuantityUnit": "Tbsp.",
          "RecipeIngredientID": 6478250,
          "TrialMeasure": "",
          "TrialWeight": ""
        },
        {
          "FullMeasure": "1/4  cup",
          "FullWeight": "",
          "IngredientGridHeaders": null,
          "IngredientID": 5913,
          "IngredientName": "PHILADELPHIA Cream Cheese Spread",
          "IngredientStep": 30,
          "LanguageId": 0,
          "PostPreparation": "",
          "PrePreparation": "(1/4 of 8-oz. tub)",
          "QuantityNum": 0,
          "QuantityText": "1/4 ",
          "QuantityUnit": "cup",
          "RecipeIngredientID": 6478251,
          "TrialMeasure": "",
          "TrialWeight": ""
        },
        {
          "FullMeasure": "2 sheets",
          "FullWeight": "",
          "IngredientGridHeaders": null,
          "IngredientID": 23339,
          "IngredientName": "nori (dried seaweed)",
          "IngredientStep": 40,
          "LanguageId": 0,
          "PostPreparation": "",
          "PrePreparation": "",
          "QuantityNum": 2,
          "QuantityText": "2",
          "QuantityUnit": "sheets",
          "RecipeIngredientID": 6478252,
          "TrialMeasure": "",
          "TrialWeight": ""
        },
        {
          "FullMeasure": "8",
          "FullWeight": "",
          "IngredientGridHeaders": null,
          "IngredientID": 1284,
          "IngredientName": "leaf lettuce",
          "IngredientStep": 50,
          "LanguageId": 0,
          "PostPreparation": " leaves",
          "PrePreparation": "",
          "QuantityNum": 7,
          "QuantityText": "8",
          "QuantityUnit": "",
          "RecipeIngredientID": 6478243,
          "TrialMeasure": "",
          "TrialWeight": ""
        },
        {
          "FullMeasure": "4",
          "FullWeight": "",
          "IngredientGridHeaders": null,
          "IngredientID": 7477,
          "IngredientName": "KRAFT Big Slice Sharp Cheddar Cheese Slice",
          "IngredientStep": 60,
          "LanguageId": 0,
          "PostPreparation": "s",
          "PrePreparation": "",
          "QuantityNum": 4,
          "QuantityText": "4",
          "QuantityUnit": "",
          "RecipeIngredientID": 6478244,
          "TrialMeasure": "",
          "TrialWeight": ""
        },
        {
          "FullMeasure": "8 slices",
          "FullWeight": "",
          "IngredientGridHeaders": null,
          "IngredientID": 4726,
          "IngredientName": "OSCAR MAYER Hard Salami",
          "IngredientStep": 70,
          "LanguageId": 0,
          "PostPreparation": "",
          "PrePreparation": "",
          "QuantityNum": 7,
          "QuantityText": "8",
          "QuantityUnit": "slices",
          "RecipeIngredientID": 6478247,
          "TrialMeasure": "",
          "TrialWeight": ""
        },
        {
          "FullMeasure": "1",
          "FullWeight": "",
          "IngredientGridHeaders": null,
          "IngredientID": 4035,
          "IngredientName": "plum tomato",
          "IngredientStep": 80,
          "LanguageId": 0,
          "PostPreparation": ", seeded, cut into thin strips",
          "PrePreparation": "",
          "QuantityNum": 1,
          "QuantityText": "1",
          "QuantityUnit": "",
          "RecipeIngredientID": 6478245,
          "TrialMeasure": "",
          "TrialWeight": ""
        },
        {
          "FullMeasure": "2 slices",
          "FullWeight": "",
          "IngredientGridHeaders": null,
          "IngredientID": 578,
          "IngredientName": "OSCAR MAYER Bacon",
          "IngredientStep": 90,
          "LanguageId": 0,
          "PostPreparation": ", crumbled",
          "PrePreparation": "cooked",
          "QuantityNum": 2,
          "QuantityText": "2",
          "QuantityUnit": "slices",
          "RecipeIngredientID": 6478248,
          "TrialMeasure": "",
          "TrialWeight": ""
        },
        {
          "FullMeasure": "12 slices",
          "FullWeight": "",
          "IngredientGridHeaders": null,
          "IngredientID": 27529,
          "IngredientName": "OSCAR MAYER Deli Fresh Bold Cracked Black Pepper Turkey Breast",
          "IngredientStep": 100,
          "LanguageId": 0,
          "PostPreparation": "",
          "PrePreparation": "",
          "QuantityNum": 12,
          "QuantityText": "12",
          "QuantityUnit": "slices",
          "RecipeIngredientID": 6478249,
          "TrialMeasure": "",
          "TrialWeight": ""
        }
      ],
      "IsHealthyLiving": false,
      "KRLId": "574718",
      "KeyIngredients": [
        "Bacon",
        "Cheddar",
        "Cheese",
        "Cream Cheese",
        "Fruit",
        "Lettuce",
        "Meat",
        "Tomato",
        "Vegetables"
      ],
      "Keywords": "OSCAR MAYER,OSCAR MAYER Bacon,OSCAR MAYER Salami,OSCAR MAYER Turkey,pork,rice,bacon,cheddar cheese,cheese,cold cuts,cream cheese,KRAFT Cheddar Cheese,lettuce,meat,salami,sausage,tomatoes,turkey,vinegar,cheese slices,PHILADELPHIA Cream Cheese Spre,lunch meat,KRAFT Cheese,rice vinegar,nori,Deli Fresh,Appetizer,Intermediate,Asian,All Seasons",
      "LanguageId": 1,
      "LifeStyles": [],
      "NumberOfIngredients": 10,
      "NumberOfRatings": 0,
      "NumberOfRatingsWithComments": "0",
      "NumberOfServings": "8 servings, 2 pieces each",
      "NumberOfTrialServings": "",
      "NutritionBonus": null,
      "NutritionExchangeItemId": 0,
      "NutritionGridItems": null,
      "NutritionItems": [
        {
          "DisplayOrder": 1,
          "Document": null,
          "NutritionItemID": 3,
          "NutritionItemName": "Calories",
          "Predriscriptor": "",
          "Quantity": 190,
          "Unit": "          "
        },
        {
          "DisplayOrder": 2,
          "Document": "fat_cholesterol.html",
          "NutritionItemID": 4,
          "NutritionItemName": "Total fat",
          "Predriscriptor": "",
          "Quantity": 8,
          "Unit": "g         "
        },
        {
          "DisplayOrder": 3,
          "Document": "fat_cholesterol.html",
          "NutritionItemID": 9,
          "NutritionItemName": "Saturated fat",
          "Predriscriptor": "",
          "Quantity": 4.5,
          "Unit": "g         "
        },
        {
          "DisplayOrder": 7,
          "Document": "fat_cholesterol.html",
          "NutritionItemID": 2,
          "NutritionItemName": "Cholesterol",
          "Predriscriptor": "",
          "Quantity": 30,
          "Unit": "mg        "
        },
        {
          "DisplayOrder": 8,
          "Document": "sodium.html",
          "NutritionItemID": 8,
          "NutritionItemName": "Sodium",
          "Predriscriptor": "",
          "Quantity": 450,
          "Unit": "mg        "
        },
        {
          "DisplayOrder": 10,
          "Document": "carbs_sugars_fiber.html",
          "NutritionItemID": 1,
          "NutritionItemName": "Carbohydrate",
          "Predriscriptor": "",
          "Quantity": 17,
          "Unit": "g         "
        },
        {
          "DisplayOrder": 11,
          "Document": "carbs_sugars_fiber.html",
          "NutritionItemID": 7,
          "NutritionItemName": "Dietary fiber",
          "Predriscriptor": "Less than",
          "Quantity": 1,
          "Unit": "g         "
        },
        {
          "DisplayOrder": 12,
          "Document": "carbs_sugars_fiber.html",
          "NutritionItemID": 5,
          "NutritionItemName": "Sugars",
          "Predriscriptor": "",
          "Quantity": 1,
          "Unit": "g         "
        },
        {
          "DisplayOrder": 13,
          "Document": null,
          "NutritionItemID": 6,
          "NutritionItemName": "Protein",
          "Predriscriptor": "",
          "Quantity": 9,
          "Unit": "g         "
        },
        {
          "DisplayOrder": 14,
          "Document": null,
          "NutritionItemID": 10,
          "NutritionItemName": "Vitamin A",
          "Predriscriptor": "",
          "Quantity": 15,
          "Unit": "%DV       "
        },
        {
          "DisplayOrder": 15,
          "Document": null,
          "NutritionItemID": 11,
          "NutritionItemName": "Vitamin C",
          "Predriscriptor": "",
          "Quantity": 10,
          "Unit": "%DV       "
        },
        {
          "DisplayOrder": 16,
          "Document": "dairy_and_calcium.html",
          "NutritionItemID": 12,
          "NutritionItemName": "Calcium",
          "Predriscriptor": "",
          "Quantity": 10,
          "Unit": "%DV       "
        },
        {
          "DisplayOrder": 17,
          "Document": null,
          "NutritionItemID": 13,
          "NutritionItemName": "Iron",
          "Predriscriptor": "",
          "Quantity": 6,
          "Unit": "%DV       "
        }
      ],
      "NutritionServingText": " ",
      "PrepStepImage": null,
      "PreparationDescription": "Use moistened spatula to mix rice and vinegar until blended.  Cool slightly.$Spoon cream cheese spread into pastry bag fitted with plain tip.  Place 1 nori sheet, shiny side down, on plastic wrap-covered bamboo sushi mat.  Use moistened fingers to pat half the rice mixture evenly onto nori. Top with half <u>each</u> of all remaining ingredients, trimming as necessary to fit nori sheet. $Pipe cream cheese spread into horizontal line across center of topped nori sheet.  Starting at one short end, use mat to tightly roll up nori sheet while firmly pressing mat into nori sheet as it is rolled.  Use mat to turn and squeeze roll-up into round sushi roll.$Repeat with second nori sheet and remaining ingredients to make second sushi roll.   Use sharp knife to cut each roll into 8 pieces.  ",
      "PreparationPreText": "",
      "PreparationSteps": [
        {
          "Description": "Use moistened spatula to mix rice and vinegar until blended.  Cool slightly.",
          "PreparationStepImage": {
            "PictureFormats": [],
            "author": null,
            "id": null,
            "imageType": null,
            "mimeType": null,
            "publicationDate": null,
            "status": null,
            "title": null,
            "type": null
          },
          "Sequence": 1
        },
        {
          "Description": "Spoon cream cheese spread into pastry bag fitted with plain tip.  Place 1 nori sheet, shiny side down, on plastic wrap-covered bamboo sushi mat.  Use moistened fingers to pat half the rice mixture evenly onto nori. Top with half <u>each</u> of all remaining ingredients, trimming as necessary to fit nori sheet. ",
          "PreparationStepImage": {
            "PictureFormats": [],
            "author": null,
            "id": null,
            "imageType": null,
            "mimeType": null,
            "publicationDate": null,
            "status": null,
            "title": null,
            "type": null
          },
          "Sequence": 2
        },
        {
          "Description": "Pipe cream cheese spread into horizontal line across center of topped nori sheet.  Starting at one short end, use mat to tightly roll up nori sheet while firmly pressing mat into nori sheet as it is rolled.  Use mat to turn and squeeze roll-up into round sushi roll.",
          "PreparationStepImage": {
            "PictureFormats": [],
            "author": null,
            "id": null,
            "imageType": null,
            "mimeType": null,
            "publicationDate": null,
            "status": null,
            "title": null,
            "type": null
          },
          "Sequence": 3
        },
        {
          "Description": "Repeat with second nori sheet and remaining ingredients to make second sushi roll.   Use sharp knife to cut each roll into 8 pieces.  ",
          "PreparationStepImage": {
            "PictureFormats": [],
            "author": null,
            "id": null,
            "imageType": null,
            "mimeType": null,
            "publicationDate": null,
            "status": null,
            "title": null,
            "type": null
          },
          "Sequence": 4
        }
      ],
      "PreparationTime": 30,
      "Promotion": null,
      "Ratings": {
        "TotalCount": 0,
        "PageCount": 10,
        "PageNo": 1,
        "Rating": []
      },
      "RecipeDisplayFormatId": 5,
      "RecipeId": 177789,
      "RecipeName": "Cold Cut Club Roll",
      "RecipeType": 0,
      "RelatedData": {
        "RelatedBrands": null,
        "RelatedProducts": null,
        "RelatedRecipes": {
          "DefaultTopCount": 5,
          "Recipe": [
            {
              "AverageRating": 4.5,
              "HasVideo": false,
              "IsHealthyLiving": true,
              "NumberOfRatings": 2,
              "PhotoName": "The-Swiss-Chalet-Club-57394B.jpg",
              "PhotoUrl": "http://assets.kraftfoods.com/recipe_images/opendeploy/The-Swiss-Chalet-Club-57394B.jpg",
              "RecipeId": 114207,
              "RecipeName": "The Swiss Chalet Club",
              "SEOName": "the-swiss-chalet-club-114207",
              "ThumbnailPhoto": null
            },
            {
              "AverageRating": 4.5,
              "HasVideo": false,
              "IsHealthyLiving": false,
              "NumberOfRatings": 19,
              "PhotoName": "Mini-Clubs-54930US.jpg",
              "PhotoUrl": "http://assets.kraftfoods.com/recipe_images/opendeploy/Mini-Clubs-54930US.jpg",
              "RecipeId": 109570,
              "RecipeName": "Mini Clubs",
              "SEOName": "mini-clubs-109570",
              "ThumbnailPhoto": null
            },
            {
              "AverageRating": 4.2,
              "HasVideo": false,
              "IsHealthyLiving": false,
              "NumberOfRatings": 16,
              "PhotoName": "Southwestern_Club_Wrap.jpg",
              "PhotoUrl": "http://assets.kraftfoods.com/recipe_images/opendeploy/Southwestern_Club_Wrap.jpg",
              "RecipeId": 56071,
              "RecipeName": "Southwestern Club Wrap",
              "SEOName": "southwestern-club-wrap-56071",
              "ThumbnailPhoto": null
            },
            {
              "AverageRating": 5,
              "HasVideo": false,
              "IsHealthyLiving": true,
              "NumberOfRatings": 3,
              "PhotoName": "114382.jpg",
              "PhotoUrl": "http://assets.kraftfoods.com/recipe_images/opendeploy/114382.jpg",
              "RecipeId": 114382,
              "RecipeName": "Famous Sub Shop Club",
              "SEOName": "famous-sub-shop-club-114382",
              "ThumbnailPhoto": null
            },
            {
              "AverageRating": 4.4,
              "HasVideo": false,
              "IsHealthyLiving": false,
              "NumberOfRatings": 8,
              "PhotoName": "110527.jpg",
              "PhotoUrl": "http://assets.kraftfoods.com/recipe_images/opendeploy/110527.jpg",
              "RecipeId": 110527,
              "RecipeName": "Speedy Triple-Decker Club",
              "SEOName": "speedy-triple-decker-club-110527",
              "ThumbnailPhoto": null
            }
          ],
          "TotalCount": 4012
        }
      },
      "RiseIngredients": [],
      "RiseTaxonomy": [],
      "Riserecipe": [
        {
          "GRIN": 574718,
          "RecipeId": 177789,
          "RecipeIndustrySector": "Retail",
          "RecipeType": "Internal"
        }
      ],
      "RomanceText": "Get ready for an evening of deliciousness when you prepare this Cold Cut Club Roll. This sushi-inspired recipe is sure to impress your friends.",
      "SEOName": "cold-cut-club-roll-177789",
      "Tips": [
        {
          "RecipeId": 177789,
          "Sequence": 10,
          "TipDescription": "Covering the bamboo mat with the plastic wrap is important to prevent the sushi roll from sticking to the mat. ",
          "TipID": 2,
          "TipName": "Note"
        }
      ],
      "TotalTime": 45,
      "TradeMarkInfo": null,
      "Video": [],
      "Yield": "8 servings, 2 pieces each"
    }
  ]
}