{
  "Metadata": {
    "PageCount": 1,
    "PageNo": 0,
    "TotalCount": 0
  },
  "Recipes": [
    {
      "AdServingKeywords": "Bacon,Cheese,Dairy,Eggs,Frozen Potatoes,Meat,Onion,Peppers,Sour Cream,Vegetables,Entree,Breakfast/Brunch,All Seasons,Breakstones,Knudsen,Ore-Ida,Oscar Mayer,Velveeta",
      "AlternateLanguageRecipes": [],
      "Assets": [],
      "AverageRating": 0,
      "BrandId": 1,
      "Branding": null,
      "CSSSkins": null,
      "CarbCounter": null,
      "Categories": [
        {
          "CategoryID": 1,
          "CategoryName": "Breakfast/Brunch",
          "CategoryRank": 4,
          "SubCategoryID": 421,
          "SubCategoryName": "Other Entrees",
          "SubCategoryRank": 40
        },
        {
          "CategoryID": 11,
          "CategoryName": "Primary",
          "CategoryRank": 0,
          "SubCategoryID": 97,
          "SubCategoryName": "Entrees",
          "SubCategoryRank": 50
        },
        {
          "CategoryID": 750,
          "CategoryName": "Breakfast, Brunch & Lunch",
          "CategoryRank": 4,
          "SubCategoryID": 2529,
          "SubCategoryName": "Savoury",
          "SubCategoryRank": 1
        },
        {
          "CategoryID": 750,
          "CategoryName": "Breakfast, Brunch & Lunch",
          "CategoryRank": 4,
          "SubCategoryID": 2530,
          "SubCategoryName": "Egg Dishes / Quiches",
          "SubCategoryRank": 1
        }
      ],
      "Classifications": [],
      "ComplimentaryRecipes": null,
      "CookingMethod": null,
      "Copyright": null,
      "Courses": [
        "Breakfast/brunch"
      ],
      "DietExchange": null,
      "DishDetails": [
        {
          "Text": "breakfast and brunch",
          "Url": "/recipes/breakfast-and-brunch/main.aspx"
        },
        {
          "Text": "kid friendly breakfasts",
          "Url": "/recipes/kid-friendly/getgoingbreakfasts.aspx"
        },
        {
          "Text": "kraft kitchen favorites",
          "Url": "/recipes/breakfast-and-brunch/kke-favorites.aspx"
        },
        {
          "Text": "pancake recipes",
          "Url": "/recipes/breakfast-and-brunch/pancake-recipes/main.aspx"
        },
        {
          "Text": "all about eggs",
          "Url": "/recipes/breakfast-and-brunch/all-about-eggs.aspx"
        },
        {
          "Text": "banana bread recipes",
          "Url": "/recipes/breakfast-and-brunch/banana-bread/main.aspx"
        },
        {
          "Text": "healthy living breakfast recipes",
          "Url": "/healthy-living-ideas/diabetes-center/recipes/breakfast-recipes.aspx"
        },
        {
          "Text": "breakfast sandwiches",
          "Url": "/recipes/sandwich-recipes/breakfast-sandwiches.aspx"
        }
      ],
      "EndDate": "/Date(-62135575200000-0600)/",
      "HasVideo": false,
      "Ingredients": [
        {
          "FullMeasure": "4 slices",
          "FullWeight": "",
          "IngredientGridHeaders": null,
          "IngredientID": 578,
          "IngredientName": "OSCAR MAYER Bacon",
          "IngredientStep": 10,
          "LanguageId": 0,
          "PostPreparation": ", chopped",
          "PrePreparation": "",
          "QuantityNum": 4,
          "QuantityText": "4",
          "QuantityUnit": "slices",
          "RecipeIngredientID": 5147415,
          "TrialMeasure": "",
          "TrialWeight": ""
        },
        {
          "FullMeasure": "1 cup",
          "FullWeight": "",
          "IngredientGridHeaders": null,
          "IngredientID": 1156,
          "IngredientName": "ORE-IDA Shredded Hash Brown Potatoes",
          "IngredientStep": 20,
          "LanguageId": 0,
          "PostPreparation": ", thawed",
          "PrePreparation": "",
          "QuantityNum": 1,
          "QuantityText": "1",
          "QuantityUnit": "cup",
          "RecipeIngredientID": 5147412,
          "TrialMeasure": "",
          "TrialWeight": ""
        },
        {
          "FullMeasure": "1/4 lb.",
          "FullWeight": "",
          "IngredientGridHeaders": null,
          "IngredientID": 27730,
          "IngredientName": "sliced fresh mushrooms",
          "IngredientStep": 30,
          "LanguageId": 0,
          "PostPreparation": "",
          "PrePreparation": "",
          "QuantityNum": 0,
          "QuantityText": "1/4",
          "QuantityUnit": "lb.",
          "RecipeIngredientID": 5147416,
          "TrialMeasure": "",
          "TrialWeight": ""
        },
        {
          "FullMeasure": "1",
          "FullWeight": "",
          "IngredientGridHeaders": null,
          "IngredientID": 1523,
          "IngredientName": "red pepper",
          "IngredientStep": 40,
          "LanguageId": 0,
          "PostPreparation": ", chopped",
          "PrePreparation": "",
          "QuantityNum": 1,
          "QuantityText": "1",
          "QuantityUnit": "",
          "RecipeIngredientID": 5147413,
          "TrialMeasure": "",
          "TrialWeight": ""
        },
        {
          "FullMeasure": "1 small",
          "FullWeight": "",
          "IngredientGridHeaders": null,
          "IngredientID": 1370,
          "IngredientName": "onion",
          "IngredientStep": 50,
          "LanguageId": 0,
          "PostPreparation": ", chopped",
          "PrePreparation": "",
          "QuantityNum": 1,
          "QuantityText": "1",
          "QuantityUnit": "small",
          "RecipeIngredientID": 5147417,
          "TrialMeasure": "",
          "TrialWeight": ""
        },
        {
          "FullMeasure": "6",
          "FullWeight": "",
          "IngredientGridHeaders": null,
          "IngredientID": 1060,
          "IngredientName": "egg",
          "IngredientStep": 60,
          "LanguageId": 0,
          "PostPreparation": "s, beaten",
          "PrePreparation": "",
          "QuantityNum": 6,
          "QuantityText": "6",
          "QuantityUnit": "",
          "RecipeIngredientID": 5147414,
          "TrialMeasure": "",
          "TrialWeight": ""
        },
        {
          "FullMeasure": "1  pouch",
          "FullWeight": "",
          "IngredientGridHeaders": null,
          "IngredientID": 26726,
          "IngredientName": "VELVEETA Cheese Sauce Original",
          "IngredientStep": 70,
          "LanguageId": 0,
          "PostPreparation": "",
          "PrePreparation": "(4 oz.)",
          "QuantityNum": 1,
          "QuantityText": "1 ",
          "QuantityUnit": "pouch",
          "RecipeIngredientID": 5147418,
          "TrialMeasure": "",
          "TrialWeight": ""
        },
        {
          "FullMeasure": "1/4 cup",
          "FullWeight": "",
          "IngredientGridHeaders": null,
          "IngredientID": 88,
          "IngredientName": "BREAKSTONE'S or KNUDSEN Sour Cream",
          "IngredientStep": 80,
          "LanguageId": 0,
          "PostPreparation": "",
          "PrePreparation": "",
          "QuantityNum": 0,
          "QuantityText": "1/4",
          "QuantityUnit": "cup",
          "RecipeIngredientID": 5147411,
          "TrialMeasure": "",
          "TrialWeight": ""
        }
      ],
      "IsHealthyLiving": false,
      "KRLId": "570229",
      "KeyIngredients": [
        "Bacon",
        "Dairy",
        "Eggs",
        "Meat",
        "Onion",
        "Peppers",
        "Potato",
        "Vegetables"
      ],
      "Keywords": "mushrooms,onions,OSCAR MAYER Bacon,peppers,pork,potatoes,red peppers,bacon,BREAKSTONE'S Sour Cream,cheese,eggs,hash browns,KNUDSEN Sour Cream,meat,sour cream,VELVEETA,bell peppers,,Entree,Breakfast/Brunch,All Seasons",
      "LanguageId": 1,
      "LifeStyles": [],
      "NumberOfIngredients": 8,
      "NumberOfRatings": 0,
      "NumberOfRatingsWithComments": "0",
      "NumberOfServings": "6 servings",
      "NumberOfTrialServings": "",
      "NutritionBonus": null,
      "NutritionExchangeItemId": 0,
      "NutritionGridItems": null,
      "NutritionItems": [
        {
          "DisplayOrder": 1,
          "Document": null,
          "NutritionItemID": 3,
          "NutritionItemName": "Calories",
          "Predriscriptor": "",
          "Quantity": 250,
          "Unit": "          "
        },
        {
          "DisplayOrder": 2,
          "Document": "fat_cholesterol.html",
          "NutritionItemID": 4,
          "NutritionItemName": "Total fat",
          "Predriscriptor": "",
          "Quantity": 17,
          "Unit": "g         "
        },
        {
          "DisplayOrder": 3,
          "Document": "fat_cholesterol.html",
          "NutritionItemID": 9,
          "NutritionItemName": "Saturated fat",
          "Predriscriptor": "",
          "Quantity": 6,
          "Unit": "g         "
        },
        {
          "DisplayOrder": 7,
          "Document": "fat_cholesterol.html",
          "NutritionItemID": 2,
          "NutritionItemName": "Cholesterol",
          "Predriscriptor": "",
          "Quantity": 210,
          "Unit": "mg        "
        },
        {
          "DisplayOrder": 8,
          "Document": "sodium.html",
          "NutritionItemID": 8,
          "NutritionItemName": "Sodium",
          "Predriscriptor": "",
          "Quantity": 450,
          "Unit": "mg        "
        },
        {
          "DisplayOrder": 10,
          "Document": "carbs_sugars_fiber.html",
          "NutritionItemID": 1,
          "NutritionItemName": "Carbohydrate",
          "Predriscriptor": "",
          "Quantity": 12,
          "Unit": "g         "
        },
        {
          "DisplayOrder": 11,
          "Document": "carbs_sugars_fiber.html",
          "NutritionItemID": 7,
          "NutritionItemName": "Dietary fiber",
          "Predriscriptor": "",
          "Quantity": 1,
          "Unit": "g         "
        },
        {
          "DisplayOrder": 12,
          "Document": "carbs_sugars_fiber.html",
          "NutritionItemID": 5,
          "NutritionItemName": "Sugars",
          "Predriscriptor": "",
          "Quantity": 4,
          "Unit": "g         "
        },
        {
          "DisplayOrder": 13,
          "Document": null,
          "NutritionItemID": 6,
          "NutritionItemName": "Protein",
          "Predriscriptor": "",
          "Quantity": 12,
          "Unit": "g         "
        },
        {
          "DisplayOrder": 14,
          "Document": null,
          "NutritionItemID": 10,
          "NutritionItemName": "Vitamin A",
          "Predriscriptor": "",
          "Quantity": 20,
          "Unit": "%DV       "
        },
        {
          "DisplayOrder": 15,
          "Document": null,
          "NutritionItemID": 11,
          "NutritionItemName": "Vitamin C",
          "Predriscriptor": "",
          "Quantity": 25,
          "Unit": "%DV       "
        },
        {
          "DisplayOrder": 16,
          "Document": "dairy_and_calcium.html",
          "NutritionItemID": 12,
          "NutritionItemName": "Calcium",
          "Predriscriptor": "",
          "Quantity": 10,
          "Unit": "%DV       "
        },
        {
          "DisplayOrder": 17,
          "Document": null,
          "NutritionItemID": 13,
          "NutritionItemName": "Iron",
          "Predriscriptor": "",
          "Quantity": 8,
          "Unit": "%DV       "
        }
      ],
      "NutritionServingText": " ",
      "PrepStepImage": null,
      "PreparationDescription": "Cook and stir bacon in large skillet on medium heat until crisp.  Remove bacon from skillet with slotted spoon; drain on paper towels.  Discard all but 2 Tbsp. drippings from skillet.  Add hash browns, mushrooms, peppers and onions to reserved drippings; cook 10 min. or until peppers and onions are crisp-tender, stirring occasionally.$Spread vegetable mixture onto bottom of 9-inch square baking dish sprayed with cooking spray; top with eggs, then bacon.  Mix cheese sauce and sour cream until blended; spoon over ingredients in dish. $Bake 30 min. or until center is set and casserole is heated through. ",
      "PreparationPreText": "Heat oven to 350ºF.",
      "PreparationSteps": [
        {
          "Description": "Cook and stir bacon in large skillet on medium heat until crisp.  Remove bacon from skillet with slotted spoon; drain on paper towels.  Discard all but 2 Tbsp. drippings from skillet.  Add hash browns, mushrooms, peppers and onions to reserved drippings; cook 10 min. or until peppers and onions are crisp-tender, stirring occasionally.",
          "PreparationStepImage": {
            "PictureFormats": [],
            "author": null,
            "id": null,
            "imageType": null,
            "mimeType": null,
            "publicationDate": null,
            "status": null,
            "title": null,
            "type": null
          },
          "Sequence": 1
        },
        {
          "Description": "Spread vegetable mixture onto bottom of 9-inch square baking dish sprayed with cooking spray; top with eggs, then bacon.  Mix cheese sauce and sour cream until blended; spoon over ingredients in dish. ",
          "PreparationStepImage": {
            "PictureFormats": [],
            "author": null,
            "id": null,
            "imageType": null,
            "mimeType": null,
            "publicationDate": null,
            "status": null,
            "title": null,
            "type": null
          },
          "Sequence": 2
        },
        {
          "Description": "Bake 30 min. or until center is set and casserole is heated through. ",
          "PreparationStepImage": {
            "PictureFormats": [],
            "author": null,
            "id": null,
            "imageType": null,
            "mimeType": null,
            "publicationDate": null,
            "status": null,
            "title": null,
            "type": null
          },
          "Sequence": 3
        }
      ],
      "PreparationTime": 30,
      "Promotion": null,
      "Ratings": {
        "TotalCount": 0,
        "PageCount": 10,
        "PageNo": 1,
        "Rating": []
      },
      "RecipeDisplayFormatId": 5,
      "RecipeId": 183846,
      "RecipeName": "VELVEETA Sauce Bacon Brunch Casserole",
      "RecipeType": 0,
      "RelatedData": {
        "RelatedBrands": null,
        "RelatedProducts": null,
        "RelatedRecipes": {
          "DefaultTopCount": 5,
          "Recipe": [
            {
              "AverageRating": 4.1,
              "HasVideo": false,
              "IsHealthyLiving": false,
              "NumberOfRatings": 52,
              "PhotoName": "VELVEETA_LIGHT_Breakfast_Bake.jpg",
              "PhotoUrl": "http://assets.kraftfoods.com/recipe_images/opendeploy/VELVEETA_LIGHT_Breakfast_Bake.jpg",
              "RecipeId": 57111,
              "RecipeName": "VELVEETA Breakfast Bake",
              "SEOName": "velveeta-breakfast-bake-57111",
              "ThumbnailPhoto": null
            },
            {
              "AverageRating": 4.3,
              "HasVideo": false,
              "IsHealthyLiving": false,
              "NumberOfRatings": 41,
              "PhotoName": "opendeploy/563741_1_1_retail-b131f5d82e001d55ce09a0c44b92cf79fb567523_306x204.jpg",
              "PhotoUrl": "http://assets.kraftfoods.com/recipe_images/opendeploy/opendeploy/563741_1_1_retail-b131f5d82e001d55ce09a0c44b92cf79fb567523_306x204.jpg",
              "RecipeId": 115361,
              "RecipeName": "VELVEETA® Cheesy Hash Brown Bake",
              "SEOName": "velveeta-cheesy-hash-brown-bake-115361",
              "ThumbnailPhoto": null
            },
            {
              "AverageRating": 4.4,
              "HasVideo": false,
              "IsHealthyLiving": false,
              "NumberOfRatings": 9,
              "PhotoName": "Pastelon.jpg",
              "PhotoUrl": "http://assets.kraftfoods.com/recipe_images/opendeploy/Pastelon.jpg",
              "RecipeId": 70388,
              "RecipeName": "Pastelon",
              "SEOName": "pastelon-70388",
              "ThumbnailPhoto": null
            },
            {
              "AverageRating": 4.3,
              "HasVideo": false,
              "IsHealthyLiving": false,
              "NumberOfRatings": 13,
              "PhotoName": "91358.jpg",
              "PhotoUrl": "http://assets.kraftfoods.com/recipe_images/opendeploy/91358.jpg",
              "RecipeId": 91358,
              "RecipeName": "Three-Cheese Brunch Bake",
              "SEOName": "three-cheese-brunch-bake-91358",
              "ThumbnailPhoto": null
            },
            {
              "AverageRating": 4,
              "HasVideo": false,
              "IsHealthyLiving": false,
              "NumberOfRatings": 6,
              "PhotoName": "123028.jpg",
              "PhotoUrl": "http://assets.kraftfoods.com/recipe_images/opendeploy/123028.jpg",
              "RecipeId": 123028,
              "RecipeName": "VELVEETA® Salsa Brunch Bake",
              "SEOName": "velveeta-salsa-brunch-bake-123028",
              "ThumbnailPhoto": null
            }
          ],
          "TotalCount": 2716
        }
      },
      "RiseIngredients": [],
      "RiseTaxonomy": [],
      "Riserecipe": [
        {
          "GRIN": 570229,
          "RecipeId": 183846,
          "RecipeIndustrySector": "Retail",
          "RecipeType": "Internal"
        }
      ],
      "RomanceText": "To be honest, we can't think of too many things a cheesy VELVEETA sauce wouldn't taste great with—and this bacon brunch casserole isn't one of them!",
      "SEOName": "velveeta-sauce-bacon-brunch-casserole-183846",
      "Tips": [
        {
          "RecipeId": 183846,
          "Sequence": 10,
          "TipDescription": "Always serve egg-based dishes immediately after cooking to prevent bacterial growth. Be sure to cook until the eggs are completely set. Avoid recipes which call for partially cooked or raw eggs.",
          "TipID": 500,
          "TipName": "Keeping It Safe"
        },
        {
          "RecipeId": 183846,
          "Sequence": 20,
          "TipDescription": "Casserole can be assembled ahead of time. Refrigerate up to 24 hours before baking as directed, increasing the baking time if needed until casserole is done.",
          "TipID": 1,
          "TipName": "Make Ahead"
        }
      ],
      "TotalTime": 60,
      "TradeMarkInfo": null,
      "Video": [],
      "Yield": "6 servings"
    }
  ]
}