{
  "Metadata": {
    "PageCount": 1,
    "PageNo": 0,
    "TotalCount": 0
  },
  "Recipes": [
    {
      "AdServingKeywords": "Ground Beef",
      "AlternateLanguageRecipes": [],
      "Assets": [],
      "AverageRating": 0,
      "BrandId": 1,
      "Branding": null,
      "CSSSkins": null,
      "CarbCounter": null,
      "Categories": [],
      "Classifications": [],
      "ComplimentaryRecipes": null,
      "CookingMethod": null,
      "Copyright": null,
      "Courses": [],
      "DietExchange": null,
      "DishDetails": null,
      "EndDate": "/Date(-62135575200000-0600)/",
      "HasVideo": false,
      "Ingredients": [
        {
          "FullMeasure": null,
          "FullWeight": null,
          "IngredientGridHeaders": null,
          "IngredientID": 68971,
          "IngredientName": "BULL'S-EYE Original Barbecue Sauce",
          "IngredientStep": 10,
          "LanguageId": 0,
          "PostPreparation": "",
          "PrePreparation": "",
          "QuantityNum": 1,
          "QuantityText": "1",
          "QuantityUnit": "cup",
          "RecipeIngredientID": 4133,
          "TrialMeasure": null,
          "TrialWeight": null
        },
        {
          "FullMeasure": null,
          "FullWeight": null,
          "IngredientGridHeaders": null,
          "IngredientID": 67832,
          "IngredientName": "orange marmalade",
          "IngredientStep": 20,
          "LanguageId": 0,
          "PostPreparation": "",
          "PrePreparation": "",
          "QuantityNum": 2,
          "QuantityText": "2",
          "QuantityUnit": "Tbsp.",
          "RecipeIngredientID": 1017,
          "TrialMeasure": null,
          "TrialWeight": null
        },
        {
          "FullMeasure": null,
          "FullWeight": null,
          "IngredientGridHeaders": null,
          "IngredientID": 67739,
          "IngredientName": "canned chopped chipotle peppers in adobo sauce with 2 Tbsp. adobo sauce",
          "IngredientStep": 30,
          "LanguageId": 0,
          "PostPreparation": "",
          "PrePreparation": "",
          "QuantityNum": 2,
          "QuantityText": "2",
          "QuantityUnit": "",
          "RecipeIngredientID": 2204,
          "TrialMeasure": null,
          "TrialWeight": null
        },
        {
          "FullMeasure": null,
          "FullWeight": null,
          "IngredientGridHeaders": null,
          "IngredientID": 68334,
          "IngredientName": "pork baby back ribs",
          "IngredientStep": 40,
          "LanguageId": 0,
          "PostPreparation": "",
          "PrePreparation": "",
          "QuantityNum": 4,
          "QuantityText": "4",
          "QuantityUnit": "lb.",
          "RecipeIngredientID": 4515,
          "TrialMeasure": null,
          "TrialWeight": null
        },
        {
          "FullMeasure": null,
          "FullWeight": null,
          "IngredientGridHeaders": null,
          "IngredientID": 68791,
          "IngredientName": "water",
          "IngredientStep": 50,
          "LanguageId": 0,
          "PostPreparation": "",
          "PrePreparation": "",
          "QuantityNum": 0.5,
          "QuantityText": "1/2",
          "QuantityUnit": "cup",
          "RecipeIngredientID": 4238,
          "TrialMeasure": null,
          "TrialWeight": null
        }
      ],
      "IsHealthyLiving": false,
      "KRLId": "546596",
      "KeyIngredients": [],
      "Keywords": "",
      "LanguageId": 1,
      "LifeStyles": [],
      "NumberOfIngredients": 5,
      "NumberOfRatings": 0,
      "NumberOfRatingsWithComments": "0",
      "NumberOfServings": "6 servings",
      "NumberOfTrialServings": null,
      "NutritionBonus": null,
      "NutritionExchangeItemId": 0,
      "NutritionGridItems": null,
      "NutritionItems": [
        {
          "DisplayOrder": 0,
          "Document": null,
          "NutritionItemID": 384,
          "NutritionItemName": "Vitamin D",
          "Predriscriptor": "",
          "Quantity": 8,
          "Unit": "%DV       "
        },
        {
          "DisplayOrder": 0,
          "Document": null,
          "NutritionItemID": 385,
          "NutritionItemName": "Vitamin E",
          "Predriscriptor": "",
          "Quantity": 2,
          "Unit": "%DV       "
        },
        {
          "DisplayOrder": 0,
          "Document": null,
          "NutritionItemID": 388,
          "NutritionItemName": "Potassium",
          "Predriscriptor": "",
          "Quantity": 8,
          "Unit": "%DV       "
        },
        {
          "DisplayOrder": 0,
          "Document": null,
          "NutritionItemID": 390,
          "NutritionItemName": "Added Sugars",
          "Predriscriptor": "",
          "Quantity": 0,
          "Unit": "g         "
        },
        {
          "DisplayOrder": 1,
          "Document": null,
          "NutritionItemID": 371,
          "NutritionItemName": "Calories",
          "Predriscriptor": "",
          "Quantity": 430,
          "Unit": "          "
        },
        {
          "DisplayOrder": 2,
          "Document": null,
          "NutritionItemID": 376,
          "NutritionItemName": "Total fat",
          "Predriscriptor": "",
          "Quantity": 25,
          "Unit": "g         "
        },
        {
          "DisplayOrder": 3,
          "Document": null,
          "NutritionItemID": 377,
          "NutritionItemName": "Saturated fat",
          "Predriscriptor": "",
          "Quantity": 9,
          "Unit": "g         "
        },
        {
          "DisplayOrder": 4,
          "Document": null,
          "NutritionItemID": 379,
          "NutritionItemName": "Polyunsaturated Fat",
          "Predriscriptor": "",
          "Quantity": 4,
          "Unit": "g         "
        },
        {
          "DisplayOrder": 5,
          "Document": null,
          "NutritionItemID": 378,
          "NutritionItemName": "Monounsaturated Fat",
          "Predriscriptor": "",
          "Quantity": 11,
          "Unit": "g         "
        },
        {
          "DisplayOrder": 6,
          "Document": null,
          "NutritionItemID": 380,
          "NutritionItemName": "Trans Fat",
          "Predriscriptor": "",
          "Quantity": 0,
          "Unit": "g         "
        },
        {
          "DisplayOrder": 7,
          "Document": null,
          "NutritionItemID": 381,
          "NutritionItemName": "Cholesterol",
          "Predriscriptor": "",
          "Quantity": 100,
          "Unit": "mg        "
        },
        {
          "DisplayOrder": 8,
          "Document": null,
          "NutritionItemID": 389,
          "NutritionItemName": "Sodium",
          "Predriscriptor": "",
          "Quantity": 520,
          "Unit": "mg        "
        },
        {
          "DisplayOrder": 10,
          "Document": null,
          "NutritionItemID": 373,
          "NutritionItemName": "Carbohydrate",
          "Predriscriptor": "",
          "Quantity": 23,
          "Unit": "g         "
        },
        {
          "DisplayOrder": 11,
          "Document": null,
          "NutritionItemID": 374,
          "NutritionItemName": "Dietary fiber",
          "Predriscriptor": "",
          "Quantity": 0,
          "Unit": "g         "
        },
        {
          "DisplayOrder": 12,
          "Document": null,
          "NutritionItemID": 375,
          "NutritionItemName": "Sugars",
          "Predriscriptor": "",
          "Quantity": 19,
          "Unit": "g         "
        },
        {
          "DisplayOrder": 13,
          "Document": null,
          "NutritionItemID": 372,
          "NutritionItemName": "Protein",
          "Predriscriptor": "",
          "Quantity": 27,
          "Unit": "g         "
        },
        {
          "DisplayOrder": 14,
          "Document": null,
          "NutritionItemID": 382,
          "NutritionItemName": "Vitamin A",
          "Predriscriptor": "",
          "Quantity": 0,
          "Unit": "%DV       "
        },
        {
          "DisplayOrder": 15,
          "Document": null,
          "NutritionItemID": 383,
          "NutritionItemName": "Vitamin C",
          "Predriscriptor": "",
          "Quantity": 0,
          "Unit": "%DV       "
        },
        {
          "DisplayOrder": 16,
          "Document": null,
          "NutritionItemID": 386,
          "NutritionItemName": "Calcium",
          "Predriscriptor": "",
          "Quantity": 4,
          "Unit": "%DV       "
        },
        {
          "DisplayOrder": 17,
          "Document": null,
          "NutritionItemID": 387,
          "NutritionItemName": "Iron",
          "Predriscriptor": "",
          "Quantity": 6,
          "Unit": "%DV       "
        }
      ],
      "NutritionServingText": null,
      "PrepStepImage": null,
      "PreparationDescription": "Mix all ingredients except ribs and water until blended. $Cut ribs into 2-rib sections.  Place half the ribs in single layer on large sheet of heavy-duty foil.  Bring up long sides of foil, then double fold both short ends to seal, leaving top open.  Pour 1/4 cup water into packet.  Double fold top to seal, leaving room for heat circulation.  Repeat with remaining ribs on second sheet of foil.$Grill 45 min. to 1 hour or until ribs are done.  Remove ribs from foil; discard foil.  Return ribs to grill; brush evenly with half of the barbecue sauce mixture. Grill 15 min., turning occasionally and brushing with remaining sauce. ",
      "PreparationPreText": "Heat grill to medium-high heat.",
      "PreparationSteps": [
        {
          "Description": "Mix all ingredients except ribs and water until blended. ",
          "PreparationStepImage": {
            "PictureFormats": [],
            "author": null,
            "id": null,
            "imageType": null,
            "mimeType": null,
            "publicationDate": null,
            "status": null,
            "title": null,
            "type": null
          },
          "Sequence": 1
        },
        {
          "Description": "Cut ribs into 2-rib sections.  Place half the ribs in single layer on large sheet of heavy-duty foil.  Bring up long sides of foil, then double fold both short ends to seal, leaving top open.  Pour 1/4 cup water into packet.  Double fold top to seal, leaving room for heat circulation.  Repeat with remaining ribs on second sheet of foil.",
          "PreparationStepImage": {
            "PictureFormats": [],
            "author": null,
            "id": null,
            "imageType": null,
            "mimeType": null,
            "publicationDate": null,
            "status": null,
            "title": null,
            "type": null
          },
          "Sequence": 2
        },
        {
          "Description": "Grill 45 min. to 1 hour or until ribs are done.  Remove ribs from foil; discard foil.  Return ribs to grill; brush evenly with half of the barbecue sauce mixture. Grill 15 min., turning occasionally and brushing with remaining sauce. ",
          "PreparationStepImage": {
            "PictureFormats": [],
            "author": null,
            "id": null,
            "imageType": null,
            "mimeType": null,
            "publicationDate": null,
            "status": null,
            "title": null,
            "type": null
          },
          "Sequence": 3
        }
      ],
      "PreparationTime": 25,
      "Promotion": null,
      "Ratings": {
        "TotalCount": 0,
        "PageCount": 10,
        "PageNo": 1,
        "Rating": []
      },
      "RecipeDisplayFormatId": 0,
      "RecipeId": 210607,
      "RecipeName": "Saucy Succulent Barbecued Ribs",
      "RecipeType": 0,
      "RelatedData": {
        "RelatedBrands": null,
        "RelatedProducts": null,
        "RelatedRecipes": {
          "DefaultTopCount": 5,
          "Recipe": [
            {
              "AverageRating": 4.3,
              "HasVideo": false,
              "IsHealthyLiving": false,
              "NumberOfRatings": 48,
              "PhotoName": "Saucy-Foil-Pack-Barbecue-Ribs-44120.jpg",
              "PhotoUrl": "http://assets.kraftfoods.com/recipe_images/opendeploy/Saucy-Foil-Pack-Barbecue-Ribs-44120.jpg",
              "RecipeId": 65081,
              "RecipeName": "Saucy Foil-Pack Barbecue Ribs",
              "SEOName": "saucy-foil-pack-barbecue-ribs-65081",
              "ThumbnailPhoto": null
            },
            {
              "AverageRating": 4.4,
              "HasVideo": false,
              "IsHealthyLiving": false,
              "NumberOfRatings": 16,
              "PhotoName": "92128.jpg",
              "PhotoUrl": "http://assets.kraftfoods.com/recipe_images/opendeploy/92128.jpg",
              "RecipeId": 92128,
              "RecipeName": "Speedy Saucy Ribs",
              "SEOName": "speedy-saucy-ribs-92128",
              "ThumbnailPhoto": null
            },
            {
              "AverageRating": 4.5,
              "HasVideo": false,
              "IsHealthyLiving": false,
              "NumberOfRatings": 15,
              "PhotoName": "153383.jpg",
              "PhotoUrl": "http://assets.kraftfoods.com/recipe_images/opendeploy/153383.jpg",
              "RecipeId": 153383,
              "RecipeName": "Easy Country-Style Slow Cooker Pork Ribs",
              "SEOName": "easy-country-style-slow-cooker-pork-ribs-153383",
              "ThumbnailPhoto": null
            },
            {
              "AverageRating": 5,
              "HasVideo": false,
              "IsHealthyLiving": true,
              "NumberOfRatings": 1,
              "PhotoName": "Saucy-Cheeseburgers-62793.jpg",
              "PhotoUrl": "http://assets.kraftfoods.com/recipe_images/opendeploy/Saucy-Cheeseburgers-62793.jpg",
              "RecipeId": 145267,
              "RecipeName": "Saucy Cheeseburgers",
              "SEOName": "saucy-cheeseburgers-145267",
              "ThumbnailPhoto": null
            },
            {
              "AverageRating": 4.3,
              "HasVideo": false,
              "IsHealthyLiving": true,
              "NumberOfRatings": 98,
              "PhotoName": "75189.jpg",
              "PhotoUrl": "http://assets.kraftfoods.com/recipe_images/opendeploy/75189.jpg",
              "RecipeId": 75189,
              "RecipeName": "Saucy Barbecued Pork Chop Skillet",
              "SEOName": "saucy-barbecued-pork-chop-skillet-75189",
              "ThumbnailPhoto": null
            }
          ],
          "TotalCount": 388
        }
      },
      "RiseIngredients": [
        {
          "IngredientCategory": "KRL",
          "IngredientId": 67739,
          "IngredientIndustrySector": "Retail",
          "IngredientType": "Inedible",
          "ProductId": null,
          "RecipeId": 210607
        },
        {
          "IngredientCategory": "KRL",
          "IngredientId": 67832,
          "IngredientIndustrySector": "Retail",
          "IngredientType": "Inedible",
          "ProductId": null,
          "RecipeId": 210607
        },
        {
          "IngredientCategory": "KRL",
          "IngredientId": 68334,
          "IngredientIndustrySector": "Retail",
          "IngredientType": "Inedible",
          "ProductId": null,
          "RecipeId": 210607
        },
        {
          "IngredientCategory": "KRL",
          "IngredientId": 68791,
          "IngredientIndustrySector": "Retail",
          "IngredientType": "Generic",
          "ProductId": null,
          "RecipeId": 210607
        },
        {
          "IngredientCategory": "KRL",
          "IngredientId": 68971,
          "IngredientIndustrySector": "Retail",
          "IngredientType": "Inedible",
          "ProductId": "00019582411104",
          "RecipeId": 210607
        }
      ],
      "RiseTaxonomy": [
        {
          "ParentTaxonomyId": 0,
          "RecipeId": 210607,
          "ResourceName": "Recipe",
          "TaxonomyId": 65,
          "TaxonomyName": "Entrées",
          "TaxonomyTypeId": 2,
          "TaxonomyTypeName": "Meal Part"
        },
        {
          "ParentTaxonomyId": 0,
          "RecipeId": 210607,
          "ResourceName": "Recipe",
          "TaxonomyId": 302,
          "TaxonomyName": "BBQ/Grilling",
          "TaxonomyTypeId": 5,
          "TaxonomyTypeName": "Occasion-Theme"
        }
      ],
      "Riserecipe": [
        {
          "GRIN": 546596,
          "RecipeId": 210607,
          "RecipeIndustrySector": "Retail",
          "RecipeType": "Internal"
        }
      ],
      "RomanceText": "Indulge your taste buds with our Saucy Succulent Barbecued Ribs recipe. The foil packets holding the barbecued ribs catch every last drop of saucy succulence!",
      "SEOName": "saucy-succulent-barbecued-ribs-210607",
      "Tips": [
        {
          "RecipeId": 210607,
          "Sequence": 10,
          "TipDescription": "Enjoy these delicious ribs on a special occasion, but remember to keep an eye on the portion size.",
          "TipID": 1,
          "TipName": "Size Wise"
        },
        {
          "RecipeId": 210607,
          "Sequence": 20,
          "TipDescription": "Para un sabor original a la carne, National Pork Board te suguiere utilizar maderas aromáticas como el nogal americano, el mezquite, el manzano o el cerezo y añadirlas a las brasas precalentadas.",
          "TipID": 2,
          "TipName": "Food Facts"
        },
        {
          "RecipeId": 210607,
          "Sequence": 30,
          "TipDescription": "Substitute 3 or 4 ice cubes for the water in each foil packet.",
          "TipID": 3,
          "TipName": "Substitute"
        },
        {
          "RecipeId": 210607,
          "Sequence": 40,
          "TipDescription": "Omit barbecue sauce, marmalade and chipotle peppers. Instead brush cooked ribs with mixture of 1/4 cup <u>each</u> A.1. Original Sauce, HEINZ Tomato Ketchup and apricot preserves.",
          "TipID": 4,
          "TipName": "Fruity Barbecue Sauce"
        },
        {
          "RecipeId": 210607,
          "Sequence": 50,
          "TipDescription": "Omit barbecue sauce, marmalade and chipotle peppers. Instead brush cooked ribs with mixture of 1 cup GREY POUPON Country Style Dijon Mustard and 2 Tbsp. <u>each</u> HEINZ Apple Cider Vinegar and honey.",
          "TipID": 5,
          "TipName": "Tangy Mustard Sauce"
        }
      ],
      "TotalTime": 85,
      "TradeMarkInfo": null,
      "Video": [],
      "Yield": "6 servings"
    }
  ]
}