{
  "Metadata": {
    "PageCount": 1,
    "PageNo": 0,
    "TotalCount": 0
  },
  "Recipes": [
    {
      "AdServingKeywords": "Chicken,Meat,Poultry,Entree,Roasted,Easy,All Seasons,Dinner,Shake N Bake,Crispy",
      "AlternateLanguageRecipes": [],
      "Assets": [
        {
          "PictureFormats": [
            {
              "rendition": "300x200",
              "url": "http://assets.kraftfoods.com/recipe_images/Greek_Chicken_ina_PitaWrap.jpg"
            }
          ],
          "author": null,
          "id": "0",
          "imageType": "LANDSCAPE",
          "mimeType": null,
          "publicationDate": null,
          "status": "1",
          "title": "Greek_Chicken_ina_PitaWrap.jpg",
          "type": "image"
        }
      ],
      "AverageRating": 4,
      "BrandId": 1,
      "Branding": null,
      "CSSSkins": null,
      "CarbCounter": null,
      "Categories": [
        {
          "CategoryID": 7,
          "CategoryName": "Pork/Beef Entrees",
          "CategoryRank": 10,
          "SubCategoryID": 409,
          "SubCategoryName": "Beef: Other",
          "SubCategoryRank": 30
        },
        {
          "CategoryID": 11,
          "CategoryName": "Primary",
          "CategoryRank": 0,
          "SubCategoryID": 97,
          "SubCategoryName": "Entrees",
          "SubCategoryRank": 50
        },
        {
          "CategoryID": 756,
          "CategoryName": "Main Meals (Meat / Seafood / Egg)",
          "CategoryRank": 10,
          "SubCategoryID": 2563,
          "SubCategoryName": "Beef",
          "SubCategoryRank": 1
        },
        {
          "CategoryID": 756,
          "CategoryName": "Main Meals (Meat / Seafood / Egg)",
          "CategoryRank": 10,
          "SubCategoryID": 2564,
          "SubCategoryName": "Pork",
          "SubCategoryRank": 1
        }
      ],
      "Classifications": [],
      "ComplimentaryRecipes": [
        {
          "AverageRating": 0,
          "HasVideo": false,
          "IsHealthyLiving": false,
          "NumberOfRatings": 0,
          "PhotoName": null,
          "PhotoUrl": null,
          "RecipeId": 53652,
          "RecipeName": null,
          "SEOName": "citrus-bacon-pecan-salad-53652",
          "ThumbnailPhoto": "Citrus_Bacon-Pecan_Salad.jpg"
        }
      ],
      "CookingMethod": null,
      "Copyright": null,
      "Courses": [
        "Main dishes"
      ],
      "DietExchange": null,
      "DishDetails": [
        {
          "Text": "chicken recipes",
          "Url": "/recipes/dinner/chicken-recipes/main.aspx"
        },
        {
          "Text": "grilled chicken recipes",
          "Url": "/recipes/dinner/chicken-recipes/grilled-chicken/main.aspx"
        },
        {
          "Text": "healthy living chicken recipes",
          "Url": "/recipes/dinner/chicken-recipes/hl/main.aspx"
        },
        {
          "Text": "slow cooker chicken recipes",
          "Url": "/recipes/dinner/chicken-recipes/slow-cooker/main.aspx"
        },
        {
          "Text": "whole chicken recipes",
          "Url": "/recipes/dinner/chicken-recipes/whole-chicken/main.aspx"
        },
        {
          "Text": "chicken breast recipes",
          "Url": "/recipes/dinner/chicken-recipes/chicken-breast/main.aspx"
        },
        {
          "Text": "chicken casseroles",
          "Url": "/recipes/dinner/chicken-recipes/casseroles/main.aspx"
        },
        {
          "Text": "chicken pasta recipes",
          "Url": "/recipes/dinner/chicken-recipes/pasta-dishes/main.aspx"
        },
        {
          "Text": "chicken salad recipes",
          "Url": "/recipes/dinner/chicken-recipes/salads/main.aspx"
        },
        {
          "Text": "chicken stir-fry recipes",
          "Url": "/recipes/dinner/chicken-recipes/stir-fry/main.aspx"
        },
        {
          "Text": "chicken wing recipes",
          "Url": "/recipes/appetizers/chicken-wing-recipes/main.aspx"
        },
        {
          "Text": "baked chicken recipes",
          "Url": "/recipes/dinner/chicken-recipes/baked-chicken/main.aspx"
        },
        {
          "Text": "bbq chicken recipes",
          "Url": "/recipes/holidays-and-entertaining/entertaining/summer/bbq-recipes/bbq-chicken-recipes/main.aspx"
        }
      ],
      "EndDate": "/Date(-62135575200000-0600)/",
      "HasVideo": false,
      "Ingredients": [
        {
          "FullMeasure": "1",
          "FullWeight": "",
          "IngredientGridHeaders": null,
          "IngredientID": 3931,
          "IngredientName": "roasting chicken",
          "IngredientStep": 10,
          "LanguageId": 0,
          "PostPreparation": " (2-1/2 lb.)",
          "PrePreparation": "whole",
          "QuantityNum": 1,
          "QuantityText": "1",
          "QuantityUnit": "",
          "RecipeIngredientID": 5263253,
          "TrialMeasure": "",
          "TrialWeight": ""
        },
        {
          "FullMeasure": "1 pkt.",
          "FullWeight": "",
          "IngredientGridHeaders": null,
          "IngredientID": 709,
          "IngredientName": "SHAKE 'N BAKE Chicken Coating Mix",
          "IngredientStep": 20,
          "LanguageId": 0,
          "PostPreparation": "",
          "PrePreparation": "",
          "QuantityNum": 1,
          "QuantityText": "1",
          "QuantityUnit": "pkt.",
          "RecipeIngredientID": 5263254,
          "TrialMeasure": "",
          "TrialWeight": ""
        }
      ],
      "IsHealthyLiving": false,
      "KRLId": "548357",
      "KeyIngredients": [
        "Chicken",
        "Meat",
        "Poultry"
      ],
      "Keywords": "capon,chicken,SHAKE 'N BAKE Coating Mix,coating mix,Entree,Easy,Roasted,Dinner,All Seasons,Crispy",
      "LanguageId": 1,
      "LifeStyles": [],
      "NumberOfIngredients": 2,
      "NumberOfRatings": 7,
      "NumberOfRatingsWithComments": "6",
      "NumberOfServings": "4 servings",
      "NumberOfTrialServings": "",
      "NutritionBonus": null,
      "NutritionExchangeItemId": 0,
      "NutritionGridItems": null,
      "NutritionItems": [
        {
          "DisplayOrder": 1,
          "Document": null,
          "NutritionItemID": 3,
          "NutritionItemName": "Calories",
          "Predriscriptor": "",
          "Quantity": 340,
          "Unit": "          "
        },
        {
          "DisplayOrder": 2,
          "Document": "fat_cholesterol.html",
          "NutritionItemID": 4,
          "NutritionItemName": "Total fat",
          "Predriscriptor": "",
          "Quantity": 17,
          "Unit": "g         "
        },
        {
          "DisplayOrder": 3,
          "Document": "fat_cholesterol.html",
          "NutritionItemID": 9,
          "NutritionItemName": "Saturated fat",
          "Predriscriptor": "",
          "Quantity": 4.5,
          "Unit": "g         "
        },
        {
          "DisplayOrder": 7,
          "Document": "fat_cholesterol.html",
          "NutritionItemID": 2,
          "NutritionItemName": "Cholesterol",
          "Predriscriptor": "",
          "Quantity": 100,
          "Unit": "mg        "
        },
        {
          "DisplayOrder": 8,
          "Document": "sodium.html",
          "NutritionItemID": 8,
          "NutritionItemName": "Sodium",
          "Predriscriptor": "",
          "Quantity": 530,
          "Unit": "mg        "
        },
        {
          "DisplayOrder": 10,
          "Document": "carbs_sugars_fiber.html",
          "NutritionItemID": 1,
          "NutritionItemName": "Carbohydrate",
          "Predriscriptor": "",
          "Quantity": 14,
          "Unit": "g         "
        },
        {
          "DisplayOrder": 11,
          "Document": "carbs_sugars_fiber.html",
          "NutritionItemID": 7,
          "NutritionItemName": "Dietary fiber",
          "Predriscriptor": "Less than",
          "Quantity": 1,
          "Unit": "g         "
        },
        {
          "DisplayOrder": 12,
          "Document": "carbs_sugars_fiber.html",
          "NutritionItemID": 5,
          "NutritionItemName": "Sugars",
          "Predriscriptor": "Less than",
          "Quantity": 1,
          "Unit": "g         "
        },
        {
          "DisplayOrder": 13,
          "Document": null,
          "NutritionItemID": 6,
          "NutritionItemName": "Protein",
          "Predriscriptor": "",
          "Quantity": 32,
          "Unit": "g         "
        },
        {
          "DisplayOrder": 14,
          "Document": null,
          "NutritionItemID": 10,
          "NutritionItemName": "Vitamin A",
          "Predriscriptor": "",
          "Quantity": 10,
          "Unit": "%DV       "
        },
        {
          "DisplayOrder": 15,
          "Document": null,
          "NutritionItemID": 11,
          "NutritionItemName": "Vitamin C",
          "Predriscriptor": "",
          "Quantity": 0,
          "Unit": "%DV       "
        },
        {
          "DisplayOrder": 16,
          "Document": "dairy_and_calcium.html",
          "NutritionItemID": 12,
          "NutritionItemName": "Calcium",
          "Predriscriptor": "",
          "Quantity": 2,
          "Unit": "%DV       "
        },
        {
          "DisplayOrder": 17,
          "Document": null,
          "NutritionItemID": 13,
          "NutritionItemName": "Iron",
          "Predriscriptor": "",
          "Quantity": 15,
          "Unit": "%DV       "
        }
      ],
      "NutritionServingText": null,
      "PrepStepImage": null,
      "PreparationDescription": "Preheat oven to 400°F.   Coat chicken with coating mix; place in roasting pan.$Bake 1 hour or until chicken is cooked through (165°F).$Serve with roasted potato wedges and steamed baby carrots.",
      "PreparationPreText": null,
      "PreparationSteps": [
        {
          "Description": "Preheat oven to 400°F.   Coat chicken with coating mix; place in roasting pan.",
          "PreparationStepImage": {
            "PictureFormats": [],
            "author": null,
            "id": null,
            "imageType": null,
            "mimeType": null,
            "publicationDate": null,
            "status": null,
            "title": null,
            "type": null
          },
          "Sequence": 1
        },
        {
          "Description": "Bake 1 hour or until chicken is cooked through (165°F).",
          "PreparationStepImage": {
            "PictureFormats": [],
            "author": null,
            "id": null,
            "imageType": null,
            "mimeType": null,
            "publicationDate": null,
            "status": null,
            "title": null,
            "type": null
          },
          "Sequence": 2
        },
        {
          "Description": "Serve with roasted potato wedges and steamed baby carrots.",
          "PreparationStepImage": {
            "PictureFormats": [],
            "author": null,
            "id": null,
            "imageType": null,
            "mimeType": null,
            "publicationDate": null,
            "status": null,
            "title": null,
            "type": null
          },
          "Sequence": 3
        }
      ],
      "PreparationTime": 10,
      "Promotion": null,
      "Ratings": {
        "TotalCount": 7,
        "PageCount": 10,
        "PageNo": 1,
        "Rating": [
          {
            "Comment": "This meal was ok. I was expecting the chicken to be more crispy than it was.",
            "DisplayName": true,
            "RatingValue": 3,
            "SubmitDate": "/Date(1266272722000-0600)/",
            "UpdatedDate": "/Date(1266272722000-0600)/",
            "UserName": "aquafina10821"
          },
          {
            "Comment": "Coat a WHOLE chicken in Shake & Bake, never thought of such a thing.  I may just have to try this.",
            "DisplayName": true,
            "RatingValue": 3,
            "SubmitDate": "/Date(1200211637000-0600)/",
            "UpdatedDate": "/Date(1200211637000-0600)/",
            "UserName": "tamire1"
          },
          {
            "Comment": "my family enjoyed the Chicken.",
            "DisplayName": true,
            "RatingValue": 4,
            "SubmitDate": "/Date(1192849147000-0500)/",
            "UpdatedDate": "/Date(1192849147000-0500)/",
            "UserName": "chattiekath"
          },
          {
            "Comment": "This was sooo good! I only made one chicken. It was kind of tricky to coat an entire chicken with Shake and Bake but the end result was a chicken that was so juicy and tender. ",
            "DisplayName": false,
            "RatingValue": 5,
            "SubmitDate": "/Date(1177357601000-0500)/",
            "UpdatedDate": "/Date(1177357601000-0500)/",
            "UserName": "PureIce23"
          },
          {
            "Comment": "The chicken was very good and the wraps were awesome. My 12 year old daughter took the wraps to school for lunch. We are definitely making them again. ",
            "DisplayName": true,
            "RatingValue": 5,
            "SubmitDate": "/Date(1127670786000-0500)/",
            "UpdatedDate": "/Date(1127670786000-0500)/",
            "UserName": "Jusacuz"
          },
          {
            "Comment": "",
            "DisplayName": true,
            "RatingValue": 4,
            "SubmitDate": "/Date(1102538724000-0600)/",
            "UpdatedDate": "/Date(1102538724000-0600)/",
            "UserName": "sherry1360"
          },
          {
            "Comment": "The wrap is great.  I used olive oil viniagrette instead of ranch for less fat.",
            "DisplayName": false,
            "RatingValue": 4,
            "SubmitDate": "/Date(1100552741000-0600)/",
            "UpdatedDate": "/Date(1100552808000-0600)/",
            "UserName": "Cansas1"
          }
        ]
      },
      "RecipeDisplayFormatId": 5,
      "RecipeId": 66318,
      "RecipeName": "Roast Chicken",
      "RecipeType": 0,
      "RelatedData": {
        "RelatedBrands": null,
        "RelatedProducts": null,
        "RelatedRecipes": {
          "DefaultTopCount": 5,
          "Recipe": [
            {
              "AverageRating": 4.5,
              "HasVideo": false,
              "IsHealthyLiving": false,
              "NumberOfRatings": 225,
              "PhotoName": "63162.jpg",
              "PhotoUrl": "http://assets.kraftfoods.com/recipe_images/opendeploy/63162.jpg",
              "RecipeId": 63162,
              "RecipeName": "Greek-Style Lemon Roast Chicken",
              "SEOName": "greek-style-lemon-roast-chicken-63162",
              "ThumbnailPhoto": null
            },
            {
              "AverageRating": 5,
              "HasVideo": false,
              "IsHealthyLiving": false,
              "NumberOfRatings": 1,
              "PhotoName": "169174.jpg",
              "PhotoUrl": "http://assets.kraftfoods.com/recipe_images/opendeploy/169174.jpg",
              "RecipeId": 169174,
              "RecipeName": "Maple-Mustard Roast Chicken Dinner",
              "SEOName": "maple-mustard-roast-chicken-dinner-169174",
              "ThumbnailPhoto": null
            },
            {
              "AverageRating": 5,
              "HasVideo": true,
              "IsHealthyLiving": false,
              "NumberOfRatings": 2,
              "PhotoName": "166475_MXM_64830CR.jpg",
              "PhotoUrl": "http://assets.kraftfoods.com/recipe_images/opendeploy/166475_MXM_64830CR.jpg",
              "RecipeId": 166475,
              "RecipeName": "Oven-Roasted Spatchcock Chicken",
              "SEOName": "oven-roasted-spatchcock-chicken-166475",
              "ThumbnailPhoto": null
            },
            {
              "AverageRating": 5,
              "HasVideo": false,
              "IsHealthyLiving": false,
              "NumberOfRatings": 1,
              "PhotoName": "Chicken-Breast-Roasted-Tomato-Queso-Sauce-64477.jpg",
              "PhotoUrl": "http://assets.kraftfoods.com/recipe_images/opendeploy/Chicken-Breast-Roasted-Tomato-Queso-Sauce-64477.jpg",
              "RecipeId": 164348,
              "RecipeName": "Chicken Breasts with Roasted Tomato-Queso Sauce",
              "SEOName": "chicken-breasts-roasted-tomato-queso-sauce-164348",
              "ThumbnailPhoto": null
            },
            {
              "AverageRating": 5,
              "HasVideo": false,
              "IsHealthyLiving": false,
              "NumberOfRatings": 1,
              "PhotoName": "162225.jpg",
              "PhotoUrl": "http://assets.kraftfoods.com/recipe_images/opendeploy/162225.jpg",
              "RecipeId": 162225,
              "RecipeName": "Grilled Chicken Legs with Roasted Corn Packets",
              "SEOName": "grilled-chicken-legs-roasted-corn-packets-162225",
              "ThumbnailPhoto": null
            }
          ],
          "TotalCount": 1837
        }
      },
      "RiseIngredients": [],
      "RiseTaxonomy": [],
      "Riserecipe": [
        {
          "GRIN": 548357,
          "RecipeId": 66318,
          "RecipeIndustrySector": "Retail",
          "RecipeType": "Internal"
        }
      ],
      "RomanceText": "Roasted chicken is made easy thanks to SHAKE 'N BAKE Chicken Coating Mix. Prep takes only 10 minutes, and it makes for yummy leftovers too.",
      "SEOName": "roast-chicken-66318",
      "Tips": [
        {
          "RecipeId": 66318,
          "Sequence": 10,
          "TipDescription": "Plan ahead!  Prepare as directed, doubling all ingredients.  Refrigerate one of the chickens overnight.  The next day, cut refrigerated chicken into strips; place evenly down centers of 4 whole wheat pita breads. Top evenly with 1 <u>each</u> red and green pepper, cut into strips; 1 cup shredded lettuce and 1 chopped tomato.  Sprinkle each with 1 Tbsp. ATHENOS Crumbled Feta Cheese with Lemon, Garlic & Oregano.  Drizzle evenly with 1/4 cup KRAFT Cucumber Ranch Dressing.  Fold in both sides of each pita to create a wrap.  Serve immediately.  Makes 4 servings, one wrap each.",
          "TipID": 6,
          "TipName": "Greek Chicken in a Pita Wrap"
        },
        {
          "RecipeId": 66318,
          "Sequence": 20,
          "TipDescription": "Serve the roast chicken with a mixed green salad and a whole grain roll for an easy meal. Then serve your family's favorite vegetable the next day with the pita wrap.",
          "TipID": 4,
          "TipName": "Serving Suggestion"
        },
        {
          "RecipeId": 66318,
          "Sequence": 30,
          "TipDescription": "Plan for tomorrow's meal by roasting two chickens today. The Greek Chicken in a Pita Wrap has 610 calories, 26g fat, 7g saturated fat, 100mg cholesterol, 1060mg sodium, 56g of carbohydrate, 8g dietary fiber, 4g sugars, 40g protein, 40%DV vitamin A, 140%DV vitamin C, 6%DV calcium, and 25%DV iron per serving.",
          "TipID": 5,
          "TipName": "Creative Leftovers"
        }
      ],
      "TotalTime": 70,
      "TradeMarkInfo": null,
      "Video": [],
      "Yield": "Makes 4 servings."
    }
  ]
}