{
  "Metadata": {
    "PageCount": 1,
    "PageNo": 0,
    "TotalCount": 0
  },
  "Recipes": [
    {
      "AdServingKeywords": "Cheddar,Cheese,Chicken,Lettuce,Meat,Peppers,Poultry,Entree,Nutrition and Well-Being,Dinner,Lunch,All Seasons,Kraft Cheese,Kraft Salad Dressing,Kraft Shredded Cheese,Taco Bell®,Spicy",
      "AlternateLanguageRecipes": [],
      "Assets": [],
      "AverageRating": 0,
      "BrandId": 1,
      "Branding": null,
      "CSSSkins": null,
      "CarbCounter": "1-1/2",
      "Categories": [
        {
          "CategoryID": 2,
          "CategoryName": "Poultry Entrees",
          "CategoryRank": 11,
          "SubCategoryID": 381,
          "SubCategoryName": "Enchiladas/Fajitas/Tacos",
          "SubCategoryRank": 30
        },
        {
          "CategoryID": 11,
          "CategoryName": "Primary",
          "CategoryRank": 0,
          "SubCategoryID": 97,
          "SubCategoryName": "Entrees",
          "SubCategoryRank": 50
        },
        {
          "CategoryID": 755,
          "CategoryName": "International Flavours",
          "CategoryRank": 9,
          "SubCategoryID": 2557,
          "SubCategoryName": "Asian",
          "SubCategoryRank": 1
        },
        {
          "CategoryID": 756,
          "CategoryName": "Main Meals (Meat / Seafood / Egg)",
          "CategoryRank": 10,
          "SubCategoryID": 2562,
          "SubCategoryName": "Chicken",
          "SubCategoryRank": 1
        }
      ],
      "Classifications": [
        {
          "ClassficationId": 7,
          "ClassificationName": "Good source of calcium"
        },
        {
          "ClassficationId": 11,
          "ClassificationName": "Low calorie"
        },
        {
          "ClassficationId": 13,
          "ClassificationName": "Good source of vitamin A or C"
        },
        {
          "ClassficationId": 14,
          "ClassificationName": "Generally Nutritious"
        },
        {
          "ClassficationId": 119,
          "ClassificationName": "Diabetes Center"
        }
      ],
      "ComplimentaryRecipes": null,
      "CookingMethod": null,
      "Copyright": null,
      "Courses": [
        "Main dishes"
      ],
      "DietExchange": "1-1/2 Starch,1 Vegetable,5 Meat (L)",
      "DishDetails": [
        {
          "Text": "chicken recipes",
          "Url": "/recipes/dinner/chicken-recipes/main.aspx"
        },
        {
          "Text": "grilled chicken recipes",
          "Url": "/recipes/dinner/chicken-recipes/grilled-chicken/main.aspx"
        },
        {
          "Text": "healthy living chicken recipes",
          "Url": "/recipes/dinner/chicken-recipes/hl/main.aspx"
        },
        {
          "Text": "slow cooker chicken recipes",
          "Url": "/recipes/dinner/chicken-recipes/slow-cooker/main.aspx"
        },
        {
          "Text": "whole chicken recipes",
          "Url": "/recipes/dinner/chicken-recipes/whole-chicken/main.aspx"
        },
        {
          "Text": "chicken breast recipes",
          "Url": "/recipes/dinner/chicken-recipes/chicken-breast/main.aspx"
        },
        {
          "Text": "chicken casseroles",
          "Url": "/recipes/dinner/chicken-recipes/casseroles/main.aspx"
        },
        {
          "Text": "chicken pasta recipes",
          "Url": "/recipes/dinner/chicken-recipes/pasta-dishes/main.aspx"
        },
        {
          "Text": "chicken salad recipes",
          "Url": "/recipes/dinner/chicken-recipes/salads/main.aspx"
        },
        {
          "Text": "chicken stir-fry recipes",
          "Url": "/recipes/dinner/chicken-recipes/stir-fry/main.aspx"
        },
        {
          "Text": "chicken wing recipes",
          "Url": "/recipes/appetizers/chicken-wing-recipes/main.aspx"
        },
        {
          "Text": "baked chicken recipes",
          "Url": "/recipes/dinner/chicken-recipes/baked-chicken/main.aspx"
        },
        {
          "Text": "bbq chicken recipes",
          "Url": "/recipes/holidays-and-entertaining/entertaining/summer/bbq-recipes/bbq-chicken-recipes/main.aspx"
        }
      ],
      "EndDate": "/Date(-62135575200000-0600)/",
      "HasVideo": false,
      "Ingredients": [
        {
          "FullMeasure": "1 tsp.",
          "FullWeight": "",
          "IngredientGridHeaders": null,
          "IngredientID": 1366,
          "IngredientName": "oil",
          "IngredientStep": 10,
          "LanguageId": 0,
          "PostPreparation": "",
          "PrePreparation": "",
          "QuantityNum": 1,
          "QuantityText": "1",
          "QuantityUnit": "tsp.",
          "RecipeIngredientID": 4422562,
          "TrialMeasure": "",
          "TrialWeight": ""
        },
        {
          "FullMeasure": "1/2 lb.",
          "FullWeight": "",
          "IngredientGridHeaders": null,
          "IngredientID": 825,
          "IngredientName": "boneless skinless chicken breast",
          "IngredientStep": 20,
          "LanguageId": 0,
          "PostPreparation": "s, cut into thin strips",
          "PrePreparation": "",
          "QuantityNum": 0,
          "QuantityText": "1/2",
          "QuantityUnit": "lb.",
          "RecipeIngredientID": 4422567,
          "TrialMeasure": "",
          "TrialWeight": ""
        },
        {
          "FullMeasure": "1/2",
          "FullWeight": "",
          "IngredientGridHeaders": null,
          "IngredientID": 5289,
          "IngredientName": "green and red pepper",
          "IngredientStep": 30,
          "LanguageId": 0,
          "PostPreparation": ", cut into thin strips",
          "PrePreparation": "<u>each</u>",
          "QuantityNum": 0,
          "QuantityText": "1/2",
          "QuantityUnit": "",
          "RecipeIngredientID": 4422563,
          "TrialMeasure": "",
          "TrialWeight": ""
        },
        {
          "FullMeasure": "1/4 cup",
          "FullWeight": "",
          "IngredientGridHeaders": null,
          "IngredientID": 1826,
          "IngredientName": "TACO BELL® Thick & Chunky Salsa",
          "IngredientStep": 40,
          "LanguageId": 0,
          "PostPreparation": "",
          "PrePreparation": "",
          "QuantityNum": 0,
          "QuantityText": "1/4",
          "QuantityUnit": "cup",
          "RecipeIngredientID": 4422566,
          "TrialMeasure": "",
          "TrialWeight": ""
        },
        {
          "FullMeasure": "2 Tbsp.",
          "FullWeight": "",
          "IngredientGridHeaders": null,
          "IngredientID": 4589,
          "IngredientName": "KRAFT Lite Ranch Dressing",
          "IngredientStep": 50,
          "LanguageId": 0,
          "PostPreparation": "",
          "PrePreparation": "",
          "QuantityNum": 2,
          "QuantityText": "2",
          "QuantityUnit": "Tbsp.",
          "RecipeIngredientID": 4422565,
          "TrialMeasure": "",
          "TrialWeight": ""
        },
        {
          "FullMeasure": "2",
          "FullWeight": "",
          "IngredientGridHeaders": null,
          "IngredientID": 1767,
          "IngredientName": "whole wheat tortilla",
          "IngredientStep": 60,
          "LanguageId": 0,
          "PostPreparation": "s (10 inch), warmed",
          "PrePreparation": "",
          "QuantityNum": 2,
          "QuantityText": "2",
          "QuantityUnit": "",
          "RecipeIngredientID": 4422568,
          "TrialMeasure": "",
          "TrialWeight": ""
        },
        {
          "FullMeasure": "1/2 cup",
          "FullWeight": "",
          "IngredientGridHeaders": null,
          "IngredientID": 3717,
          "IngredientName": "KRAFT 2% Milk Shredded Sharp Cheddar Cheese",
          "IngredientStep": 70,
          "LanguageId": 0,
          "PostPreparation": "",
          "PrePreparation": "",
          "QuantityNum": 0,
          "QuantityText": "1/2",
          "QuantityUnit": "cup",
          "RecipeIngredientID": 4422564,
          "TrialMeasure": "",
          "TrialWeight": ""
        },
        {
          "FullMeasure": "3/4 cup",
          "FullWeight": "",
          "IngredientGridHeaders": null,
          "IngredientID": 1297,
          "IngredientName": "lettuce",
          "IngredientStep": 80,
          "LanguageId": 0,
          "PostPreparation": "",
          "PrePreparation": "shredded",
          "QuantityNum": 0,
          "QuantityText": "3/4",
          "QuantityUnit": "cup",
          "RecipeIngredientID": 4422561,
          "TrialMeasure": "",
          "TrialWeight": ""
        }
      ],
      "IsHealthyLiving": true,
      "KRLId": "560396",
      "KeyIngredients": [
        "Cheddar",
        "Cheese",
        "Chicken",
        "Lettuce",
        "Meat",
        "Peppers",
        "Poultry"
      ],
      "Keywords": "oil,peppers,ranch dressing,red peppers,chicken,chicken breasts-boneless,green peppers,KRAFT Cheddar Cheese,KRAFT LIGHT Dressing,lettuce,meat,salsa,tortillas,TACO BELL Salsa,dressing-reduced fat,salad dressing-reduced fat,TACO BELL,cheddar cheese-reduced fat,bell peppers,cheese-reduced fat,2% milk,Entree,Nutrition and Well-Being,Dinner,Lunch,All Seasons,Spicy",
      "LanguageId": 1,
      "LifeStyles": [
        "Good source of calcium",
        "Low calorie",
        "Good source of vitamin A or C",
        "Generally Nutritious",
        "Diabetes Center"
      ],
      "NumberOfIngredients": 8,
      "NumberOfRatings": 0,
      "NumberOfRatingsWithComments": "0",
      "NumberOfServings": " 4 servings ",
      "NumberOfTrialServings": "",
      "NutritionBonus": "The cheese in this easy-to-prepare low-calorie meal provides a good source of calcium.   And as a bonus, the colorful peppers provide an excellent source of vitamin C.",
      "NutritionExchangeItemId": 3,
      "NutritionGridItems": null,
      "NutritionItems": [
        {
          "DisplayOrder": 1,
          "Document": null,
          "NutritionItemID": 3,
          "NutritionItemName": "Calories",
          "Predriscriptor": "",
          "Quantity": 380,
          "Unit": "          "
        },
        {
          "DisplayOrder": 2,
          "Document": "fat_cholesterol.html",
          "NutritionItemID": 4,
          "NutritionItemName": "Total fat",
          "Predriscriptor": "",
          "Quantity": 16,
          "Unit": "g         "
        },
        {
          "DisplayOrder": 3,
          "Document": "fat_cholesterol.html",
          "NutritionItemID": 9,
          "NutritionItemName": "Saturated fat",
          "Predriscriptor": "",
          "Quantity": 5,
          "Unit": "g         "
        },
        {
          "DisplayOrder": 7,
          "Document": "fat_cholesterol.html",
          "NutritionItemID": 2,
          "NutritionItemName": "Cholesterol",
          "Predriscriptor": "",
          "Quantity": 90,
          "Unit": "mg        "
        },
        {
          "DisplayOrder": 8,
          "Document": "sodium.html",
          "NutritionItemID": 8,
          "NutritionItemName": "Sodium",
          "Predriscriptor": "",
          "Quantity": 990,
          "Unit": "mg        "
        },
        {
          "DisplayOrder": 10,
          "Document": "carbs_sugars_fiber.html",
          "NutritionItemID": 1,
          "NutritionItemName": "Carbohydrate",
          "Predriscriptor": "",
          "Quantity": 30,
          "Unit": "g         "
        },
        {
          "DisplayOrder": 11,
          "Document": "carbs_sugars_fiber.html",
          "NutritionItemID": 7,
          "NutritionItemName": "Dietary fiber",
          "Predriscriptor": "",
          "Quantity": 14,
          "Unit": "g         "
        },
        {
          "DisplayOrder": 12,
          "Document": "carbs_sugars_fiber.html",
          "NutritionItemID": 5,
          "NutritionItemName": "Sugars",
          "Predriscriptor": "",
          "Quantity": 5,
          "Unit": "g         "
        },
        {
          "DisplayOrder": 13,
          "Document": null,
          "NutritionItemID": 6,
          "NutritionItemName": "Protein",
          "Predriscriptor": "",
          "Quantity": 40,
          "Unit": "g         "
        },
        {
          "DisplayOrder": 14,
          "Document": null,
          "NutritionItemID": 10,
          "NutritionItemName": "Vitamin A",
          "Predriscriptor": "",
          "Quantity": 40,
          "Unit": "%DV       "
        },
        {
          "DisplayOrder": 15,
          "Document": null,
          "NutritionItemID": 11,
          "NutritionItemName": "Vitamin C",
          "Predriscriptor": "",
          "Quantity": 70,
          "Unit": "%DV       "
        },
        {
          "DisplayOrder": 16,
          "Document": "dairy_and_calcium.html",
          "NutritionItemID": 12,
          "NutritionItemName": "Calcium",
          "Predriscriptor": "",
          "Quantity": 50,
          "Unit": "%DV       "
        },
        {
          "DisplayOrder": 17,
          "Document": null,
          "NutritionItemID": 13,
          "NutritionItemName": "Iron",
          "Predriscriptor": "",
          "Quantity": 15,
          "Unit": "%DV       "
        }
      ],
      "NutritionServingText": "",
      "PrepStepImage": null,
      "PreparationDescription": "Heat oil in large skillet on medium-high heat. Add chicken; cook and stir 1 min.  Add peppers; cook and stir 8 min. or until chicken is done and peppers are crisp-tender.  Remove from heat.  Stir in salsa and dressing.$Spoon chicken mixture down centers of tortillas; top with cheese and lettuce.$Roll up tightly. Cut in half.",
      "PreparationPreText": "",
      "PreparationSteps": [
        {
          "Description": "Heat oil in large skillet on medium-high heat. Add chicken; cook and stir 1 min.  Add peppers; cook and stir 8 min. or until chicken is done and peppers are crisp-tender.  Remove from heat.  Stir in salsa and dressing.",
          "PreparationStepImage": {
            "PictureFormats": [],
            "author": null,
            "id": null,
            "imageType": null,
            "mimeType": null,
            "publicationDate": null,
            "status": null,
            "title": null,
            "type": null
          },
          "Sequence": 1
        },
        {
          "Description": "Spoon chicken mixture down centers of tortillas; top with cheese and lettuce.",
          "PreparationStepImage": {
            "PictureFormats": [],
            "author": null,
            "id": null,
            "imageType": null,
            "mimeType": null,
            "publicationDate": null,
            "status": null,
            "title": null,
            "type": null
          },
          "Sequence": 2
        },
        {
          "Description": "Roll up tightly. Cut in half.",
          "PreparationStepImage": {
            "PictureFormats": [],
            "author": null,
            "id": null,
            "imageType": null,
            "mimeType": null,
            "publicationDate": null,
            "status": null,
            "title": null,
            "type": null
          },
          "Sequence": 3
        }
      ],
      "PreparationTime": 20,
      "Promotion": null,
      "Ratings": {
        "TotalCount": 0,
        "PageCount": 10,
        "PageNo": 1,
        "Rating": []
      },
      "RecipeDisplayFormatId": 5,
      "RecipeId": 154322,
      "RecipeName": "Chicken Fajita Roll-Ups for Two",
      "RecipeType": 0,
      "RelatedData": {
        "RelatedBrands": null,
        "RelatedProducts": null,
        "RelatedRecipes": {
          "DefaultTopCount": 5,
          "Recipe": [
            {
              "AverageRating": 4.4,
              "HasVideo": false,
              "IsHealthyLiving": true,
              "NumberOfRatings": 10,
              "PhotoName": "Chicken-Fajita-Roll-Ups-55759.jpg",
              "PhotoUrl": "http://assets.kraftfoods.com/recipe_images/opendeploy/Chicken-Fajita-Roll-Ups-55759.jpg",
              "RecipeId": 121384,
              "RecipeName": "Chicken Fajita Roll-Ups",
              "SEOName": "chicken-fajita-roll-ups-121384",
              "ThumbnailPhoto": null
            },
            {
              "AverageRating": 4.5,
              "HasVideo": false,
              "IsHealthyLiving": true,
              "NumberOfRatings": 2,
              "PhotoName": "Our_Perfect_Zesty_Chicken_Tortilla_Bake.jpg",
              "PhotoUrl": "http://assets.kraftfoods.com/recipe_images/opendeploy/Our_Perfect_Zesty_Chicken_Tortilla_Bake.jpg",
              "RecipeId": 148573,
              "RecipeName": "Better Choice Our Perfect Zesty Chicken Tortilla Bake",
              "SEOName": "better-choice-our-perfect-zesty-chicken-tortilla-bake-148573",
              "ThumbnailPhoto": null
            },
            {
              "AverageRating": 4.5,
              "HasVideo": false,
              "IsHealthyLiving": false,
              "NumberOfRatings": 11,
              "PhotoName": "126792.jpg",
              "PhotoUrl": "http://assets.kraftfoods.com/recipe_images/opendeploy/126792.jpg",
              "RecipeId": 126792,
              "RecipeName": "Easy Enchilada Recipe",
              "SEOName": "easy-enchilada-recipe-126792",
              "ThumbnailPhoto": null
            },
            {
              "AverageRating": 4.5,
              "HasVideo": false,
              "IsHealthyLiving": true,
              "NumberOfRatings": 2,
              "PhotoName": "Chicken_Fajita_Lettuce_Wraps.jpg",
              "PhotoUrl": "http://assets.kraftfoods.com/recipe_images/opendeploy/Chicken_Fajita_Lettuce_Wraps.jpg",
              "RecipeId": 124883,
              "RecipeName": "Chicken Fajita Lettuce Wraps for Two",
              "SEOName": "chicken-fajita-lettuce-wraps-for-two-124883",
              "ThumbnailPhoto": null
            },
            {
              "AverageRating": 4,
              "HasVideo": false,
              "IsHealthyLiving": true,
              "NumberOfRatings": 1,
              "PhotoName": "Senorita-Fajita-Sandwich-58568B.jpg",
              "PhotoUrl": "http://assets.kraftfoods.com/recipe_images/opendeploy/Senorita-Fajita-Sandwich-58568B.jpg",
              "RecipeId": 119351,
              "RecipeName": "Senorita Fajita Sandwich",
              "SEOName": "senorita-fajita-sandwich-119351",
              "ThumbnailPhoto": null
            }
          ],
          "TotalCount": 2212
        }
      },
      "RiseIngredients": [],
      "RiseTaxonomy": [],
      "Riserecipe": [
        {
          "GRIN": 560396,
          "RecipeId": 154322,
          "RecipeIndustrySector": "Retail",
          "RecipeType": "Internal"
        }
      ],
      "RomanceText": "Show someone you care with these tasty Chicken Fajita Roll-Ups for Two—made with chicken and pepper strips, chunky salsa and shredded Cheddar cheese.",
      "SEOName": "chicken-fajita-roll-ups-for-two-154322",
      "Tips": [
        {
          "RecipeId": 154322,
          "Sequence": 10,
          "TipDescription": "Sprinkle chicken with 1 tsp. chili powder before cooking.",
          "TipID": 2,
          "TipName": "Special Extra"
        },
        {
          "RecipeId": 154322,
          "Sequence": 20,
          "TipDescription": "Always wash hands, preparation surfaces and utensils in hot, soapy water before and after contact with raw chicken.  Dry hands and surfaces with a clean towel or paper towels.  Take special care in washing worn cutting boards as there may be hard-to-clean grooves or cracks that can collect bacteria.",
          "TipID": 350,
          "TipName": "How to Safely Handle Raw Chicken"
        },
        {
          "RecipeId": 154322,
          "Sequence": 30,
          "TipDescription": "Prepare using 4 (6-inch) whole wheat tortillas.",
          "TipID": 3,
          "TipName": "Substitute"
        }
      ],
      "TotalTime": 20,
      "TradeMarkInfo": "TACO BELL® and Logo are trademarks owned and licensed by Taco Bell Corp.",
      "Video": [],
      "Yield": " 4 servings "
    }
  ]
}