{
  "Metadata": {
    "PageCount": 1,
    "PageNo": 0,
    "TotalCount": 0
  },
  "Recipes": [
    {
      "AdServingKeywords": "Baked,Entree,American,Easy,Beef,Cheddar,Cheese,Cream Cheese,Frozen Potatoes,Garlic,Gravy,Ground Beef,Meat,Vegetables,Kraft Cheese,Kraft Shredded Cheese,Ore-Ida,Philadelphia,All Seasons,Comfort Food,Dinner,St. Patricks Day,Casserole,Pies and Tarts",
      "AlternateLanguageRecipes": [],
      "Assets": [
        {
          "PictureFormats": [
            {
              "rendition": "640x428",
              "url": "http://assets.kraftfoods.com/recipe_images/opendeploy/108691_640x428.jpg"
            },
            {
              "rendition": "290x194",
              "url": "http://assets.kraftfoods.com/recipe_images/opendeploy/108691_290x194.jpg"
            },
            {
              "rendition": "600x250",
              "url": "http://assets.kraftfoods.com/recipe_images/opendeploy/108691_600x250.jpg"
            },
            {
              "rendition": "640x428",
              "url": "http://assets.kraftfoods.com/recipe_images/opendeploy/108691_640x428.jpg"
            }
          ],
          "author": null,
          "id": "3",
          "imageType": "Primary",
          "mimeType": "image/jpeg",
          "publicationDate": null,
          "status": "1",
          "title": "108691",
          "type": "image"
        },
        {
          "PictureFormats": [
            {
              "rendition": "300x200",
              "url": "http://assets.kraftfoods.com/recipe_images/108691.jpg"
            },
            {
              "rendition": "300x200",
              "url": "http://assets.kraftfoods.com/recipe_images/Easy_Shepherd_s_Pie.jpg"
            }
          ],
          "author": null,
          "id": "1",
          "imageType": "LANDSCAPE",
          "mimeType": "image/jpeg",
          "publicationDate": null,
          "status": "1",
          "title": "Easy_Shepherd_s_Pie.jpg",
          "type": "image"
        }
      ],
      "AverageRating": 4.4,
      "BrandId": 1,
      "Branding": {
        "IngredientElevation": "",
        "PromoAltText": "",
        "PromoImage": "",
        "PromoLink": "",
        "SponsorshipAltText": "",
        "SponsorshipLink": "",
        "SponsorshipLogo": "",
        "UpperRightImage": ""
      },
      "CSSSkins": [
        {
          "brand": "Phillyskin1",
          "fileName": "",
          "id": "1"
        }
      ],
      "CarbCounter": null,
      "Categories": [
        {
          "CategoryID": 7,
          "CategoryName": "Pork/Beef Entrees",
          "CategoryRank": 10,
          "SubCategoryID": 404,
          "SubCategoryName": "Beef: Casseroles",
          "SubCategoryRank": 10
        },
        {
          "CategoryID": 11,
          "CategoryName": "Primary",
          "CategoryRank": 0,
          "SubCategoryID": 97,
          "SubCategoryName": "Entrees",
          "SubCategoryRank": 50
        },
        {
          "CategoryID": 756,
          "CategoryName": "Main Meals (Meat / Seafood / Egg)",
          "CategoryRank": 10,
          "SubCategoryID": 2563,
          "SubCategoryName": "Beef",
          "SubCategoryRank": 1
        },
        {
          "CategoryID": 756,
          "CategoryName": "Main Meals (Meat / Seafood / Egg)",
          "CategoryRank": 10,
          "SubCategoryID": 2564,
          "SubCategoryName": "Pork",
          "SubCategoryRank": 1
        },
        {
          "CategoryID": 1764,
          "CategoryName": "Philly Dinner",
          "CategoryRank": 0,
          "SubCategoryID": 16865,
          "SubCategoryName": "Brick Cream Cheese",
          "SubCategoryRank": 0
        },
        {
          "CategoryID": 1764,
          "CategoryName": "Philly Dinner",
          "CategoryRank": 0,
          "SubCategoryID": 16869,
          "SubCategoryName": "Use for All",
          "SubCategoryRank": 0
        }
      ],
      "Classifications": [],
      "ComplimentaryRecipes": null,
      "CookingMethod": null,
      "Copyright": null,
      "Courses": [
        "Main dishes"
      ],
      "DietExchange": null,
      "DishDetails": [
        {
          "Text": "ground beef recipes",
          "Url": "/recipes/dinner/ground-beef-recipes/main.aspx"
        },
        {
          "Text": "top 10 beef recipes",
          "Url": "/recipes/dinner/top-10/beef-recipes/main.aspx"
        },
        {
          "Text": "1 bag 5 dinners",
          "Url": "/recipes/dinner/1Bag5Dinners/1bag5dinnerschickenbeef.aspx"
        },
        {
          "Text": "casseroles",
          "Url": "/recipes/dinner/casserole-recipes/main.aspx"
        },
        {
          "Text": "chicken casseroles",
          "Url": "/recipes/dinner/chicken-recipes/casseroles/main.aspx"
        },
        {
          "Text": "seafood casseroles",
          "Url": "/recipes/dinner/seafood/casseroles/main.aspx"
        },
        {
          "Text": "pumpkin pie recipes",
          "Url": "/recipes/holidays-and-entertaining/holidays/Thanksgiving/pumpkin-pie-recipes.aspx"
        },
        {
          "Text": "pie recipes",
          "Url": "/recipes/dessert/pie-recipes/main.aspx"
        }
      ],
      "EndDate": "/Date(-62135575200000-0600)/",
      "HasVideo": false,
      "Ingredients": [
        {
          "FullMeasure": null,
          "FullWeight": null,
          "IngredientGridHeaders": null,
          "IngredientID": 71353,
          "IngredientName": "lean ground beef",
          "IngredientStep": 10,
          "LanguageId": 0,
          "PostPreparation": "",
          "PrePreparation": "",
          "QuantityNum": 1,
          "QuantityText": "1",
          "QuantityUnit": "lb.",
          "RecipeIngredientID": 125438,
          "TrialMeasure": null,
          "TrialWeight": null
        },
        {
          "FullMeasure": null,
          "FullWeight": null,
          "IngredientGridHeaders": null,
          "IngredientID": 68375,
          "IngredientName": "frozen mixed vegetables (peas, carrots, corn and green beans), thawed",
          "IngredientStep": 20,
          "LanguageId": 0,
          "PostPreparation": "",
          "PrePreparation": "",
          "QuantityNum": 4,
          "QuantityText": "4",
          "QuantityUnit": "cups",
          "RecipeIngredientID": 125243,
          "TrialMeasure": null,
          "TrialWeight": null
        },
        {
          "FullMeasure": null,
          "FullWeight": null,
          "IngredientGridHeaders": null,
          "IngredientID": 72539,
          "IngredientName": "HEINZ Homestyle Savory Beef Gravy",
          "IngredientStep": 30,
          "LanguageId": 0,
          "PostPreparation": "",
          "PrePreparation": "",
          "QuantityNum": 1,
          "QuantityText": "1",
          "QuantityUnit": "cup",
          "RecipeIngredientID": 126056,
          "TrialMeasure": null,
          "TrialWeight": null
        },
        {
          "FullMeasure": null,
          "FullWeight": null,
          "IngredientGridHeaders": null,
          "IngredientID": 73654,
          "IngredientName": "hot prepared ORE-IDA STEAM N' MASH Cut Russet Potatoes (1/2 of 24-oz. pkg.)",
          "IngredientStep": 40,
          "LanguageId": 0,
          "PostPreparation": "",
          "PrePreparation": "",
          "QuantityNum": 2,
          "QuantityText": "2",
          "QuantityUnit": "cups",
          "RecipeIngredientID": 125832,
          "TrialMeasure": null,
          "TrialWeight": null
        },
        {
          "FullMeasure": null,
          "FullWeight": null,
          "IngredientGridHeaders": null,
          "IngredientID": 68324,
          "IngredientName": "(1/2 of 8-oz. pkg.) PHILADELPHIA Cream Cheese, cubed",
          "IngredientStep": 50,
          "LanguageId": 0,
          "PostPreparation": "",
          "PrePreparation": "",
          "QuantityNum": 4,
          "QuantityText": "4",
          "QuantityUnit": "oz.",
          "RecipeIngredientID": 128752,
          "TrialMeasure": null,
          "TrialWeight": null
        },
        {
          "FullMeasure": null,
          "FullWeight": null,
          "IngredientGridHeaders": null,
          "IngredientID": 68817,
          "IngredientName": "garlic, minced",
          "IngredientStep": 60,
          "LanguageId": 0,
          "PostPreparation": "",
          "PrePreparation": "",
          "QuantityNum": 2,
          "QuantityText": "2",
          "QuantityUnit": "cloves",
          "RecipeIngredientID": 125831,
          "TrialMeasure": null,
          "TrialWeight": null
        },
        {
          "FullMeasure": null,
          "FullWeight": null,
          "IngredientGridHeaders": null,
          "IngredientID": 68500,
          "IngredientName": "KRAFT Shredded Cheddar Cheese, divided",
          "IngredientStep": 70,
          "LanguageId": 0,
          "PostPreparation": "",
          "PrePreparation": "",
          "QuantityNum": 1,
          "QuantityText": "1",
          "QuantityUnit": "cup",
          "RecipeIngredientID": 121309,
          "TrialMeasure": null,
          "TrialWeight": null
        }
      ],
      "IsHealthyLiving": false,
      "KRLId": "558413",
      "KeyIngredients": [],
      "Keywords": "Baked,Entree,American,Easy,All Seasons,Comfort Food,St. Patricks Day,Casserole,Pies and Tarts",
      "LanguageId": 1,
      "LifeStyles": [],
      "NumberOfIngredients": 7,
      "NumberOfRatings": 444,
      "NumberOfRatingsWithComments": "377",
      "NumberOfServings": "6 servings",
      "NumberOfTrialServings": null,
      "NutritionBonus": null,
      "NutritionExchangeItemId": 0,
      "NutritionGridItems": null,
      "NutritionItems": [
        {
          "DisplayOrder": 0,
          "Document": null,
          "NutritionItemID": 384,
          "NutritionItemName": "Vitamin D",
          "Predriscriptor": "",
          "Quantity": 0,
          "Unit": "%DV       "
        },
        {
          "DisplayOrder": 0,
          "Document": null,
          "NutritionItemID": 385,
          "NutritionItemName": "Vitamin E",
          "Predriscriptor": "",
          "Quantity": 0,
          "Unit": "%DV       "
        },
        {
          "DisplayOrder": 0,
          "Document": null,
          "NutritionItemID": 388,
          "NutritionItemName": "Potassium",
          "Predriscriptor": "",
          "Quantity": 4,
          "Unit": "%DV       "
        },
        {
          "DisplayOrder": 0,
          "Document": null,
          "NutritionItemID": 390,
          "NutritionItemName": "Added Sugars",
          "Predriscriptor": "",
          "Quantity": 0,
          "Unit": "g         "
        },
        {
          "DisplayOrder": 1,
          "Document": null,
          "NutritionItemID": 371,
          "NutritionItemName": "Calories",
          "Predriscriptor": "",
          "Quantity": 340,
          "Unit": "          "
        },
        {
          "DisplayOrder": 2,
          "Document": null,
          "NutritionItemID": 376,
          "NutritionItemName": "Total fat",
          "Predriscriptor": "",
          "Quantity": 18,
          "Unit": "g         "
        },
        {
          "DisplayOrder": 3,
          "Document": null,
          "NutritionItemID": 377,
          "NutritionItemName": "Saturated fat",
          "Predriscriptor": "",
          "Quantity": 10,
          "Unit": "g         "
        },
        {
          "DisplayOrder": 4,
          "Document": null,
          "NutritionItemID": 379,
          "NutritionItemName": "Polyunsaturated Fat",
          "Predriscriptor": "",
          "Quantity": 0,
          "Unit": "g         "
        },
        {
          "DisplayOrder": 5,
          "Document": null,
          "NutritionItemID": 378,
          "NutritionItemName": "Monounsaturated Fat",
          "Predriscriptor": "",
          "Quantity": 2.5,
          "Unit": "g         "
        },
        {
          "DisplayOrder": 6,
          "Document": null,
          "NutritionItemID": 380,
          "NutritionItemName": "Trans Fat",
          "Predriscriptor": "",
          "Quantity": 0.5,
          "Unit": "g         "
        },
        {
          "DisplayOrder": 7,
          "Document": null,
          "NutritionItemID": 381,
          "NutritionItemName": "Cholesterol",
          "Predriscriptor": "",
          "Quantity": 75,
          "Unit": "mg        "
        },
        {
          "DisplayOrder": 8,
          "Document": null,
          "NutritionItemID": 389,
          "NutritionItemName": "Sodium",
          "Predriscriptor": "",
          "Quantity": 580,
          "Unit": "mg        "
        },
        {
          "DisplayOrder": 10,
          "Document": null,
          "NutritionItemID": 373,
          "NutritionItemName": "Carbohydrate",
          "Predriscriptor": "",
          "Quantity": 19,
          "Unit": "g         "
        },
        {
          "DisplayOrder": 11,
          "Document": null,
          "NutritionItemID": 374,
          "NutritionItemName": "Dietary fiber",
          "Predriscriptor": "",
          "Quantity": 7,
          "Unit": "g         "
        },
        {
          "DisplayOrder": 12,
          "Document": null,
          "NutritionItemID": 375,
          "NutritionItemName": "Sugars",
          "Predriscriptor": "",
          "Quantity": 1,
          "Unit": "g         "
        },
        {
          "DisplayOrder": 13,
          "Document": null,
          "NutritionItemID": 372,
          "NutritionItemName": "Protein",
          "Predriscriptor": "",
          "Quantity": 24,
          "Unit": "g         "
        },
        {
          "DisplayOrder": 14,
          "Document": null,
          "NutritionItemID": 382,
          "NutritionItemName": "Vitamin A",
          "Predriscriptor": "",
          "Quantity": 70,
          "Unit": "%DV       "
        },
        {
          "DisplayOrder": 15,
          "Document": null,
          "NutritionItemID": 383,
          "NutritionItemName": "Vitamin C",
          "Predriscriptor": "",
          "Quantity": 10,
          "Unit": "%DV       "
        },
        {
          "DisplayOrder": 16,
          "Document": null,
          "NutritionItemID": 386,
          "NutritionItemName": "Calcium",
          "Predriscriptor": "",
          "Quantity": 25,
          "Unit": "%DV       "
        },
        {
          "DisplayOrder": 17,
          "Document": null,
          "NutritionItemID": 387,
          "NutritionItemName": "Iron",
          "Predriscriptor": "",
          "Quantity": 25,
          "Unit": "%DV       "
        }
      ],
      "NutritionServingText": null,
      "PrepStepImage": "Easy-Shepherd-Pie-Step1.jpg$Easy-Shepherd-Pie-Step2.jpg$Easy-Shepherd-Pie-Step3.jpg$Easy-Shepherd-Pie-Step4.jpg",
      "PreparationDescription": "Brown meat in large skillet; drain.   Return meat to skillet. Add mixed vegetables and gravy; mix well. $Spoon into 9-inch square baking dish sprayed with cooking spray.$Mix potatoes, cream cheese, garlic and 1/2 cup cheddar until blended; spoon over meat mixture.  Sprinkle with remaining cheddar.$Bake 20 min. or until heated through. ",
      "PreparationPreText": "Heat oven to 375ºF.",
      "PreparationSteps": [
        {
          "Description": "Brown meat in large skillet; drain.   Return meat to skillet. Add mixed vegetables and gravy; mix well. ",
          "PreparationStepImage": {
            "PictureFormats": [],
            "author": null,
            "id": null,
            "imageType": null,
            "mimeType": null,
            "publicationDate": null,
            "status": null,
            "title": null,
            "type": null
          },
          "Sequence": 1
        },
        {
          "Description": "Spoon into 9-inch square baking dish sprayed with cooking spray.",
          "PreparationStepImage": {
            "PictureFormats": [],
            "author": null,
            "id": null,
            "imageType": null,
            "mimeType": null,
            "publicationDate": null,
            "status": null,
            "title": null,
            "type": null
          },
          "Sequence": 2
        },
        {
          "Description": "Mix potatoes, cream cheese, garlic and 1/2 cup cheddar until blended; spoon over meat mixture.  Sprinkle with remaining cheddar.",
          "PreparationStepImage": {
            "PictureFormats": [],
            "author": null,
            "id": null,
            "imageType": null,
            "mimeType": null,
            "publicationDate": null,
            "status": null,
            "title": null,
            "type": null
          },
          "Sequence": 3
        },
        {
          "Description": "Bake 20 min. or until heated through. ",
          "PreparationStepImage": {
            "PictureFormats": [],
            "author": null,
            "id": null,
            "imageType": null,
            "mimeType": null,
            "publicationDate": null,
            "status": null,
            "title": null,
            "type": null
          },
          "Sequence": 4
        }
      ],
      "PreparationTime": 20,
      "Promotion": null,
      "Ratings": {
        "TotalCount": 444,
        "PageCount": 10,
        "PageNo": 1,
        "Rating": [
          {
            "Comment": "I used smoked sausage in mine, but it was hard to keep lit.",
            "DisplayName": true,
            "RatingValue": 5,
            "SubmitDate": "/Date(1446238186000-0500)/",
            "UpdatedDate": "/Date(1446238186000-0500)/",
            "UserName": "2umestone"
          },
          {
            "Comment": "My fianc? loved this!! His new favorite. I would only add that the beef needs some seasoning while browning, otherwise this recipe is perfection!",
            "DisplayName": true,
            "RatingValue": 5,
            "SubmitDate": "/Date(1442773622000-0500)/",
            "UpdatedDate": "/Date(1442773622000-0500)/",
            "UserName": "Mezzosinger8"
          },
          {
            "Comment": "So easy, soooo good. My family loves this, and we have it at least two or three times a month (more often in the cooler months). We only use a regular size bag of mixed veggies (4 cups sounds crazy.. Is it a typo?) and we use 4-cheese instant potatoes (and only today noticed the suggestion about omitting the milk, which-obviously-we've never done). Great recipe, thanks!",
            "DisplayName": true,
            "RatingValue": 5,
            "SubmitDate": "/Date(1434325705000-0500)/",
            "UpdatedDate": "/Date(1434325705000-0500)/",
            "UserName": "Herkinerf2"
          },
          {
            "Comment": "",
            "DisplayName": true,
            "RatingValue": 4,
            "SubmitDate": "/Date(1431747225000-0500)/",
            "UpdatedDate": "/Date(1431747225000-0500)/",
            "UserName": "sueb159"
          },
          {
            "Comment": "Made my hubby and two little boys quite happy. ",
            "DisplayName": true,
            "RatingValue": 5,
            "SubmitDate": "/Date(1429637336000-0500)/",
            "UpdatedDate": "/Date(1429637336000-0500)/",
            "UserName": "jeage13"
          },
          {
            "Comment": "Easy and pleasing. I've made this for my family a couple times and they want me to make a bigger portion so they can have lots of left-overs.",
            "DisplayName": true,
            "RatingValue": 5,
            "SubmitDate": "/Date(1398185668000-0500)/",
            "UpdatedDate": "/Date(1398185668000-0500)/",
            "UserName": "relic2"
          },
          {
            "Comment": "",
            "DisplayName": false,
            "RatingValue": 5,
            "SubmitDate": "/Date(1393548097000-0600)/",
            "UpdatedDate": "/Date(1393548097000-0600)/",
            "UserName": "jennstanley"
          },
          {
            "Comment": "",
            "DisplayName": true,
            "RatingValue": 3,
            "SubmitDate": "/Date(1392061819000-0600)/",
            "UpdatedDate": "/Date(1392061819000-0600)/",
            "UserName": "cookingdiva26"
          },
          {
            "Comment": "This recipe was alright, but it seemed to be missing something. Maybe it's just that we prefer the creaminess of a tator tot casserole over this. This was a decent recipe, but not one of our favorites.",
            "DisplayName": true,
            "RatingValue": 2,
            "SubmitDate": "/Date(1384177712000-0600)/",
            "UpdatedDate": "/Date(1384177712000-0600)/",
            "UserName": "BrittaniSimon"
          },
          {
            "Comment": "I have made this recipe for the first time last year and my husband loved it.  I added a small onion when browning the hamburger. I also used Ore Ida frozen mashed potatoes which are much better than instant potatoes.  Used frozen peas and carrot mix along with Swanson beef gravy.  Left off the cheese. Quick, easy, and good for leftovers. ",
            "DisplayName": true,
            "RatingValue": 5,
            "SubmitDate": "/Date(1384039196000-0600)/",
            "UpdatedDate": "/Date(1384039196000-0600)/",
            "UserName": "JTeixeira"
          }
        ]
      },
      "RecipeDisplayFormatId": 0,
      "RecipeId": 108691,
      "RecipeName": "Easy Shepherd's Pie",
      "RecipeType": 0,
      "RelatedData": {
        "RelatedBrands": null,
        "RelatedProducts": null,
        "RelatedRecipes": {
          "DefaultTopCount": 5,
          "Recipe": [
            {
              "AverageRating": 4.2,
              "HasVideo": false,
              "IsHealthyLiving": false,
              "NumberOfRatings": 18,
              "PhotoName": "113238.jpg",
              "PhotoUrl": "http://assets.kraftfoods.com/recipe_images/opendeploy/113238.jpg",
              "RecipeId": 113238,
              "RecipeName": "STOVE TOP Shepherd's Pie",
              "SEOName": "stove-top-shepherds-pie-113238",
              "ThumbnailPhoto": null
            },
            {
              "AverageRating": 4,
              "HasVideo": false,
              "IsHealthyLiving": true,
              "NumberOfRatings": 556,
              "PhotoName": "69212.jpg",
              "PhotoUrl": "http://assets.kraftfoods.com/recipe_images/opendeploy/69212.jpg",
              "RecipeId": 69212,
              "RecipeName": "Shepherd's Pie",
              "SEOName": "shepherds-pie-69212",
              "ThumbnailPhoto": null
            },
            {
              "AverageRating": 5,
              "HasVideo": false,
              "IsHealthyLiving": false,
              "NumberOfRatings": 2,
              "PhotoName": "166907.jpg",
              "PhotoUrl": "http://assets.kraftfoods.com/recipe_images/opendeploy/166907.jpg",
              "RecipeId": 166907,
              "RecipeName": "Homemade Shepherd's Pie",
              "SEOName": "homemade-shepherds-pie-166907",
              "ThumbnailPhoto": null
            },
            {
              "AverageRating": 4.8,
              "HasVideo": false,
              "IsHealthyLiving": false,
              "NumberOfRatings": 8,
              "PhotoName": "144730.jpg",
              "PhotoUrl": "http://assets.kraftfoods.com/recipe_images/opendeploy/144730.jpg",
              "RecipeId": 144730,
              "RecipeName": "VELVEETA Shepherd's Pie Casserole",
              "SEOName": "velveeta-shepherds-pie-casserole-144730",
              "ThumbnailPhoto": null
            },
            {
              "AverageRating": 5,
              "HasVideo": false,
              "IsHealthyLiving": false,
              "NumberOfRatings": 1,
              "PhotoName": "Velveeta-Shepherds-Pie-Skillet-43314.jpg",
              "PhotoUrl": "http://assets.kraftfoods.com/recipe_images/opendeploy/Velveeta-Shepherds-Pie-Skillet-43314.jpg",
              "RecipeId": 123683,
              "RecipeName": "VELVEETA® Shepherd's Pie Skillet",
              "SEOName": "velveeta-shepherds-pie-skillet-123683",
              "ThumbnailPhoto": null
            }
          ],
          "TotalCount": 4825
        }
      },
      "RiseIngredients": [
        {
          "IngredientCategory": "KRL",
          "IngredientId": 68324,
          "IngredientIndustrySector": "Retail",
          "IngredientType": "KHC",
          "ProductId": "00068100897210",
          "RecipeId": 108691
        },
        {
          "IngredientCategory": "KRL",
          "IngredientId": 68375,
          "IngredientIndustrySector": "Retail",
          "IngredientType": "Inedible",
          "ProductId": null,
          "RecipeId": 108691
        },
        {
          "IngredientCategory": "KRL",
          "IngredientId": 68500,
          "IngredientIndustrySector": "Retail",
          "IngredientType": "KHC",
          "ProductId": "00021000043149",
          "RecipeId": 108691
        },
        {
          "IngredientCategory": "KRL",
          "IngredientId": 68817,
          "IngredientIndustrySector": "Retail",
          "IngredientType": "Inedible",
          "ProductId": null,
          "RecipeId": 108691
        },
        {
          "IngredientCategory": "KRL",
          "IngredientId": 71353,
          "IngredientIndustrySector": "Retail",
          "IngredientType": "Inedible",
          "ProductId": null,
          "RecipeId": 108691
        },
        {
          "IngredientCategory": "KRL",
          "IngredientId": 72539,
          "IngredientIndustrySector": "Retail",
          "IngredientType": "KHC",
          "ProductId": "00013000798006",
          "RecipeId": 108691
        },
        {
          "IngredientCategory": "KRL",
          "IngredientId": 73654,
          "IngredientIndustrySector": "Retail",
          "IngredientType": "KHC",
          "ProductId": "00013120007842",
          "RecipeId": 108691
        }
      ],
      "RiseTaxonomy": [
        {
          "ParentTaxonomyId": 0,
          "RecipeId": 108691,
          "ResourceName": "Recipe",
          "TaxonomyId": 65,
          "TaxonomyName": "Entrées",
          "TaxonomyTypeId": 2,
          "TaxonomyTypeName": "Meal Part"
        },
        {
          "ParentTaxonomyId": 52,
          "RecipeId": 108691,
          "ResourceName": "Recipe",
          "TaxonomyId": 246,
          "TaxonomyName": "Casseroles & Pot Pies",
          "TaxonomyTypeId": 3,
          "TaxonomyTypeName": "Dish Type"
        }
      ],
      "Riserecipe": [
        {
          "GRIN": 558413,
          "RecipeId": 108691,
          "RecipeIndustrySector": "Retail",
          "RecipeType": "Internal"
        }
      ],
      "RomanceText": "Put this Easy Shepherd's Pie on the table tonight in just 40 minutes. This Easy Shepherd's Pie includes mashed potatoes, veggies, meat and more.",
      "SEOName": "easy-shepherds-pie-108691",
      "Tips": [
        {
          "RecipeId": 108691,
          "Sequence": 1,
          "TipDescription": "Prepare as directed with extra-lean ground beef, PHILADELPHIA Neufchatel Cheese and KRAFT 2% Milk Shredded Cheddar Cheese.",
          "TipID": 1,
          "TipName": "Variation"
        },
        {
          "RecipeId": 108691,
          "Sequence": 2,
          "TipDescription": "Prepare recipe as directed, omitting the garlic and substituting 3/4 cup KRAFT Original Barbecue Sauce mixed with 1/2 tsp. onion powder for the gravy.",
          "TipID": 2,
          "TipName": "Barbecue Shepherd's Pie"
        }
      ],
      "TotalTime": 40,
      "TradeMarkInfo": null,
      "Video": [],
      "Yield": "6 servings"
    }
  ]
}