{
  "Metadata": {
    "PageCount": 1,
    "PageNo": 0,
    "TotalCount": 0
  },
  "Recipes": [
    {
      "AdServingKeywords": "Appetizer,Alcohol,Bacon,Cheese,Clam,Cream Cheese,Garlic,Meat,Parmesan,Peppers,Seafood,Shellfish,Vegetables,Dip,All Seasons,Kraft Grated Cheese,Oscar Mayer,Philadelphia",
      "AlternateLanguageRecipes": [],
      "Assets": [],
      "AverageRating": 0,
      "BrandId": 1,
      "Branding": null,
      "CSSSkins": null,
      "CarbCounter": null,
      "Categories": [
        {
          "CategoryID": 6,
          "CategoryName": "Appetizers/Snacks",
          "CategoryRank": 1,
          "SubCategoryID": 126,
          "SubCategoryName": "Hot Dips",
          "SubCategoryRank": 40
        },
        {
          "CategoryID": 11,
          "CategoryName": "Primary",
          "CategoryRank": 0,
          "SubCategoryID": 96,
          "SubCategoryName": "Appetizers & Snacks",
          "SubCategoryRank": 10
        },
        {
          "CategoryID": 748,
          "CategoryName": "Finger Food, Dips & Appetisers",
          "CategoryRank": 2,
          "SubCategoryID": 2523,
          "SubCategoryName": "Hot",
          "SubCategoryRank": 1
        }
      ],
      "Classifications": [],
      "ComplimentaryRecipes": null,
      "CookingMethod": null,
      "Copyright": null,
      "Courses": [
        "Appetizers"
      ],
      "DietExchange": null,
      "DishDetails": [
        {
          "Text": "appetizers",
          "Url": "/recipes/appetizers/main.aspx"
        },
        {
          "Text": "cold appetizers",
          "Url": "/recipes/appetizers/coldappetizers.aspx"
        },
        {
          "Text": "cheese plates",
          "Url": "/recipes/appetizers/entertainingcheeseplates.aspx"
        },
        {
          "Text": "hot appetizers",
          "Url": "/recipes/appetizers/hotappetizers.aspx"
        },
        {
          "Text": "quick appetizers",
          "Url": "/recipes/appetizers/quick.aspx"
        },
        {
          "Text": "salsa recipes",
          "Url": "/recipes/appetizers/salsa-recipes/main.aspx"
        },
        {
          "Text": "seafood appetizers",
          "Url": "/recipes/dinner/seafood/appetizers/main.aspx"
        },
        {
          "Text": "dip recipes",
          "Url": "/recipes/appetizers/dip-recipes/main.aspx"
        },
        {
          "Text": "dip recipes",
          "Url": "/recipes/appetizers/dip-recipes/main.aspx"
        },
        {
          "Text": "salsa recipes",
          "Url": "/recipes/appetizers/salsa-recipes/main.aspx"
        },
        {
          "Text": "VELVEETA appetizers",
          "Url": "/recipes/appetizers/velveeta-recipes/main.aspx"
        }
      ],
      "EndDate": "/Date(-62135575200000-0600)/",
      "HasVideo": false,
      "Ingredients": [
        {
          "FullMeasure": null,
          "FullWeight": null,
          "IngredientGridHeaders": null,
          "IngredientID": 68655,
          "IngredientName": "OSCAR MAYER Bacon, chopped",
          "IngredientStep": 10,
          "LanguageId": 0,
          "PostPreparation": "",
          "PrePreparation": "",
          "QuantityNum": 3,
          "QuantityText": "3",
          "QuantityUnit": "slices",
          "RecipeIngredientID": 199998,
          "TrialMeasure": null,
          "TrialWeight": null
        },
        {
          "FullMeasure": null,
          "FullWeight": null,
          "IngredientGridHeaders": null,
          "IngredientID": 67960,
          "IngredientName": "finely chopped red peppers",
          "IngredientStep": 20,
          "LanguageId": 0,
          "PostPreparation": "",
          "PrePreparation": "",
          "QuantityNum": 0.5,
          "QuantityText": "1/2",
          "QuantityUnit": "cup",
          "RecipeIngredientID": 199610,
          "TrialMeasure": null,
          "TrialWeight": null
        },
        {
          "FullMeasure": null,
          "FullWeight": null,
          "IngredientGridHeaders": null,
          "IngredientID": 68365,
          "IngredientName": "shallot, finely chopped",
          "IngredientStep": 30,
          "LanguageId": 0,
          "PostPreparation": "",
          "PrePreparation": "",
          "QuantityNum": 1,
          "QuantityText": "1",
          "QuantityUnit": "",
          "RecipeIngredientID": 200689,
          "TrialMeasure": null,
          "TrialWeight": null
        },
        {
          "FullMeasure": null,
          "FullWeight": null,
          "IngredientGridHeaders": null,
          "IngredientID": 68817,
          "IngredientName": "garlic, minced",
          "IngredientStep": 40,
          "LanguageId": 0,
          "PostPreparation": "",
          "PrePreparation": "",
          "QuantityNum": 1,
          "QuantityText": "1",
          "QuantityUnit": "clove",
          "RecipeIngredientID": 202611,
          "TrialMeasure": null,
          "TrialWeight": null
        },
        {
          "FullMeasure": null,
          "FullWeight": null,
          "IngredientGridHeaders": null,
          "IngredientID": 68209,
          "IngredientName": "dry white wine",
          "IngredientStep": 50,
          "LanguageId": 0,
          "PostPreparation": "",
          "PrePreparation": "",
          "QuantityNum": 0.25,
          "QuantityText": "1/4",
          "QuantityUnit": "cup",
          "RecipeIngredientID": 203127,
          "TrialMeasure": null,
          "TrialWeight": null
        },
        {
          "FullMeasure": null,
          "FullWeight": null,
          "IngredientGridHeaders": null,
          "IngredientID": 68324,
          "IngredientName": "(8 oz.) PHILADELPHIA Cream Cheese, cubed, softened",
          "IngredientStep": 60,
          "LanguageId": 0,
          "PostPreparation": "",
          "PrePreparation": "",
          "QuantityNum": 1,
          "QuantityText": "1",
          "QuantityUnit": "pkg.",
          "RecipeIngredientID": 202487,
          "TrialMeasure": null,
          "TrialWeight": null
        },
        {
          "FullMeasure": null,
          "FullWeight": null,
          "IngredientGridHeaders": null,
          "IngredientID": 68342,
          "IngredientName": "(6.5 oz. each)  minced clams, drained",
          "IngredientStep": 70,
          "LanguageId": 0,
          "PostPreparation": "",
          "PrePreparation": "",
          "QuantityNum": 2,
          "QuantityText": "2",
          "QuantityUnit": "cans",
          "RecipeIngredientID": 198714,
          "TrialMeasure": null,
          "TrialWeight": null
        },
        {
          "FullMeasure": null,
          "FullWeight": null,
          "IngredientGridHeaders": null,
          "IngredientID": 68447,
          "IngredientName": "KRAFT Grated Parmesan Cheese, divided",
          "IngredientStep": 80,
          "LanguageId": 0,
          "PostPreparation": "",
          "PrePreparation": "",
          "QuantityNum": 0.25,
          "QuantityText": "1/4",
          "QuantityUnit": "cup",
          "RecipeIngredientID": 197224,
          "TrialMeasure": null,
          "TrialWeight": null
        },
        {
          "FullMeasure": null,
          "FullWeight": null,
          "IngredientGridHeaders": null,
          "IngredientID": 68640,
          "IngredientName": "dry bread crumbs",
          "IngredientStep": 90,
          "LanguageId": 0,
          "PostPreparation": "",
          "PrePreparation": "",
          "QuantityNum": 2,
          "QuantityText": "2",
          "QuantityUnit": "Tbsp.",
          "RecipeIngredientID": 478487,
          "TrialMeasure": null,
          "TrialWeight": null
        }
      ],
      "IsHealthyLiving": false,
      "KRLId": "567438",
      "KeyIngredients": [],
      "Keywords": "Appetizer,All Seasons,Dip",
      "LanguageId": 1,
      "LifeStyles": [],
      "NumberOfIngredients": 9,
      "NumberOfRatings": 0,
      "NumberOfRatingsWithComments": "0",
      "NumberOfServings": "Makes 16 servings, 2 Tbsp. dip.",
      "NumberOfTrialServings": null,
      "NutritionBonus": null,
      "NutritionExchangeItemId": 0,
      "NutritionGridItems": null,
      "NutritionItems": [
        {
          "DisplayOrder": 0,
          "Document": null,
          "NutritionItemID": 384,
          "NutritionItemName": "Vitamin D",
          "Predriscriptor": "",
          "Quantity": 0,
          "Unit": "%DV       "
        },
        {
          "DisplayOrder": 0,
          "Document": null,
          "NutritionItemID": 385,
          "NutritionItemName": "Vitamin E",
          "Predriscriptor": "",
          "Quantity": 0,
          "Unit": "%DV       "
        },
        {
          "DisplayOrder": 0,
          "Document": null,
          "NutritionItemID": 388,
          "NutritionItemName": "Potassium",
          "Predriscriptor": "",
          "Quantity": 2,
          "Unit": "%DV       "
        },
        {
          "DisplayOrder": 0,
          "Document": null,
          "NutritionItemID": 390,
          "NutritionItemName": "Added Sugars",
          "Predriscriptor": "",
          "Quantity": 0,
          "Unit": "g         "
        },
        {
          "DisplayOrder": 1,
          "Document": null,
          "NutritionItemID": 371,
          "NutritionItemName": "Calories",
          "Predriscriptor": "",
          "Quantity": 100,
          "Unit": "          "
        },
        {
          "DisplayOrder": 2,
          "Document": null,
          "NutritionItemID": 376,
          "NutritionItemName": "Total fat",
          "Predriscriptor": "",
          "Quantity": 6,
          "Unit": "g         "
        },
        {
          "DisplayOrder": 3,
          "Document": null,
          "NutritionItemID": 377,
          "NutritionItemName": "Saturated fat",
          "Predriscriptor": "",
          "Quantity": 3.5,
          "Unit": "g         "
        },
        {
          "DisplayOrder": 4,
          "Document": null,
          "NutritionItemID": 379,
          "NutritionItemName": "Polyunsaturated Fat",
          "Predriscriptor": "",
          "Quantity": 0,
          "Unit": "g         "
        },
        {
          "DisplayOrder": 5,
          "Document": null,
          "NutritionItemID": 378,
          "NutritionItemName": "Monounsaturated Fat",
          "Predriscriptor": "",
          "Quantity": 0,
          "Unit": "g         "
        },
        {
          "DisplayOrder": 6,
          "Document": null,
          "NutritionItemID": 380,
          "NutritionItemName": "Trans Fat",
          "Predriscriptor": "",
          "Quantity": 0,
          "Unit": "g         "
        },
        {
          "DisplayOrder": 7,
          "Document": null,
          "NutritionItemID": 381,
          "NutritionItemName": "Cholesterol",
          "Predriscriptor": "",
          "Quantity": 35,
          "Unit": "mg        "
        },
        {
          "DisplayOrder": 8,
          "Document": null,
          "NutritionItemID": 389,
          "NutritionItemName": "Sodium",
          "Predriscriptor": "",
          "Quantity": 170,
          "Unit": "mg        "
        },
        {
          "DisplayOrder": 10,
          "Document": null,
          "NutritionItemID": 373,
          "NutritionItemName": "Carbohydrate",
          "Predriscriptor": "",
          "Quantity": 3,
          "Unit": "g         "
        },
        {
          "DisplayOrder": 11,
          "Document": null,
          "NutritionItemID": 374,
          "NutritionItemName": "Dietary fiber",
          "Predriscriptor": "",
          "Quantity": 0,
          "Unit": "g         "
        },
        {
          "DisplayOrder": 12,
          "Document": null,
          "NutritionItemID": 375,
          "NutritionItemName": "Sugars",
          "Predriscriptor": "",
          "Quantity": 0.904,
          "Unit": "g         "
        },
        {
          "DisplayOrder": 13,
          "Document": null,
          "NutritionItemID": 372,
          "NutritionItemName": "Protein",
          "Predriscriptor": "",
          "Quantity": 6,
          "Unit": "g         "
        },
        {
          "DisplayOrder": 14,
          "Document": null,
          "NutritionItemID": 382,
          "NutritionItemName": "Vitamin A",
          "Predriscriptor": "",
          "Quantity": 15,
          "Unit": "%DV       "
        },
        {
          "DisplayOrder": 15,
          "Document": null,
          "NutritionItemID": 383,
          "NutritionItemName": "Vitamin C",
          "Predriscriptor": "",
          "Quantity": 8,
          "Unit": "%DV       "
        },
        {
          "DisplayOrder": 16,
          "Document": null,
          "NutritionItemID": 386,
          "NutritionItemName": "Calcium",
          "Predriscriptor": "",
          "Quantity": 4,
          "Unit": "%DV       "
        },
        {
          "DisplayOrder": 17,
          "Document": null,
          "NutritionItemID": 387,
          "NutritionItemName": "Iron",
          "Predriscriptor": "",
          "Quantity": 8,
          "Unit": "%DV       "
        }
      ],
      "NutritionServingText": null,
      "PrepStepImage": null,
      "PreparationDescription": "Cook bacon in medium skillet until crisp; drain.  Return bacon to skillet.  Add next 3 ingredients; cook 5 to 8 min. or until peppers are crisp-tender.  Stir in wine; cook 3 min. or until liquid is cooked off, stirring frequently.  Remove from heat.$Add cream cheese, clams and 2 Tbsp. Parmesan; mix well. Spread onto bottom of 9-inch pie plate sprayed with cooking spray.  Mix remaining Parmesan with bread crumbs.  Sprinkle over dip.$Bake 15 to 20 min. or until hot and bubbly. ",
      "PreparationPreText": "Heat oven to 350ºF.",
      "PreparationSteps": [
        {
          "Description": "Cook bacon in medium skillet until crisp; drain.  Return bacon to skillet.  Add next 3 ingredients; cook 5 to 8 min. or until peppers are crisp-tender.  Stir in wine; cook 3 min. or until liquid is cooked off, stirring frequently.  Remove from heat.",
          "PreparationStepImage": {
            "PictureFormats": [],
            "author": null,
            "id": null,
            "imageType": null,
            "mimeType": null,
            "publicationDate": null,
            "status": null,
            "title": null,
            "type": null
          },
          "Sequence": 1
        },
        {
          "Description": "Add cream cheese, clams and 2 Tbsp. Parmesan; mix well. Spread onto bottom of 9-inch pie plate sprayed with cooking spray.  Mix remaining Parmesan with bread crumbs.  Sprinkle over dip.",
          "PreparationStepImage": {
            "PictureFormats": [],
            "author": null,
            "id": null,
            "imageType": null,
            "mimeType": null,
            "publicationDate": null,
            "status": null,
            "title": null,
            "type": null
          },
          "Sequence": 2
        },
        {
          "Description": "Bake 15 to 20 min. or until hot and bubbly. ",
          "PreparationStepImage": {
            "PictureFormats": [],
            "author": null,
            "id": null,
            "imageType": null,
            "mimeType": null,
            "publicationDate": null,
            "status": null,
            "title": null,
            "type": null
          },
          "Sequence": 3
        }
      ],
      "PreparationTime": 25,
      "Promotion": null,
      "Ratings": {
        "TotalCount": 0,
        "PageCount": 10,
        "PageNo": 1,
        "Rating": []
      },
      "RecipeDisplayFormatId": 0,
      "RecipeId": 157059,
      "RecipeName": "Clams Casino Dip",
      "RecipeType": 0,
      "RelatedData": {
        "RelatedBrands": null,
        "RelatedProducts": null,
        "RelatedRecipes": {
          "DefaultTopCount": 5,
          "Recipe": [
            {
              "AverageRating": 4.2,
              "HasVideo": false,
              "IsHealthyLiving": false,
              "NumberOfRatings": 31,
              "PhotoName": "Clam_Appetizer_Dip.jpg",
              "PhotoUrl": "http://assets.kraftfoods.com/recipe_images/opendeploy/Clam_Appetizer_Dip.jpg",
              "RecipeId": 57302,
              "RecipeName": "Clam Appetizer Dip",
              "SEOName": "clam-appetizer-dip-57302",
              "ThumbnailPhoto": null
            },
            {
              "AverageRating": 4,
              "HasVideo": false,
              "IsHealthyLiving": false,
              "NumberOfRatings": 49,
              "PhotoName": "Clam_Chowder.jpg",
              "PhotoUrl": "http://assets.kraftfoods.com/recipe_images/opendeploy/Clam_Chowder.jpg",
              "RecipeId": 91561,
              "RecipeName": "Easy Clam Chowder",
              "SEOName": "easy-clam-chowder-91561",
              "ThumbnailPhoto": null
            },
            {
              "AverageRating": 4,
              "HasVideo": false,
              "IsHealthyLiving": false,
              "NumberOfRatings": 4,
              "PhotoName": "opendeploy/56142-aff0a8f08bdcbdab6def9cebe5dda14ff7237760_306x204.jpg",
              "PhotoUrl": "http://assets.kraftfoods.com/recipe_images/opendeploy/opendeploy/56142-aff0a8f08bdcbdab6def9cebe5dda14ff7237760_306x204.jpg",
              "RecipeId": 56142,
              "RecipeName": "Paella Valenciana",
              "SEOName": "paella-valenciana-56142",
              "ThumbnailPhoto": null
            },
            {
              "AverageRating": 5,
              "HasVideo": false,
              "IsHealthyLiving": true,
              "NumberOfRatings": 4,
              "PhotoName": "179782.jpg",
              "PhotoUrl": "http://assets.kraftfoods.com/recipe_images/opendeploy/179782.jpg",
              "RecipeId": 179782,
              "RecipeName": "Mexican Shrimp Cocktail Recipe",
              "SEOName": "mexican-shrimp-cocktail-recipe-179782",
              "ThumbnailPhoto": null
            },
            {
              "AverageRating": 4.5,
              "HasVideo": false,
              "IsHealthyLiving": false,
              "NumberOfRatings": 17,
              "PhotoName": "172151.jpg",
              "PhotoUrl": "http://assets.kraftfoods.com/recipe_images/opendeploy/172151.jpg",
              "RecipeId": 172151,
              "RecipeName": "Buffalo Chicken Dip",
              "SEOName": "buffalo-chicken-dip-172151",
              "ThumbnailPhoto": null
            }
          ],
          "TotalCount": 613
        }
      },
      "RiseIngredients": [
        {
          "IngredientCategory": "KRL",
          "IngredientId": 67960,
          "IngredientIndustrySector": "Retail",
          "IngredientType": "Inedible",
          "ProductId": null,
          "RecipeId": 157059
        },
        {
          "IngredientCategory": "KRL",
          "IngredientId": 68209,
          "IngredientIndustrySector": "Retail",
          "IngredientType": "Inedible",
          "ProductId": null,
          "RecipeId": 157059
        },
        {
          "IngredientCategory": "KRL",
          "IngredientId": 68324,
          "IngredientIndustrySector": "Retail",
          "IngredientType": "KHC",
          "ProductId": "00068100897210",
          "RecipeId": 157059
        },
        {
          "IngredientCategory": "KRL",
          "IngredientId": 68342,
          "IngredientIndustrySector": "Retail",
          "IngredientType": "KHC",
          "ProductId": null,
          "RecipeId": 157059
        },
        {
          "IngredientCategory": "KRL",
          "IngredientId": 68365,
          "IngredientIndustrySector": "Retail",
          "IngredientType": "Inedible",
          "ProductId": null,
          "RecipeId": 157059
        },
        {
          "IngredientCategory": "KRL",
          "IngredientId": 68447,
          "IngredientIndustrySector": "Retail",
          "IngredientType": "Inedible",
          "ProductId": "00021000051229",
          "RecipeId": 157059
        },
        {
          "IngredientCategory": "KRL",
          "IngredientId": 68640,
          "IngredientIndustrySector": "Retail",
          "IngredientType": "Inedible",
          "ProductId": null,
          "RecipeId": 157059
        },
        {
          "IngredientCategory": "KRL",
          "IngredientId": 68655,
          "IngredientIndustrySector": "Retail",
          "IngredientType": "Inedible",
          "ProductId": "00044700071205",
          "RecipeId": 157059
        },
        {
          "IngredientCategory": "KRL",
          "IngredientId": 68817,
          "IngredientIndustrySector": "Retail",
          "IngredientType": "Inedible",
          "ProductId": null,
          "RecipeId": 157059
        }
      ],
      "RiseTaxonomy": [
        {
          "ParentTaxonomyId": 0,
          "RecipeId": 157059,
          "ResourceName": "Recipe",
          "TaxonomyId": 60,
          "TaxonomyName": "Appetizers",
          "TaxonomyTypeId": 2,
          "TaxonomyTypeName": "Meal Part"
        },
        {
          "ParentTaxonomyId": 47,
          "RecipeId": 157059,
          "ResourceName": "Recipe",
          "TaxonomyId": 184,
          "TaxonomyName": "Dips, Hot",
          "TaxonomyTypeId": 3,
          "TaxonomyTypeName": "Dish Type"
        }
      ],
      "Riserecipe": [
        {
          "GRIN": 567438,
          "RecipeId": 157059,
          "RecipeIndustrySector": "Retail",
          "RecipeType": "Internal"
        }
      ],
      "RomanceText": "Impress the whole party when you serve our flavorful Clams Casino Dip. Guests will love Clams Casino Dip flavored with bacon, Parmesan and garlic.",
      "SEOName": "clams-casino-dip-157059",
      "Tips": [
        {
          "RecipeId": 157059,
          "Sequence": 10,
          "TipDescription": "Place completely unwrapped package of cream cheese in microwaveable bowl. Microwave on HIGH 10 sec. or just until softened.   Add 15 sec. for each additional package of cream cheese.",
          "TipID": 5737,
          "TipName": "Soften Cream Cheese"
        },
        {
          "RecipeId": 157059,
          "Sequence": 20,
          "TipDescription": "Garnish with lemon slices.",
          "TipID": 1,
          "TipName": "Special Extra"
        },
        {
          "RecipeId": 157059,
          "Sequence": 21,
          "TipDescription": "Serve with assorted crackers and cut up vegetables. ",
          "TipID": 2,
          "TipName": "Serving Suggestion"
        }
      ],
      "TotalTime": 45,
      "TradeMarkInfo": "Please use alcohol responsibly.",
      "Video": [],
      "Yield": "Makes 16 servings, 2 Tbsp. dip."
    }
  ]
}