{
  "Metadata": {
    "PageCount": 1,
    "PageNo": 0,
    "TotalCount": 0
  },
  "Recipes": [
    {
      "AdServingKeywords": "Aluminum Foil,Microwaved,Dessert,Intermediate,Chocolate,Dairy,Bakers,Cool Whip,Jell-O,All Seasons,Kid-Friendly,Bridal shower,Valentines Day,Creamy,Pudding,Refrigerated Dessert",
      "AlternateLanguageRecipes": [],
      "Assets": [
        {
          "PictureFormats": [
            {
              "rendition": "300x200",
              "url": "http://assets.kraftfoods.com/recipe_images/NILLA-Chocolate-Pudding-Cups-53137.jpg"
            }
          ],
          "author": null,
          "id": "0",
          "imageType": "LANDSCAPE",
          "mimeType": null,
          "publicationDate": null,
          "status": "1",
          "title": "NILLA-Chocolate-Pudding-Cups-53137.jpg",
          "type": "image"
        }
      ],
      "AverageRating": 0,
      "BrandId": 1,
      "Branding": null,
      "CSSSkins": null,
      "CarbCounter": null,
      "Categories": [
        {
          "CategoryID": 3,
          "CategoryName": "Cookies/Candy/Other Desserts",
          "CategoryRank": 6,
          "SubCategoryID": 368,
          "SubCategoryName": "Other Refrigerated Desserts",
          "SubCategoryRank": 150
        },
        {
          "CategoryID": 11,
          "CategoryName": "Primary",
          "CategoryRank": 0,
          "SubCategoryID": 103,
          "SubCategoryName": "Desserts",
          "SubCategoryRank": 40
        },
        {
          "CategoryID": 759,
          "CategoryName": "Desserts",
          "CategoryRank": 13,
          "SubCategoryID": 2577,
          "SubCategoryName": "Cold / Gelatine",
          "SubCategoryRank": 1
        },
        {
          "CategoryID": 760,
          "CategoryName": "Cheesecakes",
          "CategoryRank": 14,
          "SubCategoryID": 2583,
          "SubCategoryName": "Chilled",
          "SubCategoryRank": 1
        }
      ],
      "Classifications": [],
      "ComplimentaryRecipes": [
        {
          "AverageRating": 0,
          "HasVideo": false,
          "IsHealthyLiving": false,
          "NumberOfRatings": 0,
          "PhotoName": null,
          "PhotoUrl": null,
          "RecipeId": 74017,
          "RecipeName": null,
          "SEOName": "risotto-chicken-spinach-74017",
          "ThumbnailPhoto": "74017.jpg"
        }
      ],
      "CookingMethod": null,
      "Copyright": null,
      "Courses": [
        "Desserts"
      ],
      "DietExchange": null,
      "DishDetails": [
        {
          "Text": "desserts",
          "Url": "/recipes/dessert/main.aspx"
        },
        {
          "Text": "fruity desserts",
          "Url": "/recipes/dessert/fruitydesserts.aspx"
        },
        {
          "Text": "gelatin desserts",
          "Url": "/recipes/dessert/gelatindesserts.aspx"
        },
        {
          "Text": "layered desserts",
          "Url": "/recipes/dessert/layereddesserts.aspx"
        },
        {
          "Text": "brownie recipes",
          "Url": "/recipes/dessert/brownie-recipes/main.aspx"
        },
        {
          "Text": "budget desserts",
          "Url": "/recipes/budget/budget-desserts.aspx"
        },
        {
          "Text": "no bake desserts",
          "Url": "/recipes/dessert/nobakedesserts.aspx"
        },
        {
          "Text": "pumpkin recipes",
          "Url": "/recipes/dessert/pumpkin-recipes.aspx"
        },
        {
          "Text": "chocolate cake recipes",
          "Url": "/recipes/dessert/chocolate-cake-recipes/main.aspx"
        },
        {
          "Text": "cheesecake recipes",
          "Url": "/recipes/dessert/cheesecake-center/cheesecake-recipes/main.aspx"
        },
        {
          "Text": "chocolate lovers recipes",
          "Url": "/recipes/dessert/chocolate-center/chocolateloversrecipes.aspx"
        },
        {
          "Text": "classic desserts",
          "Url": "/recipes/dessert/classicdesserts.aspx"
        },
        {
          "Text": "cookie ball recipes",
          "Url": "/recipes/dessert/cookie-ball-recipes/main.aspx"
        },
        {
          "Text": "cookie recipes",
          "Url": "/recipes/dessert/cookie-recipes/main.aspx"
        },
        {
          "Text": "cupcake recipes",
          "Url": "/recipes/dessert/cupcake-recipes/main.aspx"
        },
        {
          "Text": "healthy living desserts",
          "Url": "/healthy-living-ideas/diabetes-center/recipes/dessert-recipes.aspx"
        }
      ],
      "EndDate": "/Date(-62135575200000-0600)/",
      "HasVideo": false,
      "Ingredients": [
        {
          "FullMeasure": "5 oz.",
          "FullWeight": "",
          "IngredientGridHeaders": null,
          "IngredientID": 66,
          "IngredientName": "BAKER'S Semi-Sweet Chocolate",
          "IngredientStep": 10,
          "LanguageId": 0,
          "PostPreparation": ", divided",
          "PrePreparation": "",
          "QuantityNum": 5,
          "QuantityText": "5",
          "QuantityUnit": "oz.",
          "RecipeIngredientID": 6445516,
          "TrialMeasure": "",
          "TrialWeight": ""
        },
        {
          "FullMeasure": "1 cup",
          "FullWeight": "",
          "IngredientGridHeaders": null,
          "IngredientID": 1345,
          "IngredientName": "milk",
          "IngredientStep": 20,
          "LanguageId": 0,
          "PostPreparation": "",
          "PrePreparation": "",
          "QuantityNum": 1,
          "QuantityText": "1",
          "QuantityUnit": "cup",
          "RecipeIngredientID": 6445515,
          "TrialMeasure": "",
          "TrialWeight": ""
        },
        {
          "FullMeasure": "1 pkg.",
          "FullWeight": "",
          "IngredientGridHeaders": null,
          "IngredientID": 344,
          "IngredientName": "JELL-O Chocolate Flavor Instant Pudding",
          "IngredientStep": 30,
          "LanguageId": 0,
          "PostPreparation": "",
          "PrePreparation": "(3.9 oz.)",
          "QuantityNum": 1,
          "QuantityText": "1",
          "QuantityUnit": "pkg.",
          "RecipeIngredientID": 6445513,
          "TrialMeasure": "",
          "TrialWeight": ""
        },
        {
          "FullMeasure": "1 cup",
          "FullWeight": "",
          "IngredientGridHeaders": null,
          "IngredientID": 140,
          "IngredientName": "COOL WHIP Whipped Topping",
          "IngredientStep": 40,
          "LanguageId": 0,
          "PostPreparation": "",
          "PrePreparation": "thawed",
          "QuantityNum": 1,
          "QuantityText": "1",
          "QuantityUnit": "cup",
          "RecipeIngredientID": 6445514,
          "TrialMeasure": "",
          "TrialWeight": ""
        },
        {
          "FullMeasure": "8",
          "FullWeight": "",
          "IngredientGridHeaders": null,
          "IngredientID": 1736,
          "IngredientName": "vanilla wafers",
          "IngredientStep": 50,
          "LanguageId": 0,
          "PostPreparation": "",
          "PrePreparation": "",
          "QuantityNum": 7,
          "QuantityText": "8",
          "QuantityUnit": "",
          "RecipeIngredientID": 6445512,
          "TrialMeasure": "",
          "TrialWeight": ""
        }
      ],
      "IsHealthyLiving": false,
      "KRLId": "556797",
      "KeyIngredients": [
        "Chocolate",
        "Dairy"
      ],
      "Keywords": "baking chocolate,chocolate,chocolate pudding mix,cookies,COOL WHIP,JELL-O Pudding Mix,milk,vanilla wafers,whipped topping,pudding mix-instant,BAKER'S Semi-Sweet Chocolate,semi-sweet chocolate,chocolate-semi-sweet,NILLA Wafers,Aluminum Foil,Microwaved,Dessert,Intermediate,All Seasons,Kid-Friendly,Bridal shower,Valentines Day,Refrigerated Dessert",
      "LanguageId": 1,
      "LifeStyles": [],
      "NumberOfIngredients": 5,
      "NumberOfRatings": 0,
      "NumberOfRatingsWithComments": "0",
      "NumberOfServings": "8 servings ",
      "NumberOfTrialServings": "",
      "NutritionBonus": null,
      "NutritionExchangeItemId": 0,
      "NutritionGridItems": null,
      "NutritionItems": [
        {
          "DisplayOrder": 1,
          "Document": null,
          "NutritionItemID": 3,
          "NutritionItemName": "Calories",
          "Predriscriptor": "",
          "Quantity": 190,
          "Unit": "          "
        },
        {
          "DisplayOrder": 2,
          "Document": "fat_cholesterol.html",
          "NutritionItemID": 4,
          "NutritionItemName": "Total fat",
          "Predriscriptor": "",
          "Quantity": 9,
          "Unit": "g         "
        },
        {
          "DisplayOrder": 3,
          "Document": "fat_cholesterol.html",
          "NutritionItemID": 9,
          "NutritionItemName": "Saturated fat",
          "Predriscriptor": "",
          "Quantity": 6,
          "Unit": "g         "
        },
        {
          "DisplayOrder": 7,
          "Document": "fat_cholesterol.html",
          "NutritionItemID": 2,
          "NutritionItemName": "Cholesterol",
          "Predriscriptor": "Less than",
          "Quantity": 5,
          "Unit": "mg        "
        },
        {
          "DisplayOrder": 8,
          "Document": "sodium.html",
          "NutritionItemID": 8,
          "NutritionItemName": "Sodium",
          "Predriscriptor": "",
          "Quantity": 240,
          "Unit": "mg        "
        },
        {
          "DisplayOrder": 10,
          "Document": "carbs_sugars_fiber.html",
          "NutritionItemID": 1,
          "NutritionItemName": "Carbohydrate",
          "Predriscriptor": "",
          "Quantity": 29,
          "Unit": "g         "
        },
        {
          "DisplayOrder": 11,
          "Document": "carbs_sugars_fiber.html",
          "NutritionItemID": 7,
          "NutritionItemName": "Dietary fiber",
          "Predriscriptor": "",
          "Quantity": 2,
          "Unit": "g         "
        },
        {
          "DisplayOrder": 12,
          "Document": "carbs_sugars_fiber.html",
          "NutritionItemID": 5,
          "NutritionItemName": "Sugars",
          "Predriscriptor": "",
          "Quantity": 21,
          "Unit": "g         "
        },
        {
          "DisplayOrder": 13,
          "Document": null,
          "NutritionItemID": 6,
          "NutritionItemName": "Protein",
          "Predriscriptor": "",
          "Quantity": 2,
          "Unit": "g         "
        },
        {
          "DisplayOrder": 14,
          "Document": null,
          "NutritionItemID": 10,
          "NutritionItemName": "Vitamin A",
          "Predriscriptor": "",
          "Quantity": 0,
          "Unit": "%DV       "
        },
        {
          "DisplayOrder": 15,
          "Document": null,
          "NutritionItemID": 11,
          "NutritionItemName": "Vitamin C",
          "Predriscriptor": "",
          "Quantity": 0,
          "Unit": "%DV       "
        },
        {
          "DisplayOrder": 16,
          "Document": "dairy_and_calcium.html",
          "NutritionItemID": 12,
          "NutritionItemName": "Calcium",
          "Predriscriptor": "",
          "Quantity": 4,
          "Unit": "%DV       "
        },
        {
          "DisplayOrder": 17,
          "Document": null,
          "NutritionItemID": 13,
          "NutritionItemName": "Iron",
          "Predriscriptor": "",
          "Quantity": 6,
          "Unit": "%DV       "
        }
      ],
      "NutritionServingText": "",
      "PrepStepImage": null,
      "PreparationDescription": "Place eight 2-1/2-inch foil cupcake liners in baking pan or muffin pan.  Spray with cooking spray. Microwave 4 oz. chocolate in microwaveable bowl on HIGH 2 min., stirring after each minute.  Spoon into liners. Use back of spoon to spread chocolate up sides of liners.  Refrigerate until firm.  $Beat milk and pudding mix with whisk 2 min. Stir in COOL WHIP.  Refrigerate until ready to use.  Dip wafers in remaining melted chocolate.  Let stand until chocolate is firm.$Peel foil liners off cups; fill with pudding mixture.  Top with wafers.",
      "PreparationPreText": "",
      "PreparationSteps": [
        {
          "Description": "Place eight 2-1/2-inch foil cupcake liners in baking pan or muffin pan.  Spray with cooking spray. Microwave 4 oz. chocolate in microwaveable bowl on HIGH 2 min., stirring after each minute.  Spoon into liners. Use back of spoon to spread chocolate up sides of liners.  Refrigerate until firm.  ",
          "PreparationStepImage": {
            "PictureFormats": [],
            "author": null,
            "id": null,
            "imageType": null,
            "mimeType": null,
            "publicationDate": null,
            "status": null,
            "title": null,
            "type": null
          },
          "Sequence": 1
        },
        {
          "Description": "Beat milk and pudding mix with whisk 2 min. Stir in COOL WHIP.  Refrigerate until ready to use.  Dip wafers in remaining melted chocolate.  Let stand until chocolate is firm.",
          "PreparationStepImage": {
            "PictureFormats": [],
            "author": null,
            "id": null,
            "imageType": null,
            "mimeType": null,
            "publicationDate": null,
            "status": null,
            "title": null,
            "type": null
          },
          "Sequence": 2
        },
        {
          "Description": "Peel foil liners off cups; fill with pudding mixture.  Top with wafers.",
          "PreparationStepImage": {
            "PictureFormats": [],
            "author": null,
            "id": null,
            "imageType": null,
            "mimeType": null,
            "publicationDate": null,
            "status": null,
            "title": null,
            "type": null
          },
          "Sequence": 3
        }
      ],
      "PreparationTime": 15,
      "Promotion": null,
      "Ratings": {
        "TotalCount": 0,
        "PageCount": 10,
        "PageNo": 1,
        "Rating": []
      },
      "RecipeDisplayFormatId": 5,
      "RecipeId": 111059,
      "RecipeName": "Chocolate Pudding-Filled Candy Cups",
      "RecipeType": 0,
      "RelatedData": {
        "RelatedBrands": null,
        "RelatedProducts": null,
        "RelatedRecipes": {
          "DefaultTopCount": 5,
          "Recipe": [
            {
              "AverageRating": 4.5,
              "HasVideo": false,
              "IsHealthyLiving": false,
              "NumberOfRatings": 121,
              "PhotoName": "90590.jpg",
              "PhotoUrl": "http://assets.kraftfoods.com/recipe_images/opendeploy/90590.jpg",
              "RecipeId": 90590,
              "RecipeName": "Black Forest Mousse Dessert",
              "SEOName": "black-forest-mousse-dessert-90590",
              "ThumbnailPhoto": null
            },
            {
              "AverageRating": 4.9,
              "HasVideo": false,
              "IsHealthyLiving": false,
              "NumberOfRatings": 7,
              "PhotoName": "60917.jpg",
              "PhotoUrl": "http://assets.kraftfoods.com/recipe_images/opendeploy/60917.jpg",
              "RecipeId": 60917,
              "RecipeName": "Quick Chocolate-Cherry Trifle",
              "SEOName": "quick-chocolate-cherry-trifle-60917",
              "ThumbnailPhoto": null
            },
            {
              "AverageRating": 4,
              "HasVideo": false,
              "IsHealthyLiving": false,
              "NumberOfRatings": 8,
              "PhotoName": "Black-Orange_Spook_Cups.jpg",
              "PhotoUrl": "http://assets.kraftfoods.com/recipe_images/opendeploy/Black-Orange_Spook_Cups.jpg",
              "RecipeId": 51041,
              "RecipeName": "Black & Orange Spook Cups",
              "SEOName": "black-orange-spook-cups-51041",
              "ThumbnailPhoto": null
            },
            {
              "AverageRating": 4.5,
              "HasVideo": false,
              "IsHealthyLiving": false,
              "NumberOfRatings": 646,
              "PhotoName": "54472.jpg",
              "PhotoUrl": "http://assets.kraftfoods.com/recipe_images/opendeploy/54472.jpg",
              "RecipeId": 54472,
              "RecipeName": "Ghosts in the Graveyard",
              "SEOName": "ghosts-in-the-graveyard-54472",
              "ThumbnailPhoto": null
            },
            {
              "AverageRating": 4,
              "HasVideo": false,
              "IsHealthyLiving": false,
              "NumberOfRatings": 3,
              "PhotoName": "169194_MXM_65155v1_CR.jpg",
              "PhotoUrl": "http://assets.kraftfoods.com/recipe_images/opendeploy/169194_MXM_65155v1_CR.jpg",
              "RecipeId": 169194,
              "RecipeName": "Peppermint-Chocolate Trifle",
              "SEOName": "peppermint-chocolate-trifle-169194",
              "ThumbnailPhoto": null
            }
          ],
          "TotalCount": 4013
        }
      },
      "RiseIngredients": [],
      "RiseTaxonomy": [],
      "Riserecipe": [
        {
          "GRIN": 556797,
          "RecipeId": 111059,
          "RecipeIndustrySector": "Retail",
          "RecipeType": "Internal"
        }
      ],
      "RomanceText": "You won't believe how easy these candy cups filled with chocolate pudding are to make. You also won't believe how adorable and delicious they are!",
      "SEOName": "chocolate-pudding-filled-candy-cups-111059",
      "Tips": [
        {
          "RecipeId": 111059,
          "Sequence": 10,
          "TipDescription": "Sweets can add enjoyment to a balanced diet but remember to keep tabs on portions.",
          "TipID": 4,
          "TipName": "Size Wise"
        },
        {
          "RecipeId": 111059,
          "Sequence": 20,
          "TipDescription": "Dip one side of each wafer in melted chocolate, then turn to dip other side, leaving a v-shaped coating on each wafer. Return to baking sheet.  Dip wooden toothpick into remaining chocolate, then use to make buttons and draw bow ties on wafers to resemble tuxedos. Refrigerate 15 min. or until chocolate is firm. ",
          "TipID": 5,
          "TipName": "How to Make Tuxedo NILLA Wafers"
        },
        {
          "RecipeId": 111059,
          "Sequence": 40,
          "TipDescription": "Prepare chocolate cups and pudding mixture as directed.  Cover and store pudding mixture in refrigerator until ready to spoon into chocolate cups.  Store unfilled chocolate cups in cool dry place at room temperature until ready to use.",
          "TipID": 3,
          "TipName": "Make Ahead"
        },
        {
          "RecipeId": 111059,
          "Sequence": 50,
          "TipDescription": "Use 1 pkg. (3.9 oz.) JELL-O SIMPLY GOOD Chocolate Flavor Pudding.",
          "TipID": 5769,
          "TipName": "Substitute"
        },
        {
          "RecipeId": 111059,
          "Sequence": 50,
          "TipDescription": "Use 1 pkg. (3.9 oz.) JELL-O SIMPLY GOOD Chocolate Flavor Pudding.",
          "TipID": 5769,
          "TipName": "Best Apples for Snacking and Salads"
        }
      ],
      "TotalTime": 60,
      "TradeMarkInfo": null,
      "Video": [],
      "Yield": "Makes 8 servings. "
    }
  ]
}