{
  "Metadata": {
    "PageCount": 1,
    "PageNo": 0,
    "TotalCount": 0
  },
  "Recipes": [
    {
      "AdServingKeywords": "Chocolate,Dairy,Dessert,All Seasons,Refrigerated Dessert,Cool Whip,Jell-O,Make Ahead,Creamy",
      "AlternateLanguageRecipes": [],
      "Assets": [
        {
          "PictureFormats": [
            {
              "rendition": "290x194",
              "url": "http://assets.kraftfoods.com/recipe_images/opendeploy/118692_290x194.jpg"
            },
            {
              "rendition": "640x428",
              "url": "http://assets.kraftfoods.com/recipe_images/opendeploy/118692_640x428.jpg"
            },
            {
              "rendition": "600x250",
              "url": "http://assets.kraftfoods.com/recipe_images/opendeploy/118692_600x250.jpg"
            }
          ],
          "author": "BulKUpload",
          "id": "2",
          "imageType": "Primary",
          "mimeType": "image/jpeg",
          "publicationDate": null,
          "status": "1",
          "title": "118692",
          "type": "image"
        },
        {
          "PictureFormats": [
            {
              "rendition": "140x90",
              "url": "http://assets.kraftfoods.com/recipe_images/opendeploy/118692_MXM_K55037V1_OR1_CR_140x90.jpg"
            },
            {
              "rendition": "300x250",
              "url": "http://assets.kraftfoods.com/recipe_images/opendeploy/118692_MXM_K55037V1_OR1_CR_300x250.jpg"
            },
            {
              "rendition": "960x300",
              "url": "http://assets.kraftfoods.com/recipe_images/opendeploy/118692_MXM_K55037V1_OR1_CR_960x300.jpg"
            }
          ],
          "author": null,
          "id": "2",
          "imageType": "Primary",
          "mimeType": "image/jpeg",
          "publicationDate": null,
          "status": "1",
          "title": "118692_MXM_K55037V1_OR1_CR",
          "type": "image"
        },
        {
          "PictureFormats": [
            {
              "rendition": "300x200",
              "url": "http://assets.kraftfoods.com/recipe_images/118692.jpg"
            }
          ],
          "author": "BulKUpload",
          "id": "0",
          "imageType": "LANDSCAPE",
          "mimeType": "image/jpeg",
          "publicationDate": null,
          "status": "1",
          "title": "118692.jpg",
          "type": "image"
        }
      ],
      "AverageRating": 4.5,
      "BrandId": 1,
      "Branding": null,
      "CSSSkins": null,
      "CarbCounter": null,
      "Categories": [
        {
          "CategoryID": 3,
          "CategoryName": "Cookies/Candy/Other Desserts",
          "CategoryRank": 6,
          "SubCategoryID": 366,
          "SubCategoryName": "Mousse/Trifles",
          "SubCategoryRank": 90
        },
        {
          "CategoryID": 11,
          "CategoryName": "Primary",
          "CategoryRank": 0,
          "SubCategoryID": 103,
          "SubCategoryName": "Desserts",
          "SubCategoryRank": 40
        },
        {
          "CategoryID": 759,
          "CategoryName": "Desserts",
          "CategoryRank": 13,
          "SubCategoryID": 2577,
          "SubCategoryName": "Cold / Gelatine",
          "SubCategoryRank": 1
        }
      ],
      "Classifications": [],
      "ComplimentaryRecipes": null,
      "CookingMethod": null,
      "Copyright": null,
      "Courses": [
        "Desserts"
      ],
      "DietExchange": null,
      "DishDetails": [
        {
          "Text": "desserts",
          "Url": "/recipes/dessert/main.aspx"
        },
        {
          "Text": "fruity desserts",
          "Url": "/recipes/dessert/fruitydesserts.aspx"
        },
        {
          "Text": "gelatin desserts",
          "Url": "/recipes/dessert/gelatindesserts.aspx"
        },
        {
          "Text": "layered desserts",
          "Url": "/recipes/dessert/layereddesserts.aspx"
        },
        {
          "Text": "brownie recipes",
          "Url": "/recipes/dessert/brownie-recipes/main.aspx"
        },
        {
          "Text": "budget desserts",
          "Url": "/recipes/budget/budget-desserts.aspx"
        },
        {
          "Text": "no bake desserts",
          "Url": "/recipes/dessert/nobakedesserts.aspx"
        },
        {
          "Text": "pumpkin recipes",
          "Url": "/recipes/dessert/pumpkin-recipes.aspx"
        },
        {
          "Text": "chocolate cake recipes",
          "Url": "/recipes/dessert/chocolate-cake-recipes/main.aspx"
        },
        {
          "Text": "cheesecake recipes",
          "Url": "/recipes/dessert/cheesecake-center/cheesecake-recipes/main.aspx"
        },
        {
          "Text": "chocolate lovers recipes",
          "Url": "/recipes/dessert/chocolate-center/chocolateloversrecipes.aspx"
        },
        {
          "Text": "classic desserts",
          "Url": "/recipes/dessert/classicdesserts.aspx"
        },
        {
          "Text": "cookie ball recipes",
          "Url": "/recipes/dessert/cookie-ball-recipes/main.aspx"
        },
        {
          "Text": "cookie recipes",
          "Url": "/recipes/dessert/cookie-recipes/main.aspx"
        },
        {
          "Text": "cupcake recipes",
          "Url": "/recipes/dessert/cupcake-recipes/main.aspx"
        },
        {
          "Text": "healthy living desserts",
          "Url": "/healthy-living-ideas/diabetes-center/recipes/dessert-recipes.aspx"
        }
      ],
      "EndDate": "/Date(-62135575200000-0600)/",
      "HasVideo": false,
      "Ingredients": [
        {
          "FullMeasure": null,
          "FullWeight": null,
          "IngredientGridHeaders": null,
          "IngredientID": 68684,
          "IngredientName": "(3.9 oz.) JELL-O Chocolate Flavor Instant Pudding",
          "IngredientStep": 10,
          "LanguageId": 0,
          "PostPreparation": "",
          "PrePreparation": "",
          "QuantityNum": 1,
          "QuantityText": "1",
          "QuantityUnit": "pkg.",
          "RecipeIngredientID": 123621,
          "TrialMeasure": null,
          "TrialWeight": null
        },
        {
          "FullMeasure": null,
          "FullWeight": null,
          "IngredientGridHeaders": null,
          "IngredientID": 67961,
          "IngredientName": "(3.4 oz.) JELL-O Vanilla Flavor Instant Pudding",
          "IngredientStep": 20,
          "LanguageId": 0,
          "PostPreparation": "",
          "PrePreparation": "",
          "QuantityNum": 1,
          "QuantityText": "1",
          "QuantityUnit": "pkg.",
          "RecipeIngredientID": 125479,
          "TrialMeasure": null,
          "TrialWeight": null
        },
        {
          "FullMeasure": null,
          "FullWeight": null,
          "IngredientGridHeaders": null,
          "IngredientID": 68096,
          "IngredientName": "cold milk, divided",
          "IngredientStep": 30,
          "LanguageId": 0,
          "PostPreparation": "",
          "PrePreparation": "",
          "QuantityNum": 3,
          "QuantityText": "3",
          "QuantityUnit": "cups",
          "RecipeIngredientID": 127241,
          "TrialMeasure": null,
          "TrialWeight": null
        },
        {
          "FullMeasure": null,
          "FullWeight": null,
          "IngredientGridHeaders": null,
          "IngredientID": 72084,
          "IngredientName": "creamy peanut butter",
          "IngredientStep": 40,
          "LanguageId": 0,
          "PostPreparation": "",
          "PrePreparation": "",
          "QuantityNum": 0.25,
          "QuantityText": "1/4",
          "QuantityUnit": "cup",
          "RecipeIngredientID": 123333,
          "TrialMeasure": null,
          "TrialWeight": null
        },
        {
          "FullMeasure": null,
          "FullWeight": null,
          "IngredientGridHeaders": null,
          "IngredientID": 67974,
          "IngredientName": "(8 oz.) COOL WHIP Whipped Topping, thawed, divided",
          "IngredientStep": 50,
          "LanguageId": 0,
          "PostPreparation": "",
          "PrePreparation": "",
          "QuantityNum": 1,
          "QuantityText": "1",
          "QuantityUnit": "tub",
          "RecipeIngredientID": 124801,
          "TrialMeasure": null,
          "TrialWeight": null
        },
        {
          "FullMeasure": null,
          "FullWeight": null,
          "IngredientGridHeaders": null,
          "IngredientID": 68459,
          "IngredientName": "chocolate chip cookies (2 inch), chopped",
          "IngredientStep": 60,
          "LanguageId": 0,
          "PostPreparation": "",
          "PrePreparation": "",
          "QuantityNum": 30,
          "QuantityText": "30",
          "QuantityUnit": "",
          "RecipeIngredientID": 124033,
          "TrialMeasure": null,
          "TrialWeight": null
        },
        {
          "FullMeasure": null,
          "FullWeight": null,
          "IngredientGridHeaders": null,
          "IngredientID": 68764,
          "IngredientName": "chocolate syrup",
          "IngredientStep": 70,
          "LanguageId": 0,
          "PostPreparation": "",
          "PrePreparation": "",
          "QuantityNum": 3,
          "QuantityText": "3",
          "QuantityUnit": "Tbsp.",
          "RecipeIngredientID": 123838,
          "TrialMeasure": null,
          "TrialWeight": null
        }
      ],
      "IsHealthyLiving": false,
      "KRLId": "559400",
      "KeyIngredients": [],
      "Keywords": "Dessert,All Seasons,Refrigerated Dessert,Make Ahead,Creamy",
      "LanguageId": 1,
      "LifeStyles": [],
      "NumberOfIngredients": 7,
      "NumberOfRatings": 20,
      "NumberOfRatingsWithComments": "16",
      "NumberOfServings": "12 servings, 2/3 cup each",
      "NumberOfTrialServings": null,
      "NutritionBonus": null,
      "NutritionExchangeItemId": 0,
      "NutritionGridItems": null,
      "NutritionItems": [
        {
          "DisplayOrder": 0,
          "Document": null,
          "NutritionItemID": 384,
          "NutritionItemName": "Vitamin D",
          "Predriscriptor": "",
          "Quantity": 4,
          "Unit": "%DV       "
        },
        {
          "DisplayOrder": 0,
          "Document": null,
          "NutritionItemID": 385,
          "NutritionItemName": "Vitamin E",
          "Predriscriptor": "",
          "Quantity": 4,
          "Unit": "%DV       "
        },
        {
          "DisplayOrder": 0,
          "Document": null,
          "NutritionItemID": 388,
          "NutritionItemName": "Potassium",
          "Predriscriptor": "",
          "Quantity": 4,
          "Unit": "%DV       "
        },
        {
          "DisplayOrder": 0,
          "Document": null,
          "NutritionItemID": 390,
          "NutritionItemName": "Added Sugars",
          "Predriscriptor": "",
          "Quantity": 3,
          "Unit": "g         "
        },
        {
          "DisplayOrder": 1,
          "Document": null,
          "NutritionItemID": 371,
          "NutritionItemName": "Calories",
          "Predriscriptor": "",
          "Quantity": 310,
          "Unit": "          "
        },
        {
          "DisplayOrder": 2,
          "Document": null,
          "NutritionItemID": 376,
          "NutritionItemName": "Total fat",
          "Predriscriptor": "",
          "Quantity": 14,
          "Unit": "g         "
        },
        {
          "DisplayOrder": 3,
          "Document": null,
          "NutritionItemID": 377,
          "NutritionItemName": "Saturated fat",
          "Predriscriptor": "",
          "Quantity": 7,
          "Unit": "g         "
        },
        {
          "DisplayOrder": 4,
          "Document": null,
          "NutritionItemID": 379,
          "NutritionItemName": "Polyunsaturated Fat",
          "Predriscriptor": "",
          "Quantity": 0.5,
          "Unit": "g         "
        },
        {
          "DisplayOrder": 5,
          "Document": null,
          "NutritionItemID": 378,
          "NutritionItemName": "Monounsaturated Fat",
          "Predriscriptor": "",
          "Quantity": 3.5,
          "Unit": "g         "
        },
        {
          "DisplayOrder": 6,
          "Document": null,
          "NutritionItemID": 380,
          "NutritionItemName": "Trans Fat",
          "Predriscriptor": "",
          "Quantity": 0,
          "Unit": "g         "
        },
        {
          "DisplayOrder": 7,
          "Document": null,
          "NutritionItemID": 381,
          "NutritionItemName": "Cholesterol",
          "Predriscriptor": "",
          "Quantity": 5,
          "Unit": "mg        "
        },
        {
          "DisplayOrder": 8,
          "Document": null,
          "NutritionItemID": 389,
          "NutritionItemName": "Sodium",
          "Predriscriptor": "",
          "Quantity": 410,
          "Unit": "mg        "
        },
        {
          "DisplayOrder": 10,
          "Document": null,
          "NutritionItemID": 373,
          "NutritionItemName": "Carbohydrate",
          "Predriscriptor": "",
          "Quantity": 44,
          "Unit": "g         "
        },
        {
          "DisplayOrder": 11,
          "Document": null,
          "NutritionItemID": 374,
          "NutritionItemName": "Dietary fiber",
          "Predriscriptor": "",
          "Quantity": 1,
          "Unit": "g         "
        },
        {
          "DisplayOrder": 12,
          "Document": null,
          "NutritionItemID": 375,
          "NutritionItemName": "Sugars",
          "Predriscriptor": "",
          "Quantity": 28,
          "Unit": "g         "
        },
        {
          "DisplayOrder": 13,
          "Document": null,
          "NutritionItemID": 372,
          "NutritionItemName": "Protein",
          "Predriscriptor": "",
          "Quantity": 4,
          "Unit": "g         "
        },
        {
          "DisplayOrder": 14,
          "Document": null,
          "NutritionItemID": 382,
          "NutritionItemName": "Vitamin A",
          "Predriscriptor": "",
          "Quantity": 6,
          "Unit": "%DV       "
        },
        {
          "DisplayOrder": 15,
          "Document": null,
          "NutritionItemID": 383,
          "NutritionItemName": "Vitamin C",
          "Predriscriptor": "",
          "Quantity": 0,
          "Unit": "%DV       "
        },
        {
          "DisplayOrder": 16,
          "Document": null,
          "NutritionItemID": 386,
          "NutritionItemName": "Calcium",
          "Predriscriptor": "",
          "Quantity": 6,
          "Unit": "%DV       "
        },
        {
          "DisplayOrder": 17,
          "Document": null,
          "NutritionItemID": 387,
          "NutritionItemName": "Iron",
          "Predriscriptor": "",
          "Quantity": 8,
          "Unit": "%DV       "
        }
      ],
      "NutritionServingText": null,
      "PrepStepImage": null,
      "PreparationDescription": "Empty pudding mixes into separate medium bowls. Add 1-1/2 cups milk to each; beat with whisk 2 min. Add peanut butter to vanilla pudding; beat until well blended. Stir 1/2 cup COOL WHIP into pudding in each bowl.  $Spoon chocolate pudding mixture into 2-qt. serving bowl; cover with layers of half <u>each</u> of the remaining COOL WHIP and chopped cookies.  Repeat layers, using vanilla pudding mixture.  $Drizzle with syrup.  ",
      "PreparationPreText": null,
      "PreparationSteps": [
        {
          "Description": "Empty pudding mixes into separate medium bowls. Add 1-1/2 cups milk to each; beat with whisk 2 min. Add peanut butter to vanilla pudding; beat until well blended. Stir 1/2 cup COOL WHIP into pudding in each bowl.  ",
          "PreparationStepImage": {
            "PictureFormats": [],
            "author": null,
            "id": null,
            "imageType": null,
            "mimeType": null,
            "publicationDate": null,
            "status": null,
            "title": null,
            "type": null
          },
          "Sequence": 1
        },
        {
          "Description": "Spoon chocolate pudding mixture into 2-qt. serving bowl; cover with layers of half <u>each</u> of the remaining COOL WHIP and chopped cookies.  Repeat layers, using vanilla pudding mixture.  ",
          "PreparationStepImage": {
            "PictureFormats": [],
            "author": null,
            "id": null,
            "imageType": null,
            "mimeType": null,
            "publicationDate": null,
            "status": null,
            "title": null,
            "type": null
          },
          "Sequence": 2
        },
        {
          "Description": "Drizzle with syrup.  ",
          "PreparationStepImage": {
            "PictureFormats": [],
            "author": null,
            "id": null,
            "imageType": null,
            "mimeType": null,
            "publicationDate": null,
            "status": null,
            "title": null,
            "type": null
          },
          "Sequence": 3
        }
      ],
      "PreparationTime": 20,
      "Promotion": null,
      "Ratings": {
        "TotalCount": 20,
        "PageCount": 10,
        "PageNo": 1,
        "Rating": [
          {
            "Comment": "I have a large family all with different taste everyone loved it\n\n",
            "DisplayName": true,
            "RatingValue": 4,
            "SubmitDate": "/Date(1441636022000-0500)/",
            "UpdatedDate": "/Date(1441636022000-0500)/",
            "UserName": "judi dressler"
          },
          {
            "Comment": "Made this for Easter and everyone wanted the recipe!  I doubled everything except the cookies but I don't think it would hurt to have used more cookies.  I loved the crunch they added!  My boys thought it should include bananas and they added one to the leftovers.  I completely forgot to drizzle the chocolate syrup before serving.  Didn't miss it.",
            "DisplayName": true,
            "RatingValue": 5,
            "SubmitDate": "/Date(1428332996000-0500)/",
            "UpdatedDate": "/Date(1428332996000-0500)/",
            "UserName": "mrkcook"
          },
          {
            "Comment": "Super easy to make and my whole family (we are a family of 7)loved it and told me to make it again.",
            "DisplayName": true,
            "RatingValue": 5,
            "SubmitDate": "/Date(1396800825000-0500)/",
            "UpdatedDate": "/Date(1396800825000-0500)/",
            "UserName": "lateesa1978"
          },
          {
            "Comment": "Im making a recipe book for my family members and im wondering if this is a really good recipe i think that it will because i love peanut butter but if anyone could help me i would be very grateful. Thanks!",
            "DisplayName": true,
            "RatingValue": 5,
            "SubmitDate": "/Date(1385918419000-0600)/",
            "UpdatedDate": "/Date(1385918419000-0600)/",
            "UserName": "cookbookwriterhere"
          },
          {
            "Comment": "",
            "DisplayName": false,
            "RatingValue": 4,
            "SubmitDate": "/Date(1378321315000-0500)/",
            "UpdatedDate": "/Date(1385054573000-0600)/",
            "UserName": "dlc1972"
          },
          {
            "Comment": "I added the bananas. It was great!",
            "DisplayName": false,
            "RatingValue": 5,
            "SubmitDate": "/Date(1377888014000-0500)/",
            "UpdatedDate": "/Date(1377888014000-0500)/",
            "UserName": "jatmartin01"
          },
          {
            "Comment": "Everyone loved it!! I layered the ingredients a lot more than directed. I've made it so many times, and the bowl is always licked clean!",
            "DisplayName": true,
            "RatingValue": 4,
            "SubmitDate": "/Date(1375386662000-0500)/",
            "UpdatedDate": "/Date(1375386662000-0500)/",
            "UserName": "ejbakirtzis"
          },
          {
            "Comment": "This is nothing special. It was alright, but I've made better recipes.",
            "DisplayName": true,
            "RatingValue": 3,
            "SubmitDate": "/Date(1326243560000-0600)/",
            "UpdatedDate": "/Date(1326243560000-0600)/",
            "UserName": "cmc82"
          },
          {
            "Comment": "So simple and amazing flavor! Everyone loved it. It was gone in minutes! I made it last night and the family has been requesting it already!",
            "DisplayName": true,
            "RatingValue": 5,
            "SubmitDate": "/Date(1312043720000-0500)/",
            "UpdatedDate": "/Date(1312043720000-0500)/",
            "UserName": "missmegan123"
          },
          {
            "Comment": "",
            "DisplayName": false,
            "RatingValue": 4,
            "SubmitDate": "/Date(1299528203000-0600)/",
            "UpdatedDate": "/Date(1299528203000-0600)/",
            "UserName": "LINDSEY1122"
          }
        ]
      },
      "RecipeDisplayFormatId": 0,
      "RecipeId": 118692,
      "RecipeName": "Peanut Butter-Chocolate Trifle",
      "RecipeType": 0,
      "RelatedData": {
        "RelatedBrands": null,
        "RelatedProducts": null,
        "RelatedRecipes": {
          "DefaultTopCount": 5,
          "Recipe": [
            {
              "AverageRating": 4.1,
              "HasVideo": false,
              "IsHealthyLiving": false,
              "NumberOfRatings": 13,
              "PhotoName": "54314-Chocolate-Raspberry-Mousse-Dessert-25245.jpg",
              "PhotoUrl": "http://assets.kraftfoods.com/recipe_images/opendeploy/54314-Chocolate-Raspberry-Mousse-Dessert-25245.jpg",
              "RecipeId": 54314,
              "RecipeName": "Chocolate-Raspberry Mousse Dessert",
              "SEOName": "chocolate-raspberry-mousse-dessert-54314",
              "ThumbnailPhoto": null
            },
            {
              "AverageRating": 4,
              "HasVideo": false,
              "IsHealthyLiving": false,
              "NumberOfRatings": 3,
              "PhotoName": "169194_MXM_65155v1_CR.jpg",
              "PhotoUrl": "http://assets.kraftfoods.com/recipe_images/opendeploy/169194_MXM_65155v1_CR.jpg",
              "RecipeId": 169194,
              "RecipeName": "Peppermint-Chocolate Trifle",
              "SEOName": "peppermint-chocolate-trifle-169194",
              "ThumbnailPhoto": null
            },
            {
              "AverageRating": 4.3,
              "HasVideo": false,
              "IsHealthyLiving": false,
              "NumberOfRatings": 3,
              "PhotoName": "182115.jpg",
              "PhotoUrl": "http://assets.kraftfoods.com/recipe_images/opendeploy/182115.jpg",
              "RecipeId": 182115,
              "RecipeName": "Festive Minty Mocha Trifle",
              "SEOName": "festive-minty-mocha-trifle-182115",
              "ThumbnailPhoto": null
            },
            {
              "AverageRating": 4.6,
              "HasVideo": false,
              "IsHealthyLiving": false,
              "NumberOfRatings": 8,
              "PhotoName": "118964.jpg",
              "PhotoUrl": "http://assets.kraftfoods.com/recipe_images/opendeploy/118964.jpg",
              "RecipeId": 118964,
              "RecipeName": "White Chocolate-Raspberry Trifle Cake",
              "SEOName": "white-chocolate-raspberry-trifle-cake-118964",
              "ThumbnailPhoto": null
            },
            {
              "AverageRating": 4.8,
              "HasVideo": false,
              "IsHealthyLiving": false,
              "NumberOfRatings": 94,
              "PhotoName": "66297.jpg",
              "PhotoUrl": "http://assets.kraftfoods.com/recipe_images/opendeploy/66297.jpg",
              "RecipeId": 66297,
              "RecipeName": "Easy Chocolate Trifle",
              "SEOName": "easy-chocolate-trifle-66297",
              "ThumbnailPhoto": null
            }
          ],
          "TotalCount": 2485
        }
      },
      "RiseIngredients": [
        {
          "IngredientCategory": "KRL",
          "IngredientId": 67961,
          "IngredientIndustrySector": "Retail",
          "IngredientType": "KHC",
          "ProductId": "00043000204337",
          "RecipeId": 118692
        },
        {
          "IngredientCategory": "KRL",
          "IngredientId": 67974,
          "IngredientIndustrySector": "Retail",
          "IngredientType": "Inedible",
          "ProductId": "00043000009536",
          "RecipeId": 118692
        },
        {
          "IngredientCategory": "KRL",
          "IngredientId": 68096,
          "IngredientIndustrySector": "Retail",
          "IngredientType": "Inedible",
          "ProductId": null,
          "RecipeId": 118692
        },
        {
          "IngredientCategory": "KRL",
          "IngredientId": 68459,
          "IngredientIndustrySector": "Retail",
          "IngredientType": "Inedible",
          "ProductId": null,
          "RecipeId": 118692
        },
        {
          "IngredientCategory": "KRL",
          "IngredientId": 68684,
          "IngredientIndustrySector": "Retail",
          "IngredientType": "Inedible",
          "ProductId": "00043000071700",
          "RecipeId": 118692
        },
        {
          "IngredientCategory": "KRL",
          "IngredientId": 68764,
          "IngredientIndustrySector": "Retail",
          "IngredientType": "Inedible",
          "ProductId": null,
          "RecipeId": 118692
        },
        {
          "IngredientCategory": "KRL",
          "IngredientId": 72084,
          "IngredientIndustrySector": "Retail",
          "IngredientType": "Inedible",
          "ProductId": null,
          "RecipeId": 118692
        }
      ],
      "RiseTaxonomy": [
        {
          "ParentTaxonomyId": 0,
          "RecipeId": 118692,
          "ResourceName": "Recipe",
          "TaxonomyId": 63,
          "TaxonomyName": "Desserts",
          "TaxonomyTypeId": 2,
          "TaxonomyTypeName": "Meal Part"
        },
        {
          "ParentTaxonomyId": 49,
          "RecipeId": 118692,
          "ResourceName": "Recipe",
          "TaxonomyId": 221,
          "TaxonomyName": "Parfaits",
          "TaxonomyTypeId": 3,
          "TaxonomyTypeName": "Dish Type"
        }
      ],
      "Riserecipe": [
        {
          "GRIN": 559400,
          "RecipeId": 118692,
          "RecipeIndustrySector": "Retail",
          "RecipeType": "Internal"
        }
      ],
      "RomanceText": "Try our take on PB and chocolate in this Peanut Butter-Chocolate Trifle! There's nothing trifling about this tasty Peanut Butter-Chocolate Trifle dessert.\n",
      "SEOName": "peanut-butter-chocolate-trifle-118692",
      "Tips": [
        {
          "RecipeId": 118692,
          "Sequence": 1,
          "TipDescription": "Use 1 pkg. (3.9 oz.) JELL-O SIMPLY GOOD Chocolate Flavor Pudding",
          "TipID": 5846,
          "TipName": "Substitute"
        },
        {
          "RecipeId": 118692,
          "Sequence": 1,
          "TipDescription": "Use 1 pkg. (3.4 oz.) JELL-O SIMPLY GOOD Vanilla Bean Flavor Pudding.",
          "TipID": 5847,
          "TipName": "Substitute"
        },
        {
          "RecipeId": 118692,
          "Sequence": 10,
          "TipDescription": "Sweets can be part of a balanced diet but remember to keep tabs on portions.",
          "TipID": 1,
          "TipName": "Size Wise"
        },
        {
          "RecipeId": 118692,
          "Sequence": 20,
          "TipDescription": "Top chocolate pudding layer with 2 sliced bananas before covering with remaining layers as directed.",
          "TipID": 2,
          "TipName": "Special Extra"
        },
        {
          "RecipeId": 118692,
          "Sequence": 30,
          "TipDescription": "Prepare trifle as directed but do not top with syrup.  Refrigerate up to 6 hours.  Drizzle with syrup just before serving.",
          "TipID": 3,
          "TipName": "Make Ahead"
        }
      ],
      "TotalTime": 20,
      "TradeMarkInfo": null,
      "Video": [],
      "Yield": "12 servings, 2/3 cup each"
    }
  ]
}