{
  "Metadata": {
    "PageCount": 1,
    "PageNo": 0,
    "TotalCount": 0
  },
  "Recipes": [
    {
      "AdServingKeywords": "Cheese,Meat,Onion,Peppers,Poultry,Turkey,Vegetables,Sandwich,Dinner,Lunch,All Seasons,Kraft Mayo,Kraft Singles,Oscar Mayer,Spicy",
      "AlternateLanguageRecipes": [
        {
          "LanguageId": "2",
          "RecipeId": "115128",
          "SiteId": "1"
        },
        {
          "LanguageId": "2",
          "RecipeId": "115128",
          "SiteId": "90"
        }
      ],
      "Assets": [
        {
          "PictureFormats": [
            {
              "rendition": "290x194",
              "url": "http://assets.kraftfoods.com/recipe_images/opendeploy/Turkey-Sandwich-with-Pepper-Strips-57825_290x194.jpg"
            },
            {
              "rendition": "600x250",
              "url": "http://assets.kraftfoods.com/recipe_images/opendeploy/Turkey-Sandwich-with-Pepper-Strips-57825_600x250.jpg"
            },
            {
              "rendition": "640x428",
              "url": "http://assets.kraftfoods.com/recipe_images/opendeploy/Turkey-Sandwich-with-Pepper-Strips-57825_640x428.jpg"
            }
          ],
          "author": null,
          "id": "2",
          "imageType": "Primary",
          "mimeType": "image/jpeg",
          "publicationDate": null,
          "status": "1",
          "title": "Turkey-Sandwich-with-Pepper-Strips-57825",
          "type": "image"
        },
        {
          "PictureFormats": [
            {
              "rendition": "300x200",
              "url": "http://assets.kraftfoods.com/recipe_images/115127.jpg"
            }
          ],
          "author": "BulKUpload",
          "id": "0",
          "imageType": "LANDSCAPE",
          "mimeType": "image/jpeg",
          "publicationDate": null,
          "status": "1",
          "title": "115127.jpg",
          "type": "image"
        }
      ],
      "AverageRating": 0,
      "BrandId": 1,
      "Branding": null,
      "CSSSkins": null,
      "CarbCounter": null,
      "Categories": [
        {
          "CategoryID": 11,
          "CategoryName": "Primary",
          "CategoryRank": 0,
          "SubCategoryID": 105,
          "SubCategoryName": "Sandwiches",
          "SubCategoryRank": 80
        },
        {
          "CategoryID": 14,
          "CategoryName": "Soup/Sandwiches",
          "CategoryRank": 14,
          "SubCategoryID": 160,
          "SubCategoryName": "Hot Sandwiches",
          "SubCategoryRank": 70
        },
        {
          "CategoryID": 751,
          "CategoryName": "Breads, Sandwiches, Wraps & Burgers",
          "CategoryRank": 5,
          "SubCategoryID": 2532,
          "SubCategoryName": "Toasted / Grilled / Cooked",
          "SubCategoryRank": 1
        },
        {
          "CategoryID": 814,
          "CategoryName": "Latin",
          "CategoryRank": 8,
          "SubCategoryID": 3143,
          "SubCategoryName": "Soup/Sandwiches",
          "SubCategoryRank": 120
        }
      ],
      "Classifications": [],
      "ComplimentaryRecipes": [
        {
          "AverageRating": 0,
          "HasVideo": false,
          "IsHealthyLiving": false,
          "NumberOfRatings": 0,
          "PhotoName": null,
          "PhotoUrl": null,
          "RecipeId": 54963,
          "RecipeName": null,
          "SEOName": "cinnamon-chocolate-pudding-54963",
          "ThumbnailPhoto": "Cinnamon_Chocolate_Pudding.jpg"
        }
      ],
      "CookingMethod": null,
      "Copyright": null,
      "Courses": [
        "Sandwiches"
      ],
      "DietExchange": null,
      "DishDetails": [],
      "EndDate": "/Date(-62135575200000-0600)/",
      "HasVideo": false,
      "Ingredients": [
        {
          "FullMeasure": "1",
          "FullWeight": "",
          "IngredientGridHeaders": null,
          "IngredientID": 1370,
          "IngredientName": "onion",
          "IngredientStep": 10,
          "LanguageId": 0,
          "PostPreparation": ", sliced",
          "PrePreparation": "",
          "QuantityNum": 1,
          "QuantityText": "1",
          "QuantityUnit": "",
          "RecipeIngredientID": 5326216,
          "TrialMeasure": "",
          "TrialWeight": ""
        },
        {
          "FullMeasure": "1",
          "FullWeight": "",
          "IngredientGridHeaders": null,
          "IngredientID": 1523,
          "IngredientName": "red pepper",
          "IngredientStep": 20,
          "LanguageId": 0,
          "PostPreparation": ", cut into thin strips",
          "PrePreparation": "",
          "QuantityNum": 1,
          "QuantityText": "1",
          "QuantityUnit": "",
          "RecipeIngredientID": 5326213,
          "TrialMeasure": "",
          "TrialWeight": ""
        },
        {
          "FullMeasure": "1",
          "FullWeight": "",
          "IngredientGridHeaders": null,
          "IngredientID": 5004,
          "IngredientName": "poblano chile",
          "IngredientStep": 30,
          "LanguageId": 0,
          "PostPreparation": ", roasted, peeled, seeded, deveined and thinly sliced",
          "PrePreparation": "",
          "QuantityNum": 1,
          "QuantityText": "1",
          "QuantityUnit": "",
          "RecipeIngredientID": 5326214,
          "TrialMeasure": "",
          "TrialWeight": ""
        },
        {
          "FullMeasure": "4 small",
          "FullWeight": "",
          "IngredientGridHeaders": null,
          "IngredientID": 4816,
          "IngredientName": "bolillo",
          "IngredientStep": 40,
          "LanguageId": 0,
          "PostPreparation": "s, split",
          "PrePreparation": "",
          "QuantityNum": 4,
          "QuantityText": "4",
          "QuantityUnit": "small",
          "RecipeIngredientID": 5326212,
          "TrialMeasure": "",
          "TrialWeight": ""
        },
        {
          "FullMeasure": "4 slices",
          "FullWeight": "",
          "IngredientGridHeaders": null,
          "IngredientID": 5397,
          "IngredientName": "OSCAR MAYER Oven Roasted Turkey Breast",
          "IngredientStep": 50,
          "LanguageId": 0,
          "PostPreparation": "",
          "PrePreparation": "",
          "QuantityNum": 4,
          "QuantityText": "4",
          "QuantityUnit": "slices",
          "RecipeIngredientID": 5326218,
          "TrialMeasure": "",
          "TrialWeight": ""
        },
        {
          "FullMeasure": "4",
          "FullWeight": "",
          "IngredientGridHeaders": null,
          "IngredientID": 405,
          "IngredientName": "KRAFT Singles",
          "IngredientStep": 60,
          "LanguageId": 0,
          "PostPreparation": "",
          "PrePreparation": "",
          "QuantityNum": 4,
          "QuantityText": "4",
          "QuantityUnit": "",
          "RecipeIngredientID": 5326215,
          "TrialMeasure": "",
          "TrialWeight": ""
        },
        {
          "FullMeasure": "2 Tbsp.",
          "FullWeight": "",
          "IngredientGridHeaders": null,
          "IngredientID": 447,
          "IngredientName": "KRAFT Real Mayo Mayonnaise",
          "IngredientStep": 70,
          "LanguageId": 0,
          "PostPreparation": "",
          "PrePreparation": "",
          "QuantityNum": 2,
          "QuantityText": "2",
          "QuantityUnit": "Tbsp.",
          "RecipeIngredientID": 5326217,
          "TrialMeasure": "",
          "TrialWeight": ""
        }
      ],
      "IsHealthyLiving": false,
      "KRLId": "563338",
      "KeyIngredients": [
        "Bread",
        "Cheese",
        "Meat",
        "Onion",
        "Peppers",
        "Poultry",
        "Turkey",
        "Vegetables"
      ],
      "Keywords": "onions,OSCAR MAYER Turkey,peppers,red peppers,rolls,american cheese,cheese,cold cuts,hot peppers,KRAFT Singles,mayonnaise,meat,turkey,turkey breast,KRAFT Mayo Real Mayonnaise,chile peppers,mayo type dressing,cheese slices,lunch meat,singles,turkey lunch meat,bell peppers,Sandwich,All Seasons,Dinner,Spicy",
      "LanguageId": 1,
      "LifeStyles": [],
      "NumberOfIngredients": 7,
      "NumberOfRatings": 0,
      "NumberOfRatingsWithComments": "0",
      "NumberOfServings": "4 servings",
      "NumberOfTrialServings": "",
      "NutritionBonus": null,
      "NutritionExchangeItemId": 0,
      "NutritionGridItems": null,
      "NutritionItems": [
        {
          "DisplayOrder": 1,
          "Document": null,
          "NutritionItemID": 3,
          "NutritionItemName": "Calories",
          "Predriscriptor": "",
          "Quantity": 350,
          "Unit": "          "
        },
        {
          "DisplayOrder": 2,
          "Document": "fat_cholesterol.html",
          "NutritionItemID": 4,
          "NutritionItemName": "Total fat",
          "Predriscriptor": "",
          "Quantity": 12,
          "Unit": "g         "
        },
        {
          "DisplayOrder": 3,
          "Document": "fat_cholesterol.html",
          "NutritionItemID": 9,
          "NutritionItemName": "Saturated fat",
          "Predriscriptor": "",
          "Quantity": 4,
          "Unit": "g         "
        },
        {
          "DisplayOrder": 7,
          "Document": "fat_cholesterol.html",
          "NutritionItemID": 2,
          "NutritionItemName": "Cholesterol",
          "Predriscriptor": "",
          "Quantity": 30,
          "Unit": "mg        "
        },
        {
          "DisplayOrder": 8,
          "Document": "sodium.html",
          "NutritionItemID": 8,
          "NutritionItemName": "Sodium",
          "Predriscriptor": "",
          "Quantity": 760,
          "Unit": "mg        "
        },
        {
          "DisplayOrder": 10,
          "Document": "carbs_sugars_fiber.html",
          "NutritionItemID": 1,
          "NutritionItemName": "Carbohydrate",
          "Predriscriptor": "",
          "Quantity": 47,
          "Unit": "g         "
        },
        {
          "DisplayOrder": 11,
          "Document": "carbs_sugars_fiber.html",
          "NutritionItemID": 7,
          "NutritionItemName": "Dietary fiber",
          "Predriscriptor": "",
          "Quantity": 3,
          "Unit": "g         "
        },
        {
          "DisplayOrder": 12,
          "Document": "carbs_sugars_fiber.html",
          "NutritionItemID": 5,
          "NutritionItemName": "Sugars",
          "Predriscriptor": "",
          "Quantity": 4,
          "Unit": "g         "
        },
        {
          "DisplayOrder": 13,
          "Document": null,
          "NutritionItemID": 6,
          "NutritionItemName": "Protein",
          "Predriscriptor": "",
          "Quantity": 17,
          "Unit": "g         "
        },
        {
          "DisplayOrder": 14,
          "Document": null,
          "NutritionItemID": 10,
          "NutritionItemName": "Vitamin A",
          "Predriscriptor": "",
          "Quantity": 25,
          "Unit": "%DV       "
        },
        {
          "DisplayOrder": 15,
          "Document": null,
          "NutritionItemID": 11,
          "NutritionItemName": "Vitamin C",
          "Predriscriptor": "",
          "Quantity": 40,
          "Unit": "%DV       "
        },
        {
          "DisplayOrder": 16,
          "Document": "dairy_and_calcium.html",
          "NutritionItemID": 12,
          "NutritionItemName": "Calcium",
          "Predriscriptor": "",
          "Quantity": 25,
          "Unit": "%DV       "
        },
        {
          "DisplayOrder": 17,
          "Document": null,
          "NutritionItemID": 13,
          "NutritionItemName": "Iron",
          "Predriscriptor": "",
          "Quantity": 15,
          "Unit": "%DV       "
        }
      ],
      "NutritionServingText": "",
      "PrepStepImage": null,
      "PreparationDescription": "Cook and stir onions, peppers and chiles in large skillet on medium-high heat 5 min. or until onions and peppers are tender. $Fill bolillos with turkey, vegetable mixture and Singles.  Spread outside of bolillos with mayo.  $Cook in skillet on medium heat 3 min. on each side or until golden brown on both sides, gently pressing down tops of sandwiches with spatula to flatten slightly as they cook.",
      "PreparationPreText": "",
      "PreparationSteps": [
        {
          "Description": "Cook and stir onions, peppers and chiles in large skillet on medium-high heat 5 min. or until onions and peppers are tender. ",
          "PreparationStepImage": {
            "PictureFormats": [],
            "author": null,
            "id": null,
            "imageType": null,
            "mimeType": null,
            "publicationDate": null,
            "status": null,
            "title": null,
            "type": null
          },
          "Sequence": 1
        },
        {
          "Description": "Fill bolillos with turkey, vegetable mixture and Singles.  Spread outside of bolillos with mayo.  ",
          "PreparationStepImage": {
            "PictureFormats": [],
            "author": null,
            "id": null,
            "imageType": null,
            "mimeType": null,
            "publicationDate": null,
            "status": null,
            "title": null,
            "type": null
          },
          "Sequence": 2
        },
        {
          "Description": "Cook in skillet on medium heat 3 min. on each side or until golden brown on both sides, gently pressing down tops of sandwiches with spatula to flatten slightly as they cook.",
          "PreparationStepImage": {
            "PictureFormats": [],
            "author": null,
            "id": null,
            "imageType": null,
            "mimeType": null,
            "publicationDate": null,
            "status": null,
            "title": null,
            "type": null
          },
          "Sequence": 3
        }
      ],
      "PreparationTime": 20,
      "Promotion": null,
      "Ratings": {
        "TotalCount": 0,
        "PageCount": 10,
        "PageNo": 1,
        "Rating": []
      },
      "RecipeDisplayFormatId": 5,
      "RecipeId": 115127,
      "RecipeName": "Turkey Sandwich with Pepper Strips",
      "RecipeType": 0,
      "RelatedData": {
        "RelatedBrands": null,
        "RelatedProducts": null,
        "RelatedRecipes": {
          "DefaultTopCount": 5,
          "Recipe": [
            {
              "AverageRating": 5,
              "HasVideo": false,
              "IsHealthyLiving": false,
              "NumberOfRatings": 1,
              "PhotoName": "Beef_n_Cornbread_Wrapped_in_Banana_Leaves.jpg",
              "PhotoUrl": "http://assets.kraftfoods.com/recipe_images/opendeploy/Beef_n_Cornbread_Wrapped_in_Banana_Leaves.jpg",
              "RecipeId": 105154,
              "RecipeName": "Beef 'n Cornbread Wrapped in Banana Leaves",
              "SEOName": "beef-n-cornbread-wrapped-in-banana-leaves-105154",
              "ThumbnailPhoto": null
            },
            {
              "AverageRating": 5,
              "HasVideo": false,
              "IsHealthyLiving": false,
              "NumberOfRatings": 1,
              "PhotoName": "opendeploy/547303_1_1_retail-b38a6c3bb10077b8ba2af2156c61853db2f4b116_306x204.jpg",
              "PhotoUrl": "http://assets.kraftfoods.com/recipe_images/opendeploy/opendeploy/547303_1_1_retail-b38a6c3bb10077b8ba2af2156c61853db2f4b116_306x204.jpg",
              "RecipeId": 184523,
              "RecipeName": "Leftover Turkey and Gravy Sliders",
              "SEOName": "leftover-turkey-gravy-sliders-184523",
              "ThumbnailPhoto": null
            },
            {
              "AverageRating": 4.1,
              "HasVideo": false,
              "IsHealthyLiving": false,
              "NumberOfRatings": 31,
              "PhotoName": "Moist_TexMex_Cornbread.jpg",
              "PhotoUrl": "http://assets.kraftfoods.com/recipe_images/opendeploy/Moist_TexMex_Cornbread.jpg",
              "RecipeId": 52625,
              "RecipeName": "Moist Tex-Mex Cornbread",
              "SEOName": "moist-tex-mex-cornbread-52625",
              "ThumbnailPhoto": null
            },
            {
              "AverageRating": 4.3,
              "HasVideo": false,
              "IsHealthyLiving": false,
              "NumberOfRatings": 23,
              "PhotoName": "Spicy_Cornbread.jpg",
              "PhotoUrl": "http://assets.kraftfoods.com/recipe_images/opendeploy/Spicy_Cornbread.jpg",
              "RecipeId": 51018,
              "RecipeName": "Spicy Cornbread",
              "SEOName": "spicy-cornbread-51018",
              "ThumbnailPhoto": null
            },
            {
              "AverageRating": 4.2,
              "HasVideo": false,
              "IsHealthyLiving": true,
              "NumberOfRatings": 82,
              "PhotoName": "opendeploy/503526_1_1_retail-1dc693162429c714567e65a6076d47903d8f84fa_306x204.jpg",
              "PhotoUrl": "http://assets.kraftfoods.com/recipe_images/opendeploy/opendeploy/503526_1_1_retail-1dc693162429c714567e65a6076d47903d8f84fa_306x204.jpg",
              "RecipeId": 53535,
              "RecipeName": "Southwest Cornbread",
              "SEOName": "southwest-cornbread-53535",
              "ThumbnailPhoto": null
            }
          ],
          "TotalCount": 4088
        }
      },
      "RiseIngredients": [],
      "RiseTaxonomy": [],
      "Riserecipe": [
        {
          "GRIN": 563338,
          "RecipeId": 115127,
          "RecipeIndustrySector": "Retail",
          "RecipeType": "Internal"
        }
      ],
      "RomanceText": "Crunch into this decked-out turkey sandwich, packed with sautéed peppers and onions in a crusty bolillo roll, and you may never bother with delis again.",
      "SEOName": "turkey-sandwich-pepper-strips-115127",
      "Tips": [
        {
          "RecipeId": 115127,
          "Sequence": 10,
          "TipDescription": "Prepare using yellow, orange or green peppers.",
          "TipID": 1,
          "TipName": "Substitute"
        },
        {
          "RecipeId": 115127,
          "Sequence": 20,
          "TipDescription": "Heat panini grill to medium heat.  Grill sandwiches 5 min. or until Singles are melted and sandwiches are golden brown on both sides.",
          "TipID": 2,
          "TipName": "How to Prepare in Panini Grill"
        }
      ],
      "TotalTime": 20,
      "TradeMarkInfo": null,
      "Video": [],
      "Yield": "4 servings."
    }
  ]
}