{
  "Metadata": {
    "PageCount": 1,
    "PageNo": 0,
    "TotalCount": 0
  },
  "Recipes": [
    {
      "AdServingKeywords": "Chocolate,Dessert,All Seasons,Cake,Bakers,Cool Whip",
      "AlternateLanguageRecipes": [],
      "Assets": [],
      "AverageRating": 0,
      "BrandId": 1,
      "Branding": null,
      "CSSSkins": null,
      "CarbCounter": null,
      "Categories": [
        {
          "CategoryID": 3,
          "CategoryName": "Cookies/Candy/Other Desserts",
          "CategoryRank": 6,
          "SubCategoryID": 360,
          "SubCategoryName": "Brownies",
          "SubCategoryRank": 30
        },
        {
          "CategoryID": 11,
          "CategoryName": "Primary",
          "CategoryRank": 0,
          "SubCategoryID": 103,
          "SubCategoryName": "Desserts",
          "SubCategoryRank": 40
        },
        {
          "CategoryID": 761,
          "CategoryName": "Cakes, Muffins & Sweet Treats",
          "CategoryRank": 15,
          "SubCategoryID": 2585,
          "SubCategoryName": "Sweet",
          "SubCategoryRank": 1
        },
        {
          "CategoryID": 761,
          "CategoryName": "Cakes, Muffins & Sweet Treats",
          "CategoryRank": 15,
          "SubCategoryID": 2587,
          "SubCategoryName": "Biscuits & Scones",
          "SubCategoryRank": 1
        }
      ],
      "Classifications": [],
      "ComplimentaryRecipes": null,
      "CookingMethod": null,
      "Copyright": null,
      "Courses": [
        "Desserts"
      ],
      "DietExchange": null,
      "DishDetails": [
        {
          "Text": "desserts",
          "Url": "/recipes/dessert/main.aspx"
        },
        {
          "Text": "fruity desserts",
          "Url": "/recipes/dessert/fruitydesserts.aspx"
        },
        {
          "Text": "gelatin desserts",
          "Url": "/recipes/dessert/gelatindesserts.aspx"
        },
        {
          "Text": "layered desserts",
          "Url": "/recipes/dessert/layereddesserts.aspx"
        },
        {
          "Text": "brownie recipes",
          "Url": "/recipes/dessert/brownie-recipes/main.aspx"
        },
        {
          "Text": "budget desserts",
          "Url": "/recipes/budget/budget-desserts.aspx"
        },
        {
          "Text": "no bake desserts",
          "Url": "/recipes/dessert/nobakedesserts.aspx"
        },
        {
          "Text": "pumpkin recipes",
          "Url": "/recipes/dessert/pumpkin-recipes.aspx"
        },
        {
          "Text": "chocolate cake recipes",
          "Url": "/recipes/dessert/chocolate-cake-recipes/main.aspx"
        },
        {
          "Text": "cheesecake recipes",
          "Url": "/recipes/dessert/cheesecake-center/cheesecake-recipes/main.aspx"
        },
        {
          "Text": "chocolate lovers recipes",
          "Url": "/recipes/dessert/chocolate-center/chocolateloversrecipes.aspx"
        },
        {
          "Text": "classic desserts",
          "Url": "/recipes/dessert/classicdesserts.aspx"
        },
        {
          "Text": "cookie ball recipes",
          "Url": "/recipes/dessert/cookie-ball-recipes/main.aspx"
        },
        {
          "Text": "cookie recipes",
          "Url": "/recipes/dessert/cookie-recipes/main.aspx"
        },
        {
          "Text": "cupcake recipes",
          "Url": "/recipes/dessert/cupcake-recipes/main.aspx"
        },
        {
          "Text": "healthy living desserts",
          "Url": "/healthy-living-ideas/diabetes-center/recipes/dessert-recipes.aspx"
        }
      ],
      "EndDate": "/Date(-62135575200000-0600)/",
      "HasVideo": false,
      "Ingredients": [
        {
          "FullMeasure": "1-1/2 pkg.",
          "FullWeight": "",
          "IngredientGridHeaders": null,
          "IngredientID": 66,
          "IngredientName": "BAKER'S Semi-Sweet Chocolate",
          "IngredientStep": 10,
          "LanguageId": 0,
          "PostPreparation": " (6 oz.), divided",
          "PrePreparation": "(4 oz. each)",
          "QuantityNum": 1,
          "QuantityText": "1-1/2",
          "QuantityUnit": "pkg.",
          "RecipeIngredientID": 4020287,
          "TrialMeasure": "",
          "TrialWeight": ""
        },
        {
          "FullMeasure": "1 pkg.",
          "FullWeight": "",
          "IngredientGridHeaders": null,
          "IngredientID": 1988,
          "IngredientName": "brownie mix",
          "IngredientStep": 20,
          "LanguageId": 0,
          "PostPreparation": " (13x9-inch pan size)",
          "PrePreparation": "(18.3 to 19.5 oz.)",
          "QuantityNum": 1,
          "QuantityText": "1",
          "QuantityUnit": "pkg.",
          "RecipeIngredientID": 4020286,
          "TrialMeasure": "",
          "TrialWeight": ""
        },
        {
          "FullMeasure": "1-1/2 cups",
          "FullWeight": "",
          "IngredientGridHeaders": null,
          "IngredientID": 140,
          "IngredientName": "COOL WHIP Whipped Topping",
          "IngredientStep": 30,
          "LanguageId": 0,
          "PostPreparation": "",
          "PrePreparation": "thawed",
          "QuantityNum": 1,
          "QuantityText": "1-1/2",
          "QuantityUnit": "cups",
          "RecipeIngredientID": 4020285,
          "TrialMeasure": "",
          "TrialWeight": ""
        }
      ],
      "IsHealthyLiving": false,
      "KRLId": "515273",
      "KeyIngredients": [
        "Chocolate"
      ],
      "Keywords": "baking chocolate,brownie mix,chocolate,COOL WHIP,whipped topping,BAKER'S Semi-Sweet Chocolate,semi-sweet chocolate,chocolate-semi-sweet,Dessert,All Seasons,Cake",
      "LanguageId": 1,
      "LifeStyles": [],
      "NumberOfIngredients": 3,
      "NumberOfRatings": 0,
      "NumberOfRatingsWithComments": "0",
      "NumberOfServings": "12 servings",
      "NumberOfTrialServings": "",
      "NutritionBonus": null,
      "NutritionExchangeItemId": 0,
      "NutritionGridItems": null,
      "NutritionItems": [
        {
          "DisplayOrder": 1,
          "Document": null,
          "NutritionItemID": 3,
          "NutritionItemName": "Calories",
          "Predriscriptor": "",
          "Quantity": 400,
          "Unit": "          "
        },
        {
          "DisplayOrder": 2,
          "Document": "fat_cholesterol.html",
          "NutritionItemID": 4,
          "NutritionItemName": "Total fat",
          "Predriscriptor": "",
          "Quantity": 23,
          "Unit": "g         "
        },
        {
          "DisplayOrder": 3,
          "Document": "fat_cholesterol.html",
          "NutritionItemID": 9,
          "NutritionItemName": "Saturated fat",
          "Predriscriptor": "",
          "Quantity": 7,
          "Unit": "g         "
        },
        {
          "DisplayOrder": 7,
          "Document": "fat_cholesterol.html",
          "NutritionItemID": 2,
          "NutritionItemName": "Cholesterol",
          "Predriscriptor": "",
          "Quantity": 30,
          "Unit": "mg        "
        },
        {
          "DisplayOrder": 8,
          "Document": "sodium.html",
          "NutritionItemID": 8,
          "NutritionItemName": "Sodium",
          "Predriscriptor": "",
          "Quantity": 130,
          "Unit": "mg        "
        },
        {
          "DisplayOrder": 10,
          "Document": "carbs_sugars_fiber.html",
          "NutritionItemID": 1,
          "NutritionItemName": "Carbohydrate",
          "Predriscriptor": "",
          "Quantity": 46,
          "Unit": "g         "
        },
        {
          "DisplayOrder": 11,
          "Document": "carbs_sugars_fiber.html",
          "NutritionItemID": 7,
          "NutritionItemName": "Dietary fiber",
          "Predriscriptor": "",
          "Quantity": 1,
          "Unit": "g         "
        },
        {
          "DisplayOrder": 12,
          "Document": "carbs_sugars_fiber.html",
          "NutritionItemID": 5,
          "NutritionItemName": "Sugars",
          "Predriscriptor": "",
          "Quantity": 33,
          "Unit": "g         "
        },
        {
          "DisplayOrder": 13,
          "Document": null,
          "NutritionItemID": 6,
          "NutritionItemName": "Protein",
          "Predriscriptor": "",
          "Quantity": 3,
          "Unit": "g         "
        },
        {
          "DisplayOrder": 14,
          "Document": null,
          "NutritionItemID": 10,
          "NutritionItemName": "Vitamin A",
          "Predriscriptor": "",
          "Quantity": 0,
          "Unit": "%DV       "
        },
        {
          "DisplayOrder": 15,
          "Document": null,
          "NutritionItemID": 11,
          "NutritionItemName": "Vitamin C",
          "Predriscriptor": "",
          "Quantity": 0,
          "Unit": "%DV       "
        },
        {
          "DisplayOrder": 16,
          "Document": "dairy_and_calcium.html",
          "NutritionItemID": 12,
          "NutritionItemName": "Calcium",
          "Predriscriptor": "",
          "Quantity": 0,
          "Unit": "%DV       "
        },
        {
          "DisplayOrder": 17,
          "Document": null,
          "NutritionItemID": 13,
          "NutritionItemName": "Iron",
          "Predriscriptor": "",
          "Quantity": 10,
          "Unit": "%DV       "
        }
      ],
      "NutritionServingText": " ",
      "PrepStepImage": null,
      "PreparationDescription": "Cut 3 oz. semi-sweet chocolate evenly into 12 pieces.$Prepare brownie mix as directed on package; spoon into 12 muffin cups sprayed with cooking spray.  Press 1 chocolate piece into center of batter in each cup, completely covering chocolate piece with batter. $Bake 20 min.  Cool cakes in pan 10 min.; invert onto wire rack. $Melt remaining semi-sweet chocolate as directed on package; drizzle onto 12 dessert plates.  Place 1 cake on each plate; top with COOL WHIP. ",
      "PreparationPreText": "Heat oven to 350°F.",
      "PreparationSteps": [
        {
          "Description": "Cut 3 oz. semi-sweet chocolate evenly into 12 pieces.",
          "PreparationStepImage": {
            "PictureFormats": [],
            "author": null,
            "id": null,
            "imageType": null,
            "mimeType": null,
            "publicationDate": null,
            "status": null,
            "title": null,
            "type": null
          },
          "Sequence": 1
        },
        {
          "Description": "Prepare brownie mix as directed on package; spoon into 12 muffin cups sprayed with cooking spray.  Press 1 chocolate piece into center of batter in each cup, completely covering chocolate piece with batter. ",
          "PreparationStepImage": {
            "PictureFormats": [],
            "author": null,
            "id": null,
            "imageType": null,
            "mimeType": null,
            "publicationDate": null,
            "status": null,
            "title": null,
            "type": null
          },
          "Sequence": 2
        },
        {
          "Description": "Bake 20 min.  Cool cakes in pan 10 min.; invert onto wire rack. ",
          "PreparationStepImage": {
            "PictureFormats": [],
            "author": null,
            "id": null,
            "imageType": null,
            "mimeType": null,
            "publicationDate": null,
            "status": null,
            "title": null,
            "type": null
          },
          "Sequence": 3
        },
        {
          "Description": "Melt remaining semi-sweet chocolate as directed on package; drizzle onto 12 dessert plates.  Place 1 cake on each plate; top with COOL WHIP. ",
          "PreparationStepImage": {
            "PictureFormats": [],
            "author": null,
            "id": null,
            "imageType": null,
            "mimeType": null,
            "publicationDate": null,
            "status": null,
            "title": null,
            "type": null
          },
          "Sequence": 4
        }
      ],
      "PreparationTime": 15,
      "Promotion": null,
      "Ratings": {
        "TotalCount": 0,
        "PageCount": 10,
        "PageNo": 1,
        "Rating": []
      },
      "RecipeDisplayFormatId": 5,
      "RecipeId": 158699,
      "RecipeName": "Brownie Fudge Tunnel Cakes",
      "RecipeType": 0,
      "RelatedData": {
        "RelatedBrands": null,
        "RelatedProducts": null,
        "RelatedRecipes": {
          "DefaultTopCount": 5,
          "Recipe": [
            {
              "AverageRating": 4.5,
              "HasVideo": false,
              "IsHealthyLiving": false,
              "NumberOfRatings": 90,
              "PhotoName": "51504.jpg",
              "PhotoUrl": "http://assets.kraftfoods.com/recipe_images/opendeploy/51504.jpg",
              "RecipeId": 51504,
              "RecipeName": "VELVEETA® Fudge",
              "SEOName": "velveeta-fudge-51504",
              "ThumbnailPhoto": null
            },
            {
              "AverageRating": 4.7,
              "HasVideo": false,
              "IsHealthyLiving": false,
              "NumberOfRatings": 117,
              "PhotoName": "60538.jpg",
              "PhotoUrl": "http://assets.kraftfoods.com/recipe_images/opendeploy/60538.jpg",
              "RecipeId": 60538,
              "RecipeName": "Mile-High Fudge Brownie Pie",
              "SEOName": "mile-high-fudge-brownie-pie-60538",
              "ThumbnailPhoto": null
            },
            {
              "AverageRating": 4.3,
              "HasVideo": false,
              "IsHealthyLiving": false,
              "NumberOfRatings": 29,
              "PhotoName": "107264.jpg",
              "PhotoUrl": "http://assets.kraftfoods.com/recipe_images/opendeploy/107264.jpg",
              "RecipeId": 107264,
              "RecipeName": "Chocolate-Cherry Fudge Bars",
              "SEOName": "chocolate-cherry-fudge-bars-107264",
              "ThumbnailPhoto": null
            },
            {
              "AverageRating": 4,
              "HasVideo": false,
              "IsHealthyLiving": false,
              "NumberOfRatings": 7,
              "PhotoName": "Double_Chocolate_Caramel_Brownies.jpg",
              "PhotoUrl": "http://assets.kraftfoods.com/recipe_images/opendeploy/Double_Chocolate_Caramel_Brownies.jpg",
              "RecipeId": 56937,
              "RecipeName": "Double Chocolate-Caramel Brownie Recipe",
              "SEOName": "double-chocolate-caramel-brownie-recipe-56937",
              "ThumbnailPhoto": null
            },
            {
              "AverageRating": 4.7,
              "HasVideo": false,
              "IsHealthyLiving": false,
              "NumberOfRatings": 167,
              "PhotoName": "54143.jpg",
              "PhotoUrl": "http://assets.kraftfoods.com/recipe_images/opendeploy/54143.jpg",
              "RecipeId": 54143,
              "RecipeName": "Peanut Butter-Fudge Swirl Pie",
              "SEOName": "peanut-butter-fudge-swirl-pie-54143",
              "ThumbnailPhoto": null
            }
          ],
          "TotalCount": 4933
        }
      },
      "RiseIngredients": [],
      "RiseTaxonomy": [],
      "Riserecipe": [
        {
          "GRIN": 515273,
          "RecipeId": 158699,
          "RecipeIndustrySector": "Retail",
          "RecipeType": "Internal"
        }
      ],
      "RomanceText": "Don't mistake these treats for funnel cakes—they're much easier. You just need brownie mix, chocolate and whipped topping for these fudge-filled sweets.",
      "SEOName": "brownie-fudge-tunnel-cakes-158699",
      "Tips": [
        {
          "RecipeId": 158699,
          "Sequence": 10,
          "TipDescription": "Looking for a special treat? One serving of this cake is full of chocolately flavor. ",
          "TipID": 3,
          "TipName": "Size-Wise"
        },
        {
          "RecipeId": 158699,
          "Sequence": 20,
          "TipDescription": "Prepare using BAKER'S White Chocolate.",
          "TipID": 1,
          "TipName": "Substitute"
        },
        {
          "RecipeId": 158699,
          "Sequence": 30,
          "TipDescription": "Cakes can be made ahead of time.  Prepare, bake and cool as directed.  Wrap tightly and freeze up to 3 months.  When ready to serve, remove desserts from freezer and let stand at room temperature several hours or until thawed.  Serve as directed.",
          "TipID": 2,
          "TipName": "Make Ahead"
        }
      ],
      "TotalTime": 45,
      "TradeMarkInfo": null,
      "Video": [],
      "Yield": "12 servings"
    }
  ]
}