{
  "Metadata": {
    "PageCount": 1,
    "PageNo": 0,
    "TotalCount": 0
  },
  "Recipes": [
    {
      "AdServingKeywords": "Dessert,Chocolate,Dairy,Eggs,Grapes,All Seasons,Bakers,Cool Whip",
      "AlternateLanguageRecipes": [],
      "Assets": [],
      "AverageRating": 0,
      "BrandId": 1,
      "Branding": null,
      "CSSSkins": null,
      "CarbCounter": null,
      "Categories": [
        {
          "CategoryID": 3,
          "CategoryName": "Cookies/Candy/Other Desserts",
          "CategoryRank": 6,
          "SubCategoryID": 120,
          "SubCategoryName": "Puddings/Custard",
          "SubCategoryRank": 170
        },
        {
          "CategoryID": 11,
          "CategoryName": "Primary",
          "CategoryRank": 0,
          "SubCategoryID": 103,
          "SubCategoryName": "Desserts",
          "SubCategoryRank": 40
        },
        {
          "CategoryID": 758,
          "CategoryName": "Marinades, Sauces, Spreads & Frostings",
          "CategoryRank": 12,
          "SubCategoryID": 2572,
          "SubCategoryName": "Sweet",
          "SubCategoryRank": 1
        },
        {
          "CategoryID": 758,
          "CategoryName": "Marinades, Sauces, Spreads & Frostings",
          "CategoryRank": 12,
          "SubCategoryID": 2574,
          "SubCategoryName": "Hot",
          "SubCategoryRank": 1
        },
        {
          "CategoryID": 759,
          "CategoryName": "Desserts",
          "CategoryRank": 13,
          "SubCategoryID": 2576,
          "SubCategoryName": "Hot",
          "SubCategoryRank": 1
        }
      ],
      "Classifications": [],
      "ComplimentaryRecipes": null,
      "CookingMethod": null,
      "Copyright": null,
      "Courses": [
        "Desserts"
      ],
      "DietExchange": null,
      "DishDetails": [
        {
          "Text": "desserts",
          "Url": "/recipes/dessert/main.aspx"
        },
        {
          "Text": "fruity desserts",
          "Url": "/recipes/dessert/fruitydesserts.aspx"
        },
        {
          "Text": "gelatin desserts",
          "Url": "/recipes/dessert/gelatindesserts.aspx"
        },
        {
          "Text": "layered desserts",
          "Url": "/recipes/dessert/layereddesserts.aspx"
        },
        {
          "Text": "brownie recipes",
          "Url": "/recipes/dessert/brownie-recipes/main.aspx"
        },
        {
          "Text": "budget desserts",
          "Url": "/recipes/budget/budget-desserts.aspx"
        },
        {
          "Text": "no bake desserts",
          "Url": "/recipes/dessert/nobakedesserts.aspx"
        },
        {
          "Text": "pumpkin recipes",
          "Url": "/recipes/dessert/pumpkin-recipes.aspx"
        },
        {
          "Text": "chocolate cake recipes",
          "Url": "/recipes/dessert/chocolate-cake-recipes/main.aspx"
        },
        {
          "Text": "cheesecake recipes",
          "Url": "/recipes/dessert/cheesecake-center/cheesecake-recipes/main.aspx"
        },
        {
          "Text": "chocolate lovers recipes",
          "Url": "/recipes/dessert/chocolate-center/chocolateloversrecipes.aspx"
        },
        {
          "Text": "classic desserts",
          "Url": "/recipes/dessert/classicdesserts.aspx"
        },
        {
          "Text": "cookie ball recipes",
          "Url": "/recipes/dessert/cookie-ball-recipes/main.aspx"
        },
        {
          "Text": "cookie recipes",
          "Url": "/recipes/dessert/cookie-recipes/main.aspx"
        },
        {
          "Text": "cupcake recipes",
          "Url": "/recipes/dessert/cupcake-recipes/main.aspx"
        },
        {
          "Text": "healthy living desserts",
          "Url": "/healthy-living-ideas/diabetes-center/recipes/dessert-recipes.aspx"
        }
      ],
      "EndDate": "/Date(-62135575200000-0600)/",
      "HasVideo": false,
      "Ingredients": [
        {
          "FullMeasure": "1",
          "FullWeight": "",
          "IngredientGridHeaders": null,
          "IngredientID": 1060,
          "IngredientName": "egg",
          "IngredientStep": 10,
          "LanguageId": 0,
          "PostPreparation": "",
          "PrePreparation": "",
          "QuantityNum": 1,
          "QuantityText": "1",
          "QuantityUnit": "",
          "RecipeIngredientID": 5373673,
          "TrialMeasure": "",
          "TrialWeight": ""
        },
        {
          "FullMeasure": "2-3/4 cups",
          "FullWeight": "",
          "IngredientGridHeaders": null,
          "IngredientID": 1345,
          "IngredientName": "milk",
          "IngredientStep": 20,
          "LanguageId": 0,
          "PostPreparation": "",
          "PrePreparation": "",
          "QuantityNum": 2,
          "QuantityText": "2-3/4",
          "QuantityUnit": "cups",
          "RecipeIngredientID": 5373680,
          "TrialMeasure": "",
          "TrialWeight": ""
        },
        {
          "FullMeasure": "1/3 cup",
          "FullWeight": "",
          "IngredientGridHeaders": null,
          "IngredientID": 1845,
          "IngredientName": "sugar",
          "IngredientStep": 30,
          "LanguageId": 0,
          "PostPreparation": "",
          "PrePreparation": "",
          "QuantityNum": 0,
          "QuantityText": "1/3",
          "QuantityUnit": "cup",
          "RecipeIngredientID": 5373675,
          "TrialMeasure": "",
          "TrialWeight": ""
        },
        {
          "FullMeasure": "3 Tbsp.",
          "FullWeight": "",
          "IngredientGridHeaders": null,
          "IngredientID": 554,
          "IngredientName": "MINUTE Tapioca",
          "IngredientStep": 40,
          "LanguageId": 0,
          "PostPreparation": "",
          "PrePreparation": "",
          "QuantityNum": 3,
          "QuantityText": "3",
          "QuantityUnit": "Tbsp.",
          "RecipeIngredientID": 5373679,
          "TrialMeasure": "",
          "TrialWeight": ""
        },
        {
          "FullMeasure": "1/4 cup",
          "FullWeight": "",
          "IngredientGridHeaders": null,
          "IngredientID": 23281,
          "IngredientName": "creamy peanut butter",
          "IngredientStep": 50,
          "LanguageId": 0,
          "PostPreparation": "",
          "PrePreparation": "",
          "QuantityNum": 0,
          "QuantityText": "1/4",
          "QuantityUnit": "cup",
          "RecipeIngredientID": 5373676,
          "TrialMeasure": "",
          "TrialWeight": ""
        },
        {
          "FullMeasure": "1 tsp.",
          "FullWeight": "",
          "IngredientGridHeaders": null,
          "IngredientID": 1731,
          "IngredientName": "vanilla",
          "IngredientStep": 60,
          "LanguageId": 0,
          "PostPreparation": "",
          "PrePreparation": "",
          "QuantityNum": 1,
          "QuantityText": "1",
          "QuantityUnit": "tsp.",
          "RecipeIngredientID": 5373672,
          "TrialMeasure": "",
          "TrialWeight": ""
        },
        {
          "FullMeasure": "1/4 cup",
          "FullWeight": "",
          "IngredientGridHeaders": null,
          "IngredientID": 25546,
          "IngredientName": "BAKER'S Semi-Sweet Chocolate Chips",
          "IngredientStep": 70,
          "LanguageId": 0,
          "PostPreparation": "",
          "PrePreparation": "",
          "QuantityNum": 0,
          "QuantityText": "1/4",
          "QuantityUnit": "cup",
          "RecipeIngredientID": 5373677,
          "TrialMeasure": "",
          "TrialWeight": ""
        },
        {
          "FullMeasure": "1 cup",
          "FullWeight": "",
          "IngredientGridHeaders": null,
          "IngredientID": 140,
          "IngredientName": "COOL WHIP Whipped Topping",
          "IngredientStep": 80,
          "LanguageId": 0,
          "PostPreparation": "",
          "PrePreparation": "thawed",
          "QuantityNum": 1,
          "QuantityText": "1",
          "QuantityUnit": "cup",
          "RecipeIngredientID": 5373674,
          "TrialMeasure": "",
          "TrialWeight": ""
        },
        {
          "FullMeasure": "2 Tbsp.",
          "FullWeight": "",
          "IngredientGridHeaders": null,
          "IngredientID": 2341,
          "IngredientName": "grape jelly",
          "IngredientStep": 90,
          "LanguageId": 0,
          "PostPreparation": "",
          "PrePreparation": "",
          "QuantityNum": 2,
          "QuantityText": "2",
          "QuantityUnit": "Tbsp.",
          "RecipeIngredientID": 5373678,
          "TrialMeasure": "",
          "TrialWeight": ""
        }
      ],
      "IsHealthyLiving": false,
      "KRLId": "509617",
      "KeyIngredients": [
        "Dairy",
        "Eggs",
        "Fruit",
        "Grapes"
      ],
      "Keywords": "peanut butter,BAKER'S Chocolate,chocolate,COOL WHIP,eggs,extract,jelly,milk,MINUTE Tapioca,sugar,vanilla,whipped topping,BAKER'S Semi-Sweet Chocolate,chocolate chips,tapioca,semi-sweet chocolate,Dessert,All Seasons",
      "LanguageId": 1,
      "LifeStyles": [],
      "NumberOfIngredients": 9,
      "NumberOfRatings": 0,
      "NumberOfRatingsWithComments": "0",
      "NumberOfServings": "7 servings, 1/2 cup each",
      "NumberOfTrialServings": "",
      "NutritionBonus": null,
      "NutritionExchangeItemId": 0,
      "NutritionGridItems": null,
      "NutritionItems": [
        {
          "DisplayOrder": 1,
          "Document": null,
          "NutritionItemID": 3,
          "NutritionItemName": "Calories",
          "Predriscriptor": "",
          "Quantity": 250,
          "Unit": "          "
        },
        {
          "DisplayOrder": 2,
          "Document": "fat_cholesterol.html",
          "NutritionItemID": 4,
          "NutritionItemName": "Total fat",
          "Predriscriptor": "",
          "Quantity": 11,
          "Unit": "g         "
        },
        {
          "DisplayOrder": 3,
          "Document": "fat_cholesterol.html",
          "NutritionItemID": 9,
          "NutritionItemName": "Saturated fat",
          "Predriscriptor": "",
          "Quantity": 6,
          "Unit": "g         "
        },
        {
          "DisplayOrder": 7,
          "Document": "fat_cholesterol.html",
          "NutritionItemID": 2,
          "NutritionItemName": "Cholesterol",
          "Predriscriptor": "",
          "Quantity": 35,
          "Unit": "mg        "
        },
        {
          "DisplayOrder": 8,
          "Document": "sodium.html",
          "NutritionItemID": 8,
          "NutritionItemName": "Sodium",
          "Predriscriptor": "",
          "Quantity": 100,
          "Unit": "mg        "
        },
        {
          "DisplayOrder": 10,
          "Document": "carbs_sugars_fiber.html",
          "NutritionItemID": 1,
          "NutritionItemName": "Carbohydrate",
          "Predriscriptor": "",
          "Quantity": 32,
          "Unit": "g         "
        },
        {
          "DisplayOrder": 11,
          "Document": "carbs_sugars_fiber.html",
          "NutritionItemID": 7,
          "NutritionItemName": "Dietary fiber",
          "Predriscriptor": "Less than",
          "Quantity": 1,
          "Unit": "g         "
        },
        {
          "DisplayOrder": 12,
          "Document": "carbs_sugars_fiber.html",
          "NutritionItemID": 5,
          "NutritionItemName": "Sugars",
          "Predriscriptor": "",
          "Quantity": 24,
          "Unit": "g         "
        },
        {
          "DisplayOrder": 13,
          "Document": null,
          "NutritionItemID": 6,
          "NutritionItemName": "Protein",
          "Predriscriptor": "",
          "Quantity": 7,
          "Unit": "g         "
        },
        {
          "DisplayOrder": 14,
          "Document": null,
          "NutritionItemID": 10,
          "NutritionItemName": "Vitamin A",
          "Predriscriptor": "",
          "Quantity": 4,
          "Unit": "%DV       "
        },
        {
          "DisplayOrder": 15,
          "Document": null,
          "NutritionItemID": 11,
          "NutritionItemName": "Vitamin C",
          "Predriscriptor": "",
          "Quantity": 0,
          "Unit": "%DV       "
        },
        {
          "DisplayOrder": 16,
          "Document": "dairy_and_calcium.html",
          "NutritionItemID": 12,
          "NutritionItemName": "Calcium",
          "Predriscriptor": "",
          "Quantity": 10,
          "Unit": "%DV       "
        },
        {
          "DisplayOrder": 17,
          "Document": null,
          "NutritionItemID": 13,
          "NutritionItemName": "Iron",
          "Predriscriptor": "",
          "Quantity": 4,
          "Unit": "%DV       "
        }
      ],
      "NutritionServingText": " ",
      "PrepStepImage": null,
      "PreparationDescription": "Whisk egg and milk in medium saucepan until blended.  Stir in sugar and tapioca.  Let stand 5 min.$Bring to full rolling boil on medium heat, stirring constantly.  Remove from heat.  Add peanut butter and vanilla; stir until peanut butter is melted and mixture is well blended. Cool 10 min.  Stir in chocolate morsels.  Pour into bowl; cover with plastic wrap, placing plastic wrap directly on surface of pudding.$Refrigerate 1 hour or until cooled.  (Pudding thickens as it cools.)  Stir in COOL WHIP.  Add jelly; stir slightly to swirl.",
      "PreparationPreText": "",
      "PreparationSteps": [
        {
          "Description": "Whisk egg and milk in medium saucepan until blended.  Stir in sugar and tapioca.  Let stand 5 min.",
          "PreparationStepImage": {
            "PictureFormats": [],
            "author": null,
            "id": null,
            "imageType": null,
            "mimeType": null,
            "publicationDate": null,
            "status": null,
            "title": null,
            "type": null
          },
          "Sequence": 1
        },
        {
          "Description": "Bring to full rolling boil on medium heat, stirring constantly.  Remove from heat.  Add peanut butter and vanilla; stir until peanut butter is melted and mixture is well blended. Cool 10 min.  Stir in chocolate morsels.  Pour into bowl; cover with plastic wrap, placing plastic wrap directly on surface of pudding.",
          "PreparationStepImage": {
            "PictureFormats": [],
            "author": null,
            "id": null,
            "imageType": null,
            "mimeType": null,
            "publicationDate": null,
            "status": null,
            "title": null,
            "type": null
          },
          "Sequence": 2
        },
        {
          "Description": "Refrigerate 1 hour or until cooled.  (Pudding thickens as it cools.)  Stir in COOL WHIP.  Add jelly; stir slightly to swirl.",
          "PreparationStepImage": {
            "PictureFormats": [],
            "author": null,
            "id": null,
            "imageType": null,
            "mimeType": null,
            "publicationDate": null,
            "status": null,
            "title": null,
            "type": null
          },
          "Sequence": 3
        }
      ],
      "PreparationTime": 20,
      "Promotion": null,
      "Ratings": {
        "TotalCount": 0,
        "PageCount": 10,
        "PageNo": 1,
        "Rating": []
      },
      "RecipeDisplayFormatId": 5,
      "RecipeId": 189917,
      "RecipeName": "Chocolate-PB&J Tapioca Pudding",
      "RecipeType": 0,
      "RelatedData": {
        "RelatedBrands": null,
        "RelatedProducts": null,
        "RelatedRecipes": {
          "DefaultTopCount": 5,
          "Recipe": [
            {
              "AverageRating": 4.3,
              "HasVideo": false,
              "IsHealthyLiving": false,
              "NumberOfRatings": 4,
              "PhotoName": "PBJ-Cupcakes-62857.jpg",
              "PhotoUrl": "http://assets.kraftfoods.com/recipe_images/opendeploy/PBJ-Cupcakes-62857.jpg",
              "RecipeId": 143719,
              "RecipeName": "PB & J Cupcakes",
              "SEOName": "pb-j-cupcakes-143719",
              "ThumbnailPhoto": null
            },
            {
              "AverageRating": 4,
              "HasVideo": false,
              "IsHealthyLiving": false,
              "NumberOfRatings": 1,
              "PhotoName": "PBJ-Crispy-Treats-59542.jpg",
              "PhotoUrl": "http://assets.kraftfoods.com/recipe_images/opendeploy/PBJ-Crispy-Treats-59542.jpg",
              "RecipeId": 123196,
              "RecipeName": "PB & J RICE KRISPIES® TREATS™",
              "SEOName": "pb-j-rice-krispies-treats-123196",
              "ThumbnailPhoto": null
            },
            {
              "AverageRating": 4,
              "HasVideo": false,
              "IsHealthyLiving": false,
              "NumberOfRatings": 2,
              "PhotoName": "Chocolate_MINUTE_Tapioca_Pudding.jpg",
              "PhotoUrl": "http://assets.kraftfoods.com/recipe_images/opendeploy/Chocolate_MINUTE_Tapioca_Pudding.jpg",
              "RecipeId": 53632,
              "RecipeName": "Chocolate MINUTE® Tapioca Pudding",
              "SEOName": "chocolate-minute-tapioca-pudding-53632",
              "ThumbnailPhoto": null
            },
            {
              "AverageRating": 4.1,
              "HasVideo": false,
              "IsHealthyLiving": false,
              "NumberOfRatings": 9,
              "PhotoName": "Dark_Chocolate_Tapioca_Pudding.jpg",
              "PhotoUrl": "http://assets.kraftfoods.com/recipe_images/opendeploy/Dark_Chocolate_Tapioca_Pudding.jpg",
              "RecipeId": 51529,
              "RecipeName": "Dark Chocolate Tapioca Pudding",
              "SEOName": "dark-chocolate-tapioca-pudding-51529",
              "ThumbnailPhoto": null
            },
            {
              "AverageRating": 4.7,
              "HasVideo": false,
              "IsHealthyLiving": false,
              "NumberOfRatings": 3,
              "PhotoName": "Chocolate_Souffle.jpg",
              "PhotoUrl": "http://assets.kraftfoods.com/recipe_images/opendeploy/Chocolate_Souffle.jpg",
              "RecipeId": 54038,
              "RecipeName": "Chocolate Soufflé",
              "SEOName": "chocolate-souffle-54038",
              "ThumbnailPhoto": null
            }
          ],
          "TotalCount": 1449
        }
      },
      "RiseIngredients": [],
      "RiseTaxonomy": [],
      "Riserecipe": [
        {
          "GRIN": 509617,
          "RecipeId": 189917,
          "RecipeIndustrySector": "Retail",
          "RecipeType": "Internal"
        }
      ],
      "RomanceText": "Tapioca pudding is famous for bringing the creamy to all kinds of desserts. Here, it works its magic with chocolate, peanut butter and jelly.",
      "SEOName": "chocolate-pbj-tapioca-pudding-189917",
      "Tips": [
        {
          "RecipeId": 189917,
          "Sequence": 10,
          "TipDescription": "Plan ahead and make smart food choices during the day so you can have a serving of this deliciously different tapioca pudding.",
          "TipID": 3,
          "TipName": "Size Wise"
        },
        {
          "RecipeId": 189917,
          "Sequence": 20,
          "TipDescription": "Prepare using strawberry jam.",
          "TipID": 2,
          "TipName": "Substitute"
        }
      ],
      "TotalTime": 90,
      "TradeMarkInfo": null,
      "Video": [],
      "Yield": "7 servings, 1/2 cup each"
    }
  ]
}