{
  "Metadata": {
    "PageCount": 1,
    "PageNo": 0,
    "TotalCount": 0
  },
  "Recipes": [
    {
      "AdServingKeywords": "Cheese,Dairy,Onion,Potato,Sour Cream,Vegetables,Side Dish,Easy,Baked,All Seasons,Breakstones,Knudsen,Kraft Salad Dressing,Velveeta,Cheesy",
      "AlternateLanguageRecipes": [],
      "Assets": [
        {
          "PictureFormats": [
            {
              "rendition": "290x194",
              "url": "http://assets.kraftfoods.com/recipe_images/opendeploy/50556_290x194.jpg"
            },
            {
              "rendition": "640x428",
              "url": "http://assets.kraftfoods.com/recipe_images/opendeploy/50556_640x428.jpg"
            },
            {
              "rendition": "600x250",
              "url": "http://assets.kraftfoods.com/recipe_images/opendeploy/50556_600x250.jpg"
            }
          ],
          "author": "BulKUpload",
          "id": "2",
          "imageType": "Primary",
          "mimeType": "image/jpeg",
          "publicationDate": null,
          "status": "1",
          "title": "50556",
          "type": "image"
        },
        {
          "PictureFormats": [
            {
              "rendition": "140x90",
              "url": "http://assets.kraftfoods.com/recipe_images/opendeploy/50556_MXM_K1039V0_OR1_CR_140x90.jpg"
            },
            {
              "rendition": "300x250",
              "url": "http://assets.kraftfoods.com/recipe_images/opendeploy/50556_MXM_K1039V0_OR1_CR_300x250.jpg"
            },
            {
              "rendition": "960x300",
              "url": "http://assets.kraftfoods.com/recipe_images/opendeploy/50556_MXM_K1039V0_OR1_CR_960x300.jpg"
            }
          ],
          "author": null,
          "id": "2",
          "imageType": "Primary",
          "mimeType": "image/jpeg",
          "publicationDate": null,
          "status": "1",
          "title": "50556_MXM_K1039V0_OR1_CR",
          "type": "image"
        },
        {
          "PictureFormats": [
            {
              "rendition": "300x200",
              "url": "http://assets.kraftfoods.com/recipe_images/50556.jpg"
            }
          ],
          "author": "BulKUpload",
          "id": "0",
          "imageType": "LANDSCAPE",
          "mimeType": "image/jpeg",
          "publicationDate": null,
          "status": "1",
          "title": "50556.jpg",
          "type": "image"
        }
      ],
      "AverageRating": 4.4,
      "BrandId": 1,
      "Branding": null,
      "CSSSkins": null,
      "CarbCounter": null,
      "Categories": [
        {
          "CategoryID": 9,
          "CategoryName": "Salads/Side Dishes",
          "CategoryRank": 13,
          "SubCategoryID": 429,
          "SubCategoryName": "Potato Side Dishes",
          "SubCategoryRank": 120
        },
        {
          "CategoryID": 11,
          "CategoryName": "Primary",
          "CategoryRank": 0,
          "SubCategoryID": 99,
          "SubCategoryName": "Side Dishes",
          "SubCategoryRank": 90
        },
        {
          "CategoryID": 757,
          "CategoryName": "Vegetables & Vegetarian Meals",
          "CategoryRank": 11,
          "SubCategoryID": 2571,
          "SubCategoryName": "Side / Other",
          "SubCategoryRank": 1
        }
      ],
      "Classifications": [],
      "ComplimentaryRecipes": null,
      "CookingMethod": null,
      "Copyright": null,
      "Courses": [
        "Salads & sides"
      ],
      "DietExchange": null,
      "DishDetails": [],
      "EndDate": "/Date(-62135575200000-0600)/",
      "HasVideo": false,
      "Ingredients": [
        {
          "FullMeasure": "4",
          "FullWeight": "",
          "IngredientGridHeaders": null,
          "IngredientID": 19875,
          "IngredientName": "baking potato",
          "IngredientStep": 10,
          "LanguageId": 0,
          "PostPreparation": "es (2 lb.)",
          "PrePreparation": "",
          "QuantityNum": 4,
          "QuantityText": "4",
          "QuantityUnit": "",
          "RecipeIngredientID": 6352711,
          "TrialMeasure": "",
          "TrialWeight": ""
        },
        {
          "FullMeasure": "1/2 cup",
          "FullWeight": "",
          "IngredientGridHeaders": null,
          "IngredientID": 484,
          "IngredientName": "KRAFT Classic Ranch Dressing",
          "IngredientStep": 20,
          "LanguageId": 0,
          "PostPreparation": "",
          "PrePreparation": "",
          "QuantityNum": 0,
          "QuantityText": "1/2",
          "QuantityUnit": "cup",
          "RecipeIngredientID": 6352709,
          "TrialMeasure": "",
          "TrialWeight": ""
        },
        {
          "FullMeasure": "1/2 cup",
          "FullWeight": "",
          "IngredientGridHeaders": null,
          "IngredientID": 88,
          "IngredientName": "BREAKSTONE'S or KNUDSEN Sour Cream",
          "IngredientStep": 30,
          "LanguageId": 0,
          "PostPreparation": "",
          "PrePreparation": "",
          "QuantityNum": 0,
          "QuantityText": "1/2",
          "QuantityUnit": "cup",
          "RecipeIngredientID": 6352708,
          "TrialMeasure": "",
          "TrialWeight": ""
        },
        {
          "FullMeasure": "2",
          "FullWeight": "",
          "IngredientGridHeaders": null,
          "IngredientID": 1823,
          "IngredientName": "green onion",
          "IngredientStep": 40,
          "LanguageId": 0,
          "PostPreparation": "s, chopped",
          "PrePreparation": "",
          "QuantityNum": 2,
          "QuantityText": "2",
          "QuantityUnit": "",
          "RecipeIngredientID": 6352710,
          "TrialMeasure": "",
          "TrialWeight": ""
        },
        {
          "FullMeasure": "1/4 lb.",
          "FullWeight": "",
          "IngredientGridHeaders": null,
          "IngredientID": 754,
          "IngredientName": "VELVEETA®",
          "IngredientStep": 50,
          "LanguageId": 0,
          "PostPreparation": ", cut into 1/2-inch cubes",
          "PrePreparation": "(4 oz.)",
          "QuantityNum": 0,
          "QuantityText": "1/4",
          "QuantityUnit": "lb.",
          "RecipeIngredientID": 6352712,
          "TrialMeasure": "",
          "TrialWeight": ""
        }
      ],
      "IsHealthyLiving": false,
      "KRLId": "502232",
      "KeyIngredients": [
        "Cheese",
        "Dairy",
        "Onion",
        "Potato",
        "Vegetables"
      ],
      "Keywords": "onions,potatoes,ranch dressing,american cheese,BREAKSTONE'S Sour Cream,cheese,dressing,KNUDSEN Sour Cream,KRAFT Dressing,salad dressing,scallions,sour cream,VELVEETA,green onions,Side Dish,Easy,Baked,All Seasons,Cheesy",
      "LanguageId": 1,
      "LifeStyles": [],
      "NumberOfIngredients": 5,
      "NumberOfRatings": 75,
      "NumberOfRatingsWithComments": "60",
      "NumberOfServings": "4 servings",
      "NumberOfTrialServings": "",
      "NutritionBonus": null,
      "NutritionExchangeItemId": 0,
      "NutritionGridItems": null,
      "NutritionItems": [
        {
          "DisplayOrder": 1,
          "Document": null,
          "NutritionItemID": 3,
          "NutritionItemName": "Calories",
          "Predriscriptor": "",
          "Quantity": 410,
          "Unit": "          "
        },
        {
          "DisplayOrder": 2,
          "Document": "fat_cholesterol.html",
          "NutritionItemID": 4,
          "NutritionItemName": "Total fat",
          "Predriscriptor": "",
          "Quantity": 23,
          "Unit": "g         "
        },
        {
          "DisplayOrder": 3,
          "Document": "fat_cholesterol.html",
          "NutritionItemID": 9,
          "NutritionItemName": "Saturated fat",
          "Predriscriptor": "",
          "Quantity": 9,
          "Unit": "g         "
        },
        {
          "DisplayOrder": 7,
          "Document": "fat_cholesterol.html",
          "NutritionItemID": 2,
          "NutritionItemName": "Cholesterol",
          "Predriscriptor": "",
          "Quantity": 50,
          "Unit": "mg        "
        },
        {
          "DisplayOrder": 8,
          "Document": "sodium.html",
          "NutritionItemID": 8,
          "NutritionItemName": "Sodium",
          "Predriscriptor": "",
          "Quantity": 750,
          "Unit": "mg        "
        },
        {
          "DisplayOrder": 10,
          "Document": "carbs_sugars_fiber.html",
          "NutritionItemID": 1,
          "NutritionItemName": "Carbohydrate",
          "Predriscriptor": "",
          "Quantity": 43,
          "Unit": "g         "
        },
        {
          "DisplayOrder": 11,
          "Document": "carbs_sugars_fiber.html",
          "NutritionItemID": 7,
          "NutritionItemName": "Dietary fiber",
          "Predriscriptor": "",
          "Quantity": 4,
          "Unit": "g         "
        },
        {
          "DisplayOrder": 12,
          "Document": "carbs_sugars_fiber.html",
          "NutritionItemID": 5,
          "NutritionItemName": "Sugars",
          "Predriscriptor": "",
          "Quantity": 8,
          "Unit": "g         "
        },
        {
          "DisplayOrder": 13,
          "Document": null,
          "NutritionItemID": 6,
          "NutritionItemName": "Protein",
          "Predriscriptor": "",
          "Quantity": 10,
          "Unit": "g         "
        },
        {
          "DisplayOrder": 14,
          "Document": null,
          "NutritionItemID": 10,
          "NutritionItemName": "Vitamin A",
          "Predriscriptor": "",
          "Quantity": 10,
          "Unit": "%DV       "
        },
        {
          "DisplayOrder": 15,
          "Document": null,
          "NutritionItemID": 11,
          "NutritionItemName": "Vitamin C",
          "Predriscriptor": "",
          "Quantity": 30,
          "Unit": "%DV       "
        },
        {
          "DisplayOrder": 16,
          "Document": "dairy_and_calcium.html",
          "NutritionItemID": 12,
          "NutritionItemName": "Calcium",
          "Predriscriptor": "",
          "Quantity": 30,
          "Unit": "%DV       "
        },
        {
          "DisplayOrder": 17,
          "Document": null,
          "NutritionItemID": 13,
          "NutritionItemName": "Iron",
          "Predriscriptor": "",
          "Quantity": 10,
          "Unit": "%DV       "
        }
      ],
      "NutritionServingText": "",
      "PrepStepImage": null,
      "PreparationDescription": "Prick potatoes in several places with fork.  Bake 1 hour or until tender.  Reduce oven temperature to 350°F. $Cut thin slice off top of each potato.  Discard tops; scoop out centers, leaving 1/8-inch-thick shells.  Mash potatoes.  Add dressing, sour cream and onions; mix well.  Spoon into shells; top with VELVEETA.  Place in shallow baking dish.$Bake 20 min. or until heated through.",
      "PreparationPreText": "Heat oven to 400ºF.",
      "PreparationSteps": [
        {
          "Description": "Prick potatoes in several places with fork.  Bake 1 hour or until tender.  Reduce oven temperature to 350°F. ",
          "PreparationStepImage": {
            "PictureFormats": [],
            "author": null,
            "id": null,
            "imageType": null,
            "mimeType": null,
            "publicationDate": null,
            "status": null,
            "title": null,
            "type": null
          },
          "Sequence": 1
        },
        {
          "Description": "Cut thin slice off top of each potato.  Discard tops; scoop out centers, leaving 1/8-inch-thick shells.  Mash potatoes.  Add dressing, sour cream and onions; mix well.  Spoon into shells; top with VELVEETA.  Place in shallow baking dish.",
          "PreparationStepImage": {
            "PictureFormats": [],
            "author": null,
            "id": null,
            "imageType": null,
            "mimeType": null,
            "publicationDate": null,
            "status": null,
            "title": null,
            "type": null
          },
          "Sequence": 2
        },
        {
          "Description": "Bake 20 min. or until heated through.",
          "PreparationStepImage": {
            "PictureFormats": [],
            "author": null,
            "id": null,
            "imageType": null,
            "mimeType": null,
            "publicationDate": null,
            "status": null,
            "title": null,
            "type": null
          },
          "Sequence": 3
        }
      ],
      "PreparationTime": 20,
      "Promotion": null,
      "Ratings": {
        "TotalCount": 75,
        "PageCount": 10,
        "PageNo": 1,
        "Rating": [
          {
            "Comment": "Recipe was easy to make.Instead of using Kraft ranch dressing,Breakstone's sour cream,Velveeta,I used what I had on hand.Regardless,of me not using kraft ranch dressing,Breakstone's sour cream,the Velveeta cheese the recipe itself was quite yummy.This recipe a keeper.Thanks!",
            "DisplayName": true,
            "RatingValue": 5,
            "SubmitDate": "/Date(1360962978000-0600)/",
            "UpdatedDate": "/Date(1360962978000-0600)/",
            "UserName": "Krazy4Cooking2012"
          },
          {
            "Comment": "",
            "DisplayName": true,
            "RatingValue": 4,
            "SubmitDate": "/Date(1360792688000-0600)/",
            "UpdatedDate": "/Date(1360792689000-0600)/",
            "UserName": "traschi"
          },
          {
            "Comment": "Everyone loved it with Christmas dinner. I used shredded sharp chedder cheese instead because I only like real cheese.",
            "DisplayName": false,
            "RatingValue": 5,
            "SubmitDate": "/Date(1356632464000-0600)/",
            "UpdatedDate": "/Date(1356632464000-0600)/",
            "UserName": "lisamock63"
          },
          {
            "Comment": "",
            "DisplayName": false,
            "RatingValue": 5,
            "SubmitDate": "/Date(1281421705000-0500)/",
            "UpdatedDate": "/Date(1281421705000-0500)/",
            "UserName": "Lkristen2"
          },
          {
            "Comment": "    I made this for the first time and it came out excellent!  My husband LOVED it!  Although it was easy to make, it was quite time consuming - two hours and fifteen minutes to make.  Of course that included an hour of baking time.  EXCELLENT!!!!",
            "DisplayName": true,
            "RatingValue": 5,
            "SubmitDate": "/Date(1255914083000-0500)/",
            "UpdatedDate": "/Date(1255914083000-0500)/",
            "UserName": "judude"
          },
          {
            "Comment": "these potatoes are fantastic, I made them last night for dinner and am considering making them again tonight, Yummy.",
            "DisplayName": true,
            "RatingValue": 5,
            "SubmitDate": "/Date(1237308231000-0500)/",
            "UpdatedDate": "/Date(1237308231000-0500)/",
            "UserName": "carletawilson"
          },
          {
            "Comment": "",
            "DisplayName": true,
            "RatingValue": 3,
            "SubmitDate": "/Date(1231724501000-0600)/",
            "UpdatedDate": "/Date(1231724501000-0600)/",
            "UserName": "yonkersk"
          },
          {
            "Comment": "I like potatoes and this was a great way to add flavor and enjoy them",
            "DisplayName": true,
            "RatingValue": 4,
            "SubmitDate": "/Date(1229879611000-0600)/",
            "UpdatedDate": "/Date(1229879611000-0600)/",
            "UserName": "esalla"
          },
          {
            "Comment": "I cubed up the velveeta and stirred it into the sour cream and ranch mixture.  Also added 1T butter and some salt.",
            "DisplayName": false,
            "RatingValue": 4,
            "SubmitDate": "/Date(1229555651000-0600)/",
            "UpdatedDate": "/Date(1229555651000-0600)/",
            "UserName": "elizabethgreim"
          },
          {
            "Comment": "Great recipe, kinda gets messy and its a trick to not burn yourself while scooping out the potatoes from the shell. haha. but great, i'll definately make this again.",
            "DisplayName": true,
            "RatingValue": 5,
            "SubmitDate": "/Date(1227239327000-0600)/",
            "UpdatedDate": "/Date(1227239327000-0600)/",
            "UserName": "xjennytronx"
          }
        ]
      },
      "RecipeDisplayFormatId": 5,
      "RecipeId": 50556,
      "RecipeName": "Twice-Baked Potatoes",
      "RecipeType": 0,
      "RelatedData": {
        "RelatedBrands": null,
        "RelatedProducts": null,
        "RelatedRecipes": {
          "DefaultTopCount": 5,
          "Recipe": [
            {
              "AverageRating": 4.3,
              "HasVideo": false,
              "IsHealthyLiving": false,
              "NumberOfRatings": 12,
              "PhotoName": "Twice-Baked-Potatoes-with-Bacon-1039.jpg",
              "PhotoUrl": "http://assets.kraftfoods.com/recipe_images/opendeploy/Twice-Baked-Potatoes-with-Bacon-1039.jpg",
              "RecipeId": 111117,
              "RecipeName": "Twice-Baked Potatoes with Bacon",
              "SEOName": "twice-baked-potatoes-bacon-111117",
              "ThumbnailPhoto": null
            },
            {
              "AverageRating": 4.4,
              "HasVideo": false,
              "IsHealthyLiving": false,
              "NumberOfRatings": 8,
              "PhotoName": "130548.jpg",
              "PhotoUrl": "http://assets.kraftfoods.com/recipe_images/opendeploy/130548.jpg",
              "RecipeId": 130548,
              "RecipeName": "Twice-Baked Cheesy Potatoes",
              "SEOName": "twice-baked-cheesy-potatoes-130548",
              "ThumbnailPhoto": null
            },
            {
              "AverageRating": 4.6,
              "HasVideo": false,
              "IsHealthyLiving": true,
              "NumberOfRatings": 12,
              "PhotoName": "114579.jpg",
              "PhotoUrl": "http://assets.kraftfoods.com/recipe_images/opendeploy/114579.jpg",
              "RecipeId": 114579,
              "RecipeName": "Twice-Baked Potatoes Makeover",
              "SEOName": "twice-baked-potatoes-makeover-114579",
              "ThumbnailPhoto": null
            },
            {
              "AverageRating": 4.5,
              "HasVideo": false,
              "IsHealthyLiving": false,
              "NumberOfRatings": 85,
              "PhotoName": "111250.jpg",
              "PhotoUrl": "http://assets.kraftfoods.com/recipe_images/opendeploy/111250.jpg",
              "RecipeId": 111250,
              "RecipeName": "Twice-Baked Sweet Potatoes",
              "SEOName": "twice-baked-sweet-potatoes-111250",
              "ThumbnailPhoto": null
            },
            {
              "AverageRating": 4.4,
              "HasVideo": false,
              "IsHealthyLiving": false,
              "NumberOfRatings": 85,
              "PhotoName": "107788.jpg",
              "PhotoUrl": "http://assets.kraftfoods.com/recipe_images/opendeploy/107788.jpg",
              "RecipeId": 107788,
              "RecipeName": "Roasted Garlic Twice-Baked Potatoes",
              "SEOName": "roasted-garlic-twice-baked-potatoes-107788",
              "ThumbnailPhoto": null
            }
          ],
          "TotalCount": 3488
        }
      },
      "RiseIngredients": [],
      "RiseTaxonomy": [],
      "Riserecipe": [
        {
          "GRIN": 502232,
          "RecipeId": 50556,
          "RecipeIndustrySector": "Retail",
          "RecipeType": "Internal"
        }
      ],
      "RomanceText": "Double down on great flavor with tasty Twice-Baked Potatoes. These Twice-Baked Potatoes are served with classic ranch dressing, sour cream and cheese.",
      "SEOName": "twice-baked-potatoes-50556",
      "Tips": [
        {
          "RecipeId": 50556,
          "Sequence": 10,
          "TipDescription": "Trim 50 calories and 12g fat, including 4.5g saturated fat, per serving by preparing with KRAFT Lite Ranch Dressing, BREAKSTONE'S Reduced Fat or KNUDSEN Light Sour Cream and 2% Milk VELVEETA.",
          "TipID": 2,
          "TipName": "Healthy Living"
        },
        {
          "RecipeId": 50556,
          "Sequence": 30,
          "TipDescription": "Serve this potato side dish with a crisp, mixed green salad or hot steamed vegetables and cooked lean meat, poultry or fish.",
          "TipID": 1,
          "TipName": "Serving Suggestion"
        }
      ],
      "TotalTime": 100,
      "TradeMarkInfo": null,
      "Video": [],
      "Yield": "Makes 4 servings."
    }
  ]
}