{
  "Metadata": {
    "PageCount": 1,
    "PageNo": 0,
    "TotalCount": 0
  },
  "Recipes": [
    {
      "AdServingKeywords": "Entree,Cheese,Chicken,Meat,Parmesan,Potato,Poultry,Vegetables,Baked,All Seasons,Dinner,Kraft Grated Cheese,Kraft Salad Dressing",
      "AlternateLanguageRecipes": [
        {
          "LanguageId": "2",
          "RecipeId": "94654",
          "SiteId": "90"
        }
      ],
      "Assets": [
        {
          "PictureFormats": [
            {
              "rendition": "290x194",
              "url": "http://assets.kraftfoods.com/recipe_images/opendeploy/94653-9703697215680c07b4c6046e323a7c7b99d894a0_291x194.jpg"
            },
            {
              "rendition": "306x204",
              "url": "http://assets.kraftfoods.com/recipe_images/opendeploy/94653-9703697215680c07b4c6046e323a7c7b99d894a0_306x204.jpg"
            },
            {
              "rendition": "640x428",
              "url": "http://assets.kraftfoods.com/recipe_images/opendeploy/94653-9703697215680c07b4c6046e323a7c7b99d894a0_642x428.jpg"
            }
          ],
          "author": "Kraft",
          "id": "2",
          "imageType": "Primary",
          "mimeType": "image/jpeg",
          "publicationDate": null,
          "status": "1",
          "title": "94653-9703697215680c07b4c6046e323a7c7b99d894a0",
          "type": "image"
        }
      ],
      "AverageRating": 3.9,
      "BrandId": 90,
      "Branding": null,
      "CSSSkins": null,
      "CarbCounter": null,
      "Categories": [
        {
          "CategoryID": 2,
          "CategoryName": "Poultry Entrees",
          "CategoryRank": 11,
          "SubCategoryID": 379,
          "SubCategoryName": "Baked",
          "SubCategoryRank": 10
        },
        {
          "CategoryID": 11,
          "CategoryName": "Primary",
          "CategoryRank": 0,
          "SubCategoryID": 97,
          "SubCategoryName": "Entrees",
          "SubCategoryRank": 50
        },
        {
          "CategoryID": 756,
          "CategoryName": "Main Meals (Meat / Seafood / Egg)",
          "CategoryRank": 10,
          "SubCategoryID": 2562,
          "SubCategoryName": "Chicken",
          "SubCategoryRank": 1
        }
      ],
      "Classifications": [],
      "ComplimentaryRecipes": null,
      "CookingMethod": null,
      "Copyright": null,
      "Courses": [
        "Main dishes"
      ],
      "DietExchange": null,
      "DishDetails": [
        {
          "Text": "chicken recipes",
          "Url": "/recipes/dinner/chicken-recipes/main.aspx"
        },
        {
          "Text": "grilled chicken recipes",
          "Url": "/recipes/dinner/chicken-recipes/grilled-chicken/main.aspx"
        },
        {
          "Text": "healthy living chicken recipes",
          "Url": "/recipes/dinner/chicken-recipes/hl/main.aspx"
        },
        {
          "Text": "slow cooker chicken recipes",
          "Url": "/recipes/dinner/chicken-recipes/slow-cooker/main.aspx"
        },
        {
          "Text": "whole chicken recipes",
          "Url": "/recipes/dinner/chicken-recipes/whole-chicken/main.aspx"
        },
        {
          "Text": "chicken breast recipes",
          "Url": "/recipes/dinner/chicken-recipes/chicken-breast/main.aspx"
        },
        {
          "Text": "chicken casseroles",
          "Url": "/recipes/dinner/chicken-recipes/casseroles/main.aspx"
        },
        {
          "Text": "chicken pasta recipes",
          "Url": "/recipes/dinner/chicken-recipes/pasta-dishes/main.aspx"
        },
        {
          "Text": "chicken salad recipes",
          "Url": "/recipes/dinner/chicken-recipes/salads/main.aspx"
        },
        {
          "Text": "chicken stir-fry recipes",
          "Url": "/recipes/dinner/chicken-recipes/stir-fry/main.aspx"
        },
        {
          "Text": "chicken wing recipes",
          "Url": "/recipes/appetizers/chicken-wing-recipes/main.aspx"
        },
        {
          "Text": "baked chicken recipes",
          "Url": "/recipes/dinner/chicken-recipes/baked-chicken/main.aspx"
        },
        {
          "Text": "bbq chicken recipes",
          "Url": "/recipes/holidays-and-entertaining/entertaining/summer/bbq-recipes/bbq-chicken-recipes/main.aspx"
        }
      ],
      "EndDate": "/Date(-62135575200000-0600)/",
      "HasVideo": false,
      "Ingredients": [
        {
          "FullMeasure": "1/4 cup",
          "FullWeight": "",
          "IngredientGridHeaders": null,
          "IngredientID": 499,
          "IngredientName": "KRAFT Zesty Italian Dressing",
          "IngredientStep": 10,
          "LanguageId": 0,
          "PostPreparation": "",
          "PrePreparation": "",
          "QuantityNum": 0,
          "QuantityText": "1/4",
          "QuantityUnit": "cup",
          "RecipeIngredientID": 6061629,
          "TrialMeasure": "",
          "TrialWeight": ""
        },
        {
          "FullMeasure": "4",
          "FullWeight": "",
          "IngredientGridHeaders": null,
          "IngredientID": 22543,
          "IngredientName": "bone-in chicken pieces",
          "IngredientStep": 20,
          "LanguageId": 0,
          "PostPreparation": " (1-1/2 lb.)",
          "PrePreparation": "",
          "QuantityNum": 4,
          "QuantityText": "4",
          "QuantityUnit": "",
          "RecipeIngredientID": 6061626,
          "TrialMeasure": "",
          "TrialWeight": ""
        },
        {
          "FullMeasure": "4 large",
          "FullWeight": "",
          "IngredientGridHeaders": null,
          "IngredientID": 19875,
          "IngredientName": "baking potato",
          "IngredientStep": 30,
          "LanguageId": 0,
          "PostPreparation": "es (2 lb.), cut into wedges",
          "PrePreparation": "",
          "QuantityNum": 4,
          "QuantityText": "4",
          "QuantityUnit": "large",
          "RecipeIngredientID": 6061627,
          "TrialMeasure": "",
          "TrialWeight": ""
        },
        {
          "FullMeasure": "1/4 cup",
          "FullWeight": "",
          "IngredientGridHeaders": null,
          "IngredientID": 397,
          "IngredientName": "KRAFT Grated Parmesan Cheese",
          "IngredientStep": 40,
          "LanguageId": 0,
          "PostPreparation": "",
          "PrePreparation": " ",
          "QuantityNum": 0,
          "QuantityText": "1/4",
          "QuantityUnit": "cup",
          "RecipeIngredientID": 6061628,
          "TrialMeasure": "",
          "TrialWeight": ""
        }
      ],
      "IsHealthyLiving": false,
      "KRLId": "540305",
      "KeyIngredients": [
        "Cheese",
        "Parmesan",
        "Potato"
      ],
      "Keywords": "parmesan cheese,potatoes,cheese,chicken,dressing,italian dressing,KRAFT Dressing,KRAFT Parmesan Cheese,meat,salad dressing,chicken parts,Entree,Baked,All Seasons,Dinner",
      "LanguageId": 1,
      "LifeStyles": [],
      "NumberOfIngredients": 4,
      "NumberOfRatings": 8,
      "NumberOfRatingsWithComments": "7",
      "NumberOfServings": "4 servings",
      "NumberOfTrialServings": "",
      "NutritionBonus": null,
      "NutritionExchangeItemId": 0,
      "NutritionGridItems": null,
      "NutritionItems": [
        {
          "DisplayOrder": 1,
          "Document": null,
          "NutritionItemID": 3,
          "NutritionItemName": "Calories",
          "Predriscriptor": "",
          "Quantity": 440,
          "Unit": "          "
        },
        {
          "DisplayOrder": 2,
          "Document": "fat_cholesterol.html",
          "NutritionItemID": 4,
          "NutritionItemName": "Total fat",
          "Predriscriptor": "",
          "Quantity": 14,
          "Unit": "g         "
        },
        {
          "DisplayOrder": 3,
          "Document": "fat_cholesterol.html",
          "NutritionItemID": 9,
          "NutritionItemName": "Saturated fat",
          "Predriscriptor": "",
          "Quantity": 4,
          "Unit": "g         "
        },
        {
          "DisplayOrder": 7,
          "Document": "fat_cholesterol.html",
          "NutritionItemID": 2,
          "NutritionItemName": "Cholesterol",
          "Predriscriptor": "",
          "Quantity": 120,
          "Unit": "mg        "
        },
        {
          "DisplayOrder": 8,
          "Document": "sodium.html",
          "NutritionItemID": 8,
          "NutritionItemName": "Sodium",
          "Predriscriptor": "",
          "Quantity": 380,
          "Unit": "mg        "
        },
        {
          "DisplayOrder": 10,
          "Document": "carbs_sugars_fiber.html",
          "NutritionItemID": 1,
          "NutritionItemName": "Carbohydrate",
          "Predriscriptor": "",
          "Quantity": 41,
          "Unit": "g         "
        },
        {
          "DisplayOrder": 11,
          "Document": "carbs_sugars_fiber.html",
          "NutritionItemID": 7,
          "NutritionItemName": "Dietary fiber",
          "Predriscriptor": "",
          "Quantity": 5,
          "Unit": "g         "
        },
        {
          "DisplayOrder": 12,
          "Document": "carbs_sugars_fiber.html",
          "NutritionItemID": 5,
          "NutritionItemName": "Sugars",
          "Predriscriptor": "",
          "Quantity": 2,
          "Unit": "g         "
        },
        {
          "DisplayOrder": 13,
          "Document": null,
          "NutritionItemID": 6,
          "NutritionItemName": "Protein",
          "Predriscriptor": "",
          "Quantity": 36,
          "Unit": "g         "
        },
        {
          "DisplayOrder": 14,
          "Document": null,
          "NutritionItemID": 10,
          "NutritionItemName": "Vitamin A",
          "Predriscriptor": "",
          "Quantity": 4,
          "Unit": "%DV       "
        },
        {
          "DisplayOrder": 15,
          "Document": null,
          "NutritionItemID": 11,
          "NutritionItemName": "Vitamin C",
          "Predriscriptor": "",
          "Quantity": 40,
          "Unit": "%DV       "
        },
        {
          "DisplayOrder": 16,
          "Document": "dairy_and_calcium.html",
          "NutritionItemID": 12,
          "NutritionItemName": "Calcium",
          "Predriscriptor": "",
          "Quantity": 10,
          "Unit": "%DV       "
        },
        {
          "DisplayOrder": 17,
          "Document": null,
          "NutritionItemID": 13,
          "NutritionItemName": "Iron",
          "Predriscriptor": "",
          "Quantity": 15,
          "Unit": "%DV       "
        }
      ],
      "NutritionServingText": " ",
      "PrepStepImage": null,
      "PreparationDescription": "Pour dressing over chicken and potatoes in 13x9-inch baking dish sprayed with cooking spray.$Sprinkle with cheese.$Bake 1 hour or until chicken is done (165°F). ",
      "PreparationPreText": "Heat oven to 400°F.",
      "PreparationSteps": [
        {
          "Description": "Pour dressing over chicken and potatoes in 13x9-inch baking dish sprayed with cooking spray.",
          "PreparationStepImage": {
            "PictureFormats": [],
            "author": null,
            "id": null,
            "imageType": null,
            "mimeType": null,
            "publicationDate": null,
            "status": null,
            "title": null,
            "type": null
          },
          "Sequence": 1
        },
        {
          "Description": "Sprinkle with cheese.",
          "PreparationStepImage": {
            "PictureFormats": [],
            "author": null,
            "id": null,
            "imageType": null,
            "mimeType": null,
            "publicationDate": null,
            "status": null,
            "title": null,
            "type": null
          },
          "Sequence": 2
        },
        {
          "Description": "Bake 1 hour or until chicken is done (165°F). ",
          "PreparationStepImage": {
            "PictureFormats": [],
            "author": null,
            "id": null,
            "imageType": null,
            "mimeType": null,
            "publicationDate": null,
            "status": null,
            "title": null,
            "type": null
          },
          "Sequence": 3
        }
      ],
      "PreparationTime": 10,
      "Promotion": null,
      "Ratings": {
        "TotalCount": 8,
        "PageCount": 10,
        "PageNo": 1,
        "Rating": [
          {
            "Comment": "",
            "DisplayName": true,
            "RatingValue": 3,
            "SubmitDate": "/Date(1244062885000-0500)/",
            "UpdatedDate": "/Date(1244062885000-0500)/",
            "UserName": "ilovedavidb"
          },
          {
            "Comment": "I love this recipe. I make it atleast once every two weeks. It is so easy to prep and tastes fantastic.",
            "DisplayName": true,
            "RatingValue": 5,
            "SubmitDate": "/Date(1239242137000-0500)/",
            "UpdatedDate": "/Date(1239242137000-0500)/",
            "UserName": "wcvwwest"
          },
          {
            "Comment": "esta muy buena yo prepare el pollo como de costumbre ademas le eche un poco de ajo,apio y pimenton y utilice  pechugas. les fascino a mi familia.",
            "DisplayName": true,
            "RatingValue": 4,
            "SubmitDate": "/Date(1210712407000-0500)/",
            "UpdatedDate": "/Date(1211086494000-0500)/",
            "UserName": "kazmy"
          },
          {
            "Comment": "a mi esposo y a mi nos encanto, yo le puse un ingrediente cubito maggi y vino blanco me quedo riquisima. Gracias ",
            "DisplayName": true,
            "RatingValue": 3,
            "SubmitDate": "/Date(1193698529000-0500)/",
            "UpdatedDate": "/Date(1193698529000-0500)/",
            "UserName": "patricia9120724"
          },
          {
            "Comment": "Esta reseta me encanto mucho grasias kraft",
            "DisplayName": true,
            "RatingValue": 5,
            "SubmitDate": "/Date(1191696125000-0500)/",
            "UpdatedDate": "/Date(1191696125000-0500)/",
            "UserName": "blue1060708"
          },
          {
            "Comment": "Es deliciosa y rapida que es lo que uno busca, a mi familia, que son bastante dificiles para la comida, les gusto.\r\n",
            "DisplayName": true,
            "RatingValue": 4,
            "SubmitDate": "/Date(1186522149000-0500)/",
            "UpdatedDate": "/Date(1188842257000-0500)/",
            "UserName": "dientologa"
          },
          {
            "Comment": "Not a very exciting dish. It was ok but not the best recipe ever.",
            "DisplayName": true,
            "RatingValue": 2,
            "SubmitDate": "/Date(1178644130000-0500)/",
            "UpdatedDate": "/Date(1182203361000-0500)/",
            "UserName": "ABBOTTVELASQUEZ"
          },
          {
            "Comment": "Es súper fácil, muy deliciosa y sobre todo deliciosa!",
            "DisplayName": true,
            "RatingValue": 5,
            "SubmitDate": "/Date(1162230871000-0500)/",
            "UpdatedDate": "/Date(1162248132000-0500)/",
            "UserName": "carolina350"
          }
        ]
      },
      "RecipeDisplayFormatId": 5,
      "RecipeId": 94653,
      "RecipeName": "Zesty One-Pan Chicken and Potato Bake",
      "RecipeType": 0,
      "RelatedData": {
        "RelatedBrands": null,
        "RelatedProducts": null,
        "RelatedRecipes": {
          "DefaultTopCount": 5,
          "Recipe": [
            {
              "AverageRating": 4.1,
              "HasVideo": false,
              "IsHealthyLiving": false,
              "NumberOfRatings": 65,
              "PhotoName": "One-Pan-Baked-Chicken-Sweet-Potatoes-59782.jpg",
              "PhotoUrl": "http://assets.kraftfoods.com/recipe_images/opendeploy/One-Pan-Baked-Chicken-Sweet-Potatoes-59782.jpg",
              "RecipeId": 126808,
              "RecipeName": "One-Pan Baked Chicken & Sweet Potatoes",
              "SEOName": "one-pan-baked-chicken-sweet-potatoes-126808",
              "ThumbnailPhoto": null
            },
            {
              "AverageRating": 4,
              "HasVideo": true,
              "IsHealthyLiving": true,
              "NumberOfRatings": 868,
              "PhotoName": "52564.jpg",
              "PhotoUrl": "http://assets.kraftfoods.com/recipe_images/opendeploy/52564.jpg",
              "RecipeId": 52564,
              "RecipeName": "One-Pan Chicken and Potato Bake",
              "SEOName": "one-pan-chicken-potato-bake-52564",
              "ThumbnailPhoto": null
            },
            {
              "AverageRating": 4.3,
              "HasVideo": false,
              "IsHealthyLiving": false,
              "NumberOfRatings": 95,
              "PhotoName": "rec_r1_3674v10ec.jpg",
              "PhotoUrl": "http://assets.kraftfoods.com/recipe_images/opendeploy/rec_r1_3674v10ec.jpg",
              "RecipeId": 107330,
              "RecipeName": "Rosemary-Roasted Chicken & Potatoes",
              "SEOName": "rosemary-roasted-chicken-potatoes-107330",
              "ThumbnailPhoto": null
            },
            {
              "AverageRating": 4.5,
              "HasVideo": false,
              "IsHealthyLiving": false,
              "NumberOfRatings": 39,
              "PhotoName": "Chicken_with_Creamy_Corn_and_Potatoes.jpg",
              "PhotoUrl": "http://assets.kraftfoods.com/recipe_images/opendeploy/Chicken_with_Creamy_Corn_and_Potatoes.jpg",
              "RecipeId": 90081,
              "RecipeName": "Chicken with Creamy Corn and Potatoes",
              "SEOName": "chicken-creamy-corn-potatoes-90081",
              "ThumbnailPhoto": null
            },
            {
              "AverageRating": 4,
              "HasVideo": false,
              "IsHealthyLiving": true,
              "NumberOfRatings": 35,
              "PhotoName": "Oven-Baked_Buttermilk_Chicken.jpg",
              "PhotoUrl": "http://assets.kraftfoods.com/recipe_images/opendeploy/Oven-Baked_Buttermilk_Chicken.jpg",
              "RecipeId": 74650,
              "RecipeName": "Baked Buttermilk Chicken Dinner",
              "SEOName": "baked-buttermilk-chicken-dinner-74650",
              "ThumbnailPhoto": null
            }
          ],
          "TotalCount": 4969
        }
      },
      "RiseIngredients": [],
      "RiseTaxonomy": [],
      "Riserecipe": [
        {
          "GRIN": 540305,
          "RecipeId": 94653,
          "RecipeIndustrySector": "Retail",
          "RecipeType": "Internal"
        }
      ],
      "RomanceText": "It only takes 4 ingredients to make this flavorful dish.  Just toss them all together and pop in the oven.",
      "SEOName": "zesty-one-pan-chicken-potato-bake-94653",
      "Tips": [
        {
          "RecipeId": 94653,
          "Sequence": 10,
          "TipDescription": "Serve with a mixed green salad tossed with your favorite KRAFT Dressing.  ",
          "TipID": 1,
          "TipName": "Serving Suggestion"
        },
        {
          "RecipeId": 94653,
          "Sequence": 20,
          "TipDescription": "For added flavor, squeeze a halved fresh lime over cooked chicken before serving.",
          "TipID": 2,
          "TipName": "Special Extra"
        }
      ],
      "TotalTime": 70,
      "TradeMarkInfo": null,
      "Video": [],
      "Yield": "4 servings"
    }
  ]
}