{
  "Metadata": {
    "PageCount": 1,
    "PageNo": 0,
    "TotalCount": 0
  },
  "Recipes": [
    {
      "AdServingKeywords": "Carrot,Cucumber,Fish,Onion,Salmon,Seafood,Vegetables,Parchment Paper,Asian,All Seasons,Burger,Kraft Mayo",
      "AlternateLanguageRecipes": [],
      "Assets": [
        {
          "PictureFormats": [
            {
              "rendition": "140x90",
              "url": "http://assets.kraftfoods.com/recipe_images/opendeploy/148474_KRL_K63844V0_OR1_H_140x90.jpg"
            },
            {
              "rendition": "290x194",
              "url": "http://assets.kraftfoods.com/recipe_images/opendeploy/148474_KRL_K63844V0_OR1_H_290x194.jpg"
            },
            {
              "rendition": "300x250",
              "url": "http://assets.kraftfoods.com/recipe_images/opendeploy/148474_KRL_K63844V0_OR1_H_300x250.jpg"
            },
            {
              "rendition": "600x250",
              "url": "http://assets.kraftfoods.com/recipe_images/opendeploy/148474_KRL_K63844V0_OR1_H_600x250.jpg"
            },
            {
              "rendition": "640x428",
              "url": "http://assets.kraftfoods.com/recipe_images/opendeploy/148474_KRL_K63844V0_OR1_H_640x428.jpg"
            },
            {
              "rendition": "960x300",
              "url": "http://assets.kraftfoods.com/recipe_images/opendeploy/148474_KRL_K63844V0_OR1_H_960x300.jpg"
            }
          ],
          "author": null,
          "id": "5",
          "imageType": "Primary",
          "mimeType": "image/jpeg",
          "publicationDate": null,
          "status": "1",
          "title": "148474_KRL_K63844V0_OR1_H",
          "type": "image"
        },
        {
          "PictureFormats": [
            {
              "rendition": "300x200",
              "url": "http://assets.kraftfoods.com/recipe_images/Asian-Salmon-Burgers-Wasabi-Mayo-63844.jpg"
            }
          ],
          "author": null,
          "id": "0",
          "imageType": "LANDSCAPE",
          "mimeType": null,
          "publicationDate": null,
          "status": "1",
          "title": "Asian-Salmon-Burgers-Wasabi-Mayo-63844.jpg",
          "type": "image"
        }
      ],
      "AverageRating": 0,
      "BrandId": 1,
      "Branding": null,
      "CSSSkins": null,
      "CarbCounter": null,
      "Categories": [],
      "Classifications": [],
      "ComplimentaryRecipes": null,
      "CookingMethod": null,
      "Copyright": null,
      "Courses": [],
      "DietExchange": null,
      "DishDetails": [],
      "EndDate": "/Date(-62135575200000-0600)/",
      "HasVideo": false,
      "Ingredients": [
        {
          "FullMeasure": null,
          "FullWeight": null,
          "IngredientGridHeaders": null,
          "IngredientID": 0,
          "IngredientName": "For Salmon Burgers",
          "IngredientStep": 10,
          "LanguageId": 0,
          "PostPreparation": "",
          "PrePreparation": "",
          "QuantityNum": 0,
          "QuantityText": "",
          "QuantityUnit": "",
          "RecipeIngredientID": 0,
          "TrialMeasure": null,
          "TrialWeight": null
        },
        {
          "FullMeasure": "2 lb.",
          "FullWeight": "",
          "IngredientGridHeaders": null,
          "IngredientID": 3647,
          "IngredientName": "salmon",
          "IngredientStep": 20,
          "LanguageId": 0,
          "PostPreparation": " fillets, skinned and boned",
          "PrePreparation": "",
          "QuantityNum": 2,
          "QuantityText": "2",
          "QuantityUnit": "lb.",
          "RecipeIngredientID": 5891967,
          "TrialMeasure": "",
          "TrialWeight": ""
        },
        {
          "FullMeasure": "1-3/4  cups",
          "FullWeight": "",
          "IngredientGridHeaders": null,
          "IngredientID": 20139,
          "IngredientName": "panko bread crumbs",
          "IngredientStep": 30,
          "LanguageId": 0,
          "PostPreparation": ", divided  plus more if needed",
          "PrePreparation": "",
          "QuantityNum": 1,
          "QuantityText": "1-3/4 ",
          "QuantityUnit": "cups",
          "RecipeIngredientID": 5891965,
          "TrialMeasure": "",
          "TrialWeight": ""
        },
        {
          "FullMeasure": "1 bunch",
          "FullWeight": "",
          "IngredientGridHeaders": null,
          "IngredientID": 7023,
          "IngredientName": "green onions",
          "IngredientStep": 40,
          "LanguageId": 0,
          "PostPreparation": ", washed",
          "PrePreparation": "",
          "QuantityNum": 1,
          "QuantityText": "1",
          "QuantityUnit": "bunch",
          "RecipeIngredientID": 5891966,
          "TrialMeasure": "",
          "TrialWeight": ""
        },
        {
          "FullMeasure": "1/4 cup",
          "FullWeight": "",
          "IngredientGridHeaders": null,
          "IngredientID": 447,
          "IngredientName": "KRAFT Real Mayo Mayonnaise",
          "IngredientStep": 50,
          "LanguageId": 0,
          "PostPreparation": "",
          "PrePreparation": "",
          "QuantityNum": 0,
          "QuantityText": "1/4",
          "QuantityUnit": "cup",
          "RecipeIngredientID": 5891956,
          "TrialMeasure": "",
          "TrialWeight": ""
        },
        {
          "FullMeasure": "1 Tbsp.",
          "FullWeight": "",
          "IngredientGridHeaders": null,
          "IngredientID": 21698,
          "IngredientName": "pickled ginger",
          "IngredientStep": 60,
          "LanguageId": 0,
          "PostPreparation": " (Gari)",
          "PrePreparation": "pickling liquid from a jar of  ",
          "QuantityNum": 1,
          "QuantityText": "1",
          "QuantityUnit": "Tbsp.",
          "RecipeIngredientID": 5891963,
          "TrialMeasure": "",
          "TrialWeight": ""
        },
        {
          "FullMeasure": null,
          "FullWeight": null,
          "IngredientGridHeaders": null,
          "IngredientID": 1366,
          "IngredientName": "oil",
          "IngredientStep": 70,
          "LanguageId": 0,
          "PostPreparation": "  (canola, peanut, or vegetable) for pan frying",
          "PrePreparation": "",
          "QuantityNum": 0,
          "QuantityText": "",
          "QuantityUnit": "",
          "RecipeIngredientID": 5891960,
          "TrialMeasure": null,
          "TrialWeight": null
        },
        {
          "FullMeasure": null,
          "FullWeight": null,
          "IngredientGridHeaders": null,
          "IngredientID": 0,
          "IngredientName": "For Wasabi Mayonnaise",
          "IngredientStep": 80,
          "LanguageId": 0,
          "PostPreparation": "",
          "PrePreparation": "",
          "QuantityNum": 0,
          "QuantityText": "",
          "QuantityUnit": "",
          "RecipeIngredientID": 0,
          "TrialMeasure": null,
          "TrialWeight": null
        },
        {
          "FullMeasure": "1/2 cup",
          "FullWeight": "",
          "IngredientGridHeaders": null,
          "IngredientID": 447,
          "IngredientName": "KRAFT Real Mayo Mayonnaise",
          "IngredientStep": 90,
          "LanguageId": 0,
          "PostPreparation": "",
          "PrePreparation": "",
          "QuantityNum": 0,
          "QuantityText": "1/2",
          "QuantityUnit": "cup",
          "RecipeIngredientID": 5891957,
          "TrialMeasure": "",
          "TrialWeight": ""
        },
        {
          "FullMeasure": "1 to 3 Tbsp.",
          "FullWeight": "",
          "IngredientGridHeaders": null,
          "IngredientID": 26837,
          "IngredientName": "wasabi paste",
          "IngredientStep": 100,
          "LanguageId": 0,
          "PostPreparation": ", to taste",
          "PrePreparation": "",
          "QuantityNum": 0,
          "QuantityText": "1 to 3",
          "QuantityUnit": "Tbsp.",
          "RecipeIngredientID": 5891964,
          "TrialMeasure": "",
          "TrialWeight": ""
        },
        {
          "FullMeasure": null,
          "FullWeight": null,
          "IngredientGridHeaders": null,
          "IngredientID": 20283,
          "IngredientName": "whole wheat hamburger bun",
          "IngredientStep": 110,
          "LanguageId": 0,
          "PostPreparation": "s, toasted or tender lettuce leaves (like butter or red leaf lettuce) (optional)",
          "PrePreparation": "",
          "QuantityNum": 0,
          "QuantityText": "",
          "QuantityUnit": "",
          "RecipeIngredientID": 5891961,
          "TrialMeasure": null,
          "TrialWeight": null
        },
        {
          "FullMeasure": null,
          "FullWeight": null,
          "IngredientGridHeaders": null,
          "IngredientID": 0,
          "IngredientName": "Toppings",
          "IngredientStep": 120,
          "LanguageId": 0,
          "PostPreparation": "",
          "PrePreparation": "",
          "QuantityNum": 0,
          "QuantityText": "",
          "QuantityUnit": "",
          "RecipeIngredientID": 0,
          "TrialMeasure": null,
          "TrialWeight": null
        },
        {
          "FullMeasure": null,
          "FullWeight": null,
          "IngredientGridHeaders": null,
          "IngredientID": 883,
          "IngredientName": "carrot",
          "IngredientStep": 130,
          "LanguageId": 0,
          "PostPreparation": "s (optional)",
          "PrePreparation": "Asian pickled",
          "QuantityNum": 0,
          "QuantityText": "",
          "QuantityUnit": "",
          "RecipeIngredientID": 5891958,
          "TrialMeasure": null,
          "TrialWeight": null
        },
        {
          "FullMeasure": null,
          "FullWeight": null,
          "IngredientGridHeaders": null,
          "IngredientID": 1021,
          "IngredientName": "cucumber",
          "IngredientStep": 140,
          "LanguageId": 0,
          "PostPreparation": " salad (optional)",
          "PrePreparation": "Japanese ",
          "QuantityNum": 0,
          "QuantityText": "",
          "QuantityUnit": "",
          "RecipeIngredientID": 5891959,
          "TrialMeasure": null,
          "TrialWeight": null
        },
        {
          "FullMeasure": null,
          "FullWeight": null,
          "IngredientGridHeaders": null,
          "IngredientID": 21698,
          "IngredientName": "pickled ginger",
          "IngredientStep": 150,
          "LanguageId": 0,
          "PostPreparation": " (optional)",
          "PrePreparation": "",
          "QuantityNum": 0,
          "QuantityText": "",
          "QuantityUnit": "",
          "RecipeIngredientID": 5891962,
          "TrialMeasure": null,
          "TrialWeight": null
        }
      ],
      "IsHealthyLiving": false,
      "KRLId": "571060",
      "KeyIngredients": [
        "Bread",
        "Carrot",
        "Cucumber",
        "Fish",
        "Onion",
        "Salmon",
        "Seafood",
        "Vegetables"
      ],
      "Keywords": "oil,rolls,bread,bread crumbs,carrots,cucumbers,fish,ginger,ginger root,hamburger buns,mayonnaise,salmon,scallions,seafood,KRAFT Mayo Real Mayonnaise,green onions,mayo type dressing,buns,pickled vegetables,panko,wasabi,Parchment Paper,Asian,All Seasons",
      "LanguageId": 1,
      "LifeStyles": [],
      "NumberOfIngredients": 12,
      "NumberOfRatings": 0,
      "NumberOfRatingsWithComments": "0",
      "NumberOfServings": "",
      "NumberOfTrialServings": "",
      "NutritionBonus": null,
      "NutritionExchangeItemId": 0,
      "NutritionGridItems": null,
      "NutritionItems": [],
      "NutritionServingText": null,
      "PrepStepImage": null,
      "PreparationDescription": "<b>For Salmon Burgers: </b><P>$Cut the salmon into 2-inch chunks and put into the bowl of a food processor fitted with a metal blade.  Pulse until the fish is broken down into a chunky puree. It should still have pebble-sized pieces (about ¼-inch) in it. Scrape into a bowl.$Cut the root end from the green onions, slice in half lengthwise, turn them 90° and slice them very thinly. Put this into the bowl with the salmon, ½ cup of the panko bread crumbs, mayonnaise, and pickled ginger liquid. Mix until uniform.$Line a baking sheet with plastic wrap or parchment paper. Divide the salmon mixture into 8 mounds and form those mounds into patties that are ¾-inch thick. Cover with plastic wrap and refrigerate for 1 to 8 hours before cooking.$Pour the remaining panko bread crumbs onto a plate. Gently lift and place each salmon patty on the bread crumbs, press down lightly to help the panko stick, flip the patties over and repeat.$Heat a large, heavy-bottomed skillet over medium-high heat. When it is very hot, add about 1 tablespoon of oil to the pan and swirl it to coat.$Ease the panko crusted patties into the pan. A 12-inch pan should hold 4 patties at a time and still give you room to maneuver the spatula when it comes time to flip them. Cook for 5 minutes, or until the first side is deep golden brown. Carefully flip the patties using a wide spatula. Be cautious because the oil will want to splatter. Fry the second side for an additional 3 to 5 minutes, or until golden brown and firm around the outer edges. Transfer to a paper towel-lined plate or platter. Add another tablespoon of oil to the pan and repeat until you have fried all of the salmon burgers.$<b>For Wasabi Mayonnaise:</b><P>$Put the mayonnaise in a small bowl and use a fork or small whisk to stir in the wasabi paste, starting with 1 tablespoon. Taste the mayonnaise and adjust with more wasabi if you want a stronger flavor.$<b>To Serve the Salmon Burgers:</b><P>$If you’re watching how much bread you eat, serve the Salmon Burgers on a tender lettuce leaf topped with a dollop of the Wasabi Mayonnaise and any other optional toppings you’d like. If you want to eat it burger-style, put a patty on top of a toasted whole wheat bun, spread some wasabi mayonnaise over the burger and top as desired.",
      "PreparationPreText": "",
      "PreparationSteps": [
        {
          "Description": "<b>For Salmon Burgers: </b><P>",
          "PreparationStepImage": {
            "PictureFormats": [],
            "author": null,
            "id": null,
            "imageType": null,
            "mimeType": null,
            "publicationDate": null,
            "status": null,
            "title": null,
            "type": null
          },
          "Sequence": 1
        },
        {
          "Description": "Cut the salmon into 2-inch chunks and put into the bowl of a food processor fitted with a metal blade.  Pulse until the fish is broken down into a chunky puree. It should still have pebble-sized pieces (about ¼-inch) in it. Scrape into a bowl.",
          "PreparationStepImage": {
            "PictureFormats": [],
            "author": null,
            "id": null,
            "imageType": null,
            "mimeType": null,
            "publicationDate": null,
            "status": null,
            "title": null,
            "type": null
          },
          "Sequence": 2
        },
        {
          "Description": "Cut the root end from the green onions, slice in half lengthwise, turn them 90° and slice them very thinly. Put this into the bowl with the salmon, ½ cup of the panko bread crumbs, mayonnaise, and pickled ginger liquid. Mix until uniform.",
          "PreparationStepImage": {
            "PictureFormats": [],
            "author": null,
            "id": null,
            "imageType": null,
            "mimeType": null,
            "publicationDate": null,
            "status": null,
            "title": null,
            "type": null
          },
          "Sequence": 3
        },
        {
          "Description": "Line a baking sheet with plastic wrap or parchment paper. Divide the salmon mixture into 8 mounds and form those mounds into patties that are ¾-inch thick. Cover with plastic wrap and refrigerate for 1 to 8 hours before cooking.",
          "PreparationStepImage": {
            "PictureFormats": [],
            "author": null,
            "id": null,
            "imageType": null,
            "mimeType": null,
            "publicationDate": null,
            "status": null,
            "title": null,
            "type": null
          },
          "Sequence": 4
        },
        {
          "Description": "Pour the remaining panko bread crumbs onto a plate. Gently lift and place each salmon patty on the bread crumbs, press down lightly to help the panko stick, flip the patties over and repeat.",
          "PreparationStepImage": {
            "PictureFormats": [],
            "author": null,
            "id": null,
            "imageType": null,
            "mimeType": null,
            "publicationDate": null,
            "status": null,
            "title": null,
            "type": null
          },
          "Sequence": 5
        },
        {
          "Description": "Heat a large, heavy-bottomed skillet over medium-high heat. When it is very hot, add about 1 tablespoon of oil to the pan and swirl it to coat.",
          "PreparationStepImage": {
            "PictureFormats": [],
            "author": null,
            "id": null,
            "imageType": null,
            "mimeType": null,
            "publicationDate": null,
            "status": null,
            "title": null,
            "type": null
          },
          "Sequence": 6
        },
        {
          "Description": "Ease the panko crusted patties into the pan. A 12-inch pan should hold 4 patties at a time and still give you room to maneuver the spatula when it comes time to flip them. Cook for 5 minutes, or until the first side is deep golden brown. Carefully flip the patties using a wide spatula. Be cautious because the oil will want to splatter. Fry the second side for an additional 3 to 5 minutes, or until golden brown and firm around the outer edges. Transfer to a paper towel-lined plate or platter. Add another tablespoon of oil to the pan and repeat until you have fried all of the salmon burgers.",
          "PreparationStepImage": {
            "PictureFormats": [],
            "author": null,
            "id": null,
            "imageType": null,
            "mimeType": null,
            "publicationDate": null,
            "status": null,
            "title": null,
            "type": null
          },
          "Sequence": 7
        },
        {
          "Description": "<b>For Wasabi Mayonnaise:</b><P>",
          "PreparationStepImage": {
            "PictureFormats": [],
            "author": null,
            "id": null,
            "imageType": null,
            "mimeType": null,
            "publicationDate": null,
            "status": null,
            "title": null,
            "type": null
          },
          "Sequence": 8
        },
        {
          "Description": "Put the mayonnaise in a small bowl and use a fork or small whisk to stir in the wasabi paste, starting with 1 tablespoon. Taste the mayonnaise and adjust with more wasabi if you want a stronger flavor.",
          "PreparationStepImage": {
            "PictureFormats": [],
            "author": null,
            "id": null,
            "imageType": null,
            "mimeType": null,
            "publicationDate": null,
            "status": null,
            "title": null,
            "type": null
          },
          "Sequence": 9
        },
        {
          "Description": "<b>To Serve the Salmon Burgers:</b><P>",
          "PreparationStepImage": {
            "PictureFormats": [],
            "author": null,
            "id": null,
            "imageType": null,
            "mimeType": null,
            "publicationDate": null,
            "status": null,
            "title": null,
            "type": null
          },
          "Sequence": 10
        },
        {
          "Description": "If you’re watching how much bread you eat, serve the Salmon Burgers on a tender lettuce leaf topped with a dollop of the Wasabi Mayonnaise and any other optional toppings you’d like. If you want to eat it burger-style, put a patty on top of a toasted whole wheat bun, spread some wasabi mayonnaise over the burger and top as desired.",
          "PreparationStepImage": {
            "PictureFormats": [],
            "author": null,
            "id": null,
            "imageType": null,
            "mimeType": null,
            "publicationDate": null,
            "status": null,
            "title": null,
            "type": null
          },
          "Sequence": 11
        }
      ],
      "PreparationTime": 1,
      "Promotion": {
        "IngredientElevation": "",
        "PromoAltText": "Recipe and photo by Blogger, Rebecca Lindamood",
        "PromoImage": "",
        "PromoLink": "",
        "SponsorshipAltText": "",
        "SponsorshipLink": "",
        "SponsorshipLogo": "",
        "UpperRightImage": ""
      },
      "Ratings": {
        "TotalCount": 0,
        "PageCount": 10,
        "PageNo": 1,
        "Rating": []
      },
      "RecipeDisplayFormatId": 5,
      "RecipeId": 148474,
      "RecipeName": "Asian Salmon Burgers with Wasabi Mayonnaise",
      "RecipeType": 0,
      "RelatedData": {
        "RelatedBrands": null,
        "RelatedProducts": null,
        "RelatedRecipes": {
          "DefaultTopCount": 5,
          "Recipe": [
            {
              "AverageRating": 4.4,
              "HasVideo": false,
              "IsHealthyLiving": true,
              "NumberOfRatings": 9,
              "PhotoName": "Sesame-Salmon-Stir-Fried-Vegetables-59197.jpg",
              "PhotoUrl": "http://assets.kraftfoods.com/recipe_images/opendeploy/Sesame-Salmon-Stir-Fried-Vegetables-59197.jpg",
              "RecipeId": 123049,
              "RecipeName": "Sesame Asian Salmon Recipe",
              "SEOName": "sesame-asian-salmon-recipe-123049",
              "ThumbnailPhoto": null
            },
            {
              "AverageRating": 4.5,
              "HasVideo": false,
              "IsHealthyLiving": false,
              "NumberOfRatings": 4,
              "PhotoName": "194538.jpg",
              "PhotoUrl": "http://assets.kraftfoods.com/recipe_images/opendeploy/194538.jpg",
              "RecipeId": 194538,
              "RecipeName": "Blackened Salmon Burgers with Herbed Cream Cheese",
              "SEOName": "blackened-salmon-burgers-herbed-cream-cheese-194538",
              "ThumbnailPhoto": null
            },
            {
              "AverageRating": 4.4,
              "HasVideo": false,
              "IsHealthyLiving": true,
              "NumberOfRatings": 14,
              "PhotoName": "110953.jpg",
              "PhotoUrl": "http://assets.kraftfoods.com/recipe_images/opendeploy/110953.jpg",
              "RecipeId": 110953,
              "RecipeName": "Mini Salmon Burgers",
              "SEOName": "mini-salmon-burgers-110953",
              "ThumbnailPhoto": null
            },
            {
              "AverageRating": 4.3,
              "HasVideo": false,
              "IsHealthyLiving": true,
              "NumberOfRatings": 6,
              "PhotoName": "118047.jpg",
              "PhotoUrl": "http://assets.kraftfoods.com/recipe_images/opendeploy/118047.jpg",
              "RecipeId": 118047,
              "RecipeName": "Grilled Salmon in Foil",
              "SEOName": "grilled-salmon-in-foil-118047",
              "ThumbnailPhoto": null
            },
            {
              "AverageRating": 4.7,
              "HasVideo": false,
              "IsHealthyLiving": false,
              "NumberOfRatings": 15,
              "PhotoName": "119249.jpg",
              "PhotoUrl": "http://assets.kraftfoods.com/recipe_images/opendeploy/119249.jpg",
              "RecipeId": 119249,
              "RecipeName": "Coconut-Curry Salmon",
              "SEOName": "coconut-curry-salmon-119249",
              "ThumbnailPhoto": null
            }
          ],
          "TotalCount": 728
        }
      },
      "RiseIngredients": [],
      "RiseTaxonomy": [],
      "Riserecipe": [
        {
          "GRIN": 571060,
          "RecipeId": 148474,
          "RecipeIndustrySector": "Retail",
          "RecipeType": "Internal"
        }
      ],
      "RomanceText": "These Asian-inspired salmon burgers are made with green onions, panko bread crumbs and pickled-ginger juice and topped with wasabi-spiked mayonnaise.",
      "SEOName": "asian-salmon-burgers-wasabi-mayonnaise-148474",
      "Tips": [],
      "TotalTime": 1,
      "TradeMarkInfo": null,
      "Video": [],
      "Yield": null
    }
  ]
}