{
  "Metadata": {
    "PageCount": 1,
    "PageNo": 0,
    "TotalCount": 0
  },
  "Recipes": [
    {
      "AdServingKeywords": "Entree,Carrot,Chicken,Garlic,Meat,Onion,Peas,Peppers,Rice,Seafood,Shellfish,Shrimp,Vegetables,Easy,Nutrition and Well-Being,Dinner,All Seasons",
      "AlternateLanguageRecipes": [],
      "Assets": [
        {
          "PictureFormats": [
            {
              "rendition": "300x200",
              "url": "http://assets.kraftfoods.com/recipe_images/Quick_And_Easy_Paella.jpg"
            }
          ],
          "author": null,
          "id": "0",
          "imageType": "LANDSCAPE",
          "mimeType": null,
          "publicationDate": null,
          "status": "1",
          "title": "Quick_And_Easy_Paella.jpg",
          "type": "image"
        }
      ],
      "AverageRating": 3.7,
      "BrandId": 1,
      "Branding": null,
      "CSSSkins": null,
      "CarbCounter": null,
      "Categories": [
        {
          "CategoryID": 8,
          "CategoryName": "Seafood/Meatless Entrees",
          "CategoryRank": 12,
          "SubCategoryID": 398,
          "SubCategoryName": "Seafood: Shellfish",
          "SubCategoryRank": 90
        },
        {
          "CategoryID": 11,
          "CategoryName": "Primary",
          "CategoryRank": 0,
          "SubCategoryID": 97,
          "SubCategoryName": "Entrees",
          "SubCategoryRank": 50
        }
      ],
      "Classifications": [
        {
          "ClassficationId": 9,
          "ClassificationName": "Low fat"
        },
        {
          "ClassficationId": 11,
          "ClassificationName": "Low calorie"
        },
        {
          "ClassficationId": 13,
          "ClassificationName": "Good source of vitamin A or C"
        },
        {
          "ClassficationId": 14,
          "ClassificationName": "Generally Nutritious"
        }
      ],
      "ComplimentaryRecipes": null,
      "CookingMethod": null,
      "Copyright": null,
      "Courses": [
        "Main dishes"
      ],
      "DietExchange": "",
      "DishDetails": [
        {
          "Text": "chicken recipes",
          "Url": "/recipes/dinner/chicken-recipes/main.aspx"
        },
        {
          "Text": "grilled chicken recipes",
          "Url": "/recipes/dinner/chicken-recipes/grilled-chicken/main.aspx"
        },
        {
          "Text": "healthy living chicken recipes",
          "Url": "/recipes/dinner/chicken-recipes/hl/main.aspx"
        },
        {
          "Text": "slow cooker chicken recipes",
          "Url": "/recipes/dinner/chicken-recipes/slow-cooker/main.aspx"
        },
        {
          "Text": "whole chicken recipes",
          "Url": "/recipes/dinner/chicken-recipes/whole-chicken/main.aspx"
        },
        {
          "Text": "chicken breast recipes",
          "Url": "/recipes/dinner/chicken-recipes/chicken-breast/main.aspx"
        },
        {
          "Text": "chicken casseroles",
          "Url": "/recipes/dinner/chicken-recipes/casseroles/main.aspx"
        },
        {
          "Text": "chicken pasta recipes",
          "Url": "/recipes/dinner/chicken-recipes/pasta-dishes/main.aspx"
        },
        {
          "Text": "chicken salad recipes",
          "Url": "/recipes/dinner/chicken-recipes/salads/main.aspx"
        },
        {
          "Text": "chicken stir-fry recipes",
          "Url": "/recipes/dinner/chicken-recipes/stir-fry/main.aspx"
        },
        {
          "Text": "chicken wing recipes",
          "Url": "/recipes/appetizers/chicken-wing-recipes/main.aspx"
        },
        {
          "Text": "baked chicken recipes",
          "Url": "/recipes/dinner/chicken-recipes/baked-chicken/main.aspx"
        },
        {
          "Text": "bbq chicken recipes",
          "Url": "/recipes/holidays-and-entertaining/entertaining/summer/bbq-recipes/bbq-chicken-recipes/main.aspx"
        }
      ],
      "EndDate": "/Date(-62135575200000-0600)/",
      "HasVideo": false,
      "Ingredients": [
        {
          "FullMeasure": null,
          "FullWeight": null,
          "IngredientGridHeaders": null,
          "IngredientID": 67960,
          "IngredientName": "chopped red pepper ",
          "IngredientStep": 10,
          "LanguageId": 0,
          "PostPreparation": "",
          "PrePreparation": "",
          "QuantityNum": 0.5,
          "QuantityText": "1/2",
          "QuantityUnit": "cup",
          "RecipeIngredientID": 178887,
          "TrialMeasure": null,
          "TrialWeight": null
        },
        {
          "FullMeasure": null,
          "FullWeight": null,
          "IngredientGridHeaders": null,
          "IngredientID": 68776,
          "IngredientName": "chopped onion",
          "IngredientStep": 20,
          "LanguageId": 0,
          "PostPreparation": "",
          "PrePreparation": "",
          "QuantityNum": 0.5,
          "QuantityText": "1/2",
          "QuantityUnit": "cup",
          "RecipeIngredientID": 179377,
          "TrialMeasure": null,
          "TrialWeight": null
        },
        {
          "FullMeasure": null,
          "FullWeight": null,
          "IngredientGridHeaders": null,
          "IngredientID": 68817,
          "IngredientName": "garlic, minced",
          "IngredientStep": 30,
          "LanguageId": 0,
          "PostPreparation": "",
          "PrePreparation": "",
          "QuantityNum": 4,
          "QuantityText": "4",
          "QuantityUnit": "cloves",
          "RecipeIngredientID": 185215,
          "TrialMeasure": null,
          "TrialWeight": null
        },
        {
          "FullMeasure": null,
          "FullWeight": null,
          "IngredientGridHeaders": null,
          "IngredientID": 68757,
          "IngredientName": "KRAFT Zesty Italian Dressing",
          "IngredientStep": 40,
          "LanguageId": 0,
          "PostPreparation": "",
          "PrePreparation": "",
          "QuantityNum": 1,
          "QuantityText": "1",
          "QuantityUnit": "Tbsp.",
          "RecipeIngredientID": 187156,
          "TrialMeasure": null,
          "TrialWeight": null
        },
        {
          "FullMeasure": null,
          "FullWeight": null,
          "IngredientGridHeaders": null,
          "IngredientID": 70459,
          "IngredientName": "fat-free reduced-sodium chicken broth",
          "IngredientStep": 50,
          "LanguageId": 0,
          "PostPreparation": "",
          "PrePreparation": "",
          "QuantityNum": 3,
          "QuantityText": "3",
          "QuantityUnit": "cups",
          "RecipeIngredientID": 180162,
          "TrialMeasure": null,
          "TrialWeight": null
        },
        {
          "FullMeasure": null,
          "FullWeight": null,
          "IngredientGridHeaders": null,
          "IngredientID": 68669,
          "IngredientName": "ground turmeric ",
          "IngredientStep": 60,
          "LanguageId": 0,
          "PostPreparation": "",
          "PrePreparation": "",
          "QuantityNum": 1,
          "QuantityText": "1",
          "QuantityUnit": "tsp.",
          "RecipeIngredientID": 186570,
          "TrialMeasure": null,
          "TrialWeight": null
        },
        {
          "FullMeasure": null,
          "FullWeight": null,
          "IngredientGridHeaders": null,
          "IngredientID": 68605,
          "IngredientName": "shrimp, cleaned",
          "IngredientStep": 70,
          "LanguageId": 0,
          "PostPreparation": "",
          "PrePreparation": "",
          "QuantityNum": 1,
          "QuantityText": "1",
          "QuantityUnit": "lb.",
          "RecipeIngredientID": 185429,
          "TrialMeasure": null,
          "TrialWeight": null
        },
        {
          "FullMeasure": null,
          "FullWeight": null,
          "IngredientGridHeaders": null,
          "IngredientID": 70650,
          "IngredientName": "instant white rice, uncooked",
          "IngredientStep": 80,
          "LanguageId": 0,
          "PostPreparation": "",
          "PrePreparation": "",
          "QuantityNum": 3,
          "QuantityText": "3",
          "QuantityUnit": "cups",
          "RecipeIngredientID": 181111,
          "TrialMeasure": null,
          "TrialWeight": null
        },
        {
          "FullMeasure": null,
          "FullWeight": null,
          "IngredientGridHeaders": null,
          "IngredientID": 68176,
          "IngredientName": "(10 oz.) frozen peas and carrots, thawed",
          "IngredientStep": 90,
          "LanguageId": 0,
          "PostPreparation": "",
          "PrePreparation": "",
          "QuantityNum": 1,
          "QuantityText": "1",
          "QuantityUnit": "pkg.",
          "RecipeIngredientID": 176587,
          "TrialMeasure": null,
          "TrialWeight": null
        }
      ],
      "IsHealthyLiving": true,
      "KRLId": "520536",
      "KeyIngredients": [],
      "Keywords": "Entree,Easy,Nutrition and Well-Being,All Seasons,Dinner",
      "LanguageId": 1,
      "LifeStyles": [
        "Low fat",
        "Low calorie",
        "Good source of vitamin A or C",
        "Generally Nutritious"
      ],
      "NumberOfIngredients": 9,
      "NumberOfRatings": 54,
      "NumberOfRatingsWithComments": "38",
      "NumberOfServings": "Makes 8 servings.",
      "NumberOfTrialServings": null,
      "NutritionBonus": "Get the great flavor of paella without all the work!  This version is low in fat and a good source of vitamin A from the combination of peas and carrots.",
      "NutritionExchangeItemId": 1,
      "NutritionGridItems": null,
      "NutritionItems": [
        {
          "DisplayOrder": 0,
          "Document": null,
          "NutritionItemID": 378,
          "NutritionItemName": "Monounsaturated Fat",
          "Predriscriptor": "",
          "Quantity": 0,
          "Unit": "g         "
        },
        {
          "DisplayOrder": 0,
          "Document": null,
          "NutritionItemID": 379,
          "NutritionItemName": "Polyunsaturated Fat",
          "Predriscriptor": "",
          "Quantity": 0,
          "Unit": "g         "
        },
        {
          "DisplayOrder": 0,
          "Document": null,
          "NutritionItemID": 380,
          "NutritionItemName": "Trans Fat",
          "Predriscriptor": "",
          "Quantity": 0,
          "Unit": "g         "
        },
        {
          "DisplayOrder": 0,
          "Document": null,
          "NutritionItemID": 384,
          "NutritionItemName": "Vitamin D",
          "Predriscriptor": "",
          "Quantity": 0,
          "Unit": "%DV       "
        },
        {
          "DisplayOrder": 0,
          "Document": null,
          "NutritionItemID": 385,
          "NutritionItemName": "Vitamin E",
          "Predriscriptor": "",
          "Quantity": 2,
          "Unit": "%DV       "
        },
        {
          "DisplayOrder": 0,
          "Document": null,
          "NutritionItemID": 388,
          "NutritionItemName": "Potassium",
          "Predriscriptor": "",
          "Quantity": 4,
          "Unit": "%DV       "
        },
        {
          "DisplayOrder": 0,
          "Document": null,
          "NutritionItemID": 390,
          "NutritionItemName": "Added Sugars",
          "Predriscriptor": "",
          "Quantity": 0,
          "Unit": "g         "
        },
        {
          "DisplayOrder": 10,
          "Document": null,
          "NutritionItemID": 371,
          "NutritionItemName": "Calories",
          "Predriscriptor": "",
          "Quantity": 320,
          "Unit": "          "
        },
        {
          "DisplayOrder": 20,
          "Document": null,
          "NutritionItemID": 376,
          "NutritionItemName": "Total fat",
          "Predriscriptor": "",
          "Quantity": 2,
          "Unit": "g         "
        },
        {
          "DisplayOrder": 30,
          "Document": null,
          "NutritionItemID": 377,
          "NutritionItemName": "Saturated fat",
          "Predriscriptor": "",
          "Quantity": 0,
          "Unit": "g         "
        },
        {
          "DisplayOrder": 40,
          "Document": null,
          "NutritionItemID": 381,
          "NutritionItemName": "Cholesterol",
          "Predriscriptor": "",
          "Quantity": 115,
          "Unit": "mg        "
        },
        {
          "DisplayOrder": 50,
          "Document": null,
          "NutritionItemID": 389,
          "NutritionItemName": "Sodium",
          "Predriscriptor": "",
          "Quantity": 390,
          "Unit": "mg        "
        },
        {
          "DisplayOrder": 60,
          "Document": null,
          "NutritionItemID": 373,
          "NutritionItemName": "Carbohydrate",
          "Predriscriptor": "",
          "Quantity": 55,
          "Unit": "g         "
        },
        {
          "DisplayOrder": 70,
          "Document": null,
          "NutritionItemID": 374,
          "NutritionItemName": "Dietary fiber",
          "Predriscriptor": "",
          "Quantity": 3,
          "Unit": "g         "
        },
        {
          "DisplayOrder": 80,
          "Document": null,
          "NutritionItemID": 375,
          "NutritionItemName": "Sugars",
          "Predriscriptor": "",
          "Quantity": 3,
          "Unit": "g         "
        },
        {
          "DisplayOrder": 90,
          "Document": null,
          "NutritionItemID": 372,
          "NutritionItemName": "Protein",
          "Predriscriptor": "",
          "Quantity": 19,
          "Unit": "g         "
        },
        {
          "DisplayOrder": 100,
          "Document": null,
          "NutritionItemID": 382,
          "NutritionItemName": "Vitamin A",
          "Predriscriptor": "",
          "Quantity": 40,
          "Unit": "%DV       "
        },
        {
          "DisplayOrder": 110,
          "Document": null,
          "NutritionItemID": 383,
          "NutritionItemName": "Vitamin C",
          "Predriscriptor": "",
          "Quantity": 20,
          "Unit": "%DV       "
        },
        {
          "DisplayOrder": 120,
          "Document": null,
          "NutritionItemID": 386,
          "NutritionItemName": "Calcium",
          "Predriscriptor": "",
          "Quantity": 6,
          "Unit": "%DV       "
        },
        {
          "DisplayOrder": 130,
          "Document": null,
          "NutritionItemID": 387,
          "NutritionItemName": "Iron",
          "Predriscriptor": "",
          "Quantity": 20,
          "Unit": "%DV       "
        }
      ],
      "NutritionServingText": null,
      "PrepStepImage": null,
      "PreparationDescription": "Cook and stir red pepper, onion and garlic in dressing in large nonstick skillet on medium-high heat 5 minutes or until red pepper is crisp-tender.  Add broth and turmeric; bring to boil.$Stir in shrimp, rice and vegetables; cover.  Reduce heat to low.$Simmer 5 minutes or until broth is absorbed and shrimp turn pink.",
      "PreparationPreText": null,
      "PreparationSteps": [
        {
          "Description": "Cook and stir red pepper, onion and garlic in dressing in large nonstick skillet on medium-high heat 5 minutes or until red pepper is crisp-tender.  Add broth and turmeric; bring to boil.",
          "PreparationStepImage": {
            "PictureFormats": [],
            "author": null,
            "id": null,
            "imageType": null,
            "mimeType": null,
            "publicationDate": null,
            "status": null,
            "title": null,
            "type": null
          },
          "Sequence": 1
        },
        {
          "Description": "Stir in shrimp, rice and vegetables; cover.  Reduce heat to low.",
          "PreparationStepImage": {
            "PictureFormats": [],
            "author": null,
            "id": null,
            "imageType": null,
            "mimeType": null,
            "publicationDate": null,
            "status": null,
            "title": null,
            "type": null
          },
          "Sequence": 2
        },
        {
          "Description": "Simmer 5 minutes or until broth is absorbed and shrimp turn pink.",
          "PreparationStepImage": {
            "PictureFormats": [],
            "author": null,
            "id": null,
            "imageType": null,
            "mimeType": null,
            "publicationDate": null,
            "status": null,
            "title": null,
            "type": null
          },
          "Sequence": 3
        }
      ],
      "PreparationTime": 10,
      "Promotion": null,
      "Ratings": {
        "TotalCount": 54,
        "PageCount": 10,
        "PageNo": 1,
        "Rating": [
          {
            "Comment": "",
            "DisplayName": true,
            "RatingValue": 4,
            "SubmitDate": "/Date(1205772202000-0500)/",
            "UpdatedDate": "/Date(1205772202000-0500)/",
            "UserName": "narly1232"
          },
          {
            "Comment": "",
            "DisplayName": false,
            "RatingValue": 5,
            "SubmitDate": "/Date(1188675802000-0500)/",
            "UpdatedDate": "/Date(1188675802000-0500)/",
            "UserName": "cbernier13"
          },
          {
            "Comment": "Very easy.  Very good.",
            "DisplayName": true,
            "RatingValue": 4,
            "SubmitDate": "/Date(1165435672000-0600)/",
            "UpdatedDate": "/Date(1165435672000-0600)/",
            "UserName": "c9111"
          },
          {
            "Comment": "",
            "DisplayName": false,
            "RatingValue": 4,
            "SubmitDate": "/Date(1164151049000-0600)/",
            "UpdatedDate": "/Date(1164151049000-0600)/",
            "UserName": "mamabear808"
          },
          {
            "Comment": "It was easy, but very bland.  Salt and pepper helped a lot.",
            "DisplayName": true,
            "RatingValue": 3,
            "SubmitDate": "/Date(1159829125000-0500)/",
            "UpdatedDate": "/Date(1159829125000-0500)/",
            "UserName": "jalanspoo"
          },
          {
            "Comment": "Not much flavor - did not taste like paella.  I felt it was a waste of my shrimp.",
            "DisplayName": true,
            "RatingValue": 1,
            "SubmitDate": "/Date(1157571588000-0500)/",
            "UpdatedDate": "/Date(1157571588000-0500)/",
            "UserName": "aeryals"
          },
          {
            "Comment": "This was a good recipe. I tweaked the recipe a little and added scallops, and lump crab meat to the shrimp. Added a little bit of cajun seasoning to it and it was great. The whole family really enjoyed this meal.",
            "DisplayName": false,
            "RatingValue": 4,
            "SubmitDate": "/Date(1156278842000-0500)/",
            "UpdatedDate": "/Date(1156278842000-0500)/",
            "UserName": "klassc1"
          },
          {
            "Comment": "add some cilantro and azafran for more flavor.",
            "DisplayName": true,
            "RatingValue": 5,
            "SubmitDate": "/Date(1153609388000-0500)/",
            "UpdatedDate": "/Date(1153609388000-0500)/",
            "UserName": "camilleona"
          },
          {
            "Comment": "Quck and easy and very good.  I always add more spice to my foods.  I didnt have turminic, so I just used crushed red pepper and salt",
            "DisplayName": true,
            "RatingValue": 4,
            "SubmitDate": "/Date(1147529296000-0500)/",
            "UpdatedDate": "/Date(1147529321000-0500)/",
            "UserName": "jlynnchrist"
          },
          {
            "Comment": "This was in dire need of some good old salt and pepper.",
            "DisplayName": true,
            "RatingValue": 3,
            "SubmitDate": "/Date(1139792936000-0600)/",
            "UpdatedDate": "/Date(1139792936000-0600)/",
            "UserName": "Mekysa"
          }
        ]
      },
      "RecipeDisplayFormatId": 0,
      "RecipeId": 51714,
      "RecipeName": "Quick & Easy Paella Recipe",
      "RecipeType": 0,
      "RelatedData": {
        "RelatedBrands": null,
        "RelatedProducts": null,
        "RelatedRecipes": {
          "DefaultTopCount": 5,
          "Recipe": [
            {
              "AverageRating": 4.5,
              "HasVideo": false,
              "IsHealthyLiving": false,
              "NumberOfRatings": 6,
              "PhotoName": "Festive-Skillet-Paella-22293.jpg",
              "PhotoUrl": "http://assets.kraftfoods.com/recipe_images/opendeploy/Festive-Skillet-Paella-22293.jpg",
              "RecipeId": 89973,
              "RecipeName": "Festive Skillet Seafood Paella",
              "SEOName": "festive-skillet-seafood-paella-89973",
              "ThumbnailPhoto": null
            },
            {
              "AverageRating": 4,
              "HasVideo": false,
              "IsHealthyLiving": false,
              "NumberOfRatings": 4,
              "PhotoName": "opendeploy/56142-aff0a8f08bdcbdab6def9cebe5dda14ff7237760_306x204.jpg",
              "PhotoUrl": "http://assets.kraftfoods.com/recipe_images/opendeploy/opendeploy/56142-aff0a8f08bdcbdab6def9cebe5dda14ff7237760_306x204.jpg",
              "RecipeId": 56142,
              "RecipeName": "Paella Valenciana",
              "SEOName": "paella-valenciana-56142",
              "ThumbnailPhoto": null
            },
            {
              "AverageRating": 5,
              "HasVideo": false,
              "IsHealthyLiving": true,
              "NumberOfRatings": 1,
              "PhotoName": "126687.jpg",
              "PhotoUrl": "http://assets.kraftfoods.com/recipe_images/opendeploy/126687.jpg",
              "RecipeId": 126687,
              "RecipeName": "Latin Chicken Paella",
              "SEOName": "latin-chicken-paella-126687",
              "ThumbnailPhoto": null
            },
            {
              "AverageRating": 4.1,
              "HasVideo": false,
              "IsHealthyLiving": false,
              "NumberOfRatings": 14,
              "PhotoName": "Quick_n_Easy_Risotto.jpg",
              "PhotoUrl": "http://assets.kraftfoods.com/recipe_images/opendeploy/Quick_n_Easy_Risotto.jpg",
              "RecipeId": 52363,
              "RecipeName": "Quick and Easy 'Risotto' Recipe",
              "SEOName": "quick-easy-risotto-recipe-52363",
              "ThumbnailPhoto": null
            },
            {
              "AverageRating": 4.5,
              "HasVideo": false,
              "IsHealthyLiving": false,
              "NumberOfRatings": 4,
              "PhotoName": "Quick_Kick_Quesadilla.jpg",
              "PhotoUrl": "http://assets.kraftfoods.com/recipe_images/opendeploy/Quick_Kick_Quesadilla.jpg",
              "RecipeId": 66165,
              "RecipeName": "Quick Kick Quesadilla Recipe",
              "SEOName": "quick-kick-quesadilla-recipe-66165",
              "ThumbnailPhoto": null
            }
          ],
          "TotalCount": 3817
        }
      },
      "RiseIngredients": [
        {
          "IngredientCategory": "KRL",
          "IngredientId": 67960,
          "IngredientIndustrySector": "Retail",
          "IngredientType": "Inedible",
          "ProductId": null,
          "RecipeId": 51714
        },
        {
          "IngredientCategory": "KRL",
          "IngredientId": 68176,
          "IngredientIndustrySector": "Retail",
          "IngredientType": "Inedible",
          "ProductId": null,
          "RecipeId": 51714
        },
        {
          "IngredientCategory": "KRL",
          "IngredientId": 68605,
          "IngredientIndustrySector": "Retail",
          "IngredientType": "Inedible",
          "ProductId": null,
          "RecipeId": 51714
        },
        {
          "IngredientCategory": "KRL",
          "IngredientId": 68669,
          "IngredientIndustrySector": "Retail",
          "IngredientType": "Inedible",
          "ProductId": null,
          "RecipeId": 51714
        },
        {
          "IngredientCategory": "KRL",
          "IngredientId": 68757,
          "IngredientIndustrySector": "Retail",
          "IngredientType": "KHC",
          "ProductId": "00068100895537",
          "RecipeId": 51714
        },
        {
          "IngredientCategory": "KRL",
          "IngredientId": 68776,
          "IngredientIndustrySector": "Retail",
          "IngredientType": "Inedible",
          "ProductId": null,
          "RecipeId": 51714
        },
        {
          "IngredientCategory": "KRL",
          "IngredientId": 68817,
          "IngredientIndustrySector": "Retail",
          "IngredientType": "Inedible",
          "ProductId": null,
          "RecipeId": 51714
        },
        {
          "IngredientCategory": "KRL",
          "IngredientId": 70459,
          "IngredientIndustrySector": "Retail",
          "IngredientType": "KHC",
          "ProductId": null,
          "RecipeId": 51714
        },
        {
          "IngredientCategory": "KRL",
          "IngredientId": 70650,
          "IngredientIndustrySector": "Retail",
          "IngredientType": "Inedible",
          "ProductId": null,
          "RecipeId": 51714
        }
      ],
      "RiseTaxonomy": [
        {
          "ParentTaxonomyId": 0,
          "RecipeId": 51714,
          "ResourceName": "Recipe",
          "TaxonomyId": 65,
          "TaxonomyName": "Entrées",
          "TaxonomyTypeId": 2,
          "TaxonomyTypeName": "Meal Part"
        },
        {
          "ParentTaxonomyId": 51,
          "RecipeId": 51714,
          "ResourceName": "Recipe",
          "TaxonomyId": 245,
          "TaxonomyName": "Seafood, Shellfish without Sauce",
          "TaxonomyTypeId": 3,
          "TaxonomyTypeName": "Dish Type"
        }
      ],
      "Riserecipe": [
        {
          "GRIN": 520536,
          "RecipeId": 51714,
          "RecipeIndustrySector": "Retail",
          "RecipeType": "Internal"
        }
      ],
      "RomanceText": "Whip up our Quick & Easy Paella Recipe tonight. Our Quick & Easy Paella Recipe is a makeover of traditional paella with instant rice and frozen veggies.",
      "SEOName": "quick-easy-paella-recipe-51714",
      "Tips": [
        {
          "RecipeId": 51714,
          "Sequence": 10,
          "TipDescription": "Substitute 1 lb. boneless skinless chicken breasts, cut up, for shrimp.  Cook and stir chicken with red pepper, onion and garlic 5 minutes or until chicken is cooked through.",
          "TipID": 1,
          "TipName": "Substitute"
        }
      ],
      "TotalTime": 30,
      "TradeMarkInfo": null,
      "Video": [],
      "Yield": "Makes 8 servings."
    }
  ]
}