{
  "Metadata": {
    "PageCount": 1,
    "PageNo": 0,
    "TotalCount": 0
  },
  "Recipes": [
    {
      "AdServingKeywords": "Entree,Beef,Hot Dogs/Franks,Lettuce,Meat,Potato,Tomato,Vegetables,Kabob,Dinner,Claussen,Kraft Salad Dressing,Oscar Mayer",
      "AlternateLanguageRecipes": [],
      "Assets": [
        {
          "PictureFormats": [
            {
              "rendition": "300x200",
              "url": "http://assets.kraftfoods.com/recipe_images/Kwik_Kabobs_d.jpg"
            }
          ],
          "author": null,
          "id": "0",
          "imageType": "LANDSCAPE",
          "mimeType": null,
          "publicationDate": null,
          "status": "1",
          "title": "Kwik_Kabobs_d.jpg",
          "type": "image"
        }
      ],
      "AverageRating": 0,
      "BrandId": 1,
      "Branding": null,
      "CSSSkins": null,
      "CarbCounter": null,
      "Categories": [
        {
          "CategoryID": 7,
          "CategoryName": "Pork/Beef Entrees",
          "CategoryRank": 10,
          "SubCategoryID": 408,
          "SubCategoryName": "Beef: Grilled/Broiled",
          "SubCategoryRank": 20
        },
        {
          "CategoryID": 11,
          "CategoryName": "Primary",
          "CategoryRank": 0,
          "SubCategoryID": 97,
          "SubCategoryName": "Entrees",
          "SubCategoryRank": 50
        },
        {
          "CategoryID": 756,
          "CategoryName": "Main Meals (Meat / Seafood / Egg)",
          "CategoryRank": 10,
          "SubCategoryID": 2563,
          "SubCategoryName": "Beef",
          "SubCategoryRank": 1
        },
        {
          "CategoryID": 756,
          "CategoryName": "Main Meals (Meat / Seafood / Egg)",
          "CategoryRank": 10,
          "SubCategoryID": 2564,
          "SubCategoryName": "Pork",
          "SubCategoryRank": 1
        }
      ],
      "Classifications": [],
      "ComplimentaryRecipes": null,
      "CookingMethod": null,
      "Copyright": null,
      "Courses": [
        "Main dishes"
      ],
      "DietExchange": null,
      "DishDetails": [
        {
          "Text": "ground beef recipes",
          "Url": "/recipes/dinner/ground-beef-recipes/main.aspx"
        },
        {
          "Text": "top 10 beef recipes",
          "Url": "/recipes/dinner/top-10/beef-recipes/main.aspx"
        },
        {
          "Text": "1 bag 5 dinners",
          "Url": "/recipes/dinner/1Bag5Dinners/1bag5dinnerschickenbeef.aspx"
        }
      ],
      "EndDate": "/Date(-62135575200000-0600)/",
      "HasVideo": false,
      "Ingredients": [
        {
          "FullMeasure": "4",
          "FullWeight": "",
          "IngredientGridHeaders": null,
          "IngredientID": 586,
          "IngredientName": "OSCAR MAYER Beef Franks",
          "IngredientStep": 10,
          "LanguageId": 0,
          "PostPreparation": " or Wieners",
          "PrePreparation": "",
          "QuantityNum": 4,
          "QuantityText": "4",
          "QuantityUnit": "",
          "RecipeIngredientID": 3365076,
          "TrialMeasure": "",
          "TrialWeight": ""
        },
        {
          "FullMeasure": "1 cup",
          "FullWeight": "",
          "IngredientGridHeaders": null,
          "IngredientID": 894,
          "IngredientName": "cherry tomatoes",
          "IngredientStep": 20,
          "LanguageId": 0,
          "PostPreparation": "",
          "PrePreparation": "",
          "QuantityNum": 1,
          "QuantityText": "1",
          "QuantityUnit": "cup",
          "RecipeIngredientID": 3365073,
          "TrialMeasure": "",
          "TrialWeight": ""
        },
        {
          "FullMeasure": "1 cup",
          "FullWeight": "",
          "IngredientGridHeaders": null,
          "IngredientID": 120,
          "IngredientName": "CLAUSSEN Kosher Dill Pickles",
          "IngredientStep": 30,
          "LanguageId": 0,
          "PostPreparation": " chunks (1 inch)",
          "PrePreparation": "",
          "QuantityNum": 1,
          "QuantityText": "1",
          "QuantityUnit": "cup",
          "RecipeIngredientID": 3365075,
          "TrialMeasure": "",
          "TrialWeight": ""
        },
        {
          "FullMeasure": "1 cup",
          "FullWeight": "",
          "IngredientGridHeaders": null,
          "IngredientID": 1448,
          "IngredientName": "potatoes",
          "IngredientStep": 40,
          "LanguageId": 0,
          "PostPreparation": "",
          "PrePreparation": "partially cooked cubed",
          "QuantityNum": 1,
          "QuantityText": "1",
          "QuantityUnit": "cup",
          "RecipeIngredientID": 3365077,
          "TrialMeasure": "",
          "TrialWeight": ""
        },
        {
          "FullMeasure": "1/2 cup",
          "FullWeight": "",
          "IngredientGridHeaders": null,
          "IngredientID": 4678,
          "IngredientName": "KRAFT Italian Vinaigrette Dressing",
          "IngredientStep": 50,
          "LanguageId": 0,
          "PostPreparation": "",
          "PrePreparation": "",
          "QuantityNum": 0,
          "QuantityText": "1/2",
          "QuantityUnit": "cup",
          "RecipeIngredientID": 3365078,
          "TrialMeasure": "",
          "TrialWeight": ""
        },
        {
          "FullMeasure": "4 cups",
          "FullWeight": "",
          "IngredientGridHeaders": null,
          "IngredientID": 1357,
          "IngredientName": "mixed salad greens",
          "IngredientStep": 60,
          "LanguageId": 0,
          "PostPreparation": "",
          "PrePreparation": "tightly packed torn",
          "QuantityNum": 4,
          "QuantityText": "4",
          "QuantityUnit": "cups",
          "RecipeIngredientID": 3365074,
          "TrialMeasure": "",
          "TrialWeight": ""
        }
      ],
      "IsHealthyLiving": false,
      "KRLId": "543721",
      "KeyIngredients": [
        "Beef",
        "Fruit",
        "Hot Dog",
        "Lettuce",
        "Meat",
        "Potato",
        "Tomato",
        "Vegetables"
      ],
      "Keywords": "pickles,potatoes,CLAUSSEN Pickles,dressing,franks,italian dressing,KRAFT Dressing,lettuce,meat,mixed greens,salad dressing,salad greens,tomatoes,vinaigrette dressing,wieners,hot dogs,cherry tomatoes,OSCAR MAYER Beef Franks,Entree,Dinner,Kabob",
      "LanguageId": 1,
      "LifeStyles": [],
      "NumberOfIngredients": 6,
      "NumberOfRatings": 0,
      "NumberOfRatingsWithComments": "0",
      "NumberOfServings": " 4 servings",
      "NumberOfTrialServings": "",
      "NutritionBonus": null,
      "NutritionExchangeItemId": 0,
      "NutritionGridItems": null,
      "NutritionItems": [
        {
          "DisplayOrder": 1,
          "Document": null,
          "NutritionItemID": 3,
          "NutritionItemName": "Calories",
          "Predriscriptor": "",
          "Quantity": 210,
          "Unit": "          "
        },
        {
          "DisplayOrder": 2,
          "Document": "fat_cholesterol.html",
          "NutritionItemID": 4,
          "NutritionItemName": "Total fat",
          "Predriscriptor": "",
          "Quantity": 14,
          "Unit": "g         "
        },
        {
          "DisplayOrder": 3,
          "Document": "fat_cholesterol.html",
          "NutritionItemID": 9,
          "NutritionItemName": "Saturated fat",
          "Predriscriptor": "",
          "Quantity": 6,
          "Unit": "g         "
        },
        {
          "DisplayOrder": 7,
          "Document": "fat_cholesterol.html",
          "NutritionItemID": 2,
          "NutritionItemName": "Cholesterol",
          "Predriscriptor": "",
          "Quantity": 30,
          "Unit": "mg        "
        },
        {
          "DisplayOrder": 8,
          "Document": "sodium.html",
          "NutritionItemID": 8,
          "NutritionItemName": "Sodium",
          "Predriscriptor": "",
          "Quantity": 790,
          "Unit": "mg        "
        },
        {
          "DisplayOrder": 10,
          "Document": "carbs_sugars_fiber.html",
          "NutritionItemID": 1,
          "NutritionItemName": "Carbohydrate",
          "Predriscriptor": "",
          "Quantity": 14,
          "Unit": "g         "
        },
        {
          "DisplayOrder": 11,
          "Document": "carbs_sugars_fiber.html",
          "NutritionItemID": 7,
          "NutritionItemName": "Dietary fiber",
          "Predriscriptor": "",
          "Quantity": 2,
          "Unit": "g         "
        },
        {
          "DisplayOrder": 12,
          "Document": "carbs_sugars_fiber.html",
          "NutritionItemID": 5,
          "NutritionItemName": "Sugars",
          "Predriscriptor": "",
          "Quantity": 3,
          "Unit": "g         "
        },
        {
          "DisplayOrder": 13,
          "Document": null,
          "NutritionItemID": 6,
          "NutritionItemName": "Protein",
          "Predriscriptor": "",
          "Quantity": 7,
          "Unit": "g         "
        },
        {
          "DisplayOrder": 14,
          "Document": null,
          "NutritionItemID": 10,
          "NutritionItemName": "Vitamin A",
          "Predriscriptor": "",
          "Quantity": 15,
          "Unit": "%DV       "
        },
        {
          "DisplayOrder": 15,
          "Document": null,
          "NutritionItemID": 11,
          "NutritionItemName": "Vitamin C",
          "Predriscriptor": "",
          "Quantity": 40,
          "Unit": "%DV       "
        },
        {
          "DisplayOrder": 16,
          "Document": "dairy_and_calcium.html",
          "NutritionItemID": 12,
          "NutritionItemName": "Calcium",
          "Predriscriptor": "",
          "Quantity": 8,
          "Unit": "%DV       "
        },
        {
          "DisplayOrder": 17,
          "Document": null,
          "NutritionItemID": 13,
          "NutritionItemName": "Iron",
          "Predriscriptor": "",
          "Quantity": 8,
          "Unit": "%DV       "
        }
      ],
      "NutritionServingText": "",
      "PrepStepImage": null,
      "PreparationDescription": "Thread franks onto 8 skewers alternately with tomatoes, pickles and potatoes. Place in shallow dish.$Pour dressing over kabobs; turn to evenly coat.  Refrigerate 10 min. to marinate.  Drain; discard marinade.  $Grill kabobs 5 min. on each side or until franks are heated through.  Serve over salad greens.",
      "PreparationPreText": "Heat grill to medium heat.",
      "PreparationSteps": [
        {
          "Description": "Thread franks onto 8 skewers alternately with tomatoes, pickles and potatoes. Place in shallow dish.",
          "PreparationStepImage": {
            "PictureFormats": [],
            "author": null,
            "id": null,
            "imageType": null,
            "mimeType": null,
            "publicationDate": null,
            "status": null,
            "title": null,
            "type": null
          },
          "Sequence": 1
        },
        {
          "Description": "Pour dressing over kabobs; turn to evenly coat.  Refrigerate 10 min. to marinate.  Drain; discard marinade.  ",
          "PreparationStepImage": {
            "PictureFormats": [],
            "author": null,
            "id": null,
            "imageType": null,
            "mimeType": null,
            "publicationDate": null,
            "status": null,
            "title": null,
            "type": null
          },
          "Sequence": 2
        },
        {
          "Description": "Grill kabobs 5 min. on each side or until franks are heated through.  Serve over salad greens.",
          "PreparationStepImage": {
            "PictureFormats": [],
            "author": null,
            "id": null,
            "imageType": null,
            "mimeType": null,
            "publicationDate": null,
            "status": null,
            "title": null,
            "type": null
          },
          "Sequence": 3
        }
      ],
      "PreparationTime": 20,
      "Promotion": {
        "IngredientElevation": "",
        "PromoAltText": "",
        "PromoImage": "",
        "PromoLink": "",
        "SponsorshipAltText": "",
        "SponsorshipLink": "",
        "SponsorshipLogo": "",
        "UpperRightImage": ""
      },
      "Ratings": {
        "TotalCount": 0,
        "PageCount": 10,
        "PageNo": 1,
        "Rating": []
      },
      "RecipeDisplayFormatId": 5,
      "RecipeId": 152162,
      "RecipeName": "4th of July Hot Dog Kabobs",
      "RecipeType": 0,
      "RelatedData": {
        "RelatedBrands": null,
        "RelatedProducts": null,
        "RelatedRecipes": {
          "DefaultTopCount": 5,
          "Recipe": [
            {
              "AverageRating": 4.8,
              "HasVideo": false,
              "IsHealthyLiving": false,
              "NumberOfRatings": 4,
              "PhotoName": "133856.jpg",
              "PhotoUrl": "http://assets.kraftfoods.com/recipe_images/opendeploy/133856.jpg",
              "RecipeId": 133856,
              "RecipeName": "Chicago Hot Dogs",
              "SEOName": "chicago-hot-dogs-133856",
              "ThumbnailPhoto": null
            },
            {
              "AverageRating": 4.2,
              "HasVideo": false,
              "IsHealthyLiving": false,
              "NumberOfRatings": 26,
              "PhotoName": "opendeploy/502909_1_1_retail-8686e7cdb7d4497a9c723ef58397f3536b1cf0b6_306x204.jpg",
              "PhotoUrl": "http://assets.kraftfoods.com/recipe_images/opendeploy/opendeploy/502909_1_1_retail-8686e7cdb7d4497a9c723ef58397f3536b1cf0b6_306x204.jpg",
              "RecipeId": 52042,
              "RecipeName": "BBQ Bacon Cheese Dog",
              "SEOName": "bbq-bacon-cheese-dog-52042",
              "ThumbnailPhoto": null
            },
            {
              "AverageRating": 4.3,
              "HasVideo": false,
              "IsHealthyLiving": false,
              "NumberOfRatings": 24,
              "PhotoName": "NYC_Dog.jpg",
              "PhotoUrl": "http://assets.kraftfoods.com/recipe_images/opendeploy/NYC_Dog.jpg",
              "RecipeId": 53673,
              "RecipeName": "Sweet 'N Sauer Dog",
              "SEOName": "sweet-n-sauer-dog-53673",
              "ThumbnailPhoto": null
            },
            {
              "AverageRating": 5,
              "HasVideo": false,
              "IsHealthyLiving": false,
              "NumberOfRatings": 5,
              "PhotoName": "120104.jpg",
              "PhotoUrl": "http://assets.kraftfoods.com/recipe_images/opendeploy/120104.jpg",
              "RecipeId": 120104,
              "RecipeName": "Memphis-Style BBQ Dogs",
              "SEOName": "memphis-style-bbq-dogs-120104",
              "ThumbnailPhoto": null
            },
            {
              "AverageRating": 4.5,
              "HasVideo": false,
              "IsHealthyLiving": false,
              "NumberOfRatings": 2,
              "PhotoName": "Hot_Dog_and_Bologna_Kabobs.jpg",
              "PhotoUrl": "http://assets.kraftfoods.com/recipe_images/opendeploy/Hot_Dog_and_Bologna_Kabobs.jpg",
              "RecipeId": 65182,
              "RecipeName": "Hot Dog and Bologna Kabobs",
              "SEOName": "hot-dog-bologna-kabobs-65182",
              "ThumbnailPhoto": null
            }
          ],
          "TotalCount": 1610
        }
      },
      "RiseIngredients": [],
      "RiseTaxonomy": [],
      "Riserecipe": [
        {
          "GRIN": 543721,
          "RecipeId": 152162,
          "RecipeIndustrySector": "Retail",
          "RecipeType": "Internal"
        }
      ],
      "RomanceText": "Let the neighbors go crazy trying to outdo one another at the grill. These easy hot dog kabobs prove once again that nice and easy does it!",
      "SEOName": "4th-of-july-hot-dog-kabobs-152162",
      "Tips": [
        {
          "RecipeId": 152162,
          "Sequence": 10,
          "TipDescription": "If using wooden skewers, soak them in warm water for 30 min. before using to prevent them from burning on the grill.",
          "TipID": 5,
          "TipName": "Cooking Know-How"
        },
        {
          "RecipeId": 152162,
          "Sequence": 20,
          "TipDescription": "Substitute 3 cups hot cooked rice for the salad greens.",
          "TipID": 6,
          "TipName": "Substitute"
        },
        {
          "RecipeId": 152162,
          "Sequence": 30,
          "TipDescription": "Partially cook potatoes in the microwave before threading onto skewers so they are done at the same time as the meat.",
          "TipID": 7,
          "TipName": "Note"
        }
      ],
      "TotalTime": 30,
      "TradeMarkInfo": null,
      "Video": [],
      "Yield": " 4 servings"
    }
  ]
}