{
  "Metadata": {
    "PageCount": 1,
    "PageNo": 0,
    "TotalCount": 0
  },
  "Recipes": [
    {
      "AdServingKeywords": "Dessert,Cereal,Chocolate,Cream Cheese,Easy,All Seasons,Cake,Cheesecake,Cheesecake-No Bake,Jet-Puffed,Philadelphia",
      "AlternateLanguageRecipes": [],
      "Assets": [
        {
          "PictureFormats": [
            {
              "rendition": "290x194",
              "url": "http://assets.kraftfoods.com/recipe_images/opendeploy/51396_290x194.jpg"
            },
            {
              "rendition": "640x428",
              "url": "http://assets.kraftfoods.com/recipe_images/opendeploy/51396_640x428.jpg"
            },
            {
              "rendition": "600x250",
              "url": "http://assets.kraftfoods.com/recipe_images/opendeploy/51396_600x250.jpg"
            }
          ],
          "author": "BulKUpload",
          "id": "2",
          "imageType": "Primary",
          "mimeType": "image/jpeg",
          "publicationDate": null,
          "status": "1",
          "title": "51396",
          "type": "image"
        },
        {
          "PictureFormats": [
            {
              "rendition": "140x90",
              "url": "http://assets.kraftfoods.com/recipe_images/opendeploy/51396_SGS_K490V0_OR1_H_140x90.jpg"
            },
            {
              "rendition": "300x250",
              "url": "http://assets.kraftfoods.com/recipe_images/opendeploy/51396_SGS_K490V0_OR1_H_300x250.jpg"
            },
            {
              "rendition": "960x300",
              "url": "http://assets.kraftfoods.com/recipe_images/opendeploy/51396_SGS_K490V0_OR1_H_960x300.jpg"
            }
          ],
          "author": null,
          "id": "2",
          "imageType": "Primary",
          "mimeType": "image/jpeg",
          "publicationDate": null,
          "status": "1",
          "title": "51396_SGS_K490V0_OR1_H",
          "type": "image"
        },
        {
          "PictureFormats": [
            {
              "rendition": "140x90",
              "url": "http://assets.kraftfoods.com/recipe_images/opendeploy/51396_Martin_K490%20%20v0_OR1_NA1_140x90.jpg"
            },
            {
              "rendition": "300x250",
              "url": "http://assets.kraftfoods.com/recipe_images/opendeploy/51396_Martin_K490%20%20v0_OR1_NA1_300x250.jpg"
            },
            {
              "rendition": "960x300",
              "url": "http://assets.kraftfoods.com/recipe_images/opendeploy/51396_Martin_K490%20%20v0_OR1_NA1_960x300.jpg"
            }
          ],
          "author": null,
          "id": "2",
          "imageType": "Primary",
          "mimeType": "image/jpeg",
          "publicationDate": null,
          "status": "1",
          "title": "51396_Martin_K490  v0_OR1_NA1",
          "type": "image"
        },
        {
          "PictureFormats": [
            {
              "rendition": "300x200",
              "url": "http://assets.kraftfoods.com/recipe_images/51396.jpg"
            }
          ],
          "author": "BulKUpload",
          "id": "0",
          "imageType": "LANDSCAPE",
          "mimeType": "image/jpeg",
          "publicationDate": null,
          "status": "1",
          "title": "51396.jpg",
          "type": "image"
        }
      ],
      "AverageRating": 3.9,
      "BrandId": 1,
      "Branding": null,
      "CSSSkins": null,
      "CarbCounter": null,
      "Categories": [
        {
          "CategoryID": 4,
          "CategoryName": "Cakes/Pies/Cheesecakes",
          "CategoryRank": 5,
          "SubCategoryID": 124,
          "SubCategoryName": "Cheesecakes:     No-Bake",
          "SubCategoryRank": 50
        },
        {
          "CategoryID": 11,
          "CategoryName": "Primary",
          "CategoryRank": 0,
          "SubCategoryID": 103,
          "SubCategoryName": "Desserts",
          "SubCategoryRank": 40
        },
        {
          "CategoryID": 760,
          "CategoryName": "Cheesecakes",
          "CategoryRank": 14,
          "SubCategoryID": 2583,
          "SubCategoryName": "Chilled",
          "SubCategoryRank": 1
        },
        {
          "CategoryID": 1760,
          "CategoryName": "Philly Cheesecakes",
          "CategoryRank": 0,
          "SubCategoryID": 16844,
          "SubCategoryName": "Brick Cream Cheese",
          "SubCategoryRank": 0
        },
        {
          "CategoryID": 1760,
          "CategoryName": "Philly Cheesecakes",
          "CategoryRank": 0,
          "SubCategoryID": 16847,
          "SubCategoryName": "Use for all",
          "SubCategoryRank": 0
        }
      ],
      "Classifications": [],
      "ComplimentaryRecipes": null,
      "CookingMethod": null,
      "Copyright": null,
      "Courses": [],
      "DietExchange": null,
      "DishDetails": [
        {
          "Text": "desserts",
          "Url": "/recipes/dessert/main.aspx"
        },
        {
          "Text": "fruity desserts",
          "Url": "/recipes/dessert/fruitydesserts.aspx"
        },
        {
          "Text": "gelatin desserts",
          "Url": "/recipes/dessert/gelatindesserts.aspx"
        },
        {
          "Text": "layered desserts",
          "Url": "/recipes/dessert/layereddesserts.aspx"
        },
        {
          "Text": "brownie recipes",
          "Url": "/recipes/dessert/brownie-recipes/main.aspx"
        },
        {
          "Text": "budget desserts",
          "Url": "/recipes/budget/budget-desserts.aspx"
        },
        {
          "Text": "no bake desserts",
          "Url": "/recipes/dessert/nobakedesserts.aspx"
        },
        {
          "Text": "pumpkin recipes",
          "Url": "/recipes/dessert/pumpkin-recipes.aspx"
        },
        {
          "Text": "chocolate cake recipes",
          "Url": "/recipes/dessert/chocolate-cake-recipes/main.aspx"
        },
        {
          "Text": "cheesecake recipes",
          "Url": "/recipes/dessert/cheesecake-center/cheesecake-recipes/main.aspx"
        },
        {
          "Text": "chocolate lovers recipes",
          "Url": "/recipes/dessert/chocolate-center/chocolateloversrecipes.aspx"
        },
        {
          "Text": "classic desserts",
          "Url": "/recipes/dessert/classicdesserts.aspx"
        },
        {
          "Text": "cookie ball recipes",
          "Url": "/recipes/dessert/cookie-ball-recipes/main.aspx"
        },
        {
          "Text": "cookie recipes",
          "Url": "/recipes/dessert/cookie-recipes/main.aspx"
        },
        {
          "Text": "cupcake recipes",
          "Url": "/recipes/dessert/cupcake-recipes/main.aspx"
        },
        {
          "Text": "healthy living desserts",
          "Url": "/healthy-living-ideas/diabetes-center/recipes/dessert-recipes.aspx"
        },
        {
          "Text": "cheesecake recipes",
          "Url": "/recipes/dessert/cheesecake-center/cheesecake-recipes/main.aspx"
        },
        {
          "Text": "no bake cheesecake recipes",
          "Url": "/recipes/dessert/cheesecake-center/no-bake-cheesecake-recipes.aspx"
        },
        {
          "Text": "strawberry cheesecake recipes",
          "Url": "/recipes/dessert/cheesecake-center/strawberry-cheesecake-recipes.aspx"
        },
        {
          "Text": "cheese cake for all seasons",
          "Url": "/recipes/dessert/cheesecake-center/cheesecakeforallseasons.aspx"
        },
        {
          "Text": "chocolate cheesecake recipes",
          "Url": "/recipes/dessert/cheesecake-center/chocolate-cheesecake-recipes.aspx"
        },
        {
          "Text": "pumpkin cheesecake recipes",
          "Url": "/recipes/dessert/cheesecake-center/pumpkin-cheesecake-recipes.aspx"
        }
      ],
      "EndDate": "/Date(-62135575200000-0600)/",
      "HasVideo": false,
      "Ingredients": [
        {
          "FullMeasure": "20",
          "FullWeight": "",
          "IngredientGridHeaders": null,
          "IngredientID": 923,
          "IngredientName": "chocolate wafer cookies",
          "IngredientStep": 10,
          "LanguageId": 0,
          "PostPreparation": ", finely crushed (about 1 cup)",
          "PrePreparation": "",
          "QuantityNum": 20,
          "QuantityText": "20",
          "QuantityUnit": "",
          "RecipeIngredientID": 4134677,
          "TrialMeasure": "",
          "TrialWeight": ""
        },
        {
          "FullMeasure": "1/4 cup",
          "FullWeight": "",
          "IngredientGridHeaders": null,
          "IngredientID": 1845,
          "IngredientName": "sugar",
          "IngredientStep": 20,
          "LanguageId": 0,
          "PostPreparation": "",
          "PrePreparation": "",
          "QuantityNum": 0,
          "QuantityText": "1/4",
          "QuantityUnit": "cup",
          "RecipeIngredientID": 4134674,
          "TrialMeasure": "",
          "TrialWeight": ""
        },
        {
          "FullMeasure": "1/4 cup",
          "FullWeight": "",
          "IngredientGridHeaders": null,
          "IngredientID": 864,
          "IngredientName": "butter or margarine",
          "IngredientStep": 30,
          "LanguageId": 0,
          "PostPreparation": ", melted",
          "PrePreparation": "(1/2 stick)",
          "QuantityNum": 0,
          "QuantityText": "1/4",
          "QuantityUnit": "cup",
          "RecipeIngredientID": 4134675,
          "TrialMeasure": "",
          "TrialWeight": ""
        },
        {
          "FullMeasure": "1 jar",
          "FullWeight": "",
          "IngredientGridHeaders": null,
          "IngredientID": 6095,
          "IngredientName": "caramel ice cream topping",
          "IngredientStep": 40,
          "LanguageId": 0,
          "PostPreparation": ", divided",
          "PrePreparation": "(12.5 oz.)",
          "QuantityNum": 1,
          "QuantityText": "1",
          "QuantityUnit": "jar",
          "RecipeIngredientID": 4134673,
          "TrialMeasure": "",
          "TrialWeight": ""
        },
        {
          "FullMeasure": "4 cups",
          "FullWeight": "",
          "IngredientGridHeaders": null,
          "IngredientID": 1351,
          "IngredientName": "JET-PUFFED Miniature Marshmallows",
          "IngredientStep": 50,
          "LanguageId": 0,
          "PostPreparation": "",
          "PrePreparation": "",
          "QuantityNum": 4,
          "QuantityText": "4",
          "QuantityUnit": "cups",
          "RecipeIngredientID": 4134679,
          "TrialMeasure": "",
          "TrialWeight": ""
        },
        {
          "FullMeasure": "2 pkg.",
          "FullWeight": "",
          "IngredientGridHeaders": null,
          "IngredientID": 628,
          "IngredientName": "PHILADELPHIA Cream Cheese",
          "IngredientStep": 60,
          "LanguageId": 0,
          "PostPreparation": ", softened",
          "PrePreparation": "(8 oz. each)",
          "QuantityNum": 2,
          "QuantityText": "2",
          "QuantityUnit": "pkg.",
          "RecipeIngredientID": 4134676,
          "TrialMeasure": "",
          "TrialWeight": ""
        },
        {
          "FullMeasure": "1 tsp.",
          "FullWeight": "",
          "IngredientGridHeaders": null,
          "IngredientID": 1731,
          "IngredientName": "vanilla",
          "IngredientStep": 70,
          "LanguageId": 0,
          "PostPreparation": "",
          "PrePreparation": "",
          "QuantityNum": 1,
          "QuantityText": "1",
          "QuantityUnit": "tsp.",
          "RecipeIngredientID": 4134678,
          "TrialMeasure": "",
          "TrialWeight": ""
        },
        {
          "FullMeasure": "1 cup",
          "FullWeight": "",
          "IngredientGridHeaders": null,
          "IngredientID": 1246,
          "IngredientName": "whipping cream",
          "IngredientStep": 80,
          "LanguageId": 0,
          "PostPreparation": ", whipped",
          "PrePreparation": "",
          "QuantityNum": 1,
          "QuantityText": "1",
          "QuantityUnit": "cup",
          "RecipeIngredientID": 4134672,
          "TrialMeasure": "",
          "TrialWeight": ""
        }
      ],
      "IsHealthyLiving": false,
      "KRLId": "501060",
      "KeyIngredients": [
        "Candy",
        "Chocolate",
        "Cream Cheese"
      ],
      "Keywords": "PHILADELPHIA Cream Cheese,caramel topping,cheese,cookies,cream,cream cheese,dessert toppings,extract,ice cream topping,marshmallows,sugar,vanilla,whipping cream,butter,margarine,NABISCO FAMOUS Chocolate Wafers,chocolate wafer cookies,JET-PUFFED Marshmallows,heavy cream,Easy,All Seasons,Cake,Cheesecake,Cheesecake-No Bake",
      "LanguageId": 1,
      "LifeStyles": [],
      "NumberOfIngredients": 8,
      "NumberOfRatings": 8,
      "NumberOfRatingsWithComments": "7",
      "NumberOfServings": "12 servings, one slice each",
      "NumberOfTrialServings": "",
      "NutritionBonus": null,
      "NutritionExchangeItemId": 0,
      "NutritionGridItems": null,
      "NutritionItems": [
        {
          "DisplayOrder": 1,
          "Document": null,
          "NutritionItemID": 3,
          "NutritionItemName": "Calories",
          "Predriscriptor": "",
          "Quantity": 420,
          "Unit": "          "
        },
        {
          "DisplayOrder": 2,
          "Document": "fat_cholesterol.html",
          "NutritionItemID": 4,
          "NutritionItemName": "Total fat",
          "Predriscriptor": "",
          "Quantity": 25,
          "Unit": "g         "
        },
        {
          "DisplayOrder": 3,
          "Document": "fat_cholesterol.html",
          "NutritionItemID": 9,
          "NutritionItemName": "Saturated fat",
          "Predriscriptor": "",
          "Quantity": 15,
          "Unit": "g         "
        },
        {
          "DisplayOrder": 7,
          "Document": "fat_cholesterol.html",
          "NutritionItemID": 2,
          "NutritionItemName": "Cholesterol",
          "Predriscriptor": "",
          "Quantity": 80,
          "Unit": "mg        "
        },
        {
          "DisplayOrder": 8,
          "Document": "sodium.html",
          "NutritionItemID": 8,
          "NutritionItemName": "Sodium",
          "Predriscriptor": "",
          "Quantity": 310,
          "Unit": "mg        "
        },
        {
          "DisplayOrder": 10,
          "Document": "carbs_sugars_fiber.html",
          "NutritionItemID": 1,
          "NutritionItemName": "Carbohydrate",
          "Predriscriptor": "",
          "Quantity": 45,
          "Unit": "g         "
        },
        {
          "DisplayOrder": 11,
          "Document": "carbs_sugars_fiber.html",
          "NutritionItemID": 7,
          "NutritionItemName": "Dietary fiber",
          "Predriscriptor": "Less than",
          "Quantity": 1,
          "Unit": "g         "
        },
        {
          "DisplayOrder": 12,
          "Document": "carbs_sugars_fiber.html",
          "NutritionItemID": 5,
          "NutritionItemName": "Sugars",
          "Predriscriptor": "",
          "Quantity": 31,
          "Unit": "g         "
        },
        {
          "DisplayOrder": 13,
          "Document": null,
          "NutritionItemID": 6,
          "NutritionItemName": "Protein",
          "Predriscriptor": "",
          "Quantity": 4,
          "Unit": "g         "
        },
        {
          "DisplayOrder": 14,
          "Document": null,
          "NutritionItemID": 10,
          "NutritionItemName": "Vitamin A",
          "Predriscriptor": "",
          "Quantity": 15,
          "Unit": "%DV       "
        },
        {
          "DisplayOrder": 15,
          "Document": null,
          "NutritionItemID": 11,
          "NutritionItemName": "Vitamin C",
          "Predriscriptor": "",
          "Quantity": 0,
          "Unit": "%DV       "
        },
        {
          "DisplayOrder": 16,
          "Document": "dairy_and_calcium.html",
          "NutritionItemID": 12,
          "NutritionItemName": "Calcium",
          "Predriscriptor": "",
          "Quantity": 8,
          "Unit": "%DV       "
        },
        {
          "DisplayOrder": 17,
          "Document": null,
          "NutritionItemID": 13,
          "NutritionItemName": "Iron",
          "Predriscriptor": "",
          "Quantity": 0,
          "Unit": "%DV       "
        }
      ],
      "NutritionServingText": null,
      "PrepStepImage": null,
      "PreparationDescription": "Mix wafer crumbs, sugar and butter; press firmly onto bottom of 9-inch springform pan.  Remove 1/4 cup of the caramel topping; refrigerate until ready to use. $Place remaining caramel topping and the marshmallows in saucepan; cook on low heat until marshmallows are completely melted and mixture is well blended, stirring frequently.  Remove from heat.$Beat cream cheese and vanilla in large bowl with electric mixer on medium speed until well blended.  Add marshmallow mixture; mix well.  Gently stir in the whipped cream; pour over crust.  Refrigerate at least 4 hours or until firm.  Drizzle with reserved 1/4 cup caramel topping just before serving.  Store leftover cheesecake in refrigerator.",
      "PreparationPreText": null,
      "PreparationSteps": [
        {
          "Description": "Mix wafer crumbs, sugar and butter; press firmly onto bottom of 9-inch springform pan.  Remove 1/4 cup of the caramel topping; refrigerate until ready to use. ",
          "PreparationStepImage": {
            "PictureFormats": [],
            "author": null,
            "id": null,
            "imageType": null,
            "mimeType": null,
            "publicationDate": null,
            "status": null,
            "title": null,
            "type": null
          },
          "Sequence": 1
        },
        {
          "Description": "Place remaining caramel topping and the marshmallows in saucepan; cook on low heat until marshmallows are completely melted and mixture is well blended, stirring frequently.  Remove from heat.",
          "PreparationStepImage": {
            "PictureFormats": [],
            "author": null,
            "id": null,
            "imageType": null,
            "mimeType": null,
            "publicationDate": null,
            "status": null,
            "title": null,
            "type": null
          },
          "Sequence": 2
        },
        {
          "Description": "Beat cream cheese and vanilla in large bowl with electric mixer on medium speed until well blended.  Add marshmallow mixture; mix well.  Gently stir in the whipped cream; pour over crust.  Refrigerate at least 4 hours or until firm.  Drizzle with reserved 1/4 cup caramel topping just before serving.  Store leftover cheesecake in refrigerator.",
          "PreparationStepImage": {
            "PictureFormats": [],
            "author": null,
            "id": null,
            "imageType": null,
            "mimeType": null,
            "publicationDate": null,
            "status": null,
            "title": null,
            "type": null
          },
          "Sequence": 3
        }
      ],
      "PreparationTime": 30,
      "Promotion": null,
      "Ratings": {
        "TotalCount": 8,
        "PageCount": 10,
        "PageNo": 1,
        "Rating": [
          {
            "Comment": "I really enjoyed making this cheesecake. It was sweet and fluffy although I did make it with a graham cracker crust I imagine it would taste better with a chocolate crust. ",
            "DisplayName": true,
            "RatingValue": 4,
            "SubmitDate": "/Date(1377796896000-0500)/",
            "UpdatedDate": "/Date(1377796896000-0500)/",
            "UserName": "LilBettyCrocker1"
          },
          {
            "Comment": "",
            "DisplayName": true,
            "RatingValue": 3,
            "SubmitDate": "/Date(1239905662000-0500)/",
            "UpdatedDate": "/Date(1239905662000-0500)/",
            "UserName": "badgnome"
          },
          {
            "Comment": "totally a hit! sooo good!",
            "DisplayName": true,
            "RatingValue": 5,
            "SubmitDate": "/Date(1205274017000-0500)/",
            "UpdatedDate": "/Date(1205274017000-0500)/",
            "UserName": "kaylastellner"
          },
          {
            "Comment": "this was very good.my mom and my brother liked it.i used graham cracker crust instead of oreo.still was very good.",
            "DisplayName": true,
            "RatingValue": 4,
            "SubmitDate": "/Date(1119867540000-0500)/",
            "UpdatedDate": "/Date(1119867540000-0500)/",
            "UserName": "biggmayy"
          },
          {
            "Comment": "This is one of the best tasting cheesecakes i've ever made.  I substitued making the pie crust for a pre-made oreo cookie pie crust you can get in the baking goods aisle at your local grocery.  My family and I have this treat on a regular basis.  We are huge cheesecake fans, and this is our favorite.  ",
            "DisplayName": true,
            "RatingValue": 5,
            "SubmitDate": "/Date(1116005557000-0500)/",
            "UpdatedDate": "/Date(1116005557000-0500)/",
            "UserName": "leelee420"
          },
          {
            "Comment": "This recipe was absolutely terrible! I hated it, but must say that your other recipes were quite good, but I was not impressed at all. ",
            "DisplayName": true,
            "RatingValue": 1,
            "SubmitDate": "/Date(1088838795000-0500)/",
            "UpdatedDate": "/Date(1088838891000-0500)/",
            "UserName": "minnie168"
          },
          {
            "Comment": "\r\n Easy cheesecake recipe. can also be made  with \r\n hot fudge topping and butterscotch. ",
            "DisplayName": true,
            "RatingValue": 5,
            "SubmitDate": "/Date(1078691592000-0600)/",
            "UpdatedDate": "/Date(1078691592000-0600)/",
            "UserName": "pamela farris"
          },
          {
            "Comment": "It was quite rich. It was nice as an after dinner dessert. It went especially well with a cup of coffee.",
            "DisplayName": true,
            "RatingValue": 4,
            "SubmitDate": "/Date(1073519394000-0600)/",
            "UpdatedDate": "/Date(1073519394000-0600)/",
            "UserName": "Tepmurt"
          }
        ]
      },
      "RecipeDisplayFormatId": 5,
      "RecipeId": 51396,
      "RecipeName": "Caramel Cheesecake",
      "RecipeType": 0,
      "RelatedData": {
        "RelatedBrands": null,
        "RelatedProducts": null,
        "RelatedRecipes": {
          "DefaultTopCount": 5,
          "Recipe": [
            {
              "AverageRating": 4.5,
              "HasVideo": false,
              "IsHealthyLiving": false,
              "NumberOfRatings": 47,
              "PhotoName": "107333.jpg",
              "PhotoUrl": "http://assets.kraftfoods.com/recipe_images/opendeploy/107333.jpg",
              "RecipeId": 107333,
              "RecipeName": "Caramel-Pecan Cheesecake Bars",
              "SEOName": "caramel-pecan-cheesecake-bars-107333",
              "ThumbnailPhoto": null
            },
            {
              "AverageRating": 4.7,
              "HasVideo": false,
              "IsHealthyLiving": false,
              "NumberOfRatings": 78,
              "PhotoName": "63224.jpg",
              "PhotoUrl": "http://assets.kraftfoods.com/recipe_images/opendeploy/63224.jpg",
              "RecipeId": 63224,
              "RecipeName": "Caramel-Pecan Cheesecake",
              "SEOName": "caramel-pecan-cheesecake-63224",
              "ThumbnailPhoto": null
            },
            {
              "AverageRating": 4,
              "HasVideo": false,
              "IsHealthyLiving": false,
              "NumberOfRatings": 2,
              "PhotoName": "Cinnamon-Crusted_Coffee_Cheesecake_Pie_with_Caramel_Sauce.jpg",
              "PhotoUrl": "http://assets.kraftfoods.com/recipe_images/opendeploy/Cinnamon-Crusted_Coffee_Cheesecake_Pie_with_Caramel_Sauce.jpg",
              "RecipeId": 61840,
              "RecipeName": "Cinnamon-Crusted Coffee Cheesecake Pie with Caramel Sauce",
              "SEOName": "cinnamon-crusted-coffee-cheesecake-pie-caramel-sauce-61840",
              "ThumbnailPhoto": null
            },
            {
              "AverageRating": 4.6,
              "HasVideo": false,
              "IsHealthyLiving": false,
              "NumberOfRatings": 20,
              "PhotoName": "Chocolate_Caramel_Pecan_Cheesecake.jpg",
              "PhotoUrl": "http://assets.kraftfoods.com/recipe_images/opendeploy/Chocolate_Caramel_Pecan_Cheesecake.jpg",
              "RecipeId": 56932,
              "RecipeName": "Chocolate Caramel Pecan Cheesecake",
              "SEOName": "chocolate-caramel-pecan-cheesecake-56932",
              "ThumbnailPhoto": null
            },
            {
              "AverageRating": 4.7,
              "HasVideo": false,
              "IsHealthyLiving": false,
              "NumberOfRatings": 250,
              "PhotoName": "54369.jpg",
              "PhotoUrl": "http://assets.kraftfoods.com/recipe_images/opendeploy/54369.jpg",
              "RecipeId": 54369,
              "RecipeName": "Ultimate Turtle Cheesecake",
              "SEOName": "ultimate-turtle-cheesecake-54369",
              "ThumbnailPhoto": null
            }
          ],
          "TotalCount": 1119
        }
      },
      "RiseIngredients": [],
      "RiseTaxonomy": [],
      "Riserecipe": [
        {
          "GRIN": 501060,
          "RecipeId": 51396,
          "RecipeIndustrySector": "Retail",
          "RecipeType": "Internal"
        }
      ],
      "RomanceText": "Caramel dessert topping flavors this easy no-bake cheesecake that is chilled in a chocolate-cookie-crumb crust.",
      "SEOName": "caramel-cheesecake-51396",
      "Tips": [
        {
          "RecipeId": 51396,
          "Sequence": 10,
          "TipDescription": "Since this indulgent cheesecake makes 12 servings, it is the perfect dessert to serve at your next party.  ",
          "TipID": 2,
          "TipName": "Size-Wise"
        },
        {
          "RecipeId": 51396,
          "Sequence": 20,
          "TipDescription": "Substitute 1 cup OREO Chocolate Cookie Crumbs for the crushed chocolate wafers.",
          "TipID": 1,
          "TipName": "Substitute"
        }
      ],
      "TotalTime": 210,
      "TradeMarkInfo": null,
      "Video": [],
      "Yield": "Makes 12 servings, one slice each."
    }
  ]
}