{
  "Metadata": {
    "PageCount": 1,
    "PageNo": 0,
    "TotalCount": 0
  },
  "Recipes": [
    {
      "AdServingKeywords": "Carrot,Chicken,Lettuce,Meat,Onion,Poultry,Vegetables,Sandwich,Easy,Nutrition and Well-Being,Asian,Dinner,Lunch,All Seasons,Back to school,Wrap,Kid-Friendly,Kids Can Cook,Kraft Salad Dressing,Miracle Whip",
      "AlternateLanguageRecipes": [],
      "Assets": [
        {
          "PictureFormats": [
            {
              "rendition": "290x194",
              "url": "http://assets.kraftfoods.com/recipe_images/opendeploy/120913_290x194.jpg"
            },
            {
              "rendition": "640x428",
              "url": "http://assets.kraftfoods.com/recipe_images/opendeploy/120913_640x428.jpg"
            },
            {
              "rendition": "600x250",
              "url": "http://assets.kraftfoods.com/recipe_images/opendeploy/120913_600x250.jpg"
            }
          ],
          "author": "BulKUpload",
          "id": "2",
          "imageType": "Primary",
          "mimeType": "image/jpeg",
          "publicationDate": null,
          "status": "1",
          "title": "120913",
          "type": "image"
        },
        {
          "PictureFormats": [
            {
              "rendition": "140x90",
              "url": "http://assets.kraftfoods.com/recipe_images/opendeploy/120913_MXM_K56834V1_OR1_CR_140x90.jpg"
            },
            {
              "rendition": "300x250",
              "url": "http://assets.kraftfoods.com/recipe_images/opendeploy/120913_MXM_K56834V1_OR1_CR_300x250.jpg"
            },
            {
              "rendition": "960x300",
              "url": "http://assets.kraftfoods.com/recipe_images/opendeploy/120913_MXM_K56834V1_OR1_CR_960x300.jpg"
            }
          ],
          "author": null,
          "id": "2",
          "imageType": "Primary",
          "mimeType": "image/jpeg",
          "publicationDate": null,
          "status": "1",
          "title": "120913_MXM_K56834V1_OR1_CR",
          "type": "image"
        },
        {
          "PictureFormats": [
            {
              "rendition": "300x200",
              "url": "http://assets.kraftfoods.com/recipe_images/120913.jpg"
            }
          ],
          "author": "BulKUpload",
          "id": "0",
          "imageType": "LANDSCAPE",
          "mimeType": "image/jpeg",
          "publicationDate": null,
          "status": "1",
          "title": "120913.jpg",
          "type": "image"
        }
      ],
      "AverageRating": 4.3,
      "BrandId": 1,
      "Branding": null,
      "CSSSkins": null,
      "CarbCounter": "",
      "Categories": [
        {
          "CategoryID": 11,
          "CategoryName": "Primary",
          "CategoryRank": 0,
          "SubCategoryID": 105,
          "SubCategoryName": "Sandwiches",
          "SubCategoryRank": 80
        },
        {
          "CategoryID": 14,
          "CategoryName": "Soup/Sandwiches",
          "CategoryRank": 14,
          "SubCategoryID": 162,
          "SubCategoryName": "Wrapped Sandwiches",
          "SubCategoryRank": 120
        },
        {
          "CategoryID": 751,
          "CategoryName": "Breads, Sandwiches, Wraps & Burgers",
          "CategoryRank": 5,
          "SubCategoryID": 2531,
          "SubCategoryName": "Fresh",
          "SubCategoryRank": 1
        },
        {
          "CategoryID": 751,
          "CategoryName": "Breads, Sandwiches, Wraps & Burgers",
          "CategoryRank": 5,
          "SubCategoryID": 2532,
          "SubCategoryName": "Toasted / Grilled / Cooked",
          "SubCategoryRank": 1
        }
      ],
      "Classifications": [
        {
          "ClassficationId": 13,
          "ClassificationName": "Good source of vitamin A or C"
        },
        {
          "ClassficationId": 14,
          "ClassificationName": "Generally Nutritious"
        }
      ],
      "ComplimentaryRecipes": [
        {
          "AverageRating": 0,
          "HasVideo": false,
          "IsHealthyLiving": false,
          "NumberOfRatings": 0,
          "PhotoName": null,
          "PhotoUrl": null,
          "RecipeId": 118056,
          "RecipeName": null,
          "SEOName": "lemon-dream-squares-118056",
          "ThumbnailPhoto": "118056.jpg"
        }
      ],
      "CookingMethod": null,
      "Copyright": null,
      "Courses": [
        "Sandwiches"
      ],
      "DietExchange": "3 Starch,3 Meat (L),1-1/2 Fat",
      "DishDetails": [
        {
          "Text": "chicken recipes",
          "Url": "/recipes/dinner/chicken-recipes/main.aspx"
        },
        {
          "Text": "grilled chicken recipes",
          "Url": "/recipes/dinner/chicken-recipes/grilled-chicken/main.aspx"
        },
        {
          "Text": "healthy living chicken recipes",
          "Url": "/recipes/dinner/chicken-recipes/hl/main.aspx"
        },
        {
          "Text": "slow cooker chicken recipes",
          "Url": "/recipes/dinner/chicken-recipes/slow-cooker/main.aspx"
        },
        {
          "Text": "whole chicken recipes",
          "Url": "/recipes/dinner/chicken-recipes/whole-chicken/main.aspx"
        },
        {
          "Text": "chicken breast recipes",
          "Url": "/recipes/dinner/chicken-recipes/chicken-breast/main.aspx"
        },
        {
          "Text": "chicken casseroles",
          "Url": "/recipes/dinner/chicken-recipes/casseroles/main.aspx"
        },
        {
          "Text": "chicken pasta recipes",
          "Url": "/recipes/dinner/chicken-recipes/pasta-dishes/main.aspx"
        },
        {
          "Text": "chicken salad recipes",
          "Url": "/recipes/dinner/chicken-recipes/salads/main.aspx"
        },
        {
          "Text": "chicken stir-fry recipes",
          "Url": "/recipes/dinner/chicken-recipes/stir-fry/main.aspx"
        },
        {
          "Text": "chicken wing recipes",
          "Url": "/recipes/appetizers/chicken-wing-recipes/main.aspx"
        },
        {
          "Text": "baked chicken recipes",
          "Url": "/recipes/dinner/chicken-recipes/baked-chicken/main.aspx"
        },
        {
          "Text": "bbq chicken recipes",
          "Url": "/recipes/holidays-and-entertaining/entertaining/summer/bbq-recipes/bbq-chicken-recipes/main.aspx"
        }
      ],
      "EndDate": "/Date(-62135575200000-0600)/",
      "HasVideo": false,
      "Ingredients": [
        {
          "FullMeasure": "1/4 cup",
          "FullWeight": "",
          "IngredientGridHeaders": null,
          "IngredientID": 13883,
          "IngredientName": "KRAFT Asian Toasted Sesame Dressing",
          "IngredientStep": 10,
          "LanguageId": 0,
          "PostPreparation": "",
          "PrePreparation": "",
          "QuantityNum": 0,
          "QuantityText": "1/4",
          "QuantityUnit": "cup",
          "RecipeIngredientID": 4949429,
          "TrialMeasure": "",
          "TrialWeight": ""
        },
        {
          "FullMeasure": "2 Tbsp.",
          "FullWeight": "",
          "IngredientGridHeaders": null,
          "IngredientID": 555,
          "IngredientName": "MIRACLE WHIP Dressing",
          "IngredientStep": 20,
          "LanguageId": 0,
          "PostPreparation": "",
          "PrePreparation": "",
          "QuantityNum": 2,
          "QuantityText": "2",
          "QuantityUnit": "Tbsp.",
          "RecipeIngredientID": 4949430,
          "TrialMeasure": "",
          "TrialWeight": ""
        },
        {
          "FullMeasure": "4  cups",
          "FullWeight": "",
          "IngredientGridHeaders": null,
          "IngredientID": 1297,
          "IngredientName": "lettuce",
          "IngredientStep": 30,
          "LanguageId": 0,
          "PostPreparation": "",
          "PrePreparation": "shredded",
          "QuantityNum": 4,
          "QuantityText": "4 ",
          "QuantityUnit": "cups",
          "RecipeIngredientID": 4949434,
          "TrialMeasure": "",
          "TrialWeight": ""
        },
        {
          "FullMeasure": "2 cups",
          "FullWeight": "",
          "IngredientGridHeaders": null,
          "IngredientID": 897,
          "IngredientName": "chicken",
          "IngredientStep": 40,
          "LanguageId": 0,
          "PostPreparation": "",
          "PrePreparation": "chopped cooked",
          "QuantityNum": 2,
          "QuantityText": "2",
          "QuantityUnit": "cups",
          "RecipeIngredientID": 4949435,
          "TrialMeasure": "",
          "TrialWeight": ""
        },
        {
          "FullMeasure": "1 large",
          "FullWeight": "",
          "IngredientGridHeaders": null,
          "IngredientID": 883,
          "IngredientName": "carrot",
          "IngredientStep": 50,
          "LanguageId": 0,
          "PostPreparation": ", shredded",
          "PrePreparation": "",
          "QuantityNum": 1,
          "QuantityText": "1",
          "QuantityUnit": "large",
          "RecipeIngredientID": 4949433,
          "TrialMeasure": "",
          "TrialWeight": ""
        },
        {
          "FullMeasure": "1 ",
          "FullWeight": "",
          "IngredientGridHeaders": null,
          "IngredientID": 1823,
          "IngredientName": "green onion",
          "IngredientStep": 60,
          "LanguageId": 0,
          "PostPreparation": ", thinly sliced",
          "PrePreparation": "",
          "QuantityNum": 1,
          "QuantityText": "1 ",
          "QuantityUnit": "",
          "RecipeIngredientID": 4949431,
          "TrialMeasure": "",
          "TrialWeight": ""
        },
        {
          "FullMeasure": "4 [ ]",
          "FullWeight": "",
          "IngredientGridHeaders": null,
          "IngredientID": 1082,
          "IngredientName": "flour tortilla",
          "IngredientStep": 70,
          "LanguageId": 0,
          "PostPreparation": "s (10 inch)",
          "PrePreparation": "",
          "QuantityNum": 4,
          "QuantityText": "4",
          "QuantityUnit": "",
          "RecipeIngredientID": 4949432,
          "TrialMeasure": "",
          "TrialWeight": ""
        }
      ],
      "IsHealthyLiving": true,
      "KRLId": "561894",
      "KeyIngredients": [
        "Carrot",
        "Chicken",
        "Lettuce",
        "Meat",
        "Onion",
        "Poultry",
        "Vegetables"
      ],
      "Keywords": "onions,carrots,chicken,dressing,KRAFT Dressing,lettuce,meat,MIRACLE WHIP Dressing,salad dressing,scallions,tortillas,green onions,mayo type dressing,Sandwich,Easy,Nutrition and Well-Being,Asian,Dinner,Lunch,All Seasons,Back to school,Wrap,Kid-Friendly,Kids Can Cook",
      "LanguageId": 1,
      "LifeStyles": [
        "Good source of vitamin A or C",
        "Generally Nutritious"
      ],
      "NumberOfIngredients": 7,
      "NumberOfRatings": 7,
      "NumberOfRatingsWithComments": "7",
      "NumberOfServings": "4 servings",
      "NumberOfTrialServings": "",
      "NutritionBonus": "These Asian-inspired wraps are high in vitamin A from the carrots.  ",
      "NutritionExchangeItemId": 1,
      "NutritionGridItems": null,
      "NutritionItems": [
        {
          "DisplayOrder": 1,
          "Document": null,
          "NutritionItemID": 3,
          "NutritionItemName": "Calories",
          "Predriscriptor": "",
          "Quantity": 440,
          "Unit": "          "
        },
        {
          "DisplayOrder": 2,
          "Document": "fat_cholesterol.html",
          "NutritionItemID": 4,
          "NutritionItemName": "Total fat",
          "Predriscriptor": "",
          "Quantity": 15,
          "Unit": "g         "
        },
        {
          "DisplayOrder": 3,
          "Document": "fat_cholesterol.html",
          "NutritionItemID": 9,
          "NutritionItemName": "Saturated fat",
          "Predriscriptor": "",
          "Quantity": 3.5,
          "Unit": "g         "
        },
        {
          "DisplayOrder": 7,
          "Document": "fat_cholesterol.html",
          "NutritionItemID": 2,
          "NutritionItemName": "Cholesterol",
          "Predriscriptor": "",
          "Quantity": 65,
          "Unit": "mg        "
        },
        {
          "DisplayOrder": 8,
          "Document": "sodium.html",
          "NutritionItemID": 8,
          "NutritionItemName": "Sodium",
          "Predriscriptor": "",
          "Quantity": 780,
          "Unit": "mg        "
        },
        {
          "DisplayOrder": 10,
          "Document": "carbs_sugars_fiber.html",
          "NutritionItemID": 1,
          "NutritionItemName": "Carbohydrate",
          "Predriscriptor": "",
          "Quantity": 46,
          "Unit": "g         "
        },
        {
          "DisplayOrder": 11,
          "Document": "carbs_sugars_fiber.html",
          "NutritionItemID": 7,
          "NutritionItemName": "Dietary fiber",
          "Predriscriptor": "",
          "Quantity": 4,
          "Unit": "g         "
        },
        {
          "DisplayOrder": 12,
          "Document": "carbs_sugars_fiber.html",
          "NutritionItemID": 5,
          "NutritionItemName": "Sugars",
          "Predriscriptor": "",
          "Quantity": 6,
          "Unit": "g         "
        },
        {
          "DisplayOrder": 13,
          "Document": null,
          "NutritionItemID": 6,
          "NutritionItemName": "Protein",
          "Predriscriptor": "",
          "Quantity": 27,
          "Unit": "g         "
        },
        {
          "DisplayOrder": 14,
          "Document": null,
          "NutritionItemID": 10,
          "NutritionItemName": "Vitamin A",
          "Predriscriptor": "",
          "Quantity": 80,
          "Unit": "%DV       "
        },
        {
          "DisplayOrder": 15,
          "Document": null,
          "NutritionItemID": 11,
          "NutritionItemName": "Vitamin C",
          "Predriscriptor": "",
          "Quantity": 6,
          "Unit": "%DV       "
        },
        {
          "DisplayOrder": 16,
          "Document": "dairy_and_calcium.html",
          "NutritionItemID": 12,
          "NutritionItemName": "Calcium",
          "Predriscriptor": "",
          "Quantity": 15,
          "Unit": "%DV       "
        },
        {
          "DisplayOrder": 17,
          "Document": null,
          "NutritionItemID": 13,
          "NutritionItemName": "Iron",
          "Predriscriptor": "",
          "Quantity": 20,
          "Unit": "%DV       "
        }
      ],
      "NutritionServingText": "",
      "PrepStepImage": null,
      "PreparationDescription": "Mix dressings in large bowl.  $Add lettuce, chicken, carrots and onions; mix lightly.$Spoon onto tortillas; roll up.",
      "PreparationPreText": "",
      "PreparationSteps": [
        {
          "Description": "Mix dressings in large bowl.  ",
          "PreparationStepImage": {
            "PictureFormats": [],
            "author": null,
            "id": null,
            "imageType": null,
            "mimeType": null,
            "publicationDate": null,
            "status": null,
            "title": null,
            "type": null
          },
          "Sequence": 1
        },
        {
          "Description": "Add lettuce, chicken, carrots and onions; mix lightly.",
          "PreparationStepImage": {
            "PictureFormats": [],
            "author": null,
            "id": null,
            "imageType": null,
            "mimeType": null,
            "publicationDate": null,
            "status": null,
            "title": null,
            "type": null
          },
          "Sequence": 2
        },
        {
          "Description": "Spoon onto tortillas; roll up.",
          "PreparationStepImage": {
            "PictureFormats": [],
            "author": null,
            "id": null,
            "imageType": null,
            "mimeType": null,
            "publicationDate": null,
            "status": null,
            "title": null,
            "type": null
          },
          "Sequence": 3
        }
      ],
      "PreparationTime": 15,
      "Promotion": null,
      "Ratings": {
        "TotalCount": 7,
        "PageCount": 10,
        "PageNo": 1,
        "Rating": [
          {
            "Comment": "Easy and great tasting. I would make this again. Also makes a great salad even without the tortilla wraps.",
            "DisplayName": true,
            "RatingValue": 5,
            "SubmitDate": "/Date(1355618182000-0600)/",
            "UpdatedDate": "/Date(1358121509000-0600)/",
            "UserName": "kebri41"
          },
          {
            "Comment": "I used bread instead of tortillas.  It was very good.",
            "DisplayName": true,
            "RatingValue": 5,
            "SubmitDate": "/Date(1342697148000-0500)/",
            "UpdatedDate": "/Date(1343815285000-0500)/",
            "UserName": "xiuxiu02"
          },
          {
            "Comment": "Such a great taste. Made a little extra sauce. Very light, fresh taste",
            "DisplayName": true,
            "RatingValue": 5,
            "SubmitDate": "/Date(1311384012000-0500)/",
            "UpdatedDate": "/Date(1332706185000-0500)/",
            "UserName": "Bethkawski"
          },
          {
            "Comment": "We loved these!  I sprinkled the chicken with Asian spices, garlic powder & pepper before cooking it in the microwave and also added the same spices to the vegetable mixture.  I used a bag of broccoli slaw instead of the lettuce and used a bit more of the dressing & mayo. I put mixture into tortillas right before we ate them so the tortillas wouldn't get soggy. ",
            "DisplayName": true,
            "RatingValue": 5,
            "SubmitDate": "/Date(1303257679000-0500)/",
            "UpdatedDate": "/Date(1303257679000-0500)/",
            "UserName": "hersheykiss5"
          },
          {
            "Comment": "My husband & I both liked these a lot. Used rice noodles to give it some extra crunch.  Will definitely make again.",
            "DisplayName": false,
            "RatingValue": 4,
            "SubmitDate": "/Date(1300748740000-0500)/",
            "UpdatedDate": "/Date(1300748740000-0500)/",
            "UserName": "kimberlyhass01"
          },
          {
            "Comment": "I enjoyed these wraps a lot.  I was concerned about the lettuce getting soggy if I had leftovers so I kept the meat separate from the veggies and only put the dressing on the meat.  I put the meat mixture on the tortilla first and then piled the veggies on top of that.  Rolled it up and then toasted it lightly on my Foreman grill.  It was way good!  I would definitely make this again.  *I did use the crunchy toasted almonds too to add even more crunch.  YUM!",
            "DisplayName": true,
            "RatingValue": 4,
            "SubmitDate": "/Date(1300308942000-0500)/",
            "UpdatedDate": "/Date(1300308942000-0500)/",
            "UserName": "Chandrasekhar"
          },
          {
            "Comment": "sauce was too strong for me and kind of soggy, i like my wraps more crunchy",
            "DisplayName": true,
            "RatingValue": 2,
            "SubmitDate": "/Date(1300307918000-0500)/",
            "UpdatedDate": "/Date(1300307918000-0500)/",
            "UserName": "mnorris21"
          }
        ]
      },
      "RecipeDisplayFormatId": 5,
      "RecipeId": 120913,
      "RecipeName": "Crunchy Asian Chicken Wraps",
      "RecipeType": 0,
      "RelatedData": {
        "RelatedBrands": null,
        "RelatedProducts": null,
        "RelatedRecipes": {
          "DefaultTopCount": 5,
          "Recipe": [
            {
              "AverageRating": 4,
              "HasVideo": false,
              "IsHealthyLiving": false,
              "NumberOfRatings": 3,
              "PhotoName": "Crunchy_Asian_Chicken_Salad.jpg",
              "PhotoUrl": "http://assets.kraftfoods.com/recipe_images/opendeploy/Crunchy_Asian_Chicken_Salad.jpg",
              "RecipeId": 106838,
              "RecipeName": "Crunchy Asian Chicken Salad",
              "SEOName": "crunchy-asian-chicken-salad-106838",
              "ThumbnailPhoto": null
            },
            {
              "AverageRating": 4.1,
              "HasVideo": false,
              "IsHealthyLiving": false,
              "NumberOfRatings": 90,
              "PhotoName": "109739.jpg",
              "PhotoUrl": "http://assets.kraftfoods.com/recipe_images/opendeploy/109739.jpg",
              "RecipeId": 109739,
              "RecipeName": "Crunchy Asian Broccoli Coleslaw Recipe",
              "SEOName": "crunchy-asian-broccoli-coleslaw-recipe-109739",
              "ThumbnailPhoto": null
            },
            {
              "AverageRating": 4.6,
              "HasVideo": false,
              "IsHealthyLiving": false,
              "NumberOfRatings": 214,
              "PhotoName": "opendeploy/60552-51e0d3dbd930a5d087ccffea8e0b212cbc11a568_306x204.jpg",
              "PhotoUrl": "http://assets.kraftfoods.com/recipe_images/opendeploy/opendeploy/60552-51e0d3dbd930a5d087ccffea8e0b212cbc11a568_306x204.jpg",
              "RecipeId": 60552,
              "RecipeName": "Crunchy Asian Salad",
              "SEOName": "crunchy-asian-salad-60552",
              "ThumbnailPhoto": null
            },
            {
              "AverageRating": 4,
              "HasVideo": false,
              "IsHealthyLiving": false,
              "NumberOfRatings": 4,
              "PhotoName": "118669.jpg",
              "PhotoUrl": "http://assets.kraftfoods.com/recipe_images/opendeploy/118669.jpg",
              "RecipeId": 118669,
              "RecipeName": "Sesame-Chicken Spring Roll",
              "SEOName": "sesame-chicken-spring-roll-118669",
              "ThumbnailPhoto": null
            },
            {
              "AverageRating": 4.4,
              "HasVideo": false,
              "IsHealthyLiving": false,
              "NumberOfRatings": 28,
              "PhotoName": "104898.jpg",
              "PhotoUrl": "http://assets.kraftfoods.com/recipe_images/opendeploy/104898.jpg",
              "RecipeId": 104898,
              "RecipeName": "Crunchy Tuna Salad Wrap",
              "SEOName": "crunchy-tuna-salad-wrap-104898",
              "ThumbnailPhoto": null
            }
          ],
          "TotalCount": 1791
        }
      },
      "RiseIngredients": [],
      "RiseTaxonomy": [],
      "Riserecipe": [
        {
          "GRIN": 561894,
          "RecipeId": 120913,
          "RecipeIndustrySector": "Retail",
          "RecipeType": "Internal"
        }
      ],
      "RomanceText": "Toasted sesame dressing and crunchy veggies give these quick and easy chicken wraps their Asian-inspired appeal.",
      "SEOName": "crunchy-asian-chicken-wraps-120913",
      "Tips": [
        {
          "RecipeId": 120913,
          "Sequence": 10,
          "TipDescription": "For added convenience, substitute 4 cups bagged salad greens for the shredded lettuce.",
          "TipID": 1,
          "TipName": "Shortcut"
        },
        {
          "RecipeId": 120913,
          "Sequence": 20,
          "TipDescription": "Mix 1/4 cup toasted PLANTERS Sliced Almonds with the chicken mixture before spooning onto tortillas and rolling up.  ",
          "TipID": 2,
          "TipName": "Special Extra"
        },
        {
          "RecipeId": 120913,
          "Sequence": 30,
          "TipDescription": "Substitute 1 pkg. (9 oz.) OSCAR MAYER CARVING BOARD Flame Grilled Chicken Breast Strips for the chopped cooked fresh chicken.",
          "TipID": 3,
          "TipName": "Shortcut"
        }
      ],
      "TotalTime": 15,
      "TradeMarkInfo": null,
      "Video": [],
      "Yield": "Makes 4 servings."
    }
  ]
}