{
  "Metadata": {
    "PageCount": 1,
    "PageNo": 0,
    "TotalCount": 0
  },
  "Recipes": [
    {
      "AdServingKeywords": "Chicken,Coconut,Cream Cheese,Dairy,Fruit,Garlic,Mango,Meat,Onion,Peppers,Poultry,Vegetables,Entree,Intermediate,Top of Stove,Caribbean,Skillet Dish,Stew,Dinner,All Seasons,Kraft Salad Dressing,Philadelphia",
      "AlternateLanguageRecipes": [
        {
          "LanguageId": "2",
          "RecipeId": "90942",
          "SiteId": "90"
        }
      ],
      "Assets": [
        {
          "PictureFormats": [
            {
              "rendition": "300x200",
              "url": "http://assets.kraftfoods.com/recipe_images/Coconut_Mango_Chicken_Stew.jpg"
            }
          ],
          "author": null,
          "id": "0",
          "imageType": "LANDSCAPE",
          "mimeType": null,
          "publicationDate": null,
          "status": "1",
          "title": "Coconut_Mango_Chicken_Stew.jpg",
          "type": "image"
        }
      ],
      "AverageRating": 4.3,
      "BrandId": 90,
      "Branding": null,
      "CSSSkins": null,
      "CarbCounter": null,
      "Categories": [
        {
          "CategoryID": 2,
          "CategoryName": "Poultry Entrees",
          "CategoryRank": 11,
          "SubCategoryID": 377,
          "SubCategoryName": "Top of Stove",
          "SubCategoryRank": 100
        },
        {
          "CategoryID": 11,
          "CategoryName": "Primary",
          "CategoryRank": 0,
          "SubCategoryID": 97,
          "SubCategoryName": "Entrees",
          "SubCategoryRank": 50
        },
        {
          "CategoryID": 755,
          "CategoryName": "International Flavours",
          "CategoryRank": 9,
          "SubCategoryID": 2558,
          "SubCategoryName": "Mediterranean",
          "SubCategoryRank": 1
        },
        {
          "CategoryID": 756,
          "CategoryName": "Main Meals (Meat / Seafood / Egg)",
          "CategoryRank": 10,
          "SubCategoryID": 2562,
          "SubCategoryName": "Chicken",
          "SubCategoryRank": 1
        },
        {
          "CategoryID": 814,
          "CategoryName": "Latin",
          "CategoryRank": 8,
          "SubCategoryID": 3140,
          "SubCategoryName": "Poultry Entrees",
          "SubCategoryRank": 90
        },
        {
          "CategoryID": 1764,
          "CategoryName": "Philly Dinner",
          "CategoryRank": 0,
          "SubCategoryID": 16865,
          "SubCategoryName": "Brick Cream Cheese",
          "SubCategoryRank": 0
        },
        {
          "CategoryID": 1764,
          "CategoryName": "Philly Dinner",
          "CategoryRank": 0,
          "SubCategoryID": 16869,
          "SubCategoryName": "Use for All",
          "SubCategoryRank": 0
        },
        {
          "CategoryID": 1768,
          "CategoryName": "Philly International",
          "CategoryRank": 0,
          "SubCategoryID": 16887,
          "SubCategoryName": "Brick Cream Cheese",
          "SubCategoryRank": 0
        },
        {
          "CategoryID": 1768,
          "CategoryName": "Philly International",
          "CategoryRank": 0,
          "SubCategoryID": 16892,
          "SubCategoryName": "Use for All",
          "SubCategoryRank": 0
        }
      ],
      "Classifications": [],
      "ComplimentaryRecipes": null,
      "CookingMethod": null,
      "Copyright": null,
      "Courses": [
        "Main dishes"
      ],
      "DietExchange": null,
      "DishDetails": [
        {
          "Text": "chicken recipes",
          "Url": "/recipes/dinner/chicken-recipes/main.aspx"
        },
        {
          "Text": "grilled chicken recipes",
          "Url": "/recipes/dinner/chicken-recipes/grilled-chicken/main.aspx"
        },
        {
          "Text": "healthy living chicken recipes",
          "Url": "/recipes/dinner/chicken-recipes/hl/main.aspx"
        },
        {
          "Text": "slow cooker chicken recipes",
          "Url": "/recipes/dinner/chicken-recipes/slow-cooker/main.aspx"
        },
        {
          "Text": "whole chicken recipes",
          "Url": "/recipes/dinner/chicken-recipes/whole-chicken/main.aspx"
        },
        {
          "Text": "chicken breast recipes",
          "Url": "/recipes/dinner/chicken-recipes/chicken-breast/main.aspx"
        },
        {
          "Text": "chicken casseroles",
          "Url": "/recipes/dinner/chicken-recipes/casseroles/main.aspx"
        },
        {
          "Text": "chicken pasta recipes",
          "Url": "/recipes/dinner/chicken-recipes/pasta-dishes/main.aspx"
        },
        {
          "Text": "chicken salad recipes",
          "Url": "/recipes/dinner/chicken-recipes/salads/main.aspx"
        },
        {
          "Text": "chicken stir-fry recipes",
          "Url": "/recipes/dinner/chicken-recipes/stir-fry/main.aspx"
        },
        {
          "Text": "chicken wing recipes",
          "Url": "/recipes/appetizers/chicken-wing-recipes/main.aspx"
        },
        {
          "Text": "baked chicken recipes",
          "Url": "/recipes/dinner/chicken-recipes/baked-chicken/main.aspx"
        },
        {
          "Text": "bbq chicken recipes",
          "Url": "/recipes/holidays-and-entertaining/entertaining/summer/bbq-recipes/bbq-chicken-recipes/main.aspx"
        }
      ],
      "EndDate": "/Date(-62135575200000-0600)/",
      "HasVideo": false,
      "Ingredients": [
        {
          "FullMeasure": "1 medium",
          "FullWeight": "",
          "IngredientGridHeaders": null,
          "IngredientID": 1370,
          "IngredientName": "onion",
          "IngredientStep": 10,
          "LanguageId": 0,
          "PostPreparation": ", thinly sliced",
          "PrePreparation": "",
          "QuantityNum": 1,
          "QuantityText": "1",
          "QuantityUnit": "medium",
          "RecipeIngredientID": 6115507,
          "TrialMeasure": "",
          "TrialWeight": ""
        },
        {
          "FullMeasure": "1/2 cup",
          "FullWeight": "",
          "IngredientGridHeaders": null,
          "IngredientID": 499,
          "IngredientName": "KRAFT Zesty Italian Dressing",
          "IngredientStep": 20,
          "LanguageId": 0,
          "PostPreparation": "",
          "PrePreparation": "",
          "QuantityNum": 0,
          "QuantityText": "1/2",
          "QuantityUnit": "cup",
          "RecipeIngredientID": 6115510,
          "TrialMeasure": "",
          "TrialWeight": ""
        },
        {
          "FullMeasure": "4 cloves",
          "FullWeight": "",
          "IngredientGridHeaders": null,
          "IngredientID": 1175,
          "IngredientName": "garlic",
          "IngredientStep": 30,
          "LanguageId": 0,
          "PostPreparation": ", minced",
          "PrePreparation": "",
          "QuantityNum": 4,
          "QuantityText": "4",
          "QuantityUnit": "cloves",
          "RecipeIngredientID": 6115512,
          "TrialMeasure": "",
          "TrialWeight": ""
        },
        {
          "FullMeasure": "3 lb.",
          "FullWeight": "",
          "IngredientGridHeaders": null,
          "IngredientID": 897,
          "IngredientName": "chicken",
          "IngredientStep": 40,
          "LanguageId": 0,
          "PostPreparation": " pieces (breasts, thighs and drumsticks)",
          "PrePreparation": "assorted bone-in",
          "QuantityNum": 3,
          "QuantityText": "3",
          "QuantityUnit": "lb.",
          "RecipeIngredientID": 6115513,
          "TrialMeasure": "",
          "TrialWeight": ""
        },
        {
          "FullMeasure": "1 can",
          "FullWeight": "",
          "IngredientGridHeaders": null,
          "IngredientID": 6976,
          "IngredientName": "coconut milk",
          "IngredientStep": 50,
          "LanguageId": 0,
          "PostPreparation": "",
          "PrePreparation": " (13.5 oz.)",
          "QuantityNum": 1,
          "QuantityText": "1",
          "QuantityUnit": "can",
          "RecipeIngredientID": 6115509,
          "TrialMeasure": "",
          "TrialWeight": ""
        },
        {
          "FullMeasure": "1-1/4 cups",
          "FullWeight": "",
          "IngredientGridHeaders": null,
          "IngredientID": 1345,
          "IngredientName": "milk",
          "IngredientStep": 60,
          "LanguageId": 0,
          "PostPreparation": "",
          "PrePreparation": "2%",
          "QuantityNum": 1,
          "QuantityText": "1-1/4",
          "QuantityUnit": "cups",
          "RecipeIngredientID": 6115508,
          "TrialMeasure": "",
          "TrialWeight": ""
        },
        {
          "FullMeasure": "4 oz.",
          "FullWeight": "",
          "IngredientGridHeaders": null,
          "IngredientID": 628,
          "IngredientName": "PHILADELPHIA Cream Cheese",
          "IngredientStep": 70,
          "LanguageId": 0,
          "PostPreparation": ", cubed",
          "PrePreparation": " (1/2 of 8-oz. pkg.)",
          "QuantityNum": 4,
          "QuantityText": "4",
          "QuantityUnit": "oz.",
          "RecipeIngredientID": 6115511,
          "TrialMeasure": "",
          "TrialWeight": ""
        },
        {
          "FullMeasure": "1 medium",
          "FullWeight": "",
          "IngredientGridHeaders": null,
          "IngredientID": 1206,
          "IngredientName": "green pepper",
          "IngredientStep": 80,
          "LanguageId": 0,
          "PostPreparation": ", cut into thin strips",
          "PrePreparation": "",
          "QuantityNum": 1,
          "QuantityText": "1",
          "QuantityUnit": "medium",
          "RecipeIngredientID": 6115504,
          "TrialMeasure": "",
          "TrialWeight": ""
        },
        {
          "FullMeasure": "1 medium",
          "FullWeight": "",
          "IngredientGridHeaders": null,
          "IngredientID": 1523,
          "IngredientName": "red pepper",
          "IngredientStep": 90,
          "LanguageId": 0,
          "PostPreparation": ", cut into thin strips",
          "PrePreparation": "",
          "QuantityNum": 1,
          "QuantityText": "1",
          "QuantityUnit": "medium",
          "RecipeIngredientID": 6115505,
          "TrialMeasure": "",
          "TrialWeight": ""
        },
        {
          "FullMeasure": "2 medium",
          "FullWeight": "",
          "IngredientGridHeaders": null,
          "IngredientID": 4097,
          "IngredientName": "mangos",
          "IngredientStep": 100,
          "LanguageId": 0,
          "PostPreparation": ", cut into 1-inch chunks",
          "PrePreparation": "",
          "QuantityNum": 2,
          "QuantityText": "2",
          "QuantityUnit": "medium",
          "RecipeIngredientID": 6115506,
          "TrialMeasure": "",
          "TrialWeight": ""
        }
      ],
      "IsHealthyLiving": false,
      "KRLId": "554735",
      "KeyIngredients": [
        "Chicken",
        "Coconut",
        "Cream Cheese",
        "Dairy",
        "Fruit",
        "Garlic",
        "Mango",
        "Meat",
        "Onion",
        "Peppers",
        "Poultry",
        "Vegetables"
      ],
      "Keywords": "onions,peppers,PHILADELPHIA Cream Cheese,red peppers,cheese,chicken,cream cheese,dressing,green peppers,italian dressing,KRAFT Dressing,mangoes,meat,milk,salad dressing,garlic,bell peppers,coconut milk,Entree,Top of Stove,Intermediate,Caribbean,Dinner,Skillet Dish,Stew,All Seasons",
      "LanguageId": 1,
      "LifeStyles": [],
      "NumberOfIngredients": 10,
      "NumberOfRatings": 4,
      "NumberOfRatingsWithComments": "3",
      "NumberOfServings": "8 servings",
      "NumberOfTrialServings": "",
      "NutritionBonus": null,
      "NutritionExchangeItemId": 0,
      "NutritionGridItems": null,
      "NutritionItems": [
        {
          "DisplayOrder": 1,
          "Document": null,
          "NutritionItemID": 3,
          "NutritionItemName": "Calories",
          "Predriscriptor": "",
          "Quantity": 410,
          "Unit": "          "
        },
        {
          "DisplayOrder": 2,
          "Document": "fat_cholesterol.html",
          "NutritionItemID": 4,
          "NutritionItemName": "Total fat",
          "Predriscriptor": "",
          "Quantity": 29,
          "Unit": "g         "
        },
        {
          "DisplayOrder": 3,
          "Document": "fat_cholesterol.html",
          "NutritionItemID": 9,
          "NutritionItemName": "Saturated fat",
          "Predriscriptor": "",
          "Quantity": 16,
          "Unit": "g         "
        },
        {
          "DisplayOrder": 7,
          "Document": "fat_cholesterol.html",
          "NutritionItemID": 2,
          "NutritionItemName": "Cholesterol",
          "Predriscriptor": "",
          "Quantity": 75,
          "Unit": "mg        "
        },
        {
          "DisplayOrder": 8,
          "Document": "sodium.html",
          "NutritionItemID": 8,
          "NutritionItemName": "Sodium",
          "Predriscriptor": "",
          "Quantity": 410,
          "Unit": "mg        "
        },
        {
          "DisplayOrder": 10,
          "Document": "carbs_sugars_fiber.html",
          "NutritionItemID": 1,
          "NutritionItemName": "Carbohydrate",
          "Predriscriptor": "",
          "Quantity": 17,
          "Unit": "g         "
        },
        {
          "DisplayOrder": 11,
          "Document": "carbs_sugars_fiber.html",
          "NutritionItemID": 7,
          "NutritionItemName": "Dietary fiber",
          "Predriscriptor": "",
          "Quantity": 3,
          "Unit": "g         "
        },
        {
          "DisplayOrder": 12,
          "Document": "carbs_sugars_fiber.html",
          "NutritionItemID": 5,
          "NutritionItemName": "Sugars",
          "Predriscriptor": "",
          "Quantity": 13,
          "Unit": "g         "
        },
        {
          "DisplayOrder": 13,
          "Document": null,
          "NutritionItemID": 6,
          "NutritionItemName": "Protein",
          "Predriscriptor": "",
          "Quantity": 22,
          "Unit": "g         "
        },
        {
          "DisplayOrder": 14,
          "Document": null,
          "NutritionItemID": 10,
          "NutritionItemName": "Vitamin A",
          "Predriscriptor": "",
          "Quantity": 25,
          "Unit": "%DV       "
        },
        {
          "DisplayOrder": 15,
          "Document": null,
          "NutritionItemID": 11,
          "NutritionItemName": "Vitamin C",
          "Predriscriptor": "",
          "Quantity": 45,
          "Unit": "%DV       "
        },
        {
          "DisplayOrder": 16,
          "Document": "dairy_and_calcium.html",
          "NutritionItemID": 12,
          "NutritionItemName": "Calcium",
          "Predriscriptor": "",
          "Quantity": 8,
          "Unit": "%DV       "
        },
        {
          "DisplayOrder": 17,
          "Document": null,
          "NutritionItemID": 13,
          "NutritionItemName": "Iron",
          "Predriscriptor": "",
          "Quantity": 15,
          "Unit": "%DV       "
        }
      ],
      "NutritionServingText": null,
      "PrepStepImage": null,
      "PreparationDescription": "Cook onions, dressing and garlic in large skillet on medium heat 3 min., stirring occasionally.  Add chicken; cook 20 min. or until browned on both sides, turning occasionally.  Reduce heat to low.  Add coconut milk and 2% milk; stir.  Cover; simmer 1 hour.$Remove chicken and onions from skillet; cover to keep warm.  Skim off fat from liquid remaining in skillet.  Add cream cheese to liquid in skillet; stir with wire whisk until well blended.$Add peppers and mangos; cover.  Simmer 5 min.  Return onions to skillet; stir.  Top with the chicken.  ",
      "PreparationPreText": null,
      "PreparationSteps": [
        {
          "Description": "Cook onions, dressing and garlic in large skillet on medium heat 3 min., stirring occasionally.  Add chicken; cook 20 min. or until browned on both sides, turning occasionally.  Reduce heat to low.  Add coconut milk and 2% milk; stir.  Cover; simmer 1 hour.",
          "PreparationStepImage": {
            "PictureFormats": [],
            "author": null,
            "id": null,
            "imageType": null,
            "mimeType": null,
            "publicationDate": null,
            "status": null,
            "title": null,
            "type": null
          },
          "Sequence": 1
        },
        {
          "Description": "Remove chicken and onions from skillet; cover to keep warm.  Skim off fat from liquid remaining in skillet.  Add cream cheese to liquid in skillet; stir with wire whisk until well blended.",
          "PreparationStepImage": {
            "PictureFormats": [],
            "author": null,
            "id": null,
            "imageType": null,
            "mimeType": null,
            "publicationDate": null,
            "status": null,
            "title": null,
            "type": null
          },
          "Sequence": 2
        },
        {
          "Description": "Add peppers and mangos; cover.  Simmer 5 min.  Return onions to skillet; stir.  Top with the chicken.  ",
          "PreparationStepImage": {
            "PictureFormats": [],
            "author": null,
            "id": null,
            "imageType": null,
            "mimeType": null,
            "publicationDate": null,
            "status": null,
            "title": null,
            "type": null
          },
          "Sequence": 3
        }
      ],
      "PreparationTime": 15,
      "Promotion": null,
      "Ratings": {
        "TotalCount": 4,
        "PageCount": 10,
        "PageNo": 1,
        "Rating": [
          {
            "Comment": "Really excellent. I felt that it needed something though, like a sort of seasoning or herb to offset the sweetness. Will make again soon!",
            "DisplayName": true,
            "RatingValue": 4,
            "SubmitDate": "/Date(1277890587000-0500)/",
            "UpdatedDate": "/Date(1277890587000-0500)/",
            "UserName": "vcl06"
          },
          {
            "Comment": "",
            "DisplayName": true,
            "RatingValue": 3,
            "SubmitDate": "/Date(1253579845000-0500)/",
            "UpdatedDate": "/Date(1253579845000-0500)/",
            "UserName": "floridachick1"
          },
          {
            "Comment": "Hola esta Receta quedo de Maravilla la hice como cena para unos familiares y quedaron encantados..muchisimas gracias..",
            "DisplayName": true,
            "RatingValue": 5,
            "SubmitDate": "/Date(1193677097000-0500)/",
            "UpdatedDate": "/Date(1193677097000-0500)/",
            "UserName": "silvia02"
          },
          {
            "Comment": "Riquisimo! Mi familia quedo encantada con este platillo. Fue muy facil de cosinar y le encanto a todos !\r\nGracias X La Reseta.\r\n\r\nCarla*Costa Mesa*California",
            "DisplayName": true,
            "RatingValue": 5,
            "SubmitDate": "/Date(1139018274000-0600)/",
            "UpdatedDate": "/Date(1139018274000-0600)/",
            "UserName": "carla1482"
          }
        ]
      },
      "RecipeDisplayFormatId": 5,
      "RecipeId": 90941,
      "RecipeName": "Mango-Coconut Chicken Recipe",
      "RecipeType": 0,
      "RelatedData": {
        "RelatedBrands": null,
        "RelatedProducts": null,
        "RelatedRecipes": {
          "DefaultTopCount": 5,
          "Recipe": [
            {
              "AverageRating": 4.5,
              "HasVideo": false,
              "IsHealthyLiving": false,
              "NumberOfRatings": 17,
              "PhotoName": "121171.jpg",
              "PhotoUrl": "http://assets.kraftfoods.com/recipe_images/opendeploy/121171.jpg",
              "RecipeId": 121171,
              "RecipeName": "Coconut-Chicken Dippers",
              "SEOName": "coconut-chicken-dippers-121171",
              "ThumbnailPhoto": null
            },
            {
              "AverageRating": 4.3,
              "HasVideo": false,
              "IsHealthyLiving": false,
              "NumberOfRatings": 18,
              "PhotoName": "Tropical_Cheesecake.jpg",
              "PhotoUrl": "http://assets.kraftfoods.com/recipe_images/opendeploy/Tropical_Cheesecake.jpg",
              "RecipeId": 50612,
              "RecipeName": "Tropical Cheesecake",
              "SEOName": "tropical-cheesecake-50612",
              "ThumbnailPhoto": null
            },
            {
              "AverageRating": 5,
              "HasVideo": false,
              "IsHealthyLiving": false,
              "NumberOfRatings": 1,
              "PhotoName": "Pineapple-Mango-Cheesecake-62688.jpg",
              "PhotoUrl": "http://assets.kraftfoods.com/recipe_images/opendeploy/Pineapple-Mango-Cheesecake-62688.jpg",
              "RecipeId": 149291,
              "RecipeName": "Pineapple-Mango Cheesecake",
              "SEOName": "pineapple-mango-cheesecake-149291",
              "ThumbnailPhoto": null
            },
            {
              "AverageRating": 5,
              "HasVideo": true,
              "IsHealthyLiving": false,
              "NumberOfRatings": 1,
              "PhotoName": "18-Utokias-Pecan-Coconut-Crusted-Fish.jpg",
              "PhotoUrl": "http://assets.kraftfoods.com/recipe_images/opendeploy/18-Utokias-Pecan-Coconut-Crusted-Fish.jpg",
              "RecipeId": 177875,
              "RecipeName": "Utokia's Pecan Coconut Crusted Fish",
              "SEOName": "utokias-pecan-coconut-crusted-fish-177875",
              "ThumbnailPhoto": null
            },
            {
              "AverageRating": 4.5,
              "HasVideo": false,
              "IsHealthyLiving": true,
              "NumberOfRatings": 107,
              "PhotoName": "63763.jpg",
              "PhotoUrl": "http://assets.kraftfoods.com/recipe_images/opendeploy/63763.jpg",
              "RecipeId": 63763,
              "RecipeName": "Chicken, Spinach and Mango Salad Recipe",
              "SEOName": "chicken-spinach-mango-salad-recipe-63763",
              "ThumbnailPhoto": null
            }
          ],
          "TotalCount": 3320
        }
      },
      "RiseIngredients": [],
      "RiseTaxonomy": [],
      "Riserecipe": [
        {
          "GRIN": 554735,
          "RecipeId": 90941,
          "RecipeIndustrySector": "Retail",
          "RecipeType": "Internal"
        }
      ],
      "RomanceText": "Get out some mangos and coconut milk to make our Mango-Coconut Chicken Recipe for stew! This savory coconut chicken recipe makes a great warm main dish.",
      "SEOName": "mango-coconut-chicken-recipe-90941",
      "Tips": [
        {
          "RecipeId": 90941,
          "Sequence": 10,
          "TipDescription": "Serve with hot cooked brown rice.",
          "TipID": 2,
          "TipName": "Serving Suggestion"
        },
        {
          "RecipeId": 90941,
          "Sequence": 20,
          "TipDescription": "Substitute papayas for the mangos.",
          "TipID": 1,
          "TipName": "Substitute"
        }
      ],
      "TotalTime": 100,
      "TradeMarkInfo": null,
      "Video": [],
      "Yield": "Makes 8 servings."
    }
  ]
}