{
  "Metadata": {
    "PageCount": 1,
    "PageNo": 0,
    "TotalCount": 0
  },
  "Recipes": [
    {
      "AdServingKeywords": "Aluminum Foil,Beef,Cereal,Eggs,Ground Beef,Meat,Onion,Peppers,Potato,Vegetables,Kraft Barbecue Sauce,All Seasons,Dinner,Meatloaf",
      "AlternateLanguageRecipes": [],
      "Assets": [],
      "AverageRating": 0,
      "BrandId": 1,
      "Branding": null,
      "CSSSkins": null,
      "CarbCounter": "2-1/2",
      "Categories": [
        {
          "CategoryID": 7,
          "CategoryName": "Pork/Beef Entrees",
          "CategoryRank": 10,
          "SubCategoryID": 416,
          "SubCategoryName": "Meatloaf",
          "SubCategoryRank": 120
        },
        {
          "CategoryID": 11,
          "CategoryName": "Primary",
          "CategoryRank": 0,
          "SubCategoryID": 97,
          "SubCategoryName": "Entrees",
          "SubCategoryRank": 50
        },
        {
          "CategoryID": 756,
          "CategoryName": "Main Meals (Meat / Seafood / Egg)",
          "CategoryRank": 10,
          "SubCategoryID": 2562,
          "SubCategoryName": "Chicken",
          "SubCategoryRank": 1
        },
        {
          "CategoryID": 756,
          "CategoryName": "Main Meals (Meat / Seafood / Egg)",
          "CategoryRank": 10,
          "SubCategoryID": 2563,
          "SubCategoryName": "Beef",
          "SubCategoryRank": 1
        },
        {
          "CategoryID": 756,
          "CategoryName": "Main Meals (Meat / Seafood / Egg)",
          "CategoryRank": 10,
          "SubCategoryID": 2564,
          "SubCategoryName": "Pork",
          "SubCategoryRank": 1
        },
        {
          "CategoryID": 756,
          "CategoryName": "Main Meals (Meat / Seafood / Egg)",
          "CategoryRank": 10,
          "SubCategoryID": 2565,
          "SubCategoryName": "Lamb",
          "SubCategoryRank": 1
        }
      ],
      "Classifications": [
        {
          "ClassficationId": 8,
          "ClassificationName": "Good source of fiber"
        },
        {
          "ClassficationId": 13,
          "ClassificationName": "Good source of vitamin A or C"
        },
        {
          "ClassficationId": 14,
          "ClassificationName": "Generally Nutritious"
        },
        {
          "ClassficationId": 119,
          "ClassificationName": "Diabetes Center"
        }
      ],
      "ComplimentaryRecipes": null,
      "CookingMethod": null,
      "Copyright": null,
      "Courses": [
        "Main dishes"
      ],
      "DietExchange": "2 Starch,1 Vegetable,2 Meat (L)",
      "DishDetails": [
        {
          "Text": "ground beef recipes",
          "Url": "/recipes/dinner/ground-beef-recipes/main.aspx"
        },
        {
          "Text": "top 10 beef recipes",
          "Url": "/recipes/dinner/top-10/beef-recipes/main.aspx"
        },
        {
          "Text": "1 bag 5 dinners",
          "Url": "/recipes/dinner/1Bag5Dinners/1bag5dinnerschickenbeef.aspx"
        },
        {
          "Text": "meatloaf recipes",
          "Url": "/recipes/dinner/meatloaf-recipes/main.aspx"
        }
      ],
      "EndDate": "/Date(-62135575200000-0600)/",
      "HasVideo": false,
      "Ingredients": [
        {
          "FullMeasure": "2 cups",
          "FullWeight": "",
          "IngredientGridHeaders": null,
          "IngredientID": 657,
          "IngredientName": "wheat bran flake cereal",
          "IngredientStep": 10,
          "LanguageId": 0,
          "PostPreparation": "",
          "PrePreparation": "",
          "QuantityNum": 2,
          "QuantityText": "2",
          "QuantityUnit": "cups",
          "RecipeIngredientID": 5773708,
          "TrialMeasure": "",
          "TrialWeight": ""
        },
        {
          "FullMeasure": "1/2 cup",
          "FullWeight": "",
          "IngredientGridHeaders": null,
          "IngredientID": 476,
          "IngredientName": "KRAFT Original Barbecue Sauce",
          "IngredientStep": 20,
          "LanguageId": 0,
          "PostPreparation": ", divided",
          "PrePreparation": "",
          "QuantityNum": 0,
          "QuantityText": "1/2",
          "QuantityUnit": "cup",
          "RecipeIngredientID": 5773709,
          "TrialMeasure": "",
          "TrialWeight": ""
        },
        {
          "FullMeasure": "1/4 cup",
          "FullWeight": "",
          "IngredientGridHeaders": null,
          "IngredientID": 931,
          "IngredientName": "cholesterol-free egg product",
          "IngredientStep": 30,
          "LanguageId": 0,
          "PostPreparation": "",
          "PrePreparation": "",
          "QuantityNum": 0,
          "QuantityText": "1/4",
          "QuantityUnit": "cup",
          "RecipeIngredientID": 5773710,
          "TrialMeasure": "",
          "TrialWeight": ""
        },
        {
          "FullMeasure": "3/4 lb.",
          "FullWeight": "",
          "IngredientGridHeaders": null,
          "IngredientID": 20537,
          "IngredientName": "extra-lean ground beef",
          "IngredientStep": 40,
          "LanguageId": 0,
          "PostPreparation": "",
          "PrePreparation": "",
          "QuantityNum": 0,
          "QuantityText": "3/4",
          "QuantityUnit": "lb.",
          "RecipeIngredientID": 5773705,
          "TrialMeasure": "",
          "TrialWeight": ""
        },
        {
          "FullMeasure": "1",
          "FullWeight": "",
          "IngredientGridHeaders": null,
          "IngredientID": 4080,
          "IngredientName": "yellow onion",
          "IngredientStep": 50,
          "LanguageId": 0,
          "PostPreparation": ", chopped",
          "PrePreparation": "",
          "QuantityNum": 1,
          "QuantityText": "1",
          "QuantityUnit": "",
          "RecipeIngredientID": 5773707,
          "TrialMeasure": "",
          "TrialWeight": ""
        },
        {
          "FullMeasure": "1",
          "FullWeight": "",
          "IngredientGridHeaders": null,
          "IngredientID": 1523,
          "IngredientName": "red pepper",
          "IngredientStep": 60,
          "LanguageId": 0,
          "PostPreparation": ", chopped",
          "PrePreparation": "",
          "QuantityNum": 1,
          "QuantityText": "1",
          "QuantityUnit": "",
          "RecipeIngredientID": 5773706,
          "TrialMeasure": "",
          "TrialWeight": ""
        },
        {
          "FullMeasure": "1/2 cup",
          "FullWeight": "",
          "IngredientGridHeaders": null,
          "IngredientID": 19894,
          "IngredientName": "sweet potato",
          "IngredientStep": 70,
          "LanguageId": 0,
          "PostPreparation": "",
          "PrePreparation": "shredded ",
          "QuantityNum": 0,
          "QuantityText": "1/2",
          "QuantityUnit": "cup",
          "RecipeIngredientID": 5773711,
          "TrialMeasure": "",
          "TrialWeight": ""
        }
      ],
      "IsHealthyLiving": true,
      "KRLId": "542840",
      "KeyIngredients": [
        "Beef",
        "Cereal",
        "Eggs",
        "Meat",
        "Onion",
        "Peppers",
        "Potato",
        "Vegetables"
      ],
      "Keywords": "onions,peppers,potatoes,red peppers,barbecue sauce,beef,bran cereal,bran flakes,cereal,cholesterol free egg product,ground beef,hamburger meat,KRAFT Barbecue Sauce,sweet potatoes,bbq sauce,egg substitute,bell peppers,Aluminum Foil,All Seasons,Meatloaf",
      "LanguageId": 1,
      "LifeStyles": [
        "Good source of fiber",
        "Good source of vitamin A or C",
        "Generally Nutritious",
        "Diabetes Center"
      ],
      "NumberOfIngredients": 7,
      "NumberOfRatings": 0,
      "NumberOfRatingsWithComments": "0",
      "NumberOfServings": "4 servings",
      "NumberOfTrialServings": null,
      "NutritionBonus": "Serve up this made over version of a family favorite comfort food and feel good because this meatloaf contains sweet potato, an excellent source of vitamin A and red peppers, rich in vitamin C.  Plus the fortified wheat bran flake cereal is high in iron and provides a good source of fiber.",
      "NutritionExchangeItemId": 5,
      "NutritionGridItems": null,
      "NutritionItems": [
        {
          "DisplayOrder": 1,
          "Document": null,
          "NutritionItemID": 3,
          "NutritionItemName": "Calories",
          "Predriscriptor": "",
          "Quantity": 270,
          "Unit": "          "
        },
        {
          "DisplayOrder": 2,
          "Document": "fat_cholesterol.html",
          "NutritionItemID": 4,
          "NutritionItemName": "Total fat",
          "Predriscriptor": "",
          "Quantity": 5,
          "Unit": "g         "
        },
        {
          "DisplayOrder": 3,
          "Document": "fat_cholesterol.html",
          "NutritionItemID": 9,
          "NutritionItemName": "Saturated fat",
          "Predriscriptor": "",
          "Quantity": 2,
          "Unit": "g         "
        },
        {
          "DisplayOrder": 7,
          "Document": "fat_cholesterol.html",
          "NutritionItemID": 2,
          "NutritionItemName": "Cholesterol",
          "Predriscriptor": "",
          "Quantity": 45,
          "Unit": "mg        "
        },
        {
          "DisplayOrder": 8,
          "Document": "sodium.html",
          "NutritionItemID": 8,
          "NutritionItemName": "Sodium",
          "Predriscriptor": "",
          "Quantity": 670,
          "Unit": "mg        "
        },
        {
          "DisplayOrder": 10,
          "Document": "carbs_sugars_fiber.html",
          "NutritionItemID": 1,
          "NutritionItemName": "Carbohydrate",
          "Predriscriptor": "",
          "Quantity": 38,
          "Unit": "g         "
        },
        {
          "DisplayOrder": 11,
          "Document": "carbs_sugars_fiber.html",
          "NutritionItemID": 7,
          "NutritionItemName": "Dietary fiber",
          "Predriscriptor": "",
          "Quantity": 5,
          "Unit": "g         "
        },
        {
          "DisplayOrder": 12,
          "Document": "carbs_sugars_fiber.html",
          "NutritionItemID": 5,
          "NutritionItemName": "Sugars",
          "Predriscriptor": "",
          "Quantity": 20,
          "Unit": "g         "
        },
        {
          "DisplayOrder": 13,
          "Document": null,
          "NutritionItemID": 6,
          "NutritionItemName": "Protein",
          "Predriscriptor": "",
          "Quantity": 21,
          "Unit": "g         "
        },
        {
          "DisplayOrder": 14,
          "Document": null,
          "NutritionItemID": 10,
          "NutritionItemName": "Vitamin A",
          "Predriscriptor": "",
          "Quantity": 70,
          "Unit": "%DV       "
        },
        {
          "DisplayOrder": 15,
          "Document": null,
          "NutritionItemID": 11,
          "NutritionItemName": "Vitamin C",
          "Predriscriptor": "",
          "Quantity": 35,
          "Unit": "%DV       "
        },
        {
          "DisplayOrder": 16,
          "Document": "dairy_and_calcium.html",
          "NutritionItemID": 12,
          "NutritionItemName": "Calcium",
          "Predriscriptor": "",
          "Quantity": 6,
          "Unit": "%DV       "
        },
        {
          "DisplayOrder": 17,
          "Document": null,
          "NutritionItemID": 13,
          "NutritionItemName": "Iron",
          "Predriscriptor": "",
          "Quantity": 45,
          "Unit": "%DV       "
        }
      ],
      "NutritionServingText": " ",
      "PrepStepImage": null,
      "PreparationDescription": "Mix cereal, 1/3 cup barbecue sauce and egg product in large bowl until blended.  Add meat and vegetables; mix lightly.$Shape into loaf; place on broiler pan lined with foil.   Brush with remaining barbecue sauce.$Bake 1 hour or until done (160°F).",
      "PreparationPreText": "Heat oven to 375°F.",
      "PreparationSteps": [
        {
          "Description": "Mix cereal, 1/3 cup barbecue sauce and egg product in large bowl until blended.  Add meat and vegetables; mix lightly.",
          "PreparationStepImage": {
            "PictureFormats": [],
            "author": null,
            "id": null,
            "imageType": null,
            "mimeType": null,
            "publicationDate": null,
            "status": null,
            "title": null,
            "type": null
          },
          "Sequence": 1
        },
        {
          "Description": "Shape into loaf; place on broiler pan lined with foil.   Brush with remaining barbecue sauce.",
          "PreparationStepImage": {
            "PictureFormats": [],
            "author": null,
            "id": null,
            "imageType": null,
            "mimeType": null,
            "publicationDate": null,
            "status": null,
            "title": null,
            "type": null
          },
          "Sequence": 2
        },
        {
          "Description": "Bake 1 hour or until done (160°F).",
          "PreparationStepImage": {
            "PictureFormats": [],
            "author": null,
            "id": null,
            "imageType": null,
            "mimeType": null,
            "publicationDate": null,
            "status": null,
            "title": null,
            "type": null
          },
          "Sequence": 3
        }
      ],
      "PreparationTime": 10,
      "Promotion": null,
      "Ratings": {
        "TotalCount": 0,
        "PageCount": 10,
        "PageNo": 1,
        "Rating": []
      },
      "RecipeDisplayFormatId": 5,
      "RecipeId": 153557,
      "RecipeName": "Better Choice Meatloaf",
      "RecipeType": 0,
      "RelatedData": {
        "RelatedBrands": null,
        "RelatedProducts": null,
        "RelatedRecipes": {
          "DefaultTopCount": 5,
          "Recipe": [
            {
              "AverageRating": 4.5,
              "HasVideo": false,
              "IsHealthyLiving": true,
              "NumberOfRatings": 479,
              "PhotoName": "104483_MXM_K52584V0_OR1_CR.jpg",
              "PhotoUrl": "http://assets.kraftfoods.com/recipe_images/opendeploy/104483_MXM_K52584V0_OR1_CR.jpg",
              "RecipeId": 104483,
              "RecipeName": "Favorite Meatloaf",
              "SEOName": "favorite-meatloaf-104483",
              "ThumbnailPhoto": null
            },
            {
              "AverageRating": 5,
              "HasVideo": false,
              "IsHealthyLiving": true,
              "NumberOfRatings": 1,
              "PhotoName": "Weeknight-Mini-Meatloaves-65015.jpg",
              "PhotoUrl": "http://assets.kraftfoods.com/recipe_images/opendeploy/Weeknight-Mini-Meatloaves-65015.jpg",
              "RecipeId": 163181,
              "RecipeName": "Weeknight Meatloaf Muffins",
              "SEOName": "weeknight-meatloaf-muffins-163181",
              "ThumbnailPhoto": null
            },
            {
              "AverageRating": 4.2,
              "HasVideo": false,
              "IsHealthyLiving": true,
              "NumberOfRatings": 259,
              "PhotoName": "90487.jpg",
              "PhotoUrl": "http://assets.kraftfoods.com/recipe_images/opendeploy/90487.jpg",
              "RecipeId": 90487,
              "RecipeName": "Family Classic Meatloaf",
              "SEOName": "family-classic-meatloaf-90487",
              "ThumbnailPhoto": null
            },
            {
              "AverageRating": 4.3,
              "HasVideo": false,
              "IsHealthyLiving": true,
              "NumberOfRatings": 42,
              "PhotoName": "Savory_Turkey_Meatloaf_Florentine.jpg",
              "PhotoUrl": "http://assets.kraftfoods.com/recipe_images/opendeploy/Savory_Turkey_Meatloaf_Florentine.jpg",
              "RecipeId": 54922,
              "RecipeName": "Savory Turkey Meatloaf Florentine",
              "SEOName": "savory-turkey-meatloaf-florentine-54922",
              "ThumbnailPhoto": null
            },
            {
              "AverageRating": 4.5,
              "HasVideo": false,
              "IsHealthyLiving": true,
              "NumberOfRatings": 2,
              "PhotoName": "Our_Perfect_Zesty_Chicken_Tortilla_Bake.jpg",
              "PhotoUrl": "http://assets.kraftfoods.com/recipe_images/opendeploy/Our_Perfect_Zesty_Chicken_Tortilla_Bake.jpg",
              "RecipeId": 148573,
              "RecipeName": "Better Choice Our Perfect Zesty Chicken Tortilla Bake",
              "SEOName": "better-choice-our-perfect-zesty-chicken-tortilla-bake-148573",
              "ThumbnailPhoto": null
            }
          ],
          "TotalCount": 922
        }
      },
      "RiseIngredients": [],
      "RiseTaxonomy": [],
      "Riserecipe": [
        {
          "GRIN": 542840,
          "RecipeId": 153557,
          "RecipeIndustrySector": "Retail",
          "RecipeType": "Internal"
        }
      ],
      "RomanceText": "Extra-lean ground beef, onions and BBQ sauce? Check, check and check. But this meatloaf uses wheat bran flake cereal instead of plain old breadcrumbs.",
      "SEOName": "better-choice-meatloaf-153557",
      "Tips": [
        {
          "RecipeId": 153557,
          "Sequence": 10,
          "TipDescription": "Serve with cooked brown rice and a quick bagged salad tossed with your favorite KRAFT Light Dressing, such as CATALINA.",
          "TipID": 1,
          "TipName": "Serving Suggestion"
        },
        {
          "RecipeId": 153557,
          "Sequence": 30,
          "TipDescription": "Prepare meatloaf as directed; cool, then slice.  Wrap individual portions in foil.  Label, date and place in freezer-weight resealable plastic bags.  When ready to serve, unwrap and microwave until heated through (160°F).",
          "TipID": 5730,
          "TipName": "Special Extra"
        }
      ],
      "TotalTime": 70,
      "TradeMarkInfo": null,
      "Video": [],
      "Yield": "4 servings."
    }
  ]
}