{
  "Metadata": {
    "PageCount": 1,
    "PageNo": 0,
    "TotalCount": 0
  },
  "Recipes": [
    {
      "AdServingKeywords": "Carrot,Jalapeno,Onion,Peppers,Tomato,Vegetables,Side Dish,Nutrition and Well-Being,All Seasons,Claussen,Spicy",
      "AlternateLanguageRecipes": [],
      "Assets": [],
      "AverageRating": 4,
      "BrandId": 1,
      "Branding": null,
      "CSSSkins": null,
      "CarbCounter": null,
      "Categories": [
        {
          "CategoryID": 9,
          "CategoryName": "Salads/Side Dishes",
          "CategoryRank": 13,
          "SubCategoryID": 39,
          "SubCategoryName": "Vegetables Side Dishes",
          "SubCategoryRank": 200
        },
        {
          "CategoryID": 11,
          "CategoryName": "Primary",
          "CategoryRank": 0,
          "SubCategoryID": 99,
          "SubCategoryName": "Side Dishes",
          "SubCategoryRank": 90
        },
        {
          "CategoryID": 757,
          "CategoryName": "Vegetables & Vegetarian Meals",
          "CategoryRank": 11,
          "SubCategoryID": 2569,
          "SubCategoryName": "Entrée",
          "SubCategoryRank": 1
        },
        {
          "CategoryID": 757,
          "CategoryName": "Vegetables & Vegetarian Meals",
          "CategoryRank": 11,
          "SubCategoryID": 2571,
          "SubCategoryName": "Side / Other",
          "SubCategoryRank": 1
        }
      ],
      "Classifications": [
        {
          "ClassficationId": 9,
          "ClassificationName": "Low fat"
        },
        {
          "ClassficationId": 11,
          "ClassificationName": "Low calorie"
        },
        {
          "ClassficationId": 13,
          "ClassificationName": "Good source of vitamin A or C"
        },
        {
          "ClassficationId": 14,
          "ClassificationName": "Generally Nutritious"
        }
      ],
      "ComplimentaryRecipes": null,
      "CookingMethod": null,
      "Copyright": null,
      "Courses": [
        "Main dishes",
        "Salads & sides"
      ],
      "DietExchange": "1 Vegetable",
      "DishDetails": [],
      "EndDate": "/Date(-62135575200000-0600)/",
      "HasVideo": false,
      "Ingredients": [
        {
          "FullMeasure": "1 cup",
          "FullWeight": "",
          "IngredientGridHeaders": null,
          "IngredientID": 116,
          "IngredientName": "CLAUSSEN Bread 'N Butter Pickle Chips",
          "IngredientStep": 10,
          "LanguageId": 0,
          "PostPreparation": ", drained, reserving 1/2 cup liquid",
          "PrePreparation": "",
          "QuantityNum": 1,
          "QuantityText": "1",
          "QuantityUnit": "cup",
          "RecipeIngredientID": 5333293,
          "TrialMeasure": "",
          "TrialWeight": ""
        },
        {
          "FullMeasure": "10",
          "FullWeight": "",
          "IngredientGridHeaders": null,
          "IngredientID": 894,
          "IngredientName": "cherry tomatoes",
          "IngredientStep": 20,
          "LanguageId": 0,
          "PostPreparation": "",
          "PrePreparation": "",
          "QuantityNum": 10,
          "QuantityText": "10",
          "QuantityUnit": "",
          "RecipeIngredientID": 5333296,
          "TrialMeasure": "",
          "TrialWeight": ""
        },
        {
          "FullMeasure": "1 large",
          "FullWeight": "",
          "IngredientGridHeaders": null,
          "IngredientID": 883,
          "IngredientName": "carrot",
          "IngredientStep": 30,
          "LanguageId": 0,
          "PostPreparation": ", sliced diagonally",
          "PrePreparation": "",
          "QuantityNum": 1,
          "QuantityText": "1",
          "QuantityUnit": "large",
          "RecipeIngredientID": 5333295,
          "TrialMeasure": "",
          "TrialWeight": ""
        },
        {
          "FullMeasure": "1/2",
          "FullWeight": "",
          "IngredientGridHeaders": null,
          "IngredientID": 1370,
          "IngredientName": "onion",
          "IngredientStep": 40,
          "LanguageId": 0,
          "PostPreparation": ", cut into strips",
          "PrePreparation": "of a small",
          "QuantityNum": 0,
          "QuantityText": "1/2",
          "QuantityUnit": "",
          "RecipeIngredientID": 5333297,
          "TrialMeasure": "",
          "TrialWeight": ""
        },
        {
          "FullMeasure": "1/4 cup",
          "FullWeight": "",
          "IngredientGridHeaders": null,
          "IngredientID": 1414,
          "IngredientName": "pickled jalapeño slices",
          "IngredientStep": 50,
          "LanguageId": 0,
          "PostPreparation": ", drained, reserving 2 Tbsp. liquid",
          "PrePreparation": "",
          "QuantityNum": 0,
          "QuantityText": "1/4",
          "QuantityUnit": "cup",
          "RecipeIngredientID": 5333294,
          "TrialMeasure": "",
          "TrialWeight": ""
        }
      ],
      "IsHealthyLiving": true,
      "KRLId": "507094",
      "KeyIngredients": [
        "Carrot",
        "Fruit",
        "Jalapeno",
        "Onion",
        "Peppers",
        "Tomato",
        "Vegetables"
      ],
      "Keywords": "onions,peppers,pickles,carrots,CLAUSSEN Pickles,hot peppers,jalapeno peppers,tomatoes,chile peppers,cherry tomatoes,Side Dish,Nutrition and Well-Being,All Seasons,Spicy",
      "LanguageId": 1,
      "LifeStyles": [
        "Low fat",
        "Low calorie",
        "Good source of vitamin A or C",
        "Generally Nutritious"
      ],
      "NumberOfIngredients": 5,
      "NumberOfRatings": 1,
      "NumberOfRatingsWithComments": "0",
      "NumberOfServings": "8 servings, about 1/2 cup each",
      "NumberOfTrialServings": null,
      "NutritionBonus": "The carrots in this unique vegetable side dish provide a good source of vitamin A!",
      "NutritionExchangeItemId": 1,
      "NutritionGridItems": null,
      "NutritionItems": [
        {
          "DisplayOrder": 1,
          "Document": null,
          "NutritionItemID": 3,
          "NutritionItemName": "Calories",
          "Predriscriptor": "",
          "Quantity": 25,
          "Unit": "          "
        },
        {
          "DisplayOrder": 2,
          "Document": "fat_cholesterol.html",
          "NutritionItemID": 4,
          "NutritionItemName": "Total fat",
          "Predriscriptor": "",
          "Quantity": 0,
          "Unit": "g         "
        },
        {
          "DisplayOrder": 3,
          "Document": "fat_cholesterol.html",
          "NutritionItemID": 9,
          "NutritionItemName": "Saturated fat",
          "Predriscriptor": "",
          "Quantity": 0,
          "Unit": "g         "
        },
        {
          "DisplayOrder": 7,
          "Document": "fat_cholesterol.html",
          "NutritionItemID": 2,
          "NutritionItemName": "Cholesterol",
          "Predriscriptor": "",
          "Quantity": 0,
          "Unit": "mg        "
        },
        {
          "DisplayOrder": 8,
          "Document": "sodium.html",
          "NutritionItemID": 8,
          "NutritionItemName": "Sodium",
          "Predriscriptor": "",
          "Quantity": 190,
          "Unit": "mg        "
        },
        {
          "DisplayOrder": 10,
          "Document": "carbs_sugars_fiber.html",
          "NutritionItemID": 1,
          "NutritionItemName": "Carbohydrate",
          "Predriscriptor": "",
          "Quantity": 6,
          "Unit": "g         "
        },
        {
          "DisplayOrder": 11,
          "Document": "carbs_sugars_fiber.html",
          "NutritionItemID": 7,
          "NutritionItemName": "Dietary fiber",
          "Predriscriptor": "Less than",
          "Quantity": 1,
          "Unit": "g         "
        },
        {
          "DisplayOrder": 12,
          "Document": "carbs_sugars_fiber.html",
          "NutritionItemID": 5,
          "NutritionItemName": "Sugars",
          "Predriscriptor": "",
          "Quantity": 4,
          "Unit": "g         "
        },
        {
          "DisplayOrder": 13,
          "Document": null,
          "NutritionItemID": 6,
          "NutritionItemName": "Protein",
          "Predriscriptor": "",
          "Quantity": 0,
          "Unit": "g         "
        },
        {
          "DisplayOrder": 14,
          "Document": null,
          "NutritionItemID": 10,
          "NutritionItemName": "Vitamin A",
          "Predriscriptor": "",
          "Quantity": 25,
          "Unit": "%DV       "
        },
        {
          "DisplayOrder": 15,
          "Document": null,
          "NutritionItemID": 11,
          "NutritionItemName": "Vitamin C",
          "Predriscriptor": "",
          "Quantity": 6,
          "Unit": "%DV       "
        },
        {
          "DisplayOrder": 16,
          "Document": "dairy_and_calcium.html",
          "NutritionItemID": 12,
          "NutritionItemName": "Calcium",
          "Predriscriptor": "",
          "Quantity": 0,
          "Unit": "%DV       "
        },
        {
          "DisplayOrder": 17,
          "Document": null,
          "NutritionItemID": 13,
          "NutritionItemName": "Iron",
          "Predriscriptor": "",
          "Quantity": 0,
          "Unit": "%DV       "
        }
      ],
      "NutritionServingText": null,
      "PrepStepImage": null,
      "PreparationDescription": "Mix all ingredients, including reserved pickle and jalapeno liquids, in covered container or resealable plastic bag.$Refrigerate at least 2 hours to marinate before serving.",
      "PreparationPreText": null,
      "PreparationSteps": [
        {
          "Description": "Mix all ingredients, including reserved pickle and jalapeno liquids, in covered container or resealable plastic bag.",
          "PreparationStepImage": {
            "PictureFormats": [],
            "author": null,
            "id": null,
            "imageType": null,
            "mimeType": null,
            "publicationDate": null,
            "status": null,
            "title": null,
            "type": null
          },
          "Sequence": 1
        },
        {
          "Description": "Refrigerate at least 2 hours to marinate before serving.",
          "PreparationStepImage": {
            "PictureFormats": [],
            "author": null,
            "id": null,
            "imageType": null,
            "mimeType": null,
            "publicationDate": null,
            "status": null,
            "title": null,
            "type": null
          },
          "Sequence": 2
        }
      ],
      "PreparationTime": 10,
      "Promotion": null,
      "Ratings": {
        "TotalCount": 1,
        "PageCount": 10,
        "PageNo": 1,
        "Rating": [
          {
            "Comment": "",
            "DisplayName": true,
            "RatingValue": 4,
            "SubmitDate": "/Date(1035319432000-0500)/",
            "UpdatedDate": "/Date(1035319432000-0500)/",
            "UserName": "mkraynik"
          }
        ]
      },
      "RecipeDisplayFormatId": 5,
      "RecipeId": 54561,
      "RecipeName": "Sweet & Spicy Pickled Vegetables",
      "RecipeType": 0,
      "RelatedData": {
        "RelatedBrands": null,
        "RelatedProducts": null,
        "RelatedRecipes": {
          "DefaultTopCount": 5,
          "Recipe": [
            {
              "AverageRating": 4.5,
              "HasVideo": false,
              "IsHealthyLiving": true,
              "NumberOfRatings": 2,
              "PhotoName": "Spicy_Vegetable_Pickles.jpg",
              "PhotoUrl": "http://assets.kraftfoods.com/recipe_images/opendeploy/Spicy_Vegetable_Pickles.jpg",
              "RecipeId": 52331,
              "RecipeName": "Spicy Vegetable Pickles",
              "SEOName": "spicy-vegetable-pickles-52331",
              "ThumbnailPhoto": null
            },
            {
              "AverageRating": 5,
              "HasVideo": false,
              "IsHealthyLiving": true,
              "NumberOfRatings": 1,
              "PhotoName": "148917.jpg",
              "PhotoUrl": "http://assets.kraftfoods.com/recipe_images/opendeploy/148917.jpg",
              "RecipeId": 148917,
              "RecipeName": "MIRACLE WHIP Sweet & Spicy Tuna",
              "SEOName": "miracle-whip-sweet-spicy-tuna-148917",
              "ThumbnailPhoto": null
            },
            {
              "AverageRating": 4.3,
              "HasVideo": false,
              "IsHealthyLiving": false,
              "NumberOfRatings": 24,
              "PhotoName": "NYC_Dog.jpg",
              "PhotoUrl": "http://assets.kraftfoods.com/recipe_images/opendeploy/NYC_Dog.jpg",
              "RecipeId": 53673,
              "RecipeName": "Sweet 'N Sauer Dog",
              "SEOName": "sweet-n-sauer-dog-53673",
              "ThumbnailPhoto": null
            },
            {
              "AverageRating": 4,
              "HasVideo": false,
              "IsHealthyLiving": false,
              "NumberOfRatings": 2,
              "PhotoName": "Spicy_Tartar_Sauce.jpg",
              "PhotoUrl": "http://assets.kraftfoods.com/recipe_images/opendeploy/Spicy_Tartar_Sauce.jpg",
              "RecipeId": 92003,
              "RecipeName": "Spicy Tartar Sauce Recipe",
              "SEOName": "spicy-tartar-sauce-recipe-92003",
              "ThumbnailPhoto": null
            },
            {
              "AverageRating": 4.3,
              "HasVideo": false,
              "IsHealthyLiving": false,
              "NumberOfRatings": 14,
              "PhotoName": "She-Deviled-Eggs-59393.jpg",
              "PhotoUrl": "http://assets.kraftfoods.com/recipe_images/opendeploy/She-Deviled-Eggs-59393.jpg",
              "RecipeId": 120239,
              "RecipeName": "Paula Deen's She Deviled Eggs",
              "SEOName": "paula-deens-she-deviled-eggs-120239",
              "ThumbnailPhoto": null
            }
          ],
          "TotalCount": 1986
        }
      },
      "RiseIngredients": [],
      "RiseTaxonomy": [],
      "Riserecipe": [
        {
          "GRIN": 507094,
          "RecipeId": 54561,
          "RecipeIndustrySector": "Retail",
          "RecipeType": "Internal"
        }
      ],
      "RomanceText": "If you've never made your own pickled vegetables, this sweet and spicy blend is a great place to start—and it only takes 10 minutes to get prepped.",
      "SEOName": "sweet-spicy-pickled-vegetables-54561",
      "Tips": [
        {
          "RecipeId": 54561,
          "Sequence": 20,
          "TipDescription": "Add 1/2 cup finely chopped red peppers to the vegetable mixture before marinating.",
          "TipID": 1,
          "TipName": "Special Extra"
        },
        {
          "RecipeId": 54561,
          "Sequence": 30,
          "TipDescription": "Substitute 1 medium tomato, cut into chunks, for the cherry tomatoes.",
          "TipID": 2,
          "TipName": "Substitute"
        }
      ],
      "TotalTime": 130,
      "TradeMarkInfo": null,
      "Video": [],
      "Yield": "Makes 8 servings, about 1/2 cup each."
    }
  ]
}