{
  "Metadata": {
    "PageCount": 1,
    "PageNo": 0,
    "TotalCount": 0
  },
  "Recipes": [
    {
      "AdServingKeywords": "Beans / Legumes,Cheddar,Cheese,Dairy,Onion,Pasta/Noodles,Sour Cream,Vegetables,Dinner,Lunch,Breakstones,Knudsen,Kraft Cheese,Kraft Shredded Cheese",
      "AlternateLanguageRecipes": [],
      "Assets": [],
      "AverageRating": 0,
      "BrandId": 1,
      "Branding": null,
      "CSSSkins": null,
      "CarbCounter": "2-1/2",
      "Categories": [
        {
          "CategoryID": 11,
          "CategoryName": "Primary",
          "CategoryRank": 0,
          "SubCategoryID": 100,
          "SubCategoryName": "Soups",
          "SubCategoryRank": 100
        },
        {
          "CategoryID": 14,
          "CategoryName": "Soup/Sandwiches",
          "CategoryRank": 14,
          "SubCategoryID": 448,
          "SubCategoryName": "Chili",
          "SubCategoryRank": 20
        },
        {
          "CategoryID": 755,
          "CategoryName": "International Flavours",
          "CategoryRank": 9,
          "SubCategoryID": 2555,
          "SubCategoryName": "Mexican / Spanish",
          "SubCategoryRank": 1
        }
      ],
      "Classifications": [
        {
          "ClassficationId": 9,
          "ClassificationName": "Low fat"
        },
        {
          "ClassficationId": 11,
          "ClassificationName": "Low calorie"
        },
        {
          "ClassficationId": 14,
          "ClassificationName": "Generally Nutritious"
        },
        {
          "ClassficationId": 119,
          "ClassificationName": "Diabetes Center"
        }
      ],
      "ComplimentaryRecipes": [
        {
          "AverageRating": 0,
          "HasVideo": false,
          "IsHealthyLiving": false,
          "NumberOfRatings": 0,
          "PhotoName": null,
          "PhotoUrl": null,
          "RecipeId": 112395,
          "RecipeName": null,
          "SEOName": "slow-cooker-chunky-chicken-chili-112395",
          "ThumbnailPhoto": "112395.jpg"
        }
      ],
      "CookingMethod": null,
      "Copyright": null,
      "Courses": [
        "Soups/stews"
      ],
      "DietExchange": "1-1/2 Starch,2 Vegetable,3 Meat (L),1/2 Fat",
      "DishDetails": [],
      "EndDate": "/Date(-62135575200000-0600)/",
      "HasVideo": false,
      "Ingredients": [
        {
          "FullMeasure": "1",
          "FullWeight": "",
          "IngredientGridHeaders": null,
          "IngredientID": 1370,
          "IngredientName": "onion",
          "IngredientStep": 10,
          "LanguageId": 0,
          "PostPreparation": ", chopped, divided",
          "PrePreparation": "",
          "QuantityNum": 1,
          "QuantityText": "1",
          "QuantityUnit": "",
          "RecipeIngredientID": 6213757,
          "TrialMeasure": "",
          "TrialWeight": ""
        },
        {
          "FullMeasure": "3/4 lb.",
          "FullWeight": "",
          "IngredientGridHeaders": null,
          "IngredientID": 22479,
          "IngredientName": "extra-lean 99% fat-free ground turkey breast",
          "IngredientStep": 20,
          "LanguageId": 0,
          "PostPreparation": "",
          "PrePreparation": "",
          "QuantityNum": 0,
          "QuantityText": "3/4",
          "QuantityUnit": "lb.",
          "RecipeIngredientID": 6213760,
          "TrialMeasure": "",
          "TrialWeight": ""
        },
        {
          "FullMeasure": "1 can",
          "FullWeight": "",
          "IngredientGridHeaders": null,
          "IngredientID": 19925,
          "IngredientName": "chili beans",
          "IngredientStep": 30,
          "LanguageId": 0,
          "PostPreparation": "",
          "PrePreparation": "(15.5 oz.)",
          "QuantityNum": 1,
          "QuantityText": "1",
          "QuantityUnit": "can",
          "RecipeIngredientID": 6213758,
          "TrialMeasure": "",
          "TrialWeight": ""
        },
        {
          "FullMeasure": "1 can",
          "FullWeight": "",
          "IngredientGridHeaders": null,
          "IngredientID": 32548,
          "IngredientName": "diced tomatoes with green peppers and onions",
          "IngredientStep": 40,
          "LanguageId": 0,
          "PostPreparation": ", undrained",
          "PrePreparation": "(14.5 oz.)",
          "QuantityNum": 1,
          "QuantityText": "1",
          "QuantityUnit": "can",
          "RecipeIngredientID": 6213759,
          "TrialMeasure": "",
          "TrialWeight": ""
        },
        {
          "FullMeasure": "1/2 cup",
          "FullWeight": "",
          "IngredientGridHeaders": null,
          "IngredientID": 1068,
          "IngredientName": "elbow macaroni",
          "IngredientStep": 50,
          "LanguageId": 0,
          "PostPreparation": ", uncooked",
          "PrePreparation": "",
          "QuantityNum": 0,
          "QuantityText": "1/2",
          "QuantityUnit": "cup",
          "RecipeIngredientID": 6213754,
          "TrialMeasure": "",
          "TrialWeight": ""
        },
        {
          "FullMeasure": "1/2 cup",
          "FullWeight": "",
          "IngredientGridHeaders": null,
          "IngredientID": 3717,
          "IngredientName": "KRAFT 2% Milk Shredded Sharp Cheddar Cheese",
          "IngredientStep": 60,
          "LanguageId": 0,
          "PostPreparation": "",
          "PrePreparation": "",
          "QuantityNum": 0,
          "QuantityText": "1/2",
          "QuantityUnit": "cup",
          "RecipeIngredientID": 6213755,
          "TrialMeasure": "",
          "TrialWeight": ""
        },
        {
          "FullMeasure": "1/4 cup",
          "FullWeight": "",
          "IngredientGridHeaders": null,
          "IngredientID": 81,
          "IngredientName": "BREAKSTONE'S FREE or KNUDSEN Fat Free Sour Cream",
          "IngredientStep": 70,
          "LanguageId": 0,
          "PostPreparation": "",
          "PrePreparation": "",
          "QuantityNum": 0,
          "QuantityText": "1/4",
          "QuantityUnit": "cup",
          "RecipeIngredientID": 6213756,
          "TrialMeasure": "",
          "TrialWeight": ""
        }
      ],
      "IsHealthyLiving": true,
      "KRLId": "578843",
      "KeyIngredients": [
        "Beans / Legumes",
        "Cheddar",
        "Cheese",
        "Dairy",
        "Onion",
        "Pasta",
        "Vegetables"
      ],
      "Keywords": "onions,pasta,beans,BREAKSTONE'S Sour Cream,KNUDSEN Sour Cream,KRAFT Cheddar Cheese,macaroni pasta,meat,tomatoes,turkey,sour cream-nonfat,cheddar cheese-reduced fat,turkey-ground,cheese-reduced fat,2% milk,Dinner,Lunch",
      "LanguageId": 1,
      "LifeStyles": [
        "Low fat",
        "Low calorie",
        "Generally Nutritious",
        "Diabetes Center"
      ],
      "NumberOfIngredients": 7,
      "NumberOfRatings": 0,
      "NumberOfRatingsWithComments": "0",
      "NumberOfServings": "4 servings, about 1 cup each",
      "NumberOfTrialServings": "",
      "NutritionBonus": "Better-for-you ingredients make this delicious, yet low-calorie and low-fat, chili a smart option for your balanced eating plan.",
      "NutritionExchangeItemId": 1,
      "NutritionGridItems": null,
      "NutritionItems": [
        {
          "DisplayOrder": 1,
          "Document": null,
          "NutritionItemID": 3,
          "NutritionItemName": "Calories",
          "Predriscriptor": "",
          "Quantity": 320,
          "Unit": "          "
        },
        {
          "DisplayOrder": 2,
          "Document": "fat_cholesterol.html",
          "NutritionItemID": 4,
          "NutritionItemName": "Total fat",
          "Predriscriptor": "",
          "Quantity": 5,
          "Unit": "g         "
        },
        {
          "DisplayOrder": 3,
          "Document": "fat_cholesterol.html",
          "NutritionItemID": 9,
          "NutritionItemName": "Saturated fat",
          "Predriscriptor": "",
          "Quantity": 2.5,
          "Unit": "g         "
        },
        {
          "DisplayOrder": 7,
          "Document": "fat_cholesterol.html",
          "NutritionItemID": 2,
          "NutritionItemName": "Cholesterol",
          "Predriscriptor": "",
          "Quantity": 50,
          "Unit": "mg        "
        },
        {
          "DisplayOrder": 8,
          "Document": "sodium.html",
          "NutritionItemID": 8,
          "NutritionItemName": "Sodium",
          "Predriscriptor": "",
          "Quantity": 940,
          "Unit": "mg        "
        },
        {
          "DisplayOrder": 10,
          "Document": "carbs_sugars_fiber.html",
          "NutritionItemID": 1,
          "NutritionItemName": "Carbohydrate",
          "Predriscriptor": "",
          "Quantity": 40,
          "Unit": "g         "
        },
        {
          "DisplayOrder": 11,
          "Document": "carbs_sugars_fiber.html",
          "NutritionItemID": 7,
          "NutritionItemName": "Dietary fiber",
          "Predriscriptor": "",
          "Quantity": 7,
          "Unit": "g         "
        },
        {
          "DisplayOrder": 12,
          "Document": "carbs_sugars_fiber.html",
          "NutritionItemID": 5,
          "NutritionItemName": "Sugars",
          "Predriscriptor": "",
          "Quantity": 11,
          "Unit": "g         "
        },
        {
          "DisplayOrder": 13,
          "Document": null,
          "NutritionItemID": 6,
          "NutritionItemName": "Protein",
          "Predriscriptor": "",
          "Quantity": 32,
          "Unit": "g         "
        },
        {
          "DisplayOrder": 14,
          "Document": null,
          "NutritionItemID": 10,
          "NutritionItemName": "Vitamin A",
          "Predriscriptor": "",
          "Quantity": 8,
          "Unit": "%DV       "
        },
        {
          "DisplayOrder": 15,
          "Document": null,
          "NutritionItemID": 11,
          "NutritionItemName": "Vitamin C",
          "Predriscriptor": "",
          "Quantity": 10,
          "Unit": "%DV       "
        },
        {
          "DisplayOrder": 16,
          "Document": "dairy_and_calcium.html",
          "NutritionItemID": 12,
          "NutritionItemName": "Calcium",
          "Predriscriptor": "",
          "Quantity": 30,
          "Unit": "%DV       "
        },
        {
          "DisplayOrder": 17,
          "Document": null,
          "NutritionItemID": 13,
          "NutritionItemName": "Iron",
          "Predriscriptor": "",
          "Quantity": 20,
          "Unit": "%DV       "
        }
      ],
      "NutritionServingText": " ",
      "PrepStepImage": null,
      "PreparationDescription": "Reserve 1/4 cup onions.  Brown meat with remaining onions in skillet; drain.  Spoon into slow cooker sprayed with cooking spray.  $Stir in beans and tomatoes; cover with lid.$Cook on LOW 5 to 6 hours (or on HIGH 3 to 4 hours).\r\n$Stir in macaroni; cook, covered, 30 min. or until tender.$Stir chili.  Serve topped with cheese, sour cream and reserved onions.",
      "PreparationPreText": "",
      "PreparationSteps": [
        {
          "Description": "Reserve 1/4 cup onions.  Brown meat with remaining onions in skillet; drain.  Spoon into slow cooker sprayed with cooking spray.  ",
          "PreparationStepImage": {
            "PictureFormats": [],
            "author": null,
            "id": null,
            "imageType": null,
            "mimeType": null,
            "publicationDate": null,
            "status": null,
            "title": null,
            "type": null
          },
          "Sequence": 1
        },
        {
          "Description": "Stir in beans and tomatoes; cover with lid.",
          "PreparationStepImage": {
            "PictureFormats": [],
            "author": null,
            "id": null,
            "imageType": null,
            "mimeType": null,
            "publicationDate": null,
            "status": null,
            "title": null,
            "type": null
          },
          "Sequence": 2
        },
        {
          "Description": "Cook on LOW 5 to 6 hours (or on HIGH 3 to 4 hours).\r\n",
          "PreparationStepImage": {
            "PictureFormats": [],
            "author": null,
            "id": null,
            "imageType": null,
            "mimeType": null,
            "publicationDate": null,
            "status": null,
            "title": null,
            "type": null
          },
          "Sequence": 3
        },
        {
          "Description": "Stir in macaroni; cook, covered, 30 min. or until tender.",
          "PreparationStepImage": {
            "PictureFormats": [],
            "author": null,
            "id": null,
            "imageType": null,
            "mimeType": null,
            "publicationDate": null,
            "status": null,
            "title": null,
            "type": null
          },
          "Sequence": 4
        },
        {
          "Description": "Stir chili.  Serve topped with cheese, sour cream and reserved onions.",
          "PreparationStepImage": {
            "PictureFormats": [],
            "author": null,
            "id": null,
            "imageType": null,
            "mimeType": null,
            "publicationDate": null,
            "status": null,
            "title": null,
            "type": null
          },
          "Sequence": 5
        }
      ],
      "PreparationTime": 20,
      "Promotion": null,
      "Ratings": {
        "TotalCount": 0,
        "PageCount": 10,
        "PageNo": 1,
        "Rating": []
      },
      "RecipeDisplayFormatId": 5,
      "RecipeId": 206727,
      "RecipeName": "Slow-Cooker Turkey Chili Mac",
      "RecipeType": 0,
      "RelatedData": {
        "RelatedBrands": null,
        "RelatedProducts": null,
        "RelatedRecipes": {
          "DefaultTopCount": 5,
          "Recipe": [
            {
              "AverageRating": 4,
              "HasVideo": false,
              "IsHealthyLiving": false,
              "NumberOfRatings": 1,
              "PhotoName": "171707_TMB_66739v0_CR.jpg",
              "PhotoUrl": "http://assets.kraftfoods.com/recipe_images/opendeploy/171707_TMB_66739v0_CR.jpg",
              "RecipeId": 171707,
              "RecipeName": "Delicious Cold Day Slow Cooker Chili",
              "SEOName": "delicious-cold-day-slow-cooker-chili-171707",
              "ThumbnailPhoto": null
            },
            {
              "AverageRating": 4.5,
              "HasVideo": false,
              "IsHealthyLiving": true,
              "NumberOfRatings": 119,
              "PhotoName": "56214.jpg",
              "PhotoUrl": "http://assets.kraftfoods.com/recipe_images/opendeploy/56214.jpg",
              "RecipeId": 56214,
              "RecipeName": "Quick Turkey Chili",
              "SEOName": "quick-turkey-chili-56214",
              "ThumbnailPhoto": null
            },
            {
              "AverageRating": 4.7,
              "HasVideo": false,
              "IsHealthyLiving": false,
              "NumberOfRatings": 6,
              "PhotoName": "Pats-Famous-BBQ-Chili-60644.jpg",
              "PhotoUrl": "http://assets.kraftfoods.com/recipe_images/opendeploy/Pats-Famous-BBQ-Chili-60644.jpg",
              "RecipeId": 126887,
              "RecipeName": "BBQ Turkey Chili",
              "SEOName": "bbq-turkey-chili-126887",
              "ThumbnailPhoto": null
            },
            {
              "AverageRating": 5,
              "HasVideo": false,
              "IsHealthyLiving": true,
              "NumberOfRatings": 1,
              "PhotoName": "148049.jpg",
              "PhotoUrl": "http://assets.kraftfoods.com/recipe_images/opendeploy/148049.jpg",
              "RecipeId": 148049,
              "RecipeName": "Slow-Cooker Turkey-Stuffed Peppers",
              "SEOName": "slow-cooker-turkey-stuffed-peppers-148049",
              "ThumbnailPhoto": null
            },
            {
              "AverageRating": 4.6,
              "HasVideo": false,
              "IsHealthyLiving": true,
              "NumberOfRatings": 10,
              "PhotoName": "167574.jpg",
              "PhotoUrl": "http://assets.kraftfoods.com/recipe_images/opendeploy/167574.jpg",
              "RecipeId": 167574,
              "RecipeName": "Slow-Cooker Italian-Stuffed Peppers",
              "SEOName": "slow-cooker-italian-stuffed-peppers-167574",
              "ThumbnailPhoto": null
            }
          ],
          "TotalCount": 765
        }
      },
      "RiseIngredients": [],
      "RiseTaxonomy": [],
      "Riserecipe": [
        {
          "GRIN": 578843,
          "RecipeId": 206727,
          "RecipeIndustrySector": "Retail",
          "RecipeType": "Internal"
        }
      ],
      "RomanceText": "Discover the great taste of our Slow-Cooker Turkey Chili Mac. Our Slow-Cooker Turkey Chili Mac is a HEALTHY LIVING recipe with a full-bodied taste.",
      "SEOName": "slow-cooker-turkey-chili-mac-206727",
      "Tips": [
        {
          "RecipeId": 206727,
          "Sequence": 10,
          "TipDescription": "Serve with a bagged green salad tossed with your favorite KRAFT Dressing, such as Italian or Ranch. ",
          "TipID": 4518,
          "TipName": "Serving Suggestion"
        }
      ],
      "TotalTime": 350,
      "TradeMarkInfo": null,
      "Video": [],
      "Yield": "4 servings, about 1 cup each"
    }
  ]
}